// Created by Crowbar 0.51.0.0

$modelname "Zombie/Poison.mdl"

$bodygroup "studio"
{
	studio "Poison_Zombie_reference.smd"
}
$bodygroup "headcrab1"
{
	studio "Poison_UnknownModelName.smd"
	studio "Poison_Headcrab_1_reference.smd"
}
$bodygroup "headcrab2"
{
	studio "Poison_UnknownModelName_2.smd"
	studio "Poison_Headcrab_2_reference.smd"
}
$bodygroup "headcrab3"
{
	studio "Poison_UnknownModelName_3.smd"
	studio "Poison_Headcrab_3_reference.smd"
}
$bodygroup "headcrab4"
{
	studio "Poison_UnknownModelName_4.smd"
	studio "Poison_Headcrab_4_reference.smd"
}
$bodygroup "headcrab5"
{
	studio "Poison_UnknownModelName_5.smd"
	studio "Poison_Headcrab_5_reference.smd"
}


$surfaceprop "flesh"

$contents "solid"

$eyeposition 0 0 64

$cdmaterials "models\headcrab_black\"
$cdmaterials "models\zombie_poison\"
$cdmaterials "models\zombie_classic\"
$cdmaterials "models\zombie\"

$attachment "eyes" "ValveBiped.Bip01_Spine4" 10 0 0 rotate 0 0 -180
$attachment "head" "ValveBiped.Bip01_Spine4" 10 0 0 rotate 0 0 -180
$attachment "chest" "ValveBiped.Bip01_Spine4" -6 0 4 rotate 0 0 0
$attachment "headcrab1" "ValveBiped.Headcrab_Cube1" 0 0 0 rotate 0 0 0
$attachment "headcrab2" "ValveBiped.Headcrab_Cube2" 0 0 0 rotate 0 0 0
$attachment "headcrab3" "ValveBiped.Headcrab_Cube3" 0 0 0 rotate 0 0 0
$attachment "headcrab4" "ValveBiped.Headcrab_Cube4" 0 0 0 rotate 0 0 0
$attachment "headcrab5" "ValveBiped.HC5_Bodybox" 0 0 0 rotate 0 0 0
$attachment "Blood_Left" "ValveBiped.Bip01_L_Finger2" 0 0 0 rotate 0 0 0
$attachment "Blood_Right" "ValveBiped.Bip01_R_Finger2" 0 0 0 rotate 0 0 0


$bonemerge "ValveBiped.Bip01" 
$bonemerge "ValveBiped.Bip01_Spine" 
$bonemerge "ValveBiped.Bip01_Spine1" 
$bonemerge "ValveBiped.Bip01_Spine2" 
$bonemerge "ValveBiped.Bip01_Spine4" 
$bonemerge "ValveBiped.Bip01_L_Clavicle" 
$bonemerge "ValveBiped.Bip01_L_UpperArm" 
$bonemerge "ValveBiped.Bip01_L_Forearm" 
$bonemerge "ValveBiped.Bip01_L_Hand" 
$bonemerge "ValveBiped.Bip01_L_Finger1" 
$bonemerge "ValveBiped.Bip01_L_Finger11" 
$bonemerge "ValveBiped.Bip01_L_Finger2" 
$bonemerge "ValveBiped.Bip01_L_Finger21" 
$bonemerge "ValveBiped.Bip01_L_Finger3" 
$bonemerge "ValveBiped.Bip01_L_Finger31" 
$bonemerge "ValveBiped.Bip01_L_Finger32" 
$bonemerge "ValveBiped.Bip01_R_Clavicle" 
$bonemerge "ValveBiped.Bip01_R_UpperArm" 
$bonemerge "ValveBiped.Bip01_R_Forearm" 
$bonemerge "ValveBiped.Bip01_R_Hand" 
$bonemerge "ValveBiped.Bip01_R_Finger3" 
$bonemerge "ValveBiped.Bip01_Pelvis" 
$bonemerge "ValveBiped.Bip01_L_Thigh" 
$bonemerge "ValveBiped.Bip01_L_Calf" 
$bonemerge "ValveBiped.Bip01_L_Foot" 
$bonemerge "ValveBiped.Bip01_L_Toe0" 
$bonemerge "ValveBiped.Bip01_R_Thigh" 
$bonemerge "ValveBiped.Bip01_R_Calf" 
$bonemerge "ValveBiped.Bip01_R_Foot" 
$bonemerge "ValveBiped.Bip01_R_Toe0" 

$cbox 0 0 0 0 0 0

$bbox -25.384 -29.662 -5.666 22.583 42.985 60.878

// $hboxset "default"
// $hbox 0 "ValveBiped.Bip01_Spine2" -13.27 -16.85 -5.66 12.15 16.950001 5.2 ""
// $hbox 0 "ValveBiped.Bip01_L_UpperArm" 0 -3.58 -4.05 14.78 3.41 3.53 ""
// $hbox 0 "ValveBiped.Bip01_L_Forearm" -4.9 -4.1 -2.47 12.87 2.17 3.53 ""
// $hbox 0 "ValveBiped.Bip01_L_Hand" 0 -1.18 -3.47 6.03 1.71 2.35 ""
// $hbox 0 "ValveBiped.Bip01_R_UpperArm" -0.21 -2.87 -3.32 14.78 4 3.16 ""
// $hbox 0 "ValveBiped.Bip01_R_Forearm" -2.24 -2.14 -2.47 13.98 3.49 3.48 ""
// $hbox 0 "ValveBiped.Bip01_R_Hand" -0.49 -1.91 -2.06 6.52 1.59 3.39 ""
// $hbox 0 "ValveBiped.Bip01_Pelvis" -3.89 -0.55 0 3.89 1.02 4.02 ""
// $hbox 0 "ValveBiped.Bip01_L_Thigh" -6.85 -6.06 -7.08 21.559999 7.15 5.17 ""
// $hbox 0 "ValveBiped.Bip01_L_Calf" -2.88 -6.92 -4.61 21.51 3.9 4.14 ""
// $hbox 0 "ValveBiped.Bip01_L_Foot" -3.92 -4.2 -3.45 9.46 4.09 3.41 ""
// $hbox 0 "ValveBiped.Bip01_R_Thigh" -6.16 -6 -5.73 21.68 5.63 6.48 ""
// $hbox 0 "ValveBiped.Bip01_R_Calf" -4.24 -4.17 -5.02 21.959999 6.11 4.18 ""
// $hbox 0 "ValveBiped.Bip01_R_Foot" -1.1 -4.27 -2.72 9.38 4.02 3.47 ""
// $hbox 1 "ValveBiped.Headcrab_Cube1" -9.19 -8.7 -7.19 7.83 7.24 3.19 ""


$sequence "ragdoll" {
	"Poison_anims\ragdoll.smd"
	activity "ACT_DIERAGDOLL" 1
	fadein 0.2
	fadeout 0.2
	fps 30
}

$includemodel "zombie/anims_poison.mdl"

$collisionjoints "Poison_physics.smd"
{
	$mass 115
	$inertia 10
	$damping 0.01
	$rotdamping 1.5
	$rootbone "valvebiped.bip01_pelvis"


	$jointconstrain "ValveBiped.Bip01_R_Thigh" x limit -28 30 0.04
	$jointconstrain "ValveBiped.Bip01_R_Thigh" y limit -46 10 0.04
	$jointconstrain "ValveBiped.Bip01_R_Thigh" z limit -59 59 0.04

	$jointconstrain "ValveBiped.Bip01_R_Calf" x limit 0 0 0.04
	$jointconstrain "ValveBiped.Bip01_R_Calf" y limit 0 0 0.04
	$jointconstrain "ValveBiped.Bip01_R_Calf" z limit -97 37 0.04

	$jointconstrain "ValveBiped.Bip01_L_Thigh" x limit -37 30 0.04
	$jointconstrain "ValveBiped.Bip01_L_Thigh" y limit -64 19 0.04
	$jointconstrain "ValveBiped.Bip01_L_Thigh" z limit -50 61 0.04

	$jointconstrain "ValveBiped.Bip01_L_Calf" x limit 0 0 0.04
	$jointconstrain "ValveBiped.Bip01_L_Calf" y limit 0 0 0.04
	$jointconstrain "ValveBiped.Bip01_L_Calf" z limit -35 111 0.04

	$jointconstrain "ValveBiped.Bip01_L_Foot" x limit -10 10 0.04
	$jointconstrain "ValveBiped.Bip01_L_Foot" y limit -17 17 0.04
	$jointconstrain "ValveBiped.Bip01_L_Foot" z limit -30 32 0.04

	$jointconstrain "ValveBiped.Bip01_Spine" x limit -32 32 0.04
	$jointconstrain "ValveBiped.Bip01_Spine" y limit -32 30 0.04
	$jointconstrain "ValveBiped.Bip01_Spine" z limit -46 32 0.04

	$jointconstrain "ValveBiped.Bip01_Spine2" x limit -17 17 0.04
	$jointconstrain "ValveBiped.Bip01_Spine2" y limit -3 3 0.04
	$jointconstrain "ValveBiped.Bip01_Spine2" z limit -26 26 0.04

	$jointconstrain "ValveBiped.Bip01_R_UpperArm" x limit -41 77 0.04
	$jointconstrain "ValveBiped.Bip01_R_UpperArm" y limit -48 70 0.04
	$jointconstrain "ValveBiped.Bip01_R_UpperArm" z limit -61 77 0.04

	$jointconstrain "ValveBiped.Bip01_L_UpperArm" x limit -61 50 0.04
	$jointconstrain "ValveBiped.Bip01_L_UpperArm" y limit -79 48 0.04
	$jointconstrain "ValveBiped.Bip01_L_UpperArm" z limit -79 88 0.04

	$jointconstrain "ValveBiped.Bip01_L_Forearm" x limit 1 1 0.04
	$jointconstrain "ValveBiped.Bip01_L_Forearm" y limit 0 0 0.04
	$jointconstrain "ValveBiped.Bip01_L_Forearm" z limit -73 77 0.04

	$jointmassbias "ValveBiped.Bip01_L_Hand" 0.2
	$jointconstrain "ValveBiped.Bip01_L_Hand" x limit -39 59 0.04
	$jointconstrain "ValveBiped.Bip01_L_Hand" y limit -19 19 0.04
	$jointconstrain "ValveBiped.Bip01_L_Hand" z limit -79 35 0.04

	$jointconstrain "ValveBiped.Bip01_R_Forearm" x limit 0 0 0.04
	$jointconstrain "ValveBiped.Bip01_R_Forearm" y limit 0 0 0
	$jointconstrain "ValveBiped.Bip01_R_Forearm" z limit -57 88 0.04

	$jointmassbias "ValveBiped.Bip01_R_Hand" 0.2
	$jointconstrain "ValveBiped.Bip01_R_Hand" x limit -44 12 0.04
	$jointconstrain "ValveBiped.Bip01_R_Hand" y limit -28 28 0.04
	$jointconstrain "ValveBiped.Bip01_R_Hand" z limit -55 59 0.04

	$jointconstrain "ValveBiped.Bip01_R_Foot" x limit -30 30 0.04
	$jointconstrain "ValveBiped.Bip01_R_Foot" y limit -28 28 0.04
	$jointconstrain "ValveBiped.Bip01_R_Foot" z limit -30 26 0.04
}
