version 1
nodes
0 "Bip01" -1
1 "Bip01 Pelvis" 0
2 "Bip01 Spine" 1
3 "Bip01 Neck" 2
4 "Bip01 L Clavicle" 3
5 "Bip01 R Clavicle" 3
6 "Bip01 R UpperArm" 5
7 "Bip01 R Forearm" 6
8 "Bip01 R Hand" 7
9 "Bip01 L UpperArm" 4
10 "Bip01 L Forearm" 9
11 "Bip01 L Hand" 10
12 "Bip01 L Finger0" 11
13 "Bip01 L Finger01" 12
14 "Bip01 L Finger02" 13
15 "Bip01 L Finger1" 11
16 "Bip01 L Finger11" 15
17 "Bip01 L Finger12" 16
18 "Bip01 L Finger2" 11
19 "Bip01 L Finger21" 18
20 "Bip01 L Finger22" 19
21 "Bip01 L Finger3" 11
22 "Bip01 L Finger31" 21
23 "Bip01 L Finger32" 22
24 "Bip01 L Finger4" 11
25 "Bip01 L Finger41" 24
26 "Bip01 L Finger42" 25
27 "Dummy15" 8
28 "Dummy14" 8
end
skeleton
time 0
0  3.598438 3.287842 -21.527538  0.000000 -0.000000 -1.553387
1  0.000000 0.000000 0.000004  -0.000086 -1.570451 -1.570704
2  4.443618 -0.009640 0.000006  -0.000004 -0.000001 0.000796
3  12.111415 -0.011446 -0.000000  0.000000 0.000000 0.000000
4  0.000009 0.011444 1.352405  1.225596 -0.272443 2.498475
5  0.000020 0.011451 -1.352403  2.212752 1.072630 -0.866484
6  6.078082 -0.000003 -0.000006  0.327346 -1.396739 -0.644852
7  13.446749 -0.000007 -0.000000  -0.000000 -0.000000 -1.682569
8  26.098867 -2.800865 -0.585957  2.040565 -0.013644 0.033377
9  6.078098 0.000004 -0.000015  -0.620379 -0.262689 -0.683521
10  13.415496 -0.070315 0.027343  0.000000 -0.000000 -0.717604
11  15.997000 -0.000005 0.000003  2.936797 0.446094 -0.057945
12  1.885331 0.833274 -2.177885  -1.940100 0.684799 0.193514
13  1.506979 0.000010 0.000004  0.348116 0.011397 -0.032076
14  0.798347 -0.000006 0.000001  0.000000 0.000000 0.178015
15  3.950301 -0.539879 -2.108867  -0.000806 0.157080 -0.000126
16  1.545802 -0.000000 0.000004  -0.007922 -0.015544 0.820362
17  1.667403 -0.000003 -0.000008  0.089585 0.189559 0.776467
18  3.899465 -0.475379 -1.170891  0.031958 0.080896 0.106040
19  1.528208 -0.000005 0.000001  -0.091011 0.132106 1.026445
20  1.528220 -0.000001 -0.000004  0.000000 0.000001 0.479966
21  3.899458 -0.431805 0.168224  -0.016604 0.170804 0.606720
22  1.506967 -0.000006 0.000003  -0.053895 0.044379 0.688199
23  1.506960 -0.000003 -0.000006  -0.000000 0.000000 0.340339
24  3.915630 -0.278024 1.402611  -0.197404 0.273740 0.784426
25  1.333079 0.000001 -0.000002  0.000000 0.000000 0.637045
26  1.159208 -0.000002 -0.000009  -0.000000 0.000000 0.218166
27  11.995237 1.423874 2.193760  -1.559349 -3.123010 0.015440
28  -12.585220 -0.347892 -1.278967  -1.559349 -3.123009 0.015440
time 1
0  3.598438 3.287842 -21.527538  0.000000 -0.000000 -1.553387
1  0.000000 0.000000 0.000004  -0.000086 -1.570451 -1.570704
2  4.443618 -0.009640 0.000006  -0.000004 -0.000001 0.000796
3  12.111415 -0.011446 -0.000000  0.000000 0.000000 0.000000
4  0.000009 0.011444 1.352405  1.225596 -0.272443 2.498475
5  0.000020 0.011451 -1.352403  2.212752 1.072630 -0.866484
6  6.078082 -0.000003 -0.000006  0.327346 -1.396739 -0.644852
7  13.446749 -0.000007 -0.000000  -0.000000 -0.000000 -1.682569
8  22.987751 -3.162139 -0.764132  2.040565 -0.013644 0.033377
9  4.111745 1.377934 -2.018953  -0.620379 -0.262689 -0.683521
10  13.415496 -0.070314 0.027343  0.000000 -0.000000 -0.717604
11  15.997003 -0.000003 0.000004  2.936797 0.446094 -0.057945
12  1.885329 0.833275 -2.177887  -1.940100 0.684799 0.193514
13  1.506979 0.000008 0.000002  0.348116 0.011397 -0.032076
14  0.798345 -0.000006 0.000001  0.000000 0.000000 0.178015
15  3.950298 -0.539879 -2.108869  -0.000806 0.157080 -0.000126
16  1.545805 -0.000000 0.000002  -0.007922 -0.015544 0.820362
17  1.667406 -0.000004 -0.000008  0.089585 0.189559 0.776467
18  3.899463 -0.475379 -1.170893  0.031958 0.080896 0.106040
19  1.528209 -0.000005 0.000001  -0.091011 0.132106 1.026445
20  1.528220 0.000001 -0.000004  0.000000 0.000001 0.479966
21  3.899457 -0.431805 0.168222  -0.016604 0.170804 0.606720
22  1.506966 -0.000004 0.000003  -0.053895 0.044379 0.688199
23  1.506961 -0.000004 -0.000006  -0.000000 0.000000 0.340339
24  3.915627 -0.278024 1.402609  -0.197404 0.273740 0.784426
25  1.333079 -0.000000 -0.000004  0.000000 0.000000 0.637045
26  1.159208 0.000001 -0.000006  -0.000000 0.000000 0.218166
27  11.995237 1.423875 2.193760  -1.559349 -3.123010 0.015440
28  -12.585217 -0.347890 -1.278966  -1.559349 -3.123009 0.015440
time 2
0  3.598438 3.287842 -21.527538  0.000000 -0.000000 -1.553387
1  0.000000 0.000000 0.000004  -0.000086 -1.570451 -1.570704
2  4.443618 -0.009640 0.000006  -0.000004 -0.000001 0.000796
3  12.111415 -0.011446 -0.000000  0.000000 0.000000 0.000000
4  0.000009 0.011444 1.352405  1.225596 -0.272443 2.498475
5  0.000020 0.011451 -1.352403  2.212752 1.072630 -0.866484
6  6.078082 -0.000003 -0.000006  0.327346 -1.396739 -0.644852
7  13.446749 -0.000007 -0.000000  -0.000000 -0.000000 -1.682569
8  23.216805 -3.130151 -0.748273  2.039628 0.012116 -0.017494
9  5.117114 1.297927 -2.615304  -0.599520 -0.312070 -0.709776
10  13.415498 -0.070314 0.027344  0.000000 -0.000000 -0.717604
11  15.996998 -0.000003 0.000005  2.936797 0.446094 -0.057945
12  1.885329 0.833275 -2.177887  -1.940100 0.684799 0.193514
13  1.506978 0.000009 0.000002  0.348116 0.011397 -0.032076
14  0.798347 -0.000006 0.000000  0.000000 -0.000000 0.178015
15  3.950299 -0.539877 -2.108870  -0.000806 0.157080 -0.000126
16  1.545803 0.000001 0.000002  -0.007922 -0.015544 0.820362
17  1.667404 -0.000002 -0.000006  0.089585 0.189559 0.776467
18  3.899462 -0.475378 -1.170892  0.031958 0.080896 0.106040
19  1.528208 -0.000006 0.000001  -0.091011 0.132106 1.026445
20  1.528222 -0.000003 -0.000003  -0.000000 0.000001 0.479966
21  3.899457 -0.431805 0.168221  -0.016604 0.170804 0.606720
22  1.506966 -0.000004 0.000005  -0.053895 0.044379 0.688199
23  1.506960 -0.000004 -0.000006  -0.000000 0.000000 0.340339
24  3.915628 -0.278023 1.402609  -0.197404 0.273740 0.784426
25  1.333080 -0.000001 -0.000002  0.000000 0.000000 0.637045
26  1.159208 0.000001 -0.000009  -0.000000 0.000000 0.218166
27  11.995238 1.423875 2.193760  -1.559349 -3.123010 0.015440
28  -12.585224 -0.347890 -1.278966  -1.559349 -3.123009 0.015440
time 3
0  3.598438 3.287842 -21.527538  0.000000 -0.000000 -1.553387
1  0.000000 0.000000 0.000004  -0.000086 -1.570451 -1.570704
2  4.443618 -0.009640 0.000006  -0.000004 -0.000001 0.000796
3  12.111415 -0.011446 -0.000000  0.000000 0.000000 0.000000
4  0.000009 0.011444 1.352405  1.225596 -0.272443 2.498475
5  0.000020 0.011451 -1.352403  2.212752 1.072630 -0.866484
6  6.078082 -0.000003 -0.000006  0.327346 -1.396739 -0.644852
7  13.446749 -0.000007 -0.000000  -0.000000 -0.000000 -1.682569
8  23.751858 -3.055429 -0.711228  2.036318 0.037806 -0.068409
9  6.372949 1.053457 -2.981310  -0.577639 -0.360865 -0.738151
10  13.415495 -0.070315 0.027344  0.000000 -0.000000 -0.717604
11  15.997000 -0.000001 0.000003  2.936797 0.446094 -0.057945
12  1.885331 0.833275 -2.177886  -1.940100 0.684799 0.193514
13  1.506980 0.000008 0.000000  0.348116 0.011397 -0.032076
14  0.798347 -0.000006 0.000001  0.000000 0.000000 0.178015
15  3.950300 -0.539879 -2.108870  -0.000806 0.157080 -0.000126
16  1.545802 -0.000003 0.000002  -0.007922 -0.015544 0.820362
17  1.667404 -0.000004 -0.000009  0.089585 0.189559 0.776468
18  3.899464 -0.475378 -1.170892  0.031958 0.080896 0.106040
19  1.528208 -0.000007 0.000003  -0.091011 0.132106 1.026445
20  1.528222 -0.000000 -0.000003  0.000000 0.000001 0.479966
21  3.899459 -0.431806 0.168220  -0.016604 0.170804 0.606720
22  1.506967 -0.000004 0.000003  -0.053895 0.044379 0.688199
23  1.506959 -0.000004 -0.000001  -0.000000 0.000000 0.340339
24  3.915628 -0.278022 1.402608  -0.197404 0.273740 0.784426
25  1.333079 0.000000 -0.000006  0.000000 0.000000 0.637045
26  1.159207 -0.000002 -0.000008  -0.000000 0.000000 0.218166
27  11.995235 1.423876 2.193759  -1.559349 -3.123010 0.015440
28  -12.585219 -0.347890 -1.278965  -1.559349 -3.123009 0.015440
time 4
0  3.598438 3.287842 -21.527538  0.000000 -0.000000 -1.553387
1  0.000000 0.000000 0.000004  -0.000086 -1.570451 -1.570704
2  4.443618 -0.009640 0.000006  -0.000004 -0.000001 0.000796
3  12.111415 -0.011446 -0.000000  0.000000 0.000000 0.000000
4  0.000009 0.011444 1.352405  1.225596 -0.272443 2.498475
5  0.000020 0.011451 -1.352403  2.212752 1.072630 -0.866484
6  6.078082 -0.000003 -0.000006  0.327346 -1.396739 -0.644852
7  13.446749 -0.000007 -0.000000  -0.000000 -0.000000 -1.682569
8  24.412569 -2.963157 -0.665483  2.036561 0.036403 -0.065617
9  6.753651 0.761691 -2.525302  -0.578867 -0.358208 -0.736539
10  13.415497 -0.070316 0.027345  0.000000 -0.000000 -0.717604
11  15.997000 -0.000004 0.000004  2.936797 0.446094 -0.057945
12  1.885329 0.833275 -2.177885  -1.940100 0.684799 0.193514
13  1.506981 0.000008 0.000001  0.348116 0.011397 -0.032076
14  0.798348 -0.000007 -0.000002  -0.000000 -0.000000 0.178015
15  3.950298 -0.539878 -2.108868  -0.000806 0.157080 -0.000126
16  1.545803 -0.000001 0.000003  -0.007922 -0.015544 0.820362
17  1.667405 -0.000003 -0.000010  0.089585 0.189559 0.776468
18  3.899463 -0.475378 -1.170891  0.031958 0.080896 0.106040
19  1.528206 -0.000007 0.000002  -0.091011 0.132106 1.026445
20  1.528221 -0.000001 -0.000005  -0.000000 0.000001 0.479966
21  3.899457 -0.431805 0.168222  -0.016604 0.170804 0.606720
22  1.506966 -0.000000 0.000005  -0.053895 0.044379 0.688199
23  1.506961 -0.000002 -0.000004  -0.000000 0.000000 0.340339
24  3.915628 -0.278022 1.402611  -0.197404 0.273740 0.784426
25  1.333078 0.000002 -0.000003  0.000000 0.000000 0.637045
26  1.159207 -0.000000 -0.000005  -0.000000 0.000000 0.218166
27  11.995234 1.423876 2.193760  -1.559349 -3.123010 0.015440
28  -12.585217 -0.347889 -1.278966  -1.559349 -3.123009 0.015440
time 5
0  3.598438 3.287842 -21.527538  0.000000 -0.000000 -1.553387
1  0.000000 0.000000 0.000004  -0.000086 -1.570451 -1.570704
2  4.443618 -0.009640 0.000006  -0.000004 -0.000001 0.000796
3  12.111415 -0.011446 -0.000000  0.000000 0.000000 0.000000
4  0.000009 0.011444 1.352405  1.225596 -0.272443 2.498475
5  0.000020 0.011451 -1.352403  2.212752 1.072630 -0.866484
6  6.078082 -0.000003 -0.000006  0.327346 -1.396739 -0.644852
7  13.446749 -0.000007 -0.000000  -0.000000 -0.000000 -1.682569
8  25.066475 -2.871835 -0.620208  2.037246 0.032190 -0.057241
9  7.028934 0.474752 -1.997642  -0.582531 -0.350225 -0.731745
10  13.415498 -0.070315 0.027345  0.000000 -0.000000 -0.717604
11  15.997002 -0.000003 0.000005  2.936797 0.446094 -0.057945
12  1.885328 0.833276 -2.177885  -1.940100 0.684799 0.193514
13  1.506978 0.000009 0.000002  0.348116 0.011397 -0.032076
14  0.798345 -0.000007 0.000001  -0.000000 0.000000 0.178015
15  3.950299 -0.539878 -2.108869  -0.000806 0.157080 -0.000126
16  1.545801 0.000000 0.000000  -0.007922 -0.015544 0.820362
17  1.667405 -0.000002 -0.000009  0.089585 0.189559 0.776467
18  3.899462 -0.475379 -1.170890  0.031958 0.080896 0.106040
19  1.528209 -0.000004 0.000002  -0.091011 0.132106 1.026445
20  1.528221 -0.000003 0.000000  -0.000000 0.000001 0.479966
21  3.899456 -0.431806 0.168222  -0.016604 0.170804 0.606720
22  1.506966 -0.000004 0.000003  -0.053895 0.044379 0.688199
23  1.506961 -0.000003 -0.000004  -0.000000 0.000000 0.340339
24  3.915627 -0.278023 1.402609  -0.197404 0.273740 0.784426
25  1.333078 0.000001 -0.000002  0.000000 0.000000 0.637045
26  1.159209 0.000001 -0.000004  -0.000000 0.000000 0.218166
27  11.995237 1.423876 2.193759  -1.559349 -3.123010 0.015440
28  -12.585224 -0.347890 -1.278968  -1.559349 -3.123009 0.015440
time 6
0  3.598438 3.287842 -21.527538  0.000000 -0.000000 -1.553387
1  0.000000 0.000000 0.000004  -0.000086 -1.570451 -1.570704
2  4.443618 -0.009640 0.000006  -0.000004 -0.000001 0.000796
3  12.111415 -0.011446 -0.000000  0.000000 0.000000 0.000000
4  0.000009 0.011444 1.352405  1.225596 -0.272443 2.498475
5  0.000020 0.011451 -1.352403  2.212752 1.072630 -0.866484
6  6.078082 -0.000003 -0.000006  0.327346 -1.396739 -0.644852
7  13.446749 -0.000007 -0.000000  -0.000000 -0.000000 -1.682569
8  25.614939 -2.795239 -0.582235  2.038213 0.025415 -0.043800
9  7.146059 0.234644 -1.465781  -0.588349 -0.337369 -0.724171
10  13.415497 -0.070315 0.027344  0.000000 -0.000000 -0.717604
11  15.997000 -0.000002 0.000003  2.936797 0.446094 -0.057945
12  1.885328 0.833277 -2.177886  -1.940100 0.684799 0.193514
13  1.506981 0.000009 0.000001  0.348116 0.011397 -0.032076
14  0.798344 -0.000005 -0.000002  -0.000000 0.000000 0.178015
15  3.950299 -0.539877 -2.108868  -0.000806 0.157080 -0.000126
16  1.545802 -0.000000 -0.000001  -0.007922 -0.015544 0.820362
17  1.667404 -0.000002 -0.000010  0.089585 0.189559 0.776467
18  3.899462 -0.475378 -1.170892  0.031958 0.080896 0.106040
19  1.528207 -0.000005 0.000005  -0.091011 0.132106 1.026445
20  1.528223 -0.000004 -0.000004  0.000000 0.000001 0.479966
21  3.899457 -0.431805 0.168219  -0.016604 0.170804 0.606720
22  1.506963 -0.000002 0.000006  -0.053895 0.044379 0.688199
23  1.506960 -0.000005 -0.000003  -0.000000 0.000000 0.340339
24  3.915627 -0.278020 1.402609  -0.197404 0.273740 0.784426
25  1.333080 0.000001 -0.000001  0.000000 0.000000 0.637045
26  1.159208 0.000002 -0.000005  -0.000000 0.000000 0.218166
27  11.995238 1.423876 2.193759  -1.559349 -3.123010 0.015440
28  -12.585218 -0.347890 -1.278967  -1.559349 -3.123009 0.015440
time 7
0  3.598438 3.287842 -21.527538  0.000000 -0.000000 -1.553387
1  0.000000 0.000000 0.000004  -0.000086 -1.570451 -1.570704
2  4.443618 -0.009640 0.000006  -0.000004 -0.000001 0.000796
3  12.111415 -0.011446 -0.000000  0.000000 0.000000 0.000000
4  0.000009 0.011444 1.352405  1.225596 -0.272443 2.498475
5  0.000020 0.011451 -1.352403  2.212752 1.072630 -0.866484
6  6.078082 -0.000003 -0.000006  0.327346 -1.396739 -0.644852
7  13.446749 -0.000007 -0.000000  -0.000000 -0.000000 -1.682569
8  25.983788 -2.743728 -0.556696  2.039204 0.016780 -0.026710
9  7.085146 0.071990 -0.993622  -0.595638 -0.320954 -0.714755
10  13.415498 -0.070314 0.027344  0.000000 -0.000000 -0.717604
11  15.996999 -0.000005 0.000003  2.936797 0.446094 -0.057945
12  1.885329 0.833277 -2.177887  -1.940100 0.684799 0.193514
13  1.506981 0.000009 0.000002  0.348116 0.011397 -0.032076
14  0.798348 -0.000006 -0.000002  -0.000000 0.000000 0.178015
15  3.950300 -0.539877 -2.108871  -0.000806 0.157080 -0.000126
16  1.545800 -0.000000 0.000003  -0.007922 -0.015544 0.820362
17  1.667405 -0.000004 -0.000009  0.089585 0.189559 0.776468
18  3.899463 -0.475376 -1.170892  0.031958 0.080896 0.106040
19  1.528209 -0.000005 0.000002  -0.091011 0.132106 1.026445
20  1.528221 -0.000004 -0.000005  0.000000 0.000000 0.479966
21  3.899460 -0.431804 0.168219  -0.016604 0.170804 0.606720
22  1.506964 -0.000003 0.000003  -0.053895 0.044379 0.688199
23  1.506962 -0.000001 -0.000004  -0.000000 0.000000 0.340339
24  3.915629 -0.278021 1.402610  -0.197404 0.273740 0.784426
25  1.333079 -0.000002 -0.000001  0.000000 0.000000 0.637045
26  1.159207 -0.000002 -0.000005  -0.000000 0.000000 0.218166
27  11.995234 1.423876 2.193760  -1.559349 -3.123010 0.015440
28  -12.585220 -0.347889 -1.278968  -1.559349 -3.123009 0.015440
time 8
0  3.598438 3.287842 -21.527538  0.000000 -0.000000 -1.553387
1  0.000000 0.000000 0.000004  -0.000086 -1.570451 -1.570704
2  4.443618 -0.009640 0.000006  -0.000004 -0.000001 0.000796
3  12.111415 -0.011446 -0.000000  0.000000 0.000000 0.000000
4  0.000009 0.011444 1.352405  1.225596 -0.272443 2.498475
5  0.000020 0.011451 -1.352403  2.212752 1.072630 -0.866484
6  6.078082 -0.000003 -0.000006  0.327346 -1.396739 -0.644852
7  13.446749 -0.000007 -0.000000  -0.000000 -0.000000 -1.682569
8  26.116850 -2.725144 -0.547484  2.039974 0.007450 -0.008280
9  6.852717 0.010247 -0.647262  -0.603369 -0.303168 -0.704866
10  13.415496 -0.070313 0.027344  0.000000 -0.000000 -0.717604
11  15.997000 -0.000005 0.000004  2.936797 0.446094 -0.057945
12  1.885329 0.833273 -2.177888  -1.940100 0.684799 0.193514
13  1.506980 0.000007 0.000001  0.348116 0.011397 -0.032076
14  0.798343 -0.000006 -0.000002  -0.000000 0.000000 0.178015
15  3.950297 -0.539879 -2.108869  -0.000806 0.157080 -0.000126
16  1.545804 -0.000002 0.000004  -0.007922 -0.015544 0.820362
17  1.667403 -0.000001 -0.000009  0.089585 0.189559 0.776468
18  3.899462 -0.475381 -1.170893  0.031958 0.080896 0.106040
19  1.528211 -0.000005 0.000002  -0.091011 0.132106 1.026445
20  1.528222 -0.000001 0.000001  -0.000000 0.000001 0.479966
21  3.899457 -0.431806 0.168220  -0.016604 0.170804 0.606720
22  1.506965 -0.000003 0.000005  -0.053895 0.044379 0.688199
23  1.506960 -0.000004 -0.000001  -0.000000 0.000000 0.340339
24  3.915627 -0.278023 1.402606  -0.197404 0.273740 0.784426
25  1.333078 0.000000 -0.000004  0.000000 0.000000 0.637045
26  1.159209 -0.000002 -0.000005  -0.000000 0.000000 0.218166
27  11.995240 1.423874 2.193760  -1.559349 -3.123010 0.015440
28  -12.585218 -0.347892 -1.278967  -1.559349 -3.123009 0.015440
time 9
0  3.598438 3.287842 -21.527538  0.000000 -0.000000 -1.553387
1  0.000000 0.000000 0.000004  -0.000086 -1.570451 -1.570704
2  4.443618 -0.009640 0.000006  -0.000004 -0.000001 0.000796
3  12.111415 -0.011446 -0.000000  0.000000 0.000000 0.000000
4  0.000009 0.011444 1.352405  1.225596 -0.272443 2.498475
5  0.000020 0.011451 -1.352403  2.212752 1.072630 -0.866484
6  6.078082 -0.000003 -0.000006  0.327346 -1.396739 -0.644852
7  13.446749 -0.000007 -0.000000  -0.000000 -0.000000 -1.682569
8  26.114365 -2.735616 -0.552804  2.040409 -0.001202 0.008800
9  6.551964 0.005695 -0.394904  -0.610419 -0.286614 -0.695947
10  13.415498 -0.070315 0.027344  0.000000 -0.000000 -0.717604
11  15.997000 -0.000005 0.000004  2.936797 0.446094 -0.057945
12  1.885328 0.833274 -2.177889  -1.940100 0.684799 0.193514
13  1.506981 0.000008 0.000004  0.348116 0.011397 -0.032076
14  0.798348 -0.000006 0.000002  0.000000 0.000000 0.178015
15  3.950300 -0.539879 -2.108873  -0.000806 0.157080 -0.000126
16  1.545806 -0.000001 0.000002  -0.007922 -0.015544 0.820362
17  1.667403 -0.000002 -0.000006  0.089585 0.189559 0.776468
18  3.899464 -0.475380 -1.170895  0.031958 0.080896 0.106040
19  1.528208 -0.000006 0.000005  -0.091011 0.132106 1.026445
20  1.528221 -0.000002 -0.000001  -0.000000 0.000001 0.479966
21  3.899457 -0.431806 0.168219  -0.016604 0.170804 0.606720
22  1.506968 -0.000003 0.000005  -0.053895 0.044379 0.688199
23  1.506960 -0.000000 -0.000005  -0.000000 0.000000 0.340339
24  3.915628 -0.278024 1.402606  -0.197404 0.273740 0.784426
25  1.333081 -0.000003 -0.000004  0.000000 0.000000 0.637045
26  1.159208 0.000001 -0.000007  -0.000000 0.000000 0.218166
27  11.995238 1.423875 2.193758  -1.559349 -3.123010 0.015440
28  -12.585218 -0.347890 -1.278969  -1.559349 -3.123009 0.015440
time 10
0  3.598438 3.287842 -21.527538  0.000000 -0.000000 -1.553387
1  0.000000 0.000000 0.000004  -0.000086 -1.570451 -1.570704
2  4.443618 -0.009640 0.000006  -0.000004 -0.000001 0.000796
3  12.111415 -0.011446 -0.000000  0.000000 0.000000 0.000000
4  0.000009 0.011444 1.352405  1.225596 -0.272443 2.498475
5  0.000020 0.011451 -1.352403  2.212752 1.072630 -0.866484
6  6.078082 -0.000003 -0.000006  0.327346 -1.396739 -0.644852
7  13.446749 -0.000007 -0.000000  -0.000000 -0.000000 -1.682569
8  26.107857 -2.763005 -0.566720  2.040563 -0.008001 0.022226
9  6.300015 0.002330 -0.184252  -0.615887 -0.273559 -0.689100
10  13.415496 -0.070313 0.027344  0.000000 -0.000000 -0.717604
11  15.996999 -0.000004 0.000004  2.936797 0.446094 -0.057945
12  1.885327 0.833276 -2.177888  -1.940100 0.684799 0.193514
13  1.506981 0.000007 0.000003  0.348116 0.011397 -0.032076
14  0.798344 -0.000008 0.000002  0.000000 -0.000000 0.178015
15  3.950296 -0.539876 -2.108871  -0.000806 0.157080 -0.000126
16  1.545802 0.000000 0.000004  -0.007922 -0.015544 0.820362
17  1.667403 -0.000003 -0.000009  0.089585 0.189559 0.776468
18  3.899460 -0.475378 -1.170894  0.031958 0.080896 0.106040
19  1.528207 -0.000006 0.000002  -0.091011 0.132106 1.026445
20  1.528222 -0.000000 -0.000002  -0.000000 0.000001 0.479966
21  3.899454 -0.431803 0.168220  -0.016604 0.170804 0.606720
22  1.506966 -0.000005 0.000004  -0.053895 0.044379 0.688199
23  1.506960 -0.000003 -0.000002  -0.000000 0.000000 0.340339
24  3.915625 -0.278021 1.402607  -0.197404 0.273740 0.784426
25  1.333078 0.000001 -0.000003  0.000000 0.000000 0.637045
26  1.159208 -0.000000 -0.000006  -0.000000 0.000000 0.218166
27  11.995235 1.423877 2.193759  -1.559349 -3.123010 0.015440
28  -12.585214 -0.347889 -1.278967  -1.559349 -3.123009 0.015440
time 11
0  3.598438 3.287842 -21.527538  0.000000 -0.000000 -1.553387
1  0.000000 0.000000 0.000004  -0.000086 -1.570451 -1.570704
2  4.443618 -0.009640 0.000006  -0.000004 -0.000001 0.000796
3  12.111415 -0.011446 -0.000000  0.000000 0.000000 0.000000
4  0.000009 0.011444 1.352405  1.225596 -0.272443 2.498475
5  0.000020 0.011451 -1.352403  2.212752 1.072630 -0.866484
6  6.078082 -0.000003 -0.000006  0.327346 -1.396739 -0.644852
7  13.446749 -0.000007 -0.000000  -0.000000 -0.000000 -1.682569
8  26.101357 -2.790395 -0.580637  2.040575 -0.012234 0.030589
9  6.134366 0.000578 -0.046723  -0.619260 -0.265408 -0.684907
10  13.415496 -0.070316 0.027345  0.000000 -0.000000 -0.717604
11  15.996998 -0.000007 0.000003  2.936797 0.446094 -0.057945
12  1.885327 0.833277 -2.177886  -1.940100 0.684799 0.193514
13  1.506980 0.000006 0.000004  0.348116 0.011397 -0.032076
14  0.798344 -0.000007 0.000002  -0.000000 0.000000 0.178015
15  3.950297 -0.539877 -2.108870  -0.000806 0.157080 -0.000126
16  1.545800 -0.000002 0.000001  -0.007922 -0.015544 0.820362
17  1.667405 -0.000003 -0.000006  0.089585 0.189559 0.776467
18  3.899461 -0.475378 -1.170891  0.031958 0.080896 0.106040
19  1.528207 -0.000007 0.000003  -0.091011 0.132106 1.026445
20  1.528224 0.000000 -0.000003  -0.000000 0.000001 0.479966
21  3.899455 -0.431805 0.168221  -0.016604 0.170804 0.606720
22  1.506968 -0.000004 0.000002  -0.053895 0.044379 0.688199
23  1.506960 -0.000005 -0.000007  -0.000000 0.000000 0.340339
24  3.915626 -0.278023 1.402610  -0.197404 0.273740 0.784426
25  1.333078 0.000003 -0.000001  0.000000 0.000000 0.637045
26  1.159208 -0.000003 -0.000008  -0.000000 0.000000 0.218166
27  11.995239 1.423876 2.193759  -1.559349 -3.123010 0.015440
28  -12.585215 -0.347889 -1.278967  -1.559349 -3.123009 0.015440
time 12
0  3.598438 3.287842 -21.527538  0.000000 -0.000000 -1.553387
1  0.000000 0.000000 0.000004  -0.000086 -1.570451 -1.570704
2  4.443618 -0.009640 0.000006  -0.000004 -0.000001 0.000796
3  12.111415 -0.011446 -0.000000  0.000000 0.000000 0.000000
4  0.000009 0.011444 1.352405  1.225596 -0.272443 2.498475
5  0.000020 0.011451 -1.352403  2.212752 1.072630 -0.866484
6  6.078082 -0.000003 -0.000006  0.327346 -1.396739 -0.644852
7  13.446749 -0.000007 -0.000000  -0.000000 -0.000000 -1.682569
8  26.098867 -2.800865 -0.585957  2.040565 -0.013644 0.033377
9  6.078098 0.000004 -0.000015  -0.620379 -0.262689 -0.683521
10  13.415496 -0.070315 0.027343  0.000000 -0.000000 -0.717604
11  15.997000 -0.000005 0.000003  2.936797 0.446094 -0.057945
12  1.885331 0.833274 -2.177885  -1.940100 0.684799 0.193514
13  1.506979 0.000010 0.000004  0.348116 0.011397 -0.032076
14  0.798347 -0.000006 0.000001  0.000000 0.000000 0.178015
15  3.950301 -0.539879 -2.108867  -0.000806 0.157080 -0.000126
16  1.545802 -0.000000 0.000004  -0.007922 -0.015544 0.820362
17  1.667403 -0.000003 -0.000008  0.089585 0.189559 0.776467
18  3.899465 -0.475379 -1.170891  0.031958 0.080896 0.106040
19  1.528208 -0.000005 0.000001  -0.091011 0.132106 1.026445
20  1.528220 -0.000001 -0.000004  0.000000 0.000001 0.479966
21  3.899458 -0.431805 0.168224  -0.016604 0.170804 0.606720
22  1.506967 -0.000006 0.000003  -0.053895 0.044379 0.688199
23  1.506960 -0.000003 -0.000006  -0.000000 0.000000 0.340339
24  3.915630 -0.278024 1.402611  -0.197404 0.273740 0.784426
25  1.333079 0.000001 -0.000002  0.000000 0.000000 0.637045
26  1.159208 -0.000002 -0.000009  -0.000000 0.000000 0.218166
27  11.995237 1.423874 2.193760  -1.559349 -3.123010 0.015440
28  -12.585220 -0.347892 -1.278967  -1.559349 -3.123009 0.015440
end
