// Created by Crowbar 0.68
version 1
nodes
  0 "Grub_body2" -1
  1 "Grub_body3" 0
  2 "Grub_body4" 1
  3 "Grub_body1" 0
  4 "Grub_Lleg3" 3
  5 "Grub_Lleg2" 3
  6 "Grub_Lleg1" 3
  7 "Grub_Rleg1" 3
  8 "Grub_Rleg2" 3
  9 "Grub_Rleg3" 3
  10 "Grub_head" 3
end
skeleton
  time 0
    0 -0.016860 1.621641 6.388797 0.000000 0.113434 0.000000
    1 0.020030 4.778408 -0.229358 0.372194 0.064837 -0.322176
    2 0.000000 6.818245 -0.688072 0.338658 -0.302870 -0.691267
    3 0.020030 -5.056679 -0.275229 -0.859448 0.006960 0.561202
    4 7.278677 -0.297133 -5.307796 1.570796 0.000000 1.902409
    5 5.419726 -6.961227 -5.307795 1.570796 0.000000 1.588249
    6 1.744061 -10.518919 -5.307796 1.570796 0.000000 1.343903
    7 -1.655355 -10.518919 -6.064207 -1.570796 0.000000 1.797689
    8 -5.303473 -6.961227 -6.064207 -1.570796 0.000000 1.553343
    9 -7.132290 -0.297134 -5.307796 -1.570796 0.000000 -1.902409
    10 0.208053 -9.951974 -2.522932 0.000000 0.000000 0.000000
  time 1
    0 -0.016860 1.621641 6.388797 0.000000 0.080944 0.000000
    1 0.020030 4.778408 -0.229358 0.372944 0.062116 -0.317270
    2 0.000000 6.818245 -0.688072 0.301108 -0.206185 -0.540727
    3 0.020030 -5.056679 -0.275229 -0.873626 -0.055405 0.453403
    4 7.278677 -0.297133 -5.307796 1.570796 0.000000 1.902409
    5 5.419726 -6.961227 -5.307795 1.570796 0.000000 1.588249
    6 1.744061 -10.518919 -5.307796 1.570796 0.000000 1.343903
    7 -1.655355 -10.518919 -6.064207 -1.570796 0.000000 1.797689
    8 -5.303473 -6.961227 -6.064207 -1.570796 0.000000 1.553343
    9 -7.132290 -0.297134 -5.307796 -1.570796 0.000000 -1.902409
    10 0.208053 -9.951974 -2.522932 -0.043351 0.005393 0.063792
  time 2
    0 -0.016860 1.621641 6.388797 0.000000 0.043971 0.000000
    1 0.020030 4.778408 -0.229358 0.389251 -0.020074 -0.183748
    2 0.000000 6.818245 -0.688072 0.274136 -0.094905 -0.420861
    3 0.020030 -5.056679 -0.275229 -0.881562 -0.128104 0.330432
    4 7.278677 -0.297133 -5.307796 1.570796 0.000000 1.902409
    5 5.419726 -6.961227 -5.307795 1.570796 0.000000 1.588249
    6 1.744061 -10.518919 -5.307796 1.570796 0.000000 1.343903
    7 -1.655355 -10.518919 -6.064207 -1.570796 0.000000 1.797689
    8 -5.303473 -6.961227 -6.064207 -1.570796 0.000000 1.553343
    9 -7.132290 -0.297134 -5.307796 -1.570796 0.000000 -1.902409
    10 0.208053 -9.951974 -2.522932 -0.086286 0.013531 0.127297
  time 3
    0 -0.016860 1.621641 6.388797 0.000000 0.004938 0.000000
    1 0.020030 4.778408 -0.229358 0.394448 -0.103091 -0.051147
    2 0.000000 6.818245 -0.688072 0.249789 0.037682 -0.381454
    3 0.020030 -5.056679 -0.275229 -0.880163 -0.204264 0.201356
    4 7.278677 -0.297133 -5.307796 1.570796 0.000000 1.902409
    5 5.419726 -6.961227 -5.307795 1.570796 0.000000 1.588249
    6 1.744061 -10.518919 -5.307796 1.570796 0.000000 1.343903
    7 -1.655355 -10.518919 -6.064207 -1.570796 0.000000 1.797689
    8 -5.303473 -6.961227 -6.064207 -1.570796 0.000000 1.553343
    9 -7.132290 -0.297134 -5.307796 -1.570796 0.000000 -1.902409
    10 0.208053 -9.951974 -2.522932 -0.123833 0.019559 0.155859
  time 4
    0 -0.016860 1.621641 6.388797 0.000000 -0.033761 0.000000
    1 0.020030 4.778408 -0.229358 0.388885 -0.160761 0.071616
    2 0.000000 6.818245 -0.688072 0.206785 0.204008 -0.368480
    3 0.020030 -5.056679 -0.275229 -0.869240 -0.276577 0.075151
    4 7.278677 -0.297133 -5.307796 1.570796 0.000000 1.902409
    5 5.419726 -6.961227 -5.307795 1.570796 0.000000 1.588249
    6 1.744061 -10.518919 -5.307796 1.570796 0.000000 1.343903
    7 -1.655355 -10.518919 -6.064207 -1.570796 0.000000 1.797689
    8 -5.303473 -6.961227 -6.064207 -1.570796 0.000000 1.553343
    9 -7.132290 -0.297134 -5.307796 -1.570796 0.000000 -1.902409
    10 0.208053 -9.951974 -2.522932 -0.158171 0.018972 0.132210
  time 5
    0 -0.016860 1.621641 6.388797 0.000000 -0.069738 0.000000
    1 0.020030 4.778408 -0.229358 0.375940 -0.185090 0.207782
    2 0.000000 6.818245 -0.688072 0.081717 0.494079 -0.352574
    3 0.020030 -5.056679 -0.275229 -0.851673 -0.338195 -0.038135
    4 7.278677 -0.297133 -5.307796 1.570796 0.000000 1.902409
    5 5.419726 -6.961227 -5.307795 1.570796 0.000000 1.588249
    6 1.744061 -10.518919 -5.307796 1.570796 0.000000 1.343903
    7 -1.655355 -10.518919 -6.064207 -1.570796 0.000000 1.797689
    8 -5.303473 -6.961227 -6.064207 -1.570796 0.000000 1.553343
    9 -7.132290 -0.297134 -5.307796 -1.570796 0.000000 -1.902409
    10 0.208053 -9.951974 -2.522932 -0.188811 0.012452 0.077508
  time 6
    0 -0.016860 1.621641 6.388797 0.000000 -0.100587 0.000000
    1 0.020030 4.778408 -0.229358 0.361848 -0.187415 0.344791
    2 0.000000 6.818245 -0.688072 0.182595 0.498660 -0.097906
    3 0.020030 -5.056679 -0.275229 -0.833110 -0.383490 -0.126669
    4 7.278677 -0.297133 -5.307796 1.570796 0.000000 1.902409
    5 5.419726 -6.961227 -5.307795 1.570796 0.000000 1.588249
    6 1.744061 -10.518919 -5.307796 1.570796 0.000000 1.343903
    7 -1.655355 -10.518919 -6.064207 -1.570796 0.000000 1.797689
    8 -5.303473 -6.961227 -6.064207 -1.570796 0.000000 1.553343
    9 -7.132290 -0.297134 -5.307796 -1.570796 0.000000 -1.902409
    10 0.208053 -9.951974 -2.522932 -0.207474 0.002577 0.014881
  time 7
    0 -0.016860 1.621641 6.388797 0.000000 -0.123921 0.000000
    1 0.020030 4.778408 -0.229358 0.356173 -0.174148 0.418656
    2 0.000000 6.818245 -0.688072 0.300873 0.417498 0.182078
    3 0.020030 -5.056679 -0.275229 -0.820761 -0.407980 -0.177068
    4 7.278677 -0.297133 -5.307796 1.570796 0.000000 1.902409
    5 5.419726 -6.961227 -5.307795 1.570796 0.000000 1.588249
    6 1.744061 -10.518919 -5.307796 1.570796 0.000000 1.343903
    7 -1.655355 -10.518919 -6.064207 -1.570796 0.000000 1.797689
    8 -5.303473 -6.961227 -6.064207 -1.570796 0.000000 1.553343
    9 -7.132290 -0.297134 -5.307796 -1.570796 0.000000 -1.902409
    10 0.208053 -9.951974 -2.522932 -0.205001 -0.009192 -0.051851
  time 8
    0 -0.016860 1.621641 6.388797 0.000000 -0.137331 0.000000
    1 0.020030 4.778408 -0.229358 0.362056 -0.152636 0.386458
    2 0.000000 6.818245 -0.688072 0.356813 0.307298 0.352532
    3 0.020030 -5.056679 -0.275229 -0.820922 -0.407669 -0.176431
    4 7.278677 -0.297133 -5.307796 1.570796 0.000000 1.902409
    5 5.419726 -6.961227 -5.307795 1.570796 0.000000 1.588249
    6 1.744061 -10.518919 -5.307796 1.570796 0.000000 1.343903
    7 -1.655355 -10.518919 -6.064207 -1.570796 0.000000 1.797689
    8 -5.303473 -6.961227 -6.064207 -1.570796 0.000000 1.553343
    9 -7.132290 -0.297134 -5.307796 -1.570796 0.000000 -1.902409
    10 0.208053 -9.951974 -2.522932 -0.180998 -0.022028 -0.131869
  time 9
    0 -0.016860 1.621641 6.388797 0.000000 -0.137595 0.000000
    1 0.020030 4.778408 -0.229358 0.371142 -0.125023 0.308632
    2 0.000000 6.818245 -0.688072 0.347633 0.207280 0.376623
    3 0.020030 -5.056679 -0.275229 -0.833432 -0.382780 -0.125241
    4 7.278677 -0.297133 -5.307796 1.570796 0.000000 1.902409
    5 5.419726 -6.961227 -5.307795 1.570796 0.000000 1.588249
    6 1.744061 -10.518919 -5.307796 1.570796 0.000000 1.343903
    7 -1.655355 -10.518919 -6.064207 -1.570796 0.000000 1.797689
    8 -5.303473 -6.961227 -6.064207 -1.570796 0.000000 1.553343
    9 -7.132290 -0.297134 -5.307796 -1.570796 0.000000 -1.902409
    10 0.208053 -9.951974 -2.522932 -0.151166 -0.026138 -0.171475
  time 10
    0 -0.016860 1.621641 6.388797 0.000000 -0.117773 0.000000
    1 0.020030 4.778408 -0.229358 0.379703 -0.092209 0.204319
    2 0.000000 6.818245 -0.688072 0.313148 0.102514 0.310382
    3 0.020030 -5.056679 -0.275229 -0.851996 -0.337298 -0.036415
    4 7.278677 -0.297133 -5.307796 1.570796 0.000000 1.902409
    5 5.419726 -6.961227 -5.307795 1.570796 0.000000 1.588249
    6 1.744061 -10.518919 -5.307796 1.570796 0.000000 1.343903
    7 -1.655355 -10.518919 -6.064207 -1.570796 0.000000 1.797689
    8 -5.303473 -6.961227 -6.064207 -1.570796 0.000000 1.553343
    9 -7.132290 -0.297134 -5.307796 -1.570796 0.000000 -1.902409
    10 0.208053 -9.951974 -2.522932 -0.123221 -0.022040 -0.159570
  time 11
    0 -0.016860 1.621641 6.388797 0.000000 -0.081459 0.000000
    1 0.020030 4.778408 -0.229358 0.385362 -0.055573 0.082732
    2 0.000000 6.818245 -0.688072 0.283960 0.005220 0.184968
    3 0.020030 -5.056679 -0.275229 -0.869429 -0.275668 0.076786
    4 7.278677 -0.297133 -5.307796 1.570796 0.000000 1.902409
    5 5.419726 -6.961227 -5.307795 1.570796 0.000000 1.588249
    6 1.744061 -10.518919 -5.307796 1.570796 0.000000 1.343903
    7 -1.655355 -10.518919 -6.064207 -1.570796 0.000000 1.797689
    8 -5.303473 -6.961227 -6.064207 -1.570796 0.000000 1.553343
    9 -7.132290 -0.297134 -5.307796 -1.570796 0.000000 -1.902409
    10 0.208053 -9.951974 -2.522932 -0.093610 -0.015784 -0.128427
  time 12
    0 -0.016860 1.621641 6.388797 0.000000 -0.034420 0.000000
    1 0.020030 4.778408 -0.229358 0.386525 -0.017006 -0.047186
    2 0.000000 6.818245 -0.688072 0.271606 -0.080264 0.008987
    3 0.020030 -5.056679 -0.275229 -0.880217 -0.203517 0.202646
    4 7.278677 -0.297133 -5.307796 1.570796 0.000000 1.902409
    5 5.419726 -6.961227 -5.307795 1.570796 0.000000 1.588249
    6 1.744061 -10.518919 -5.307796 1.570796 0.000000 1.343903
    7 -1.655355 -10.518919 -6.064207 -1.570796 0.000000 1.797689
    8 -5.303473 -6.961227 -6.064207 -1.570796 0.000000 1.553343
    9 -7.132290 -0.297134 -5.307796 -1.570796 0.000000 -1.902409
    10 0.208053 -9.951974 -2.522932 -0.062823 -0.009228 -0.086096
  time 13
    0 -0.016860 1.621641 6.388797 0.000000 0.017569 0.000000
    1 0.020030 4.778408 -0.229358 0.382699 0.021309 -0.176759
    2 0.000000 6.818245 -0.688072 0.275582 -0.160315 -0.211021
    3 0.020030 -5.056679 -0.275229 -0.881535 -0.127606 0.331275
    4 7.278677 -0.297133 -5.307796 1.570796 0.000000 1.902409
    5 5.419726 -6.961227 -5.307795 1.570796 0.000000 1.588249
    6 1.744061 -10.518919 -5.307796 1.570796 0.000000 1.343903
    7 -1.655355 -10.518919 -6.064207 -1.570796 0.000000 1.797689
    8 -5.303473 -6.961227 -6.064207 -1.570796 0.000000 1.553343
    9 -7.132290 -0.297134 -5.307796 -1.570796 0.000000 -1.902409
    10 0.208053 -9.951974 -2.522932 -0.031546 -0.003715 -0.040753
  time 14
    0 -0.016860 1.621641 6.388797 0.000000 0.068780 0.000000
    1 0.020030 4.778408 -0.229358 0.374506 0.057262 -0.297222
    2 0.000000 6.818245 -0.688072 0.298185 -0.234522 -0.452294
    3 0.020030 -5.056679 -0.275229 -0.873599 -0.055168 0.453781
    4 7.278677 -0.297133 -5.307796 1.570796 0.000000 1.902409
    5 5.419726 -6.961227 -5.307795 1.570796 0.000000 1.588249
    6 1.744061 -10.518919 -5.307796 1.570796 0.000000 1.343903
    7 -1.655355 -10.518919 -6.064207 -1.570796 0.000000 1.797689
    8 -5.303473 -6.961227 -6.064207 -1.570796 0.000000 1.553343
    9 -7.132290 -0.297134 -5.307796 -1.570796 0.000000 -1.902409
    10 0.208053 -9.951974 -2.522932 -0.000563 -0.000048 -0.000645
  time 15
    0 -0.016860 1.621641 6.388797 0.000000 0.113434 0.000000
    1 0.020030 4.778408 -0.229358 0.372194 0.064837 -0.322176
    2 0.000000 6.818245 -0.688072 0.338658 -0.302870 -0.691267
    3 0.020030 -5.056679 -0.275229 -0.859448 0.006960 0.561202
    4 7.278677 -0.297133 -5.307796 1.570796 0.000000 1.902409
    5 5.419726 -6.961227 -5.307795 1.570796 0.000000 1.588249
    6 1.744061 -10.518919 -5.307796 1.570796 0.000000 1.343903
    7 -1.655355 -10.518919 -6.064207 -1.570796 0.000000 1.797689
    8 -5.303473 -6.961227 -6.064207 -1.570796 0.000000 1.553343
    9 -7.132290 -0.297134 -5.307796 -1.570796 0.000000 -1.902409
    10 0.208053 -9.951974 -2.522932 0.000000 0.000000 0.000000
end
