// Created by Crowbar 0.68
version 1
nodes
  0 "ValveBiped.Bip01_Pelvis" -1
  1 "ValveBiped.Bip01_Spine" 0
  2 "ValveBiped.Bip01_Spine1" 1
  3 "ValveBiped.Bip01_Spine2" 2
  4 "ValveBiped.Bip01_Spine4" 3
  5 "ValveBiped.Bip01_Neck1" 4
  6 "ValveBiped.Bip01_Head1" 5
  7 "ValveBiped.forward" 6
  8 "ValveBiped.Bip01_R_Clavicle" 4
  9 "ValveBiped.Bip01_R_UpperArm" 8
  10 "ValveBiped.Bip01_R_Forearm" 9
  11 "ValveBiped.Bip01_R_Hand" 10
  12 "ValveBiped.Anim_Attachment_RH" 11
  13 "ValveBiped.Bip01_L_Clavicle" 4
  14 "ValveBiped.Bip01_L_UpperArm" 13
  15 "ValveBiped.Bip01_L_Forearm" 14
  16 "ValveBiped.Bip01_L_Hand" 15
  17 "ValveBiped.Anim_Attachment_LH" 16
  18 "ValveBiped.Bip01_R_Thigh" 0
  19 "ValveBiped.Bip01_R_Calf" 18
  20 "ValveBiped.Bip01_R_Foot" 19
  21 "ValveBiped.Bip01_L_Thigh" 0
  22 "ValveBiped.Bip01_L_Calf" 21
  23 "ValveBiped.Bip01_L_Foot" 22
  24 "ValveBiped.Bip01" -1
  25 "ValveBiped.Bip01_L_Toe0" 23
  26 "ValveBiped.Bip01_L_Shin" 22
  27 "ValveBiped.Bip01_L_Knee" 21
  28 "ValveBiped.Bip01_L_Quadricep" 21
  29 "ValveBiped.Bip01_R_Toe0" 20
  30 "ValveBiped.Bip01_R_Shin" 19
  31 "ValveBiped.Bip01_R_Quadricep" 18
  32 "ValveBiped.Bip01_R_Knee" 18
  33 "ValveBiped.Bip01_L_Finger3" 16
  34 "ValveBiped.Bip01_L_Finger31" 33
  35 "ValveBiped.Bip01_L_Finger32" 34
  36 "ValveBiped.Bip01_L_Finger2" 16
  37 "ValveBiped.Bip01_L_Finger21" 36
  38 "ValveBiped.Bip01_L_Finger22" 37
  39 "ValveBiped.Bip01_L_Finger1" 16
  40 "ValveBiped.Bip01_L_Finger11" 39
  41 "ValveBiped.Bip01_L_Finger12" 40
  42 "ValveBiped.Bip01_L_Finger0" 16
  43 "ValveBiped.Bip01_L_Finger01" 42
  44 "ValveBiped.Bip01_L_Finger02" 43
  45 "ValveBiped.Bip01_L_Finger4" 16
  46 "ValveBiped.Bip01_L_Finger41" 45
  47 "ValveBiped.Bip01_L_Finger42" 46
  48 "ValveBiped.Bip01_L_Ulna" 15
  49 "ValveBiped.Bip01_L_Wrist" 15
  50 "ValveBiped.Bip01_L_Elbow" 14
  51 "ValveBiped.Bip01_L_Shoulder" 14
  52 "ValveBiped.Bip01_L_Bicep" 14
  53 "ValveBiped.Bip01_L_Trapezius" 13
  54 "ValveBiped.Bip01_R_Finger3" 11
  55 "ValveBiped.Bip01_R_Finger31" 54
  56 "ValveBiped.Bip01_R_Finger32" 55
  57 "ValveBiped.Bip01_R_Finger2" 11
  58 "ValveBiped.Bip01_R_Finger21" 57
  59 "ValveBiped.Bip01_R_Finger22" 58
  60 "ValveBiped.Bip01_R_Finger1" 11
  61 "ValveBiped.Bip01_R_Finger11" 60
  62 "ValveBiped.Bip01_R_Finger12" 61
  63 "ValveBiped.Bip01_R_Finger0" 11
  64 "ValveBiped.Bip01_R_Finger01" 63
  65 "ValveBiped.Bip01_R_Finger02" 64
  66 "ValveBiped.Bip01_R_Finger4" 11
  67 "ValveBiped.Bip01_R_Finger41" 66
  68 "ValveBiped.Bip01_R_Finger42" 67
  69 "ValveBiped.Bip01_R_Ulna" 10
  70 "ValveBiped.Bip01_R_Wrist" 10
  71 "ValveBiped.Bip01_R_Shoulder" 9
  72 "ValveBiped.Bip01_R_Bicep" 9
  73 "ValveBiped.Bip01_R_Elbow" 9
  74 "ValveBiped.Bip01_R_Trapezius" 8
  75 "ValveBiped.Bip01_R_Pectoral" 3
  76 "ValveBiped.Bip01_L_Pectoral" 3
  77 "ValveBiped.Bip01_R_Latt" 3
  78 "ValveBiped.Bip01_L_Latt" 3
end
skeleton
  time 0
    0 0.000000 -0.533612 38.566914 1.570796 0.000000 0.000000
    1 0.000000 3.345132 -2.981898 1.570796 0.083193 1.570796
    2 3.995838 0.000000 0.000000 0.000000 0.000000 -0.028816
    3 3.520298 0.000000 0.000000 0.000000 0.000000 0.097307
    4 8.921476 0.000000 0.000000 0.000000 0.000000 0.186413
    5 3.306360 0.000002 0.000000 3.141590 0.000000 0.406109
    6 3.602000 -0.000002 0.000000 0.000000 -0.000001 0.405033
    7 2.000003 -3.000000 0.000000 -1.570796 0.000000 -1.326450
    8 2.059532 0.977924 -1.937661 -1.661569 1.286515 2.950147
    9 6.028141 0.000007 0.000000 1.633734 -0.011884 -0.586789
    10 11.692554 0.000000 -0.000001 0.000000 0.000000 -0.060372
    11 11.481691 0.000000 0.000000 -1.559993 0.038701 0.036022
    12 2.676087 -1.712443 0.000000 -1.570796 0.000000 -1.570795
    13 2.059529 0.977924 1.937661 1.589740 -1.286514 2.950147
    14 6.028141 0.000000 0.000000 -1.573855 0.051611 -0.584887
    15 11.692555 0.000000 -0.000006 0.000000 0.000000 -0.060372
    16 11.481671 0.000000 -0.000036 1.568292 -0.038709 0.036022
    17 2.676085 -1.712442 0.000000 1.570797 0.000000 1.570797
    18 -3.890447 0.000000 0.000000 -1.570796 0.051839 -1.576018
    19 17.848167 0.000000 0.000000 0.000000 0.000000 0.034200
    20 16.525238 0.000000 0.000000 0.038609 0.040781 -1.071639
    21 3.890447 0.000000 0.000000 -1.570796 0.051839 -1.565574
    22 17.848167 0.000000 0.000000 0.000000 0.000000 0.034200
    23 16.525238 0.000000 0.000000 -0.027915 -0.040781 -1.071638
    24 -0.000005 -0.533615 38.566917 1.570796 0.000000 0.000000
    25 6.879449 0.000002 0.000000 -0.007299 -0.002951 -0.584373
    26 7.766866 0.000000 0.000000 0.000000 0.000000 0.000000
    27 17.848169 0.000000 0.000000 0.000000 0.000000 0.016691
    28 7.139265 0.000000 0.000000 0.000000 0.000000 0.000000
    29 6.879451 0.000002 0.000000 -0.081334 -0.002951 -0.584373
    30 7.766869 0.000000 0.000001 0.000000 0.000000 0.000000
    31 7.139271 0.000000 0.000000 0.000000 0.000000 0.000000
    32 17.848167 0.000000 0.000000 0.000000 0.000000 0.016685
    33 3.942322 0.046777 -0.431443 -0.155014 0.073328 -0.810648
    34 1.539095 -0.000003 0.000000 0.000000 0.004460 -0.247797
    35 1.196324 0.000001 0.000000 0.000000 0.007361 -0.430802
    36 3.883687 -0.046764 0.431443 0.085902 0.021830 -0.587867
    37 1.719573 0.000001 0.000000 0.000000 0.005516 -0.366478
    38 1.209185 0.000002 0.000000 0.000000 0.003084 -0.216400
    39 3.859859 -0.137941 1.332466 0.354449 -0.042750 -0.531718
    40 1.719427 0.000005 0.000000 0.000000 0.004074 -0.363009
    41 1.099663 0.000000 0.000000 0.000000 0.002596 -0.244331
    42 0.806048 -0.348915 1.321258 -1.206854 -0.679488 -0.789308
    43 1.789784 -0.000002 0.000001 0.000000 0.007387 0.228523
    44 1.206999 -0.000002 0.000002 0.000000 0.011267 0.362860
    45 3.859704 -0.142400 -1.191974 -0.479144 0.152190 -0.879874
    46 1.312555 -0.000002 -0.000002 0.000000 0.009665 -0.439720
    47 0.729363 0.000001 0.000000 0.000000 0.004971 -0.244299
    48 5.740847 0.000000 0.000005 0.000688 0.000000 0.000000
    49 11.481695 0.000000 0.000009 0.001272 0.000000 0.000000
    50 11.692554 0.000000 0.000009 0.000000 0.000000 -0.029500
    51 1.499998 0.000000 0.000005 0.000000 0.000000 0.000000
    52 5.559999 0.000000 0.000006 0.000000 0.000000 0.000000
    53 5.166963 0.000002 0.000000 0.000000 0.000000 0.000000
    54 3.942297 0.050328 0.431043 0.154999 -0.079305 -0.810205
    55 1.539097 0.000002 0.000000 0.000000 -0.005854 -0.247771
    56 1.196325 0.000000 0.000000 0.000000 -0.009663 -0.430761
    57 3.883659 -0.050326 -0.431043 -0.085905 -0.026404 -0.587695
    58 1.719574 -0.000001 0.000000 0.000000 -0.007974 -0.366436
    59 1.209181 0.000000 0.000000 0.000000 -0.004461 -0.216376
    60 3.859833 -0.148934 -1.331282 -0.354419 0.038567 -0.532001
    61 1.719424 0.000001 0.000001 0.000000 -0.006613 -0.362970
    62 1.099666 0.000000 0.000001 0.000000 -0.004211 -0.244312
    63 0.806019 -0.359832 -1.318334 1.204200 0.673618 -0.793956
    64 1.789783 0.000001 0.000001 0.000000 -0.006301 0.228555
    65 1.206999 -0.000001 0.000000 0.000000 -0.009618 0.362905
    66 3.859675 -0.132568 1.193108 0.479140 -0.158545 -0.879041
    67 1.312563 0.000000 -0.000001 0.000000 -0.011932 -0.439672
    68 0.729363 -0.000004 0.000002 0.000000 -0.006134 -0.244271
    69 5.740848 0.000000 0.000003 0.000081 0.000000 0.000000
    70 11.481700 0.000000 0.000002 0.000150 0.000000 0.000000
    71 1.500002 0.000000 0.000005 0.000000 0.000000 0.000000
    72 5.560000 0.000000 0.000006 0.000000 0.000000 0.000000
    73 11.692548 0.000000 0.000006 0.000000 0.000000 -0.029500
    74 5.166965 0.000000 0.000000 0.000000 0.000000 0.000000
    75 1.025254 4.831669 -2.578000 0.000000 0.000000 0.000000
    76 1.025254 4.831550 2.578000 0.000000 0.000000 0.000000
    77 2.000000 1.400000 5.000000 0.000000 0.000000 0.000000
    78 2.000001 1.400000 -5.000000 0.000000 0.000000 0.000000
end
triangles
mouth
  3 0.330500 -4.920300 64.783302 0.259190 -0.724773 -0.638376 0.794300 0.463800 1 3 1.000000
  3 1.254700 -3.529701 63.344002 -0.541296 0.147499 0.827794 0.926400 0.466600 1 3 1.000000
  3 -0.428000 -4.834901 64.254997 -0.119093 -0.640161 0.758954 0.459400 0.450200 1 3 1.000000
mouth
  3 1.254700 -3.529701 63.344002 -0.541296 0.147499 0.827794 0.926400 0.466600 1 3 1.000000
  3 0.330500 -4.920300 64.783302 0.259190 -0.724773 -0.638376 0.794300 0.463800 1 3 1.000000
  3 1.271400 -3.652601 65.365601 -0.671181 0.314691 -0.671181 0.928400 0.519100 1 3 1.000000
mouth
  3 -0.328300 -4.970801 64.787399 -0.265790 -0.699872 -0.662974 0.459300 0.450600 1 3 1.000000
  3 1.271400 -3.652601 65.365601 -0.671181 0.314691 -0.671181 0.928400 0.519100 1 3 1.000000
  3 0.330500 -4.920300 64.783302 0.259190 -0.724773 -0.638376 0.794300 0.463800 1 3 1.000000
mouth
  3 1.271400 -3.652601 65.365601 -0.671181 0.314691 -0.671181 0.928400 0.519100 1 3 1.000000
  3 -0.328300 -4.970801 64.787399 -0.265790 -0.699872 -0.662974 0.459300 0.450600 1 3 1.000000
  3 -1.198700 -3.651800 65.354599 0.634778 0.294490 -0.714375 0.058600 0.520600 1 3 1.000000
mouth
  3 -0.328300 -4.970801 64.787399 -0.265790 -0.699872 -0.662974 0.459300 0.450600 1 3 1.000000
  3 -0.980700 -4.276301 64.430099 0.334916 -0.942245 -0.002500 0.129900 0.465000 1 3 1.000000
  3 -1.198700 -3.651800 65.354599 0.634778 0.294490 -0.714375 0.058600 0.520600 1 3 1.000000
mouth
  3 -1.198700 -3.651800 65.354599 0.634778 0.294490 -0.714375 0.058600 0.520600 1 3 1.000000
  3 -0.980700 -4.276301 64.430099 0.334916 -0.942245 -0.002500 0.129900 0.465000 1 3 1.000000
  3 -0.853400 -3.879501 63.395000 0.282010 0.444116 0.850430 0.174700 0.456700 1 3 1.000000
mouth
  3 -0.980700 -4.276301 64.430099 0.334916 -0.942245 -0.002500 0.129900 0.465000 1 3 1.000000
  3 -0.428000 -4.834901 64.254997 -0.119093 -0.640161 0.758954 0.459400 0.450200 1 3 1.000000
  3 -0.853400 -3.879501 63.395000 0.282010 0.444116 0.850430 0.174700 0.456700 1 3 1.000000
mouth
  3 -0.853400 -3.879501 63.395000 0.282010 0.444116 0.850430 0.174700 0.456700 1 3 1.000000
  3 -0.428000 -4.834901 64.254997 -0.119093 -0.640161 0.758954 0.459400 0.450200 1 3 1.000000
  3 1.254700 -3.529701 63.344002 -0.541296 0.147499 0.827794 0.926400 0.466600 1 3 1.000000
mouth
  3 1.254700 -3.529701 63.344002 -0.541296 0.147499 0.827794 0.926400 0.466600 1 3 1.000000
  3 -1.189700 -2.669201 63.606201 0.551898 -0.507898 0.661398 0.059600 0.494900 1 3 1.000000
  3 -0.853400 -3.879501 63.395000 0.282010 0.444116 0.850430 0.174700 0.456700 1 3 1.000000
mouth
  3 -1.189700 -2.669201 63.606201 0.551898 -0.507898 0.661398 0.059600 0.494900 1 3 1.000000
  3 1.254700 -3.529701 63.344002 -0.541296 0.147499 0.827794 0.926400 0.466600 1 3 1.000000
  3 1.322300 -2.149801 64.542503 -0.553371 -0.832757 0.017199 0.960500 0.546100 1 3 1.000000
mouth
  3 1.322300 -2.149801 64.542503 -0.553371 -0.832757 0.017199 0.960500 0.546100 1 3 1.000000
  3 -1.189700 -2.522901 65.278397 0.549390 -0.460392 -0.697287 0.063100 0.559900 1 3 1.000000
  3 -1.189700 -2.669201 63.606201 0.551898 -0.507898 0.661398 0.059600 0.494900 1 3 1.000000
mouth
  3 -1.189700 -2.522901 65.278397 0.549390 -0.460392 -0.697287 0.063100 0.559900 1 3 1.000000
  3 1.322300 -2.149801 64.542503 -0.553371 -0.832757 0.017199 0.960500 0.546100 1 3 1.000000
  3 1.271400 -3.652601 65.365601 -0.671181 0.314691 -0.671181 0.928400 0.519100 1 3 1.000000
mouth
  3 1.271400 -3.652601 65.365601 -0.671181 0.314691 -0.671181 0.928400 0.519100 1 3 1.000000
  3 -1.198700 -3.651800 65.354599 0.634778 0.294490 -0.714375 0.058600 0.520600 1 3 1.000000
  3 -1.189700 -2.522901 65.278397 0.549390 -0.460392 -0.697287 0.063100 0.559900 1 3 1.000000
mouth
  3 -1.189700 -2.669201 63.606201 0.551898 -0.507898 0.661398 0.059600 0.494900 1 3 1.000000
  3 -1.189700 -2.522901 65.278397 0.549390 -0.460392 -0.697287 0.063100 0.559900 1 3 1.000000
  3 -1.198700 -3.651800 65.354599 0.634778 0.294490 -0.714375 0.058600 0.520600 1 3 1.000000
mouth
  3 -1.198700 -3.651800 65.354599 0.634778 0.294490 -0.714375 0.058600 0.520600 1 3 1.000000
  3 -0.853400 -3.879501 63.395000 0.282010 0.444116 0.850430 0.174700 0.456700 1 3 1.000000
  3 -1.189700 -2.669201 63.606201 0.551898 -0.507898 0.661398 0.059600 0.494900 1 3 1.000000
art_facemap
  3 -0.044500 3.295200 70.506599 -0.004400 0.816641 0.577129 0.011600 0.854800 1 3 1.000000
  3 -0.740900 1.140200 71.823700 -0.128594 0.301186 0.944855 0.157700 0.959400 1 3 1.000000
  3 1.276200 1.984400 71.385399 0.312994 0.501291 0.806686 0.068700 0.946800 1 3 1.000000
art_facemap
  3 1.106200 3.499700 67.284302 0.288801 0.940904 -0.176901 0.001900 0.442400 1 3 1.000000
  3 -2.610100 2.257500 70.342697 -0.701675 0.480183 0.526381 0.099900 0.832400 1 3 1.000000
  3 -0.044500 3.295200 70.506599 -0.004400 0.816641 0.577129 0.011600 0.854800 1 3 1.000000
art_facemap
  3 -2.610100 2.257500 70.342697 -0.701675 0.480183 0.526381 0.099900 0.832400 1 3 1.000000
  3 -0.740900 1.140200 71.823700 -0.128594 0.301186 0.944855 0.157700 0.959400 1 3 1.000000
  3 -0.044500 3.295200 70.506599 -0.004400 0.816641 0.577129 0.011600 0.854800 1 3 1.000000
art_facemap
  3 -1.504900 0.060000 71.881897 -0.352993 0.070299 0.932981 0.232300 0.915000 1 3 1.000000
  3 -0.740900 1.140200 71.823700 -0.128594 0.301186 0.944855 0.157700 0.959400 1 3 1.000000
  3 -2.610100 2.257500 70.342697 -0.701675 0.480183 0.526381 0.099900 0.832400 1 3 1.000000
art_facemap
  3 -0.740900 1.140200 71.823700 -0.128594 0.301186 0.944855 0.157700 0.959400 1 3 1.000000
  3 -1.504900 0.060000 71.881897 -0.352993 0.070299 0.932981 0.232300 0.915000 1 3 1.000000
  3 1.350400 0.008900 71.866203 0.295211 0.041402 0.954535 0.235400 0.993200 1 3 1.000000
art_facemap
  3 1.350400 0.008900 71.866203 0.295211 0.041402 0.954535 0.235400 0.993200 1 3 1.000000
  3 -1.504900 0.060000 71.881897 -0.352993 0.070299 0.932981 0.232300 0.915000 1 3 1.000000
  3 -0.630400 -2.708000 71.569901 -0.129903 -0.366709 0.921222 0.302100 0.996000 1 3 1.000000
art_facemap
  3 -3.155200 -0.079800 70.392899 -0.911714 -0.054401 0.407206 0.235000 0.813000 1 3 1.000000
  3 -1.504900 0.060000 71.881897 -0.352993 0.070299 0.932981 0.232300 0.915000 1 3 1.000000
  3 -2.610100 2.257500 70.342697 -0.701675 0.480183 0.526381 0.099900 0.832400 1 3 1.000000
art_facemap
  3 -2.283700 0.328900 61.591003 -0.998566 0.048798 -0.021999 0.158700 0.123700 1 3 1.000000
  3 -1.773700 1.389600 64.470398 -0.762678 0.593183 -0.257793 0.110600 0.329500 1 3 1.000000
  3 -0.058600 2.492001 62.359001 0.000000 0.986193 0.165599 0.001900 0.196700 1 3 1.000000
art_facemap
  3 -0.058600 2.492001 62.359001 0.000000 0.986193 0.165599 0.001900 0.196700 1 3 1.000000
  3 -1.773700 1.389600 64.470398 -0.762678 0.593183 -0.257793 0.110600 0.329500 1 3 1.000000
  3 -0.487000 2.340600 64.434196 -0.174297 0.508090 -0.843484 0.029300 0.341400 1 3 1.000000
art_facemap
  3 -1.773700 1.389600 64.470398 -0.762678 0.593183 -0.257793 0.110600 0.329500 1 3 1.000000
  3 -1.817900 2.767800 66.349297 -0.587298 0.715997 -0.377399 0.075700 0.461800 1 3 1.000000
  3 -0.487000 2.340600 64.434196 -0.174297 0.508090 -0.843484 0.029300 0.341400 1 3 1.000000
art_facemap
  3 1.106200 3.499700 67.284302 0.288801 0.940904 -0.176901 0.001900 0.442400 1 3 1.000000
  3 -0.487000 2.340600 64.434196 -0.174297 0.508090 -0.843484 0.029300 0.341400 1 3 1.000000
  3 -1.817900 2.767800 66.349297 -0.587298 0.715997 -0.377399 0.075700 0.461800 1 3 1.000000
art_facemap
  3 -1.817900 2.767800 66.349297 -0.587298 0.715997 -0.377399 0.075700 0.461800 1 3 1.000000
  3 -2.806600 2.470000 68.429703 -0.853080 0.509988 -0.110298 0.133100 0.647400 1 3 1.000000
  3 1.106200 3.499700 67.284302 0.288801 0.940904 -0.176901 0.001900 0.442400 1 3 1.000000
art_facemap
  3 1.106200 3.499700 67.284302 0.288801 0.940904 -0.176901 0.001900 0.442400 1 3 1.000000
  3 -2.806600 2.470000 68.429703 -0.853080 0.509988 -0.110298 0.133100 0.647400 1 3 1.000000
  3 -2.610100 2.257500 70.342697 -0.701675 0.480183 0.526381 0.099900 0.832400 1 3 1.000000
art_facemap
  3 -2.610100 2.257500 70.342697 -0.701675 0.480183 0.526381 0.099900 0.832400 1 3 1.000000
  3 -2.806600 2.470000 68.429703 -0.853080 0.509988 -0.110298 0.133100 0.647400 1 3 1.000000
  3 -3.462800 0.627200 69.496597 -0.986814 0.114402 0.114502 0.211500 0.725300 1 3 1.000000
art_facemap
  3 -2.610100 2.257500 70.342697 -0.701675 0.480183 0.526381 0.099900 0.832400 1 3 1.000000
  3 -3.462800 0.627200 69.496597 -0.986814 0.114402 0.114502 0.211500 0.725300 1 3 1.000000
  3 -3.155200 -0.079800 70.392899 -0.911714 -0.054401 0.407206 0.235000 0.813000 1 3 1.000000
art_facemap
  3 -3.206500 -1.024100 69.690498 -0.941107 -0.303702 0.148601 0.283200 0.709500 1 3 1.000000
  3 -3.155200 -0.079800 70.392899 -0.911714 -0.054401 0.407206 0.235000 0.813000 1 3 1.000000
  3 -3.462800 0.627200 69.496597 -0.986814 0.114402 0.114502 0.211500 0.725300 1 3 1.000000
art_facemap
  3 -1.740500 -2.779700 71.045898 -0.724110 -0.583108 0.368305 0.408100 0.806300 1 3 1.000000
  3 -3.155200 -0.079800 70.392899 -0.911714 -0.054401 0.407206 0.235000 0.813000 1 3 1.000000
  3 -3.206500 -1.024100 69.690498 -0.941107 -0.303702 0.148601 0.283200 0.709500 1 3 1.000000
art_facemap
  3 -3.155200 -0.079800 70.392899 -0.911714 -0.054401 0.407206 0.235000 0.813000 1 3 1.000000
  3 -1.740500 -2.779700 71.045898 -0.724110 -0.583108 0.368305 0.408100 0.806300 1 3 1.000000
  3 -1.504900 0.060000 71.881897 -0.352993 0.070299 0.932981 0.232300 0.915000 1 3 1.000000
art_facemap
  3 -1.740500 -2.779700 71.045898 -0.724110 -0.583108 0.368305 0.408100 0.806300 1 3 1.000000
  3 -0.630400 -2.708000 71.569901 -0.150003 -0.403009 0.902819 0.465700 0.851900 1 3 1.000000
  3 -1.504900 0.060000 71.881897 -0.352993 0.070299 0.932981 0.232300 0.915000 1 3 1.000000
art_facemap
  3 -1.740500 -2.779700 71.045898 -0.724110 -0.583108 0.368305 0.408100 0.806300 1 3 1.000000
  3 -0.061400 -3.842100 70.928001 0.002100 -0.750484 0.660886 0.503000 0.770900 1 3 1.000000
  3 -0.630400 -2.708000 71.569901 -0.150003 -0.403009 0.902819 0.465700 0.851900 1 3 1.000000
art_facemap
  3 -0.630400 -2.708000 71.569901 -0.150003 -0.403009 0.902819 0.465700 0.851900 1 3 1.000000
  3 -0.061400 -3.842100 70.928001 0.002100 -0.750484 0.660886 0.503000 0.770900 1 3 1.000000
  3 1.698500 -2.779900 71.039398 0.714388 -0.587390 0.380293 0.594700 0.808300 1 3 1.000000
art_facemap
  3 -0.061400 -3.842100 70.928001 0.002100 -0.750484 0.660886 0.503000 0.770900 1 3 1.000000
  3 0.907000 -3.447300 70.454597 0.400284 -0.861066 0.313588 0.550900 0.737600 1 3 1.000000
  3 1.698500 -2.779900 71.039398 0.714388 -0.587390 0.380293 0.594700 0.808300 1 3 1.000000
art_facemap
  3 0.907000 -3.447300 70.454597 0.400284 -0.861066 0.313588 0.550900 0.737600 1 3 1.000000
  3 -0.061400 -3.842100 70.928001 0.002100 -0.750484 0.660886 0.503000 0.770900 1 3 1.000000
  3 -1.003900 -3.448500 70.454697 -0.488919 -0.841432 0.230109 0.449600 0.747100 1 3 1.000000
art_facemap
  3 -1.003900 -3.448500 70.454697 -0.488919 -0.841432 0.230109 0.449600 0.747100 1 3 1.000000
  3 -0.061400 -3.842100 70.928001 0.002100 -0.750484 0.660886 0.503000 0.770900 1 3 1.000000
  3 -1.740500 -2.779700 71.045898 -0.724110 -0.583108 0.368305 0.408100 0.806300 1 3 1.000000
art_facemap
  3 -1.773700 1.389600 64.470398 -0.762678 0.593183 -0.257793 0.110600 0.329500 1 3 1.000000
  3 -2.806600 2.470000 68.429703 -0.853080 0.509988 -0.110298 0.133100 0.647400 1 3 1.000000
  3 -1.817900 2.767800 66.349297 -0.587298 0.715997 -0.377399 0.075700 0.461800 1 3 1.000000
art_facemap
  3 2.784400 -0.680200 65.870300 0.999952 0.001800 -0.009600 0.728900 0.414000 1 3 1.000000
  3 2.216500 -3.540900 66.261597 0.734901 -0.676201 0.051700 0.607200 0.441400 1 3 1.000000
  3 2.121200 -2.851201 63.727299 0.874985 -0.341094 -0.343594 0.632900 0.265900 1 3 1.000000
art_facemap
  3 2.121200 -2.851201 63.727299 0.874985 -0.341094 -0.343594 0.632900 0.265900 1 3 1.000000
  3 2.276900 -0.724501 63.415501 0.940400 -0.131300 -0.313700 0.751300 0.235400 1 3 1.000000
  3 2.784400 -0.680200 65.870300 0.999952 0.001800 -0.009600 0.728900 0.414000 1 3 1.000000
art_facemap
  3 2.276900 -0.724501 63.415501 0.940400 -0.131300 -0.313700 0.751300 0.235400 1 3 1.000000
  3 2.121200 -2.851201 63.727299 0.874985 -0.341094 -0.343594 0.632900 0.265900 1 3 1.000000
  3 0.535900 -2.779901 62.215302 0.419191 -0.484390 -0.767884 0.550100 0.112700 1 3 1.000000
art_facemap
  3 2.187800 -0.188600 61.420597 0.987018 -0.150003 -0.057401 0.815100 0.105500 1 3 1.000000
  3 2.276900 -0.724501 63.415501 0.940400 -0.131300 -0.313700 0.751300 0.235400 1 3 1.000000
  3 0.535900 -2.779901 62.215302 0.419191 -0.484390 -0.767884 0.550100 0.112700 1 3 1.000000
art_facemap
  3 2.187800 -0.188600 61.420597 0.987018 -0.150003 -0.057401 0.815100 0.105500 1 3 1.000000
  3 0.535900 -2.779901 62.215302 0.419191 -0.484390 -0.767884 0.550100 0.112700 1 3 1.000000
  3 0.235600 -1.954400 60.502800 0.225900 -0.895401 -0.383700 0.549100 0.001700 1 3 1.000000
art_facemap
  3 -0.058600 -3.157101 62.266399 0.000000 -0.212301 -0.977204 0.497200 0.110300 1 3 1.000000
  3 0.235600 -1.954400 60.502800 0.225900 -0.895401 -0.383700 0.549100 0.001700 1 3 1.000000
  3 0.535900 -2.779901 62.215302 0.419191 -0.484390 -0.767884 0.550100 0.112700 1 3 1.000000
art_facemap
  3 -0.058600 -3.157101 62.266399 0.000000 -0.212301 -0.977204 0.497200 0.110300 1 3 1.000000
  3 -1.362400 -1.632700 61.324203 -0.667633 -0.682634 -0.297115 0.333600 0.061200 1 3 1.000000
  3 0.235600 -1.954400 60.502800 0.225900 -0.895401 -0.383700 0.549100 0.001700 1 3 1.000000
art_facemap
  3 -0.058600 -3.157101 62.266399 0.000000 -0.212301 -0.977204 0.497200 0.110300 1 3 1.000000
  3 -1.460600 -2.181401 62.574100 -0.744714 -0.436309 -0.505010 0.354200 0.147400 1 3 1.000000
  3 -1.362400 -1.632700 61.324203 -0.667633 -0.682634 -0.297115 0.333600 0.061200 1 3 1.000000
art_facemap
  3 -1.362400 -1.632700 61.324203 -0.667633 -0.682634 -0.297115 0.333600 0.061200 1 3 1.000000
  3 -1.460600 -2.181401 62.574100 -0.744714 -0.436309 -0.505010 0.354200 0.147400 1 3 1.000000
  3 -2.283700 0.328900 61.591003 -0.998566 0.048798 -0.021999 0.158700 0.123700 1 3 1.000000
art_facemap
  3 -2.283700 0.328900 61.591003 -0.998566 0.048798 -0.021999 0.158700 0.123700 1 3 1.000000
  3 -1.460600 -2.181401 62.574100 -0.744714 -0.436309 -0.505010 0.354200 0.147400 1 3 1.000000
  3 -2.393800 -0.067101 63.868198 -0.958528 0.261508 -0.113303 0.196100 0.274300 1 3 1.000000
art_facemap
  3 -2.283700 0.328900 61.591003 -0.998566 0.048798 -0.021999 0.158700 0.123700 1 3 1.000000
  3 -2.393800 -0.067101 63.868198 -0.958528 0.261508 -0.113303 0.196100 0.274300 1 3 1.000000
  3 -1.773700 1.389600 64.470398 -0.762678 0.593183 -0.257793 0.110600 0.329500 1 3 1.000000
art_facemap
  3 -2.393800 -0.067101 63.868198 -0.958528 0.261508 -0.113303 0.196100 0.274300 1 3 1.000000
  3 -2.793600 -0.404201 65.421204 -0.419513 0.361812 -0.832527 0.239900 0.369100 1 3 1.000000
  3 -1.773700 1.389600 64.470398 -0.762678 0.593183 -0.257793 0.110600 0.329500 1 3 1.000000
art_facemap
  3 -1.773700 1.389600 64.470398 -0.762678 0.593183 -0.257793 0.110600 0.329500 1 3 1.000000
  3 -2.793600 -0.404201 65.421204 -0.419513 0.361812 -0.832527 0.239900 0.369100 1 3 1.000000
  3 -2.806600 2.470000 68.429703 -0.853080 0.509988 -0.110298 0.133100 0.647400 1 3 1.000000
art_facemap
  3 -2.806600 2.470000 68.429703 -0.853080 0.509988 -0.110298 0.133100 0.647400 1 3 1.000000
  3 -2.793600 -0.404201 65.421204 -0.419513 0.361812 -0.832527 0.239900 0.369100 1 3 1.000000
  3 -3.082500 0.269600 67.012299 -0.592018 0.803025 0.068302 0.209100 0.501800 1 3 1.000000
art_facemap
  3 -2.806600 2.470000 68.429703 -0.853080 0.509988 -0.110298 0.133100 0.647400 1 3 1.000000
  3 -3.082500 0.269600 67.012299 -0.592018 0.803025 0.068302 0.209100 0.501800 1 3 1.000000
  3 -3.462800 0.627200 69.496597 -0.986814 0.114402 0.114502 0.211500 0.725300 1 3 1.000000
art_facemap
  3 -3.057400 -0.631900 67.361801 -0.927408 -0.326003 -0.183402 0.263700 0.523900 1 3 1.000000
  3 -3.462800 0.627200 69.496597 -0.986814 0.114402 0.114502 0.211500 0.725300 1 3 1.000000
  3 -3.082500 0.269600 67.012299 -0.592018 0.803025 0.068302 0.209100 0.501800 1 3 1.000000
art_facemap
  3 -3.462800 0.627200 69.496597 -0.986814 0.114402 0.114502 0.211500 0.725300 1 3 1.000000
  3 -3.057400 -0.631900 67.361801 -0.927408 -0.326003 -0.183402 0.263700 0.523900 1 3 1.000000
  3 -3.206500 -1.024100 69.690498 -0.941107 -0.303702 0.148601 0.283200 0.709500 1 3 1.000000
art_facemap
  3 -3.057400 -0.631900 67.361801 -0.927408 -0.326003 -0.183402 0.263700 0.523900 1 3 1.000000
  3 -2.159400 -3.539800 68.221603 -0.867610 -0.492106 0.071301 0.396200 0.574000 1 3 1.000000
  3 -3.206500 -1.024100 69.690498 -0.941107 -0.303702 0.148601 0.283200 0.709500 1 3 1.000000
art_facemap
  3 -2.129000 -3.714101 66.227600 -0.580103 -0.810905 0.076901 0.401100 0.448000 1 3 1.000000
  3 -1.374800 -3.747500 67.482201 -0.257713 -0.938248 -0.230812 0.433000 0.526500 1 3 1.000000
  3 -2.159400 -3.539800 68.221603 -0.867610 -0.492106 0.071301 0.396200 0.574000 1 3 1.000000
art_facemap
  3 -3.057400 -0.631900 67.361801 -0.927408 -0.326003 -0.183402 0.263700 0.523900 1 3 1.000000
  3 -2.129000 -3.714101 66.227600 -0.580103 -0.810905 0.076901 0.401100 0.448000 1 3 1.000000
  3 -2.159400 -3.539800 68.221603 -0.867610 -0.492106 0.071301 0.396200 0.574000 1 3 1.000000
art_facemap
  3 -2.129000 -3.714101 66.227600 -0.580103 -0.810905 0.076901 0.401100 0.448000 1 3 1.000000
  3 -3.057400 -0.631900 67.361801 -0.927408 -0.326003 -0.183402 0.263700 0.523900 1 3 1.000000
  3 -2.792200 -0.826100 65.431099 -0.968912 -0.092401 -0.229503 0.267200 0.380200 1 3 1.000000
art_facemap
  3 -3.057400 -0.631900 67.361801 -0.927408 -0.326003 -0.183402 0.263700 0.523900 1 3 1.000000
  3 -3.530900 0.406100 66.194099 -0.700687 0.587589 -0.404693 0.213900 0.441300 1 3 1.000000
  3 -2.792200 -0.826100 65.431099 -0.968912 -0.092401 -0.229503 0.267200 0.380200 1 3 1.000000
art_facemap
  3 -2.792200 -0.826100 65.431099 -0.968912 -0.092401 -0.229503 0.267200 0.380200 1 3 1.000000
  3 -3.530900 0.406100 66.194099 -0.700687 0.587589 -0.404693 0.213900 0.441300 1 3 1.000000
  3 -3.146800 -0.379301 65.172501 -0.221295 0.208396 -0.952680 0.243900 0.366900 1 3 1.000000
art_facemap
  3 -2.793600 -0.404201 65.421204 -0.419513 0.361812 -0.832527 0.239900 0.369100 1 3 1.000000
  3 -3.146800 -0.379301 65.172501 -0.221295 0.208396 -0.952680 0.243900 0.366900 1 3 1.000000
  3 -3.530900 0.406100 66.194099 -0.700687 0.587589 -0.404693 0.213900 0.441300 1 3 1.000000
art_facemap
  3 -2.792200 -0.826100 65.431099 -0.968912 -0.092401 -0.229503 0.267200 0.380200 1 3 1.000000
  3 -3.146800 -0.379301 65.172501 -0.221295 0.208396 -0.952680 0.243900 0.366900 1 3 1.000000
  3 -2.793600 -0.404201 65.421204 -0.419513 0.361812 -0.832527 0.239900 0.369100 1 3 1.000000
art_facemap
  3 -2.393800 -0.067101 63.868198 -0.958528 0.261508 -0.113303 0.196100 0.274300 1 3 1.000000
  3 -2.792200 -0.826100 65.431099 -0.968912 -0.092401 -0.229503 0.267200 0.380200 1 3 1.000000
  3 -2.793600 -0.404201 65.421204 -0.419513 0.361812 -0.832527 0.239900 0.369100 1 3 1.000000
art_facemap
  3 -2.393800 -0.067101 63.868198 -0.958528 0.261508 -0.113303 0.196100 0.274300 1 3 1.000000
  3 -2.315100 -2.739201 63.862000 -0.890271 -0.304590 -0.338589 0.354900 0.277700 1 3 1.000000
  3 -2.792200 -0.826100 65.431099 -0.968912 -0.092401 -0.229503 0.267200 0.380200 1 3 1.000000
art_facemap
  3 -2.393800 -0.067101 63.868198 -0.958528 0.261508 -0.113303 0.196100 0.274300 1 3 1.000000
  3 -1.460600 -2.181401 62.574100 -0.744714 -0.436309 -0.505010 0.354200 0.147400 1 3 1.000000
  3 -2.315100 -2.739201 63.862000 -0.890271 -0.304590 -0.338589 0.354900 0.277700 1 3 1.000000
art_facemap
  3 -2.315100 -2.739201 63.862000 -0.890271 -0.304590 -0.338589 0.354900 0.277700 1 3 1.000000
  3 -1.460600 -2.181401 62.574100 -0.744714 -0.436309 -0.505010 0.354200 0.147400 1 3 1.000000
  3 -0.931900 -4.248401 62.704800 -0.596758 -0.554761 -0.579759 0.454200 0.173900 1 3 1.000000
art_facemap
  3 -1.460600 -2.181401 62.574100 -0.744714 -0.436309 -0.505010 0.354200 0.147400 1 3 1.000000
  3 -0.058600 -3.157101 62.266399 0.000000 -0.212301 -0.977204 0.497200 0.110300 1 3 1.000000
  3 -0.931900 -4.248401 62.704800 -0.596758 -0.554761 -0.579759 0.454200 0.173900 1 3 1.000000
art_facemap
  3 -0.931900 -4.248401 62.704800 -0.596758 -0.554761 -0.579759 0.454200 0.173900 1 3 1.000000
  3 -0.058600 -3.157101 62.266399 0.000000 -0.212301 -0.977204 0.497200 0.110300 1 3 1.000000
  3 0.662500 -4.324101 62.659500 0.419088 -0.624482 -0.659081 0.528600 0.169500 1 3 1.000000
art_facemap
  3 0.535900 -2.779901 62.215302 0.419191 -0.484390 -0.767884 0.550100 0.112700 1 3 1.000000
  3 0.662500 -4.324101 62.659500 0.419088 -0.624482 -0.659081 0.528600 0.169500 1 3 1.000000
  3 -0.058600 -3.157101 62.266399 0.000000 -0.212301 -0.977204 0.497200 0.110300 1 3 1.000000
art_facemap
  3 0.535900 -2.779901 62.215302 0.419191 -0.484390 -0.767884 0.550100 0.112700 1 3 1.000000
  3 2.121200 -2.851201 63.727299 0.874985 -0.341094 -0.343594 0.632900 0.265900 1 3 1.000000
  3 0.662500 -4.324101 62.659500 0.419088 -0.624482 -0.659081 0.528600 0.169500 1 3 1.000000
art_facemap
  3 2.121200 -2.851201 63.727299 0.874985 -0.341094 -0.343594 0.632900 0.265900 1 3 1.000000
  3 1.506600 -3.901701 63.959499 0.668807 -0.737107 -0.096801 0.570300 0.281600 1 3 1.000000
  3 0.662500 -4.324101 62.659500 0.419088 -0.624482 -0.659081 0.528600 0.169500 1 3 1.000000
art_facemap
  3 1.506600 -3.901701 63.959499 0.668807 -0.737107 -0.096801 0.570300 0.281600 1 3 1.000000
  3 2.121200 -2.851201 63.727299 0.874985 -0.341094 -0.343594 0.632900 0.265900 1 3 1.000000
  3 2.216500 -3.540900 66.261597 0.734901 -0.676201 0.051700 0.607200 0.441400 1 3 1.000000
art_facemap
  3 1.506600 -3.901701 63.959499 0.668807 -0.737107 -0.096801 0.570300 0.281600 1 3 1.000000
  3 2.216500 -3.540900 66.261597 0.734901 -0.676201 0.051700 0.607200 0.441400 1 3 1.000000
  3 0.925200 -4.259501 65.514297 0.611025 -0.789432 0.058702 0.540800 0.392600 1 3 1.000000
art_facemap
  3 -0.058600 -4.812500 65.443100 0.045301 -0.924528 -0.378411 0.493300 0.379200 1 3 1.000000
  3 -0.328300 -4.970801 64.787399 -0.354704 -0.915511 -0.189802 0.480800 0.336600 1 3 1.000000
  3 0.330500 -4.920300 64.783302 0.459114 -0.872327 -0.168105 0.507800 0.335800 1 3 1.000000
art_facemap
  3 0.330500 -4.920300 64.783302 0.459114 -0.872327 -0.168105 0.507800 0.335800 1 3 1.000000
  3 0.925200 -4.259501 65.514297 0.611025 -0.789432 0.058702 0.540800 0.392600 1 3 1.000000
  3 -0.058600 -4.812500 65.443100 0.045301 -0.924528 -0.378411 0.493300 0.379200 1 3 1.000000
art_facemap
  3 0.925200 -4.259501 65.514297 0.611025 -0.789432 0.058702 0.540800 0.392600 1 3 1.000000
  3 0.330500 -4.920300 64.783302 0.459114 -0.872327 -0.168105 0.507800 0.335800 1 3 1.000000
  3 1.506600 -3.901701 63.959499 0.668807 -0.737107 -0.096801 0.570300 0.281600 1 3 1.000000
art_facemap
  3 1.506600 -3.901701 63.959499 0.668807 -0.737107 -0.096801 0.570300 0.281600 1 3 1.000000
  3 0.330500 -4.920300 64.783302 0.459114 -0.872327 -0.168105 0.507800 0.335800 1 3 1.000000
  3 -0.428000 -4.834901 64.254997 -0.458016 -0.888730 -0.019501 0.474700 0.301300 1 3 1.000000
art_facemap
  3 0.662500 -4.324101 62.659500 0.419088 -0.624482 -0.659081 0.528600 0.169500 1 3 1.000000
  3 1.506600 -3.901701 63.959499 0.668807 -0.737107 -0.096801 0.570300 0.281600 1 3 1.000000
  3 -0.428000 -4.834901 64.254997 -0.458016 -0.888730 -0.019501 0.474700 0.301300 1 3 1.000000
art_facemap
  3 -0.428000 -4.834901 64.254997 -0.458016 -0.888730 -0.019501 0.474700 0.301300 1 3 1.000000
  3 -0.931900 -4.248401 62.704800 -0.596758 -0.554761 -0.579759 0.454200 0.173900 1 3 1.000000
  3 0.662500 -4.324101 62.659500 0.419088 -0.624482 -0.659081 0.528600 0.169500 1 3 1.000000
art_facemap
  3 -0.428000 -4.834901 64.254997 -0.458016 -0.888730 -0.019501 0.474700 0.301300 1 3 1.000000
  3 -0.980700 -4.276301 64.430099 -0.535293 -0.838289 -0.103599 0.452400 0.322300 1 3 1.000000
  3 -0.931900 -4.248401 62.704800 -0.596758 -0.554761 -0.579759 0.454200 0.173900 1 3 1.000000
art_facemap
  3 -0.931900 -4.248401 62.704800 -0.596758 -0.554761 -0.579759 0.454200 0.173900 1 3 1.000000
  3 -0.980700 -4.276301 64.430099 -0.535293 -0.838289 -0.103599 0.452400 0.322300 1 3 1.000000
  3 -2.315100 -2.739201 63.862000 -0.890271 -0.304590 -0.338589 0.354900 0.277700 1 3 1.000000
art_facemap
  3 1.123500 -3.773000 67.491600 -0.025599 -0.975970 -0.216393 0.562500 0.526700 1 3 1.000000
  3 0.925200 -4.259501 65.514297 0.611025 -0.789432 0.058702 0.540800 0.392600 1 3 1.000000
  3 2.216500 -3.540900 66.261597 0.734901 -0.676201 0.051700 0.607200 0.441400 1 3 1.000000
art_facemap
  3 1.123500 -3.773000 67.491600 -0.025599 -0.975970 -0.216393 0.562500 0.526700 1 3 1.000000
  3 0.685100 -3.674500 67.359100 0.325316 -0.944746 0.040302 0.538600 0.517400 1 3 1.000000
  3 0.925200 -4.259501 65.514297 0.611025 -0.789432 0.058702 0.540800 0.392600 1 3 1.000000
art_facemap
  3 1.123500 -3.773000 67.491600 -0.025599 -0.975970 -0.216393 0.562500 0.526700 1 3 1.000000
  3 -0.058600 -4.373900 67.471703 0.085300 -0.964895 0.248399 0.497800 0.519400 1 3 1.000000
  3 0.685100 -3.674500 67.359100 0.325316 -0.944746 0.040302 0.538600 0.517400 1 3 1.000000
art_facemap
  3 0.925200 -4.259501 65.514297 0.611025 -0.789432 0.058702 0.540800 0.392600 1 3 1.000000
  3 0.685100 -3.674500 67.359100 0.325316 -0.944746 0.040302 0.538600 0.517400 1 3 1.000000
  3 -0.058600 -4.373900 67.471703 0.085300 -0.964895 0.248399 0.497800 0.519400 1 3 1.000000
art_facemap
  3 0.925200 -4.259501 65.514297 0.611025 -0.789432 0.058702 0.540800 0.392600 1 3 1.000000
  3 -0.058600 -4.373900 67.471703 0.085300 -0.964895 0.248399 0.497800 0.519400 1 3 1.000000
  3 -0.058600 -5.278601 66.023300 -0.018001 -0.985450 0.169009 0.494400 0.430300 1 3 1.000000
art_facemap
  3 -0.058600 -5.278601 66.023300 -0.018001 -0.985450 0.169009 0.494400 0.430300 1 3 1.000000
  3 -0.058600 -4.812500 65.443100 0.045301 -0.924528 -0.378411 0.493300 0.379200 1 3 1.000000
  3 0.925200 -4.259501 65.514297 0.611025 -0.789432 0.058702 0.540800 0.392600 1 3 1.000000
art_facemap
  3 -0.058600 -5.278601 66.023300 -0.018001 -0.985450 0.169009 0.494400 0.430300 1 3 1.000000
  3 -1.067900 -4.259501 65.466103 -0.576813 -0.812618 0.083302 0.446500 0.392900 1 3 1.000000
  3 -0.058600 -4.812500 65.443100 0.045301 -0.924528 -0.378411 0.493300 0.379200 1 3 1.000000
art_facemap
  3 -1.067900 -4.259501 65.466103 -0.576813 -0.812618 0.083302 0.446500 0.392900 1 3 1.000000
  3 -0.328300 -4.970801 64.787399 -0.354704 -0.915511 -0.189802 0.480800 0.336600 1 3 1.000000
  3 -0.058600 -4.812500 65.443100 0.045301 -0.924528 -0.378411 0.493300 0.379200 1 3 1.000000
art_facemap
  3 -0.980700 -4.276301 64.430099 -0.535293 -0.838289 -0.103599 0.452400 0.322300 1 3 1.000000
  3 -0.328300 -4.970801 64.787399 -0.354704 -0.915511 -0.189802 0.480800 0.336600 1 3 1.000000
  3 -1.067900 -4.259501 65.466103 -0.576813 -0.812618 0.083302 0.446500 0.392900 1 3 1.000000
art_facemap
  3 -2.129000 -3.714101 66.227600 -0.580103 -0.810905 0.076901 0.401100 0.448000 1 3 1.000000
  3 -0.980700 -4.276301 64.430099 -0.535293 -0.838289 -0.103599 0.452400 0.322300 1 3 1.000000
  3 -1.067900 -4.259501 65.466103 -0.576813 -0.812618 0.083302 0.446500 0.392900 1 3 1.000000
art_facemap
  3 -2.129000 -3.714101 66.227600 -0.580103 -0.810905 0.076901 0.401100 0.448000 1 3 1.000000
  3 -2.315100 -2.739201 63.862000 -0.890271 -0.304590 -0.338589 0.354900 0.277700 1 3 1.000000
  3 -0.980700 -4.276301 64.430099 -0.535293 -0.838289 -0.103599 0.452400 0.322300 1 3 1.000000
art_facemap
  3 -2.315100 -2.739201 63.862000 -0.890271 -0.304590 -0.338589 0.354900 0.277700 1 3 1.000000
  3 -2.129000 -3.714101 66.227600 -0.580103 -0.810905 0.076901 0.401100 0.448000 1 3 1.000000
  3 -2.792200 -0.826100 65.431099 -0.968912 -0.092401 -0.229503 0.267200 0.380200 1 3 1.000000
art_facemap
  3 -0.058600 -4.373900 67.471703 0.085300 -0.964895 0.248399 0.497800 0.519400 1 3 1.000000
  3 -1.067900 -4.259501 65.466103 -0.576813 -0.812618 0.083302 0.446500 0.392900 1 3 1.000000
  3 -0.058600 -5.278601 66.023300 -0.018001 -0.985450 0.169009 0.494400 0.430300 1 3 1.000000
art_facemap
  3 -0.058600 -4.373900 67.471703 0.085300 -0.964895 0.248399 0.497800 0.519400 1 3 1.000000
  3 -0.802300 -3.674500 67.359100 -0.314602 -0.947505 0.057100 0.460200 0.517600 1 3 1.000000
  3 -1.067900 -4.259501 65.466103 -0.576813 -0.812618 0.083302 0.446500 0.392900 1 3 1.000000
art_facemap
  3 -1.067900 -4.259501 65.466103 -0.576813 -0.812618 0.083302 0.446500 0.392900 1 3 1.000000
  3 -0.802300 -3.674500 67.359100 -0.314602 -0.947505 0.057100 0.460200 0.517600 1 3 1.000000
  3 -2.129000 -3.714101 66.227600 -0.580103 -0.810905 0.076901 0.401100 0.448000 1 3 1.000000
art_facemap
  3 -0.802300 -3.674500 67.359100 -0.314602 -0.947505 0.057100 0.460200 0.517600 1 3 1.000000
  3 -1.374800 -3.747500 67.482201 -0.257713 -0.938248 -0.230812 0.433000 0.526500 1 3 1.000000
  3 -2.129000 -3.714101 66.227600 -0.580103 -0.810905 0.076901 0.401100 0.448000 1 3 1.000000
art_facemap
  3 -1.374800 -3.747500 67.482201 -0.257713 -0.938248 -0.230812 0.433000 0.526500 1 3 1.000000
  3 -0.802300 -3.674500 67.359100 -0.314602 -0.947505 0.057100 0.460200 0.517600 1 3 1.000000
  3 -0.058600 -4.373900 67.471703 0.085300 -0.964895 0.248399 0.497800 0.519400 1 3 1.000000
art_facemap
  3 2.187800 -0.188600 61.420597 0.987018 -0.150003 -0.057401 0.815100 0.105500 1 3 1.000000
  3 1.656600 1.389599 64.470398 0.773919 0.598115 -0.208105 0.884300 0.330800 1 3 1.000000
  3 2.652500 -0.605100 65.377098 0.483580 -0.027599 -0.874865 0.737000 0.367700 1 3 1.000000
art_facemap
  3 2.652500 -0.605100 65.377098 0.483580 -0.027599 -0.874865 0.737000 0.367700 1 3 1.000000
  3 2.276900 -0.724501 63.415501 0.940400 -0.131300 -0.313700 0.751300 0.235400 1 3 1.000000
  3 2.187800 -0.188600 61.420597 0.987018 -0.150003 -0.057401 0.815100 0.105500 1 3 1.000000
art_facemap
  3 2.276900 -0.724501 63.415501 0.940400 -0.131300 -0.313700 0.751300 0.235400 1 3 1.000000
  3 2.652500 -0.605100 65.377098 0.483580 -0.027599 -0.874865 0.737000 0.367700 1 3 1.000000
  3 2.784400 -0.680200 65.870300 0.999952 0.001800 -0.009600 0.728900 0.414000 1 3 1.000000
art_facemap
  3 3.224700 0.217300 65.765404 -0.064403 0.856435 -0.512221 0.769700 0.415600 1 3 1.000000
  3 2.784400 -0.680200 65.870300 0.999952 0.001800 -0.009600 0.728900 0.414000 1 3 1.000000
  3 2.652500 -0.605100 65.377098 0.483580 -0.027599 -0.874865 0.737000 0.367700 1 3 1.000000
art_facemap
  3 2.784400 -0.680200 65.870300 0.999952 0.001800 -0.009600 0.728900 0.414000 1 3 1.000000
  3 3.224700 0.217300 65.765404 -0.064403 0.856435 -0.512221 0.769700 0.415600 1 3 1.000000
  3 3.518000 0.221900 67.581200 0.722912 0.236204 0.649311 0.764300 0.534700 1 3 1.000000
art_facemap
  3 3.518000 0.221900 67.581200 0.722912 0.236204 0.649311 0.764300 0.534700 1 3 1.000000
  3 3.224700 0.217300 65.765404 -0.064403 0.856435 -0.512221 0.769700 0.415600 1 3 1.000000
  3 2.965400 0.269600 67.012299 0.722515 0.647913 0.241205 0.779600 0.514900 1 3 1.000000
art_facemap
  3 2.957600 -0.623800 67.382401 0.934729 -0.323710 -0.146605 0.728600 0.523400 1 3 1.000000
  3 3.518000 0.221900 67.581200 0.722912 0.236204 0.649311 0.764300 0.534700 1 3 1.000000
  3 2.965400 0.269600 67.012299 0.722515 0.647913 0.241205 0.779600 0.514900 1 3 1.000000
art_facemap
  3 2.965400 0.269600 67.012299 0.722515 0.647913 0.241205 0.779600 0.514900 1 3 1.000000
  3 3.307900 0.489300 68.332802 0.990304 -0.013100 -0.138300 0.781200 0.618800 1 3 1.000000
  3 2.957600 -0.623800 67.382401 0.934729 -0.323710 -0.146605 0.728600 0.523400 1 3 1.000000
art_facemap
  3 2.957600 -0.623800 67.382401 0.934729 -0.323710 -0.146605 0.728600 0.523400 1 3 1.000000
  3 3.307900 0.489300 68.332802 0.990304 -0.013100 -0.138300 0.781200 0.618800 1 3 1.000000
  3 2.826600 -1.673200 68.983002 0.847689 -0.530493 0.000200 0.678900 0.636100 1 3 1.000000
art_facemap
  3 2.784400 -0.680200 65.870300 0.999952 0.001800 -0.009600 0.728900 0.414000 1 3 1.000000
  3 2.957600 -0.623800 67.382401 0.934729 -0.323710 -0.146605 0.728600 0.523400 1 3 1.000000
  3 2.826600 -1.673200 68.983002 0.847689 -0.530493 0.000200 0.678900 0.636100 1 3 1.000000
art_facemap
  3 2.784400 -0.680200 65.870300 0.999952 0.001800 -0.009600 0.728900 0.414000 1 3 1.000000
  3 2.826600 -1.673200 68.983002 0.847689 -0.530493 0.000200 0.678900 0.636100 1 3 1.000000
  3 2.216500 -3.540900 66.261597 0.734901 -0.676201 0.051700 0.607200 0.441400 1 3 1.000000
art_facemap
  3 2.208500 -3.113900 67.212502 0.776823 -0.595518 0.204706 0.614900 0.503200 1 3 1.000000
  3 2.216500 -3.540900 66.261597 0.734901 -0.676201 0.051700 0.607200 0.441400 1 3 1.000000
  3 2.826600 -1.673200 68.983002 0.847689 -0.530493 0.000200 0.678900 0.636100 1 3 1.000000
art_facemap
  3 1.123500 -3.773000 67.491600 -0.025599 -0.975970 -0.216393 0.562500 0.526700 1 3 1.000000
  3 2.216500 -3.540900 66.261597 0.734901 -0.676201 0.051700 0.607200 0.441400 1 3 1.000000
  3 2.208500 -3.113900 67.212502 0.776823 -0.595518 0.204706 0.614900 0.503200 1 3 1.000000
art_facemap
  3 1.123500 -3.773000 67.491600 -0.025599 -0.975970 -0.216393 0.562500 0.526700 1 3 1.000000
  3 2.208500 -3.113900 67.212502 0.776823 -0.595518 0.204706 0.614900 0.503200 1 3 1.000000
  3 0.343700 -4.425601 68.596001 0.138103 -0.986823 0.084302 0.520300 0.592200 1 3 1.000000
art_facemap
  3 0.343700 -4.425601 68.596001 0.138103 -0.986823 0.084302 0.520300 0.592200 1 3 1.000000
  3 -0.058600 -4.373900 67.471703 0.085300 -0.964895 0.248399 0.497800 0.519400 1 3 1.000000
  3 1.123500 -3.773000 67.491600 -0.025599 -0.975970 -0.216393 0.562500 0.526700 1 3 1.000000
art_facemap
  3 0.343700 -4.425601 68.596001 0.138103 -0.986823 0.084302 0.520300 0.592200 1 3 1.000000
  3 -1.540000 -4.099101 68.540199 -0.507390 -0.846883 0.159197 0.430100 0.587900 1 3 1.000000
  3 -0.058600 -4.373900 67.471703 0.085300 -0.964895 0.248399 0.497800 0.519400 1 3 1.000000
art_facemap
  3 -1.374800 -3.747500 67.482201 -0.257713 -0.938248 -0.230812 0.433000 0.526500 1 3 1.000000
  3 -0.058600 -4.373900 67.471703 0.085300 -0.964895 0.248399 0.497800 0.519400 1 3 1.000000
  3 -1.540000 -4.099101 68.540199 -0.507390 -0.846883 0.159197 0.430100 0.587900 1 3 1.000000
art_facemap
  3 -2.159400 -3.539800 68.221603 -0.867610 -0.492106 0.071301 0.396200 0.574000 1 3 1.000000
  3 -1.374800 -3.747500 67.482201 -0.257713 -0.938248 -0.230812 0.433000 0.526500 1 3 1.000000
  3 -1.540000 -4.099101 68.540199 -0.507390 -0.846883 0.159197 0.430100 0.587900 1 3 1.000000
art_facemap
  3 2.784400 -0.680200 65.870300 0.999952 0.001800 -0.009600 0.728900 0.414000 1 3 1.000000
  3 3.518000 0.221900 67.581200 0.722912 0.236204 0.649311 0.764300 0.534700 1 3 1.000000
  3 2.957600 -0.623800 67.382401 0.934729 -0.323710 -0.146605 0.728600 0.523400 1 3 1.000000
art_facemap
  3 2.965400 0.269600 67.012299 0.722515 0.647913 0.241205 0.779600 0.514900 1 3 1.000000
  3 3.224700 0.217300 65.765404 -0.064403 0.856435 -0.512221 0.769700 0.415600 1 3 1.000000
  3 2.652500 -0.605100 65.377098 0.483580 -0.027599 -0.874865 0.737000 0.367700 1 3 1.000000
art_facemap
  3 2.578500 0.834599 65.328598 0.853845 0.293381 -0.429972 0.808200 0.395300 1 3 1.000000
  3 2.965400 0.269600 67.012299 0.722515 0.647913 0.241205 0.779600 0.514900 1 3 1.000000
  3 2.652500 -0.605100 65.377098 0.483580 -0.027599 -0.874865 0.737000 0.367700 1 3 1.000000
art_facemap
  3 2.731600 2.438200 69.647797 0.764465 0.583073 0.274987 0.867100 0.757800 1 3 1.000000
  3 2.965400 0.269600 67.012299 0.722515 0.647913 0.241205 0.779600 0.514900 1 3 1.000000
  3 2.578500 0.834599 65.328598 0.853845 0.293381 -0.429972 0.808200 0.395300 1 3 1.000000
art_facemap
  3 2.731600 2.438200 69.647797 0.764465 0.583073 0.274987 0.867100 0.757800 1 3 1.000000
  3 3.307900 0.489300 68.332802 0.990304 -0.013100 -0.138300 0.781200 0.618800 1 3 1.000000
  3 2.965400 0.269600 67.012299 0.722515 0.647913 0.241205 0.779600 0.514900 1 3 1.000000
art_facemap
  3 -1.740500 -2.779700 71.045898 -0.724110 -0.583108 0.368305 0.408100 0.806300 1 3 1.000000
  3 -3.206500 -1.024100 69.690498 -0.941107 -0.303702 0.148601 0.283200 0.709500 1 3 1.000000
  3 -2.159400 -3.539800 68.221603 -0.867610 -0.492106 0.071301 0.396200 0.574000 1 3 1.000000
art_facemap
  3 -1.740500 -2.779700 71.045898 -0.724110 -0.583108 0.368305 0.408100 0.806300 1 3 1.000000
  3 -2.159400 -3.539800 68.221603 -0.867610 -0.492106 0.071301 0.396200 0.574000 1 3 1.000000
  3 -1.540000 -4.099101 68.540199 -0.507390 -0.846883 0.159197 0.430100 0.587900 1 3 1.000000
art_facemap
  3 -1.540000 -4.099101 68.540199 -0.507390 -0.846883 0.159197 0.430100 0.587900 1 3 1.000000
  3 -1.003900 -3.448500 70.454697 -0.488919 -0.841432 0.230109 0.449600 0.747100 1 3 1.000000
  3 -1.740500 -2.779700 71.045898 -0.724110 -0.583108 0.368305 0.408100 0.806300 1 3 1.000000
art_facemap
  3 0.343700 -4.425601 68.596001 0.138103 -0.986823 0.084302 0.520300 0.592200 1 3 1.000000
  3 -1.003900 -3.448500 70.454697 -0.488919 -0.841432 0.230109 0.449600 0.747100 1 3 1.000000
  3 -1.540000 -4.099101 68.540199 -0.507390 -0.846883 0.159197 0.430100 0.587900 1 3 1.000000
art_facemap
  3 0.343700 -4.425601 68.596001 0.138103 -0.986823 0.084302 0.520300 0.592200 1 3 1.000000
  3 0.907000 -3.447300 70.454597 0.400284 -0.861066 0.313588 0.550900 0.737600 1 3 1.000000
  3 -1.003900 -3.448500 70.454697 -0.488919 -0.841432 0.230109 0.449600 0.747100 1 3 1.000000
art_facemap
  3 2.208500 -3.113900 67.212502 0.776823 -0.595518 0.204706 0.614900 0.503200 1 3 1.000000
  3 0.907000 -3.447300 70.454597 0.400284 -0.861066 0.313588 0.550900 0.737600 1 3 1.000000
  3 0.343700 -4.425601 68.596001 0.138103 -0.986823 0.084302 0.520300 0.592200 1 3 1.000000
art_facemap
  3 2.208500 -3.113900 67.212502 0.776823 -0.595518 0.204706 0.614900 0.503200 1 3 1.000000
  3 1.698500 -2.779900 71.039398 0.714388 -0.587390 0.380293 0.594700 0.808300 1 3 1.000000
  3 0.907000 -3.447300 70.454597 0.400284 -0.861066 0.313588 0.550900 0.737600 1 3 1.000000
art_facemap
  3 2.208500 -3.113900 67.212502 0.776823 -0.595518 0.204706 0.614900 0.503200 1 3 1.000000
  3 2.826600 -1.673200 68.983002 0.847689 -0.530493 0.000200 0.678900 0.636100 1 3 1.000000
  3 1.698500 -2.779900 71.039398 0.714388 -0.587390 0.380293 0.594700 0.808300 1 3 1.000000
art_facemap
  3 2.826600 -1.673200 68.983002 0.847689 -0.530493 0.000200 0.678900 0.636100 1 3 1.000000
  3 2.634300 -1.499300 70.753601 0.831897 -0.304999 0.463598 0.665600 0.813800 1 3 1.000000
  3 1.698500 -2.779900 71.039398 0.714388 -0.587390 0.380293 0.594700 0.808300 1 3 1.000000
art_facemap
  3 2.826600 -1.673200 68.983002 0.847689 -0.530493 0.000200 0.678900 0.636100 1 3 1.000000
  3 3.307900 0.489300 68.332802 0.990304 -0.013100 -0.138300 0.781200 0.618800 1 3 1.000000
  3 2.634300 -1.499300 70.753601 0.831897 -0.304999 0.463598 0.665600 0.813800 1 3 1.000000
art_facemap
  3 2.634300 -1.499300 70.753601 0.831897 -0.304999 0.463598 0.665600 0.813800 1 3 1.000000
  3 3.307900 0.489300 68.332802 0.990304 -0.013100 -0.138300 0.781200 0.618800 1 3 1.000000
  3 2.770800 0.927300 70.786797 0.799010 0.176902 0.574707 0.814800 0.831300 1 3 1.000000
art_facemap
  3 2.731600 2.438200 69.647797 0.764465 0.583073 0.274987 0.867100 0.757800 1 3 1.000000
  3 2.770800 0.927300 70.786797 0.799010 0.176902 0.574707 0.814800 0.831300 1 3 1.000000
  3 3.307900 0.489300 68.332802 0.990304 -0.013100 -0.138300 0.781200 0.618800 1 3 1.000000
art_facemap
  3 2.770800 0.927300 70.786797 0.799010 0.176902 0.574707 0.814800 0.831300 1 3 1.000000
  3 2.731600 2.438200 69.647797 0.764465 0.583073 0.274987 0.867100 0.757800 1 3 1.000000
  3 1.276200 1.984400 71.385399 0.319319 0.484129 0.814649 0.881000 0.913300 1 3 1.000000
art_facemap
  3 1.276200 1.984400 71.385399 0.319319 0.484129 0.814649 0.881000 0.913300 1 3 1.000000
  3 2.731600 2.438200 69.647797 0.764465 0.583073 0.274987 0.867100 0.757800 1 3 1.000000
  3 -0.044500 3.295200 70.506599 -0.004400 0.816641 0.577129 1.000300 0.835200 1 3 1.000000
art_facemap
  3 -0.044500 3.295200 70.506599 -0.004400 0.816641 0.577129 1.000300 0.835200 1 3 1.000000
  3 2.731600 2.438200 69.647797 0.764465 0.583073 0.274987 0.867100 0.757800 1 3 1.000000
  3 1.106200 3.499700 67.284302 0.312401 0.910801 -0.269901 0.957300 0.528200 1 3 1.000000
art_facemap
  3 2.731600 2.438200 69.647797 0.764465 0.583073 0.274987 0.867100 0.757800 1 3 1.000000
  3 2.578500 0.834599 65.328598 0.853845 0.293381 -0.429972 0.808200 0.395300 1 3 1.000000
  3 1.106200 3.499700 67.284302 0.312401 0.910801 -0.269901 0.957300 0.528200 1 3 1.000000
art_facemap
  3 1.656600 1.389599 64.470398 0.773919 0.598115 -0.208105 0.884300 0.330800 1 3 1.000000
  3 1.106200 3.499700 67.284302 0.312401 0.910801 -0.269901 0.957300 0.528200 1 3 1.000000
  3 2.578500 0.834599 65.328598 0.853845 0.293381 -0.429972 0.808200 0.395300 1 3 1.000000
art_facemap
  3 2.578500 0.834599 65.328598 0.853845 0.293381 -0.429972 0.808200 0.395300 1 3 1.000000
  3 2.652500 -0.605100 65.377098 0.483580 -0.027599 -0.874865 0.737000 0.367700 1 3 1.000000
  3 1.656600 1.389599 64.470398 0.773919 0.598115 -0.208105 0.884300 0.330800 1 3 1.000000
art_facemap
  3 -0.630400 -2.708000 71.569901 -0.150003 -0.403009 0.902819 0.465700 0.851900 1 3 1.000000
  3 1.698500 -2.779900 71.039398 0.714388 -0.587390 0.380293 0.594700 0.808300 1 3 1.000000
  3 1.887100 -1.627100 71.496696 0.485204 -0.246602 0.838907 0.623800 0.883100 1 3 1.000000
art_facemap
  3 1.887100 -1.627100 71.496696 0.485204 -0.246602 0.838907 0.623800 0.883100 1 3 1.000000
  3 1.698500 -2.779900 71.039398 0.714388 -0.587390 0.380293 0.594700 0.808300 1 3 1.000000
  3 2.634300 -1.499300 70.753601 0.831897 -0.304999 0.463598 0.665600 0.813800 1 3 1.000000
art_facemap
  3 2.634300 -1.499300 70.753601 0.831897 -0.304999 0.463598 0.665600 0.813800 1 3 1.000000
  3 2.770800 0.927300 70.786797 0.799010 0.176902 0.574707 0.814800 0.831300 1 3 1.000000
  3 1.887100 -1.627100 71.496696 0.485204 -0.246602 0.838907 0.623800 0.883100 1 3 1.000000
art_facemap
  3 1.350400 0.008900 71.866203 0.306494 0.036299 0.951180 0.749400 0.915200 1 3 1.000000
  3 1.887100 -1.627100 71.496696 0.485204 -0.246602 0.838907 0.623800 0.883100 1 3 1.000000
  3 2.770800 0.927300 70.786797 0.799010 0.176902 0.574707 0.814800 0.831300 1 3 1.000000
art_facemap
  3 1.276200 1.984400 71.385399 0.319319 0.484129 0.814649 0.881000 0.913300 1 3 1.000000
  3 1.350400 0.008900 71.866203 0.306494 0.036299 0.951180 0.749400 0.915200 1 3 1.000000
  3 2.770800 0.927300 70.786797 0.799010 0.176902 0.574707 0.814800 0.831300 1 3 1.000000
art_facemap
  3 1.350400 0.008900 71.866203 0.306494 0.036299 0.951180 0.749400 0.915200 1 3 1.000000
  3 1.276200 1.984400 71.385399 0.319319 0.484129 0.814649 0.881000 0.913300 1 3 1.000000
  3 -0.740900 1.140200 71.823700 -0.155308 0.331318 0.930649 0.821200 0.995900 1 3 1.000000
art_facemap
  3 1.887100 -1.627100 71.496696 0.485204 -0.246602 0.838907 0.623800 0.883100 1 3 1.000000
  3 1.350400 0.008900 71.866203 0.306494 0.036299 0.951180 0.749400 0.915200 1 3 1.000000
  3 -0.630400 -2.708000 71.569901 -0.129903 -0.366709 0.921222 0.686100 0.996900 1 3 1.000000
art_facemap
  3 1.656600 1.389599 64.470398 0.773919 0.598115 -0.208105 0.884300 0.330800 1 3 1.000000
  3 -0.487000 2.340600 64.434196 -0.140999 0.955693 -0.258398 0.998700 0.340000 1 3 1.000000
  3 1.106200 3.499700 67.284302 0.312401 0.910801 -0.269901 0.957300 0.528200 1 3 1.000000
art_facemap
  3 1.656600 1.389599 64.470398 0.773919 0.598115 -0.208105 0.884300 0.330800 1 3 1.000000
  3 -0.058600 2.492001 62.359001 0.000000 0.986193 0.165599 0.998000 0.196300 1 3 1.000000
  3 -0.487000 2.340600 64.434196 -0.140999 0.955693 -0.258398 0.998700 0.340000 1 3 1.000000
art_facemap
  3 1.656600 1.389599 64.470398 0.773919 0.598115 -0.208105 0.884300 0.330800 1 3 1.000000
  3 2.187800 -0.188600 61.420597 0.987018 -0.150003 -0.057401 0.815100 0.105500 1 3 1.000000
  3 -0.058600 2.492001 62.359001 0.000000 0.986193 0.165599 0.998000 0.196300 1 3 1.000000
art_facemap
  3 -3.530900 0.406100 66.194099 -0.700687 0.587589 -0.404693 0.213900 0.441300 1 3 1.000000
  3 -3.082500 0.269600 67.012299 -0.592018 0.803025 0.068302 0.209100 0.501800 1 3 1.000000
  3 -2.793600 -0.404201 65.421204 -0.419513 0.361812 -0.832527 0.239900 0.369100 1 3 1.000000
art_facemap
  3 -3.530900 0.406100 66.194099 -0.700687 0.587589 -0.404693 0.213900 0.441300 1 3 1.000000
  3 -3.669300 0.502700 67.125099 -0.673095 0.713495 0.194598 0.215300 0.506900 1 3 1.000000
  3 -3.082500 0.269600 67.012299 -0.592018 0.803025 0.068302 0.209100 0.501800 1 3 1.000000
art_facemap
  3 -3.082500 0.269600 67.012299 -0.592018 0.803025 0.068302 0.209100 0.501800 1 3 1.000000
  3 -3.669300 0.502700 67.125099 -0.673095 0.713495 0.194598 0.215300 0.506900 1 3 1.000000
  3 -3.471700 -0.156300 67.679100 -0.475297 -0.305198 0.825195 0.244100 0.538500 1 3 1.000000
art_facemap
  3 -3.471700 -0.156300 67.679100 -0.475297 -0.305198 0.825195 0.244100 0.538500 1 3 1.000000
  3 -3.669300 0.502700 67.125099 -0.673095 0.713495 0.194598 0.215300 0.506900 1 3 1.000000
  3 -3.530900 0.406100 66.194099 -0.700687 0.587589 -0.404693 0.213900 0.441300 1 3 1.000000
art_facemap
  3 -3.530900 0.406100 66.194099 -0.700687 0.587589 -0.404693 0.213900 0.441300 1 3 1.000000
  3 -3.057400 -0.631900 67.361801 -0.927408 -0.326003 -0.183402 0.263700 0.523900 1 3 1.000000
  3 -3.471700 -0.156300 67.679100 -0.475297 -0.305198 0.825195 0.244100 0.538500 1 3 1.000000
art_facemap
  3 -3.471700 -0.156300 67.679100 -0.475297 -0.305198 0.825195 0.244100 0.538500 1 3 1.000000
  3 -3.057400 -0.631900 67.361801 -0.927408 -0.326003 -0.183402 0.263700 0.523900 1 3 1.000000
  3 -3.082500 0.269600 67.012299 -0.592018 0.803025 0.068302 0.209100 0.501800 1 3 1.000000
end
