// Created by Crowbar 0.68
version 1
nodes
  0 "ValveBiped.Bip01_Pelvis" -1
  1 "ValveBiped.Bip01_Spine" 0
  2 "ValveBiped.Bip01_Spine1" 1
  3 "ValveBiped.Bip01_Spine2" 2
  4 "ValveBiped.Bip01_Spine4" 3
  5 "ValveBiped.Bip01_Neck1" 4
  6 "ValveBiped.Bip01_Head1" 5
  7 "ValveBiped.forward" 6
  8 "ValveBiped.Bip01_R_Clavicle" 4
  9 "ValveBiped.Bip01_R_UpperArm" 8
  10 "ValveBiped.Bip01_R_Forearm" 9
  11 "ValveBiped.Bip01_R_Hand" 10
  12 "ValveBiped.Anim_Attachment_RH" 11
  13 "ValveBiped.Bip01_L_Clavicle" 4
  14 "ValveBiped.Bip01_L_UpperArm" 13
  15 "ValveBiped.Bip01_L_Forearm" 14
  16 "ValveBiped.Bip01_L_Hand" 15
  17 "ValveBiped.Anim_Attachment_LH" 16
  18 "ValveBiped.Bip01_R_Thigh" 0
  19 "ValveBiped.Bip01_R_Calf" 18
  20 "ValveBiped.Bip01_R_Foot" 19
  21 "ValveBiped.Bip01_L_Thigh" 0
  22 "ValveBiped.Bip01_L_Calf" 21
  23 "ValveBiped.Bip01_L_Foot" 22
  24 "ValveBiped.Bip01" -1
  25 "ValveBiped.Bip01_L_Toe0" 23
  26 "ValveBiped.Bip01_L_Shin" 22
  27 "ValveBiped.Bip01_L_Knee" 21
  28 "ValveBiped.Bip01_L_Quadricep" 21
  29 "ValveBiped.Bip01_R_Toe0" 20
  30 "ValveBiped.Bip01_R_Shin" 19
  31 "ValveBiped.Bip01_R_Quadricep" 18
  32 "ValveBiped.Bip01_R_Knee" 18
  33 "ValveBiped.Bip01_L_Finger3" 16
  34 "ValveBiped.Bip01_L_Finger31" 33
  35 "ValveBiped.Bip01_L_Finger32" 34
  36 "ValveBiped.Bip01_L_Finger2" 16
  37 "ValveBiped.Bip01_L_Finger21" 36
  38 "ValveBiped.Bip01_L_Finger22" 37
  39 "ValveBiped.Bip01_L_Finger1" 16
  40 "ValveBiped.Bip01_L_Finger11" 39
  41 "ValveBiped.Bip01_L_Finger12" 40
  42 "ValveBiped.Bip01_L_Finger0" 16
  43 "ValveBiped.Bip01_L_Finger01" 42
  44 "ValveBiped.Bip01_L_Finger02" 43
  45 "ValveBiped.Bip01_L_Finger4" 16
  46 "ValveBiped.Bip01_L_Finger41" 45
  47 "ValveBiped.Bip01_L_Finger42" 46
  48 "ValveBiped.Bip01_L_Ulna" 15
  49 "ValveBiped.Bip01_L_Wrist" 15
  50 "ValveBiped.Bip01_L_Elbow" 14
  51 "ValveBiped.Bip01_L_Shoulder" 14
  52 "ValveBiped.Bip01_L_Bicep" 14
  53 "ValveBiped.Bip01_L_Trapezius" 13
  54 "ValveBiped.Bip01_R_Finger3" 11
  55 "ValveBiped.Bip01_R_Finger31" 54
  56 "ValveBiped.Bip01_R_Finger32" 55
  57 "ValveBiped.Bip01_R_Finger2" 11
  58 "ValveBiped.Bip01_R_Finger21" 57
  59 "ValveBiped.Bip01_R_Finger22" 58
  60 "ValveBiped.Bip01_R_Finger1" 11
  61 "ValveBiped.Bip01_R_Finger11" 60
  62 "ValveBiped.Bip01_R_Finger12" 61
  63 "ValveBiped.Bip01_R_Finger0" 11
  64 "ValveBiped.Bip01_R_Finger01" 63
  65 "ValveBiped.Bip01_R_Finger02" 64
  66 "ValveBiped.Bip01_R_Finger4" 11
  67 "ValveBiped.Bip01_R_Finger41" 66
  68 "ValveBiped.Bip01_R_Finger42" 67
  69 "ValveBiped.Bip01_R_Ulna" 10
  70 "ValveBiped.Bip01_R_Wrist" 10
  71 "ValveBiped.Bip01_R_Shoulder" 9
  72 "ValveBiped.Bip01_R_Bicep" 9
  73 "ValveBiped.Bip01_R_Elbow" 9
  74 "ValveBiped.Bip01_R_Trapezius" 8
  75 "ValveBiped.Bip01_R_Pectoral" 3
  76 "ValveBiped.Bip01_L_Pectoral" 3
  77 "ValveBiped.Bip01_R_Latt" 3
  78 "ValveBiped.Bip01_L_Latt" 3
end
skeleton
  time 0
    0 0.000000 -0.533612 38.566914 1.570796 0.000000 0.000000
    1 0.000000 3.345132 -2.981898 1.570796 0.083193 1.570796
    2 3.995838 0.000000 0.000000 0.000000 0.000000 -0.028816
    3 3.520298 0.000000 0.000000 0.000000 0.000000 0.097307
    4 8.921476 0.000000 0.000000 0.000000 0.000000 0.186413
    5 3.306360 0.000002 0.000000 3.141590 0.000000 0.406109
    6 3.602000 -0.000002 0.000000 0.000000 -0.000001 0.405033
    7 2.000003 -3.000000 0.000000 -1.570796 0.000000 -1.326450
    8 2.059532 0.977924 -1.937661 -1.661569 1.286515 2.950147
    9 6.028141 0.000007 0.000000 1.633734 -0.011884 -0.586789
    10 11.692554 0.000000 -0.000001 0.000000 0.000000 -0.060372
    11 11.481691 0.000000 0.000000 -1.559993 0.038701 0.036022
    12 2.676087 -1.712443 0.000000 -1.570796 0.000000 -1.570795
    13 2.059529 0.977924 1.937661 1.589740 -1.286514 2.950147
    14 6.028141 0.000000 0.000000 -1.573855 0.051611 -0.584887
    15 11.692555 0.000000 -0.000006 0.000000 0.000000 -0.060372
    16 11.481671 0.000000 -0.000036 1.568292 -0.038709 0.036022
    17 2.676085 -1.712442 0.000000 1.570797 0.000000 1.570797
    18 -3.890447 0.000000 0.000000 -1.570796 0.051839 -1.576018
    19 17.848167 0.000000 0.000000 0.000000 0.000000 0.034200
    20 16.525238 0.000000 0.000000 0.038609 0.040781 -1.071639
    21 3.890447 0.000000 0.000000 -1.570796 0.051839 -1.565574
    22 17.848167 0.000000 0.000000 0.000000 0.000000 0.034200
    23 16.525238 0.000000 0.000000 -0.027915 -0.040781 -1.071638
    24 -0.000005 -0.533615 38.566917 1.570796 0.000000 0.000000
    25 6.879449 0.000002 0.000000 -0.007299 -0.002951 -0.584373
    26 7.766866 0.000000 0.000000 0.000000 0.000000 0.000000
    27 17.848169 0.000000 0.000000 0.000000 0.000000 0.016691
    28 7.139265 0.000000 0.000000 0.000000 0.000000 0.000000
    29 6.879451 0.000002 0.000000 -0.081334 -0.002951 -0.584373
    30 7.766869 0.000000 0.000001 0.000000 0.000000 0.000000
    31 7.139271 0.000000 0.000000 0.000000 0.000000 0.000000
    32 17.848167 0.000000 0.000000 0.000000 0.000000 0.016685
    33 3.942322 0.046777 -0.431443 -0.155014 0.073328 -0.810648
    34 1.539095 -0.000003 0.000000 0.000000 0.004460 -0.247797
    35 1.196324 0.000001 0.000000 0.000000 0.007361 -0.430802
    36 3.883687 -0.046764 0.431443 0.085902 0.021830 -0.587867
    37 1.719573 0.000001 0.000000 0.000000 0.005516 -0.366478
    38 1.209185 0.000002 0.000000 0.000000 0.003084 -0.216400
    39 3.859859 -0.137941 1.332466 0.354449 -0.042750 -0.531718
    40 1.719427 0.000005 0.000000 0.000000 0.004074 -0.363009
    41 1.099663 0.000000 0.000000 0.000000 0.002596 -0.244331
    42 0.806048 -0.348915 1.321258 -1.206854 -0.679488 -0.789308
    43 1.789784 -0.000002 0.000001 0.000000 0.007387 0.228523
    44 1.206999 -0.000002 0.000002 0.000000 0.011267 0.362860
    45 3.859704 -0.142400 -1.191974 -0.479144 0.152190 -0.879874
    46 1.312555 -0.000002 -0.000002 0.000000 0.009665 -0.439720
    47 0.729363 0.000001 0.000000 0.000000 0.004971 -0.244299
    48 5.740847 0.000000 0.000005 0.000688 0.000000 0.000000
    49 11.481695 0.000000 0.000009 0.001272 0.000000 0.000000
    50 11.692554 0.000000 0.000009 0.000000 0.000000 -0.029500
    51 1.499998 0.000000 0.000005 0.000000 0.000000 0.000000
    52 5.559999 0.000000 0.000006 0.000000 0.000000 0.000000
    53 5.166963 0.000002 0.000000 0.000000 0.000000 0.000000
    54 3.942297 0.050328 0.431043 0.154999 -0.079305 -0.810205
    55 1.539097 0.000002 0.000000 0.000000 -0.005854 -0.247771
    56 1.196325 0.000000 0.000000 0.000000 -0.009663 -0.430761
    57 3.883659 -0.050326 -0.431043 -0.085905 -0.026404 -0.587695
    58 1.719574 -0.000001 0.000000 0.000000 -0.007974 -0.366436
    59 1.209181 0.000000 0.000000 0.000000 -0.004461 -0.216376
    60 3.859833 -0.148934 -1.331282 -0.354419 0.038567 -0.532001
    61 1.719424 0.000001 0.000001 0.000000 -0.006613 -0.362970
    62 1.099666 0.000000 0.000001 0.000000 -0.004211 -0.244312
    63 0.806019 -0.359832 -1.318334 1.204200 0.673618 -0.793956
    64 1.789783 0.000001 0.000001 0.000000 -0.006301 0.228555
    65 1.206999 -0.000001 0.000000 0.000000 -0.009618 0.362905
    66 3.859675 -0.132568 1.193108 0.479140 -0.158545 -0.879041
    67 1.312563 0.000000 -0.000001 0.000000 -0.011932 -0.439672
    68 0.729363 -0.000004 0.000002 0.000000 -0.006134 -0.244271
    69 5.740848 0.000000 0.000003 0.000081 0.000000 0.000000
    70 11.481700 0.000000 0.000002 0.000150 0.000000 0.000000
    71 1.500002 0.000000 0.000005 0.000000 0.000000 0.000000
    72 5.560000 0.000000 0.000006 0.000000 0.000000 0.000000
    73 11.692548 0.000000 0.000006 0.000000 0.000000 -0.029500
    74 5.166965 0.000000 0.000000 0.000000 0.000000 0.000000
    75 1.025254 4.831669 -2.578000 0.000000 0.000000 0.000000
    76 1.025254 4.831550 2.578000 0.000000 0.000000 0.000000
    77 2.000000 1.400000 5.000000 0.000000 0.000000 0.000000
    78 2.000001 1.400000 -5.000000 0.000000 0.000000 0.000000
end
triangles
mouth
  3 1.563600 -4.498101 64.368202 0.545202 -0.835703 -0.066000 0.531800 0.453500 1 3 1.000000
  3 -1.399500 -4.498100 64.377403 -0.606964 -0.760754 -0.229886 0.474400 0.453800 1 3 1.000000
  3 -0.970100 -2.988901 65.282600 0.431502 -0.563203 -0.704704 0.063100 0.515500 1 3 1.000000
mouth
  3 -1.399500 -4.498100 64.377403 -0.606964 -0.760754 -0.229886 0.474400 0.453800 1 3 1.000000
  3 -0.940600 -2.906700 63.523399 0.409093 -0.603989 0.683988 0.063100 0.515500 1 3 1.000000
  3 -0.970100 -2.988901 65.282600 0.431502 -0.563203 -0.704704 0.063100 0.515500 1 3 1.000000
mouth
  3 -1.399500 -4.498100 64.377403 -0.606964 -0.760754 -0.229886 0.474400 0.453800 1 3 1.000000
  3 -0.568800 -4.903300 64.380600 -0.486317 -0.742825 0.460116 0.490700 0.453400 1 3 1.000000
  3 -0.940600 -2.906700 63.523399 0.409093 -0.603989 0.683988 0.063100 0.515500 1 3 1.000000
mouth
  3 -0.940600 -2.906700 63.523399 0.409093 -0.603989 0.683988 0.063100 0.515500 1 3 1.000000
  3 -0.568800 -4.903300 64.380600 -0.486317 -0.742825 0.460116 0.490700 0.453400 1 3 1.000000
  3 1.205200 -2.907601 63.527699 -0.415714 -0.601120 0.682523 0.934100 0.515300 1 3 1.000000
mouth
  3 -0.568800 -4.903300 64.380600 -0.486317 -0.742825 0.460116 0.490700 0.453400 1 3 1.000000
  3 1.563600 -4.498101 64.368202 0.545202 -0.835703 -0.066000 0.531800 0.453500 1 3 1.000000
  3 1.205200 -2.907601 63.527699 -0.415714 -0.601120 0.682523 0.934100 0.515300 1 3 1.000000
mouth
  3 1.563600 -4.498101 64.368202 0.545202 -0.835703 -0.066000 0.531800 0.453500 1 3 1.000000
  3 1.228300 -2.989901 65.286797 -0.448406 -0.562908 -0.694310 0.934400 0.515300 1 3 1.000000
  3 1.205200 -2.907601 63.527699 -0.415714 -0.601120 0.682523 0.934100 0.515300 1 3 1.000000
mouth
  3 1.563600 -4.498101 64.368202 0.545202 -0.835703 -0.066000 0.531800 0.453500 1 3 1.000000
  3 -0.970100 -2.988901 65.282600 0.431502 -0.563203 -0.704704 0.063100 0.515500 1 3 1.000000
  3 1.228300 -2.989901 65.286797 -0.448406 -0.562908 -0.694310 0.934400 0.515300 1 3 1.000000
mouth
  3 -0.970100 -2.988901 65.282600 0.431502 -0.563203 -0.704704 0.063100 0.515500 1 3 1.000000
  3 1.205200 -2.907601 63.527699 -0.415714 -0.601120 0.682523 0.934100 0.515300 1 3 1.000000
  3 1.228300 -2.989901 65.286797 -0.448406 -0.562908 -0.694310 0.934400 0.515300 1 3 1.000000
mouth
  3 -0.940600 -2.906700 63.523399 0.409093 -0.603989 0.683988 0.063100 0.515500 1 3 1.000000
  3 1.205200 -2.907601 63.527699 -0.415714 -0.601120 0.682523 0.934100 0.515300 1 3 1.000000
  3 -0.970100 -2.988901 65.282600 0.431502 -0.563203 -0.704704 0.063100 0.515500 1 3 1.000000
ted_facemap
  3 2.082200 2.876900 66.887802 0.586906 0.803908 -0.096301 0.922900 0.590400 1 3 1.000000
  3 2.100000 1.614900 63.658798 0.798206 0.599905 -0.054600 0.896900 0.327600 2 3 0.918000 13 0.082000
  3 -1.173300 2.317500 64.480904 -0.427873 0.819948 -0.380276 0.996700 0.404600 1 3 1.000000
ted_facemap
  3 1.756300 -3.990500 66.798599 0.575480 -0.816871 0.039299 0.590000 0.573500 1 3 1.000000
  3 0.754500 -4.810300 65.467499 0.578704 -0.746406 0.328603 0.533400 0.464800 1 3 1.000000
  3 1.563600 -4.498101 64.368202 0.564382 -0.807674 -0.170694 0.566600 0.384600 1 3 1.000000
ted_facemap
  3 2.780300 -3.100600 66.723000 0.910761 -0.401883 0.094896 0.655200 0.568600 1 3 1.000000
  3 1.756300 -3.990500 66.798599 0.575480 -0.816871 0.039299 0.590000 0.573500 1 3 1.000000
  3 1.563600 -4.498101 64.368202 0.564382 -0.807674 -0.170694 0.566600 0.384600 1 3 1.000000
ted_facemap
  3 2.780300 -3.100600 66.723000 0.910761 -0.401883 0.094896 0.655200 0.568600 1 3 1.000000
  3 2.104200 -4.159900 68.194901 0.726387 -0.686488 -0.033099 0.592800 0.685800 1 3 1.000000
  3 1.756300 -3.990500 66.798599 0.575480 -0.816871 0.039299 0.590000 0.573500 1 3 1.000000
ted_facemap
  3 3.131900 -0.403900 67.443398 0.995860 -0.088096 0.022399 0.787000 0.626300 1 3 1.000000
  3 2.104200 -4.159900 68.194901 0.726387 -0.686488 -0.033099 0.592800 0.685800 1 3 1.000000
  3 2.780300 -3.100600 66.723000 0.910761 -0.401883 0.094896 0.655200 0.568600 1 3 1.000000
ted_facemap
  3 1.689800 -1.208600 71.595596 0.492184 -0.171294 0.853471 0.738200 0.965100 1 3 1.000000
  3 2.104200 -4.159900 68.194901 0.726387 -0.686488 -0.033099 0.592800 0.685800 1 3 1.000000
  3 3.131900 -0.403900 67.443398 0.995860 -0.088096 0.022399 0.787000 0.626300 1 3 1.000000
ted_facemap
  3 2.518800 1.510000 70.372704 0.796082 0.364392 0.483189 0.876500 0.870100 1 3 1.000000
  3 1.689800 -1.208600 71.595596 0.492184 -0.171294 0.853471 0.738200 0.965100 1 3 1.000000
  3 3.131900 -0.403900 67.443398 0.995860 -0.088096 0.022399 0.787000 0.626300 1 3 1.000000
ted_facemap
  3 0.180100 2.207500 71.220596 0.004500 0.611071 0.791563 0.995400 0.939600 1 3 1.000000
  3 1.689800 -1.208600 71.595596 0.492184 -0.171294 0.853471 0.738200 0.965100 1 3 1.000000
  3 2.518800 1.510000 70.372704 0.796082 0.364392 0.483189 0.876500 0.870100 1 3 1.000000
ted_facemap
  3 1.145100 3.241800 69.082397 0.278591 0.941369 0.190294 0.957700 0.768300 1 3 1.000000
  3 0.180100 2.207500 71.220596 0.004500 0.611071 0.791563 0.995400 0.939600 1 3 1.000000
  3 2.518800 1.510000 70.372704 0.796082 0.364392 0.483189 0.876500 0.870100 1 3 1.000000
ted_facemap
  3 1.145100 3.241800 69.082397 0.278591 0.941369 0.190294 0.957700 0.768300 1 3 1.000000
  3 2.518800 1.510000 70.372704 0.796082 0.364392 0.483189 0.876500 0.870100 1 3 1.000000
  3 2.082200 2.876900 66.887802 0.586906 0.803908 -0.096301 0.922900 0.590400 1 3 1.000000
ted_facemap
  3 2.082200 2.876900 66.887802 0.586906 0.803908 -0.096301 0.922900 0.590400 1 3 1.000000
  3 2.518800 1.510000 70.372704 0.796082 0.364392 0.483189 0.876500 0.870100 1 3 1.000000
  3 2.974900 -0.146400 65.808998 0.401398 0.718196 -0.568397 0.808000 0.475100 1 3 1.000000
ted_facemap
  3 2.974900 -0.146400 65.808998 0.401398 0.718196 -0.568397 0.808000 0.475100 1 3 1.000000
  3 2.100000 1.614900 63.658798 0.798206 0.599905 -0.054600 0.896900 0.327600 2 3 0.918000 13 0.082000
  3 2.082200 2.876900 66.887802 0.586906 0.803908 -0.096301 0.922900 0.590400 1 3 1.000000
ted_facemap
  3 2.100000 1.614900 63.658798 0.798206 0.599905 -0.054600 0.896900 0.327600 2 3 0.918000 13 0.082000
  3 2.974900 -0.146400 65.808998 0.401398 0.718196 -0.568397 0.808000 0.475100 1 3 1.000000
  3 2.977400 -1.222500 65.333702 0.896619 -0.379408 -0.228305 0.748100 0.460500 1 3 1.000000
ted_facemap
  3 2.977400 -1.222500 65.333702 0.896619 -0.379408 -0.228305 0.748100 0.460500 1 3 1.000000
  3 2.607300 -0.079500 62.087799 0.966113 -0.248303 -0.070501 0.816000 0.198300 1 3 1.000000
  3 2.100000 1.614900 63.658798 0.798206 0.599905 -0.054600 0.896900 0.327600 2 3 0.918000 13 0.082000
ted_facemap
  3 2.607300 -0.079500 62.087799 0.966113 -0.248303 -0.070501 0.816000 0.198300 1 3 1.000000
  3 2.977400 -1.222500 65.333702 0.896619 -0.379408 -0.228305 0.748100 0.460500 1 3 1.000000
  3 0.731200 -2.033600 61.108498 0.279797 -0.907190 -0.314197 0.623100 0.116400 1 3 1.000000
ted_facemap
  3 1.857300 -3.709801 63.013500 0.822559 -0.372982 -0.429279 0.604000 0.268000 1 3 1.000000
  3 0.731200 -2.033600 61.108498 0.279797 -0.907190 -0.314197 0.623100 0.116400 1 3 1.000000
  3 2.977400 -1.222500 65.333702 0.896619 -0.379408 -0.228305 0.748100 0.460500 1 3 1.000000
ted_facemap
  3 1.857300 -3.709801 63.013500 0.822559 -0.372982 -0.429279 0.604000 0.268000 1 3 1.000000
  3 0.747400 -4.929901 62.722401 0.404195 -0.859889 -0.311796 0.533500 0.242700 1 3 1.000000
  3 0.731200 -2.033600 61.108498 0.279797 -0.907190 -0.314197 0.623100 0.116400 1 3 1.000000
ted_facemap
  3 0.747400 -4.929901 62.722401 0.404195 -0.859889 -0.311796 0.533500 0.242700 1 3 1.000000
  3 1.857300 -3.709801 63.013500 0.822559 -0.372982 -0.429279 0.604000 0.268000 1 3 1.000000
  3 1.563600 -4.498101 64.368202 0.564382 -0.807674 -0.170694 0.566600 0.384600 1 3 1.000000
ted_facemap
  3 0.838300 -4.681001 63.763302 0.264286 -0.936449 -0.230687 0.536000 0.328200 1 3 1.000000
  3 0.747400 -4.929901 62.722401 0.404195 -0.859889 -0.311796 0.533500 0.242700 1 3 1.000000
  3 1.563600 -4.498101 64.368202 0.564382 -0.807674 -0.170694 0.566600 0.384600 1 3 1.000000
ted_facemap
  3 2.518800 1.510000 70.372704 0.796082 0.364392 0.483189 0.876500 0.870100 1 3 1.000000
  3 3.131900 -0.403900 67.443398 0.995860 -0.088096 0.022399 0.787000 0.626300 1 3 1.000000
  3 2.974900 -0.146400 65.808998 0.401398 0.718196 -0.568397 0.808000 0.475100 1 3 1.000000
ted_facemap
  3 3.456600 0.574800 66.939598 0.825526 0.557318 0.088903 0.821900 0.586900 1 3 1.000000
  3 2.974900 -0.146400 65.808998 0.401398 0.718196 -0.568397 0.808000 0.475100 1 3 1.000000
  3 3.131900 -0.403900 67.443398 0.995860 -0.088096 0.022399 0.787000 0.626300 1 3 1.000000
ted_facemap
  3 3.456600 0.574800 66.939598 0.825526 0.557318 0.088903 0.821900 0.586900 1 3 1.000000
  3 3.131900 -0.403900 67.443398 0.995860 -0.088096 0.022399 0.787000 0.626300 1 3 1.000000
  3 3.366400 0.129100 65.780502 0.552491 0.646189 -0.526491 0.807200 0.503300 1 3 1.000000
ted_facemap
  3 3.366400 0.129100 65.780502 0.552491 0.646189 -0.526491 0.807200 0.503300 1 3 1.000000
  3 2.974900 -0.146400 65.808998 0.401398 0.718196 -0.568397 0.808000 0.475100 1 3 1.000000
  3 3.456600 0.574800 66.939598 0.825526 0.557318 0.088903 0.821900 0.586900 1 3 1.000000
ted_facemap
  3 3.366400 0.129100 65.780502 0.552491 0.646189 -0.526491 0.807200 0.503300 1 3 1.000000
  3 2.977400 -1.222500 65.333702 0.896619 -0.379408 -0.228305 0.748100 0.460500 1 3 1.000000
  3 2.974900 -0.146400 65.808998 0.401398 0.718196 -0.568397 0.808000 0.475100 1 3 1.000000
ted_facemap
  3 2.977400 -1.222500 65.333702 0.896619 -0.379408 -0.228305 0.748100 0.460500 1 3 1.000000
  3 3.366400 0.129100 65.780502 0.552491 0.646189 -0.526491 0.807200 0.503300 1 3 1.000000
  3 3.131900 -0.403900 67.443398 0.995860 -0.088096 0.022399 0.787000 0.626300 1 3 1.000000
ted_facemap
  3 2.977400 -1.222500 65.333702 0.896619 -0.379408 -0.228305 0.748100 0.460500 1 3 1.000000
  3 3.131900 -0.403900 67.443398 0.995860 -0.088096 0.022399 0.787000 0.626300 1 3 1.000000
  3 2.780300 -3.100600 66.723000 0.910761 -0.401883 0.094896 0.655200 0.568600 1 3 1.000000
ted_facemap
  3 1.857300 -3.709801 63.013500 0.822559 -0.372982 -0.429279 0.604000 0.268000 1 3 1.000000
  3 2.977400 -1.222500 65.333702 0.896619 -0.379408 -0.228305 0.748100 0.460500 1 3 1.000000
  3 2.780300 -3.100600 66.723000 0.910761 -0.401883 0.094896 0.655200 0.568600 1 3 1.000000
ted_facemap
  3 1.857300 -3.709801 63.013500 0.822559 -0.372982 -0.429279 0.604000 0.268000 1 3 1.000000
  3 2.780300 -3.100600 66.723000 0.910761 -0.401883 0.094896 0.655200 0.568600 1 3 1.000000
  3 1.563600 -4.498101 64.368202 0.564382 -0.807674 -0.170694 0.566600 0.384600 1 3 1.000000
ted_facemap
  3 1.689800 -1.208600 71.595596 0.492184 -0.171294 0.853471 0.738200 0.965100 1 3 1.000000
  3 1.125900 -3.866900 70.657600 0.400796 -0.685794 0.607494 0.563500 0.885500 1 3 1.000000
  3 2.104200 -4.159900 68.194901 0.726387 -0.686488 -0.033099 0.592800 0.685800 1 3 1.000000
ted_facemap
  3 0.747400 -4.929901 62.722401 0.404195 -0.859889 -0.311796 0.533500 0.242700 1 3 1.000000
  3 -1.175100 -2.136301 62.088799 -0.707463 -0.534772 -0.462076 0.356800 0.195500 1 3 1.000000
  3 0.731200 -2.033600 61.108498 0.279797 -0.907190 -0.314197 0.623100 0.116400 1 3 1.000000
ted_facemap
  3 -2.499900 -0.081900 62.083801 -0.954448 -0.288614 -0.075704 0.179600 0.198000 1 3 1.000000
  3 0.731200 -2.033600 61.108498 0.279797 -0.907190 -0.314197 0.623100 0.116400 1 3 1.000000
  3 -1.175100 -2.136301 62.088799 -0.707463 -0.534772 -0.462076 0.356800 0.195500 1 3 1.000000
ted_facemap
  3 0.754500 -4.810300 65.467499 0.578704 -0.746406 0.328603 0.533400 0.464800 1 3 1.000000
  3 0.984300 -4.059501 67.248596 0.437893 -0.892886 0.104898 0.558100 0.612000 1 3 1.000000
  3 -0.025300 -5.658300 66.112503 -0.496007 -0.786011 0.369005 0.500600 0.515700 1 3 1.000000
ted_facemap
  3 1.756300 -3.990500 66.798599 0.575480 -0.816871 0.039299 0.590000 0.573500 1 3 1.000000
  3 0.984300 -4.059501 67.248596 0.437893 -0.892886 0.104898 0.558100 0.612000 1 3 1.000000
  3 0.754500 -4.810300 65.467499 0.578704 -0.746406 0.328603 0.533400 0.464800 1 3 1.000000
ted_facemap
  3 1.756300 -3.990500 66.798599 0.575480 -0.816871 0.039299 0.590000 0.573500 1 3 1.000000
  3 2.104200 -4.159900 68.194901 0.726387 -0.686488 -0.033099 0.592800 0.685800 1 3 1.000000
  3 0.984300 -4.059501 67.248596 0.437893 -0.892886 0.104898 0.558100 0.612000 1 3 1.000000
ted_facemap
  3 0.984300 -4.059501 67.248596 0.437893 -0.892886 0.104898 0.558100 0.612000 1 3 1.000000
  3 2.104200 -4.159900 68.194901 0.726387 -0.686488 -0.033099 0.592800 0.685800 1 3 1.000000
  3 0.025400 -4.803900 67.596603 -0.349919 -0.932051 0.094005 0.502900 0.636800 1 3 1.000000
ted_facemap
  3 -0.980700 -4.736401 68.231003 -0.227210 -0.942442 -0.245311 0.460300 0.688100 1 3 1.000000
  3 0.025400 -4.803900 67.596603 -0.349919 -0.932051 0.094005 0.502900 0.636800 1 3 1.000000
  3 2.104200 -4.159900 68.194901 0.726387 -0.686488 -0.033099 0.592800 0.685800 1 3 1.000000
ted_facemap
  3 1.125900 -3.866900 70.657600 0.400796 -0.685794 0.607494 0.563500 0.885500 1 3 1.000000
  3 -0.980700 -4.736401 68.231003 -0.227210 -0.942442 -0.245311 0.460300 0.688100 1 3 1.000000
  3 2.104200 -4.159900 68.194901 0.726387 -0.686488 -0.033099 0.592800 0.685800 1 3 1.000000
ted_facemap
  3 -0.560600 -2.619900 71.577301 -0.290897 -0.366697 0.883692 0.448300 0.961600 1 3 1.000000
  3 -0.980700 -4.736401 68.231003 -0.227210 -0.942442 -0.245311 0.460300 0.688100 1 3 1.000000
  3 1.125900 -3.866900 70.657600 0.400796 -0.685794 0.607494 0.563500 0.885500 1 3 1.000000
ted_facemap
  3 1.689800 -1.208600 71.595596 0.492184 -0.171294 0.853471 0.738200 0.965100 1 3 1.000000
  3 -0.560600 -2.619900 71.577301 -0.290897 -0.366697 0.883692 0.448300 0.961600 1 3 1.000000
  3 1.125900 -3.866900 70.657600 0.400796 -0.685794 0.607494 0.563500 0.885500 1 3 1.000000
ted_facemap
  3 -0.560600 -2.619900 71.577301 -0.290897 -0.366697 0.883692 0.448300 0.961600 1 3 1.000000
  3 1.689800 -1.208600 71.595596 0.492184 -0.171294 0.853471 0.738200 0.965100 1 3 1.000000
  3 0.180100 2.207500 71.220596 0.004500 0.611071 0.791563 0.995400 0.939600 1 3 1.000000
ted_facemap
  3 0.984300 -4.059501 67.248596 0.437893 -0.892886 0.104898 0.558100 0.612000 1 3 1.000000
  3 0.025400 -4.803900 67.596603 -0.349919 -0.932051 0.094005 0.502900 0.636800 1 3 1.000000
  3 -0.025300 -5.658300 66.112503 -0.496007 -0.786011 0.369005 0.500600 0.515700 1 3 1.000000
ted_facemap
  3 0.838300 -4.681001 63.763302 0.264286 -0.936449 -0.230687 0.536000 0.328200 1 3 1.000000
  3 1.563600 -4.498101 64.368202 0.564382 -0.807674 -0.170694 0.566600 0.384600 1 3 1.000000
  3 -0.568800 -4.903300 64.380600 -0.445412 -0.870324 0.210106 0.479100 0.381200 1 3 1.000000
ted_facemap
  3 -0.568800 -4.903300 64.380600 -0.445412 -0.870324 0.210106 0.479100 0.381200 1 3 1.000000
  3 -1.399500 -4.498100 64.377403 -0.555476 -0.820665 -0.133994 0.445500 0.383300 1 3 1.000000
  3 0.838300 -4.681001 63.763302 0.264286 -0.936449 -0.230687 0.536000 0.328200 1 3 1.000000
ted_facemap
  3 0.747400 -4.929901 62.722401 0.404195 -0.859889 -0.311796 0.533500 0.242700 1 3 1.000000
  3 0.838300 -4.681001 63.763302 0.264286 -0.936449 -0.230687 0.536000 0.328200 1 3 1.000000
  3 -1.399500 -4.498100 64.377403 -0.555476 -0.820665 -0.133994 0.445500 0.383300 1 3 1.000000
ted_facemap
  3 -1.399500 -4.498100 64.377403 -0.555476 -0.820665 -0.133994 0.445500 0.383300 1 3 1.000000
  3 -0.448900 -4.929901 62.722401 -0.372199 -0.882698 -0.286899 0.482500 0.242700 1 3 1.000000
  3 0.747400 -4.929901 62.722401 0.404195 -0.859889 -0.311796 0.533500 0.242700 1 3 1.000000
ted_facemap
  3 -1.175100 -2.136301 62.088799 -0.707463 -0.534772 -0.462076 0.356800 0.195500 1 3 1.000000
  3 0.747400 -4.929901 62.722401 0.404195 -0.859889 -0.311796 0.533500 0.242700 1 3 1.000000
  3 -0.448900 -4.929901 62.722401 -0.372199 -0.882698 -0.286899 0.482500 0.242700 1 3 1.000000
ted_facemap
  3 -2.605200 -1.275601 63.956902 -0.936194 -0.129399 -0.326798 0.253900 0.347700 1 3 1.000000
  3 -1.175100 -2.136301 62.088799 -0.707463 -0.534772 -0.462076 0.356800 0.195500 1 3 1.000000
  3 -0.448900 -4.929901 62.722401 -0.372199 -0.882698 -0.286899 0.482500 0.242700 1 3 1.000000
ted_facemap
  3 -2.499900 -0.081900 62.083801 -0.954448 -0.288614 -0.075704 0.179600 0.198000 1 3 1.000000
  3 -1.175100 -2.136301 62.088799 -0.707463 -0.534772 -0.462076 0.356800 0.195500 1 3 1.000000
  3 -2.605200 -1.275601 63.956902 -0.936194 -0.129399 -0.326798 0.253900 0.347700 1 3 1.000000
ted_facemap
  3 -2.605200 -1.275601 63.956902 -0.936194 -0.129399 -0.326798 0.253900 0.347700 1 3 1.000000
  3 -1.173300 2.317500 64.480904 -0.345005 0.883913 -0.315705 0.048200 0.391100 1 3 1.000000
  3 -2.499900 -0.081900 62.083801 -0.954448 -0.288614 -0.075704 0.179600 0.198000 1 3 1.000000
ted_facemap
  3 -1.173300 2.317500 64.480904 -0.345005 0.883913 -0.315705 0.048200 0.391100 1 3 1.000000
  3 -2.605200 -1.275601 63.956902 -0.936194 -0.129399 -0.326798 0.253900 0.347700 1 3 1.000000
  3 -2.628900 1.820400 65.914001 -0.814375 0.483685 -0.320690 0.114500 0.510200 1 3 1.000000
ted_facemap
  3 -2.628900 1.820400 65.914001 -0.814375 0.483685 -0.320690 0.114500 0.510200 1 3 1.000000
  3 -1.966600 2.687500 66.195000 -0.532532 0.787747 -0.309619 0.073600 0.534100 1 3 1.000000
  3 -1.173300 2.317500 64.480904 -0.345005 0.883913 -0.315705 0.048200 0.391100 1 3 1.000000
ted_facemap
  3 -1.966600 2.687500 66.195000 -0.532532 0.787747 -0.309619 0.073600 0.534100 1 3 1.000000
  3 -2.628900 1.820400 65.914001 -0.814375 0.483685 -0.320690 0.114500 0.510200 1 3 1.000000
  3 -2.725500 1.963600 68.751701 -0.858636 0.501421 0.106404 0.113800 0.739700 1 3 1.000000
ted_facemap
  3 -1.966600 2.687500 66.195000 -0.532532 0.787747 -0.309619 0.073600 0.534100 1 3 1.000000
  3 -2.725500 1.963600 68.751701 -0.858636 0.501421 0.106404 0.113800 0.739700 1 3 1.000000
  3 -1.696600 2.354400 70.436897 -0.541602 0.668103 0.510202 0.071100 0.876500 1 3 1.000000
ted_facemap
  3 -2.725500 1.963600 68.751701 -0.858636 0.501421 0.106404 0.113800 0.739700 1 3 1.000000
  3 -2.268100 -1.435700 70.886497 -0.752939 -0.203510 0.625832 0.274400 0.907500 1 3 1.000000
  3 -1.696600 2.354400 70.436897 -0.541602 0.668103 0.510202 0.071100 0.876500 1 3 1.000000
ted_facemap
  3 -1.696600 2.354400 70.436897 -0.541602 0.668103 0.510202 0.071100 0.876500 1 3 1.000000
  3 -2.268100 -1.435700 70.886497 -0.752939 -0.203510 0.625832 0.274400 0.907500 1 3 1.000000
  3 0.180100 2.207500 71.220596 0.004500 0.611071 0.791563 0.004900 0.939600 1 3 1.000000
ted_facemap
  3 -0.560600 -2.619900 71.577301 -0.290897 -0.366697 0.883692 0.448300 0.961600 1 3 1.000000
  3 0.180100 2.207500 71.220596 0.004500 0.611071 0.791563 0.004900 0.939600 1 3 1.000000
  3 -2.268100 -1.435700 70.886497 -0.752939 -0.203510 0.625832 0.274400 0.907500 1 3 1.000000
ted_facemap
  3 -1.972400 -4.110900 68.391403 -0.678891 -0.677091 0.283996 0.413800 0.701700 1 3 1.000000
  3 -0.560600 -2.619900 71.577301 -0.290897 -0.366697 0.883692 0.448300 0.961600 1 3 1.000000
  3 -2.268100 -1.435700 70.886497 -0.752939 -0.203510 0.625832 0.274400 0.907500 1 3 1.000000
ted_facemap
  3 -1.972400 -4.110900 68.391403 -0.678891 -0.677091 0.283996 0.413800 0.701700 1 3 1.000000
  3 -0.980700 -4.736401 68.231003 -0.227210 -0.942442 -0.245311 0.460300 0.688100 1 3 1.000000
  3 -0.560600 -2.619900 71.577301 -0.290897 -0.366697 0.883692 0.448300 0.961600 1 3 1.000000
ted_facemap
  3 -1.972400 -4.110900 68.391403 -0.678891 -0.677091 0.283996 0.413800 0.701700 1 3 1.000000
  3 -1.275400 -4.293601 67.560600 -0.155492 -0.762463 -0.628070 0.442900 0.634200 1 3 1.000000
  3 -0.980700 -4.736401 68.231003 -0.227210 -0.942442 -0.245311 0.460300 0.688100 1 3 1.000000
ted_facemap
  3 -2.605200 -1.275601 63.956902 -0.936194 -0.129399 -0.326798 0.253900 0.347700 1 3 1.000000
  3 -0.448900 -4.929901 62.722401 -0.372199 -0.882698 -0.286899 0.482500 0.242700 1 3 1.000000
  3 -1.399500 -4.498100 64.377403 -0.555476 -0.820665 -0.133994 0.445500 0.383300 1 3 1.000000
ted_facemap
  3 -1.966600 2.687500 66.195000 -0.532532 0.787747 -0.309619 0.073600 0.534100 1 3 1.000000
  3 2.082200 2.876900 66.887802 0.589079 0.796871 -0.134095 0.004600 0.616400 1 3 1.000000
  3 -1.173300 2.317500 64.480904 -0.345005 0.883913 -0.315705 0.048200 0.391100 1 3 1.000000
ted_facemap
  3 -1.966600 2.687500 66.195000 -0.532532 0.787747 -0.309619 0.073600 0.534100 1 3 1.000000
  3 1.145100 3.241800 69.082397 0.242799 0.948298 0.204399 0.004700 0.772600 1 3 1.000000
  3 2.082200 2.876900 66.887802 0.589079 0.796871 -0.134095 0.004600 0.616400 1 3 1.000000
ted_facemap
  3 -1.966600 2.687500 66.195000 -0.532532 0.787747 -0.309619 0.073600 0.534100 1 3 1.000000
  3 -1.696600 2.354400 70.436897 -0.541602 0.668103 0.510202 0.071100 0.876500 1 3 1.000000
  3 1.145100 3.241800 69.082397 0.242799 0.948298 0.204399 0.004700 0.772600 1 3 1.000000
ted_facemap
  3 -1.696600 2.354400 70.436897 -0.541602 0.668103 0.510202 0.071100 0.876500 1 3 1.000000
  3 0.180100 2.207500 71.220596 0.004500 0.611071 0.791563 0.004900 0.939600 1 3 1.000000
  3 1.145100 3.241800 69.082397 0.242799 0.948298 0.204399 0.004700 0.772600 1 3 1.000000
ted_facemap
  3 0.025400 -4.803900 67.596603 -0.349919 -0.932051 0.094005 0.502900 0.636800 1 3 1.000000
  3 -0.980700 -4.736401 68.231003 -0.227210 -0.942442 -0.245311 0.460300 0.688100 1 3 1.000000
  3 -1.275400 -4.293601 67.560600 -0.155492 -0.762463 -0.628070 0.442900 0.634200 1 3 1.000000
ted_facemap
  3 -1.275400 -4.293601 67.560600 -0.155492 -0.762463 -0.628070 0.442900 0.634200 1 3 1.000000
  3 -0.601000 -4.604201 65.989799 -0.604664 -0.786453 0.125992 0.474300 0.507300 1 3 1.000000
  3 0.025400 -4.803900 67.596603 -0.349919 -0.932051 0.094005 0.502900 0.636800 1 3 1.000000
ted_facemap
  3 0.025400 -4.803900 67.596603 -0.349919 -0.932051 0.094005 0.502900 0.636800 1 3 1.000000
  3 -0.601000 -4.604201 65.989799 -0.604664 -0.786453 0.125992 0.474300 0.507300 1 3 1.000000
  3 -0.025300 -5.658300 66.112503 -0.496007 -0.786011 0.369005 0.500600 0.515700 1 3 1.000000
ted_facemap
  3 -0.601000 -4.604201 65.989799 -0.604664 -0.786453 0.125992 0.474300 0.507300 1 3 1.000000
  3 0.133900 -5.094201 65.479897 -0.106302 -0.894616 -0.434007 0.507500 0.465400 1 3 1.000000
  3 -0.025300 -5.658300 66.112503 -0.496007 -0.786011 0.369005 0.500600 0.515700 1 3 1.000000
ted_facemap
  3 0.133900 -5.094201 65.479897 -0.106302 -0.894616 -0.434007 0.507500 0.465400 1 3 1.000000
  3 0.754500 -4.810300 65.467499 0.578704 -0.746406 0.328603 0.533400 0.464800 1 3 1.000000
  3 -0.025300 -5.658300 66.112503 -0.496007 -0.786011 0.369005 0.500600 0.515700 1 3 1.000000
ted_facemap
  3 0.754500 -4.810300 65.467499 0.578704 -0.746406 0.328603 0.533400 0.464800 1 3 1.000000
  3 0.133900 -5.094201 65.479897 -0.106302 -0.894616 -0.434007 0.507500 0.465400 1 3 1.000000
  3 1.563600 -4.498101 64.368202 0.564382 -0.807674 -0.170694 0.566600 0.384600 1 3 1.000000
ted_facemap
  3 1.563600 -4.498101 64.368202 0.564382 -0.807674 -0.170694 0.566600 0.384600 1 3 1.000000
  3 0.133900 -5.094201 65.479897 -0.106302 -0.894616 -0.434007 0.507500 0.465400 1 3 1.000000
  3 -1.399500 -4.498100 64.377403 -0.555476 -0.820665 -0.133994 0.445500 0.383300 1 3 1.000000
ted_facemap
  3 0.133900 -5.094201 65.479897 -0.106302 -0.894616 -0.434007 0.507500 0.465400 1 3 1.000000
  3 -0.601000 -4.604201 65.989799 -0.604664 -0.786453 0.125992 0.474300 0.507300 1 3 1.000000
  3 -1.399500 -4.498100 64.377403 -0.555476 -0.820665 -0.133994 0.445500 0.383300 1 3 1.000000
ted_facemap
  3 -1.399500 -4.498100 64.377403 -0.555476 -0.820665 -0.133994 0.445500 0.383300 1 3 1.000000
  3 -0.601000 -4.604201 65.989799 -0.604664 -0.786453 0.125992 0.474300 0.507300 1 3 1.000000
  3 -1.275400 -4.293601 67.560600 -0.155492 -0.762463 -0.628070 0.442900 0.634200 1 3 1.000000
ted_facemap
  3 -1.972400 -4.110900 68.391403 -0.678891 -0.677091 0.283996 0.413800 0.701700 1 3 1.000000
  3 -1.399500 -4.498100 64.377403 -0.555476 -0.820665 -0.133994 0.445500 0.383300 1 3 1.000000
  3 -1.275400 -4.293601 67.560600 -0.155492 -0.762463 -0.628070 0.442900 0.634200 1 3 1.000000
ted_facemap
  3 -2.605200 -1.275601 63.956902 -0.936194 -0.129399 -0.326798 0.253900 0.347700 1 3 1.000000
  3 -1.399500 -4.498100 64.377403 -0.555476 -0.820665 -0.133994 0.445500 0.383300 1 3 1.000000
  3 -1.972400 -4.110900 68.391403 -0.678891 -0.677091 0.283996 0.413800 0.701700 1 3 1.000000
ted_facemap
  3 -1.972400 -4.110900 68.391403 -0.678891 -0.677091 0.283996 0.413800 0.701700 1 3 1.000000
  3 -3.229900 -0.732100 65.077599 -0.438390 0.053699 -0.897179 0.225900 0.449000 1 3 1.000000
  3 -2.605200 -1.275601 63.956902 -0.936194 -0.129399 -0.326798 0.253900 0.347700 1 3 1.000000
ted_facemap
  3 -2.605200 -1.275601 63.956902 -0.936194 -0.129399 -0.326798 0.253900 0.347700 1 3 1.000000
  3 -3.229900 -0.732100 65.077599 -0.438390 0.053699 -0.897179 0.225900 0.449000 1 3 1.000000
  3 -2.628900 1.820400 65.914001 -0.814375 0.483685 -0.320690 0.114500 0.510200 1 3 1.000000
ted_facemap
  3 -3.229900 -0.732100 65.077599 -0.438390 0.053699 -0.897179 0.225900 0.449000 1 3 1.000000
  3 -3.434300 0.570900 66.466301 -0.985808 0.160501 -0.049200 0.178200 0.556100 1 3 1.000000
  3 -2.628900 1.820400 65.914001 -0.814375 0.483685 -0.320690 0.114500 0.510200 1 3 1.000000
ted_facemap
  3 -2.628900 1.820400 65.914001 -0.814375 0.483685 -0.320690 0.114500 0.510200 1 3 1.000000
  3 -3.434300 0.570900 66.466301 -0.985808 0.160501 -0.049200 0.178200 0.556100 1 3 1.000000
  3 -2.725500 1.963600 68.751701 -0.858636 0.501421 0.106404 0.113800 0.739700 1 3 1.000000
ted_facemap
  3 -3.061800 -0.603100 67.293701 -0.999521 -0.020600 -0.023100 0.221300 0.618300 1 3 1.000000
  3 -2.725500 1.963600 68.751701 -0.858636 0.501421 0.106404 0.113800 0.739700 1 3 1.000000
  3 -3.434300 0.570900 66.466301 -0.985808 0.160501 -0.049200 0.178200 0.556100 1 3 1.000000
ted_facemap
  3 -2.268100 -1.435700 70.886497 -0.752939 -0.203510 0.625832 0.274400 0.907500 1 3 1.000000
  3 -2.725500 1.963600 68.751701 -0.858636 0.501421 0.106404 0.113800 0.739700 1 3 1.000000
  3 -3.061800 -0.603100 67.293701 -0.999521 -0.020600 -0.023100 0.221300 0.618300 1 3 1.000000
ted_facemap
  3 -2.268100 -1.435700 70.886497 -0.752939 -0.203510 0.625832 0.274400 0.907500 1 3 1.000000
  3 -3.061800 -0.603100 67.293701 -0.999521 -0.020600 -0.023100 0.221300 0.618300 1 3 1.000000
  3 -1.972400 -4.110900 68.391403 -0.678891 -0.677091 0.283996 0.413800 0.701700 1 3 1.000000
ted_facemap
  3 -1.972400 -4.110900 68.391403 -0.678891 -0.677091 0.283996 0.413800 0.701700 1 3 1.000000
  3 -3.061800 -0.603100 67.293701 -0.999521 -0.020600 -0.023100 0.221300 0.618300 1 3 1.000000
  3 -3.229900 -0.732100 65.077599 -0.438390 0.053699 -0.897179 0.225900 0.449000 1 3 1.000000
ted_facemap
  3 -3.061800 -0.603100 67.293701 -0.999521 -0.020600 -0.023100 0.221300 0.618300 1 3 1.000000
  3 -3.434300 0.570900 66.466301 -0.985808 0.160501 -0.049200 0.178200 0.556100 1 3 1.000000
  3 -3.229900 -0.732100 65.077599 -0.438390 0.053699 -0.897179 0.225900 0.449000 1 3 1.000000
end
