// Created by Crowbar 0.68
version 1
nodes
  0 "ValveBiped.Bip01_Pelvis" -1
  1 "ValveBiped.Bip01_Spine" 0
  2 "ValveBiped.Bip01_Spine1" 1
  3 "ValveBiped.Bip01_Spine2" 2
  4 "ValveBiped.Bip01_Spine4" 3
  5 "ValveBiped.Bip01_Neck1" 4
  6 "ValveBiped.Bip01_Head1" 5
  7 "ValveBiped.forward" 6
  8 "ValveBiped.Bip01_R_Clavicle" 4
  9 "ValveBiped.Bip01_R_UpperArm" 8
  10 "ValveBiped.Bip01_R_Forearm" 9
  11 "ValveBiped.Bip01_R_Hand" 10
  12 "ValveBiped.Anim_Attachment_RH" 11
  13 "ValveBiped.Bip01_L_Clavicle" 4
  14 "ValveBiped.Bip01_L_UpperArm" 13
  15 "ValveBiped.Bip01_L_Forearm" 14
  16 "ValveBiped.Bip01_L_Hand" 15
  17 "ValveBiped.Anim_Attachment_LH" 16
  18 "ValveBiped.Bip01_R_Thigh" 0
  19 "ValveBiped.Bip01_R_Calf" 18
  20 "ValveBiped.Bip01_R_Foot" 19
  21 "ValveBiped.Bip01_L_Thigh" 0
  22 "ValveBiped.Bip01_L_Calf" 21
  23 "ValveBiped.Bip01_L_Foot" 22
  24 "ValveBiped.Bip01" -1
  25 "ValveBiped.Bip01_L_Toe0" 23
  26 "ValveBiped.Bip01_L_Shin" 22
  27 "ValveBiped.Bip01_L_Knee" 21
  28 "ValveBiped.Bip01_L_Quadricep" 21
  29 "ValveBiped.Bip01_R_Toe0" 20
  30 "ValveBiped.Bip01_R_Shin" 19
  31 "ValveBiped.Bip01_R_Quadricep" 18
  32 "ValveBiped.Bip01_R_Knee" 18
  33 "ValveBiped.Bip01_L_Finger3" 16
  34 "ValveBiped.Bip01_L_Finger31" 33
  35 "ValveBiped.Bip01_L_Finger32" 34
  36 "ValveBiped.Bip01_L_Finger2" 16
  37 "ValveBiped.Bip01_L_Finger21" 36
  38 "ValveBiped.Bip01_L_Finger22" 37
  39 "ValveBiped.Bip01_L_Finger1" 16
  40 "ValveBiped.Bip01_L_Finger11" 39
  41 "ValveBiped.Bip01_L_Finger12" 40
  42 "ValveBiped.Bip01_L_Finger0" 16
  43 "ValveBiped.Bip01_L_Finger01" 42
  44 "ValveBiped.Bip01_L_Finger02" 43
  45 "ValveBiped.Bip01_L_Finger4" 16
  46 "ValveBiped.Bip01_L_Finger41" 45
  47 "ValveBiped.Bip01_L_Finger42" 46
  48 "ValveBiped.Bip01_L_Ulna" 15
  49 "ValveBiped.Bip01_L_Wrist" 15
  50 "ValveBiped.Bip01_L_Elbow" 14
  51 "ValveBiped.Bip01_L_Shoulder" 14
  52 "ValveBiped.Bip01_L_Bicep" 14
  53 "ValveBiped.Bip01_L_Trapezius" 13
  54 "ValveBiped.Bip01_R_Finger3" 11
  55 "ValveBiped.Bip01_R_Finger31" 54
  56 "ValveBiped.Bip01_R_Finger32" 55
  57 "ValveBiped.Bip01_R_Finger2" 11
  58 "ValveBiped.Bip01_R_Finger21" 57
  59 "ValveBiped.Bip01_R_Finger22" 58
  60 "ValveBiped.Bip01_R_Finger1" 11
  61 "ValveBiped.Bip01_R_Finger11" 60
  62 "ValveBiped.Bip01_R_Finger12" 61
  63 "ValveBiped.Bip01_R_Finger0" 11
  64 "ValveBiped.Bip01_R_Finger01" 63
  65 "ValveBiped.Bip01_R_Finger02" 64
  66 "ValveBiped.Bip01_R_Finger4" 11
  67 "ValveBiped.Bip01_R_Finger41" 66
  68 "ValveBiped.Bip01_R_Finger42" 67
  69 "ValveBiped.Bip01_R_Ulna" 10
  70 "ValveBiped.Bip01_R_Wrist" 10
  71 "ValveBiped.Bip01_R_Shoulder" 9
  72 "ValveBiped.Bip01_R_Bicep" 9
  73 "ValveBiped.Bip01_R_Elbow" 9
  74 "ValveBiped.Bip01_R_Trapezius" 8
  75 "ValveBiped.Bip01_R_Pectoral" 3
  76 "ValveBiped.Bip01_L_Pectoral" 3
  77 "ValveBiped.Bip01_R_Latt" 3
  78 "ValveBiped.Bip01_L_Latt" 3
end
skeleton
  time 0
    0 0.000000 -0.533612 38.566914 1.570796 0.000000 0.000000
    1 0.000000 3.345132 -2.981898 1.570796 0.083193 1.570796
    2 3.995838 0.000000 0.000000 0.000000 0.000000 -0.028816
    3 3.520298 0.000000 0.000000 0.000000 0.000000 0.097307
    4 8.921476 0.000000 0.000000 0.000000 0.000000 0.186413
    5 3.306360 0.000002 0.000000 3.141590 0.000000 0.406109
    6 3.602000 -0.000002 0.000000 0.000000 -0.000001 0.405033
    7 2.000003 -3.000000 0.000000 -1.570796 0.000000 -1.326450
    8 2.059532 0.977924 -1.937661 -1.661569 1.286515 2.950147
    9 6.028141 0.000007 0.000000 1.633734 -0.011884 -0.586789
    10 11.692554 0.000000 -0.000001 0.000000 0.000000 -0.060372
    11 11.481691 0.000000 0.000000 -1.559993 0.038701 0.036022
    12 2.676087 -1.712443 0.000000 -1.570796 0.000000 -1.570795
    13 2.059529 0.977924 1.937661 1.589740 -1.286514 2.950147
    14 6.028141 0.000000 0.000000 -1.573855 0.051611 -0.584887
    15 11.692555 0.000000 -0.000006 0.000000 0.000000 -0.060372
    16 11.481671 0.000000 -0.000036 1.568292 -0.038709 0.036022
    17 2.676085 -1.712442 0.000000 1.570797 0.000000 1.570797
    18 -3.890447 0.000000 0.000000 -1.570796 0.051839 -1.576018
    19 17.848167 0.000000 0.000000 0.000000 0.000000 0.034200
    20 16.525238 0.000000 0.000000 0.038609 0.040781 -1.071639
    21 3.890447 0.000000 0.000000 -1.570796 0.051839 -1.565574
    22 17.848167 0.000000 0.000000 0.000000 0.000000 0.034200
    23 16.525238 0.000000 0.000000 -0.027915 -0.040781 -1.071638
    24 -0.000005 -0.533615 38.566917 1.570796 0.000000 0.000000
    25 6.879449 0.000002 0.000000 -0.007299 -0.002951 -0.584373
    26 7.766866 0.000000 0.000000 0.000000 0.000000 0.000000
    27 17.848169 0.000000 0.000000 0.000000 0.000000 0.016691
    28 7.139265 0.000000 0.000000 0.000000 0.000000 0.000000
    29 6.879451 0.000002 0.000000 -0.081334 -0.002951 -0.584373
    30 7.766869 0.000000 0.000001 0.000000 0.000000 0.000000
    31 7.139271 0.000000 0.000000 0.000000 0.000000 0.000000
    32 17.848167 0.000000 0.000000 0.000000 0.000000 0.016685
    33 3.942322 0.046777 -0.431443 -0.155014 0.073328 -0.810648
    34 1.539095 -0.000003 0.000000 0.000000 0.004460 -0.247797
    35 1.196324 0.000001 0.000000 0.000000 0.007361 -0.430802
    36 3.883687 -0.046764 0.431443 0.085902 0.021830 -0.587867
    37 1.719573 0.000001 0.000000 0.000000 0.005516 -0.366478
    38 1.209185 0.000002 0.000000 0.000000 0.003084 -0.216400
    39 3.859859 -0.137941 1.332466 0.354449 -0.042750 -0.531718
    40 1.719427 0.000005 0.000000 0.000000 0.004074 -0.363009
    41 1.099663 0.000000 0.000000 0.000000 0.002596 -0.244331
    42 0.806048 -0.348915 1.321258 -1.206854 -0.679488 -0.789308
    43 1.789784 -0.000002 0.000001 0.000000 0.007387 0.228523
    44 1.206999 -0.000002 0.000002 0.000000 0.011267 0.362860
    45 3.859704 -0.142400 -1.191974 -0.479144 0.152190 -0.879874
    46 1.312555 -0.000002 -0.000002 0.000000 0.009665 -0.439720
    47 0.729363 0.000001 0.000000 0.000000 0.004971 -0.244299
    48 5.740847 0.000000 0.000005 0.000688 0.000000 0.000000
    49 11.481695 0.000000 0.000009 0.001272 0.000000 0.000000
    50 11.692554 0.000000 0.000009 0.000000 0.000000 -0.029500
    51 1.499998 0.000000 0.000005 0.000000 0.000000 0.000000
    52 5.559999 0.000000 0.000006 0.000000 0.000000 0.000000
    53 5.166963 0.000002 0.000000 0.000000 0.000000 0.000000
    54 3.942297 0.050328 0.431043 0.154999 -0.079305 -0.810205
    55 1.539097 0.000002 0.000000 0.000000 -0.005854 -0.247771
    56 1.196325 0.000000 0.000000 0.000000 -0.009663 -0.430761
    57 3.883659 -0.050326 -0.431043 -0.085905 -0.026404 -0.587695
    58 1.719574 -0.000001 0.000000 0.000000 -0.007974 -0.366436
    59 1.209181 0.000000 0.000000 0.000000 -0.004461 -0.216376
    60 3.859833 -0.148934 -1.331282 -0.354419 0.038567 -0.532001
    61 1.719424 0.000001 0.000001 0.000000 -0.006613 -0.362970
    62 1.099666 0.000000 0.000001 0.000000 -0.004211 -0.244312
    63 0.806019 -0.359832 -1.318334 1.204200 0.673618 -0.793956
    64 1.789783 0.000001 0.000001 0.000000 -0.006301 0.228555
    65 1.206999 -0.000001 0.000000 0.000000 -0.009618 0.362905
    66 3.859675 -0.132568 1.193108 0.479140 -0.158545 -0.879041
    67 1.312563 0.000000 -0.000001 0.000000 -0.011932 -0.439672
    68 0.729363 -0.000004 0.000002 0.000000 -0.006134 -0.244271
    69 5.740848 0.000000 0.000003 0.000081 0.000000 0.000000
    70 11.481700 0.000000 0.000002 0.000150 0.000000 0.000000
    71 1.500002 0.000000 0.000005 0.000000 0.000000 0.000000
    72 5.560000 0.000000 0.000006 0.000000 0.000000 0.000000
    73 11.692548 0.000000 0.000006 0.000000 0.000000 -0.029500
    74 5.166965 0.000000 0.000000 0.000000 0.000000 0.000000
    75 1.025254 4.831669 -2.578000 0.000000 0.000000 0.000000
    76 1.025254 4.831550 2.578000 0.000000 0.000000 0.000000
    77 2.000000 1.400000 5.000000 0.000000 0.000000 0.000000
    78 2.000001 1.400000 -5.000000 0.000000 0.000000 0.000000
end
triangles
eyeball_r
  3 -1.282900 -4.249801 66.996002 -0.347302 -0.694605 0.630004 0.512900 0.214100 1 3 1.000000
  3 -0.481500 -4.050400 67.243797 -0.515125 -0.856041 -0.042902 0.534800 0.945300 1 3 1.000000
  3 -2.711400 -3.100600 66.723000 -0.878503 -0.477702 -0.005700 0.876400 0.672800 1 3 1.000000
mouth
  3 0.937700 -4.066201 64.505302 -0.214902 -0.111001 -0.970307 0.243100 0.625400 1 3 1.000000
  3 0.996800 -4.347001 64.524399 -0.214902 -0.111001 -0.970307 0.302800 0.658400 1 3 1.000000
  3 0.822100 -4.328600 64.560997 -0.214902 -0.111001 -0.970307 0.311800 0.670700 1 3 1.000000
mouth
  3 -0.666400 -4.027001 64.404999 0.104103 -0.047501 0.993431 0.744700 0.365200 1 3 1.000000
  3 -0.659700 -4.302601 64.389099 0.194007 -0.051702 0.979637 0.808700 0.355800 1 3 1.000000
  3 -0.499900 -4.276801 64.359703 0.188597 -0.051899 0.980682 0.820000 0.345800 1 3 1.000000
mouth
  3 -0.659700 -4.302601 64.389099 0.194007 -0.051702 0.979637 0.808700 0.355800 1 3 1.000000
  3 -0.666400 -4.027001 64.404999 0.104103 -0.047501 0.993431 0.744700 0.365200 1 3 1.000000
  3 -0.838700 -4.122301 64.435997 0.204292 -0.051398 0.977560 0.773600 0.378400 1 3 1.000000
mouth
  3 -0.767100 -3.341201 64.431503 -0.003600 -0.044201 0.999016 0.610900 0.358800 1 3 1.000000
  3 -0.838700 -4.122301 64.435997 0.204292 -0.051398 0.977560 0.773600 0.378400 1 3 1.000000
  3 -0.666400 -4.027001 64.404999 0.104103 -0.047501 0.993431 0.744700 0.365200 1 3 1.000000
mouth
  3 -0.666400 -4.027001 64.404999 0.876113 0.430506 0.217003 0.744700 0.365200 1 3 1.000000
  3 -0.664800 -3.866601 63.987999 0.897127 0.411113 0.161705 0.702300 0.069700 1 3 1.000000
  3 -0.767100 -3.341201 64.431503 -0.003600 -0.044201 0.999016 0.610900 0.358800 1 3 1.000000
mouth
  3 -0.499900 -4.276801 64.359703 0.774692 0.435996 0.457995 0.820000 0.345800 1 3 1.000000
  3 -0.664800 -3.866601 63.987999 0.897127 0.411113 0.161705 0.702300 0.069700 1 3 1.000000
  3 -0.666400 -4.027001 64.404999 0.876113 0.430506 0.217003 0.744700 0.365200 1 3 1.000000
mouth
  3 -0.383300 -4.446900 64.326302 -0.390711 -0.899425 0.195906 0.890700 0.321000 1 3 1.000000
  3 -0.664800 -3.866601 63.987999 0.897127 0.411113 0.161705 0.702300 0.069700 1 3 1.000000
  3 -0.499900 -4.276801 64.359703 0.774692 0.435996 0.457995 0.820000 0.345800 1 3 1.000000
mouth
  3 -0.166200 -4.684801 64.399902 -0.237395 -0.944182 -0.228395 0.958100 0.343600 1 3 1.000000
  3 -0.293300 -4.565301 63.986198 -0.385995 -0.906589 -0.170598 0.941000 0.068300 1 3 1.000000
  3 0.124600 -4.727100 64.409401 -0.105001 -0.962405 -0.250501 0.997300 0.333000 1 3 1.000000
mouth
  3 -0.383300 -4.446900 64.326302 -0.390711 -0.899425 0.195906 0.890700 0.321000 1 3 1.000000
  3 -0.293300 -4.565301 63.986198 -0.385995 -0.906589 -0.170598 0.941000 0.068300 1 3 1.000000
  3 -0.166200 -4.684801 64.399902 -0.237395 -0.944182 -0.228395 0.958100 0.343600 1 3 1.000000
mouth
  3 -0.539200 -4.442400 64.410004 -0.689863 -0.718362 -0.089695 0.853800 0.358500 1 3 1.000000
  3 -0.293300 -4.565301 63.986198 -0.385995 -0.906589 -0.170598 0.941000 0.068300 1 3 1.000000
  3 -0.383300 -4.446900 64.326302 -0.390711 -0.899425 0.195906 0.890700 0.321000 1 3 1.000000
mouth
  3 -0.659700 -4.302601 64.389099 -0.740599 -0.662799 -0.110500 0.808700 0.355800 1 3 1.000000
  3 -0.293300 -4.565301 63.986198 -0.385995 -0.906589 -0.170598 0.941000 0.068300 1 3 1.000000
  3 -0.539200 -4.442400 64.410004 -0.689863 -0.718362 -0.089695 0.853800 0.358500 1 3 1.000000
mouth
  3 -0.293300 -4.565301 63.986198 -0.385995 -0.906589 -0.170598 0.941000 0.068300 1 3 1.000000
  3 -0.659700 -4.302601 64.389099 -0.740599 -0.662799 -0.110500 0.808700 0.355800 1 3 1.000000
  3 -0.875400 -3.889901 63.986198 -0.936002 -0.341601 -0.084900 0.721100 0.068300 1 3 1.000000
mouth
  3 -0.838700 -4.122301 64.435997 -0.852123 -0.489813 -0.184305 0.773600 0.378400 1 3 1.000000
  3 -0.875400 -3.889901 63.986198 -0.936002 -0.341601 -0.084900 0.721100 0.068300 1 3 1.000000
  3 -0.659700 -4.302601 64.389099 -0.740599 -0.662799 -0.110500 0.808700 0.355800 1 3 1.000000
mouth
  3 -0.767100 -3.341201 64.431503 -0.003600 -0.044201 0.999016 0.610900 0.358800 1 3 1.000000
  3 -0.875400 -3.889901 63.986198 -0.936002 -0.341601 -0.084900 0.721100 0.068300 1 3 1.000000
  3 -0.838700 -4.122301 64.435997 -0.852123 -0.489813 -0.184305 0.773600 0.378400 1 3 1.000000
mouth
  3 -0.497200 -4.497401 64.573097 0.173505 -0.979526 -0.102103 0.627200 0.706000 1 3 1.000000
  3 -0.560800 -4.322801 64.539703 0.905836 0.321713 -0.275611 0.689600 0.675200 1 3 1.000000
  3 -0.645800 -3.947001 64.937897 0.938150 0.317317 -0.138507 0.790800 0.953500 1 3 1.000000
mouth
  3 -0.560800 -4.322801 64.539703 0.905836 0.321713 -0.275611 0.689600 0.675200 1 3 1.000000
  3 -0.671400 -4.061400 64.502800 0.936080 0.316093 -0.154397 0.756900 0.628900 1 3 1.000000
  3 -0.645800 -3.947001 64.937897 0.938150 0.317317 -0.138507 0.790800 0.953500 1 3 1.000000
mouth
  3 -0.671400 -4.061400 64.502800 0.936080 0.316093 -0.154397 0.756900 0.628900 1 3 1.000000
  3 -0.796200 -3.375601 64.494400 0.982808 0.178201 -0.048300 0.877800 0.620200 1 3 1.000000
  3 -0.645800 -3.947001 64.937897 0.938150 0.317317 -0.138507 0.790800 0.953500 1 3 1.000000
mouth
  3 -0.796200 -3.375601 64.494400 0.982808 0.178201 -0.048300 0.877800 0.620200 1 3 1.000000
  3 -0.883200 -4.053701 64.520103 -0.948904 -0.315401 0.010200 0.757800 0.643900 1 3 1.000000
  3 -0.771100 -4.318301 64.939697 -0.865202 -0.501301 0.011100 0.706700 0.955000 1 3 1.000000
mouth
  3 -0.883200 -4.053701 64.520103 -0.948904 -0.315401 0.010200 0.757800 0.643900 1 3 1.000000
  3 -0.744400 -4.348600 64.530403 -0.854821 -0.518913 -0.003300 0.696800 0.663600 1 3 1.000000
  3 -0.771100 -4.318301 64.939697 -0.865202 -0.501301 0.011100 0.706700 0.955000 1 3 1.000000
mouth
  3 -0.744400 -4.348600 64.530403 -0.854821 -0.518913 -0.003300 0.696800 0.663600 1 3 1.000000
  3 -0.497200 -4.497401 64.573097 0.173505 -0.979526 -0.102103 0.627200 0.706000 1 3 1.000000
  3 -0.771100 -4.318301 64.939697 -0.865202 -0.501301 0.011100 0.706700 0.955000 1 3 1.000000
mouth
  3 0.119400 -4.697701 64.939697 0.003800 -0.983123 0.182904 0.499100 0.955000 1 3 1.000000
  3 -0.771100 -4.318301 64.939697 -0.865202 -0.501301 0.011100 0.706700 0.955000 1 3 1.000000
  3 -0.497200 -4.497401 64.573097 0.173505 -0.979526 -0.102103 0.627200 0.706000 1 3 1.000000
mouth
  3 -0.497200 -4.497401 64.573097 0.173505 -0.979526 -0.102103 0.627200 0.706000 1 3 1.000000
  3 -0.275200 -4.730301 64.526802 -0.200903 -0.973013 0.113502 0.558900 0.647100 1 3 1.000000
  3 0.119400 -4.697701 64.939697 0.003800 -0.983123 0.182904 0.499100 0.955000 1 3 1.000000
mouth
  3 0.119400 -4.697701 64.939697 0.003800 -0.983123 0.182904 0.499100 0.955000 1 3 1.000000
  3 -0.275200 -4.730301 64.526802 -0.200903 -0.973013 0.113502 0.558900 0.647100 1 3 1.000000
  3 0.109300 -4.775001 64.494003 -0.144095 -0.974467 0.172194 0.503300 0.618400 1 3 1.000000
mouth
  3 0.119400 -4.697701 64.939697 0.003800 -0.983123 0.182904 0.500100 0.955000 1 3 1.000000
  3 0.109300 -4.775001 64.494003 -0.144095 -0.974467 0.172194 0.503300 0.618400 1 3 1.000000
  3 0.529800 -4.714400 64.505203 0.314511 -0.938932 0.139605 0.438900 0.639100 1 3 1.000000
mouth
  3 0.712600 -4.481301 64.581497 -0.072497 -0.996554 -0.040298 0.373500 0.711400 1 3 1.000000
  3 0.119400 -4.697701 64.939697 0.003800 -0.983123 0.182904 0.500100 0.955000 1 3 1.000000
  3 0.529800 -4.714400 64.505203 0.314511 -0.938932 0.139605 0.438900 0.639100 1 3 1.000000
mouth
  3 0.119400 -4.697701 64.939697 0.003800 -0.983123 0.182904 0.500100 0.955000 1 3 1.000000
  3 0.712600 -4.481301 64.581497 -0.072497 -0.996554 -0.040298 0.373500 0.711400 1 3 1.000000
  3 0.836000 -4.520700 64.939697 0.597605 -0.800406 0.047100 0.359700 0.955000 1 3 1.000000
mouth
  3 0.855700 -4.529701 64.474503 0.673106 -0.738306 0.042800 0.344100 0.595500 1 3 1.000000
  3 0.836000 -4.520700 64.939697 0.597605 -0.800406 0.047100 0.359700 0.955000 1 3 1.000000
  3 0.712600 -4.481301 64.581497 -0.072497 -0.996554 -0.040298 0.373500 0.711400 1 3 1.000000
mouth
  3 0.996800 -4.347001 64.524399 0.849549 -0.527431 0.009101 0.302800 0.658400 1 3 1.000000
  3 0.836000 -4.520700 64.939697 0.597605 -0.800406 0.047100 0.359700 0.955000 1 3 1.000000
  3 0.855700 -4.529701 64.474503 0.673106 -0.738306 0.042800 0.344100 0.595500 1 3 1.000000
mouth
  3 1.073500 -4.166800 64.491699 0.864221 -0.499412 -0.060901 0.273800 0.620800 1 3 1.000000
  3 0.836000 -4.520700 64.939697 0.597605 -0.800406 0.047100 0.359700 0.955000 1 3 1.000000
  3 0.996800 -4.347001 64.524399 0.849549 -0.527431 0.009101 0.302800 0.658400 1 3 1.000000
mouth
  3 1.162800 -4.039801 64.519699 0.944052 -0.329618 0.010801 0.237100 0.637800 1 3 1.000000
  3 0.836000 -4.520700 64.939697 0.597605 -0.800406 0.047100 0.359700 0.955000 1 3 1.000000
  3 1.073500 -4.166800 64.491699 0.864221 -0.499412 -0.060901 0.273800 0.620800 1 3 1.000000
mouth
  3 1.037200 -3.375601 64.494400 -0.987805 0.141201 -0.065600 0.123500 0.613000 1 3 1.000000
  3 0.836000 -4.520700 64.939697 0.597605 -0.800406 0.047100 0.359700 0.955000 1 3 1.000000
  3 1.162800 -4.039801 64.519699 0.944052 -0.329618 0.010801 0.237100 0.637800 1 3 1.000000
mouth
  3 0.712600 -4.481301 64.581497 -0.072497 -0.996554 -0.040298 0.373500 0.711400 1 3 1.000000
  3 0.886200 -3.947001 64.937897 -0.934800 0.297900 -0.193400 0.209500 0.953500 1 3 1.000000
  3 0.822100 -4.328600 64.560997 -0.874027 0.404812 -0.268708 0.311800 0.670700 1 3 1.000000
mouth
  3 0.822100 -4.328600 64.560997 -0.874027 0.404812 -0.268708 0.311800 0.670700 1 3 1.000000
  3 0.886200 -3.947001 64.937897 -0.934800 0.297900 -0.193400 0.209500 0.953500 1 3 1.000000
  3 0.937700 -4.066201 64.505302 -0.936392 0.291997 -0.194698 0.243100 0.625400 1 3 1.000000
mouth
  3 0.937700 -4.066201 64.505302 -0.936392 0.291997 -0.194698 0.243100 0.625400 1 3 1.000000
  3 0.886200 -3.947001 64.937897 -0.934800 0.297900 -0.193400 0.209500 0.953500 1 3 1.000000
  3 1.037200 -3.375601 64.494400 -0.987805 0.141201 -0.065600 0.123500 0.613000 1 3 1.000000
mouth
  3 0.791900 -4.883701 64.481400 -0.227994 0.687583 0.689383 0.531800 0.451700 1 3 1.000000
  3 1.228300 -2.989901 65.286797 -0.448406 -0.562908 -0.694310 0.934400 0.515300 1 3 1.000000
  3 1.205200 -2.907601 63.527699 -0.415714 -0.601120 0.682523 0.934100 0.515300 1 3 1.000000
mouth
  3 0.791900 -4.883701 64.481400 -0.227994 0.687583 0.689383 0.531800 0.451700 1 3 1.000000
  3 1.205200 -2.907601 63.527699 -0.415714 -0.601120 0.682523 0.934100 0.515300 1 3 1.000000
  3 0.563900 -4.040101 63.551899 -0.122999 0.421398 0.898496 0.694300 0.444800 1 3 1.000000
mouth
  3 0.322800 -4.959101 64.463097 -0.059701 0.712217 0.699416 0.512800 0.450900 1 3 1.000000
  3 0.791900 -4.883701 64.481400 -0.227994 0.687583 0.689383 0.531800 0.451700 1 3 1.000000
  3 0.563900 -4.040101 63.551899 -0.122999 0.421398 0.898496 0.694300 0.444800 1 3 1.000000
mouth
  3 -0.509900 -4.883700 64.480797 0.180598 0.651893 0.736492 0.479500 0.452200 1 3 1.000000
  3 0.322800 -4.959101 64.463097 -0.059701 0.712217 0.699416 0.512800 0.450900 1 3 1.000000
  3 0.563900 -4.040101 63.551899 -0.122999 0.421398 0.898496 0.694300 0.444800 1 3 1.000000
mouth
  3 -0.940600 -2.906700 63.523399 0.409093 -0.603989 0.683988 0.063100 0.515500 1 3 1.000000
  3 -0.509900 -4.883700 64.480797 0.180598 0.651893 0.736492 0.479500 0.452200 1 3 1.000000
  3 0.563900 -4.040101 63.551899 -0.122999 0.421398 0.898496 0.694300 0.444800 1 3 1.000000
mouth
  3 -0.509900 -4.883700 64.480797 0.180598 0.651893 0.736492 0.479500 0.452200 1 3 1.000000
  3 -0.940600 -2.906700 63.523399 0.409093 -0.603989 0.683988 0.063100 0.515500 1 3 1.000000
  3 -0.970100 -2.988901 65.282600 0.431502 -0.563203 -0.704704 0.063100 0.515500 1 3 1.000000
mouth
  3 -0.940600 -2.906700 63.523399 0.409093 -0.603989 0.683988 0.063100 0.515500 1 3 1.000000
  3 1.205200 -2.907601 63.527699 -0.415714 -0.601120 0.682523 0.934100 0.515300 1 3 1.000000
  3 -0.970100 -2.988901 65.282600 0.431502 -0.563203 -0.704704 0.063100 0.515500 1 3 1.000000
mouth
  3 -0.970100 -2.988901 65.282600 0.431502 -0.563203 -0.704704 0.063100 0.515500 1 3 1.000000
  3 1.205200 -2.907601 63.527699 -0.415714 -0.601120 0.682523 0.934100 0.515300 1 3 1.000000
  3 1.228300 -2.989901 65.286797 -0.448406 -0.562908 -0.694310 0.934400 0.515300 1 3 1.000000
mouth
  3 -0.970100 -2.988901 65.282600 0.431502 -0.563203 -0.704704 0.063100 0.515500 1 3 1.000000
  3 1.228300 -2.989901 65.286797 -0.448406 -0.562908 -0.694310 0.934400 0.515300 1 3 1.000000
  3 -0.301400 -4.150301 65.298599 0.091497 0.427288 -0.899474 0.308500 0.444500 1 3 1.000000
mouth
  3 0.791900 -4.883701 64.481400 -0.227994 0.687583 0.689383 0.531800 0.451700 1 3 1.000000
  3 -0.301400 -4.150301 65.298599 0.091497 0.427288 -0.899474 0.308500 0.444500 1 3 1.000000
  3 1.228300 -2.989901 65.286797 -0.448406 -0.562908 -0.694310 0.934400 0.515300 1 3 1.000000
mouth
  3 0.791900 -4.883701 64.481400 -0.227994 0.687583 0.689383 0.531800 0.451700 1 3 1.000000
  3 0.322800 -4.959100 64.448097 -0.005500 0.726666 -0.686968 0.512800 0.450900 1 3 1.000000
  3 -0.301400 -4.150301 65.298599 0.091497 0.427288 -0.899474 0.308500 0.444500 1 3 1.000000
mouth
  3 0.322800 -4.959100 64.448097 -0.005500 0.726666 -0.686968 0.512800 0.450900 1 3 1.000000
  3 -0.509900 -4.883700 64.480797 0.180598 0.651893 0.736492 0.479500 0.452200 1 3 1.000000
  3 -0.301400 -4.150301 65.298599 0.091497 0.427288 -0.899474 0.308500 0.444500 1 3 1.000000
mouth
  3 -0.509900 -4.883700 64.480797 0.180598 0.651893 0.736492 0.479500 0.452200 1 3 1.000000
  3 -0.970100 -2.988901 65.282600 0.431502 -0.563203 -0.704704 0.063100 0.515500 1 3 1.000000
  3 -0.301400 -4.150301 65.298599 0.091497 0.427288 -0.899474 0.308500 0.444500 1 3 1.000000
mouth
  3 -0.940600 -2.906700 63.523399 0.409093 -0.603989 0.683988 0.063100 0.515500 1 3 1.000000
  3 0.563900 -4.040101 63.551899 -0.122999 0.421398 0.898496 0.694300 0.444800 1 3 1.000000
  3 1.205200 -2.907601 63.527699 -0.415714 -0.601120 0.682523 0.934100 0.515300 1 3 1.000000
mouth
  3 1.089200 -3.341201 64.403503 -0.081299 -0.001700 0.996688 0.388700 0.353400 1 3 1.000000
  3 1.089400 -4.132401 64.428001 0.792195 -0.544796 -0.274998 0.233100 0.360700 1 3 1.000000
  3 1.134400 -3.890001 63.986198 0.917949 -0.376620 -0.124607 0.278900 0.068300 1 3 1.000000
mouth
  3 0.524500 -4.563100 63.986198 0.407825 -0.899754 -0.155309 0.066200 0.068300 1 3 1.000000
  3 1.134400 -3.890001 63.986198 0.917949 -0.376620 -0.124607 0.278900 0.068300 1 3 1.000000
  3 1.089400 -4.132401 64.428001 0.792195 -0.544796 -0.274998 0.233100 0.360700 1 3 1.000000
mouth
  3 1.089400 -4.132401 64.428001 0.792195 -0.544796 -0.274998 0.233100 0.360700 1 3 1.000000
  3 0.757800 -4.443501 64.405998 0.634607 -0.768408 -0.082601 0.132800 0.365400 1 3 1.000000
  3 0.524500 -4.563100 63.986198 0.407825 -0.899754 -0.155309 0.066200 0.068300 1 3 1.000000
mouth
  3 0.757800 -4.443501 64.405998 0.634607 -0.768408 -0.082601 0.132800 0.365400 1 3 1.000000
  3 0.604500 -4.446901 64.317902 0.606564 -0.792753 -0.060196 0.123300 0.311200 1 3 1.000000
  3 0.524500 -4.563100 63.986198 0.407825 -0.899754 -0.155309 0.066200 0.068300 1 3 1.000000
mouth
  3 0.604500 -4.446901 64.317902 0.606564 -0.792753 -0.060196 0.123300 0.311200 1 3 1.000000
  3 0.431600 -4.677600 64.390404 0.276413 -0.938743 -0.205809 0.043900 0.328200 1 3 1.000000
  3 0.524500 -4.563100 63.986198 0.407825 -0.899754 -0.155309 0.066200 0.068300 1 3 1.000000
mouth
  3 0.431600 -4.677600 64.390404 0.276413 -0.938743 -0.205809 0.043900 0.328200 1 3 1.000000
  3 -0.293300 -4.565301 63.986198 0.044498 -0.939052 -0.340883 0.002000 0.068300 1 3 1.000000
  3 0.524500 -4.563100 63.986198 0.407825 -0.899754 -0.155309 0.066200 0.068300 1 3 1.000000
mouth
  3 0.431600 -4.677600 64.390404 0.276413 -0.938743 -0.205809 0.043900 0.328200 1 3 1.000000
  3 0.155300 -4.727100 64.409401 0.144996 -0.934675 -0.324591 0.002200 0.364300 1 3 1.000000
  3 -0.293300 -4.565301 63.986198 0.044498 -0.939052 -0.340883 0.002000 0.068300 1 3 1.000000
mouth
  3 0.604500 -4.446901 64.317902 0.606564 -0.792753 -0.060196 0.123300 0.311200 1 3 1.000000
  3 0.724600 -4.282500 64.356102 -0.754830 0.621325 0.210208 0.177100 0.331200 1 3 1.000000
  3 0.924600 -3.866601 63.987999 -0.909837 0.338514 0.240010 0.297700 0.069700 1 3 1.000000
mouth
  3 0.724600 -4.282500 64.356102 -0.754830 0.621325 0.210208 0.177100 0.331200 1 3 1.000000
  3 0.969900 -4.031800 64.392502 -0.869385 0.434192 0.235896 0.259600 0.354700 1 3 1.000000
  3 0.924600 -3.866601 63.987999 -0.909837 0.338514 0.240010 0.297700 0.069700 1 3 1.000000
mouth
  3 0.969900 -4.031800 64.392502 -0.869385 0.434192 0.235896 0.259600 0.354700 1 3 1.000000
  3 1.089200 -3.341201 64.403503 -0.081299 -0.001700 0.996688 0.388700 0.353400 1 3 1.000000
  3 0.924600 -3.866601 63.987999 -0.909837 0.338514 0.240010 0.297700 0.069700 1 3 1.000000
mouth
  3 0.855700 -4.529701 64.474503 -0.153205 0.368712 -0.916831 0.344100 0.595500 1 3 1.000000
  3 0.822100 -4.328600 64.560997 -0.153205 0.368712 -0.916831 0.311800 0.670700 1 3 1.000000
  3 0.996800 -4.347001 64.524399 -0.153205 0.368712 -0.916831 0.302800 0.658400 1 3 1.000000
mouth
  3 0.969900 -4.031800 64.392502 -0.263496 0.026900 0.964285 0.259600 0.354700 1 3 1.000000
  3 0.724600 -4.282500 64.356102 -0.493884 0.162695 0.854172 0.177100 0.331200 1 3 1.000000
  3 0.757800 -4.443501 64.405998 -0.493884 0.162695 0.854172 0.132800 0.365400 1 3 1.000000
mouth
  3 0.724600 -4.282500 64.356102 -0.493884 0.162695 0.854172 0.177100 0.331200 1 3 1.000000
  3 0.604500 -4.446901 64.317902 -0.493884 0.162695 0.854172 0.123300 0.311200 1 3 1.000000
  3 0.757800 -4.443501 64.405998 -0.493884 0.162695 0.854172 0.132800 0.365400 1 3 1.000000
mouth
  3 1.089200 -3.341201 64.403503 -0.158698 -0.008600 0.987290 0.388700 0.353400 1 3 1.000000
  3 0.969900 -4.031800 64.392502 -0.263496 0.026900 0.964285 0.259600 0.354700 1 3 1.000000
  3 1.089400 -4.132401 64.428001 -0.263496 0.026900 0.964285 0.233100 0.360700 1 3 1.000000
mouth
  3 0.996800 -4.347001 64.524399 -0.174394 -0.103096 -0.979264 0.302800 0.658400 1 3 1.000000
  3 0.937700 -4.066201 64.505302 -0.174394 -0.103096 -0.979264 0.243100 0.625400 1 3 1.000000
  3 1.073500 -4.166800 64.491699 -0.174394 -0.103096 -0.979264 0.273800 0.620800 1 3 1.000000
mouth
  3 -0.539200 -4.442400 64.410004 0.134101 0.258701 0.956604 0.853800 0.358500 1 3 1.000000
  3 -0.499900 -4.276801 64.359703 0.134101 0.258701 0.956604 0.820000 0.345800 1 3 1.000000
  3 -0.659700 -4.302601 64.389099 0.134101 0.258701 0.956604 0.808700 0.355800 1 3 1.000000
mouth
  3 0.822100 -4.328600 64.560997 -0.519192 0.262996 -0.813187 0.311800 0.670700 1 3 1.000000
  3 0.855700 -4.529701 64.474503 -0.519192 0.262996 -0.813187 0.344100 0.595500 1 3 1.000000
  3 0.712600 -4.481301 64.581497 -0.519192 0.262996 -0.813187 0.373500 0.711400 1 3 1.000000
mouth
  3 1.073500 -4.166800 64.491699 0.040702 0.187407 -0.981439 0.273800 0.620800 1 3 1.000000
  3 0.937700 -4.066201 64.505302 0.040702 0.187407 -0.981439 0.243100 0.625400 1 3 1.000000
  3 1.162800 -4.039801 64.519699 0.040702 0.187407 -0.981439 0.237100 0.637800 1 3 1.000000
mouth
  3 1.037200 -3.375601 64.494400 0.066697 -0.025399 -0.997450 0.123500 0.613000 1 3 1.000000
  3 1.162800 -4.039801 64.519699 0.066697 -0.025399 -0.997450 0.237100 0.637800 1 3 1.000000
  3 0.937700 -4.066201 64.505302 0.066697 -0.025399 -0.997450 0.243100 0.625400 1 3 1.000000
mouth
  3 -0.497200 -4.497401 64.573097 0.585813 0.058701 -0.808318 0.627200 0.704200 1 3 1.000000
  3 -0.744400 -4.348600 64.530403 0.065803 -0.111904 -0.991538 0.696800 0.663600 1 3 1.000000
  3 -0.560800 -4.322801 64.539703 0.065803 -0.111904 -0.991538 0.689600 0.675200 1 3 1.000000
mouth
  3 -0.671400 -4.061400 64.502800 0.065803 -0.111904 -0.991538 0.756900 0.628900 1 3 1.000000
  3 -0.560800 -4.322801 64.539703 0.065803 -0.111904 -0.991538 0.689600 0.675200 1 3 1.000000
  3 -0.744400 -4.348600 64.530403 0.065803 -0.111904 -0.991538 0.696800 0.663600 1 3 1.000000
mouth
  3 -0.744400 -4.348600 64.530403 0.065803 -0.111904 -0.991538 0.696800 0.663600 1 3 1.000000
  3 -0.883200 -4.053701 64.520103 -0.082303 -0.027201 -0.996236 0.757800 0.643900 1 3 1.000000
  3 -0.671400 -4.061400 64.502800 -0.082303 -0.027201 -0.996236 0.756900 0.628900 1 3 1.000000
mouth
  3 -0.796200 -3.375601 64.494400 -0.082303 -0.027201 -0.996236 0.877800 0.620200 1 3 1.000000
  3 -0.671400 -4.061400 64.502800 -0.082303 -0.027201 -0.996236 0.756900 0.628900 1 3 1.000000
  3 -0.883200 -4.053701 64.520103 -0.082303 -0.027201 -0.996236 0.757800 0.643900 1 3 1.000000
mouth
  3 -0.499900 -4.276801 64.359703 0.470975 0.151992 0.868954 0.820000 0.345800 1 3 1.000000
  3 -0.539200 -4.442400 64.410004 0.470975 0.151992 0.868954 0.853800 0.358500 1 3 1.000000
  3 -0.383300 -4.446900 64.326302 0.470975 0.151992 0.868954 0.890700 0.321000 1 3 1.000000
mouth
  3 0.757800 -4.443501 64.405998 -0.100800 0.275500 0.956001 0.132800 0.365400 1 3 1.000000
  3 1.089400 -4.132401 64.428001 -0.116106 0.204511 0.971954 0.233100 0.360700 1 3 1.000000
  3 0.969900 -4.031800 64.392502 -0.116106 0.204511 0.971954 0.259600 0.354700 1 3 1.000000
ted_facemap
  3 -1.173300 2.317500 64.480904 -0.345005 0.883913 -0.315705 0.048200 0.391100 1 3 1.000000
  3 0.119800 2.514301 62.583401 -0.009100 0.992912 0.118501 0.005600 0.242000 1 3 1.000000
  3 -1.897800 1.819100 62.553299 -0.691481 0.708581 0.140596 0.086900 0.238600 1 3 1.000000
ted_facemap
  3 -2.268100 -1.435700 70.886497 -0.752939 -0.203510 0.625832 0.274400 0.907500 1 3 1.000000
  3 -3.163800 -0.888000 68.168999 -0.986207 -0.161001 -0.038400 0.237200 0.688600 1 3 1.000000
  3 -1.972400 -4.110900 68.391403 -0.678891 -0.677091 0.283996 0.413800 0.701700 1 3 1.000000
ted_facemap
  3 -1.972400 -4.110900 68.391403 -0.678891 -0.677091 0.283996 0.413800 0.701700 1 3 1.000000
  3 -3.163800 -0.888000 68.168999 -0.986207 -0.161001 -0.038400 0.237200 0.688600 1 3 1.000000
  3 -2.711400 -3.100600 66.723000 -0.886408 -0.454404 0.088301 0.349000 0.568600 1 3 1.000000
ted_facemap
  3 -2.711400 -3.100600 66.723000 -0.886408 -0.454404 0.088301 0.349000 0.568600 1 3 1.000000
  3 -3.163800 -0.888000 68.168999 -0.986207 -0.161001 -0.038400 0.237200 0.688600 1 3 1.000000
  3 -3.105100 -0.758501 65.842499 -0.919566 -0.317288 0.231791 0.228200 0.501200 1 3 1.000000
ted_facemap
  3 -2.711400 -3.100600 66.723000 -0.886408 -0.454404 0.088301 0.349000 0.568600 1 3 1.000000
  3 -3.105100 -0.758501 65.842499 -0.919566 -0.317288 0.231791 0.228200 0.501200 1 3 1.000000
  3 -2.028600 -3.225701 63.328400 -0.869542 -0.260413 -0.419620 0.375600 0.294100 1 3 1.000000
ted_facemap
  3 -2.605200 -1.275601 63.956902 -0.936194 -0.129399 -0.326798 0.253900 0.347700 1 3 1.000000
  3 -2.028600 -3.225701 63.328400 -0.869542 -0.260413 -0.419620 0.375600 0.294100 1 3 1.000000
  3 -3.105100 -0.758501 65.842499 -0.919566 -0.317288 0.231791 0.228200 0.501200 1 3 1.000000
ted_facemap
  3 -2.028600 -3.225701 63.328400 -0.869542 -0.260413 -0.419620 0.375600 0.294100 1 3 1.000000
  3 -2.605200 -1.275601 63.956902 -0.936194 -0.129399 -0.326798 0.253900 0.347700 1 3 1.000000
  3 -2.499900 -0.081900 62.083801 -0.954448 -0.288614 -0.075704 0.179600 0.198000 1 3 1.000000
ted_facemap
  3 -2.605200 -1.275601 63.956902 -0.936194 -0.129399 -0.326798 0.253900 0.347700 1 3 1.000000
  3 -1.897800 1.819100 62.553299 -0.691481 0.708581 0.140596 0.086900 0.238600 1 3 1.000000
  3 -2.499900 -0.081900 62.083801 -0.954448 -0.288614 -0.075704 0.179600 0.198000 1 3 1.000000
ted_facemap
  3 -1.897800 1.819100 62.553299 -0.691481 0.708581 0.140596 0.086900 0.238600 1 3 1.000000
  3 -2.605200 -1.275601 63.956902 -0.936194 -0.129399 -0.326798 0.253900 0.347700 1 3 1.000000
  3 -2.628900 1.820400 65.914001 -0.814375 0.483685 -0.320690 0.114500 0.510200 1 3 1.000000
ted_facemap
  3 -1.897800 1.819100 62.553299 -0.691481 0.708581 0.140596 0.086900 0.238600 1 3 1.000000
  3 -2.628900 1.820400 65.914001 -0.814375 0.483685 -0.320690 0.114500 0.510200 1 3 1.000000
  3 -1.173300 2.317500 64.480904 -0.345005 0.883913 -0.315705 0.048200 0.391100 1 3 1.000000
ted_facemap
  3 -2.628900 1.820400 65.914001 -0.814375 0.483685 -0.320690 0.114500 0.510200 1 3 1.000000
  3 -1.966600 2.687500 66.195000 -0.532532 0.787747 -0.309619 0.073600 0.534100 1 3 1.000000
  3 -1.173300 2.317500 64.480904 -0.345005 0.883913 -0.315705 0.048200 0.391100 1 3 1.000000
ted_facemap
  3 -1.966600 2.687500 66.195000 -0.532532 0.787747 -0.309619 0.073600 0.534100 1 3 1.000000
  3 2.082200 2.876900 66.887802 0.462982 0.877266 -0.126695 0.004600 0.614700 1 3 1.000000
  3 -1.173300 2.317500 64.480904 -0.345005 0.883913 -0.315705 0.048200 0.391100 1 3 1.000000
ted_facemap
  3 -1.966600 2.687500 66.195000 -0.532532 0.787747 -0.309619 0.073600 0.534100 1 3 1.000000
  3 1.145100 3.241800 69.082397 0.214703 0.953813 0.210103 0.004700 0.770800 1 3 1.000000
  3 2.082200 2.876900 66.887802 0.462982 0.877266 -0.126695 0.004600 0.614700 1 3 1.000000
ted_facemap
  3 -1.966600 2.687500 66.195000 -0.532532 0.787747 -0.309619 0.073600 0.534100 1 3 1.000000
  3 -1.696600 2.354400 70.436897 -0.541602 0.668103 0.510202 0.071100 0.876500 1 3 1.000000
  3 1.145100 3.241800 69.082397 0.214703 0.953813 0.210103 0.004700 0.770800 1 3 1.000000
ted_facemap
  3 -1.696600 2.354400 70.436897 -0.541602 0.668103 0.510202 0.071100 0.876500 1 3 1.000000
  3 0.180100 2.207500 71.220596 0.004500 0.611071 0.791563 0.004900 0.939600 1 3 1.000000
  3 1.145100 3.241800 69.082397 0.214703 0.953813 0.210103 0.004700 0.770800 1 3 1.000000
ted_facemap
  3 1.201300 0.870600 71.694199 0.288811 0.264810 0.920035 0.019700 0.976700 1 3 1.000000
  3 0.180100 2.207500 71.220596 0.004500 0.611071 0.791563 0.004900 0.939600 1 3 1.000000
  3 -1.696600 2.354400 70.436897 -0.541602 0.668103 0.510202 0.071100 0.876500 1 3 1.000000
ted_facemap
  3 -1.696600 2.354400 70.436897 -0.541602 0.668103 0.510202 0.071100 0.876500 1 3 1.000000
  3 -1.365500 0.283700 71.682098 -0.377291 0.119297 0.918379 0.122800 0.974200 1 3 1.000000
  3 1.201300 0.870600 71.694199 0.288811 0.264810 0.920035 0.019700 0.976700 1 3 1.000000
ted_facemap
  3 -0.560600 -2.619900 71.577301 -0.290897 -0.366697 0.883692 0.448300 0.961600 1 3 1.000000
  3 1.201300 0.870600 71.694199 0.288811 0.264810 0.920035 0.019700 0.976700 1 3 1.000000
  3 -1.365500 0.283700 71.682098 -0.377291 0.119297 0.918379 0.122800 0.974200 1 3 1.000000
ted_facemap
  3 -1.155500 -3.831300 70.425003 -0.505000 -0.698299 0.507300 0.439400 0.866700 1 3 1.000000
  3 -0.560600 -2.619900 71.577301 -0.290897 -0.366697 0.883692 0.448300 0.961600 1 3 1.000000
  3 -1.365500 0.283700 71.682098 -0.377291 0.119297 0.918379 0.122800 0.974200 1 3 1.000000
ted_facemap
  3 -3.229900 -0.732100 65.077599 -0.438390 0.053699 -0.897179 0.225900 0.449000 1 3 1.000000
  3 -2.605200 -1.275601 63.956902 -0.936194 -0.129399 -0.326798 0.253900 0.347700 1 3 1.000000
  3 -3.105100 -0.758501 65.842499 -0.919566 -0.317288 0.231791 0.228200 0.501200 1 3 1.000000
ted_facemap
  3 -2.605200 -1.275601 63.956902 -0.936194 -0.129399 -0.326798 0.253900 0.347700 1 3 1.000000
  3 -3.229900 -0.732100 65.077599 -0.438390 0.053699 -0.897179 0.225900 0.449000 1 3 1.000000
  3 -2.628900 1.820400 65.914001 -0.814375 0.483685 -0.320690 0.114500 0.510200 1 3 1.000000
ted_facemap
  3 -3.061800 -0.603100 67.293701 -0.999521 -0.020600 -0.023100 0.221300 0.618300 1 3 1.000000
  3 -3.434300 0.570900 66.466301 -0.218199 0.929996 -0.295799 0.178200 0.554300 1 3 1.000000
  3 -3.105100 -0.758501 65.842499 -0.919566 -0.317288 0.231791 0.228200 0.501200 1 3 1.000000
ted_facemap
  3 -3.061800 -0.603100 67.293701 -0.999521 -0.020600 -0.023100 0.221300 0.618300 1 3 1.000000
  3 -3.105100 -0.758501 65.842499 -0.919566 -0.317288 0.231791 0.228200 0.501200 1 3 1.000000
  3 -3.163800 -0.888000 68.168999 -0.986207 -0.161001 -0.038400 0.237200 0.688600 1 3 1.000000
ted_facemap
  3 -2.940800 -0.010800 66.143402 -0.663897 0.679997 -0.311199 0.185400 0.513600 1 3 1.000000
  3 -3.061800 -0.603100 67.293701 -0.999521 -0.020600 -0.023100 0.221300 0.618300 1 3 1.000000
  3 -3.163800 -0.888000 68.168999 -0.986207 -0.161001 -0.038400 0.237200 0.688600 1 3 1.000000
ted_facemap
  3 -3.163800 -0.888000 68.168999 -0.986207 -0.161001 -0.038400 0.237200 0.688600 1 3 1.000000
  3 -2.725500 1.963600 68.751701 -0.858636 0.501421 0.106404 0.113800 0.739700 1 3 1.000000
  3 -2.940800 -0.010800 66.143402 -0.663897 0.679997 -0.311199 0.185400 0.513600 1 3 1.000000
ted_facemap
  3 -2.268100 -1.435700 70.886497 -0.752939 -0.203510 0.625832 0.274400 0.907500 1 3 1.000000
  3 -2.725500 1.963600 68.751701 -0.858636 0.501421 0.106404 0.113800 0.739700 1 3 1.000000
  3 -3.163800 -0.888000 68.168999 -0.986207 -0.161001 -0.038400 0.237200 0.688600 1 3 1.000000
ted_facemap
  3 -3.434300 0.570900 66.466301 -0.218199 0.929996 -0.295799 0.178200 0.554300 1 3 1.000000
  3 -3.061800 -0.603100 67.293701 -0.999521 -0.020600 -0.023100 0.221300 0.618300 1 3 1.000000
  3 -2.940800 -0.010800 66.143402 -0.663897 0.679997 -0.311199 0.185400 0.513600 1 3 1.000000
ted_facemap
  3 -1.399500 -4.498100 64.377403 -0.555476 -0.820665 -0.133994 0.445500 0.383300 1 3 1.000000
  3 -0.509900 -4.883700 64.480797 -0.321097 -0.875792 0.360397 0.480400 0.386400 1 3 1.000000
  3 -1.282900 -4.249801 66.996002 -0.139595 -0.985268 -0.098797 0.440400 0.589100 1 3 1.000000
ted_facemap
  3 -0.509900 -4.883700 64.480797 -0.321097 -0.875792 0.360397 0.480400 0.386400 1 3 1.000000
  3 -0.601000 -4.604201 65.989799 -0.604664 -0.786453 0.125992 0.474300 0.507300 1 3 1.000000
  3 -1.282900 -4.249801 66.996002 -0.139595 -0.985268 -0.098797 0.440400 0.589100 1 3 1.000000
ted_facemap
  3 -1.282900 -4.249801 66.996002 -0.139595 -0.985268 -0.098797 0.440400 0.589100 1 3 1.000000
  3 -0.601000 -4.604201 65.989799 -0.604664 -0.786453 0.125992 0.474300 0.507300 1 3 1.000000
  3 -0.481500 -4.050400 67.243797 -0.437019 -0.886838 0.150107 0.475600 0.609400 1 3 1.000000
ted_facemap
  3 -0.481500 -4.050400 67.243797 -0.437019 -0.886838 0.150107 0.475600 0.609400 1 3 1.000000
  3 -0.601000 -4.604201 65.989799 -0.604664 -0.786453 0.125992 0.474300 0.507300 1 3 1.000000
  3 0.025400 -4.803900 67.596603 -0.349919 -0.932051 0.094005 0.502900 0.636800 1 3 1.000000
ted_facemap
  3 0.025400 -4.803900 67.596603 -0.349919 -0.932051 0.094005 0.502900 0.636800 1 3 1.000000
  3 -0.980700 -4.736401 68.231003 -0.227210 -0.942442 -0.245311 0.460300 0.688100 1 3 1.000000
  3 -0.481500 -4.050400 67.243797 -0.437019 -0.886838 0.150107 0.475600 0.609400 1 3 1.000000
ted_facemap
  3 -0.481500 -4.050400 67.243797 -0.437019 -0.886838 0.150107 0.475600 0.609400 1 3 1.000000
  3 -0.980700 -4.736401 68.231003 -0.227210 -0.942442 -0.245311 0.460300 0.688100 1 3 1.000000
  3 -2.711400 -3.100600 66.723000 -0.886408 -0.454404 0.088301 0.349000 0.568600 1 3 1.000000
ted_facemap
  3 -1.972400 -4.110900 68.391403 -0.678891 -0.677091 0.283996 0.413800 0.701700 1 3 1.000000
  3 -2.711400 -3.100600 66.723000 -0.886408 -0.454404 0.088301 0.349000 0.568600 1 3 1.000000
  3 -0.980700 -4.736401 68.231003 -0.227210 -0.942442 -0.245311 0.460300 0.688100 1 3 1.000000
ted_facemap
  3 -1.972400 -4.110900 68.391403 -0.678891 -0.677091 0.283996 0.413800 0.701700 1 3 1.000000
  3 -0.980700 -4.736401 68.231003 -0.227210 -0.942442 -0.245311 0.460300 0.688100 1 3 1.000000
  3 -1.155500 -3.831300 70.425003 -0.505000 -0.698299 0.507300 0.439400 0.866700 1 3 1.000000
ted_facemap
  3 -1.972400 -4.110900 68.391403 -0.678891 -0.677091 0.283996 0.413800 0.701700 1 3 1.000000
  3 -1.155500 -3.831300 70.425003 -0.505000 -0.698299 0.507300 0.439400 0.866700 1 3 1.000000
  3 -2.268100 -1.435700 70.886497 -0.752939 -0.203510 0.625832 0.274400 0.907500 1 3 1.000000
ted_facemap
  3 -1.365500 0.283700 71.682098 -0.377291 0.119297 0.918379 0.122800 0.974200 1 3 1.000000
  3 -2.268100 -1.435700 70.886497 -0.752939 -0.203510 0.625832 0.274400 0.907500 1 3 1.000000
  3 -1.155500 -3.831300 70.425003 -0.505000 -0.698299 0.507300 0.439400 0.866700 1 3 1.000000
ted_facemap
  3 -1.365500 0.283700 71.682098 -0.377291 0.119297 0.918379 0.122800 0.974200 1 3 1.000000
  3 -2.725500 1.963600 68.751701 -0.858636 0.501421 0.106404 0.113800 0.739700 1 3 1.000000
  3 -2.268100 -1.435700 70.886497 -0.752939 -0.203510 0.625832 0.274400 0.907500 1 3 1.000000
ted_facemap
  3 -2.725500 1.963600 68.751701 -0.858636 0.501421 0.106404 0.113800 0.739700 1 3 1.000000
  3 -1.365500 0.283700 71.682098 -0.377291 0.119297 0.918379 0.122800 0.974200 1 3 1.000000
  3 -1.696600 2.354400 70.436897 -0.541602 0.668103 0.510202 0.071100 0.876500 1 3 1.000000
ted_facemap
  3 -1.966600 2.687500 66.195000 -0.532532 0.787747 -0.309619 0.073600 0.534100 1 3 1.000000
  3 -2.725500 1.963600 68.751701 -0.858636 0.501421 0.106404 0.113800 0.739700 1 3 1.000000
  3 -1.696600 2.354400 70.436897 -0.541602 0.668103 0.510202 0.071100 0.876500 1 3 1.000000
ted_facemap
  3 -1.966600 2.687500 66.195000 -0.532532 0.787747 -0.309619 0.073600 0.534100 1 3 1.000000
  3 -2.628900 1.820400 65.914001 -0.814375 0.483685 -0.320690 0.114500 0.510200 1 3 1.000000
  3 -2.725500 1.963600 68.751701 -0.858636 0.501421 0.106404 0.113800 0.739700 1 3 1.000000
ted_facemap
  3 -2.628900 1.820400 65.914001 -0.814375 0.483685 -0.320690 0.114500 0.510200 1 3 1.000000
  3 -2.940800 -0.010800 66.143402 -0.663897 0.679997 -0.311199 0.185400 0.513600 1 3 1.000000
  3 -2.725500 1.963600 68.751701 -0.858636 0.501421 0.106404 0.113800 0.739700 1 3 1.000000
ted_facemap
  3 -3.229900 -0.732100 65.077599 -0.438390 0.053699 -0.897179 0.225900 0.449000 1 3 1.000000
  3 -2.940800 -0.010800 66.143402 -0.663897 0.679997 -0.311199 0.185400 0.513600 1 3 1.000000
  3 -2.628900 1.820400 65.914001 -0.814375 0.483685 -0.320690 0.114500 0.510200 1 3 1.000000
ted_facemap
  3 -2.940800 -0.010800 66.143402 -0.663897 0.679997 -0.311199 0.185400 0.513600 1 3 1.000000
  3 -3.229900 -0.732100 65.077599 -0.438390 0.053699 -0.897179 0.225900 0.449000 1 3 1.000000
  3 -3.434300 0.570900 66.466301 -0.218199 0.929996 -0.295799 0.178200 0.554300 1 3 1.000000
ted_facemap
  3 -3.434300 0.570900 66.466301 -0.218199 0.929996 -0.295799 0.178200 0.554300 1 3 1.000000
  3 -3.229900 -0.732100 65.077599 -0.438390 0.053699 -0.897179 0.225900 0.449000 1 3 1.000000
  3 -3.105100 -0.758501 65.842499 -0.919566 -0.317288 0.231791 0.228200 0.501200 1 3 1.000000
ted_facemap
  3 -2.711400 -3.100600 66.723000 -0.886408 -0.454404 0.088301 0.349000 0.568600 1 3 1.000000
  3 -1.399500 -4.498100 64.377403 -0.555476 -0.820665 -0.133994 0.445500 0.383300 1 3 1.000000
  3 -1.282900 -4.249801 66.996002 -0.139595 -0.985268 -0.098797 0.440400 0.589100 1 3 1.000000
ted_facemap
  3 -2.028600 -3.225701 63.328400 -0.869542 -0.260413 -0.419620 0.375600 0.294100 1 3 1.000000
  3 -1.399500 -4.498100 64.377403 -0.555476 -0.820665 -0.133994 0.445500 0.383300 1 3 1.000000
  3 -2.711400 -3.100600 66.723000 -0.886408 -0.454404 0.088301 0.349000 0.568600 1 3 1.000000
ted_facemap
  3 -2.028600 -3.225701 63.328400 -0.869542 -0.260413 -0.419620 0.375600 0.294100 1 3 1.000000
  3 -0.448900 -4.929901 62.722401 -0.372199 -0.882698 -0.286899 0.482500 0.242700 1 3 1.000000
  3 -1.399500 -4.498100 64.377403 -0.555476 -0.820665 -0.133994 0.445500 0.383300 1 3 1.000000
ted_facemap
  3 -0.509900 -4.883700 64.480797 -0.321097 -0.875792 0.360397 0.480400 0.386400 1 3 1.000000
  3 -0.462900 -4.810300 65.467499 -0.641004 -0.762704 -0.086000 0.482300 0.462700 1 3 1.000000
  3 -0.601000 -4.604201 65.989799 -0.604664 -0.786453 0.125992 0.474300 0.507300 1 3 1.000000
ted_facemap
  3 0.025400 -4.803900 67.596603 -0.349919 -0.932051 0.094005 0.502900 0.636800 1 3 1.000000
  3 -0.601000 -4.604201 65.989799 -0.604664 -0.786453 0.125992 0.474300 0.507300 1 3 1.000000
  3 -0.025300 -5.658300 66.112503 -0.496007 -0.786011 0.369005 0.500600 0.515700 1 3 1.000000
ted_facemap
  3 -0.025300 -5.658300 66.112503 -0.496007 -0.786011 0.369005 0.500600 0.515700 1 3 1.000000
  3 -0.601000 -4.604201 65.989799 -0.604664 -0.786453 0.125992 0.474300 0.507300 1 3 1.000000
  3 -0.462900 -4.810300 65.467499 -0.641004 -0.762704 -0.086000 0.482300 0.462700 1 3 1.000000
ted_facemap
  3 -0.462900 -4.810300 65.467499 -0.641004 -0.762704 -0.086000 0.482300 0.462700 1 3 1.000000
  3 0.133900 -5.094201 65.479897 -0.106302 -0.894616 -0.434007 0.507500 0.465400 1 3 1.000000
  3 -0.025300 -5.658300 66.112503 -0.496007 -0.786011 0.369005 0.500600 0.515700 1 3 1.000000
ted_facemap
  3 -0.509900 -4.883700 64.480797 -0.321097 -0.875792 0.360397 0.480400 0.386400 1 3 1.000000
  3 0.133900 -5.094201 65.479897 -0.106302 -0.894616 -0.434007 0.507500 0.465400 1 3 1.000000
  3 -0.462900 -4.810300 65.467499 -0.641004 -0.762704 -0.086000 0.482300 0.462700 1 3 1.000000
ted_facemap
  3 0.133900 -5.094201 65.479897 -0.106302 -0.894616 -0.434007 0.507500 0.465400 1 3 1.000000
  3 -0.509900 -4.883700 64.480797 -0.321097 -0.875792 0.360397 0.480400 0.386400 1 3 1.000000
  3 0.536000 -5.159400 64.870102 0.299387 -0.942060 0.151294 0.520800 0.415100 1 3 1.000000
ted_facemap
  3 0.322800 -4.959100 64.448097 0.082496 -0.649972 -0.755467 0.515200 0.383900 1 3 1.000000
  3 0.536000 -5.159400 64.870102 0.299387 -0.942060 0.151294 0.520800 0.415100 1 3 1.000000
  3 -0.509900 -4.883700 64.480797 -0.321097 -0.875792 0.360397 0.480400 0.386400 1 3 1.000000
ted_facemap
  3 0.536000 -5.159400 64.870102 0.299387 -0.942060 0.151294 0.520800 0.415100 1 3 1.000000
  3 0.322800 -4.959100 64.448097 0.082496 -0.649972 -0.755467 0.515200 0.383900 1 3 1.000000
  3 0.791900 -4.883701 64.481400 0.342509 -0.871923 0.349910 0.534100 0.385100 1 3 1.000000
ted_facemap
  3 1.563600 -4.498101 64.368202 0.564382 -0.807674 -0.170694 0.566600 0.384600 1 3 1.000000
  3 0.536000 -5.159400 64.870102 0.299387 -0.942060 0.151294 0.520800 0.415100 1 3 1.000000
  3 0.791900 -4.883701 64.481400 0.342509 -0.871923 0.349910 0.534100 0.385100 1 3 1.000000
ted_facemap
  3 0.838300 -4.681001 63.763302 0.264286 -0.936449 -0.230687 0.536000 0.328200 1 3 1.000000
  3 1.563600 -4.498101 64.368202 0.564382 -0.807674 -0.170694 0.566600 0.384600 1 3 1.000000
  3 0.791900 -4.883701 64.481400 0.342509 -0.871923 0.349910 0.534100 0.385100 1 3 1.000000
ted_facemap
  3 0.791900 -4.883701 64.481400 0.342509 -0.871923 0.349910 0.534100 0.385100 1 3 1.000000
  3 0.322800 -4.959101 64.463097 0.028200 -0.835804 0.548303 0.515200 0.381300 1 3 1.000000
  3 0.838300 -4.681001 63.763302 0.264286 -0.936449 -0.230687 0.536000 0.328200 1 3 1.000000
ted_facemap
  3 0.322800 -4.959101 64.463097 0.028200 -0.835804 0.548303 0.515200 0.381300 1 3 1.000000
  3 -0.563100 -4.681001 63.763302 -0.210105 -0.947023 -0.242906 0.482400 0.327200 1 3 1.000000
  3 0.838300 -4.681001 63.763302 0.264286 -0.936449 -0.230687 0.536000 0.328200 1 3 1.000000
ted_facemap
  3 0.322800 -4.959101 64.463097 0.028200 -0.835804 0.548303 0.515200 0.381300 1 3 1.000000
  3 -0.509900 -4.883700 64.480797 -0.321097 -0.875792 0.360397 0.480400 0.386400 1 3 1.000000
  3 -0.563100 -4.681001 63.763302 -0.210105 -0.947023 -0.242906 0.482400 0.327200 1 3 1.000000
ted_facemap
  3 1.563600 -4.498101 64.368202 0.564382 -0.807674 -0.170694 0.566600 0.384600 1 3 1.000000
  3 0.133900 -5.094201 65.479897 -0.106302 -0.894616 -0.434007 0.507500 0.465400 1 3 1.000000
  3 0.536000 -5.159400 64.870102 0.299387 -0.942060 0.151294 0.520800 0.415100 1 3 1.000000
ted_facemap
  3 1.689800 -1.208600 71.595596 0.492184 -0.171294 0.853471 0.738200 0.965100 1 3 1.000000
  3 2.702900 -2.389000 69.544296 0.922678 -0.297893 0.244794 0.680900 0.797600 1 3 1.000000
  3 3.131900 -0.403900 67.443398 0.995860 -0.088096 0.022399 0.787000 0.626300 1 3 1.000000
ted_facemap
  3 2.518800 1.510000 70.372704 0.796082 0.364392 0.483189 0.876500 0.870100 1 3 1.000000
  3 1.689800 -1.208600 71.595596 0.492184 -0.171294 0.853471 0.738200 0.965100 1 3 1.000000
  3 3.131900 -0.403900 67.443398 0.995860 -0.088096 0.022399 0.787000 0.626300 1 3 1.000000
ted_facemap
  3 3.131900 -0.403900 67.443398 0.995860 -0.088096 0.022399 0.787000 0.626300 1 3 1.000000
  3 2.798300 1.963600 68.751701 0.866184 0.483291 0.127098 0.881700 0.739700 1 3 1.000000
  3 2.518800 1.510000 70.372704 0.796082 0.364392 0.483189 0.876500 0.870100 1 3 1.000000
ted_facemap
  3 1.145100 3.241800 69.082397 0.278591 0.941369 0.190294 0.957700 0.768300 1 3 1.000000
  3 2.518800 1.510000 70.372704 0.796082 0.364392 0.483189 0.876500 0.870100 1 3 1.000000
  3 2.798300 1.963600 68.751701 0.866184 0.483291 0.127098 0.881700 0.739700 1 3 1.000000
ted_facemap
  3 1.145100 3.241800 69.082397 0.278591 0.941369 0.190294 0.957700 0.768300 1 3 1.000000
  3 2.798300 1.963600 68.751701 0.866184 0.483291 0.127098 0.881700 0.739700 1 3 1.000000
  3 2.082200 2.876900 66.887802 0.586906 0.803908 -0.096301 0.922900 0.590400 1 3 1.000000
ted_facemap
  3 2.082200 2.876900 66.887802 0.586906 0.803908 -0.096301 0.922900 0.590400 1 3 1.000000
  3 2.798300 1.963600 68.751701 0.866184 0.483291 0.127098 0.881700 0.739700 1 3 1.000000
  3 2.745800 1.820400 65.914001 0.829497 0.458099 -0.319499 0.880800 0.510200 1 3 1.000000
ted_facemap
  3 2.745800 1.820400 65.914001 0.829497 0.458099 -0.319499 0.880800 0.510200 1 3 1.000000
  3 2.100000 1.614900 63.658798 0.798206 0.599905 -0.054600 0.896900 0.327600 2 3 0.918000 13 0.082000
  3 2.082200 2.876900 66.887802 0.586906 0.803908 -0.096301 0.922900 0.590400 1 3 1.000000
ted_facemap
  3 2.100000 1.614900 63.658798 0.798206 0.599905 -0.054600 0.896900 0.327600 2 3 0.918000 13 0.082000
  3 2.745800 1.820400 65.914001 0.829497 0.458099 -0.319499 0.880800 0.510200 1 3 1.000000
  3 2.977400 -1.222500 65.333702 0.896619 -0.379408 -0.228305 0.748100 0.460500 1 3 1.000000
ted_facemap
  3 2.100000 1.614900 63.658798 0.798206 0.599905 -0.054600 0.896900 0.327600 2 3 0.918000 13 0.082000
  3 2.977400 -1.222500 65.333702 0.896619 -0.379408 -0.228305 0.748100 0.460500 1 3 1.000000
  3 2.719800 -1.389701 64.105499 0.950827 -0.102103 -0.292408 0.739700 0.359500 1 3 1.000000
ted_facemap
  3 2.780300 -3.100600 66.723000 0.910761 -0.401883 0.094896 0.655200 0.568600 1 3 1.000000
  3 2.719800 -1.389701 64.105499 0.950827 -0.102103 -0.292408 0.739700 0.359500 1 3 1.000000
  3 2.977400 -1.222500 65.333702 0.896619 -0.379408 -0.228305 0.748100 0.460500 1 3 1.000000
ted_facemap
  3 1.857300 -3.709801 63.013500 0.822559 -0.372982 -0.429279 0.604000 0.268000 1 3 1.000000
  3 2.719800 -1.389701 64.105499 0.950827 -0.102103 -0.292408 0.739700 0.359500 1 3 1.000000
  3 2.780300 -3.100600 66.723000 0.910761 -0.401883 0.094896 0.655200 0.568600 1 3 1.000000
ted_facemap
  3 1.857300 -3.709801 63.013500 0.822559 -0.372982 -0.429279 0.604000 0.268000 1 3 1.000000
  3 2.780300 -3.100600 66.723000 0.910761 -0.401883 0.094896 0.655200 0.568600 1 3 1.000000
  3 1.563600 -4.498101 64.368202 0.564382 -0.807674 -0.170694 0.566600 0.384600 1 3 1.000000
ted_facemap
  3 0.747400 -4.929901 62.722401 0.404195 -0.859889 -0.311796 0.533500 0.242700 1 3 1.000000
  3 1.857300 -3.709801 63.013500 0.822559 -0.372982 -0.429279 0.604000 0.268000 1 3 1.000000
  3 1.563600 -4.498101 64.368202 0.564382 -0.807674 -0.170694 0.566600 0.384600 1 3 1.000000
ted_facemap
  3 0.838300 -4.681001 63.763302 0.264286 -0.936449 -0.230687 0.536000 0.328200 1 3 1.000000
  3 0.747400 -4.929901 62.722401 0.404195 -0.859889 -0.311796 0.533500 0.242700 1 3 1.000000
  3 1.563600 -4.498101 64.368202 0.564382 -0.807674 -0.170694 0.566600 0.384600 1 3 1.000000
ted_facemap
  3 0.747400 -4.929901 62.722401 0.404195 -0.859889 -0.311796 0.533500 0.242700 1 3 1.000000
  3 0.838300 -4.681001 63.763302 0.264286 -0.936449 -0.230687 0.536000 0.328200 1 3 1.000000
  3 -0.448900 -4.929901 62.722401 -0.372199 -0.882698 -0.286899 0.482500 0.242700 1 3 1.000000
ted_facemap
  3 -0.563100 -4.681001 63.763302 -0.210105 -0.947023 -0.242906 0.482400 0.327200 1 3 1.000000
  3 -0.448900 -4.929901 62.722401 -0.372199 -0.882698 -0.286899 0.482500 0.242700 1 3 1.000000
  3 0.838300 -4.681001 63.763302 0.264286 -0.936449 -0.230687 0.536000 0.328200 1 3 1.000000
ted_facemap
  3 -0.563100 -4.681001 63.763302 -0.210105 -0.947023 -0.242906 0.482400 0.327200 1 3 1.000000
  3 -1.399500 -4.498100 64.377403 -0.555476 -0.820665 -0.133994 0.445500 0.383300 1 3 1.000000
  3 -0.448900 -4.929901 62.722401 -0.372199 -0.882698 -0.286899 0.482500 0.242700 1 3 1.000000
ted_facemap
  3 -1.399500 -4.498100 64.377403 -0.555476 -0.820665 -0.133994 0.445500 0.383300 1 3 1.000000
  3 -0.563100 -4.681001 63.763302 -0.210105 -0.947023 -0.242906 0.482400 0.327200 1 3 1.000000
  3 -0.509900 -4.883700 64.480797 -0.321097 -0.875792 0.360397 0.480400 0.386400 1 3 1.000000
ted_facemap
  3 2.780300 -3.100600 66.723000 0.910761 -0.401883 0.094896 0.655200 0.568600 1 3 1.000000
  3 2.702900 -2.389000 69.544296 0.922678 -0.297893 0.244794 0.680900 0.797600 1 3 1.000000
  3 2.104200 -4.159900 68.194901 0.726387 -0.686488 -0.033099 0.592800 0.685800 1 3 1.000000
ted_facemap
  3 3.131900 -0.403900 67.443398 0.995860 -0.088096 0.022399 0.787000 0.626300 1 3 1.000000
  3 2.702900 -2.389000 69.544296 0.922678 -0.297893 0.244794 0.680900 0.797600 1 3 1.000000
  3 2.780300 -3.100600 66.723000 0.910761 -0.401883 0.094896 0.655200 0.568600 1 3 1.000000
ted_facemap
  3 2.977400 -1.222500 65.333702 0.896619 -0.379408 -0.228305 0.748100 0.460500 1 3 1.000000
  3 3.131900 -0.403900 67.443398 0.995860 -0.088096 0.022399 0.787000 0.626300 1 3 1.000000
  3 2.780300 -3.100600 66.723000 0.910761 -0.401883 0.094896 0.655200 0.568600 1 3 1.000000
ted_facemap
  3 2.798300 1.963600 68.751701 0.866184 0.483291 0.127098 0.881700 0.739700 1 3 1.000000
  3 3.131900 -0.403900 67.443398 0.995860 -0.088096 0.022399 0.787000 0.626300 1 3 1.000000
  3 2.974900 -0.146400 65.808998 0.401398 0.718196 -0.568397 0.808000 0.475100 1 3 1.000000
ted_facemap
  3 2.974900 -0.146400 65.808998 0.401398 0.718196 -0.568397 0.808000 0.475100 1 3 1.000000
  3 2.745800 1.820400 65.914001 0.829497 0.458099 -0.319499 0.880800 0.510200 1 3 1.000000
  3 2.798300 1.963600 68.751701 0.866184 0.483291 0.127098 0.881700 0.739700 1 3 1.000000
ted_facemap
  3 2.974900 -0.146400 65.808998 0.401398 0.718196 -0.568397 0.808000 0.475100 1 3 1.000000
  3 2.977400 -1.222500 65.333702 0.896619 -0.379408 -0.228305 0.748100 0.460500 1 3 1.000000
  3 2.745800 1.820400 65.914001 0.829497 0.458099 -0.319499 0.880800 0.510200 1 3 1.000000
ted_facemap
  3 3.366400 0.129100 65.780502 0.552491 0.646189 -0.526491 0.807200 0.503300 1 3 1.000000
  3 2.977400 -1.222500 65.333702 0.896619 -0.379408 -0.228305 0.748100 0.460500 1 3 1.000000
  3 2.974900 -0.146400 65.808998 0.401398 0.718196 -0.568397 0.808000 0.475100 1 3 1.000000
ted_facemap
  3 2.977400 -1.222500 65.333702 0.896619 -0.379408 -0.228305 0.748100 0.460500 1 3 1.000000
  3 3.366400 0.129100 65.780502 0.552491 0.646189 -0.526491 0.807200 0.503300 1 3 1.000000
  3 3.131900 -0.403900 67.443398 0.995860 -0.088096 0.022399 0.787000 0.626300 1 3 1.000000
ted_facemap
  3 3.456600 0.574800 66.939598 0.825526 0.557318 0.088903 0.821900 0.586900 1 3 1.000000
  3 3.131900 -0.403900 67.443398 0.995860 -0.088096 0.022399 0.787000 0.626300 1 3 1.000000
  3 3.366400 0.129100 65.780502 0.552491 0.646189 -0.526491 0.807200 0.503300 1 3 1.000000
ted_facemap
  3 3.456600 0.574800 66.939598 0.825526 0.557318 0.088903 0.821900 0.586900 1 3 1.000000
  3 2.974900 -0.146400 65.808998 0.401398 0.718196 -0.568397 0.808000 0.475100 1 3 1.000000
  3 3.131900 -0.403900 67.443398 0.995860 -0.088096 0.022399 0.787000 0.626300 1 3 1.000000
ted_facemap
  3 3.366400 0.129100 65.780502 0.552491 0.646189 -0.526491 0.807200 0.503300 1 3 1.000000
  3 2.974900 -0.146400 65.808998 0.401398 0.718196 -0.568397 0.808000 0.475100 1 3 1.000000
  3 3.456600 0.574800 66.939598 0.825526 0.557318 0.088903 0.821900 0.586900 1 3 1.000000
ted_facemap
  3 1.857300 -3.709801 63.013500 0.822559 -0.372982 -0.429279 0.604000 0.268000 1 3 1.000000
  3 1.487800 -2.399500 62.425396 0.744575 -0.296090 -0.598280 0.647000 0.222300 1 3 1.000000
  3 2.719800 -1.389701 64.105499 0.950827 -0.102103 -0.292408 0.739700 0.359500 1 3 1.000000
ted_facemap
  3 2.719800 -1.389701 64.105499 0.950827 -0.102103 -0.292408 0.739700 0.359500 1 3 1.000000
  3 2.607300 -0.079500 62.087799 0.966113 -0.248303 -0.070501 0.816000 0.198300 1 3 1.000000
  3 2.100000 1.614900 63.658798 0.798206 0.599905 -0.054600 0.896900 0.327600 2 3 0.918000 13 0.082000
ted_facemap
  3 2.607300 -0.079500 62.087799 0.966113 -0.248303 -0.070501 0.816000 0.198300 1 3 1.000000
  3 2.719800 -1.389701 64.105499 0.950827 -0.102103 -0.292408 0.739700 0.359500 1 3 1.000000
  3 1.487800 -2.399500 62.425396 0.744575 -0.296090 -0.598280 0.647000 0.222300 1 3 1.000000
ted_facemap
  3 1.487800 -2.399500 62.425396 0.744575 -0.296090 -0.598280 0.647000 0.222300 1 3 1.000000
  3 0.731200 -2.033600 61.108498 0.279797 -0.907190 -0.314197 0.623100 0.116400 1 3 1.000000
  3 2.607300 -0.079500 62.087799 0.966113 -0.248303 -0.070501 0.816000 0.198300 1 3 1.000000
ted_facemap
  3 1.487800 -2.399500 62.425396 0.744575 -0.296090 -0.598280 0.647000 0.222300 1 3 1.000000
  3 0.180100 -3.352401 62.050499 0.025701 -0.323614 -0.945840 0.516700 0.190700 1 3 1.000000
  3 0.731200 -2.033600 61.108498 0.279797 -0.907190 -0.314197 0.623100 0.116400 1 3 1.000000
ted_facemap
  3 1.857300 -3.709801 63.013500 0.822559 -0.372982 -0.429279 0.604000 0.268000 1 3 1.000000
  3 0.180100 -3.352401 62.050499 0.025701 -0.323614 -0.945840 0.516700 0.190700 1 3 1.000000
  3 1.487800 -2.399500 62.425396 0.744575 -0.296090 -0.598280 0.647000 0.222300 1 3 1.000000
ted_facemap
  3 1.857300 -3.709801 63.013500 0.822559 -0.372982 -0.429279 0.604000 0.268000 1 3 1.000000
  3 0.747400 -4.929901 62.722401 0.404195 -0.859889 -0.311796 0.533500 0.242700 1 3 1.000000
  3 0.180100 -3.352401 62.050499 0.025701 -0.323614 -0.945840 0.516700 0.190700 1 3 1.000000
ted_facemap
  3 -0.448900 -4.929901 62.722401 -0.372199 -0.882698 -0.286899 0.482500 0.242700 1 3 1.000000
  3 0.180100 -3.352401 62.050499 0.025701 -0.323614 -0.945840 0.516700 0.190700 1 3 1.000000
  3 0.747400 -4.929901 62.722401 0.404195 -0.859889 -0.311796 0.533500 0.242700 1 3 1.000000
ted_facemap
  3 -1.175100 -2.136301 62.088799 -0.707463 -0.534772 -0.462076 0.356800 0.195500 1 3 1.000000
  3 0.180100 -3.352401 62.050499 0.025701 -0.323614 -0.945840 0.516700 0.190700 1 3 1.000000
  3 -0.448900 -4.929901 62.722401 -0.372199 -0.882698 -0.286899 0.482500 0.242700 1 3 1.000000
ted_facemap
  3 -2.028600 -3.225701 63.328400 -0.869542 -0.260413 -0.419620 0.375600 0.294100 1 3 1.000000
  3 -1.175100 -2.136301 62.088799 -0.707463 -0.534772 -0.462076 0.356800 0.195500 1 3 1.000000
  3 -0.448900 -4.929901 62.722401 -0.372199 -0.882698 -0.286899 0.482500 0.242700 1 3 1.000000
ted_facemap
  3 -2.499900 -0.081900 62.083801 -0.954448 -0.288614 -0.075704 0.179600 0.198000 1 3 1.000000
  3 -1.175100 -2.136301 62.088799 -0.707463 -0.534772 -0.462076 0.356800 0.195500 1 3 1.000000
  3 -2.028600 -3.225701 63.328400 -0.869542 -0.260413 -0.419620 0.375600 0.294100 1 3 1.000000
ted_facemap
  3 -2.499900 -0.081900 62.083801 -0.954448 -0.288614 -0.075704 0.179600 0.198000 1 3 1.000000
  3 -1.410400 -1.367700 60.677200 -0.640544 -0.743451 -0.192313 0.261300 0.082500 1 3 1.000000
  3 -1.175100 -2.136301 62.088799 -0.707463 -0.534772 -0.462076 0.356800 0.195500 1 3 1.000000
ted_facemap
  3 -1.410400 -1.367700 60.677200 -0.640544 -0.743451 -0.192313 0.261300 0.082500 1 3 1.000000
  3 0.731200 -2.033600 61.108498 0.279797 -0.907190 -0.314197 0.623100 0.116400 1 3 1.000000
  3 -1.175100 -2.136301 62.088799 -0.707463 -0.534772 -0.462076 0.356800 0.195500 1 3 1.000000
ted_facemap
  3 0.180100 -3.352401 62.050499 0.025701 -0.323614 -0.945840 0.516700 0.190700 1 3 1.000000
  3 -1.175100 -2.136301 62.088799 -0.707463 -0.534772 -0.462076 0.356800 0.195500 1 3 1.000000
  3 0.731200 -2.033600 61.108498 0.279797 -0.907190 -0.314197 0.623100 0.116400 1 3 1.000000
ted_facemap
  3 -0.560600 -2.619900 71.577301 -0.290897 -0.366697 0.883692 0.448300 0.961600 1 3 1.000000
  3 -1.155500 -3.831300 70.425003 -0.505000 -0.698299 0.507300 0.439400 0.866700 1 3 1.000000
  3 1.125900 -3.866900 70.657600 0.400796 -0.685794 0.607494 0.563500 0.885500 1 3 1.000000
ted_facemap
  3 -1.155500 -3.831300 70.425003 -0.505000 -0.698299 0.507300 0.439400 0.866700 1 3 1.000000
  3 -0.980700 -4.736401 68.231003 -0.227210 -0.942442 -0.245311 0.460300 0.688100 1 3 1.000000
  3 1.125900 -3.866900 70.657600 0.400796 -0.685794 0.607494 0.563500 0.885500 1 3 1.000000
ted_facemap
  3 1.125900 -3.866900 70.657600 0.400796 -0.685794 0.607494 0.563500 0.885500 1 3 1.000000
  3 -0.980700 -4.736401 68.231003 -0.227210 -0.942442 -0.245311 0.460300 0.688100 1 3 1.000000
  3 1.226600 -4.736401 68.249100 0.245292 -0.942668 -0.226292 0.552800 0.689500 1 3 1.000000
ted_facemap
  3 -0.980700 -4.736401 68.231003 -0.227210 -0.942442 -0.245311 0.460300 0.688100 1 3 1.000000
  3 0.025400 -4.803900 67.596603 -0.349919 -0.932051 0.094005 0.502900 0.636800 1 3 1.000000
  3 1.226600 -4.736401 68.249100 0.245292 -0.942668 -0.226292 0.552800 0.689500 1 3 1.000000
ted_facemap
  3 0.984300 -4.059501 67.248596 0.437893 -0.892886 0.104898 0.558100 0.612000 1 3 1.000000
  3 1.226600 -4.736401 68.249100 0.245292 -0.942668 -0.226292 0.552800 0.689500 1 3 1.000000
  3 0.025400 -4.803900 67.596603 -0.349919 -0.932051 0.094005 0.502900 0.636800 1 3 1.000000
ted_facemap
  3 0.984300 -4.059501 67.248596 0.437893 -0.892886 0.104898 0.558100 0.612000 1 3 1.000000
  3 0.025400 -4.803900 67.596603 -0.349919 -0.932051 0.094005 0.502900 0.636800 1 3 1.000000
  3 -0.025300 -5.658300 66.112503 -0.496007 -0.786011 0.369005 0.500600 0.515700 1 3 1.000000
ted_facemap
  3 0.514800 -5.524601 65.959900 0.802832 -0.587223 0.103104 0.520300 0.503500 1 3 1.000000
  3 0.984300 -4.059501 67.248596 0.437893 -0.892886 0.104898 0.558100 0.612000 1 3 1.000000
  3 -0.025300 -5.658300 66.112503 -0.496007 -0.786011 0.369005 0.500600 0.515700 1 3 1.000000
ted_facemap
  3 0.133900 -5.094201 65.479897 -0.106302 -0.894616 -0.434007 0.507500 0.465400 1 3 1.000000
  3 0.514800 -5.524601 65.959900 0.802832 -0.587223 0.103104 0.520300 0.503500 1 3 1.000000
  3 -0.025300 -5.658300 66.112503 -0.496007 -0.786011 0.369005 0.500600 0.515700 1 3 1.000000
ted_facemap
  3 0.754500 -4.810300 65.467499 0.578704 -0.746406 0.328603 0.533400 0.464800 1 3 1.000000
  3 0.514800 -5.524601 65.959900 0.802832 -0.587223 0.103104 0.520300 0.503500 1 3 1.000000
  3 0.133900 -5.094201 65.479897 -0.106302 -0.894616 -0.434007 0.507500 0.465400 1 3 1.000000
ted_facemap
  3 0.754500 -4.810300 65.467499 0.578704 -0.746406 0.328603 0.533400 0.464800 1 3 1.000000
  3 0.133900 -5.094201 65.479897 -0.106302 -0.894616 -0.434007 0.507500 0.465400 1 3 1.000000
  3 1.563600 -4.498101 64.368202 0.564382 -0.807674 -0.170694 0.566600 0.384600 1 3 1.000000
ted_facemap
  3 1.756300 -3.990500 66.798599 0.575480 -0.816871 0.039299 0.590000 0.573500 1 3 1.000000
  3 0.754500 -4.810300 65.467499 0.578704 -0.746406 0.328603 0.533400 0.464800 1 3 1.000000
  3 1.563600 -4.498101 64.368202 0.564382 -0.807674 -0.170694 0.566600 0.384600 1 3 1.000000
ted_facemap
  3 2.780300 -3.100600 66.723000 0.910761 -0.401883 0.094896 0.655200 0.568600 1 3 1.000000
  3 1.756300 -3.990500 66.798599 0.575480 -0.816871 0.039299 0.590000 0.573500 1 3 1.000000
  3 1.563600 -4.498101 64.368202 0.564382 -0.807674 -0.170694 0.566600 0.384600 1 3 1.000000
ted_facemap
  3 1.756300 -3.990500 66.798599 0.575480 -0.816871 0.039299 0.590000 0.573500 1 3 1.000000
  3 2.780300 -3.100600 66.723000 0.910761 -0.401883 0.094896 0.655200 0.568600 1 3 1.000000
  3 1.655500 -4.238600 67.546700 0.372610 -0.809622 -0.453512 0.580200 0.633500 1 3 1.000000
ted_facemap
  3 2.780300 -3.100600 66.723000 0.910761 -0.401883 0.094896 0.655200 0.568600 1 3 1.000000
  3 2.104200 -4.159900 68.194901 0.726387 -0.686488 -0.033099 0.592800 0.685800 1 3 1.000000
  3 1.655500 -4.238600 67.546700 0.372610 -0.809622 -0.453512 0.580200 0.633500 1 3 1.000000
ted_facemap
  3 2.104200 -4.159900 68.194901 0.726387 -0.686488 -0.033099 0.592800 0.685800 1 3 1.000000
  3 1.226600 -4.736401 68.249100 0.245292 -0.942668 -0.226292 0.552800 0.689500 1 3 1.000000
  3 1.655500 -4.238600 67.546700 0.372610 -0.809622 -0.453512 0.580200 0.633500 1 3 1.000000
ted_facemap
  3 2.104200 -4.159900 68.194901 0.726387 -0.686488 -0.033099 0.592800 0.685800 1 3 1.000000
  3 1.125900 -3.866900 70.657600 0.400796 -0.685794 0.607494 0.563500 0.885500 1 3 1.000000
  3 1.226600 -4.736401 68.249100 0.245292 -0.942668 -0.226292 0.552800 0.689500 1 3 1.000000
ted_facemap
  3 1.125900 -3.866900 70.657600 0.400796 -0.685794 0.607494 0.563500 0.885500 1 3 1.000000
  3 2.104200 -4.159900 68.194901 0.726387 -0.686488 -0.033099 0.592800 0.685800 1 3 1.000000
  3 2.702900 -2.389000 69.544296 0.922678 -0.297893 0.244794 0.680900 0.797600 1 3 1.000000
ted_facemap
  3 1.689800 -1.208600 71.595596 0.492184 -0.171294 0.853471 0.738200 0.965100 1 3 1.000000
  3 1.125900 -3.866900 70.657600 0.400796 -0.685794 0.607494 0.563500 0.885500 1 3 1.000000
  3 2.702900 -2.389000 69.544296 0.922678 -0.297893 0.244794 0.680900 0.797600 1 3 1.000000
ted_facemap
  3 1.655500 -4.238600 67.546700 0.372610 -0.809622 -0.453512 0.580200 0.633500 1 3 1.000000
  3 1.226600 -4.736401 68.249100 0.245292 -0.942668 -0.226292 0.552800 0.689500 1 3 1.000000
  3 0.984300 -4.059501 67.248596 0.437893 -0.892886 0.104898 0.558100 0.612000 1 3 1.000000
ted_facemap
  3 0.984300 -4.059501 67.248596 0.437893 -0.892886 0.104898 0.558100 0.612000 1 3 1.000000
  3 1.756300 -3.990500 66.798599 0.575480 -0.816871 0.039299 0.590000 0.573500 1 3 1.000000
  3 1.655500 -4.238600 67.546700 0.372610 -0.809622 -0.453512 0.580200 0.633500 1 3 1.000000
ted_facemap
  3 1.756300 -3.990500 66.798599 0.575480 -0.816871 0.039299 0.590000 0.573500 1 3 1.000000
  3 0.984300 -4.059501 67.248596 0.437893 -0.892886 0.104898 0.558100 0.612000 1 3 1.000000
  3 0.754500 -4.810300 65.467499 0.578704 -0.746406 0.328603 0.533400 0.464800 1 3 1.000000
ted_facemap
  3 0.754500 -4.810300 65.467499 0.578704 -0.746406 0.328603 0.533400 0.464800 1 3 1.000000
  3 0.984300 -4.059501 67.248596 0.437893 -0.892886 0.104898 0.558100 0.612000 1 3 1.000000
  3 0.514800 -5.524601 65.959900 0.802832 -0.587223 0.103104 0.520300 0.503500 1 3 1.000000
ted_facemap
  3 1.689800 -1.208600 71.595596 0.492184 -0.171294 0.853471 0.738200 0.965100 1 3 1.000000
  3 -0.560600 -2.619900 71.577301 -0.290897 -0.366697 0.883692 0.448300 0.961600 1 3 1.000000
  3 1.125900 -3.866900 70.657600 0.400796 -0.685794 0.607494 0.563500 0.885500 1 3 1.000000
ted_facemap
  3 -0.560600 -2.619900 71.577301 -0.290897 -0.366697 0.883692 0.448300 0.961600 1 3 1.000000
  3 1.689800 -1.208600 71.595596 0.492184 -0.171294 0.853471 0.738200 0.965100 1 3 1.000000
  3 1.201300 0.870600 71.694199 0.278505 0.246304 0.928315 0.909600 0.976000 1 3 1.000000
ted_facemap
  3 1.201300 0.870600 71.694199 0.278505 0.246304 0.928315 0.909600 0.976000 1 3 1.000000
  3 1.689800 -1.208600 71.595596 0.492184 -0.171294 0.853471 0.738200 0.965100 1 3 1.000000
  3 2.518800 1.510000 70.372704 0.796082 0.364392 0.483189 0.876500 0.870100 1 3 1.000000
ted_facemap
  3 1.201300 0.870600 71.694199 0.278505 0.246304 0.928315 0.909600 0.976000 1 3 1.000000
  3 2.518800 1.510000 70.372704 0.796082 0.364392 0.483189 0.876500 0.870100 1 3 1.000000
  3 0.180100 2.207500 71.220596 0.004500 0.611071 0.791563 0.995400 0.939600 1 3 1.000000
ted_facemap
  3 1.145100 3.241800 69.082397 0.278591 0.941369 0.190294 0.957700 0.768300 1 3 1.000000
  3 0.180100 2.207500 71.220596 0.004500 0.611071 0.791563 0.995400 0.939600 1 3 1.000000
  3 2.518800 1.510000 70.372704 0.796082 0.364392 0.483189 0.876500 0.870100 1 3 1.000000
ted_facemap
  3 2.082200 2.876900 66.887802 0.586906 0.803908 -0.096301 0.922900 0.590400 1 3 1.000000
  3 1.316300 2.122900 63.838902 0.405307 0.906016 -0.121902 0.938500 0.342800 1 3 1.000000
  3 -1.173300 2.317500 64.480904 -0.218513 0.964758 -0.146609 0.996700 0.402800 1 3 1.000000
ted_facemap
  3 0.119800 2.514301 62.583401 -0.009100 0.992912 0.118501 0.999200 0.242000 1 3 1.000000
  3 -1.173300 2.317500 64.480904 -0.218513 0.964758 -0.146609 0.996700 0.402800 1 3 1.000000
  3 1.316300 2.122900 63.838902 0.405307 0.906016 -0.121902 0.938500 0.342800 1 3 1.000000
ted_facemap
  3 0.119800 2.514301 62.583401 -0.009100 0.992912 0.118501 0.999200 0.242000 1 3 1.000000
  3 1.316300 2.122900 63.838902 0.405307 0.906016 -0.121902 0.938500 0.342800 1 3 1.000000
  3 2.100000 1.614900 63.658798 0.798206 0.599905 -0.054600 0.896900 0.327600 2 3 0.918000 13 0.082000
ted_facemap
  3 2.082200 2.876900 66.887802 0.586906 0.803908 -0.096301 0.922900 0.590400 1 3 1.000000
  3 2.100000 1.614900 63.658798 0.798206 0.599905 -0.054600 0.896900 0.327600 2 3 0.918000 13 0.082000
  3 1.316300 2.122900 63.838902 0.405307 0.906016 -0.121902 0.938500 0.342800 1 3 1.000000
end
