version 1
nodes
0 "Bip01" -1
1 "Bip01 Pelvis" 0
2 "Bip01 Spine" 1
3 "Bip01 Neck" 2
4 "Bip01 L Clavicle" 3
5 "Bip01 L UpperArm" 4
6 "Bip01 L Forearm" 5
7 "Bip01 L Hand" 6
8 "Bip01 L Finger0" 7
9 "Bip01 L Finger01" 8
10 "Bip01 L Finger02" 9
11 "Bip01 L Finger1" 7
12 "Bip01 L Finger11" 11
13 "Bip01 L Finger12" 12
14 "Bip01 L Finger2" 7
15 "Bip01 L Finger21" 14
16 "Bip01 L Finger22" 15
17 "Bip01 L Finger3" 7
18 "Bip01 L Finger31" 17
19 "Bip01 L Finger32" 18
20 "Bip01 L Finger4" 7
21 "Bip01 L Finger41" 20
22 "Bip01 L Finger42" 21
23 "Bip01 R Clavicle" 3
24 "Bip01 R UpperArm" 23
25 "Bip01 R Forearm" 24
26 "Bip01 R Hand" 25
27 "Bip01 R Finger0" 26
28 "Bip01 R Finger01" 27
29 "Bip01 R Finger02" 28
30 "Bip01 R Finger1" 26
31 "Bip01 R Finger11" 30
32 "Bip01 R Finger12" 31
33 "Bip01 R Finger2" 26
34 "Bip01 R Finger21" 33
35 "Bip01 R Finger22" 34
36 "Bip01 R Finger3" 26
37 "Bip01 R Finger31" 36
38 "Bip01 R Finger32" 37
39 "Bip01 R Finger4" 26
40 "Bip01 R Finger41" 39
41 "Bip01 R Finger42" 40
42 "blender_implicit" -1
43 "root" -1
44 "pin" 43
end
skeleton
time 0
0  0.134137 21.745049 43.181469  0.000000 -0.000000 -1.570796
1  0.000000 0.000000 0.000000  -2.120306 -1.570400 0.549528
2  4.443616 -0.009606 -0.000914  -0.000004 0.000196 0.000795
3  12.111416 -0.011345 -0.000115  0.000000 -0.000000 -0.000000
4  0.000020 0.011440 1.352403  -0.000013 -1.370806 3.140810
5  6.078084 0.000012 0.000003  -0.299142 1.328973 -0.407511
6  13.446772 0.000175 -0.000010  0.004721 -0.050132 -0.564336
7  15.996995 0.000207 -0.000065  -1.683445 0.000001 0.000010
8  1.885314 0.833279 -2.177873  -1.598022 0.698135 -0.000674
9  1.506957 -0.000002 0.000010  -0.000001 -0.000004 -0.139621
10  0.798345 -0.000009 0.000001  0.000000 0.000000 -0.113448
11  3.950294 -0.539867 -2.108854  -0.000804 0.157091 -0.000126
12  1.545797 0.000003 0.000025  -0.000008 0.000001 0.471238
13  1.667394 0.000006 0.000025  -0.000009 -0.000004 0.436332
14  3.899452 -0.475367 -1.170875  -0.000795 0.000004 0.000001
15  1.528217 0.000002 0.000014  -0.000004 -0.000000 0.331613
16  1.528213 0.000002 0.000013  -0.000008 0.000002 0.479967
17  3.899461 -0.431792 0.168241  -0.000795 0.000004 0.000001
18  1.506963 0.000003 0.000013  -0.000012 -0.000005 0.427606
19  1.506968 0.000002 -0.000003  0.000010 0.000004 0.340341
20  3.915643 -0.278008 1.402625  -0.000795 0.000004 -0.000001
21  1.333083 0.000005 0.000002  -0.000003 -0.000006 0.637047
22  1.159208 0.000001 -0.000001  -0.000007 0.000009 0.218167
23  -0.000005 0.011449 -1.352403  -0.000013 1.370787 3.140785
24  6.078086 0.000006 0.000012  1.223437 -0.538368 -1.422344
25  13.446745 -0.000099 0.000019  -0.014842 0.070815 -0.789504
26  16.091061 -0.131088 0.046603  1.650976 -0.094971 -0.000123
27  1.824889 0.688475 1.999928  1.123479 -0.652284 0.521976
28  1.331012 -0.077587 0.003662  -0.407888 0.487232 -0.362878
29  0.710201 0.094129 -0.056666  -1.009953 0.407110 -0.212550
30  3.950292 -0.539869 2.108931  0.060753 0.197319 -0.183096
31  1.545800 -0.000001 0.000022  0.119098 0.125926 0.733582
32  1.667398 -0.000007 0.000020  -0.007674 -0.010838 1.184074
33  3.899456 -0.475371 1.170951  0.165449 0.250715 -0.149412
34  1.528216 -0.000004 0.000027  -0.246776 0.196853 0.852312
35  1.528215 -0.000002 0.000017  -0.222626 -0.131341 1.050466
36  3.899462 -0.431800 -0.168168  -0.119167 0.223338 0.009666
37  1.506965 -0.000004 0.000022  -0.020903 -0.042628 0.970879
38  1.506960 -0.000004 0.000029  -0.061572 -0.076358 0.979949
39  3.915642 -0.278016 -1.402547  -0.069629 0.173004 -0.092912
40  1.333084 -0.000001 0.000020  0.120177 -0.027572 1.077817
41  1.159203 -0.000001 0.000018  0.155775 0.116627 0.894180
42  -4.997641 -9.225621 57.495289  -0.047472 -0.071525 -2.554894
43  -6.442572 -9.367200 57.990128  1.540577 0.007798 -3.013860
44  -0.798351 4.500339 -1.199061  -1.570796 -0.000000 0.000000
time 1
0  0.134137 21.745049 43.181469  0.000000 -0.000000 -1.570796
1  0.000000 0.000000 0.000000  -2.120306 -1.570400 0.549528
2  4.443616 -0.009606 -0.000914  -0.000004 0.000196 0.000795
3  12.111416 -0.011345 -0.000115  0.000000 -0.000000 -0.000000
4  0.000020 0.011440 1.352403  -0.000013 -1.370806 3.140810
5  6.078084 0.000012 0.000003  -0.404353 1.316107 -0.515355
6  13.446774 0.000174 -0.000010  -0.092341 -0.153165 -0.793023
7  15.996996 0.000209 -0.000065  -1.389867 0.065798 -0.056198
8  1.885315 0.833281 -2.177869  -1.425982 0.655279 0.110996
9  1.506957 -0.000006 0.000010  -0.000019 -0.000010 -0.136933
10  0.798344 -0.000001 0.000001  -0.043032 0.060229 -0.508762
11  3.950289 -0.539867 -2.108855  -0.000271 0.159385 0.003111
12  1.545796 0.000002 0.000024  -0.167388 -0.231626 1.208111
13  1.667395 0.000005 0.000024  0.006202 -0.052725 0.729125
14  3.899452 -0.475367 -1.170874  -0.000786 0.000363 0.000003
15  1.528217 0.000003 0.000010  0.004184 -0.176039 0.860227
16  1.528214 0.000004 0.000011  -0.165971 -0.082190 0.966020
17  3.899461 -0.431790 0.168242  0.000213 0.000085 0.004125
18  1.506963 0.000000 0.000013  -0.243419 -0.227731 0.980522
19  1.506963 0.000003 -0.000002  -0.123534 -0.195671 0.679181
20  3.915643 -0.278006 1.402629  0.000962 -0.003722 0.009320
21  1.333087 0.000004 0.000004  -0.659288 -0.140994 1.131748
22  1.159207 0.000002 -0.000001  0.019655 -0.504089 0.245679
23  -0.000005 0.011449 -1.352403  -0.000013 1.370787 3.140785
24  6.078086 0.000006 0.000012  1.223437 -0.538368 -1.422344
25  13.446745 -0.000099 0.000019  -0.012358 0.070836 -0.787471
26  16.091059 -0.131090 0.046601  1.434335 -0.139510 0.002871
27  1.824892 0.688475 1.999932  1.123479 -0.652284 0.521976
28  1.331015 -0.077583 0.003674  -0.407888 0.487232 -0.362878
29  0.710204 0.094129 -0.056661  -1.009953 0.407110 -0.212550
30  3.950293 -0.539868 2.108930  0.060753 0.197319 -0.183096
31  1.545801 -0.000002 0.000011  0.119098 0.125926 0.733582
32  1.667397 -0.000007 0.000019  -0.007674 -0.010838 1.184074
33  3.899458 -0.475371 1.170953  0.165449 0.250715 -0.149412
34  1.528214 -0.000003 0.000024  -0.246776 0.196853 0.852312
35  1.528215 -0.000005 0.000017  -0.222627 -0.131341 1.050466
36  3.899464 -0.431800 -0.168163  -0.119167 0.223338 0.009666
37  1.506963 -0.000004 0.000015  -0.020902 -0.042628 0.970879
38  1.506960 -0.000005 0.000035  -0.061572 -0.076358 0.979949
39  3.915644 -0.278016 -1.402545  -0.069629 0.173004 -0.092912
40  1.333085 -0.000002 0.000019  0.120177 -0.027572 1.077817
41  1.159204 -0.000000 0.000020  0.155775 0.116627 0.894180
42  -4.997641 -9.225621 57.495289  -0.047472 -0.071525 -2.554894
43  -5.907057 -9.349704 57.681595  -1.616198 -2.931599 0.124929
44  -0.798352 4.500325 -1.199063  -1.570796 0.000000 0.000000
time 2
0  0.134137 21.745049 43.181469  0.000000 -0.000000 -1.570796
1  0.000000 0.000000 0.000000  -2.120306 -1.570400 0.549528
2  4.443616 -0.009606 -0.000914  -0.000004 0.000196 0.000795
3  12.111416 -0.011345 -0.000115  0.000000 -0.000000 -0.000000
4  0.000020 0.011440 1.352403  -0.000013 -1.370806 3.140810
5  6.078084 0.000012 0.000003  -0.634366 1.269491 -0.752528
6  13.446771 0.000179 -0.000010  -0.165468 -0.276102 -1.017650
7  15.997001 0.000208 -0.000065  -0.790907 0.234914 -0.101756
8  1.885314 0.833276 -2.177870  -1.213073 0.580810 0.297448
9  1.506955 -0.000004 0.000010  -0.000149 -0.000055 -0.129336
10  0.798345 -0.000008 0.000002  -0.272334 0.029353 -0.914669
11  3.950291 -0.539868 -2.108852  0.001408 0.165866 0.012515
12  1.545795 0.000006 0.000026  -0.530378 -0.212388 1.995777
13  1.667395 0.000005 0.000025  0.076338 -0.130464 1.025619
14  3.899452 -0.475370 -1.170874  -0.000722 0.001378 0.000017
15  1.528216 0.000004 0.000014  -0.086462 -0.330161 1.415751
16  1.528210 0.000002 0.000011  -0.351500 -0.076465 1.459977
17  3.899460 -0.431795 0.168241  0.003119 0.000295 0.015999
18  1.506965 0.000008 0.000013  -0.583763 -0.284013 1.595907
19  1.506965 -0.000000 -0.000001  -0.340352 -0.322691 1.082347
20  3.915642 -0.278011 1.402627  0.005451 -0.015036 0.037595
21  1.333085 0.000003 0.000005  -1.309167 0.055394 1.610986
22  1.159204 0.000002 -0.000001  -0.012434 -1.008161 0.344523
23  -0.000005 0.011449 -1.352403  -0.000013 1.370787 3.140785
24  6.078086 0.000006 0.000012  1.223437 -0.538368 -1.422344
25  13.446745 -0.000099 0.000019  -0.005697 0.070867 -0.781925
26  16.091059 -0.131095 0.046600  1.212358 -0.233992 0.010537
27  1.824891 0.688475 1.999931  1.123479 -0.652284 0.521976
28  1.331016 -0.077584 0.003666  -0.407888 0.487232 -0.362878
29  0.710205 0.094131 -0.056662  -1.009953 0.407110 -0.212550
30  3.950294 -0.539869 2.108933  0.060753 0.197319 -0.183096
31  1.545801 0.000001 0.000018  0.119098 0.125926 0.733582
32  1.667398 -0.000009 0.000029  -0.007674 -0.010838 1.184074
33  3.899457 -0.475372 1.170955  0.165449 0.250716 -0.149412
34  1.528215 -0.000002 0.000016  -0.246776 0.196853 0.852312
35  1.528219 -0.000001 0.000017  -0.222627 -0.131341 1.050466
36  3.899465 -0.431800 -0.168163  -0.119167 0.223338 0.009666
37  1.506965 -0.000010 0.000032  -0.020902 -0.042628 0.970879
38  1.506959 -0.000006 0.000039  -0.061572 -0.076358 0.979949
39  3.915643 -0.278015 -1.402545  -0.069629 0.173004 -0.092912
40  1.333085 0.000005 0.000021  0.120177 -0.027572 1.077817
41  1.159202 -0.000002 0.000022  0.155775 0.116627 0.894180
42  -4.997641 -9.225621 57.495289  -0.047472 -0.071525 -2.554894
43  -5.225635 -9.237165 57.172962  -1.636456 -2.703565 0.178415
44  -0.798348 4.500327 -1.199062  -1.570796 -0.000000 -0.000000
time 3
0  0.134137 21.745049 43.181469  0.000000 -0.000000 -1.570796
1  0.000000 0.000000 0.000000  -2.120306 -1.570400 0.549528
2  4.443616 -0.009606 -0.000914  -0.000004 0.000196 0.000795
3  12.111416 -0.011345 -0.000115  0.000000 -0.000000 -0.000000
4  0.000020 0.011440 1.352403  -0.000013 -1.370806 3.140810
5  6.078084 0.000012 0.000003  -0.854295 1.181226 -0.983103
6  13.446767 0.000177 -0.000010  -0.158122 -0.250494 -1.020253
7  15.996998 0.000210 -0.000065  -0.461400 0.327744 -0.081815
8  1.885314 0.833277 -2.177869  -1.135188 0.555795 0.442173
9  1.506956 -0.000005 0.000004  -0.000502 -0.000175 -0.117531
10  0.798344 -0.000007 0.000000  -0.653029 -0.271574 -0.430793
11  3.950292 -0.539867 -2.108852  0.004408 0.175926 0.027661
12  1.545794 -0.000004 0.000024  -0.404898 -0.158844 0.364534
13  1.667394 0.000005 0.000026  0.381763 -0.076151 0.608775
14  3.899453 -0.475366 -1.170872  -0.000548 0.002954 0.000056
15  1.528215 -0.000002 0.000013  -0.123133 -0.065147 0.135029
16  1.528215 -0.000000 0.000013  -0.329261 -0.092317 1.430225
17  3.899461 -0.431794 0.168244  0.007747 0.000557 0.034895
18  1.506964 0.000008 0.000013  -0.530189 -0.287575 1.465209
19  1.506968 0.000002 -0.000003  -0.320484 -0.234032 1.075519
20  3.915642 -0.278011 1.402627  0.011167 -0.034257 0.085412
21  1.333085 -0.000000 0.000006  -1.196311 -0.036199 1.496670
22  1.159201 0.000004 -0.000001  -0.210339 0.024243 0.382198
23  -0.000005 0.011449 -1.352403  -0.000013 1.370787 3.140785
24  6.078086 0.000006 0.000012  1.223437 -0.538368 -1.422344
25  13.446745 -0.000099 0.000019  0.003954 0.070846 -0.773704
26  16.091059 -0.131095 0.046600  1.211989 -0.333391 -0.003147
27  1.824891 0.688477 1.999930  1.123479 -0.652284 0.521976
28  1.331016 -0.077586 0.003659  -0.407888 0.487232 -0.362878
29  0.710204 0.094131 -0.056662  -1.009953 0.407110 -0.212550
30  3.950294 -0.539869 2.108936  0.060753 0.197319 -0.183096
31  1.545801 -0.000000 0.000021  0.119098 0.125926 0.733582
32  1.667397 -0.000007 0.000021  -0.007674 -0.010838 1.184074
33  3.899458 -0.475370 1.170953  0.165449 0.250716 -0.149412
34  1.528216 -0.000004 0.000025  -0.246776 0.196853 0.852312
35  1.528213 -0.000002 0.000020  -0.222627 -0.131341 1.050466
36  3.899464 -0.431800 -0.168163  -0.119167 0.223338 0.009666
37  1.506964 -0.000000 0.000022  -0.020903 -0.042628 0.970879
38  1.506958 -0.000005 0.000036  -0.061572 -0.076358 0.979949
39  3.915643 -0.278014 -1.402548  -0.069629 0.173004 -0.092912
40  1.333085 0.000003 0.000029  0.120177 -0.027572 1.077817
41  1.159200 -0.000002 0.000014  0.155775 0.116627 0.894180
42  -4.997641 -9.225621 57.495289  -0.047472 -0.071525 -2.554894
43  -4.836388 -9.009392 56.998882  -1.643030 -2.691384 0.280315
44  -0.798353 4.500329 -1.199062  -1.570796 -0.000000 -0.000000
time 4
0  0.134137 21.745049 43.181469  0.000000 -0.000000 -1.570796
1  0.000000 0.000000 0.000000  -2.120306 -1.570400 0.549528
2  4.443616 -0.009606 -0.000914  -0.000004 0.000196 0.000795
3  12.111416 -0.011345 -0.000115  0.000000 -0.000000 -0.000000
4  0.000020 0.011440 1.352403  -0.000013 -1.370806 3.140810
5  6.078084 0.000012 0.000003  -1.007815 1.059888 -1.149693
6  13.446773 0.000178 -0.000011  -0.139608 -0.183995 -1.025617
7  15.996999 0.000209 -0.000064  -0.494522 0.295137 -0.080772
8  1.885315 0.833284 -2.177869  -1.094625 0.557051 0.537798
9  1.506956 -0.000004 0.000009  -0.001193 -0.000400 -0.102221
10  0.798344 -0.000007 0.000006  -0.483906 -0.190644 -0.243889
11  3.950292 -0.539869 -2.108854  0.008951 0.188940 0.048158
12  1.545796 0.000002 0.000025  -0.368112 -0.052285 0.356672
13  1.667394 0.000004 0.000028  0.383296 -0.040079 0.529718
14  3.899454 -0.475364 -1.170873  -0.000209 0.004998 0.000132
15  1.528216 0.000002 0.000012  -0.119837 -0.063427 0.141505
16  1.528215 0.000003 0.000010  -0.269342 -0.130177 1.350807
17  3.899462 -0.431791 0.168239  0.013925 0.000771 0.060098
18  1.506963 -0.000000 0.000012  -0.393977 -0.267856 1.135816
19  1.506964 0.000001 -0.000001  -0.277917 -0.166861 1.042682
20  3.915643 -0.278010 1.402626  0.016098 -0.061720 0.153509
21  1.333085 0.000005 0.000007  -0.838324 -0.201510 1.134326
22  1.159210 0.000001 0.000000  -0.222789 0.038694 0.373787
23  -0.000005 0.011449 -1.352403  -0.000013 1.370787 3.140785
24  6.078086 0.000006 0.000012  1.223437 -0.538368 -1.422344
25  13.446745 -0.000099 0.000019  0.015409 0.070717 -0.763645
26  16.091061 -0.131095 0.046600  1.221771 -0.422549 -0.023474
27  1.824891 0.688483 1.999927  1.123479 -0.652284 0.521976
28  1.331016 -0.077583 0.003672  -0.407887 0.487232 -0.362878
29  0.710205 0.094131 -0.056666  -1.009953 0.407110 -0.212550
30  3.950293 -0.539862 2.108929  0.060753 0.197319 -0.183096
31  1.545801 -0.000001 0.000026  0.119098 0.125926 0.733582
32  1.667401 -0.000007 0.000018  -0.007674 -0.010838 1.184074
33  3.899456 -0.475364 1.170949  0.165449 0.250715 -0.149412
34  1.528215 -0.000003 0.000016  -0.246776 0.196853 0.852312
35  1.528217 0.000002 0.000021  -0.222626 -0.131341 1.050466
36  3.899465 -0.431792 -0.168166  -0.119167 0.223338 0.009666
37  1.506963 -0.000008 0.000025  -0.020902 -0.042628 0.970879
38  1.506961 -0.000006 0.000036  -0.061572 -0.076358 0.979950
39  3.915644 -0.278011 -1.402550  -0.069629 0.173004 -0.092912
40  1.333084 0.000002 0.000029  0.120177 -0.027572 1.077817
41  1.159202 -0.000001 0.000020  0.155775 0.116627 0.894180
42  -4.997641 -9.225621 57.495289  -0.047472 -0.071525 -2.554894
43  -4.525798 -8.768042 56.839840  -1.643306 -2.690532 0.371904
44  -0.798352 4.500332 -1.199061  -1.570796 -0.000000 0.000000
time 5
0  0.134137 21.745049 43.181469  0.000000 -0.000000 -1.570796
1  0.000000 0.000000 0.000000  -2.120306 -1.570400 0.549528
2  4.443616 -0.009606 -0.000914  -0.000004 0.000196 0.000795
3  12.111416 -0.011345 -0.000115  0.000000 -0.000000 -0.000000
4  0.000020 0.011440 1.352403  -0.000013 -1.370806 3.140810
5  6.078084 0.000012 0.000003  -1.103388 0.923251 -1.259569
6  13.446774 0.000178 -0.000009  -0.115017 -0.092337 -1.029993
7  15.996997 0.000209 -0.000065  -0.567919 0.220602 -0.073846
8  1.885314 0.833278 -2.177869  -1.075497 0.575022 0.597892
9  1.506957 -0.000004 0.000006  -0.002337 -0.000756 -0.084106
10  0.798344 -0.000007 0.000001  -0.115530 -0.146493 -0.200283
11  3.950291 -0.539866 -2.108851  0.015280 0.204254 0.073638
12  1.545794 0.000001 0.000021  -0.297676 0.019842 0.370583
13  1.667393 0.000005 0.000026  0.363712 -0.020983 0.489286
14  3.899453 -0.475370 -1.170873  0.000350 0.007417 0.000260
15  1.528214 0.000002 0.000013  -0.113241 -0.062255 0.159526
16  1.528215 -0.000002 0.000014  -0.181528 -0.174121 1.236004
17  3.899460 -0.431794 0.168242  0.021478 0.000820 0.090891
18  1.506962 0.000002 0.000013  -0.239595 -0.188111 0.737927
19  1.506966 0.000004 0.000000  -0.223457 -0.119261 0.991473
20  3.915642 -0.278008 1.402628  0.017652 -0.097499 0.242761
21  1.333085 0.000012 0.000003  -0.323618 -0.183179 0.612319
22  1.159207 -0.000002 -0.000001  -0.233905 0.049376 0.353797
23  -0.000005 0.011449 -1.352403  -0.000013 1.370787 3.140785
24  6.078086 0.000006 0.000012  1.223437 -0.538368 -1.422344
25  13.446745 -0.000099 0.000019  0.027476 0.070451 -0.752585
26  16.091059 -0.131086 0.046602  1.239410 -0.498738 -0.048749
27  1.824889 0.688475 1.999928  1.123479 -0.652284 0.521976
28  1.331011 -0.077584 0.003664  -0.407888 0.487232 -0.362878
29  0.710204 0.094131 -0.056669  -1.009953 0.407110 -0.212550
30  3.950292 -0.539871 2.108935  0.060753 0.197319 -0.183096
31  1.545802 -0.000004 0.000025  0.119098 0.125926 0.733582
32  1.667396 -0.000006 0.000015  -0.007674 -0.010838 1.184074
33  3.899456 -0.475371 1.170950  0.165449 0.250715 -0.149412
34  1.528214 -0.000005 0.000026  -0.246776 0.196853 0.852312
35  1.528212 -0.000001 0.000021  -0.222626 -0.131341 1.050466
36  3.899463 -0.431799 -0.168165  -0.119167 0.223338 0.009666
37  1.506965 -0.000008 0.000019  -0.020902 -0.042628 0.970879
38  1.506961 -0.000003 0.000042  -0.061572 -0.076358 0.979949
39  3.915643 -0.278016 -1.402547  -0.069629 0.173004 -0.092912
40  1.333084 -0.000003 0.000019  0.120177 -0.027572 1.077817
41  1.159201 -0.000002 0.000024  0.155775 0.116627 0.894180
42  -4.997641 -9.225621 57.495289  -0.047472 -0.071525 -2.554894
43  -4.293462 -8.536054 56.699726  1.503639 -0.444265 -2.691680
44  -0.798353 4.500330 -1.199062  -1.570796 -0.000000 -0.000000
time 6
0  0.134137 21.745049 43.181469  0.000000 -0.000000 -1.570796
1  0.000000 0.000000 0.000000  -2.120306 -1.570400 0.549528
2  4.443616 -0.009606 -0.000914  -0.000004 0.000196 0.000795
3  12.111416 -0.011345 -0.000115  0.000000 -0.000000 -0.000000
4  0.000020 0.011440 1.352403  -0.000013 -1.370806 3.140810
5  6.078084 0.000012 0.000003  -1.160753 0.790200 -1.331084
6  13.446771 0.000179 -0.000010  -0.088690 0.007886 -1.030621
7  15.996996 0.000212 -0.000065  -0.643858 0.139848 -0.059311
8  1.885313 0.833270 -2.177871  -1.067695 0.596148 0.631420
9  1.506957 -0.000004 0.000007  -0.004049 -0.001262 -0.063889
10  0.798345 -0.000007 -0.000003  0.077708 -0.114276 -0.183721
11  3.950291 -0.539875 -2.108854  0.023640 0.221184 0.103741
12  1.545796 -0.000002 0.000025  -0.210255 0.065085 0.398226
13  1.667396 0.000002 0.000024  0.308087 -0.013261 0.474724
14  3.899453 -0.475377 -1.170876  0.001184 0.010116 0.000454
15  1.528217 0.000003 0.000013  -0.098283 -0.061452 0.203521
16  1.528216 0.000001 0.000015  -0.077900 -0.210350 1.101641
17  3.899460 -0.431803 0.168241  0.030219 0.000587 0.126543
18  1.506963 0.000002 0.000012  -0.131631 -0.083793 0.426913
19  1.506966 -0.000002 -0.000001  -0.159275 -0.085951 0.924610
20  3.915641 -0.278017 1.402627  0.012634 -0.141032 0.354106
21  1.333085 0.000006 0.000006  0.019903 0.020343 0.258285
22  1.159206 0.000006 0.000000  -0.243855 0.056604 0.324365
23  -0.000005 0.011449 -1.352403  -0.000013 1.370787 3.140785
24  6.078086 0.000006 0.000012  1.223437 -0.538368 -1.422344
25  13.446745 -0.000099 0.000019  0.038967 0.070061 -0.741366
26  16.091061 -0.131094 0.046602  1.261536 -0.559848 -0.076126
27  1.824893 0.688480 1.999931  1.123479 -0.652284 0.521976
28  1.331015 -0.077584 0.003664  -0.407888 0.487232 -0.362878
29  0.710204 0.094131 -0.056657  -1.009953 0.407110 -0.212550
30  3.950296 -0.539863 2.108934  0.060753 0.197319 -0.183096
31  1.545800 -0.000003 0.000025  0.119098 0.125926 0.733582
32  1.667399 -0.000010 0.000021  -0.007674 -0.010838 1.184074
33  3.899461 -0.475367 1.170956  0.165449 0.250715 -0.149412
34  1.528216 -0.000003 0.000022  -0.246776 0.196853 0.852312
35  1.528213 -0.000006 0.000016  -0.222627 -0.131341 1.050466
36  3.899469 -0.431797 -0.168159  -0.119167 0.223338 0.009666
37  1.506965 -0.000006 0.000032  -0.020903 -0.042628 0.970879
38  1.506958 -0.000003 0.000029  -0.061572 -0.076358 0.979949
39  3.915647 -0.278014 -1.402544  -0.069629 0.173004 -0.092912
40  1.333084 -0.000001 0.000026  0.120177 -0.027572 1.077817
41  1.159200 0.000000 0.000014  0.155775 0.116627 0.894180
42  -4.997641 -9.225621 57.495289  -0.047472 -0.071525 -2.554894
43  -4.132982 -8.334965 56.577324  1.512504 -0.433289 -2.629248
44  -0.798351 4.500333 -1.199063  -1.570796 0.000000 0.000000
time 7
0  0.134137 21.745049 43.181469  0.000000 -0.000000 -1.570796
1  0.000000 0.000000 0.000000  -2.120306 -1.570400 0.549528
2  4.443616 -0.009606 -0.000914  -0.000004 0.000196 0.000795
3  12.111416 -0.011345 -0.000115  0.000000 -0.000000 -0.000000
4  0.000020 0.011440 1.352403  -0.000013 -1.370806 3.140810
5  6.078084 0.000012 0.000003  -1.194069 0.677860 -1.376781
6  13.446766 0.000181 -0.000010  -0.064376 0.099546 -1.026289
7  15.997000 0.000206 -0.000064  -0.686941 0.086487 -0.044855
8  1.885314 0.833281 -2.177868  -1.063142 0.605019 0.645710
9  1.506957 -0.000005 0.000006  -0.006450 -0.001931 -0.042271
10  0.798344 -0.000007 0.000002  -0.116244 -0.084641 -0.121462
11  3.950291 -0.539862 -2.108850  0.034249 0.239003 0.138103
12  1.545798 0.000001 0.000026  -0.123701 0.089261 0.429919
13  1.667391 0.000012 0.000027  0.198926 -0.010432 0.473389
14  3.899453 -0.475361 -1.170870  0.002349 0.013003 0.000727
15  1.528214 0.000004 0.000011  -0.069826 -0.062227 0.288299
16  1.528217 -0.000001 0.000010  0.026549 -0.231213 0.965386
17  3.899459 -0.431785 0.168247  0.039951 -0.000040 0.166301
18  1.506964 0.000006 0.000016  -0.069316 -0.031935 0.305917
19  1.506964 0.000008 -0.000003  -0.087268 -0.062112 0.844750
20  3.915641 -0.278005 1.402632  -0.002606 -0.190636 0.488376
21  1.333083 0.000001 0.000003  0.114053 0.170055 0.149725
22  1.159206 0.000001 0.000000  -0.252681 0.060746 0.287610
23  -0.000005 0.011449 -1.352403  -0.000013 1.370787 3.140785
24  6.078086 0.000006 0.000012  1.223437 -0.538368 -1.422344
25  13.446745 -0.000099 0.000019  0.048691 0.069606 -0.730824
26  16.091061 -0.131101 0.046601  1.283720 -0.604446 -0.101626
27  1.824891 0.688474 1.999934  1.123479 -0.652284 0.521976
28  1.331014 -0.077582 0.003658  -0.407888 0.487232 -0.362878
29  0.710204 0.094132 -0.056667  -1.009953 0.407110 -0.212550
30  3.950295 -0.539871 2.108937  0.060753 0.197319 -0.183096
31  1.545799 0.000000 0.000021  0.119098 0.125926 0.733582
32  1.667397 -0.000008 0.000018  -0.007674 -0.010838 1.184074
33  3.899459 -0.475374 1.170961  0.165449 0.250716 -0.149412
34  1.528216 -0.000005 0.000024  -0.246776 0.196853 0.852312
35  1.528216 -0.000001 0.000026  -0.222626 -0.131341 1.050466
36  3.899466 -0.431802 -0.168159  -0.119167 0.223338 0.009666
37  1.506966 -0.000009 0.000019  -0.020903 -0.042628 0.970879
38  1.506961 -0.000006 0.000038  -0.061572 -0.076358 0.979949
39  3.915645 -0.278018 -1.402542  -0.069629 0.173004 -0.092912
40  1.333084 -0.000000 0.000022  0.120177 -0.027572 1.077817
41  1.159204 -0.000003 0.000016  0.155775 0.116627 0.894180
42  -4.997641 -9.225621 57.495289  -0.047472 -0.071525 -2.554894
43  -4.033798 -8.183053 56.468533  1.521818 -0.421221 -2.583474
44  -0.798352 4.500324 -1.199062  -1.570796 0.000000 -0.000000
time 8
0  0.134137 21.745049 43.181469  0.000000 -0.000000 -1.570796
1  0.000000 0.000000 0.000000  -2.120306 -1.570400 0.549528
2  4.443616 -0.009606 -0.000914  -0.000004 0.000196 0.000795
3  12.111416 -0.011345 -0.000115  0.000000 -0.000000 -0.000000
4  0.000020 0.011440 1.352403  -0.000013 -1.370806 3.140810
5  6.078084 0.000012 0.000003  -1.211592 0.600940 -1.403103
6  13.446772 0.000180 -0.000011  -0.045876 0.165896 -1.017256
7  15.996998 0.000206 -0.000066  -0.662184 0.067812 -0.032765
8  1.885314 0.833283 -2.177869  -1.000387 0.426996 0.395333
9  1.506958 -0.000006 0.000007  -0.009656 -0.002773 -0.019952
10  0.798346 -0.000007 0.000006  -0.476916 -0.030197 -0.057082
11  3.950291 -0.539862 -2.108852  0.047278 0.256953 0.176334
12  1.545793 0.000009 0.000026  -0.057227 0.099281 0.455607
13  1.667395 0.000015 0.000026  -0.184455 0.021506 1.192042
14  3.899451 -0.475361 -1.170872  0.003899 0.015983 0.001094
15  1.528215 0.000001 0.000010  -0.052927 -0.224982 0.821355
16  1.528219 -0.000002 0.000014  0.119188 -0.230397 0.839094
17  3.899460 -0.431784 0.168245  0.050462 -0.001156 0.209382
18  1.506965 0.000000 0.000014  -0.076393 -0.182762 0.853857
19  1.506967 0.000003 -0.000000  -0.009666 -0.043523 0.755063
20  3.915641 -0.278003 1.402629  -0.026214 -0.238766 0.629694
21  1.333088 0.000006 0.000005  0.092976 0.240133 0.151341
22  1.159204 -0.000001 -0.000000  -0.260350 0.062230 0.245656
23  -0.000005 0.011449 -1.352403  -0.000013 1.370787 3.140785
24  6.078086 0.000006 0.000012  1.223437 -0.538368 -1.422344
25  13.446745 -0.000099 0.000019  0.055463 0.069183 -0.721793
26  16.091061 -0.131093 0.046601  1.300811 -0.631673 -0.120477
27  1.824889 0.688478 1.999933  1.123479 -0.652284 0.521976
28  1.331013 -0.077585 0.003669  -0.407888 0.487232 -0.362878
29  0.710204 0.094131 -0.056662  -1.009953 0.407110 -0.212550
30  3.950292 -0.539867 2.108938  0.060752 0.197319 -0.183096
31  1.545799 -0.000000 0.000018  0.119098 0.125926 0.733582
32  1.667400 -0.000009 0.000023  -0.007674 -0.010838 1.184074
33  3.899455 -0.475368 1.170955  0.165449 0.250716 -0.149412
34  1.528215 -0.000003 0.000017  -0.246776 0.196853 0.852312
35  1.528213 -0.000001 0.000026  -0.222627 -0.131341 1.050466
36  3.899462 -0.431798 -0.168161  -0.119167 0.223338 0.009666
37  1.506964 -0.000008 0.000024  -0.020903 -0.042628 0.970879
38  1.506959 -0.000001 0.000034  -0.061572 -0.076358 0.979949
39  3.915642 -0.278014 -1.402544  -0.069629 0.173004 -0.092912
40  1.333084 0.000003 0.000031  0.120177 -0.027572 1.077817
41  1.159202 -0.000004 0.000014  0.155775 0.116627 0.894180
42  -4.997641 -9.225621 57.495289  -0.047472 -0.071525 -2.554894
43  -3.983834 -8.094690 56.368271  1.528081 -0.410834 -2.554977
44  -0.798354 4.500335 -1.199062  -1.570796 -0.000000 0.000000
time 9
0  0.134137 21.745049 43.181469  0.000000 -0.000000 -1.570796
1  0.000000 0.000000 0.000000  -2.120306 -1.570400 0.549528
2  4.443616 -0.009606 -0.000914  -0.000004 0.000196 0.000795
3  12.111416 -0.011345 -0.000115  0.000000 -0.000000 -0.000000
4  0.000020 0.011440 1.352403  -0.000013 -1.370806 3.140810
5  6.078084 0.000012 0.000003  -1.217222 0.572465 -1.412071
6  13.446769 0.000178 -0.000011  -0.037611 0.191114 -1.004660
7  15.996997 0.000213 -0.000066  -0.632504 0.002950 0.009754
8  1.885318 0.833279 -2.177872  -0.912501 0.279703 0.130154
9  1.506954 -0.000003 0.000012  -0.013787 -0.003792 0.002370
10  0.798346 -0.000006 0.000004  -0.687649 0.024998 -0.042278
11  3.950295 -0.539866 -2.108854  0.062829 0.274243 0.218004
12  1.545792 -0.000004 0.000023  -0.030644 0.103438 0.466027
13  1.667393 0.000003 0.000026  -0.395047 0.229215 1.839074
14  3.899457 -0.475365 -1.170873  0.005891 0.018961 0.001571
15  1.528219 -0.000003 0.000013  -0.130063 -0.363041 1.308104
16  1.528213 -0.000002 0.000011  0.195467 -0.207811 0.725945
17  3.899464 -0.431789 0.168243  0.061527 -0.002830 0.254977
18  1.506964 0.000001 0.000014  -0.182766 -0.293238 1.409040
19  1.506970 -0.000001 -0.000001  0.070695 -0.026821 0.659470
20  3.915645 -0.278006 1.402627  -0.029310 -0.264098 0.696609
21  1.333085 0.000005 0.000005  0.069870 0.293133 0.152070
22  1.159203 -0.000001 -0.000001  -0.266808 0.061532 0.200650
23  -0.000005 0.011449 -1.352403  -0.000013 1.370787 3.140785
24  6.078086 0.000006 0.000012  1.223437 -0.538368 -1.422344
25  13.446745 -0.000099 0.000019  0.058103 0.068912 -0.715102
26  16.091057 -0.131086 0.046602  1.307577 -0.640910 -0.127768
27  1.824889 0.688479 1.999924  1.123479 -0.652284 0.521976
28  1.331015 -0.077582 0.003667  -0.407887 0.487232 -0.362878
29  0.710204 0.094132 -0.056661  -1.009953 0.407110 -0.212550
30  3.950294 -0.539868 2.108928  0.060752 0.197319 -0.183096
31  1.545802 -0.000002 0.000031  0.119098 0.125926 0.733582
32  1.667399 -0.000006 0.000014  -0.007674 -0.010838 1.184074
33  3.899458 -0.475369 1.170951  0.165449 0.250715 -0.149412
34  1.528214 -0.000002 0.000028  -0.246776 0.196853 0.852312
35  1.528219 -0.000006 0.000019  -0.222627 -0.131341 1.050466
36  3.899465 -0.431798 -0.168169  -0.119167 0.223338 0.009666
37  1.506962 -0.000005 0.000023  -0.020902 -0.042628 0.970879
38  1.506961 0.000000 0.000036  -0.061572 -0.076358 0.979950
39  3.915644 -0.278013 -1.402550  -0.069629 0.173004 -0.092912
40  1.333086 0.000002 0.000022  0.120177 -0.027572 1.077817
41  1.159205 -0.000003 0.000018  0.155775 0.116627 0.894180
42  -4.997641 -9.225621 57.495289  -0.047472 -0.071525 -2.554894
43  -3.972694 -8.080880 56.271656  1.527769 -0.404807 -2.544303
44  -0.798349 4.500327 -1.199061  -1.570796 -0.000000 -0.000000
time 10
0  0.134137 21.745049 43.181469  0.000000 -0.000000 -1.570796
1  0.000000 0.000000 0.000000  -2.120306 -1.570400 0.549528
2  4.443616 -0.009606 -0.000914  -0.000004 0.000196 0.000795
3  12.111416 -0.011345 -0.000115  0.000000 -0.000000 -0.000000
4  0.000020 0.011440 1.352403  -0.000013 -1.370806 3.140810
5  6.078084 0.000012 0.000003  -1.217222 0.572465 -1.412071
6  13.446769 0.000178 -0.000011  -0.029541 0.177191 -0.984659
7  15.996999 0.000211 -0.000065  -0.713735 -0.223304 0.080771
8  1.885313 0.833288 -2.177875  -0.942677 0.320924 0.106421
9  1.506959 -0.000006 0.000012  -0.018961 -0.004993 0.024004
10  0.798345 -0.000007 -0.000002  -0.730246 0.059466 -0.066597
11  3.950291 -0.539861 -2.108860  0.080908 0.290064 0.262620
12  1.545796 -0.000000 0.000026  -0.062802 0.107960 0.433110
13  1.667393 0.000005 0.000026  -0.394637 0.217852 1.766451
14  3.899452 -0.475361 -1.170879  0.008381 0.021844 0.002171
15  1.528214 0.000001 0.000015  -0.106266 -0.339270 1.246368
16  1.528218 0.000002 0.000009  0.253892 -0.170985 0.628604
17  3.899460 -0.431786 0.168239  0.072911 -0.005097 0.302251
18  1.506963 0.000005 0.000012  -0.165855 -0.288711 1.321451
19  1.506971 0.000002 0.000001  0.150403 -0.009816 0.562569
20  3.915642 -0.278004 1.402621  0.002721 -0.274392 0.667329
21  1.333084 0.000006 0.000005  0.046238 0.331832 0.154572
22  1.159203 -0.000001 -0.000002  -0.272019 0.059175 0.154751
23  -0.000005 0.011449 -1.352403  -0.000013 1.370787 3.140785
24  6.078086 0.000006 0.000012  1.223437 -0.538368 -1.422344
25  13.446745 -0.000099 0.000019  0.048272 0.082697 -0.710917
26  16.091061 -0.131098 0.046602  1.271165 -0.377548 -0.127657
27  1.824893 0.688475 1.999935  1.123479 -0.652284 0.521976
28  1.331013 -0.077587 0.003666  -0.407888 0.487232 -0.362878
29  0.710204 0.094133 -0.056657  -1.009953 0.407110 -0.212550
30  3.950296 -0.539869 2.108936  0.060753 0.197319 -0.183096
31  1.545799 -0.000001 0.000016  0.119098 0.125926 0.733582
32  1.667401 -0.000006 0.000018  -0.007674 -0.010838 1.184074
33  3.899460 -0.475371 1.170958  0.165449 0.250715 -0.149412
34  1.528214 -0.000004 0.000023  -0.246776 0.196853 0.852312
35  1.528216 -0.000002 0.000020  -0.222627 -0.131341 1.050466
36  3.899467 -0.431801 -0.168160  -0.119167 0.223338 0.009666
37  1.506963 -0.000006 0.000024  -0.020903 -0.042628 0.970879
38  1.506960 -0.000004 0.000039  -0.061572 -0.076358 0.979949
39  3.915646 -0.278016 -1.402543  -0.069629 0.173004 -0.092912
40  1.333085 0.000002 0.000025  0.120177 -0.027572 1.077817
41  1.159199 -0.000004 0.000014  0.155775 0.116627 0.894180
42  -4.997641 -9.225621 57.495289  -0.047472 -0.071525 -2.554894
43  -5.107717 -8.954365 56.416813  -1.573310 -2.758169 0.305327
44  -0.798351 4.500337 -1.199062  -1.570796 -0.000000 -0.000000
time 11
0  0.134137 21.745049 43.181469  0.000000 -0.000000 -1.570796
1  0.000000 0.000000 0.000000  -2.120306 -1.570400 0.549528
2  4.443616 -0.009606 -0.000914  -0.000004 0.000196 0.000795
3  12.111416 -0.011345 -0.000115  0.000000 -0.000000 -0.000000
4  0.000020 0.011440 1.352403  -0.000013 -1.370806 3.140810
5  6.078084 0.000012 0.000003  -1.217222 0.572465 -1.412071
6  13.446769 0.000178 -0.000011  -0.014140 0.140530 -0.957715
7  15.996997 0.000208 -0.000066  -0.829942 -0.384147 0.137045
8  1.885312 0.833276 -2.177873  -0.988639 0.404396 0.112775
9  1.506958 -0.000004 0.000010  -0.025296 -0.006387 0.044262
10  0.798347 -0.000007 0.000005  -0.768969 0.082533 -0.109823
11  3.950289 -0.539871 -2.108857  0.101410 0.303604 0.309609
12  1.545793 0.000005 0.000023  -0.146839 0.108487 0.347189
13  1.667394 0.000006 0.000030  -0.389402 0.187749 1.571937
14  3.899449 -0.475369 -1.170873  0.011422 0.024537 0.002909
15  1.528215 0.000000 0.000014  -0.051774 -0.270051 1.087754
16  1.528223 0.000006 0.000012  0.295397 -0.126866 0.547602
17  3.899458 -0.431792 0.168243  0.084378 -0.007955 0.350351
18  1.506964 -0.000004 0.000012  -0.122556 -0.269347 1.083256
19  1.506967 0.000003 -0.000002  0.225782 0.008308 0.469279
20  3.915639 -0.278007 1.402628  0.053545 -0.286248 0.595103
21  1.333083 0.000004 0.000006  0.023767 0.359028 0.161645
22  1.159206 0.000002 0.000001  -0.275997 0.055708 0.110124
23  -0.000005 0.011449 -1.352403  -0.000013 1.370787 3.140785
24  6.078086 0.000006 0.000012  1.223437 -0.538368 -1.422344
25  13.446745 -0.000099 0.000019  0.021817 0.118216 -0.707740
26  16.091061 -0.131092 0.046600  1.637631 0.033036 -0.189935
27  1.824891 0.688477 1.999925  1.123479 -0.652284 0.521976
28  1.331021 -0.077582 0.003664  -0.407888 0.487232 -0.362878
29  0.710204 0.094132 -0.056661  -1.009953 0.407110 -0.212550
30  3.950295 -0.539868 2.108936  0.060753 0.197319 -0.183096
31  1.545800 -0.000001 0.000018  0.119098 0.125926 0.733582
32  1.667397 -0.000006 0.000024  -0.007674 -0.010838 1.184074
33  3.899459 -0.475370 1.170952  0.165449 0.250715 -0.149412
34  1.528215 -0.000004 0.000018  -0.246776 0.196853 0.852312
35  1.528216 -0.000002 0.000027  -0.222626 -0.131341 1.050466
36  3.899465 -0.431799 -0.168168  -0.119167 0.223338 0.009666
37  1.506963 -0.000004 0.000023  -0.020903 -0.042628 0.970879
38  1.506960 -0.000007 0.000037  -0.061572 -0.076358 0.979949
39  3.915646 -0.278016 -1.402547  -0.069629 0.173004 -0.092912
40  1.333086 0.000000 0.000021  0.120177 -0.027572 1.077817
41  1.159204 -0.000002 0.000014  0.155775 0.116627 0.894180
42  -4.997641 -9.225621 57.495289  -0.047472 -0.071525 -2.554894
43  -8.113430 -9.347827 57.315346  -1.473786 3.085627 -0.027189
44  -0.798352 4.500333 -1.199062  -1.570796 0.000000 0.000000
time 12
0  0.134137 21.745049 43.181469  0.000000 -0.000000 -1.570796
1  0.000000 0.000000 0.000000  -2.120306 -1.570400 0.549528
2  4.443616 -0.009606 -0.000914  -0.000004 0.000196 0.000795
3  12.111416 -0.011345 -0.000115  0.000000 -0.000000 -0.000000
4  0.000020 0.011440 1.352403  -0.000013 -1.370806 3.140810
5  6.078084 0.000012 0.000003  -1.217222 0.572465 -1.412071
6  13.446769 0.000178 -0.000011  0.000189 0.087724 -0.931124
7  15.996997 0.000215 -0.000066  -0.869688 -0.290104 0.171015
8  1.885315 0.833281 -2.177870  -1.042203 0.514573 0.136575
9  1.506954 -0.000005 0.000010  -0.032910 -0.007991 0.062463
10  0.798346 -0.000008 -0.000007  -0.803813 0.094595 -0.168085
11  3.950291 -0.539865 -2.108852  0.124110 0.314071 0.358305
12  1.545795 0.000011 0.000026  -0.262676 0.096050 0.228770
13  1.667393 -0.000001 0.000022  -0.371868 0.147440 1.293459
14  3.899454 -0.475367 -1.170875  0.015071 0.026945 0.003799
15  1.528216 0.000004 0.000016  0.003657 -0.160206 0.874349
16  1.528215 -0.000003 0.000008  0.322392 -0.081412 0.482379
17  3.899461 -0.431793 0.168242  0.095695 -0.011361 0.398417
18  1.506963 0.000002 0.000013  -0.070702 -0.224596 0.737943
19  1.506970 0.000002 -0.000004  0.293311 0.027046 0.384382
20  3.915643 -0.278007 1.402626  0.115913 -0.292957 0.496276
21  1.333083 -0.000001 0.000005  0.004206 0.377484 0.176168
22  1.159207 0.000002 0.000001  -0.278818 0.051691 0.068915
23  -0.000005 0.011449 -1.352403  -0.000013 1.370787 3.140785
24  6.078086 0.000006 0.000012  1.223437 -0.538368 -1.422344
25  13.446745 -0.000099 0.000019  -0.016230 0.166263 -0.704115
26  16.091061 -0.131097 0.046600  1.522984 -0.052683 -0.181440
27  1.824890 0.688477 1.999925  1.123479 -0.652284 0.521976
28  1.331022 -0.077583 0.003668  -0.407888 0.487232 -0.362878
29  0.710205 0.094133 -0.056665  -1.009953 0.407110 -0.212550
30  3.950291 -0.539869 2.108926  0.060753 0.197319 -0.183096
31  1.545802 -0.000001 0.000029  0.119098 0.125926 0.733582
32  1.667398 -0.000008 0.000027  -0.007674 -0.010838 1.184074
33  3.899455 -0.475371 1.170947  0.165449 0.250715 -0.149412
34  1.528214 -0.000004 0.000027  -0.246776 0.196853 0.852312
35  1.528216 -0.000004 0.000023  -0.222627 -0.131341 1.050466
36  3.899463 -0.431800 -0.168169  -0.119167 0.223338 0.009666
37  1.506964 -0.000004 0.000022  -0.020902 -0.042628 0.970879
38  1.506960 -0.000006 0.000034  -0.061572 -0.076358 0.979949
39  3.915643 -0.278016 -1.402549  -0.069629 0.173004 -0.092912
40  1.333086 0.000001 0.000026  0.120177 -0.027572 1.077817
41  1.159201 -0.000003 0.000017  0.155775 0.116627 0.894180
42  -4.997641 -9.225621 57.495289  -0.047472 -0.071525 -2.554894
43  -8.412493 -9.372136 57.095577  -1.496031 -3.031426 -0.038905
44  -0.798350 4.500321 -1.199063  -1.570796 -0.000000 -0.000000
time 13
0  0.134137 21.745049 43.181469  0.000000 -0.000000 -1.570796
1  0.000000 0.000000 0.000000  -2.120306 -1.570400 0.549528
2  4.443616 -0.009606 -0.000914  -0.000004 0.000196 0.000795
3  12.111416 -0.011345 -0.000115  0.000000 -0.000000 -0.000000
4  0.000020 0.011440 1.352403  -0.000013 -1.370806 3.140810
5  6.078084 0.000012 0.000003  -1.217222 0.572465 -1.412071
6  13.446769 0.000178 -0.000011  0.006062 0.026011 -0.911236
7  15.996994 0.000213 -0.000065  -0.876359 -0.117932 0.215932
8  1.885314 0.833276 -2.177867  -1.094970 0.633725 0.167237
9  1.506956 -0.000005 0.000004  -0.041921 -0.009836 0.077930
10  0.798342 -0.000007 0.000007  -0.834269 0.096604 -0.237415
11  3.950291 -0.539869 -2.108849  0.148654 0.320711 0.407946
12  1.545794 0.000007 0.000021  -0.387442 0.066746 0.101162
13  1.667394 0.000007 0.000030  -0.340177 0.110062 0.983951
14  3.899453 -0.475368 -1.170870  0.019383 0.028972 0.004855
15  1.528215 0.000001 0.000016  0.035782 -0.028613 0.648278
16  1.528213 -0.000002 0.000008  0.337969 -0.039577 0.432119
17  3.899460 -0.431792 0.168249  0.106639 -0.015231 0.445590
18  1.506963 0.000006 0.000010  -0.035098 -0.157507 0.356832
19  1.506964 0.000003 -0.000004  0.349946 0.044906 0.312174
20  3.915642 -0.278007 1.402632  0.180634 -0.289993 0.388959
21  1.333085 0.000004 0.000004  -0.010663 0.389877 0.201109
22  1.159206 0.000001 0.000002  -0.280628 0.047678 0.033247
23  -0.000005 0.011449 -1.352403  -0.000013 1.370787 3.140785
24  6.078086 0.000006 0.000012  1.223437 -0.538368 -1.422344
25  13.446745 -0.000099 0.000019  -0.060739 0.217781 -0.698034
26  16.091063 -0.131093 0.046601  1.303946 -0.207166 -0.139340
27  1.824891 0.688473 1.999932  1.123479 -0.652284 0.521976
28  1.331018 -0.077583 0.003666  -0.407888 0.487232 -0.362878
29  0.710205 0.094130 -0.056662  -1.009953 0.407110 -0.212550
30  3.950294 -0.539870 2.108932  0.060753 0.197319 -0.183096
31  1.545803 -0.000002 0.000026  0.119098 0.125926 0.733582
32  1.667399 -0.000009 0.000021  -0.007674 -0.010838 1.184074
33  3.899457 -0.475371 1.170949  0.165449 0.250715 -0.149412
34  1.528216 -0.000004 0.000023  -0.246776 0.196853 0.852312
35  1.528217 0.000003 0.000017  -0.222627 -0.131341 1.050466
36  3.899465 -0.431804 -0.168165  -0.119167 0.223338 0.009666
37  1.506965 -0.000007 0.000027  -0.020902 -0.042628 0.970879
38  1.506958 -0.000002 0.000038  -0.061572 -0.076358 0.979949
39  3.915644 -0.278017 -1.402549  -0.069629 0.173004 -0.092912
40  1.333086 -0.000002 0.000025  0.120177 -0.027572 1.077817
41  1.159205 -0.000001 0.000013  0.155775 0.116626 0.894180
42  -4.997641 -9.225621 57.495289  -0.047472 -0.071525 -2.554894
43  -8.394492 -9.426480 56.391819  -1.562234 -2.745950 -0.003688
44  -0.798348 4.500335 -1.199062  -1.570796 0.000000 -0.000000
time 14
0  0.134137 21.745049 43.181469  0.000000 -0.000000 -1.570796
1  0.000000 0.000000 0.000000  -2.120306 -1.570400 0.549528
2  4.443616 -0.009606 -0.000914  -0.000004 0.000196 0.000795
3  12.111416 -0.011345 -0.000115  0.000000 -0.000000 -0.000000
4  0.000020 0.011440 1.352403  -0.000013 -1.370806 3.140810
5  6.078084 0.000012 0.000003  -1.217222 0.572465 -1.412071
6  13.446769 0.000178 -0.000011  -0.002754 -0.036935 -0.903301
7  15.997000 0.000208 -0.000065  -0.870660 -0.022583 0.227498
8  1.885314 0.833279 -2.177869  -1.139582 0.742298 0.196593
9  1.506956 -0.000005 0.000012  -0.052449 -0.011973 0.089990
10  0.798343 -0.000006 0.000003  -0.859651 0.090033 -0.313806
11  3.950290 -0.539867 -2.108853  0.174573 0.322830 0.457674
12  1.545795 0.000007 0.000021  -0.499007 0.026588 -0.013037
13  1.667392 0.000006 0.000027  -0.303264 0.086099 0.706162
14  3.899452 -0.475365 -1.170871  0.024413 0.030522 0.006088
15  1.528217 0.000003 0.000014  0.038822 0.093804 0.446826
16  1.528214 0.000002 0.000008  0.345402 -0.005488 0.396231
17  3.899459 -0.431790 0.168247  0.117007 -0.019447 0.491028
18  1.506963 0.000000 0.000009  -0.026772 -0.090709 0.023170
19  1.506968 0.000006 -0.000001  0.393177 0.059884 0.256381
20  3.915642 -0.278006 1.402631  0.237559 -0.276644 0.292122
21  1.333086 0.000007 0.000006  -0.018961 0.398740 0.239618
22  1.159206 -0.000003 -0.000004  -0.281630 0.044201 0.005211
23  -0.000005 0.011449 -1.352403  -0.000013 1.370787 3.140785
24  6.078086 0.000006 0.000012  1.223437 -0.538368 -1.422344
25  13.446745 -0.000099 0.000019  -0.106321 0.264057 -0.686288
26  16.091061 -0.131090 0.046602  1.180268 -0.285216 -0.102624
27  1.824890 0.688478 1.999931  1.123479 -0.652284 0.521976
28  1.331017 -0.077583 0.003664  -0.407888 0.487232 -0.362878
29  0.710207 0.094131 -0.056663  -1.009953 0.407110 -0.212550
30  3.950292 -0.539865 2.108935  0.060752 0.197319 -0.183096
31  1.545799 0.000001 0.000022  0.119098 0.125926 0.733582
32  1.667398 -0.000007 0.000021  -0.007674 -0.010838 1.184074
33  3.899455 -0.475366 1.170955  0.165449 0.250715 -0.149412
34  1.528216 -0.000003 0.000021  -0.246776 0.196853 0.852312
35  1.528214 0.000001 0.000017  -0.222627 -0.131341 1.050466
36  3.899463 -0.431795 -0.168165  -0.119167 0.223338 0.009666
37  1.506964 -0.000001 0.000020  -0.020902 -0.042628 0.970879
38  1.506960 -0.000004 0.000031  -0.061572 -0.076358 0.979949
39  3.915643 -0.278012 -1.402545  -0.069629 0.173004 -0.092912
40  1.333085 0.000004 0.000027  0.120177 -0.027572 1.077817
41  1.159206 -0.000002 0.000015  0.155775 0.116627 0.894180
42  -4.997641 -9.225621 57.495289  -0.047472 -0.071525 -2.554894
43  -8.836725 -9.448743 55.691406  -1.628681 -2.577263 0.014703
44  -0.798353 4.500328 -1.199063  -1.570796 0.000000 -0.000000
time 15
0  0.134137 21.745049 43.181469  0.000000 -0.000000 -1.570796
1  0.000000 0.000000 0.000000  -2.120306 -1.570400 0.549528
2  4.443616 -0.009606 -0.000914  -0.000004 0.000196 0.000795
3  12.111416 -0.011345 -0.000115  0.000000 -0.000000 -0.000000
4  0.000020 0.011440 1.352403  -0.000013 -1.370806 3.140810
5  6.078084 0.000012 0.000003  -1.217222 0.572465 -1.412071
6  13.446769 0.000178 -0.000011  -0.030200 -0.096325 -0.906729
7  15.996997 0.000206 -0.000066  -0.373090 -0.361215 -0.053636
8  1.885316 0.833287 -2.177870  -1.169982 0.820813 0.218438
9  1.506957 -0.000001 0.000013  -0.064610 -0.014480 0.097969
10  0.798345 -0.000006 0.000006  -0.879414 0.076797 -0.393327
11  3.950294 -0.539862 -2.108854  0.201309 0.319812 0.506559
12  1.545794 0.000004 0.000025  -0.580319 -0.010151 -0.096263
13  1.667393 0.000004 0.000027  -0.274406 0.075845 0.512928
14  3.899455 -0.475363 -1.170875  0.030214 0.031500 0.007508
15  1.528218 0.000003 0.000013  0.025952 0.179417 0.302817
16  1.528217 0.000000 0.000012  0.347842 0.017310 0.374529
17  3.899462 -0.431788 0.168242  0.126615 -0.023857 0.533907
18  1.506964 0.000011 0.000015  -0.033950 -0.045363 -0.202608
19  1.506966 0.000008 0.000002  0.420824 0.069964 0.220361
20  3.915646 -0.278006 1.402626  0.277567 -0.255736 0.223708
21  1.333085 0.000001 0.000005  -0.018543 0.406338 0.295199
22  1.159205 0.000003 -0.000002  -0.282059 0.041764 -0.013126
23  -0.000005 0.011449 -1.352403  -0.000013 1.370787 3.140785
24  6.078086 0.000006 0.000012  1.223437 -0.538368 -1.422344
25  13.446745 -0.000099 0.000019  -0.147361 0.296780 -0.664266
26  16.091061 -0.131092 0.046602  1.284376 -0.268658 -0.331314
27  1.824892 0.688478 1.999928  1.123479 -0.652284 0.521976
28  1.331014 -0.077584 0.003664  -0.407888 0.487232 -0.362878
29  0.710204 0.094133 -0.056656  -1.009953 0.407110 -0.212550
30  3.950295 -0.539866 2.108932  0.060753 0.197319 -0.183096
31  1.545801 0.000002 0.000019  0.119098 0.125926 0.733582
32  1.667401 -0.000004 0.000020  -0.007674 -0.010838 1.184074
33  3.899458 -0.475368 1.170953  0.165449 0.250715 -0.149412
34  1.528213 -0.000006 0.000021  -0.246776 0.196853 0.852312
35  1.528215 0.000000 0.000021  -0.222627 -0.131341 1.050466
36  3.899466 -0.431796 -0.168164  -0.119167 0.223338 0.009666
37  1.506963 -0.000001 0.000027  -0.020903 -0.042628 0.970878
38  1.506963 -0.000001 0.000037  -0.061572 -0.076358 0.979949
39  3.915645 -0.278015 -1.402547  -0.069629 0.173004 -0.092912
40  1.333089 -0.000001 0.000028  0.120177 -0.027572 1.077817
41  1.159204 -0.000001 0.000013  0.155775 0.116627 0.894180
42  -4.997641 -9.225621 57.495289  -0.047472 -0.071525 -2.554894
43  -9.329170 -8.936365 56.146751  -1.412725 -2.593573 -0.083266
44  -0.798347 4.500338 -1.199062  -1.570796 -0.000000 0.000000
time 16
0  0.134137 21.745049 43.181469  0.000000 -0.000000 -1.570796
1  0.000000 0.000000 0.000000  -2.120306 -1.570400 0.549528
2  4.443616 -0.009606 -0.000914  -0.000004 0.000196 0.000795
3  12.111416 -0.011345 -0.000115  0.000000 -0.000000 -0.000000
4  0.000020 0.011440 1.352403  -0.000013 -1.370806 3.140810
5  6.078084 0.000012 0.000003  -1.217222 0.572465 -1.412071
6  13.446769 0.000178 -0.000011  -0.074418 -0.157359 -0.907165
7  15.996997 0.000212 -0.000066  0.263611 -0.506915 -0.502993
8  1.885317 0.833279 -2.177869  -1.181143 0.850952 0.227144
9  1.506953 -0.000001 0.000007  -0.078525 -0.017467 0.101192
10  0.798344 -0.000011 -0.000001  -0.893391 0.059099 -0.472238
11  3.950292 -0.539867 -2.108852  0.228249 0.311127 0.553625
12  1.545797 0.000002 0.000026  -0.618642 -0.026147 -0.135215
13  1.667395 0.000010 0.000025  -0.263255 0.073476 0.441046
14  3.899453 -0.475369 -1.170873  0.036841 0.031806 0.009123
15  1.528218 0.000006 0.000012  0.017806 0.211046 0.247687
16  1.528215 0.000000 0.000011  0.348111 0.025600 0.367207
17  3.899461 -0.431789 0.168244  0.135306 -0.028288 0.573435
18  1.506962 0.000002 0.000013  -0.039097 -0.029349 -0.285153
19  1.506964 0.000006 -0.000001  0.430623 0.073550 0.207521
20  3.915643 -0.278007 1.402629  0.293601 -0.231437 0.199827
21  1.333086 -0.000000 0.000002  -0.006755 0.414455 0.371936
22  1.159204 0.000004 -0.000000  -0.282153 0.040848 -0.019699
23  -0.000005 0.011449 -1.352403  -0.000013 1.370787 3.140785
24  6.078086 0.000006 0.000012  1.223437 -0.538368 -1.422344
25  13.446745 -0.000099 0.000019  -0.178470 0.307719 -0.626291
26  16.091061 -0.131095 0.046602  1.485873 -0.159979 -0.568493
27  1.824891 0.688474 1.999931  1.123479 -0.652284 0.521976
28  1.331014 -0.077585 0.003670  -0.407888 0.487232 -0.362878
29  0.710204 0.094133 -0.056662  -1.009953 0.407110 -0.212550
30  3.950294 -0.539868 2.108935  0.060753 0.197319 -0.183096
31  1.545804 -0.000003 0.000019  0.119098 0.125926 0.733582
32  1.667400 -0.000005 0.000014  -0.007674 -0.010838 1.184074
33  3.899459 -0.475372 1.170957  0.165449 0.250715 -0.149412
34  1.528217 -0.000004 0.000024  -0.246776 0.196853 0.852312
35  1.528215 0.000001 0.000016  -0.222626 -0.131341 1.050466
36  3.899467 -0.431799 -0.168160  -0.119167 0.223338 0.009666
37  1.506963 -0.000005 0.000020  -0.020902 -0.042628 0.970879
38  1.506960 -0.000003 0.000035  -0.061572 -0.076358 0.979949
39  3.915644 -0.278015 -1.402545  -0.069629 0.173004 -0.092912
40  1.333086 0.000000 0.000021  0.120177 -0.027572 1.077817
41  1.159200 -0.000001 0.000024  0.155775 0.116627 0.894180
42  -4.997641 -9.225621 57.495289  -0.047472 -0.071525 -2.554894
43  -9.815482 -8.276921 56.524021  -1.210201 -2.747939 -0.136235
44  -0.798350 4.500337 -1.199063  -1.570796 0.000000 0.000000
time 17
0  0.134137 21.745049 43.181469  0.000000 -0.000000 -1.570796
1  0.000000 0.000000 0.000000  -2.120306 -1.570400 0.549528
2  4.443616 -0.009606 -0.000914  -0.000004 0.000196 0.000795
3  12.111416 -0.011345 -0.000115  0.000000 -0.000000 -0.000000
4  0.000020 0.011440 1.352403  -0.000013 -1.370806 3.140810
5  6.078084 0.000012 0.000003  -1.217222 0.572465 -1.412071
6  13.446769 0.000178 -0.000011  -0.136233 -0.223085 -0.864384
7  15.996998 0.000211 -0.000066  0.142575 -0.483131 -0.418625
8  1.885314 0.833282 -2.177871  -1.159064 0.839658 0.231989
9  1.506957 -0.000005 0.000007  -0.137948 -0.092816 -0.043884
10  0.798344 -0.000008 0.000002  -0.901913 0.039226 -0.547060
11  3.950292 -0.539861 -2.108855  0.240885 0.241043 0.588472
12  1.545796 0.000001 0.000024  -0.600922 0.023218 -0.030360
13  1.667396 0.000005 0.000026  -0.263255 0.073476 0.441046
14  3.899452 -0.475362 -1.170876  0.069377 0.014721 0.048261
15  1.528214 0.000003 0.000014  0.030442 0.186076 0.341502
16  1.528216 -0.000006 0.000010  0.348111 0.025600 0.367207
17  3.899460 -0.431787 0.168241  0.142945 -0.032550 0.608849
18  1.506962 0.000003 0.000012  -0.035532 -0.044338 -0.154805
19  1.506968 0.000001 0.000001  0.430623 0.073550 0.207521
20  3.915644 -0.278006 1.402625  0.290057 -0.204666 0.246070
21  1.333085 0.000002 0.000005  0.051856 0.423232 0.542524
22  1.159205 0.000000 -0.000001  -0.282153 0.040848 -0.019699
23  -0.000005 0.011449 -1.352403  -0.000013 1.370787 3.140785
24  6.078086 0.000006 0.000012  1.223437 -0.538368 -1.422344
25  13.446745 -0.000099 0.000019  -0.189139 0.281651 -0.535555
26  16.091059 -0.131088 0.046601  1.731256 -0.011358 -0.511475
27  1.824891 0.688475 1.999928  1.123479 -0.652284 0.521976
28  1.331015 -0.077583 0.003662  -0.407887 0.487232 -0.362878
29  0.710206 0.094132 -0.056663  -1.009953 0.407110 -0.212550
30  3.950293 -0.539868 2.108932  0.060753 0.197319 -0.183096
31  1.545803 -0.000002 0.000017  0.119098 0.125926 0.733582
32  1.667397 -0.000008 0.000020  -0.007674 -0.010838 1.184074
33  3.899458 -0.475372 1.170954  0.165449 0.250715 -0.149412
34  1.528214 -0.000004 0.000027  -0.246776 0.196853 0.852312
35  1.528215 0.000000 0.000026  -0.222627 -0.131341 1.050466
36  3.899465 -0.431800 -0.168167  -0.119167 0.223338 0.009666
37  1.506962 -0.000007 0.000019  -0.020903 -0.042628 0.970879
38  1.506958 -0.000002 0.000035  -0.061572 -0.076358 0.979949
39  3.915644 -0.278017 -1.402548  -0.069629 0.173004 -0.092912
40  1.333083 -0.000000 0.000023  0.120177 -0.027572 1.077817
41  1.159201 -0.000003 0.000012  0.155775 0.116627 0.894180
42  -4.997641 -9.225621 57.495289  -0.047472 -0.071525 -2.554894
43  -10.515671 -8.750368 55.162868  -1.339751 -3.018029 -0.093880
44  -0.798351 4.500326 -1.199060  -1.570796 0.000000 -0.000000
time 18
0  0.134137 21.745049 43.181469  0.000000 -0.000000 -1.570796
1  0.000000 0.000000 0.000000  -2.120306 -1.570400 0.549528
2  4.443616 -0.009606 -0.000914  -0.000004 0.000196 0.000795
3  12.111416 -0.011345 -0.000115  0.000000 -0.000000 -0.000000
4  0.000020 0.011440 1.352403  -0.000013 -1.370806 3.140810
5  6.078084 0.000012 0.000003  -1.217222 0.572465 -1.412071
6  13.446769 0.000178 -0.000011  -0.216586 -0.284558 -0.763745
7  15.997000 0.000215 -0.000065  -0.078642 -0.393750 -0.251911
8  1.885313 0.833282 -2.177869  -1.105268 0.811076 0.242272
9  1.506958 -0.000003 0.000007  -0.204195 -0.247611 -0.312262
10  0.798343 -0.000008 -0.000003  -0.905806 0.019351 -0.614594
11  3.950291 -0.539868 -2.108852  0.236465 0.121165 0.618154
12  1.545795 0.000004 0.000025  -0.504083 0.140014 0.285899
13  1.667397 0.000010 0.000022  -0.263255 0.073476 0.441046
14  3.899452 -0.475367 -1.170875  0.120647 -0.022023 0.153486
15  1.528215 0.000005 0.000011  0.051694 0.116220 0.584279
16  1.528218 0.000003 0.000014  0.348111 0.025600 0.367207
17  3.899460 -0.431792 0.168244  0.149419 -0.036446 0.639413
18  1.506964 0.000005 0.000013  -0.036109 -0.087018 0.208534
19  1.506968 0.000002 -0.000000  0.430623 0.073550 0.207521
20  3.915642 -0.278006 1.402628  0.280137 -0.175030 0.356643
21  1.333085 0.000007 0.000004  0.171252 0.409935 0.837247
22  1.159212 0.000006 -0.000001  -0.282153 0.040848 -0.019699
23  -0.000005 0.011449 -1.352403  -0.000013 1.370787 3.140785
24  6.078086 0.000006 0.000012  1.223437 -0.538368 -1.422344
25  13.446745 -0.000099 0.000019  -0.184623 0.218509 -0.382517
26  16.091061 -0.131096 0.046599  2.060242 0.101740 -0.298665
27  1.824891 0.688477 1.999931  1.123479 -0.652284 0.521976
28  1.331018 -0.077581 0.003666  -0.407888 0.487232 -0.362878
29  0.710204 0.094131 -0.056669  -1.009953 0.407110 -0.212550
30  3.950294 -0.539868 2.108935  0.060753 0.197319 -0.183096
31  1.545801 -0.000001 0.000022  0.119098 0.125926 0.733582
32  1.667398 -0.000011 0.000018  -0.007674 -0.010838 1.184074
33  3.899458 -0.475370 1.170954  0.165449 0.250715 -0.149412
34  1.528215 -0.000004 0.000022  -0.246776 0.196853 0.852312
35  1.528216 -0.000005 0.000018  -0.222626 -0.131341 1.050466
36  3.899467 -0.431800 -0.168164  -0.119167 0.223338 0.009666
37  1.506964 -0.000005 0.000024  -0.020902 -0.042628 0.970878
38  1.506960 -0.000005 0.000039  -0.061572 -0.076358 0.979949
39  3.915646 -0.278015 -1.402546  -0.069629 0.173004 -0.092912
40  1.333085 0.000001 0.000026  0.120177 -0.027572 1.077817
41  1.159202 -0.000003 0.000008  0.155775 0.116627 0.894180
42  -4.997641 -9.225621 57.495289  -0.047472 -0.071525 -2.554894
43  -11.015233 -9.591423 51.705360  -1.647164 2.908952 -0.123076
44  -0.798351 4.500338 -1.199061  -1.570796 -0.000000 -0.000000
time 19
0  0.134137 21.745049 43.181469  0.000000 -0.000000 -1.570796
1  0.000000 0.000000 0.000000  -2.120306 -1.570400 0.549528
2  4.443616 -0.009606 -0.000914  -0.000004 0.000196 0.000795
3  12.111416 -0.011345 -0.000115  0.000000 -0.000000 -0.000000
4  0.000020 0.011440 1.352403  -0.000013 -1.370806 3.140810
5  6.078084 0.000012 0.000003  -1.217222 0.572465 -1.412071
6  13.446769 0.000178 -0.000011  -0.307872 -0.330910 -0.630314
7  15.996997 0.000211 -0.000065  -0.201248 -0.260165 -0.111942
8  1.885313 0.833280 -2.177870  -1.038115 0.773364 0.251981
9  1.506957 -0.000004 0.000008  -0.220718 -0.334537 -0.455523
10  0.798344 -0.000006 -0.000003  -0.906287 0.001392 -0.671890
11  3.950290 -0.539865 -2.108854  0.233616 0.052170 0.666837
12  1.545791 0.000000 0.000026  -0.308842 0.235671 0.759373
13  1.667395 0.000007 0.000023  -0.263255 0.073476 0.441046
14  3.899453 -0.475366 -1.170874  0.143952 -0.051784 0.315539
15  1.528216 0.000004 0.000011  0.052449 0.017071 0.910761
16  1.528214 -0.000001 0.000011  0.348111 0.025600 0.367207
17  3.899460 -0.431794 0.168241  0.154628 -0.039782 0.664413
18  1.506960 -0.000003 0.000013  -0.063649 -0.142190 0.739120
19  1.506969 -0.000001 -0.000001  0.430623 0.073550 0.207521
20  3.915641 -0.278009 1.402627  0.269912 -0.144551 0.499219
21  1.333088 0.000001 0.000004  0.302985 0.351901 1.172632
22  1.159207 0.000001 -0.000001  -0.282153 0.040848 -0.019699
23  -0.000005 0.011449 -1.352403  -0.000013 1.370787 3.140785
24  6.078086 0.000006 0.000012  1.223437 -0.538368 -1.422344
25  13.446745 -0.000099 0.000019  -0.182222 0.134575 -0.203957
26  16.091063 -0.131093 0.046602  2.432653 0.102183 0.004449
27  1.824891 0.688474 1.999933  1.123479 -0.652284 0.521976
28  1.331015 -0.077584 0.003664  -0.407888 0.487232 -0.362878
29  0.710204 0.094130 -0.056658  -1.009953 0.407110 -0.212550
30  3.950294 -0.539871 2.108933  0.060753 0.197319 -0.183096
31  1.545801 -0.000004 0.000019  0.119098 0.125926 0.733582
32  1.667397 -0.000006 0.000027  -0.007674 -0.010838 1.184074
33  3.899458 -0.475374 1.170956  0.165449 0.250715 -0.149412
34  1.528211 0.000000 0.000023  -0.246776 0.196853 0.852312
35  1.528214 -0.000005 0.000014  -0.222627 -0.131341 1.050466
36  3.899465 -0.431804 -0.168161  -0.119167 0.223338 0.009666
37  1.506966 -0.000005 0.000028  -0.020902 -0.042628 0.970879
38  1.506958 -0.000004 0.000037  -0.061572 -0.076358 0.979949
39  3.915645 -0.278018 -1.402546  -0.069629 0.173004 -0.092912
40  1.333086 0.000001 0.000021  0.120177 -0.027572 1.077817
41  1.159200 -0.000004 0.000018  0.155775 0.116626 0.894180
42  -4.997641 -9.225621 57.495289  -0.047472 -0.071525 -2.554894
43  -10.886870 -9.595507 46.635540  0.983833 0.539746 2.759166
44  -0.798348 4.500336 -1.199062  -1.570796 0.000000 0.000000
time 20
0  0.134137 21.745049 43.181469  0.000000 -0.000000 -1.570796
1  0.000000 0.000000 0.000000  -2.120306 -1.570400 0.549528
2  4.443616 -0.009606 -0.000914  -0.000004 0.000196 0.000795
3  12.111416 -0.011345 -0.000115  0.000000 -0.000000 -0.000000
4  0.000020 0.011440 1.352403  -0.000013 -1.370806 3.140810
5  6.078084 0.000012 0.000003  -1.217222 0.572465 -1.412071
6  13.446769 0.000178 -0.000011  -0.394964 -0.356909 -0.494890
7  15.996997 0.000208 -0.000064  -0.170280 -0.164130 0.002795
8  1.885316 0.833279 -2.177870  -0.973809 0.735285 0.257918
9  1.506957 -0.000005 0.000011  -0.220718 -0.334537 -0.455523
10  0.798345 -0.000006 -0.000002  -0.904810 -0.013042 -0.716179
11  3.950292 -0.539865 -2.108853  0.238960 0.044983 0.736348
12  1.545797 0.000006 0.000024  -0.093448 0.231015 1.234549
13  1.667395 0.000005 0.000024  -0.263255 0.073476 0.441046
14  3.899454 -0.475368 -1.170875  0.135712 -0.056177 0.516199
15  1.528213 -0.000001 0.000011  0.021320 -0.077076 1.238127
16  1.528217 0.000000 0.000014  0.348111 0.025600 0.367207
17  3.899461 -0.431795 0.168240  0.158479 -0.042367 0.683149
18  1.506962 0.000004 0.000011  -0.115910 -0.175802 1.274832
19  1.506968 0.000000 -0.000001  0.430623 0.073550 0.207521
20  3.915643 -0.278008 1.402627  0.262882 -0.116992 0.640357
21  1.333082 0.000002 0.000004  0.399386 0.265718 1.460611
22  1.159205 0.000004 -0.000002  -0.282153 0.040848 -0.019699
23  -0.000005 0.011449 -1.352403  -0.000013 1.370787 3.140785
24  6.078086 0.000006 0.000012  1.223437 -0.538368 -1.422344
25  13.446745 -0.000099 0.000019  -0.189612 0.050922 -0.036198
26  16.091063 -0.131100 0.046600  2.738336 -0.007202 0.273109
27  1.824892 0.688474 1.999928  1.123479 -0.652284 0.521976
28  1.331015 -0.077583 0.003666  -0.407888 0.487232 -0.362878
29  0.710205 0.094138 -0.056659  -1.009953 0.407110 -0.212550
30  3.950292 -0.539870 2.108934  0.060753 0.197319 -0.183096
31  1.545800 -0.000001 0.000019  0.119098 0.125926 0.733582
32  1.667399 -0.000007 0.000021  -0.007674 -0.010838 1.184074
33  3.899457 -0.475371 1.170953  0.165449 0.250715 -0.149412
34  1.528216 -0.000002 0.000023  -0.246776 0.196853 0.852312
35  1.528216 -0.000004 0.000018  -0.222627 -0.131341 1.050466
36  3.899464 -0.431801 -0.168164  -0.119167 0.223338 0.009666
37  1.506963 -0.000005 0.000021  -0.020902 -0.042628 0.970879
38  1.506959 -0.000004 0.000038  -0.061572 -0.076358 0.979949
39  3.915643 -0.278016 -1.402546  -0.069629 0.173004 -0.092912
40  1.333088 0.000000 0.000023  0.120177 -0.027572 1.077817
41  1.159203 -0.000002 0.000015  0.155775 0.116626 0.894180
42  -4.997641 -9.225621 57.495289  -0.047472 -0.071525 -2.554894
43  -9.987993 -8.101488 41.661758  0.367208 0.591825 2.329378
44  -0.798351 4.500331 -1.199063  -1.570796 -0.000000 -0.000000
time 21
0  0.134137 21.745049 43.181469  0.000000 -0.000000 -1.570796
1  0.000000 0.000000 0.000000  -2.120306 -1.570400 0.549528
2  4.443616 -0.009606 -0.000914  -0.000004 0.000196 0.000795
3  12.111416 -0.011345 -0.000115  0.000000 -0.000000 -0.000000
4  0.000020 0.011440 1.352403  -0.000013 -1.370806 3.140810
5  6.078084 0.000012 0.000003  -1.217222 0.572465 -1.412071
6  13.446769 0.000178 -0.000011  -0.459228 -0.365985 -0.390928
7  15.996995 0.000207 -0.000069  -0.092348 -0.130860 0.102574
8  1.885315 0.833278 -2.177871  -0.926094 0.705913 0.260154
9  1.506956 -0.000003 0.000012  -0.220718 -0.334537 -0.455523
10  0.798345 -0.000007 0.000003  -0.902898 -0.022601 -0.744770
11  3.950293 -0.539871 -2.108856  0.243534 0.042551 0.796773
12  1.545801 0.000005 0.000024  0.041065 0.171610 1.551860
13  1.667397 0.000009 0.000023  -0.263255 0.073476 0.441046
14  3.899453 -0.475371 -1.170876  0.126617 -0.048962 0.689999
15  1.528218 0.000006 0.000013  -0.020404 -0.137082 1.482163
16  1.528210 0.000003 0.000012  0.348111 0.025600 0.367207
17  3.899461 -0.431793 0.168242  0.160873 -0.044029 0.694919
18  1.506966 0.000001 0.000014  -0.158951 -0.181077 1.645774
19  1.506963 0.000001 -0.000003  0.430623 0.073550 0.207521
20  3.915644 -0.278008 1.402626  0.259552 -0.097141 0.747348
21  1.333083 0.000008 0.000004  0.449407 0.191577 1.650670
22  1.159205 0.000001 -0.000000  -0.282153 0.040848 -0.019699
23  -0.000005 0.011449 -1.352403  -0.000013 1.370787 3.140785
24  6.078086 0.000006 0.000012  1.223437 -0.538368 -1.422344
25  13.446745 -0.000099 0.000019  -0.202197 -0.011413 0.087218
26  16.091059 -0.131093 0.046602  2.918504 -0.131378 0.438232
27  1.824894 0.688474 1.999928  1.123479 -0.652284 0.521976
28  1.331014 -0.077582 0.003662  -0.407887 0.487232 -0.362878
29  0.710201 0.094133 -0.056661  -1.009953 0.407110 -0.212550
30  3.950298 -0.539872 2.108931  0.060753 0.197319 -0.183096
31  1.545805 -0.000003 0.000021  0.119098 0.125926 0.733582
32  1.667399 -0.000009 0.000022  -0.007674 -0.010838 1.184074
33  3.899459 -0.475372 1.170952  0.165449 0.250715 -0.149412
34  1.528215 -0.000003 0.000024  -0.246776 0.196853 0.852312
35  1.528218 -0.000009 0.000020  -0.222626 -0.131341 1.050466
36  3.899467 -0.431801 -0.168163  -0.119167 0.223338 0.009666
37  1.506966 -0.000003 0.000021  -0.020902 -0.042628 0.970879
38  1.506959 -0.000001 0.000036  -0.061572 -0.076358 0.979949
39  3.915646 -0.278018 -1.402547  -0.069629 0.173004 -0.092912
40  1.333084 0.000001 0.000024  0.120177 -0.027572 1.077817
41  1.159203 -0.000000 0.000016  0.155775 0.116627 0.894180
42  -4.997641 -9.225621 57.495289  -0.047472 -0.071525 -2.554894
43  -8.926850 -6.072998 38.414192  -0.029429 0.460842 2.052348
44  -0.798350 4.500329 -1.199065  -1.570796 0.000000 0.000000
time 22
0  0.134137 21.745049 43.181469  0.000000 -0.000000 -1.570796
1  0.000000 0.000000 0.000000  -2.120306 -1.570400 0.549528
2  4.443616 -0.009606 -0.000914  -0.000004 0.000196 0.000795
3  12.111416 -0.011345 -0.000115  0.000000 -0.000000 -0.000000
4  0.000020 0.011440 1.352403  -0.000013 -1.370806 3.140810
5  6.078084 0.000012 0.000003  -1.217222 0.572465 -1.412071
6  13.446769 0.000178 -0.000011  -0.483889 -0.367136 -0.349766
7  15.997000 0.000214 -0.000065  -0.050001 -0.129084 0.144646
8  1.885318 0.833274 -2.177871  -0.907403 0.694174 0.260522
9  1.506956 -0.000005 0.000004  -0.220718 -0.334537 -0.455523
10  0.798343 -0.000008 -0.000001  -0.901979 -0.026062 -0.754933
11  3.950294 -0.539872 -2.108855  0.245517 0.042277 0.822516
12  1.545804 0.000006 0.000023  0.083613 0.140345 1.662913
13  1.667394 0.000010 0.000024  -0.263255 0.073476 0.441046
14  3.899455 -0.475373 -1.170875  0.122960 -0.043439 0.763532
15  1.528215 0.000007 0.000014  -0.040103 -0.157013 1.576372
16  1.528214 0.000005 0.000012  0.348112 0.025600 0.367207
17  3.899463 -0.431796 0.168242  0.161701 -0.044612 0.699006
18  1.506962 0.000001 0.000014  -0.174482 -0.179107 1.779035
19  1.506964 0.000004 -0.000002  0.430623 0.073550 0.207521
20  3.915646 -0.278010 1.402628  0.258667 -0.089582 0.789633
21  1.333092 0.000004 0.000004  0.464248 0.161707 1.719435
22  1.159204 0.000005 -0.000002  -0.282153 0.040848 -0.019699
23  -0.000005 0.011449 -1.352403  -0.000013 1.370787 3.140785
24  6.078086 0.000006 0.000012  1.223437 -0.538368 -1.422344
25  13.446745 -0.000099 0.000019  -0.208718 -0.035589 0.135186
26  16.091055 -0.131096 0.046601  2.977497 -0.185246 0.494509
27  1.824889 0.688475 1.999930  1.123479 -0.652284 0.521976
28  1.331014 -0.077584 0.003667  -0.407887 0.487232 -0.362878
29  0.710206 0.094136 -0.056661  -1.009953 0.407110 -0.212550
30  3.950289 -0.539867 2.108932  0.060753 0.197319 -0.183096
31  1.545801 -0.000002 0.000021  0.119098 0.125926 0.733582
32  1.667398 -0.000006 0.000020  -0.007674 -0.010838 1.184074
33  3.899454 -0.475369 1.170953  0.165449 0.250715 -0.149412
34  1.528215 -0.000004 0.000024  -0.246776 0.196853 0.852312
35  1.528216 -0.000005 0.000019  -0.222627 -0.131341 1.050466
36  3.899461 -0.431798 -0.168163  -0.119167 0.223338 0.009666
37  1.506962 -0.000005 0.000021  -0.020903 -0.042628 0.970879
38  1.506960 -0.000004 0.000035  -0.061572 -0.076358 0.979949
39  3.915643 -0.278016 -1.402547  -0.069629 0.173004 -0.092912
40  1.333084 -0.000001 0.000024  0.120177 -0.027572 1.077817
41  1.159204 -0.000004 0.000016  0.155775 0.116627 0.894180
42  -4.997641 -9.225621 57.495289  -0.047472 -0.071525 -2.554894
43  -8.450262 -5.111051 37.315620  -0.153756 0.383396 1.972866
44  -0.798351 4.500331 -1.199067  -1.570796 -0.000000 -0.000000
end
