// Created by Crowbar 0.68
version 1
nodes
  0 "Bip01" -1
  1 "Bip01 Pelvis" 0
  2 "Bip01 Spine" 1
  3 "Bip01 Neck" 2
  4 "Bip01 L Clavicle" 3
  5 "Bip01 L UpperArm" 4
  6 "Bip01 L Forearm" 5
  7 "Bip01 L Hand" 6
  8 "Bip01 L Finger0" 7
  9 "Bip01 L Finger01" 8
  10 "Bip01 L Finger02" 9
  11 "Bip01 L Finger1" 7
  12 "Bip01 L Finger11" 11
  13 "Bip01 L Finger12" 12
  14 "Bip01 L Finger2" 7
  15 "Bip01 L Finger21" 14
  16 "Bip01 L Finger22" 15
  17 "Bip01 L Finger3" 7
  18 "Bip01 L Finger31" 17
  19 "Bip01 L Finger32" 18
  20 "Bip01 L Finger4" 7
  21 "Bip01 L Finger41" 20
  22 "Bip01 L Finger42" 21
  23 "Dummy16" 7
  24 "Dummy15" 23
  25 "Bip01 R Clavicle" 3
  26 "Bip01 R UpperArm" 25
  27 "Bip01 R Forearm" 26
  28 "Bip01 R Hand" 27
  29 "Bip01 R Finger0" 28
  30 "Bip01 R Finger01" 29
  31 "Bip01 R Finger02" 30
  32 "Bip01 R Finger1" 28
  33 "Bip01 R Finger11" 32
  34 "Bip01 R Finger12" 33
  35 "Bip01 R Finger2" 28
  36 "Bip01 R Finger21" 35
  37 "Bip01 R Finger22" 36
  38 "Bip01 R Finger3" 28
  39 "Bip01 R Finger31" 38
  40 "Bip01 R Finger32" 39
  41 "Bip01 R Finger4" 28
  42 "Bip01 R Finger41" 41
  43 "Bip01 R Finger42" 42
  44 "Dummy14" 28
  45 "Dummy18" 44
end
skeleton
  time 0
    0 0.135014 8.526284 -24.816700 0.000000 0.000000 -1.570842
    1 0.000001 0.000000 0.000000 -0.000086 -1.570451 -1.570709
    2 4.443613 -0.009641 0.000006 -0.000004 -0.000001 0.000796
    3 12.111416 -0.011447 0.000000 0.000000 0.000000 0.000000
    4 0.000007 0.011445 1.352404 -0.000014 -1.370796 3.140810
    5 6.078087 0.000002 -0.000001 0.274206 1.015151 0.283224
    6 13.446752 0.000000 -0.000002 0.000000 0.000000 -1.702980
    7 15.997000 -0.000001 0.000000 -1.002786 0.000000 0.000000
    8 1.885327 0.833279 -2.177877 -1.564663 0.803225 0.045485
    9 1.506963 0.000000 0.000000 0.000000 0.000000 -0.061091
    10 0.798347 0.000000 -0.000001 0.000000 0.000000 0.314152
    11 3.950304 -0.539873 -2.108871 -0.011041 0.357426 -0.064196
    12 1.545798 0.000000 0.000001 0.000000 0.000000 0.837746
    13 1.667399 0.000002 -0.000003 0.000000 0.000000 0.532312
    14 3.899459 -0.475374 -1.170890 -0.245101 0.070050 0.305373
    15 1.528216 0.000000 0.000000 0.000000 0.000000 0.488691
    16 1.528216 -0.000002 0.000002 0.000000 0.000000 1.754022
    17 3.899459 -0.431801 0.168226 -0.132734 0.068204 -0.323656
    18 1.506963 0.000001 0.000001 0.000000 0.000000 1.204255
    19 1.506963 -0.000001 -0.000003 0.000000 0.000000 1.160623
    20 3.915633 -0.278019 1.402606 -0.181907 0.018780 -0.320480
    21 1.333081 0.000000 -0.000001 0.000000 0.000000 1.003545
    22 1.159203 -0.000006 -0.000001 0.000000 0.000000 1.605682
    23 5.024290 0.657701 -3.490760 -1.802628 -1.194217 -3.096992
    24 -1.482697 0.881217 -0.000001 0.000000 0.000000 0.000000
    25 0.000005 0.011451 -1.352403 -0.000014 1.370796 3.140783
    26 6.078086 -0.000001 0.000001 0.871778 -1.092378 -0.916788
    27 13.446748 -0.000001 0.000000 0.000000 0.000000 -0.927251
    28 15.996999 0.000002 0.000000 1.659515 0.034344 -0.659831
    29 1.885328 0.833278 2.177876 1.195118 -0.651728 0.432758
    30 1.506962 0.000000 0.000000 0.000000 0.000000 -0.139626
    31 0.798351 0.000002 0.000002 0.000000 0.000000 -0.733034
    32 3.950303 -0.539876 2.108874 -0.201314 -0.381983 -0.348015
    33 1.545796 0.000000 0.000000 0.000000 0.000000 0.593410
    34 1.667396 0.000000 -0.000002 0.000000 0.000000 0.122173
    35 3.899459 -0.475375 1.170887 0.000688 0.000407 -0.541050
    36 1.528216 0.000000 0.000002 0.000000 0.000000 1.143173
    37 1.528215 0.000000 0.000000 0.000000 0.000000 0.218185
    38 3.899460 -0.431802 -0.168223 0.000796 0.000000 0.000000
    39 1.506962 0.000000 0.000000 0.000000 0.000000 1.117007
    40 1.506962 0.000002 0.000002 0.000000 0.000000 0.872659
    41 3.915634 -0.278018 -1.402607 0.000796 0.000000 0.000000
    42 1.333086 0.000000 0.000004 0.000000 0.000000 1.518410
    43 1.159202 0.000003 -0.000006 0.000000 0.000000 0.680671
    44 6.394357 2.457028 2.877110 -0.545644 -0.056807 1.454689
    45 -2.686406 2.279087 1.265268 1.570796 0.000000 1.570796
  time 1
    0 0.135014 8.526284 -24.816700 0.000000 0.000000 -1.570842
    1 0.000001 0.000000 0.000000 -0.000086 -1.570451 -1.570709
    2 4.443613 -0.009641 0.000006 -0.000004 -0.000001 0.000796
    3 12.111416 -0.011447 0.000000 0.000000 0.000000 0.000000
    4 0.000007 0.011445 1.352404 -0.000014 -1.370796 3.140810
    5 6.078087 0.000002 -0.000001 0.184573 1.028229 0.178220
    6 13.446752 0.000000 -0.000002 0.000000 0.000000 -1.681290
    7 15.997000 -0.000001 0.000000 -1.018373 0.000000 0.000000
    8 1.885327 0.833279 -2.177877 -1.564651 0.803225 0.045485
    9 1.506963 0.000000 0.000000 0.000000 0.000000 -0.061091
    10 0.798347 0.000000 -0.000001 0.000000 0.000000 0.314152
    11 3.950304 -0.539873 -2.108871 -0.011041 0.357426 -0.064196
    12 1.545798 0.000000 0.000001 0.000000 0.000000 0.837746
    13 1.667399 0.000002 -0.000003 0.000000 0.000000 0.532312
    14 3.899459 -0.475374 -1.170890 -0.245101 0.070050 0.305373
    15 1.528216 0.000000 0.000000 0.000000 0.000000 0.488691
    16 1.528216 -0.000002 0.000002 0.000000 0.000000 1.754022
    17 3.899459 -0.431801 0.168226 -0.132734 0.068204 -0.323656
    18 1.506963 0.000001 0.000001 0.000000 0.000000 1.204255
    19 1.506963 -0.000001 -0.000003 0.000000 0.000000 1.160623
    20 3.915633 -0.278019 1.402606 -0.181907 0.018780 -0.320480
    21 1.333081 0.000000 -0.000001 0.000000 0.000000 1.003545
    22 1.159203 -0.000006 -0.000001 0.000000 0.000000 1.605682
    23 5.024290 0.657701 -3.490760 -1.802628 -1.194217 -3.096992
    24 -1.482697 0.881217 -0.000001 0.000000 0.000000 0.000000
    25 0.000005 0.011451 -1.352403 -0.000014 1.370796 3.140783
    26 6.078086 -0.000001 0.000001 0.871778 -1.092378 -0.916788
    27 13.446748 -0.000001 0.000000 0.000000 0.000000 -0.927251
    28 15.996999 0.000002 0.000000 1.659515 0.034344 -0.659831
    29 1.885328 0.833278 2.177876 1.195118 -0.651728 0.432758
    30 1.506962 0.000000 0.000000 0.000000 0.000000 -0.139626
    31 0.798351 0.000002 0.000002 0.000000 0.000000 -0.733034
    32 3.950303 -0.539876 2.108874 -0.201314 -0.381983 -0.348015
    33 1.545796 0.000000 0.000000 0.000000 0.000000 0.593410
    34 1.667396 0.000000 -0.000002 0.000000 0.000000 0.122173
    35 3.899459 -0.475375 1.170887 0.000688 0.000407 -0.541050
    36 1.528216 0.000000 0.000002 0.000000 0.000000 1.143173
    37 1.528215 0.000000 0.000000 0.000000 0.000000 0.218185
    38 3.899460 -0.431802 -0.168223 0.000796 0.000000 0.000000
    39 1.506962 0.000000 0.000000 0.000000 0.000000 1.117007
    40 1.506962 0.000002 0.000002 0.000000 0.000000 0.872659
    41 3.915634 -0.278018 -1.402607 0.000796 0.000000 0.000000
    42 1.333086 0.000000 0.000004 0.000000 0.000000 1.518410
    43 1.159202 0.000003 -0.000006 0.000000 0.000000 0.680671
    44 6.394357 2.457028 2.877110 -0.545644 -0.056807 1.454689
    45 -2.686406 2.279087 1.265268 1.570796 0.000000 1.570796
  time 2
    0 0.135014 8.526284 -24.816700 0.000000 0.000000 -1.570842
    1 0.000001 0.000000 0.000000 -0.000086 -1.570451 -1.570709
    2 4.443613 -0.009641 0.000006 -0.000004 -0.000001 0.000796
    3 12.111416 -0.011447 0.000000 0.000000 0.000000 0.000000
    4 0.000007 0.011445 1.352404 -0.000014 -1.370796 3.140810
    5 6.078087 0.000002 -0.000001 0.089019 1.036760 0.067184
    6 13.446752 0.000000 -0.000002 0.000000 0.000000 -1.659650
    7 15.997000 -0.000001 0.000000 -1.034224 0.000000 0.000000
    8 1.885327 0.833279 -2.177877 -1.564663 0.803225 0.045485
    9 1.506963 0.000000 0.000000 0.000000 0.000000 -0.061091
    10 0.798347 0.000000 -0.000001 0.000000 0.000000 0.314152
    11 3.950304 -0.539873 -2.108871 -0.011041 0.357426 -0.064196
    12 1.545798 0.000000 0.000001 0.000000 0.000000 0.837746
    13 1.667399 0.000002 -0.000003 0.000000 0.000000 0.532312
    14 3.899459 -0.475374 -1.170890 -0.245101 0.070050 0.305373
    15 1.528216 0.000000 0.000000 0.000000 0.000000 0.488691
    16 1.528216 -0.000002 0.000002 0.000000 0.000000 1.754022
    17 3.899459 -0.431801 0.168226 -0.132734 0.068204 -0.323656
    18 1.506963 0.000001 0.000001 0.000000 0.000000 1.204255
    19 1.506963 -0.000001 -0.000003 0.000000 0.000000 1.160623
    20 3.915633 -0.278019 1.402606 -0.181907 0.018780 -0.320480
    21 1.333081 0.000000 -0.000001 0.000000 0.000000 1.003545
    22 1.159203 -0.000006 -0.000001 0.000000 0.000000 1.605682
    23 5.024290 0.657701 -3.490760 -1.802628 -1.194217 -3.096992
    24 -1.482697 0.881217 -0.000001 0.000000 0.000000 0.000000
    25 0.000005 0.011451 -1.352403 -0.000014 1.370796 3.140783
    26 6.078086 -0.000001 0.000001 0.871778 -1.092378 -0.916788
    27 13.446748 -0.000001 0.000000 0.000000 0.000000 -0.927251
    28 15.996999 0.000002 0.000000 1.659515 0.034344 -0.659831
    29 1.885328 0.833278 2.177876 1.195118 -0.651728 0.432758
    30 1.506962 0.000000 0.000000 0.000000 0.000000 -0.139626
    31 0.798351 0.000002 0.000002 0.000000 0.000000 -0.733034
    32 3.950303 -0.539876 2.108874 -0.201314 -0.381983 -0.348015
    33 1.545796 0.000000 0.000000 0.000000 0.000000 0.593410
    34 1.667396 0.000000 -0.000002 0.000000 0.000000 0.122173
    35 3.899459 -0.475375 1.170887 0.000688 0.000407 -0.541050
    36 1.528216 0.000000 0.000002 0.000000 0.000000 1.143173
    37 1.528215 0.000000 0.000000 0.000000 0.000000 0.218185
    38 3.899460 -0.431802 -0.168223 0.000796 0.000000 0.000000
    39 1.506962 0.000000 0.000000 0.000000 0.000000 1.117007
    40 1.506962 0.000002 0.000002 0.000000 0.000000 0.872659
    41 3.915634 -0.278018 -1.402607 0.000796 0.000000 0.000000
    42 1.333086 0.000000 0.000004 0.000000 0.000000 1.518410
    43 1.159202 0.000003 -0.000006 0.000000 0.000000 0.680671
    44 6.394357 2.457028 2.877110 -0.545644 -0.056807 1.454689
    45 -2.686406 2.279087 1.265268 1.570796 0.000000 1.570796
  time 3
    0 0.135014 8.526284 -24.816700 0.000000 0.000000 -1.570842
    1 0.000001 0.000000 0.000000 -0.000086 -1.570451 -1.570709
    2 4.443613 -0.009641 0.000006 -0.000004 -0.000001 0.000796
    3 12.111416 -0.011447 0.000000 0.000000 0.000000 0.000000
    4 0.000007 0.011445 1.352404 -0.000014 -1.370796 3.140810
    5 6.078087 0.000002 -0.000001 -0.010536 1.040074 -0.047938
    6 13.446752 0.000000 -0.000002 0.000000 0.000000 -1.638010
    7 15.997000 -0.000001 0.000000 -1.050305 0.000000 0.000000
    8 1.885327 0.833279 -2.177877 -1.564651 0.803225 0.045485
    9 1.506963 0.000000 0.000000 0.000000 0.000000 -0.061091
    10 0.798347 0.000000 -0.000001 0.000000 0.000000 0.314152
    11 3.950304 -0.539873 -2.108871 -0.011041 0.357426 -0.064196
    12 1.545798 0.000000 0.000001 0.000000 0.000000 0.837746
    13 1.667399 0.000002 -0.000003 0.000000 0.000000 0.532312
    14 3.899459 -0.475374 -1.170890 -0.245101 0.070050 0.305373
    15 1.528216 0.000000 0.000000 0.000000 0.000000 0.488691
    16 1.528216 -0.000002 0.000002 0.000000 0.000000 1.754022
    17 3.899459 -0.431801 0.168226 -0.132734 0.068204 -0.323656
    18 1.506963 0.000001 0.000001 0.000000 0.000000 1.204255
    19 1.506963 -0.000001 -0.000003 0.000000 0.000000 1.160623
    20 3.915633 -0.278019 1.402606 -0.181907 0.018780 -0.320480
    21 1.333081 0.000000 -0.000001 0.000000 0.000000 1.003545
    22 1.159203 -0.000006 -0.000001 0.000000 0.000000 1.605682
    23 5.024290 0.657701 -3.490760 -1.802628 -1.194217 -3.096992
    24 -1.482697 0.881217 -0.000001 0.000000 0.000000 0.000000
    25 0.000005 0.011451 -1.352403 -0.000014 1.370796 3.140783
    26 6.078086 -0.000001 0.000001 0.871778 -1.092378 -0.916788
    27 13.446748 -0.000001 0.000000 0.000000 0.000000 -0.927251
    28 15.996999 0.000002 0.000000 1.659515 0.034344 -0.659831
    29 1.885328 0.833278 2.177876 1.195118 -0.651728 0.432758
    30 1.506962 0.000000 0.000000 0.000000 0.000000 -0.139626
    31 0.798351 0.000002 0.000002 0.000000 0.000000 -0.733034
    32 3.950303 -0.539876 2.108874 -0.201314 -0.381983 -0.348015
    33 1.545796 0.000000 0.000000 0.000000 0.000000 0.593410
    34 1.667396 0.000000 -0.000002 0.000000 0.000000 0.122173
    35 3.899459 -0.475375 1.170887 0.000688 0.000407 -0.541050
    36 1.528216 0.000000 0.000002 0.000000 0.000000 1.143173
    37 1.528215 0.000000 0.000000 0.000000 0.000000 0.218185
    38 3.899460 -0.431802 -0.168223 0.000796 0.000000 0.000000
    39 1.506962 0.000000 0.000000 0.000000 0.000000 1.117007
    40 1.506962 0.000002 0.000002 0.000000 0.000000 0.872659
    41 3.915634 -0.278018 -1.402607 0.000796 0.000000 0.000000
    42 1.333086 0.000000 0.000004 0.000000 0.000000 1.518410
    43 1.159202 0.000003 -0.000006 0.000000 0.000000 0.680671
    44 6.394357 2.457028 2.877110 -0.545644 -0.056807 1.454689
    45 -2.686406 2.279087 1.265268 1.570796 0.000000 1.570796
  time 4
    0 0.135014 8.526284 -24.816700 0.000000 0.000000 -1.570842
    1 0.000001 0.000000 0.000000 -0.000086 -1.570451 -1.570709
    2 4.443613 -0.009641 0.000006 -0.000004 -0.000001 0.000796
    3 12.111416 -0.011447 0.000000 0.000000 0.000000 0.000000
    4 0.000007 0.011445 1.352404 -0.000014 -1.370796 3.140810
    5 6.078087 0.000002 -0.000001 -0.111517 1.037747 -0.164681
    6 13.446752 0.000000 -0.000002 0.000000 0.000000 -1.616370
    7 15.997000 -0.000001 0.000000 -1.066519 0.000000 0.000000
    8 1.885327 0.833279 -2.177877 -1.564651 0.803225 0.045485
    9 1.506963 0.000000 0.000000 0.000000 0.000000 -0.061091
    10 0.798347 0.000000 -0.000001 0.000000 0.000000 0.314152
    11 3.950304 -0.539873 -2.108871 -0.011041 0.357426 -0.064196
    12 1.545798 0.000000 0.000001 0.000000 0.000000 0.837746
    13 1.667399 0.000002 -0.000003 0.000000 0.000000 0.532312
    14 3.899459 -0.475374 -1.170890 -0.245101 0.070050 0.305373
    15 1.528216 0.000000 0.000000 0.000000 0.000000 0.488691
    16 1.528216 -0.000002 0.000002 0.000000 0.000000 1.754022
    17 3.899459 -0.431801 0.168226 -0.132734 0.068204 -0.323656
    18 1.506963 0.000001 0.000001 0.000000 0.000000 1.204255
    19 1.506963 -0.000001 -0.000003 0.000000 0.000000 1.160623
    20 3.915633 -0.278019 1.402606 -0.181907 0.018780 -0.320480
    21 1.333081 0.000000 -0.000001 0.000000 0.000000 1.003545
    22 1.159203 -0.000006 -0.000001 0.000000 0.000000 1.605682
    23 5.024290 0.657701 -3.490760 -1.802628 -1.194217 -3.096992
    24 -1.482697 0.881217 -0.000001 0.000000 0.000000 0.000000
    25 0.000005 0.011451 -1.352403 -0.000014 1.370796 3.140783
    26 6.078086 -0.000001 0.000001 0.871778 -1.092378 -0.916788
    27 13.446748 -0.000001 0.000000 0.000000 0.000000 -0.927251
    28 15.996999 0.000002 0.000000 1.659515 0.034344 -0.659831
    29 1.885328 0.833278 2.177876 1.195118 -0.651728 0.432758
    30 1.506962 0.000000 0.000000 0.000000 0.000000 -0.139626
    31 0.798351 0.000002 0.000002 0.000000 0.000000 -0.733034
    32 3.950303 -0.539876 2.108874 -0.201314 -0.381983 -0.348015
    33 1.545796 0.000000 0.000000 0.000000 0.000000 0.593410
    34 1.667396 0.000000 -0.000002 0.000000 0.000000 0.122173
    35 3.899459 -0.475375 1.170887 0.000688 0.000407 -0.541050
    36 1.528216 0.000000 0.000002 0.000000 0.000000 1.143173
    37 1.528215 0.000000 0.000000 0.000000 0.000000 0.218185
    38 3.899460 -0.431802 -0.168223 0.000796 0.000000 0.000000
    39 1.506962 0.000000 0.000000 0.000000 0.000000 1.117007
    40 1.506962 0.000002 0.000002 0.000000 0.000000 0.872659
    41 3.915634 -0.278018 -1.402607 0.000796 0.000000 0.000000
    42 1.333086 0.000000 0.000004 0.000000 0.000000 1.518410
    43 1.159202 0.000003 -0.000006 0.000000 0.000000 0.680671
    44 6.394357 2.457028 2.877110 -0.545644 -0.056807 1.454689
    45 -2.686406 2.279087 1.265268 1.570796 0.000000 1.570796
  time 5
    0 0.135014 8.526284 -24.816700 0.000000 0.000000 -1.570842
    1 0.000001 0.000000 0.000000 -0.000086 -1.570451 -1.570709
    2 4.443613 -0.009641 0.000006 -0.000004 -0.000001 0.000796
    3 12.111416 -0.011447 0.000000 0.000000 0.000000 0.000000
    4 0.000007 0.011445 1.352404 -0.000014 -1.370796 3.140810
    5 6.078087 0.000002 -0.000001 -0.211237 1.029534 -0.280192
    6 13.446752 0.000000 -0.000002 0.000000 0.000000 -1.594729
    7 15.997000 -0.000001 0.000000 -1.082864 0.000000 0.000000
    8 1.885327 0.833279 -2.177877 -1.564663 0.803225 0.045485
    9 1.506963 0.000000 0.000000 0.000000 0.000000 -0.061091
    10 0.798347 0.000000 -0.000001 0.000000 0.000000 0.314152
    11 3.950304 -0.539873 -2.108871 -0.011041 0.357426 -0.064196
    12 1.545798 0.000000 0.000001 0.000000 0.000000 0.837746
    13 1.667399 0.000002 -0.000003 0.000000 0.000000 0.532312
    14 3.899459 -0.475374 -1.170890 -0.245101 0.070050 0.305373
    15 1.528216 0.000000 0.000000 0.000000 0.000000 0.488691
    16 1.528216 -0.000002 0.000002 0.000000 0.000000 1.754022
    17 3.899459 -0.431801 0.168226 -0.132734 0.068204 -0.323656
    18 1.506963 0.000001 0.000001 0.000000 0.000000 1.204255
    19 1.506963 -0.000001 -0.000003 0.000000 0.000000 1.160623
    20 3.915633 -0.278019 1.402606 -0.181907 0.018780 -0.320480
    21 1.333081 0.000000 -0.000001 0.000000 0.000000 1.003545
    22 1.159203 -0.000006 -0.000001 0.000000 0.000000 1.605682
    23 5.024290 0.657701 -3.490760 -1.802628 -1.194217 -3.096992
    24 -1.482697 0.881217 -0.000001 0.000000 0.000000 0.000000
    25 0.000005 0.011451 -1.352403 -0.000014 1.370796 3.140783
    26 6.078086 -0.000001 0.000001 0.871778 -1.092378 -0.916788
    27 13.446748 -0.000001 0.000000 0.000000 0.000000 -0.927251
    28 15.996999 0.000002 0.000000 1.659515 0.034344 -0.659831
    29 1.885328 0.833278 2.177876 1.195118 -0.651728 0.432758
    30 1.506962 0.000000 0.000000 0.000000 0.000000 -0.139626
    31 0.798351 0.000002 0.000002 0.000000 0.000000 -0.733034
    32 3.950303 -0.539876 2.108874 -0.201314 -0.381983 -0.348015
    33 1.545796 0.000000 0.000000 0.000000 0.000000 0.593410
    34 1.667396 0.000000 -0.000002 0.000000 0.000000 0.122173
    35 3.899459 -0.475375 1.170887 0.000688 0.000407 -0.541050
    36 1.528216 0.000000 0.000002 0.000000 0.000000 1.143173
    37 1.528215 0.000000 0.000000 0.000000 0.000000 0.218185
    38 3.899460 -0.431802 -0.168223 0.000796 0.000000 0.000000
    39 1.506962 0.000000 0.000000 0.000000 0.000000 1.117007
    40 1.506962 0.000002 0.000002 0.000000 0.000000 0.872659
    41 3.915634 -0.278018 -1.402607 0.000796 0.000000 0.000000
    42 1.333086 0.000000 0.000004 0.000000 0.000000 1.518410
    43 1.159202 0.000003 -0.000006 0.000000 0.000000 0.680671
    44 6.394357 2.457028 2.877110 -0.545644 -0.056807 1.454689
    45 -2.686406 2.279087 1.265268 1.570796 0.000000 1.570796
  time 6
    0 0.135014 8.526284 -24.816700 0.000000 0.000000 -1.570842
    1 0.000001 0.000000 0.000000 -0.000086 -1.570451 -1.570709
    2 4.443613 -0.009641 0.000006 -0.000004 -0.000001 0.000796
    3 12.111416 -0.011447 0.000000 0.000000 0.000000 0.000000
    4 0.000007 0.011445 1.352404 -0.000014 -1.370796 3.140810
    5 6.078087 0.000002 -0.000001 -0.307065 1.015610 -0.391942
    6 13.446752 0.000000 -0.000002 0.000000 0.000000 -1.573089
    7 15.997000 -0.000001 0.000000 -1.099209 0.000000 0.000000
    8 1.885327 0.833279 -2.177877 -1.564651 0.803225 0.045485
    9 1.506963 0.000000 0.000000 0.000000 0.000000 -0.061091
    10 0.798347 0.000000 -0.000001 0.000000 0.000000 0.314152
    11 3.950304 -0.539873 -2.108871 -0.011041 0.357426 -0.064196
    12 1.545798 0.000000 0.000001 0.000000 0.000000 0.837746
    13 1.667399 0.000002 -0.000003 0.000000 0.000000 0.532312
    14 3.899459 -0.475374 -1.170890 -0.245101 0.070050 0.305373
    15 1.528216 0.000000 0.000000 0.000000 0.000000 0.488691
    16 1.528216 -0.000002 0.000002 0.000000 0.000000 1.754022
    17 3.899459 -0.431801 0.168226 -0.132734 0.068204 -0.323656
    18 1.506963 0.000001 0.000001 0.000000 0.000000 1.204255
    19 1.506963 -0.000001 -0.000003 0.000000 0.000000 1.160623
    20 3.915633 -0.278019 1.402606 -0.181907 0.018780 -0.320480
    21 1.333081 0.000000 -0.000001 0.000000 0.000000 1.003545
    22 1.159203 -0.000006 -0.000001 0.000000 0.000000 1.605682
    23 5.024290 0.657701 -3.490760 -1.802628 -1.194217 -3.096992
    24 -1.482697 0.881217 -0.000001 0.000000 0.000000 0.000000
    25 0.000005 0.011451 -1.352403 -0.000014 1.370796 3.140783
    26 6.078086 -0.000001 0.000001 0.871778 -1.092378 -0.916788
    27 13.446748 -0.000001 0.000000 0.000000 0.000000 -0.927251
    28 15.996999 0.000002 0.000000 1.659515 0.034344 -0.659831
    29 1.885328 0.833278 2.177876 1.195118 -0.651728 0.432758
    30 1.506962 0.000000 0.000000 0.000000 0.000000 -0.139626
    31 0.798351 0.000002 0.000002 0.000000 0.000000 -0.733034
    32 3.950303 -0.539876 2.108874 -0.201314 -0.381983 -0.348015
    33 1.545796 0.000000 0.000000 0.000000 0.000000 0.593410
    34 1.667396 0.000000 -0.000002 0.000000 0.000000 0.122173
    35 3.899459 -0.475375 1.170887 0.000688 0.000407 -0.541050
    36 1.528216 0.000000 0.000002 0.000000 0.000000 1.143173
    37 1.528215 0.000000 0.000000 0.000000 0.000000 0.218185
    38 3.899460 -0.431802 -0.168223 0.000796 0.000000 0.000000
    39 1.506962 0.000000 0.000000 0.000000 0.000000 1.117007
    40 1.506962 0.000002 0.000002 0.000000 0.000000 0.872659
    41 3.915634 -0.278018 -1.402607 0.000796 0.000000 0.000000
    42 1.333086 0.000000 0.000004 0.000000 0.000000 1.518410
    43 1.159202 0.000003 -0.000006 0.000000 0.000000 0.680671
    44 6.394357 2.457028 2.877110 -0.545644 -0.056807 1.454689
    45 -2.686406 2.279087 1.265268 1.570796 0.000000 1.570796
  time 7
    0 0.135014 8.526284 -24.816700 0.000000 0.000000 -1.570842
    1 0.000001 0.000000 0.000000 -0.000086 -1.570451 -1.570709
    2 4.443613 -0.009641 0.000006 -0.000004 -0.000001 0.000796
    3 12.111416 -0.011447 0.000000 0.000000 0.000000 0.000000
    4 0.000007 0.011445 1.352404 -0.000014 -1.370796 3.140810
    5 6.078087 0.000002 -0.000001 -0.396807 0.996328 -0.497659
    6 13.446752 0.000000 -0.000002 0.000000 0.000000 -1.551449
    7 15.997000 -0.000001 0.000000 -1.115554 0.000000 0.000000
    8 1.885327 0.833279 -2.177877 -1.564663 0.803225 0.045485
    9 1.506963 0.000000 0.000000 0.000000 0.000000 -0.061091
    10 0.798347 0.000000 -0.000001 0.000000 0.000000 0.314152
    11 3.950304 -0.539873 -2.108871 -0.011041 0.357426 -0.064196
    12 1.545798 0.000000 0.000001 0.000000 0.000000 0.837746
    13 1.667399 0.000002 -0.000003 0.000000 0.000000 0.532312
    14 3.899459 -0.475374 -1.170890 -0.245101 0.070050 0.305373
    15 1.528216 0.000000 0.000000 0.000000 0.000000 0.488691
    16 1.528216 -0.000002 0.000002 0.000000 0.000000 1.754022
    17 3.899459 -0.431801 0.168226 -0.132734 0.068204 -0.323656
    18 1.506963 0.000001 0.000001 0.000000 0.000000 1.204255
    19 1.506963 -0.000001 -0.000003 0.000000 0.000000 1.160623
    20 3.915633 -0.278019 1.402606 -0.181907 0.018780 -0.320480
    21 1.333081 0.000000 -0.000001 0.000000 0.000000 1.003545
    22 1.159203 -0.000006 -0.000001 0.000000 0.000000 1.605682
    23 5.024290 0.657701 -3.490760 -1.802628 -1.194217 -3.096992
    24 -1.482697 0.881217 -0.000001 0.000000 0.000000 0.000000
    25 0.000005 0.011451 -1.352403 -0.000014 1.370796 3.140783
    26 6.078086 -0.000001 0.000001 0.871778 -1.092378 -0.916788
    27 13.446748 -0.000001 0.000000 0.000000 0.000000 -0.927251
    28 15.996999 0.000002 0.000000 1.659515 0.034344 -0.659831
    29 1.885328 0.833278 2.177876 1.195118 -0.651728 0.432758
    30 1.506962 0.000000 0.000000 0.000000 0.000000 -0.139626
    31 0.798351 0.000002 0.000002 0.000000 0.000000 -0.733034
    32 3.950303 -0.539876 2.108874 -0.201314 -0.381983 -0.348015
    33 1.545796 0.000000 0.000000 0.000000 0.000000 0.593410
    34 1.667396 0.000000 -0.000002 0.000000 0.000000 0.122173
    35 3.899459 -0.475375 1.170887 0.000688 0.000407 -0.541050
    36 1.528216 0.000000 0.000002 0.000000 0.000000 1.143173
    37 1.528215 0.000000 0.000000 0.000000 0.000000 0.218185
    38 3.899460 -0.431802 -0.168223 0.000796 0.000000 0.000000
    39 1.506962 0.000000 0.000000 0.000000 0.000000 1.117007
    40 1.506962 0.000002 0.000002 0.000000 0.000000 0.872659
    41 3.915634 -0.278018 -1.402607 0.000796 0.000000 0.000000
    42 1.333086 0.000000 0.000004 0.000000 0.000000 1.518410
    43 1.159202 0.000003 -0.000006 0.000000 0.000000 0.680671
    44 6.394357 2.457028 2.877110 -0.545644 -0.056807 1.454689
    45 -2.686406 2.279087 1.265268 1.570796 0.000000 1.570796
  time 8
    0 0.135014 8.526284 -24.816700 0.000000 0.000000 -1.570842
    1 0.000001 0.000000 0.000000 -0.000086 -1.570451 -1.570709
    2 4.443613 -0.009641 0.000006 -0.000004 -0.000001 0.000796
    3 12.111416 -0.011447 0.000000 0.000000 0.000000 0.000000
    4 0.000007 0.011445 1.352404 -0.000014 -1.370796 3.140810
    5 6.078087 0.000002 -0.000001 -0.479039 0.972322 -0.595918
    6 13.446752 0.000000 -0.000002 0.000000 0.000000 -1.529809
    7 15.997000 -0.000001 0.000000 -1.131833 0.000000 0.000000
    8 1.885327 0.833279 -2.177877 -1.564651 0.803225 0.045485
    9 1.506963 0.000000 0.000000 0.000000 0.000000 -0.061091
    10 0.798347 0.000000 -0.000001 0.000000 0.000000 0.314152
    11 3.950304 -0.539873 -2.108871 -0.011041 0.357426 -0.064196
    12 1.545798 0.000000 0.000001 0.000000 0.000000 0.837746
    13 1.667399 0.000002 -0.000003 0.000000 0.000000 0.532312
    14 3.899459 -0.475374 -1.170890 -0.245101 0.070050 0.305373
    15 1.528216 0.000000 0.000000 0.000000 0.000000 0.488691
    16 1.528216 -0.000002 0.000002 0.000000 0.000000 1.754022
    17 3.899459 -0.431801 0.168226 -0.132734 0.068204 -0.323656
    18 1.506963 0.000001 0.000001 0.000000 0.000000 1.204255
    19 1.506963 -0.000001 -0.000003 0.000000 0.000000 1.160623
    20 3.915633 -0.278019 1.402606 -0.181907 0.018780 -0.320480
    21 1.333081 0.000000 -0.000001 0.000000 0.000000 1.003545
    22 1.159203 -0.000006 -0.000001 0.000000 0.000000 1.605682
    23 5.024290 0.657701 -3.490760 -1.802628 -1.194217 -3.096992
    24 -1.482697 0.881217 -0.000001 0.000000 0.000000 0.000000
    25 0.000005 0.011451 -1.352403 -0.000014 1.370796 3.140783
    26 6.078086 -0.000001 0.000001 0.871778 -1.092378 -0.916788
    27 13.446748 -0.000001 0.000000 0.000000 0.000000 -0.927251
    28 15.996999 0.000002 0.000000 1.659515 0.034344 -0.659831
    29 1.885328 0.833278 2.177876 1.195118 -0.651728 0.432758
    30 1.506962 0.000000 0.000000 0.000000 0.000000 -0.139626
    31 0.798351 0.000002 0.000002 0.000000 0.000000 -0.733034
    32 3.950303 -0.539876 2.108874 -0.201314 -0.381983 -0.348015
    33 1.545796 0.000000 0.000000 0.000000 0.000000 0.593410
    34 1.667396 0.000000 -0.000002 0.000000 0.000000 0.122173
    35 3.899459 -0.475375 1.170887 0.000688 0.000407 -0.541050
    36 1.528216 0.000000 0.000002 0.000000 0.000000 1.143173
    37 1.528215 0.000000 0.000000 0.000000 0.000000 0.218185
    38 3.899460 -0.431802 -0.168223 0.000796 0.000000 0.000000
    39 1.506962 0.000000 0.000000 0.000000 0.000000 1.117007
    40 1.506962 0.000002 0.000002 0.000000 0.000000 0.872659
    41 3.915634 -0.278018 -1.402607 0.000796 0.000000 0.000000
    42 1.333086 0.000000 0.000004 0.000000 0.000000 1.518410
    43 1.159202 0.000003 -0.000006 0.000000 0.000000 0.680671
    44 6.394357 2.457028 2.877110 -0.545644 -0.056807 1.454689
    45 -2.686406 2.279087 1.265268 1.570796 0.000000 1.570796
  time 9
    0 0.135014 8.526284 -24.816700 0.000000 0.000000 -1.570842
    1 0.000001 0.000000 0.000000 -0.000086 -1.570451 -1.570709
    2 4.443613 -0.009641 0.000006 -0.000004 -0.000001 0.000796
    3 12.111416 -0.011447 0.000000 0.000000 0.000000 0.000000
    4 0.000007 0.011445 1.352404 -0.000014 -1.370796 3.140810
    5 6.078087 0.000002 -0.000001 -0.552884 0.944298 -0.685811
    6 13.446752 0.000000 -0.000002 0.000000 0.000000 -1.508169
    7 15.997000 -0.000001 0.000000 -1.147980 0.000000 0.000000
    8 1.885327 0.833279 -2.177877 -1.564663 0.803225 0.045485
    9 1.506963 0.000000 0.000000 0.000000 0.000000 -0.061091
    10 0.798347 0.000000 -0.000001 0.000000 0.000000 0.314152
    11 3.950304 -0.539873 -2.108871 -0.011041 0.357426 -0.064196
    12 1.545798 0.000000 0.000001 0.000000 0.000000 0.837746
    13 1.667399 0.000002 -0.000003 0.000000 0.000000 0.532312
    14 3.899459 -0.475374 -1.170890 -0.245101 0.070050 0.305373
    15 1.528216 0.000000 0.000000 0.000000 0.000000 0.488691
    16 1.528216 -0.000002 0.000002 0.000000 0.000000 1.754022
    17 3.899459 -0.431801 0.168226 -0.132734 0.068204 -0.323656
    18 1.506963 0.000001 0.000001 0.000000 0.000000 1.204255
    19 1.506963 -0.000001 -0.000003 0.000000 0.000000 1.160623
    20 3.915633 -0.278019 1.402606 -0.181907 0.018780 -0.320480
    21 1.333081 0.000000 -0.000001 0.000000 0.000000 1.003545
    22 1.159203 -0.000006 -0.000001 0.000000 0.000000 1.605682
    23 5.024290 0.657701 -3.490760 -1.802628 -1.194217 -3.096992
    24 -1.482697 0.881217 -0.000001 0.000000 0.000000 0.000000
    25 0.000005 0.011451 -1.352403 -0.000014 1.370796 3.140783
    26 6.078086 -0.000001 0.000001 0.871778 -1.092378 -0.916788
    27 13.446748 -0.000001 0.000000 0.000000 0.000000 -0.927251
    28 15.996999 0.000002 0.000000 1.659515 0.034344 -0.659831
    29 1.885328 0.833278 2.177876 1.195118 -0.651728 0.432758
    30 1.506962 0.000000 0.000000 0.000000 0.000000 -0.139626
    31 0.798351 0.000002 0.000002 0.000000 0.000000 -0.733034
    32 3.950303 -0.539876 2.108874 -0.201314 -0.381983 -0.348015
    33 1.545796 0.000000 0.000000 0.000000 0.000000 0.593410
    34 1.667396 0.000000 -0.000002 0.000000 0.000000 0.122173
    35 3.899459 -0.475375 1.170887 0.000688 0.000407 -0.541050
    36 1.528216 0.000000 0.000002 0.000000 0.000000 1.143173
    37 1.528215 0.000000 0.000000 0.000000 0.000000 0.218185
    38 3.899460 -0.431802 -0.168223 0.000796 0.000000 0.000000
    39 1.506962 0.000000 0.000000 0.000000 0.000000 1.117007
    40 1.506962 0.000002 0.000002 0.000000 0.000000 0.872659
    41 3.915634 -0.278018 -1.402607 0.000796 0.000000 0.000000
    42 1.333086 0.000000 0.000004 0.000000 0.000000 1.518410
    43 1.159202 0.000003 -0.000006 0.000000 0.000000 0.680671
    44 6.394357 2.457028 2.877110 -0.545644 -0.056807 1.454689
    45 -2.686406 2.279087 1.265268 1.570796 0.000000 1.570796
  time 10
    0 0.135014 8.526284 -24.816700 0.000000 0.000000 -1.570842
    1 0.000001 0.000000 0.000000 -0.000086 -1.570451 -1.570709
    2 4.443613 -0.009641 0.000006 -0.000004 -0.000001 0.000796
    3 12.111416 -0.011447 0.000000 0.000000 0.000000 0.000000
    4 0.000007 0.011445 1.352404 -0.000014 -1.370796 3.140810
    5 6.078087 0.000002 -0.000001 -0.618176 0.912960 -0.767142
    6 13.446752 0.000000 -0.000002 0.000000 0.000000 -1.486529
    7 15.997000 -0.000001 0.000000 -1.163897 0.000000 0.000000
    8 1.885327 0.833279 -2.177877 -1.564663 0.803225 0.045485
    9 1.506963 0.000000 0.000000 0.000000 0.000000 -0.061091
    10 0.798347 0.000000 -0.000001 0.000000 0.000000 0.314152
    11 3.950304 -0.539873 -2.108871 -0.011041 0.357426 -0.064196
    12 1.545798 0.000000 0.000001 0.000000 0.000000 0.837746
    13 1.667399 0.000002 -0.000003 0.000000 0.000000 0.532312
    14 3.899459 -0.475374 -1.170890 -0.245101 0.070050 0.305373
    15 1.528216 0.000000 0.000000 0.000000 0.000000 0.488691
    16 1.528216 -0.000002 0.000002 0.000000 0.000000 1.754022
    17 3.899459 -0.431801 0.168226 -0.132734 0.068204 -0.323656
    18 1.506963 0.000001 0.000001 0.000000 0.000000 1.204255
    19 1.506963 -0.000001 -0.000003 0.000000 0.000000 1.160623
    20 3.915633 -0.278019 1.402606 -0.181907 0.018780 -0.320480
    21 1.333081 0.000000 -0.000001 0.000000 0.000000 1.003545
    22 1.159203 -0.000006 -0.000001 0.000000 0.000000 1.605682
    23 5.024290 0.657701 -3.490760 -1.802628 -1.194217 -3.096992
    24 -1.482697 0.881217 -0.000001 0.000000 0.000000 0.000000
    25 0.000005 0.011451 -1.352403 -0.000014 1.370796 3.140783
    26 6.078086 -0.000001 0.000001 0.871778 -1.092378 -0.916788
    27 13.446748 -0.000001 0.000000 0.000000 0.000000 -0.927251
    28 15.996999 0.000002 0.000000 1.659515 0.034344 -0.659831
    29 1.885328 0.833278 2.177876 1.195118 -0.651728 0.432758
    30 1.506962 0.000000 0.000000 0.000000 0.000000 -0.139626
    31 0.798351 0.000002 0.000002 0.000000 0.000000 -0.733034
    32 3.950303 -0.539876 2.108874 -0.201314 -0.381983 -0.348015
    33 1.545796 0.000000 0.000000 0.000000 0.000000 0.593410
    34 1.667396 0.000000 -0.000002 0.000000 0.000000 0.122173
    35 3.899459 -0.475375 1.170887 0.000688 0.000407 -0.541050
    36 1.528216 0.000000 0.000002 0.000000 0.000000 1.143173
    37 1.528215 0.000000 0.000000 0.000000 0.000000 0.218185
    38 3.899460 -0.431802 -0.168223 0.000796 0.000000 0.000000
    39 1.506962 0.000000 0.000000 0.000000 0.000000 1.117007
    40 1.506962 0.000002 0.000002 0.000000 0.000000 0.872659
    41 3.915634 -0.278018 -1.402607 0.000796 0.000000 0.000000
    42 1.333086 0.000000 0.000004 0.000000 0.000000 1.518410
    43 1.159202 0.000003 -0.000006 0.000000 0.000000 0.680671
    44 6.394357 2.457028 2.877110 -0.545644 -0.056807 1.454689
    45 -2.686406 2.279087 1.265268 1.570796 0.000000 1.570796
  time 11
    0 0.135014 8.526284 -24.816700 0.000000 0.000000 -1.570842
    1 0.000001 0.000000 0.000000 -0.000086 -1.570451 -1.570709
    2 4.443613 -0.009641 0.000006 -0.000004 -0.000001 0.000796
    3 12.111416 -0.011447 0.000000 0.000000 0.000000 0.000000
    4 0.000007 0.011445 1.352404 -0.000014 -1.370796 3.140810
    5 6.078087 0.000002 -0.000001 -0.675081 0.879155 -0.840107
    6 13.446752 0.000000 -0.000002 0.000000 0.000000 -1.464889
    7 15.997000 -0.000001 0.000000 -1.179583 0.000000 0.000000
    8 1.885327 0.833279 -2.177877 -1.564651 0.803225 0.045485
    9 1.506963 0.000000 0.000000 0.000000 0.000000 -0.061091
    10 0.798347 0.000000 -0.000001 0.000000 0.000000 0.314152
    11 3.950304 -0.539873 -2.108871 -0.011041 0.357426 -0.064196
    12 1.545798 0.000000 0.000001 0.000000 0.000000 0.837746
    13 1.667399 0.000002 -0.000003 0.000000 0.000000 0.532312
    14 3.899459 -0.475374 -1.170890 -0.245101 0.070050 0.305373
    15 1.528216 0.000000 0.000000 0.000000 0.000000 0.488691
    16 1.528216 -0.000002 0.000002 0.000000 0.000000 1.754022
    17 3.899459 -0.431801 0.168226 -0.132734 0.068204 -0.323656
    18 1.506963 0.000001 0.000001 0.000000 0.000000 1.204255
    19 1.506963 -0.000001 -0.000003 0.000000 0.000000 1.160623
    20 3.915633 -0.278019 1.402606 -0.181907 0.018780 -0.320480
    21 1.333081 0.000000 -0.000001 0.000000 0.000000 1.003545
    22 1.159203 -0.000006 -0.000001 0.000000 0.000000 1.605682
    23 5.024290 0.657701 -3.490760 -1.802628 -1.194217 -3.096992
    24 -1.482697 0.881217 -0.000001 0.000000 0.000000 0.000000
    25 0.000005 0.011451 -1.352403 -0.000014 1.370796 3.140783
    26 6.078086 -0.000001 0.000001 0.871778 -1.092378 -0.916788
    27 13.446748 -0.000001 0.000000 0.000000 0.000000 -0.927251
    28 15.996999 0.000002 0.000000 1.659515 0.034344 -0.659831
    29 1.885328 0.833278 2.177876 1.195118 -0.651728 0.432758
    30 1.506962 0.000000 0.000000 0.000000 0.000000 -0.139626
    31 0.798351 0.000002 0.000002 0.000000 0.000000 -0.733034
    32 3.950303 -0.539876 2.108874 -0.201314 -0.381983 -0.348015
    33 1.545796 0.000000 0.000000 0.000000 0.000000 0.593410
    34 1.667396 0.000000 -0.000002 0.000000 0.000000 0.122173
    35 3.899459 -0.475375 1.170887 0.000688 0.000407 -0.541050
    36 1.528216 0.000000 0.000002 0.000000 0.000000 1.143173
    37 1.528215 0.000000 0.000000 0.000000 0.000000 0.218185
    38 3.899460 -0.431802 -0.168223 0.000796 0.000000 0.000000
    39 1.506962 0.000000 0.000000 0.000000 0.000000 1.117007
    40 1.506962 0.000002 0.000002 0.000000 0.000000 0.872659
    41 3.915634 -0.278018 -1.402607 0.000796 0.000000 0.000000
    42 1.333086 0.000000 0.000004 0.000000 0.000000 1.518410
    43 1.159202 0.000003 -0.000006 0.000000 0.000000 0.680671
    44 6.394357 2.457028 2.877110 -0.545644 -0.056807 1.454689
    45 -2.686406 2.279087 1.265268 1.570796 0.000000 1.570796
  time 12
    0 0.135014 8.526284 -24.816700 0.000000 0.000000 -1.570842
    1 0.000001 0.000000 0.000000 -0.000086 -1.570451 -1.570709
    2 4.443613 -0.009641 0.000006 -0.000004 -0.000001 0.000796
    3 12.111416 -0.011447 0.000000 0.000000 0.000000 0.000000
    4 0.000007 0.011445 1.352404 -0.000014 -1.370796 3.140810
    5 6.078087 0.000002 -0.000001 -0.724146 0.843552 -0.905159
    6 13.446752 0.000000 -0.000002 0.000000 0.000000 -1.443249
    7 15.997000 -0.000001 0.000000 -1.194939 0.000000 0.000000
    8 1.885327 0.833279 -2.177877 -1.564651 0.803225 0.045485
    9 1.506963 0.000000 0.000000 0.000000 0.000000 -0.061091
    10 0.798347 0.000000 -0.000001 0.000000 0.000000 0.314152
    11 3.950304 -0.539873 -2.108871 -0.011041 0.357426 -0.064196
    12 1.545798 0.000000 0.000001 0.000000 0.000000 0.837746
    13 1.667399 0.000002 -0.000003 0.000000 0.000000 0.532312
    14 3.899459 -0.475374 -1.170890 -0.245101 0.070050 0.305373
    15 1.528216 0.000000 0.000000 0.000000 0.000000 0.488691
    16 1.528216 -0.000002 0.000002 0.000000 0.000000 1.754022
    17 3.899459 -0.431801 0.168226 -0.132734 0.068204 -0.323656
    18 1.506963 0.000001 0.000001 0.000000 0.000000 1.204255
    19 1.506963 -0.000001 -0.000003 0.000000 0.000000 1.160623
    20 3.915633 -0.278019 1.402606 -0.181907 0.018780 -0.320480
    21 1.333081 0.000000 -0.000001 0.000000 0.000000 1.003545
    22 1.159203 -0.000006 -0.000001 0.000000 0.000000 1.605682
    23 5.024290 0.657701 -3.490760 -1.802628 -1.194217 -3.096992
    24 -1.482697 0.881217 -0.000001 0.000000 0.000000 0.000000
    25 0.000005 0.011451 -1.352403 -0.000014 1.370796 3.140783
    26 6.078086 -0.000001 0.000001 0.871778 -1.092378 -0.916788
    27 13.446748 -0.000001 0.000000 0.000000 0.000000 -0.927251
    28 15.996999 0.000002 0.000000 1.659515 0.034344 -0.659831
    29 1.885328 0.833278 2.177876 1.195118 -0.651728 0.432758
    30 1.506962 0.000000 0.000000 0.000000 0.000000 -0.139626
    31 0.798351 0.000002 0.000002 0.000000 0.000000 -0.733034
    32 3.950303 -0.539876 2.108874 -0.201314 -0.381983 -0.348015
    33 1.545796 0.000000 0.000000 0.000000 0.000000 0.593410
    34 1.667396 0.000000 -0.000002 0.000000 0.000000 0.122173
    35 3.899459 -0.475375 1.170887 0.000688 0.000407 -0.541050
    36 1.528216 0.000000 0.000002 0.000000 0.000000 1.143173
    37 1.528215 0.000000 0.000000 0.000000 0.000000 0.218185
    38 3.899460 -0.431802 -0.168223 0.000796 0.000000 0.000000
    39 1.506962 0.000000 0.000000 0.000000 0.000000 1.117007
    40 1.506962 0.000002 0.000002 0.000000 0.000000 0.872659
    41 3.915634 -0.278018 -1.402607 0.000796 0.000000 0.000000
    42 1.333086 0.000000 0.000004 0.000000 0.000000 1.518410
    43 1.159202 0.000003 -0.000006 0.000000 0.000000 0.680671
    44 6.394357 2.457028 2.877110 -0.545644 -0.056807 1.454689
    45 -2.686406 2.279087 1.265268 1.570796 0.000000 1.570796
  time 13
    0 0.135014 8.526284 -24.816700 0.000000 0.000000 -1.570842
    1 0.000001 0.000000 0.000000 -0.000086 -1.570451 -1.570709
    2 4.443613 -0.009641 0.000006 -0.000004 -0.000001 0.000796
    3 12.111416 -0.011447 0.000000 0.000000 0.000000 0.000000
    4 0.000007 0.011445 1.352404 -0.000014 -1.370796 3.140810
    5 6.078087 0.000002 -0.000001 -0.765865 0.806821 -0.962882
    6 13.446752 0.000000 -0.000002 0.000000 0.000000 -1.421608
    7 15.997000 -0.000001 0.000000 -1.209933 0.000000 0.000000
    8 1.885327 0.833279 -2.177877 -1.564663 0.803225 0.045485
    9 1.506963 0.000000 0.000000 0.000000 0.000000 -0.061091
    10 0.798347 0.000000 -0.000001 0.000000 0.000000 0.314152
    11 3.950304 -0.539873 -2.108871 -0.011041 0.357426 -0.064196
    12 1.545798 0.000000 0.000001 0.000000 0.000000 0.837746
    13 1.667399 0.000002 -0.000003 0.000000 0.000000 0.532312
    14 3.899459 -0.475374 -1.170890 -0.245101 0.070050 0.305373
    15 1.528216 0.000000 0.000000 0.000000 0.000000 0.488691
    16 1.528216 -0.000002 0.000002 0.000000 0.000000 1.754022
    17 3.899459 -0.431801 0.168226 -0.132734 0.068204 -0.323656
    18 1.506963 0.000001 0.000001 0.000000 0.000000 1.204255
    19 1.506963 -0.000001 -0.000003 0.000000 0.000000 1.160623
    20 3.915633 -0.278019 1.402606 -0.181907 0.018780 -0.320480
    21 1.333081 0.000000 -0.000001 0.000000 0.000000 1.003545
    22 1.159203 -0.000006 -0.000001 0.000000 0.000000 1.605682
    23 5.024290 0.657701 -3.490760 -1.802628 -1.194217 -3.096992
    24 -1.482697 0.881217 -0.000001 0.000000 0.000000 0.000000
    25 0.000005 0.011451 -1.352403 -0.000014 1.370796 3.140783
    26 6.078086 -0.000001 0.000001 0.871778 -1.092378 -0.916788
    27 13.446748 -0.000001 0.000000 0.000000 0.000000 -0.927251
    28 15.996999 0.000002 0.000000 1.659515 0.034344 -0.659831
    29 1.885328 0.833278 2.177876 1.195118 -0.651728 0.432758
    30 1.506962 0.000000 0.000000 0.000000 0.000000 -0.139626
    31 0.798351 0.000002 0.000002 0.000000 0.000000 -0.733034
    32 3.950303 -0.539876 2.108874 -0.201314 -0.381983 -0.348015
    33 1.545796 0.000000 0.000000 0.000000 0.000000 0.593410
    34 1.667396 0.000000 -0.000002 0.000000 0.000000 0.122173
    35 3.899459 -0.475375 1.170887 0.000688 0.000407 -0.541050
    36 1.528216 0.000000 0.000002 0.000000 0.000000 1.143173
    37 1.528215 0.000000 0.000000 0.000000 0.000000 0.218185
    38 3.899460 -0.431802 -0.168223 0.000796 0.000000 0.000000
    39 1.506962 0.000000 0.000000 0.000000 0.000000 1.117007
    40 1.506962 0.000002 0.000002 0.000000 0.000000 0.872659
    41 3.915634 -0.278018 -1.402607 0.000796 0.000000 0.000000
    42 1.333086 0.000000 0.000004 0.000000 0.000000 1.518410
    43 1.159202 0.000003 -0.000006 0.000000 0.000000 0.680671
    44 6.394357 2.457028 2.877110 -0.545644 -0.056807 1.454689
    45 -2.686406 2.279087 1.265268 1.570796 0.000000 1.570796
  time 14
    0 0.135014 8.526284 -24.816700 0.000000 0.000000 -1.570842
    1 0.000001 0.000000 0.000000 -0.000086 -1.570451 -1.570709
    2 4.443613 -0.009641 0.000006 -0.000004 -0.000001 0.000796
    3 12.111416 -0.011447 0.000000 0.000000 0.000000 0.000000
    4 0.000007 0.011445 1.352404 -0.000014 -1.370796 3.140810
    5 6.078087 0.000002 -0.000001 -0.801005 0.769597 -1.013860
    6 13.446752 0.000000 -0.000002 0.000000 0.000000 -1.399968
    7 15.997000 -0.000001 0.000000 -1.224466 0.000000 0.000000
    8 1.885327 0.833279 -2.177877 -1.564651 0.803225 0.045485
    9 1.506963 0.000000 0.000000 0.000000 0.000000 -0.061091
    10 0.798347 0.000000 -0.000001 0.000000 0.000000 0.314152
    11 3.950304 -0.539873 -2.108871 -0.011041 0.357426 -0.064196
    12 1.545798 0.000000 0.000001 0.000000 0.000000 0.837746
    13 1.667399 0.000002 -0.000003 0.000000 0.000000 0.532312
    14 3.899459 -0.475374 -1.170890 -0.245101 0.070050 0.305373
    15 1.528216 0.000000 0.000000 0.000000 0.000000 0.488691
    16 1.528216 -0.000002 0.000002 0.000000 0.000000 1.754022
    17 3.899459 -0.431801 0.168226 -0.132734 0.068204 -0.323656
    18 1.506963 0.000001 0.000001 0.000000 0.000000 1.204255
    19 1.506963 -0.000001 -0.000003 0.000000 0.000000 1.160623
    20 3.915633 -0.278019 1.402606 -0.181907 0.018780 -0.320480
    21 1.333081 0.000000 -0.000001 0.000000 0.000000 1.003545
    22 1.159203 -0.000006 -0.000001 0.000000 0.000000 1.605682
    23 5.024290 0.657701 -3.490760 -1.802628 -1.194217 -3.096992
    24 -1.482697 0.881217 -0.000001 0.000000 0.000000 0.000000
    25 0.000005 0.011451 -1.352403 -0.000014 1.370796 3.140783
    26 6.078086 -0.000001 0.000001 0.871778 -1.092378 -0.916788
    27 13.446748 -0.000001 0.000000 0.000000 0.000000 -0.927251
    28 15.996999 0.000002 0.000000 1.659515 0.034344 -0.659831
    29 1.885328 0.833278 2.177876 1.195118 -0.651728 0.432758
    30 1.506962 0.000000 0.000000 0.000000 0.000000 -0.139626
    31 0.798351 0.000002 0.000002 0.000000 0.000000 -0.733034
    32 3.950303 -0.539876 2.108874 -0.201314 -0.381983 -0.348015
    33 1.545796 0.000000 0.000000 0.000000 0.000000 0.593410
    34 1.667396 0.000000 -0.000002 0.000000 0.000000 0.122173
    35 3.899459 -0.475375 1.170887 0.000688 0.000407 -0.541050
    36 1.528216 0.000000 0.000002 0.000000 0.000000 1.143173
    37 1.528215 0.000000 0.000000 0.000000 0.000000 0.218185
    38 3.899460 -0.431802 -0.168223 0.000796 0.000000 0.000000
    39 1.506962 0.000000 0.000000 0.000000 0.000000 1.117007
    40 1.506962 0.000002 0.000002 0.000000 0.000000 0.872659
    41 3.915634 -0.278018 -1.402607 0.000796 0.000000 0.000000
    42 1.333086 0.000000 0.000004 0.000000 0.000000 1.518410
    43 1.159202 0.000003 -0.000006 0.000000 0.000000 0.680671
    44 6.394357 2.457028 2.877110 -0.545644 -0.056807 1.454689
    45 -2.686406 2.279087 1.265268 1.570796 0.000000 1.570796
  time 15
    0 0.135014 8.526284 -24.816700 0.000000 0.000000 -1.570842
    1 0.000001 0.000000 0.000000 -0.000086 -1.570451 -1.570709
    2 4.443613 -0.009641 0.000006 -0.000004 -0.000001 0.000796
    3 12.111416 -0.011447 0.000000 0.000000 0.000000 0.000000
    4 0.000007 0.011445 1.352404 -0.000014 -1.370796 3.140810
    5 6.078087 0.000002 -0.000001 -0.830115 0.732408 -1.058741
    6 13.446752 0.000000 -0.000002 0.000000 0.000000 -1.378328
    7 15.997000 -0.000001 0.000000 -1.238537 0.000000 0.000000
    8 1.885327 0.833279 -2.177877 -1.564663 0.803225 0.045485
    9 1.506963 0.000000 0.000000 0.000000 0.000000 -0.061091
    10 0.798347 0.000000 -0.000001 0.000000 0.000000 0.314152
    11 3.950304 -0.539873 -2.108871 -0.011041 0.357426 -0.064196
    12 1.545798 0.000000 0.000001 0.000000 0.000000 0.837746
    13 1.667399 0.000002 -0.000003 0.000000 0.000000 0.532312
    14 3.899459 -0.475374 -1.170890 -0.245101 0.070050 0.305373
    15 1.528216 0.000000 0.000000 0.000000 0.000000 0.488691
    16 1.528216 -0.000002 0.000002 0.000000 0.000000 1.754022
    17 3.899459 -0.431801 0.168226 -0.132734 0.068204 -0.323656
    18 1.506963 0.000001 0.000001 0.000000 0.000000 1.204255
    19 1.506963 -0.000001 -0.000003 0.000000 0.000000 1.160623
    20 3.915633 -0.278019 1.402606 -0.181907 0.018780 -0.320480
    21 1.333081 0.000000 -0.000001 0.000000 0.000000 1.003545
    22 1.159203 -0.000006 -0.000001 0.000000 0.000000 1.605682
    23 5.024290 0.657701 -3.490760 -1.802628 -1.194217 -3.096992
    24 -1.482697 0.881217 -0.000001 0.000000 0.000000 0.000000
    25 0.000005 0.011451 -1.352403 -0.000014 1.370796 3.140783
    26 6.078086 -0.000001 0.000001 0.871778 -1.092378 -0.916788
    27 13.446748 -0.000001 0.000000 0.000000 0.000000 -0.927251
    28 15.996999 0.000002 0.000000 1.659515 0.034344 -0.659831
    29 1.885328 0.833278 2.177876 1.195118 -0.651728 0.432758
    30 1.506962 0.000000 0.000000 0.000000 0.000000 -0.139626
    31 0.798351 0.000002 0.000002 0.000000 0.000000 -0.733034
    32 3.950303 -0.539876 2.108874 -0.201314 -0.381983 -0.348015
    33 1.545796 0.000000 0.000000 0.000000 0.000000 0.593410
    34 1.667396 0.000000 -0.000002 0.000000 0.000000 0.122173
    35 3.899459 -0.475375 1.170887 0.000688 0.000407 -0.541050
    36 1.528216 0.000000 0.000002 0.000000 0.000000 1.143173
    37 1.528215 0.000000 0.000000 0.000000 0.000000 0.218185
    38 3.899460 -0.431802 -0.168223 0.000796 0.000000 0.000000
    39 1.506962 0.000000 0.000000 0.000000 0.000000 1.117007
    40 1.506962 0.000002 0.000002 0.000000 0.000000 0.872659
    41 3.915634 -0.278018 -1.402607 0.000796 0.000000 0.000000
    42 1.333086 0.000000 0.000004 0.000000 0.000000 1.518410
    43 1.159202 0.000003 -0.000006 0.000000 0.000000 0.680671
    44 6.394357 2.457028 2.877110 -0.545644 -0.056807 1.454689
    45 -2.686406 2.279087 1.265268 1.570796 0.000000 1.570796
  time 16
    0 0.135014 8.526284 -24.816700 0.000000 0.000000 -1.570842
    1 0.000001 0.000000 0.000000 -0.000086 -1.570451 -1.570709
    2 4.443613 -0.009641 0.000006 -0.000004 -0.000001 0.000796
    3 12.111416 -0.011447 0.000000 0.000000 0.000000 0.000000
    4 0.000007 0.011445 1.352404 -0.000014 -1.370796 3.140810
    5 6.078087 0.000002 -0.000001 -0.853853 0.695783 -1.097980
    6 13.446752 0.000000 -0.000002 0.000000 0.000000 -1.356688
    7 15.997000 -0.000001 0.000000 -1.252048 0.000000 0.000000
    8 1.885327 0.833279 -2.177877 -1.564651 0.803225 0.045485
    9 1.506963 0.000000 0.000000 0.000000 0.000000 -0.061091
    10 0.798347 0.000000 -0.000001 0.000000 0.000000 0.314152
    11 3.950304 -0.539873 -2.108871 -0.011041 0.357426 -0.064196
    12 1.545798 0.000000 0.000001 0.000000 0.000000 0.837746
    13 1.667399 0.000002 -0.000003 0.000000 0.000000 0.532312
    14 3.899459 -0.475374 -1.170890 -0.245101 0.070050 0.305373
    15 1.528216 0.000000 0.000000 0.000000 0.000000 0.488691
    16 1.528216 -0.000002 0.000002 0.000000 0.000000 1.754022
    17 3.899459 -0.431801 0.168226 -0.132734 0.068204 -0.323656
    18 1.506963 0.000001 0.000001 0.000000 0.000000 1.204255
    19 1.506963 -0.000001 -0.000003 0.000000 0.000000 1.160623
    20 3.915633 -0.278019 1.402606 -0.181907 0.018780 -0.320480
    21 1.333081 0.000000 -0.000001 0.000000 0.000000 1.003545
    22 1.159203 -0.000006 -0.000001 0.000000 0.000000 1.605682
    23 5.024290 0.657701 -3.490760 -1.802628 -1.194217 -3.096992
    24 -1.482697 0.881217 -0.000001 0.000000 0.000000 0.000000
    25 0.000005 0.011451 -1.352403 -0.000014 1.370796 3.140783
    26 6.078086 -0.000001 0.000001 0.871778 -1.092378 -0.916788
    27 13.446748 -0.000001 0.000000 0.000000 0.000000 -0.927251
    28 15.996999 0.000002 0.000000 1.659515 0.034344 -0.659831
    29 1.885328 0.833278 2.177876 1.195118 -0.651728 0.432758
    30 1.506962 0.000000 0.000000 0.000000 0.000000 -0.139626
    31 0.798351 0.000002 0.000002 0.000000 0.000000 -0.733034
    32 3.950303 -0.539876 2.108874 -0.201314 -0.381983 -0.348015
    33 1.545796 0.000000 0.000000 0.000000 0.000000 0.593410
    34 1.667396 0.000000 -0.000002 0.000000 0.000000 0.122173
    35 3.899459 -0.475375 1.170887 0.000688 0.000407 -0.541050
    36 1.528216 0.000000 0.000002 0.000000 0.000000 1.143173
    37 1.528215 0.000000 0.000000 0.000000 0.000000 0.218185
    38 3.899460 -0.431802 -0.168223 0.000796 0.000000 0.000000
    39 1.506962 0.000000 0.000000 0.000000 0.000000 1.117007
    40 1.506962 0.000002 0.000002 0.000000 0.000000 0.872659
    41 3.915634 -0.278018 -1.402607 0.000796 0.000000 0.000000
    42 1.333086 0.000000 0.000004 0.000000 0.000000 1.518410
    43 1.159202 0.000003 -0.000006 0.000000 0.000000 0.680671
    44 6.394357 2.457028 2.877110 -0.545644 -0.056807 1.454689
    45 -2.686406 2.279087 1.265268 1.570796 0.000000 1.570796
  time 17
    0 0.135014 8.526284 -24.816700 0.000000 0.000000 -1.570842
    1 0.000001 0.000000 0.000000 -0.000086 -1.570451 -1.570709
    2 4.443613 -0.009641 0.000006 -0.000004 -0.000001 0.000796
    3 12.111416 -0.011447 0.000000 0.000000 0.000000 0.000000
    4 0.000007 0.011445 1.352404 -0.000014 -1.370796 3.140810
    5 6.078087 0.000002 -0.000001 -0.872657 0.660144 -1.132030
    6 13.446752 0.000000 -0.000002 0.000000 0.000000 -1.335048
    7 15.997000 -0.000001 0.000000 -1.264933 0.000000 0.000000
    8 1.885327 0.833279 -2.177877 -1.564663 0.803225 0.045485
    9 1.506963 0.000000 0.000000 0.000000 0.000000 -0.061091
    10 0.798347 0.000000 -0.000001 0.000000 0.000000 0.314152
    11 3.950304 -0.539873 -2.108871 -0.011041 0.357426 -0.064196
    12 1.545798 0.000000 0.000001 0.000000 0.000000 0.837746
    13 1.667399 0.000002 -0.000003 0.000000 0.000000 0.532312
    14 3.899459 -0.475374 -1.170890 -0.245101 0.070050 0.305373
    15 1.528216 0.000000 0.000000 0.000000 0.000000 0.488691
    16 1.528216 -0.000002 0.000002 0.000000 0.000000 1.754022
    17 3.899459 -0.431801 0.168226 -0.132734 0.068204 -0.323656
    18 1.506963 0.000001 0.000001 0.000000 0.000000 1.204255
    19 1.506963 -0.000001 -0.000003 0.000000 0.000000 1.160623
    20 3.915633 -0.278019 1.402606 -0.181907 0.018780 -0.320480
    21 1.333081 0.000000 -0.000001 0.000000 0.000000 1.003545
    22 1.159203 -0.000006 -0.000001 0.000000 0.000000 1.605682
    23 5.024290 0.657701 -3.490760 -1.802628 -1.194217 -3.096992
    24 -1.482697 0.881217 -0.000001 0.000000 0.000000 0.000000
    25 0.000005 0.011451 -1.352403 -0.000014 1.370796 3.140783
    26 6.078086 -0.000001 0.000001 0.871778 -1.092378 -0.916788
    27 13.446748 -0.000001 0.000000 0.000000 0.000000 -0.927251
    28 15.996999 0.000002 0.000000 1.659515 0.034344 -0.659831
    29 1.885328 0.833278 2.177876 1.195118 -0.651728 0.432758
    30 1.506962 0.000000 0.000000 0.000000 0.000000 -0.139626
    31 0.798351 0.000002 0.000002 0.000000 0.000000 -0.733034
    32 3.950303 -0.539876 2.108874 -0.201314 -0.381983 -0.348015
    33 1.545796 0.000000 0.000000 0.000000 0.000000 0.593410
    34 1.667396 0.000000 -0.000002 0.000000 0.000000 0.122173
    35 3.899459 -0.475375 1.170887 0.000688 0.000407 -0.541050
    36 1.528216 0.000000 0.000002 0.000000 0.000000 1.143173
    37 1.528215 0.000000 0.000000 0.000000 0.000000 0.218185
    38 3.899460 -0.431802 -0.168223 0.000796 0.000000 0.000000
    39 1.506962 0.000000 0.000000 0.000000 0.000000 1.117007
    40 1.506962 0.000002 0.000002 0.000000 0.000000 0.872659
    41 3.915634 -0.278018 -1.402607 0.000796 0.000000 0.000000
    42 1.333086 0.000000 0.000004 0.000000 0.000000 1.518410
    43 1.159202 0.000003 -0.000006 0.000000 0.000000 0.680671
    44 6.394357 2.457028 2.877110 -0.545644 -0.056807 1.454689
    45 -2.686406 2.279087 1.265268 1.570796 0.000000 1.570796
  time 18
    0 0.135014 8.526284 -24.816700 0.000000 0.000000 -1.570842
    1 0.000001 0.000000 0.000000 -0.000086 -1.570451 -1.570709
    2 4.443613 -0.009641 0.000006 -0.000004 -0.000001 0.000796
    3 12.111416 -0.011447 0.000000 0.000000 0.000000 0.000000
    4 0.000007 0.011445 1.352404 -0.000014 -1.370796 3.140810
    5 6.078087 0.000002 -0.000001 -0.882963 0.628771 -1.156416
    6 13.446752 0.000000 -0.000002 0.000000 0.000000 -1.313408
    7 15.997000 -0.000001 0.000000 -1.276072 0.000000 0.000000
    8 1.885327 0.833279 -2.177877 -1.564663 0.803225 0.045485
    9 1.506963 0.000000 0.000000 0.000000 0.000000 -0.061091
    10 0.798347 0.000000 -0.000001 0.000000 0.000000 0.314152
    11 3.950304 -0.539873 -2.108871 -0.011041 0.357426 -0.064196
    12 1.545798 0.000000 0.000001 0.000000 0.000000 0.837746
    13 1.667399 0.000002 -0.000003 0.000000 0.000000 0.532312
    14 3.899459 -0.475374 -1.170890 -0.245101 0.070050 0.305373
    15 1.528216 0.000000 0.000000 0.000000 0.000000 0.488691
    16 1.528216 -0.000002 0.000002 0.000000 0.000000 1.754022
    17 3.899459 -0.431801 0.168226 -0.132734 0.068204 -0.323656
    18 1.506963 0.000001 0.000001 0.000000 0.000000 1.204255
    19 1.506963 -0.000001 -0.000003 0.000000 0.000000 1.160623
    20 3.915633 -0.278019 1.402606 -0.181907 0.018780 -0.320480
    21 1.333081 0.000000 -0.000001 0.000000 0.000000 1.003545
    22 1.159203 -0.000006 -0.000001 0.000000 0.000000 1.605682
    23 5.024290 0.657701 -3.490760 -1.802628 -1.194217 -3.096992
    24 -1.482697 0.881217 -0.000001 0.000000 0.000000 0.000000
    25 0.000005 0.011451 -1.352403 -0.000014 1.370796 3.140783
    26 6.078086 -0.000001 0.000001 0.871778 -1.092378 -0.916788
    27 13.446748 -0.000001 0.000000 0.000000 0.000000 -0.927251
    28 15.996999 0.000002 0.000000 1.659515 0.034344 -0.659831
    29 1.885328 0.833278 2.177876 1.195118 -0.651728 0.432758
    30 1.506962 0.000000 0.000000 0.000000 0.000000 -0.139626
    31 0.798351 0.000002 0.000002 0.000000 0.000000 -0.733034
    32 3.950303 -0.539876 2.108874 -0.201314 -0.381983 -0.348015
    33 1.545796 0.000000 0.000000 0.000000 0.000000 0.593410
    34 1.667396 0.000000 -0.000002 0.000000 0.000000 0.122173
    35 3.899459 -0.475375 1.170887 0.000688 0.000407 -0.541050
    36 1.528216 0.000000 0.000002 0.000000 0.000000 1.143173
    37 1.528215 0.000000 0.000000 0.000000 0.000000 0.218185
    38 3.899460 -0.431802 -0.168223 0.000796 0.000000 0.000000
    39 1.506962 0.000000 0.000000 0.000000 0.000000 1.117007
    40 1.506962 0.000002 0.000002 0.000000 0.000000 0.872659
    41 3.915634 -0.278018 -1.402607 0.000796 0.000000 0.000000
    42 1.333086 0.000000 0.000004 0.000000 0.000000 1.518410
    43 1.159202 0.000003 -0.000006 0.000000 0.000000 0.680671
    44 6.394357 2.457028 2.877110 -0.545644 -0.056807 1.454689
    45 -2.686406 2.279087 1.265268 1.570796 0.000000 1.570796
  time 19
    0 0.135014 8.526284 -24.816700 0.000000 0.000000 -1.570842
    1 0.000001 0.000000 0.000000 -0.000086 -1.570451 -1.570709
    2 4.443613 -0.009641 0.000006 -0.000004 -0.000001 0.000796
    3 12.111416 -0.011447 0.000000 0.000000 0.000000 0.000000
    4 0.000007 0.011445 1.352404 -0.000014 -1.370796 3.140810
    5 6.078087 0.000002 -0.000001 -0.883292 0.604026 -1.168869
    6 13.446752 0.000000 -0.000002 0.000000 0.000000 -1.291768
    7 15.997000 -0.000001 0.000000 -1.284771 0.000000 0.000000
    8 1.885327 0.833279 -2.177877 -1.564651 0.803225 0.045485
    9 1.506963 0.000000 0.000000 0.000000 0.000000 -0.061091
    10 0.798347 0.000000 -0.000001 0.000000 0.000000 0.314152
    11 3.950304 -0.539873 -2.108871 -0.011041 0.357426 -0.064196
    12 1.545798 0.000000 0.000001 0.000000 0.000000 0.837746
    13 1.667399 0.000002 -0.000003 0.000000 0.000000 0.532312
    14 3.899459 -0.475374 -1.170890 -0.245101 0.070050 0.305373
    15 1.528216 0.000000 0.000000 0.000000 0.000000 0.488691
    16 1.528216 -0.000002 0.000002 0.000000 0.000000 1.754022
    17 3.899459 -0.431801 0.168226 -0.132734 0.068204 -0.323656
    18 1.506963 0.000001 0.000001 0.000000 0.000000 1.204255
    19 1.506963 -0.000001 -0.000003 0.000000 0.000000 1.160623
    20 3.915633 -0.278019 1.402606 -0.181907 0.018780 -0.320480
    21 1.333081 0.000000 -0.000001 0.000000 0.000000 1.003545
    22 1.159203 -0.000006 -0.000001 0.000000 0.000000 1.605682
    23 5.024290 0.657701 -3.490760 -1.802628 -1.194217 -3.096992
    24 -1.482697 0.881217 -0.000001 0.000000 0.000000 0.000000
    25 0.000005 0.011451 -1.352403 -0.000014 1.370796 3.140783
    26 6.078086 -0.000001 0.000001 0.871778 -1.092378 -0.916788
    27 13.446748 -0.000001 0.000000 0.000000 0.000000 -0.927251
    28 15.996999 0.000002 0.000000 1.659515 0.034344 -0.659831
    29 1.885328 0.833278 2.177876 1.195118 -0.651728 0.432758
    30 1.506962 0.000000 0.000000 0.000000 0.000000 -0.139626
    31 0.798351 0.000002 0.000002 0.000000 0.000000 -0.733034
    32 3.950303 -0.539876 2.108874 -0.201314 -0.381983 -0.348015
    33 1.545796 0.000000 0.000000 0.000000 0.000000 0.593410
    34 1.667396 0.000000 -0.000002 0.000000 0.000000 0.122173
    35 3.899459 -0.475375 1.170887 0.000688 0.000407 -0.541050
    36 1.528216 0.000000 0.000002 0.000000 0.000000 1.143173
    37 1.528215 0.000000 0.000000 0.000000 0.000000 0.218185
    38 3.899460 -0.431802 -0.168223 0.000796 0.000000 0.000000
    39 1.506962 0.000000 0.000000 0.000000 0.000000 1.117007
    40 1.506962 0.000002 0.000002 0.000000 0.000000 0.872659
    41 3.915634 -0.278018 -1.402607 0.000796 0.000000 0.000000
    42 1.333086 0.000000 0.000004 0.000000 0.000000 1.518410
    43 1.159202 0.000003 -0.000006 0.000000 0.000000 0.680671
    44 6.394357 2.457028 2.877110 -0.545644 -0.056807 1.454689
    45 -2.686406 2.279087 1.265268 1.570796 0.000000 1.570796
  time 20
    0 0.135014 8.526284 -24.816700 0.000000 0.000000 -1.570842
    1 0.000001 0.000000 0.000000 -0.000086 -1.570451 -1.570709
    2 4.443613 -0.009641 0.000006 -0.000004 -0.000001 0.000796
    3 12.111416 -0.011447 0.000000 0.000000 0.000000 0.000000
    4 0.000007 0.011445 1.352404 -0.000014 -1.370796 3.140810
    5 6.078087 0.000002 -0.000001 -0.876494 0.584426 -1.172760
    6 13.446752 0.000000 -0.000002 0.000000 0.000000 -1.270127
    7 15.997000 -0.000001 0.000000 -1.291560 0.000000 0.000000
    8 1.885327 0.833279 -2.177877 -1.564663 0.803225 0.045485
    9 1.506963 0.000000 0.000000 0.000000 0.000000 -0.061091
    10 0.798347 0.000000 -0.000001 0.000000 0.000000 0.314152
    11 3.950304 -0.539873 -2.108871 -0.011041 0.357426 -0.064196
    12 1.545798 0.000000 0.000001 0.000000 0.000000 0.837746
    13 1.667399 0.000002 -0.000003 0.000000 0.000000 0.532312
    14 3.899459 -0.475374 -1.170890 -0.245101 0.070050 0.305373
    15 1.528216 0.000000 0.000000 0.000000 0.000000 0.488691
    16 1.528216 -0.000002 0.000002 0.000000 0.000000 1.754022
    17 3.899459 -0.431801 0.168226 -0.132734 0.068204 -0.323656
    18 1.506963 0.000001 0.000001 0.000000 0.000000 1.204255
    19 1.506963 -0.000001 -0.000003 0.000000 0.000000 1.160623
    20 3.915633 -0.278019 1.402606 -0.181907 0.018780 -0.320480
    21 1.333081 0.000000 -0.000001 0.000000 0.000000 1.003545
    22 1.159203 -0.000006 -0.000001 0.000000 0.000000 1.605682
    23 5.024290 0.657701 -3.490760 -1.802628 -1.194217 -3.096992
    24 -1.482697 0.881217 -0.000001 0.000000 0.000000 0.000000
    25 0.000005 0.011451 -1.352403 -0.000014 1.370796 3.140783
    26 6.078086 -0.000001 0.000001 0.871778 -1.092378 -0.916788
    27 13.446748 -0.000001 0.000000 0.000000 0.000000 -0.927251
    28 15.996999 0.000002 0.000000 1.659515 0.034344 -0.659831
    29 1.885328 0.833278 2.177876 1.195118 -0.651728 0.432758
    30 1.506962 0.000000 0.000000 0.000000 0.000000 -0.139626
    31 0.798351 0.000002 0.000002 0.000000 0.000000 -0.733034
    32 3.950303 -0.539876 2.108874 -0.201314 -0.381983 -0.348015
    33 1.545796 0.000000 0.000000 0.000000 0.000000 0.593410
    34 1.667396 0.000000 -0.000002 0.000000 0.000000 0.122173
    35 3.899459 -0.475375 1.170887 0.000688 0.000407 -0.541050
    36 1.528216 0.000000 0.000002 0.000000 0.000000 1.143173
    37 1.528215 0.000000 0.000000 0.000000 0.000000 0.218185
    38 3.899460 -0.431802 -0.168223 0.000796 0.000000 0.000000
    39 1.506962 0.000000 0.000000 0.000000 0.000000 1.117007
    40 1.506962 0.000002 0.000002 0.000000 0.000000 0.872659
    41 3.915634 -0.278018 -1.402607 0.000796 0.000000 0.000000
    42 1.333086 0.000000 0.000004 0.000000 0.000000 1.518410
    43 1.159202 0.000003 -0.000006 0.000000 0.000000 0.680671
    44 6.394357 2.457028 2.877110 -0.545644 -0.056807 1.454689
    45 -2.686406 2.279087 1.265268 1.570796 0.000000 1.570796
  time 21
    0 0.135014 8.526284 -24.816700 0.000000 0.000000 -1.570842
    1 0.000001 0.000000 0.000000 -0.000086 -1.570451 -1.570709
    2 4.443613 -0.009641 0.000006 -0.000004 -0.000001 0.000796
    3 12.111416 -0.011447 0.000000 0.000000 0.000000 0.000000
    4 0.000007 0.011445 1.352404 -0.000014 -1.370796 3.140810
    5 6.078087 0.000002 -0.000001 -0.865146 0.568493 -1.171009
    6 13.446752 0.000000 -0.000002 0.000000 0.000000 -1.248487
    7 15.997000 -0.000001 0.000000 -1.296997 0.000000 0.000000
    8 1.885327 0.833279 -2.177877 -1.564651 0.803225 0.045485
    9 1.506963 0.000000 0.000000 0.000000 0.000000 -0.061091
    10 0.798347 0.000000 -0.000001 0.000000 0.000000 0.314152
    11 3.950304 -0.539873 -2.108871 -0.011041 0.357426 -0.064196
    12 1.545798 0.000000 0.000001 0.000000 0.000000 0.837746
    13 1.667399 0.000002 -0.000003 0.000000 0.000000 0.532312
    14 3.899459 -0.475374 -1.170890 -0.245101 0.070050 0.305373
    15 1.528216 0.000000 0.000000 0.000000 0.000000 0.488691
    16 1.528216 -0.000002 0.000002 0.000000 0.000000 1.754022
    17 3.899459 -0.431801 0.168226 -0.132734 0.068204 -0.323656
    18 1.506963 0.000001 0.000001 0.000000 0.000000 1.204255
    19 1.506963 -0.000001 -0.000003 0.000000 0.000000 1.160623
    20 3.915633 -0.278019 1.402606 -0.181907 0.018780 -0.320480
    21 1.333081 0.000000 -0.000001 0.000000 0.000000 1.003545
    22 1.159203 -0.000006 -0.000001 0.000000 0.000000 1.605682
    23 5.024290 0.657701 -3.490760 -1.802628 -1.194217 -3.096992
    24 -1.482697 0.881217 -0.000001 0.000000 0.000000 0.000000
    25 0.000005 0.011451 -1.352403 -0.000014 1.370796 3.140783
    26 6.078086 -0.000001 0.000001 0.871778 -1.092378 -0.916788
    27 13.446748 -0.000001 0.000000 0.000000 0.000000 -0.927251
    28 15.996999 0.000002 0.000000 1.659515 0.034344 -0.659831
    29 1.885328 0.833278 2.177876 1.195118 -0.651728 0.432758
    30 1.506962 0.000000 0.000000 0.000000 0.000000 -0.139626
    31 0.798351 0.000002 0.000002 0.000000 0.000000 -0.733034
    32 3.950303 -0.539876 2.108874 -0.201314 -0.381983 -0.348015
    33 1.545796 0.000000 0.000000 0.000000 0.000000 0.593410
    34 1.667396 0.000000 -0.000002 0.000000 0.000000 0.122173
    35 3.899459 -0.475375 1.170887 0.000688 0.000407 -0.541050
    36 1.528216 0.000000 0.000002 0.000000 0.000000 1.143173
    37 1.528215 0.000000 0.000000 0.000000 0.000000 0.218185
    38 3.899460 -0.431802 -0.168223 0.000796 0.000000 0.000000
    39 1.506962 0.000000 0.000000 0.000000 0.000000 1.117007
    40 1.506962 0.000002 0.000002 0.000000 0.000000 0.872659
    41 3.915634 -0.278018 -1.402607 0.000796 0.000000 0.000000
    42 1.333086 0.000000 0.000004 0.000000 0.000000 1.518410
    43 1.159202 0.000003 -0.000006 0.000000 0.000000 0.680671
    44 6.394357 2.457028 2.877110 -0.545644 -0.056807 1.454689
    45 -2.686406 2.279087 1.265268 1.570796 0.000000 1.570796
  time 22
    0 0.135014 8.526284 -24.816700 0.000000 0.000000 -1.570842
    1 0.000001 0.000000 0.000000 -0.000086 -1.570451 -1.570709
    2 4.443613 -0.009641 0.000006 -0.000004 -0.000001 0.000796
    3 12.111416 -0.011447 0.000000 0.000000 0.000000 0.000000
    4 0.000007 0.011445 1.352404 -0.000014 -1.370796 3.140810
    5 6.078087 0.000002 -0.000001 -0.851276 0.554534 -1.166145
    6 13.446752 0.000000 -0.000002 0.000000 0.000000 -1.226847
    7 15.997000 -0.000001 0.000000 -1.301710 0.000000 0.000000
    8 1.885327 0.833279 -2.177877 -1.564651 0.803225 0.045485
    9 1.506963 0.000000 0.000000 0.000000 0.000000 -0.061091
    10 0.798347 0.000000 -0.000001 0.000000 0.000000 0.314152
    11 3.950304 -0.539873 -2.108871 -0.011041 0.357426 -0.064196
    12 1.545798 0.000000 0.000001 0.000000 0.000000 0.837746
    13 1.667399 0.000002 -0.000003 0.000000 0.000000 0.532312
    14 3.899459 -0.475374 -1.170890 -0.245101 0.070050 0.305373
    15 1.528216 0.000000 0.000000 0.000000 0.000000 0.488691
    16 1.528216 -0.000002 0.000002 0.000000 0.000000 1.754022
    17 3.899459 -0.431801 0.168226 -0.132734 0.068204 -0.323656
    18 1.506963 0.000001 0.000001 0.000000 0.000000 1.204255
    19 1.506963 -0.000001 -0.000003 0.000000 0.000000 1.160623
    20 3.915633 -0.278019 1.402606 -0.181907 0.018780 -0.320480
    21 1.333081 0.000000 -0.000001 0.000000 0.000000 1.003545
    22 1.159203 -0.000006 -0.000001 0.000000 0.000000 1.605682
    23 5.024290 0.657701 -3.490760 -1.802628 -1.194217 -3.096992
    24 -1.482697 0.881217 -0.000001 0.000000 0.000000 0.000000
    25 0.000005 0.011451 -1.352403 -0.000014 1.370796 3.140783
    26 6.078086 -0.000001 0.000001 0.871778 -1.092378 -0.916788
    27 13.446748 -0.000001 0.000000 0.000000 0.000000 -0.927251
    28 15.996999 0.000002 0.000000 1.659515 0.034344 -0.659831
    29 1.885328 0.833278 2.177876 1.195118 -0.651728 0.432758
    30 1.506962 0.000000 0.000000 0.000000 0.000000 -0.139626
    31 0.798351 0.000002 0.000002 0.000000 0.000000 -0.733034
    32 3.950303 -0.539876 2.108874 -0.201314 -0.381983 -0.348015
    33 1.545796 0.000000 0.000000 0.000000 0.000000 0.593410
    34 1.667396 0.000000 -0.000002 0.000000 0.000000 0.122173
    35 3.899459 -0.475375 1.170887 0.000688 0.000407 -0.541050
    36 1.528216 0.000000 0.000002 0.000000 0.000000 1.143173
    37 1.528215 0.000000 0.000000 0.000000 0.000000 0.218185
    38 3.899460 -0.431802 -0.168223 0.000796 0.000000 0.000000
    39 1.506962 0.000000 0.000000 0.000000 0.000000 1.117007
    40 1.506962 0.000002 0.000002 0.000000 0.000000 0.872659
    41 3.915634 -0.278018 -1.402607 0.000796 0.000000 0.000000
    42 1.333086 0.000000 0.000004 0.000000 0.000000 1.518410
    43 1.159202 0.000003 -0.000006 0.000000 0.000000 0.680671
    44 6.394357 2.457028 2.877110 -0.545644 -0.056807 1.454689
    45 -2.686406 2.279087 1.265268 1.570796 0.000000 1.570796
  time 23
    0 0.135014 8.526284 -24.816700 0.000000 0.000000 -1.570842
    1 0.000001 0.000000 0.000000 -0.000086 -1.570451 -1.570709
    2 4.443613 -0.009641 0.000006 -0.000004 -0.000001 0.000796
    3 12.111416 -0.011447 0.000000 0.000000 0.000000 0.000000
    4 0.000007 0.011445 1.352404 -0.000014 -1.370796 3.140810
    5 6.078087 0.000002 -0.000001 -0.836913 0.541033 -1.160697
    6 13.446752 0.000000 -0.000002 0.000000 0.000000 -1.205207
    7 15.997000 -0.000001 0.000000 -1.306224 0.000000 0.000000
    8 1.885327 0.833279 -2.177877 -1.564651 0.803225 0.045485
    9 1.506963 0.000000 0.000000 0.000000 0.000000 -0.061091
    10 0.798347 0.000000 -0.000001 0.000000 0.000000 0.314152
    11 3.950304 -0.539873 -2.108871 -0.011041 0.357426 -0.064196
    12 1.545798 0.000000 0.000001 0.000000 0.000000 0.837746
    13 1.667399 0.000002 -0.000003 0.000000 0.000000 0.532312
    14 3.899459 -0.475374 -1.170890 -0.245101 0.070050 0.305373
    15 1.528216 0.000000 0.000000 0.000000 0.000000 0.488691
    16 1.528216 -0.000002 0.000002 0.000000 0.000000 1.754022
    17 3.899459 -0.431801 0.168226 -0.132734 0.068204 -0.323656
    18 1.506963 0.000001 0.000001 0.000000 0.000000 1.204255
    19 1.506963 -0.000001 -0.000003 0.000000 0.000000 1.160623
    20 3.915633 -0.278019 1.402606 -0.181907 0.018780 -0.320480
    21 1.333081 0.000000 -0.000001 0.000000 0.000000 1.003545
    22 1.159203 -0.000006 -0.000001 0.000000 0.000000 1.605682
    23 5.024290 0.657701 -3.490760 -1.802628 -1.194217 -3.096992
    24 -1.482697 0.881217 -0.000001 0.000000 0.000000 0.000000
    25 0.000005 0.011451 -1.352403 -0.000014 1.370796 3.140783
    26 6.078086 -0.000001 0.000001 0.871778 -1.092378 -0.916788
    27 13.446748 -0.000001 0.000000 0.000000 0.000000 -0.927251
    28 15.996999 0.000002 0.000000 1.659515 0.034344 -0.659831
    29 1.885328 0.833278 2.177876 1.195118 -0.651728 0.432758
    30 1.506962 0.000000 0.000000 0.000000 0.000000 -0.139626
    31 0.798351 0.000002 0.000002 0.000000 0.000000 -0.733034
    32 3.950303 -0.539876 2.108874 -0.201314 -0.381983 -0.348015
    33 1.545796 0.000000 0.000000 0.000000 0.000000 0.593410
    34 1.667396 0.000000 -0.000002 0.000000 0.000000 0.122173
    35 3.899459 -0.475375 1.170887 0.000688 0.000407 -0.541050
    36 1.528216 0.000000 0.000002 0.000000 0.000000 1.143173
    37 1.528215 0.000000 0.000000 0.000000 0.000000 0.218185
    38 3.899460 -0.431802 -0.168223 0.000796 0.000000 0.000000
    39 1.506962 0.000000 0.000000 0.000000 0.000000 1.117007
    40 1.506962 0.000002 0.000002 0.000000 0.000000 0.872659
    41 3.915634 -0.278018 -1.402607 0.000796 0.000000 0.000000
    42 1.333086 0.000000 0.000004 0.000000 0.000000 1.518410
    43 1.159202 0.000003 -0.000006 0.000000 0.000000 0.680671
    44 6.394357 2.457028 2.877110 -0.545644 -0.056807 1.454689
    45 -2.686406 2.279087 1.265268 1.570796 0.000000 1.570796
  time 24
    0 0.135014 8.526284 -24.816700 0.000000 0.000000 -1.570842
    1 0.000001 0.000000 0.000000 -0.000086 -1.570451 -1.570709
    2 4.443613 -0.009641 0.000006 -0.000004 -0.000001 0.000796
    3 12.111416 -0.011447 0.000000 0.000000 0.000000 0.000000
    4 0.000007 0.011445 1.352404 -0.000014 -1.370796 3.140810
    5 6.078087 0.000002 -0.000001 -0.824085 0.526510 -1.157194
    6 13.446752 0.000000 -0.000002 0.000000 0.000000 -1.183567
    7 15.997000 -0.000001 0.000000 -1.311101 0.000000 0.000000
    8 1.885327 0.833279 -2.177877 -1.564651 0.803225 0.045485
    9 1.506963 0.000000 0.000000 0.000000 0.000000 -0.061091
    10 0.798347 0.000000 -0.000001 0.000000 0.000000 0.314152
    11 3.950304 -0.539873 -2.108871 -0.011041 0.357426 -0.064196
    12 1.545798 0.000000 0.000001 0.000000 0.000000 0.837746
    13 1.667399 0.000002 -0.000003 0.000000 0.000000 0.532312
    14 3.899459 -0.475374 -1.170890 -0.245101 0.070050 0.305373
    15 1.528216 0.000000 0.000000 0.000000 0.000000 0.488691
    16 1.528216 -0.000002 0.000002 0.000000 0.000000 1.754022
    17 3.899459 -0.431801 0.168226 -0.132734 0.068204 -0.323656
    18 1.506963 0.000001 0.000001 0.000000 0.000000 1.204255
    19 1.506963 -0.000001 -0.000003 0.000000 0.000000 1.160623
    20 3.915633 -0.278019 1.402606 -0.181907 0.018780 -0.320480
    21 1.333081 0.000000 -0.000001 0.000000 0.000000 1.003545
    22 1.159203 -0.000006 -0.000001 0.000000 0.000000 1.605682
    23 5.024290 0.657701 -3.490760 -1.802628 -1.194217 -3.096992
    24 -1.482697 0.881217 -0.000001 0.000000 0.000000 0.000000
    25 0.000005 0.011451 -1.352403 -0.000014 1.370796 3.140783
    26 6.078086 -0.000001 0.000001 0.871778 -1.092378 -0.916788
    27 13.446748 -0.000001 0.000000 0.000000 0.000000 -0.927251
    28 15.996999 0.000002 0.000000 1.659515 0.034344 -0.659831
    29 1.885328 0.833278 2.177876 1.195118 -0.651728 0.432758
    30 1.506962 0.000000 0.000000 0.000000 0.000000 -0.139626
    31 0.798351 0.000002 0.000002 0.000000 0.000000 -0.733034
    32 3.950303 -0.539876 2.108874 -0.201314 -0.381983 -0.348015
    33 1.545796 0.000000 0.000000 0.000000 0.000000 0.593410
    34 1.667396 0.000000 -0.000002 0.000000 0.000000 0.122173
    35 3.899459 -0.475375 1.170887 0.000688 0.000407 -0.541050
    36 1.528216 0.000000 0.000002 0.000000 0.000000 1.143173
    37 1.528215 0.000000 0.000000 0.000000 0.000000 0.218185
    38 3.899460 -0.431802 -0.168223 0.000796 0.000000 0.000000
    39 1.506962 0.000000 0.000000 0.000000 0.000000 1.117007
    40 1.506962 0.000002 0.000002 0.000000 0.000000 0.872659
    41 3.915634 -0.278018 -1.402607 0.000796 0.000000 0.000000
    42 1.333086 0.000000 0.000004 0.000000 0.000000 1.518410
    43 1.159202 0.000003 -0.000006 0.000000 0.000000 0.680671
    44 6.394357 2.457028 2.877110 -0.545644 -0.056807 1.454689
    45 -2.686406 2.279087 1.265268 1.570796 0.000000 1.570796
  time 25
    0 0.135014 8.526284 -24.816700 0.000000 0.000000 -1.570842
    1 0.000001 0.000000 0.000000 -0.000086 -1.570451 -1.570709
    2 4.443613 -0.009641 0.000006 -0.000004 -0.000001 0.000796
    3 12.111416 -0.011447 0.000000 0.000000 0.000000 0.000000
    4 0.000007 0.011445 1.352404 -0.000014 -1.370796 3.140810
    5 6.078087 0.000002 -0.000001 -0.814656 0.509449 -1.157973
    6 13.446752 0.000000 -0.000002 0.000000 0.000000 -1.161927
    7 15.997000 -0.000001 0.000000 -1.316934 0.000000 0.000000
    8 1.885327 0.833279 -2.177877 -1.564651 0.803225 0.045485
    9 1.506963 0.000000 0.000000 0.000000 0.000000 -0.061091
    10 0.798347 0.000000 -0.000001 0.000000 0.000000 0.314152
    11 3.950304 -0.539873 -2.108871 -0.011041 0.357426 -0.064196
    12 1.545798 0.000000 0.000001 0.000000 0.000000 0.837746
    13 1.667399 0.000002 -0.000003 0.000000 0.000000 0.532312
    14 3.899459 -0.475374 -1.170890 -0.245101 0.070050 0.305373
    15 1.528216 0.000000 0.000000 0.000000 0.000000 0.488691
    16 1.528216 -0.000002 0.000002 0.000000 0.000000 1.754022
    17 3.899459 -0.431801 0.168226 -0.132734 0.068204 -0.323656
    18 1.506963 0.000001 0.000001 0.000000 0.000000 1.204255
    19 1.506963 -0.000001 -0.000003 0.000000 0.000000 1.160623
    20 3.915633 -0.278019 1.402606 -0.181907 0.018780 -0.320480
    21 1.333081 0.000000 -0.000001 0.000000 0.000000 1.003545
    22 1.159203 -0.000006 -0.000001 0.000000 0.000000 1.605682
    23 5.024290 0.657701 -3.490760 -1.802628 -1.194217 -3.096992
    24 -1.482697 0.881217 -0.000001 0.000000 0.000000 0.000000
    25 0.000005 0.011451 -1.352403 -0.000014 1.370796 3.140783
    26 6.078086 -0.000001 0.000001 0.871778 -1.092378 -0.916788
    27 13.446748 -0.000001 0.000000 0.000000 0.000000 -0.927251
    28 15.996999 0.000002 0.000000 1.659515 0.034344 -0.659831
    29 1.885328 0.833278 2.177876 1.195118 -0.651728 0.432758
    30 1.506962 0.000000 0.000000 0.000000 0.000000 -0.139626
    31 0.798351 0.000002 0.000002 0.000000 0.000000 -0.733034
    32 3.950303 -0.539876 2.108874 -0.201314 -0.381983 -0.348015
    33 1.545796 0.000000 0.000000 0.000000 0.000000 0.593410
    34 1.667396 0.000000 -0.000002 0.000000 0.000000 0.122173
    35 3.899459 -0.475375 1.170887 0.000688 0.000407 -0.541050
    36 1.528216 0.000000 0.000002 0.000000 0.000000 1.143173
    37 1.528215 0.000000 0.000000 0.000000 0.000000 0.218185
    38 3.899460 -0.431802 -0.168223 0.000796 0.000000 0.000000
    39 1.506962 0.000000 0.000000 0.000000 0.000000 1.117007
    40 1.506962 0.000002 0.000002 0.000000 0.000000 0.872659
    41 3.915634 -0.278018 -1.402607 0.000796 0.000000 0.000000
    42 1.333086 0.000000 0.000004 0.000000 0.000000 1.518410
    43 1.159202 0.000003 -0.000006 0.000000 0.000000 0.680671
    44 6.394357 2.457028 2.877110 -0.545644 -0.056807 1.454689
    45 -2.686406 2.279087 1.265268 1.570796 0.000000 1.570796
end
