// Created by Crowbar 0.68
version 1
nodes
  0 "Bip01" -1
  1 "Bip01 Pelvis" 0
  2 "Bip01 Spine" 1
  3 "Bip01 Neck" 2
  4 "Bip01 L Clavicle" 3
  5 "Bip01 L UpperArm" 4
  6 "Bip01 L Forearm" 5
  7 "Bip01 L Hand" 6
  8 "Bip01 L Finger0" 7
  9 "Bip01 L Finger01" 8
  10 "Bip01 L Finger02" 9
  11 "Bip01 L Finger1" 7
  12 "Bip01 L Finger11" 11
  13 "Bip01 L Finger12" 12
  14 "Bip01 L Finger2" 7
  15 "Bip01 L Finger21" 14
  16 "Bip01 L Finger22" 15
  17 "Bip01 L Finger3" 7
  18 "Bip01 L Finger31" 17
  19 "Bip01 L Finger32" 18
  20 "Bip01 L Finger4" 7
  21 "Bip01 L Finger41" 20
  22 "Bip01 L Finger42" 21
  23 "Dummy16" 7
  24 "Dummy15" 23
  25 "Bip01 R Clavicle" 3
  26 "Bip01 R UpperArm" 25
  27 "Bip01 R Forearm" 26
  28 "Bip01 R Hand" 27
  29 "Bip01 R Finger0" 28
  30 "Bip01 R Finger01" 29
  31 "Bip01 R Finger02" 30
  32 "Bip01 R Finger1" 28
  33 "Bip01 R Finger11" 32
  34 "Bip01 R Finger12" 33
  35 "Bip01 R Finger2" 28
  36 "Bip01 R Finger21" 35
  37 "Bip01 R Finger22" 36
  38 "Bip01 R Finger3" 28
  39 "Bip01 R Finger31" 38
  40 "Bip01 R Finger32" 39
  41 "Bip01 R Finger4" 28
  42 "Bip01 R Finger41" 41
  43 "Bip01 R Finger42" 42
  44 "Dummy14" 28
  45 "Dummy18" 44
end
skeleton
  time 0
    0 0.135014 8.526284 -24.816700 0.000000 0.000000 -1.570842
    1 0.000001 0.000000 0.000000 -0.000086 -1.570451 -1.570709
    2 4.443613 -0.009641 0.000006 -0.000004 -0.000001 0.000796
    3 12.111416 -0.011447 0.000000 0.000000 0.000000 0.000000
    4 0.000007 0.011445 1.352404 -0.000014 -1.370796 3.140810
    5 6.078087 0.000002 -0.000001 -0.814656 0.509449 -1.157973
    6 13.446747 -0.000003 0.000002 0.000000 0.000000 -1.161927
    7 15.997000 0.000000 0.000000 -1.316934 0.000000 0.000000
    8 1.885329 0.833275 -2.177875 -1.564651 0.803225 0.045485
    9 1.506967 -0.000001 -0.000001 0.000000 0.000000 -0.061091
    10 0.798342 -0.000001 0.000003 0.000000 0.000000 0.314152
    11 3.950307 -0.539878 -2.108872 -0.011041 0.357426 -0.064196
    12 1.545797 -0.000003 0.000002 0.000000 0.000000 0.837746
    13 1.667397 0.000004 -0.000005 0.000000 0.000000 0.532312
    14 3.899461 -0.475377 -1.170889 -0.245101 0.070050 0.305373
    15 1.528216 0.000002 0.000000 0.000000 0.000000 0.488691
    16 1.528214 -0.000002 0.000000 0.000000 0.000000 1.754022
    17 3.899461 -0.431806 0.168225 -0.132734 0.068204 -0.323656
    18 1.506962 0.000000 0.000004 0.000000 0.000000 1.204255
    19 1.506963 0.000000 -0.000003 0.000000 0.000000 1.160623
    20 3.915638 -0.278022 1.402609 -0.181907 0.018780 -0.320480
    21 1.333084 -0.000001 0.000000 0.000000 0.000000 1.003545
    22 1.159205 -0.000001 0.000000 0.000000 0.000000 1.605682
    23 5.024290 0.657701 -3.490760 -1.802628 -1.194217 -3.096992
    24 -1.482696 0.881223 0.000000 0.000000 0.000000 0.000000
    25 0.000005 0.011451 -1.352403 -0.000014 1.370796 3.140783
    26 6.078086 -0.000002 0.000001 1.260999 -0.238987 -1.482248
    27 13.446750 -0.000001 -0.000001 0.000000 0.000000 -0.342533
    28 15.996998 -0.000002 0.000000 1.659515 0.034344 -0.659831
    29 1.885326 0.833276 2.177874 1.195118 -0.651728 0.432758
    30 1.506963 -0.000002 0.000002 0.000000 0.000000 -0.139626
    31 0.798350 0.000002 0.000000 0.000000 0.000000 -0.733034
    32 3.950299 -0.539876 2.108874 -0.201314 -0.381983 -0.348015
    33 1.545799 -0.000001 -0.000001 0.000000 0.000000 0.593410
    34 1.667397 -0.000001 0.000000 0.000000 0.000000 0.122173
    35 3.899456 -0.475376 1.170889 0.000688 0.000407 -0.541050
    36 1.528219 0.000001 0.000002 0.000000 0.000000 1.143173
    37 1.528215 -0.000002 -0.000001 0.000000 0.000000 0.218185
    38 3.899457 -0.431804 -0.168226 0.000796 0.000000 0.000000
    39 1.506966 0.000000 0.000002 0.000000 0.000000 1.117007
    40 1.506963 0.000002 -0.000003 0.000000 0.000000 0.872659
    41 3.915632 -0.278020 -1.402608 0.000796 0.000000 0.000000
    42 1.333083 0.000000 0.000004 0.000000 0.000000 1.518410
    43 1.159203 -0.000004 -0.000003 0.000000 0.000000 0.680671
    44 6.394357 2.457028 2.877110 -0.545644 -0.056807 1.454689
    45 -2.686406 2.279087 1.265269 1.570796 0.000000 1.570796
  time 1
    0 0.135014 8.526284 -24.816700 0.000000 0.000000 -1.570842
    1 0.000001 0.000000 0.000000 -0.000086 -1.570451 -1.570709
    2 4.443613 -0.009641 0.000006 -0.000004 -0.000001 0.000796
    3 12.111416 -0.011447 0.000000 0.000000 0.000000 0.000000
    4 0.000007 0.011445 1.352404 -0.000014 -1.370796 3.140810
    5 6.078087 0.000002 -0.000001 -0.812189 0.508462 -1.152849
    6 13.446747 -0.000003 0.000002 0.000000 0.000000 -1.161927
    7 15.997000 0.000000 0.000000 -1.316934 0.000000 0.000000
    8 1.885329 0.833275 -2.177875 -1.564651 0.803225 0.045485
    9 1.506967 -0.000001 -0.000001 0.000000 0.000000 -0.061091
    10 0.798342 -0.000001 0.000003 0.000000 0.000000 0.314152
    11 3.950307 -0.539878 -2.108872 -0.011041 0.357426 -0.064196
    12 1.545797 -0.000003 0.000002 0.000000 0.000000 0.837746
    13 1.667397 0.000004 -0.000005 0.000000 0.000000 0.532312
    14 3.899461 -0.475377 -1.170889 -0.245101 0.070050 0.305373
    15 1.528216 0.000002 0.000000 0.000000 0.000000 0.488691
    16 1.528214 -0.000002 0.000000 0.000000 0.000000 1.754022
    17 3.899461 -0.431806 0.168225 -0.132734 0.068204 -0.323656
    18 1.506962 0.000000 0.000004 0.000000 0.000000 1.204255
    19 1.506963 0.000000 -0.000003 0.000000 0.000000 1.160623
    20 3.915638 -0.278022 1.402609 -0.181907 0.018780 -0.320480
    21 1.333084 -0.000001 0.000000 0.000000 0.000000 1.003545
    22 1.159205 -0.000001 0.000000 0.000000 0.000000 1.605682
    23 5.024290 0.657701 -3.490760 -1.802628 -1.194217 -3.096992
    24 -1.482696 0.881223 0.000000 0.000000 0.000000 0.000000
    25 0.000005 0.011451 -1.352403 -0.750373 1.300441 2.408843
    26 6.078086 -0.000002 0.000001 1.230265 -0.113676 -1.342624
    27 13.446750 -0.000001 -0.000001 0.000000 0.000000 -0.231607
    28 15.996998 -0.000002 0.000000 1.585604 0.089771 -0.727635
    29 1.885326 0.833276 2.177874 1.193527 -0.656993 0.435373
    30 1.506963 -0.000002 0.000002 0.000000 0.000000 -0.143183
    31 0.798350 0.000002 0.000000 0.000000 0.000000 -0.740456
    32 3.950299 -0.539876 2.108874 -0.198606 -0.386765 -0.353492
    33 1.545799 -0.000001 -0.000001 0.000000 0.000000 0.595483
    34 1.667397 -0.000001 0.000000 0.000000 0.000000 0.124266
    35 3.899456 -0.475376 1.170889 0.000688 0.000407 -0.540281
    36 1.528219 0.000001 0.000002 0.000000 0.000000 1.143914
    37 1.528215 -0.000002 -0.000001 0.000000 0.000000 0.218915
    38 3.899457 -0.431804 -0.168226 0.000796 0.000000 0.006094
    39 1.506966 0.000000 0.000002 0.000000 0.000000 1.123101
    40 1.506963 0.000002 -0.000003 0.000000 0.000000 0.878754
    41 3.915632 -0.278020 -1.402608 0.001335 0.002169 0.008171
    42 1.333083 0.000000 0.000004 0.000000 0.000000 1.526607
    43 1.159203 -0.000004 -0.000003 0.000000 0.000000 0.688851
    44 6.394357 2.457028 2.877110 -0.545644 -0.056807 1.454689
    45 -2.686406 2.279087 1.265269 1.570796 0.000000 1.570796
  time 2
    0 0.135014 8.526284 -24.816700 0.000000 0.000000 -1.570842
    1 0.000001 0.000000 0.000000 -0.000086 -1.570451 -1.570709
    2 4.443613 -0.009641 0.000006 -0.000004 -0.000001 0.000796
    3 12.111416 -0.011447 0.000000 0.000000 0.000000 0.000000
    4 0.000007 0.011445 1.352404 -0.000014 -1.370796 3.140810
    5 6.078087 0.000002 -0.000001 -0.809503 0.507369 -1.147142
    6 13.446747 -0.000003 0.000002 0.000000 0.000000 -1.161927
    7 15.997000 0.000000 0.000000 -1.316934 0.000000 0.000000
    8 1.885329 0.833275 -2.177875 -1.564651 0.803225 0.045485
    9 1.506967 -0.000001 -0.000001 0.000000 0.000000 -0.061091
    10 0.798342 -0.000001 0.000003 0.000000 0.000000 0.314152
    11 3.950307 -0.539878 -2.108872 -0.011041 0.357426 -0.064196
    12 1.545797 -0.000003 0.000002 0.000000 0.000000 0.837746
    13 1.667397 0.000004 -0.000005 0.000000 0.000000 0.532312
    14 3.899461 -0.475377 -1.170889 -0.245101 0.070050 0.305373
    15 1.528216 0.000002 0.000000 0.000000 0.000000 0.488691
    16 1.528214 -0.000002 0.000000 0.000000 0.000000 1.754022
    17 3.899461 -0.431806 0.168225 -0.132734 0.068204 -0.323656
    18 1.506962 0.000000 0.000004 0.000000 0.000000 1.204255
    19 1.506963 0.000000 -0.000003 0.000000 0.000000 1.160623
    20 3.915638 -0.278022 1.402609 -0.181907 0.018780 -0.320480
    21 1.333084 -0.000001 0.000000 0.000000 0.000000 1.003545
    22 1.159205 -0.000001 0.000000 0.000000 0.000000 1.605682
    23 5.024290 0.657701 -3.490760 -1.802628 -1.194217 -3.096992
    24 -1.482696 0.881223 0.000000 0.000000 0.000000 0.000000
    25 0.000005 0.011451 -1.352403 -1.108394 1.144268 2.070907
    26 6.078086 -0.000002 0.000001 1.197553 0.022896 -1.197019
    27 13.446750 -0.000001 -0.000001 0.000000 0.000000 -0.103395
    28 15.996998 -0.000002 0.000000 1.508097 0.142885 -0.805316
    29 1.885326 0.833276 2.177874 1.190812 -0.665733 0.439791
    30 1.506963 -0.000002 0.000002 0.000000 0.000000 -0.149131
    31 0.798350 0.000002 0.000000 0.000000 0.000000 -0.752853
    32 3.950299 -0.539876 2.108874 -0.194027 -0.394710 -0.362672
    33 1.545799 -0.000001 -0.000001 0.000000 0.000000 0.598959
    34 1.667397 -0.000001 0.000000 0.000000 0.000000 0.127726
    35 3.899456 -0.475376 1.170889 0.000688 0.000407 -0.539055
    36 1.528219 0.000001 0.000002 0.000000 0.000000 1.145171
    37 1.528215 -0.000002 -0.000001 0.000000 0.000000 0.220164
    38 3.899457 -0.431804 -0.168226 0.000796 -0.000012 0.016242
    39 1.506966 0.000000 0.000002 0.000000 0.000000 1.133272
    40 1.506963 0.000002 -0.000003 0.000000 0.000000 0.888913
    41 3.915632 -0.278020 -1.402608 0.002282 0.005801 0.021780
    42 1.333083 0.000000 0.000004 0.000000 0.000000 1.540251
    43 1.159203 -0.000004 -0.000003 0.000000 0.000000 0.702484
    44 6.394357 2.457028 2.877110 -0.545644 -0.056807 1.454689
    45 -2.686406 2.279087 1.265269 1.570796 0.000000 1.570796
  time 3
    0 0.135014 8.526284 -24.816700 0.000000 0.000000 -1.570842
    1 0.000001 0.000000 0.000000 -0.000086 -1.570451 -1.570709
    2 4.443613 -0.009641 0.000006 -0.000004 -0.000001 0.000796
    3 12.111416 -0.011447 0.000000 0.000000 0.000000 0.000000
    4 0.000007 0.011445 1.352404 -0.000014 -1.370796 3.140810
    5 6.078087 0.000002 -0.000001 -0.806597 0.506170 -1.141110
    6 13.446747 -0.000003 0.000002 0.000000 0.000000 -1.161927
    7 15.997000 0.000000 0.000000 -1.316934 0.000000 0.000000
    8 1.885329 0.833275 -2.177875 -1.564651 0.803225 0.045485
    9 1.506967 -0.000001 -0.000001 0.000000 0.000000 -0.061091
    10 0.798342 -0.000001 0.000003 0.000000 0.000000 0.314152
    11 3.950307 -0.539878 -2.108872 -0.011041 0.357426 -0.064196
    12 1.545797 -0.000003 0.000002 0.000000 0.000000 0.837746
    13 1.667397 0.000004 -0.000005 0.000000 0.000000 0.532312
    14 3.899461 -0.475377 -1.170889 -0.245101 0.070050 0.305373
    15 1.528216 0.000002 0.000000 0.000000 0.000000 0.488691
    16 1.528214 -0.000002 0.000000 0.000000 0.000000 1.754022
    17 3.899461 -0.431806 0.168225 -0.132734 0.068204 -0.323656
    18 1.506962 0.000000 0.000004 0.000000 0.000000 1.204255
    19 1.506963 0.000000 -0.000003 0.000000 0.000000 1.160623
    20 3.915638 -0.278022 1.402609 -0.181907 0.018780 -0.320480
    21 1.333084 -0.000001 0.000000 0.000000 0.000000 1.003545
    22 1.159205 -0.000001 0.000000 0.000000 0.000000 1.605682
    23 5.024290 0.657701 -3.490760 -1.802628 -1.194217 -3.096992
    24 -1.482696 0.881223 0.000000 0.000000 0.000000 0.000000
    25 0.000005 0.011451 -1.352403 -1.257043 0.989625 1.940281
    26 6.078086 -0.000002 0.000001 1.168657 0.129146 -1.067965
    27 13.446750 -0.000001 -0.000001 0.000000 0.000000 -0.009753
    28 15.996998 -0.000002 0.000000 1.425556 0.184117 -0.876229
    29 1.885326 0.833276 2.177874 1.190269 -0.667488 0.440672
    30 1.506963 -0.000002 0.000002 0.000000 0.000000 -0.150327
    31 0.798350 0.000002 0.000000 0.000000 0.000000 -0.755341
    32 3.950299 -0.539876 2.108874 -0.193105 -0.396292 -0.364517
    33 1.545799 -0.000001 -0.000001 0.000000 0.000000 0.599654
    34 1.667397 -0.000001 0.000000 0.000000 0.000000 0.128423
    35 3.899456 -0.475376 1.170889 0.000688 0.000407 -0.538799
    36 1.528219 0.000001 0.000002 0.000000 0.000000 1.145397
    37 1.528215 -0.000002 -0.000001 0.000000 0.000000 0.220414
    38 3.899457 -0.431804 -0.168226 0.000796 -0.000012 0.018281
    39 1.506966 0.000000 0.000002 0.000000 0.000000 1.135288
    40 1.506963 0.000002 -0.000003 0.000000 0.000000 0.890945
    41 3.915632 -0.278020 -1.402608 0.002474 0.006520 0.024513
    42 1.333083 0.000000 0.000004 0.000000 0.000000 1.542974
    43 1.159203 -0.000004 -0.000003 0.000000 0.000000 0.705211
    44 6.663896 2.593751 2.486473 -0.546168 -0.194115 1.497827
    45 -2.686406 2.279087 1.265269 1.570796 0.000000 1.570796
  time 4
    0 0.135014 8.526284 -24.816700 0.000000 0.000000 -1.570842
    1 0.000001 0.000000 0.000000 -0.000086 -1.570451 -1.570709
    2 4.443613 -0.009641 0.000006 -0.000004 -0.000001 0.000796
    3 12.111416 -0.011447 0.000000 0.000000 0.000000 0.000000
    4 0.000007 0.011445 1.352404 -0.000014 -1.370796 3.140810
    5 6.078087 0.000002 -0.000001 -0.803637 0.504901 -1.134819
    6 13.446747 -0.000003 0.000002 0.000000 0.000000 -1.161927
    7 15.997000 0.000000 0.000000 -1.316934 0.000000 0.000000
    8 1.885329 0.833275 -2.177875 -1.564663 0.803225 0.045485
    9 1.506967 -0.000001 -0.000001 0.000000 0.000000 -0.061091
    10 0.798342 -0.000001 0.000003 0.000000 0.000000 0.314152
    11 3.950307 -0.539878 -2.108872 -0.011041 0.357426 -0.064196
    12 1.545797 -0.000003 0.000002 0.000000 0.000000 0.837746
    13 1.667397 0.000004 -0.000005 0.000000 0.000000 0.532312
    14 3.899461 -0.475377 -1.170889 -0.245101 0.070050 0.305373
    15 1.528216 0.000002 0.000000 0.000000 0.000000 0.488691
    16 1.528214 -0.000002 0.000000 0.000000 0.000000 1.754022
    17 3.899461 -0.431806 0.168225 -0.132734 0.068204 -0.323656
    18 1.506962 0.000000 0.000004 0.000000 0.000000 1.204255
    19 1.506963 0.000000 -0.000003 0.000000 0.000000 1.160623
    20 3.915638 -0.278022 1.402609 -0.181907 0.018780 -0.320480
    21 1.333084 -0.000001 0.000000 0.000000 0.000000 1.003545
    22 1.159205 -0.000001 0.000000 0.000000 0.000000 1.605682
    23 5.024290 0.657701 -3.490760 -1.802628 -1.194217 -3.096992
    24 -1.482696 0.881223 0.000000 0.000000 0.000000 0.000000
    25 0.000005 0.011451 -1.352403 -1.317431 0.890749 1.891453
    26 6.078086 -0.000002 0.000001 1.152478 0.166358 -0.977177
    27 13.446750 -0.000001 -0.000001 0.000000 0.000000 -0.002095
    28 15.996998 -0.000002 0.000000 1.339419 0.206603 -0.921959
    29 1.885326 0.833276 2.177874 1.195118 -0.651728 0.432758
    30 1.506963 -0.000002 0.000002 0.000000 0.000000 -0.139626
    31 0.798350 0.000002 0.000000 0.000000 0.000000 -0.733034
    32 3.950299 -0.539876 2.108874 -0.201314 -0.381983 -0.348015
    33 1.545799 -0.000001 -0.000001 0.000000 0.000000 0.593410
    34 1.667397 -0.000001 0.000000 0.000000 0.000000 0.122173
    35 3.899456 -0.475376 1.170889 0.000688 0.000407 -0.541050
    36 1.528219 0.000001 0.000002 0.000000 0.000000 1.143173
    37 1.528215 -0.000002 -0.000001 0.000000 0.000000 0.218185
    38 3.899457 -0.431804 -0.168226 0.000796 0.000000 0.000000
    39 1.506966 0.000000 0.000002 0.000000 0.000000 1.117007
    40 1.506963 0.000002 -0.000003 0.000000 0.000000 0.872659
    41 3.915632 -0.278020 -1.402608 0.000796 0.000000 0.000000
    42 1.333083 0.000000 0.000004 0.000000 0.000000 1.518410
    43 1.159203 -0.000004 -0.000003 0.000000 0.000000 0.680671
    44 6.933436 2.726568 2.099743 -0.552953 -0.331266 1.542664
    45 -2.686406 2.279087 1.265269 1.570796 0.000000 1.570796
end
