// Created by Crowbar 0.68
version 1
nodes
  0 "Bip01" -1
  1 "Bip01 Pelvis" 0
  2 "Bip01 Spine" 1
  3 "Bip01 Neck" 2
  4 "Bip01 L Clavicle" 3
  5 "Bip01 L UpperArm" 4
  6 "Bip01 L Forearm" 5
  7 "Bip01 L Hand" 6
  8 "Bip01 L Finger0" 7
  9 "Bip01 L Finger01" 8
  10 "Bip01 L Finger02" 9
  11 "Bip01 L Finger1" 7
  12 "Bip01 L Finger11" 11
  13 "Bip01 L Finger12" 12
  14 "Bip01 L Finger2" 7
  15 "Bip01 L Finger21" 14
  16 "Bip01 L Finger22" 15
  17 "Bip01 L Finger3" 7
  18 "Bip01 L Finger31" 17
  19 "Bip01 L Finger32" 18
  20 "Bip01 L Finger4" 7
  21 "Bip01 L Finger41" 20
  22 "Bip01 L Finger42" 21
  23 "Dummy16" 7
  24 "Dummy15" 23
  25 "Bip01 R Clavicle" 3
  26 "Bip01 R UpperArm" 25
  27 "Bip01 R Forearm" 26
  28 "Bip01 R Hand" 27
  29 "Bip01 R Finger0" 28
  30 "Bip01 R Finger01" 29
  31 "Bip01 R Finger02" 30
  32 "Bip01 R Finger1" 28
  33 "Bip01 R Finger11" 32
  34 "Bip01 R Finger12" 33
  35 "Bip01 R Finger2" 28
  36 "Bip01 R Finger21" 35
  37 "Bip01 R Finger22" 36
  38 "Bip01 R Finger3" 28
  39 "Bip01 R Finger31" 38
  40 "Bip01 R Finger32" 39
  41 "Bip01 R Finger4" 28
  42 "Bip01 R Finger41" 41
  43 "Bip01 R Finger42" 42
  44 "Dummy14" 28
  45 "Dummy18" 44
end
skeleton
  time 0
    0 0.135014 8.526284 -24.816700 0.000000 0.000000 -1.570842
    1 0.000001 0.000000 0.000000 -0.000086 -1.570451 -1.570709
    2 4.443613 -0.009641 0.000006 -0.000004 -0.000001 0.000796
    3 12.111416 -0.011447 0.000000 0.000000 0.000000 0.000000
    4 0.000007 0.011445 1.352404 -0.000014 -1.370796 3.140810
    5 6.078087 0.000002 -0.000001 -0.285356 1.013177 -0.369371
    6 13.446752 -0.000001 -0.000002 0.000000 0.000000 -1.161927
    7 15.997001 -0.000001 0.000002 -1.683446 0.000000 0.000000
    8 1.885327 0.833277 -2.177876 -1.564651 0.803225 0.045485
    9 1.506965 0.000000 0.000001 0.000000 0.000000 -0.061091
    10 0.798347 0.000000 0.000001 0.000000 0.000000 0.314152
    11 3.950303 -0.539875 -2.108871 -0.011041 0.357426 -0.064196
    12 1.545796 -0.000002 0.000007 0.000000 0.000000 0.837746
    13 1.667399 0.000000 -0.000006 0.000000 0.000000 0.532312
    14 3.899459 -0.475376 -1.170889 -0.245101 0.070050 0.305373
    15 1.528217 0.000000 0.000002 0.000000 0.000000 0.488691
    16 1.528215 -0.000001 -0.000003 0.000000 0.000000 1.754022
    17 3.899458 -0.431803 0.168226 -0.132734 0.068204 -0.323656
    18 1.506964 0.000001 0.000004 0.000000 0.000000 1.204255
    19 1.506963 0.000000 -0.000003 0.000000 0.000000 1.160623
    20 3.915633 -0.278020 1.402606 -0.181907 0.018780 -0.320480
    21 1.333084 -0.000001 -0.000001 0.000000 0.000000 1.003545
    22 1.159203 0.000002 0.000000 0.000000 0.000000 1.605682
    23 5.024290 0.657701 -3.490760 -1.802628 -1.194217 -3.096992
    24 -1.482695 0.881217 0.000000 0.000000 0.000000 0.000000
    25 0.000005 0.011451 -1.352403 -0.000014 1.370796 3.140783
    26 6.078086 -0.000002 0.000001 1.260999 -0.238987 -1.482248
    27 13.446750 -0.000001 -0.000001 0.000000 0.000000 -0.342533
    28 15.996998 -0.000002 0.000000 1.659515 0.034344 -0.659831
    29 1.885326 0.833276 2.177874 1.195118 -0.651728 0.432758
    30 1.506963 -0.000002 0.000002 0.000000 0.000000 -0.139626
    31 0.798350 0.000002 0.000000 0.000000 0.000000 -0.733034
    32 3.950299 -0.539876 2.108874 -0.201314 -0.381983 -0.348015
    33 1.545799 -0.000001 -0.000001 0.000000 0.000000 0.593410
    34 1.667397 -0.000001 0.000000 0.000000 0.000000 0.122173
    35 3.899456 -0.475376 1.170889 0.000688 0.000407 -0.541050
    36 1.528219 0.000001 0.000002 0.000000 0.000000 1.143173
    37 1.528215 -0.000002 -0.000001 0.000000 0.000000 0.218185
    38 3.899457 -0.431804 -0.168226 0.000796 0.000000 0.000000
    39 1.506966 0.000000 0.000002 0.000000 0.000000 1.117007
    40 1.506963 0.000002 -0.000003 0.000000 0.000000 0.872659
    41 3.915632 -0.278020 -1.402608 0.000796 0.000000 0.000000
    42 1.333083 0.000000 0.000004 0.000000 0.000000 1.518410
    43 1.159203 -0.000004 -0.000003 0.000000 0.000000 0.680671
    44 6.394357 2.457028 2.877110 -0.545644 -0.056807 1.454689
    45 -2.686406 2.279085 1.265268 1.570796 0.000000 1.570796
  time 1
    0 0.135014 8.526284 -24.816700 0.000000 0.000000 -1.570842
    1 0.000001 0.000000 0.000000 -0.000086 -1.570451 -1.570709
    2 4.443613 -0.009641 0.000006 -0.000004 -0.000001 0.000796
    3 12.111416 -0.011447 0.000000 0.000000 0.000000 0.000000
    4 0.000007 0.011445 1.352404 -0.000014 -1.370796 3.140810
    5 6.078087 0.000002 -0.000001 -0.285027 1.013283 -0.368982
    6 13.446752 -0.000001 -0.000002 0.000000 0.000000 -1.161927
    7 15.997001 -0.000001 0.000002 -1.670957 0.000000 0.000000
    8 1.885327 0.833277 -2.177876 -1.564651 0.803225 0.045485
    9 1.506965 0.000000 0.000001 0.000000 0.000000 -0.061091
    10 0.798347 0.000000 0.000001 0.000000 0.000000 0.314152
    11 3.950303 -0.539875 -2.108871 -0.011041 0.357426 -0.064196
    12 1.545796 -0.000002 0.000007 0.000000 0.000000 0.837746
    13 1.667399 0.000000 -0.000006 0.000000 0.000000 0.532312
    14 3.899459 -0.475376 -1.170889 -0.245101 0.070050 0.305373
    15 1.528217 0.000000 0.000002 0.000000 0.000000 0.488691
    16 1.528215 -0.000001 -0.000003 0.000000 0.000000 1.754022
    17 3.899458 -0.431803 0.168226 -0.132734 0.068204 -0.323656
    18 1.506964 0.000001 0.000004 0.000000 0.000000 1.204255
    19 1.506963 0.000000 -0.000003 0.000000 0.000000 1.160623
    20 3.915633 -0.278020 1.402606 -0.181907 0.018780 -0.320480
    21 1.333084 -0.000001 -0.000001 0.000000 0.000000 1.003545
    22 1.159203 0.000002 0.000000 0.000000 0.000000 1.605682
    23 5.024290 0.657701 -3.490760 -1.802628 -1.194217 -3.096992
    24 -1.482695 0.881217 0.000000 0.000000 0.000000 0.000000
    25 0.000005 0.011451 -1.352403 0.001744 1.370796 3.142475
    26 6.078086 -0.000002 0.000001 1.264178 -0.238847 -1.482904
    27 13.446750 -0.000001 -0.000001 0.000000 0.000000 -0.341111
    28 15.996998 -0.000002 0.000000 1.662391 0.036090 -0.661386
    29 1.885326 0.833276 2.177874 1.195118 -0.651728 0.432758
    30 1.506963 -0.000002 0.000002 0.000000 0.000000 -0.139626
    31 0.798350 0.000002 0.000000 0.000000 0.000000 -0.733034
    32 3.950299 -0.539876 2.108874 -0.201314 -0.381983 -0.348015
    33 1.545799 -0.000001 -0.000001 0.000000 0.000000 0.593410
    34 1.667397 -0.000001 0.000000 0.000000 0.000000 0.122173
    35 3.899456 -0.475376 1.170889 0.000688 0.000407 -0.541050
    36 1.528219 0.000001 0.000002 0.000000 0.000000 1.143173
    37 1.528215 -0.000002 -0.000001 0.000000 0.000000 0.218185
    38 3.899457 -0.431804 -0.168226 0.000796 0.000000 0.000000
    39 1.506966 0.000000 0.000002 0.000000 0.000000 1.117007
    40 1.506963 0.000002 -0.000003 0.000000 0.000000 0.872659
    41 3.915632 -0.278020 -1.402608 0.000796 0.000000 0.000000
    42 1.333083 0.000000 0.000004 0.000000 0.000000 1.518410
    43 1.159203 -0.000004 -0.000003 0.000000 0.000000 0.680671
    44 6.394357 2.457028 2.877110 -0.545644 -0.056807 1.454689
    45 -2.686406 2.279085 1.265268 1.570796 0.000000 1.570796
  time 2
    0 0.135014 8.526284 -24.816700 0.000000 0.000000 -1.570842
    1 0.000001 0.000000 0.000000 -0.000086 -1.570451 -1.570709
    2 4.443613 -0.009641 0.000006 -0.000004 -0.000001 0.000796
    3 12.111416 -0.011447 0.000000 0.000000 0.000000 0.000000
    4 0.000007 0.011445 1.352404 -0.000014 -1.370796 3.140810
    5 6.078087 0.000002 -0.000001 -0.284095 1.013565 -0.367815
    6 13.446752 -0.000001 -0.000002 0.000000 0.000000 -1.161927
    7 15.997001 -0.000001 0.000002 -1.657973 0.000000 0.000000
    8 1.885327 0.833277 -2.177876 -1.564651 0.803225 0.045485
    9 1.506965 0.000000 0.000001 0.000000 0.000000 -0.061091
    10 0.798347 0.000000 0.000001 0.000000 0.000000 0.314152
    11 3.950303 -0.539875 -2.108871 -0.011041 0.357426 -0.064196
    12 1.545796 -0.000002 0.000007 0.000000 0.000000 0.837746
    13 1.667399 0.000000 -0.000006 0.000000 0.000000 0.532312
    14 3.899459 -0.475376 -1.170889 -0.245101 0.070050 0.305373
    15 1.528217 0.000000 0.000002 0.000000 0.000000 0.488691
    16 1.528215 -0.000001 -0.000003 0.000000 0.000000 1.754022
    17 3.899458 -0.431803 0.168226 -0.132734 0.068204 -0.323656
    18 1.506964 0.000001 0.000004 0.000000 0.000000 1.204255
    19 1.506963 0.000000 -0.000003 0.000000 0.000000 1.160623
    20 3.915633 -0.278020 1.402606 -0.181907 0.018780 -0.320480
    21 1.333084 -0.000001 -0.000001 0.000000 0.000000 1.003545
    22 1.159203 0.000002 0.000000 0.000000 0.000000 1.605682
    23 5.024290 0.657701 -3.490760 -1.802628 -1.194217 -3.096992
    24 -1.482695 0.881217 0.000000 0.000000 0.000000 0.000000
    25 0.000005 0.011451 -1.352403 0.006012 1.370796 3.146685
    26 6.078086 -0.000002 0.000001 1.272303 -0.238042 -1.486427
    27 13.446750 -0.000001 -0.000001 0.000000 0.000000 -0.337556
    28 15.996998 -0.000002 0.000000 1.661592 0.040346 -0.665136
    29 1.885326 0.833276 2.177874 1.195118 -0.651728 0.432758
    30 1.506963 -0.000002 0.000002 0.000000 0.000000 -0.139626
    31 0.798350 0.000002 0.000000 0.000000 0.000000 -0.733034
    32 3.950299 -0.539876 2.108874 -0.201314 -0.381983 -0.348015
    33 1.545799 -0.000001 -0.000001 0.000000 0.000000 0.593410
    34 1.667397 -0.000001 0.000000 0.000000 0.000000 0.122173
    35 3.899456 -0.475376 1.170889 0.000688 0.000407 -0.541050
    36 1.528219 0.000001 0.000002 0.000000 0.000000 1.143173
    37 1.528215 -0.000002 -0.000001 0.000000 0.000000 0.218185
    38 3.899457 -0.431804 -0.168226 0.000796 0.000000 0.000000
    39 1.506966 0.000000 0.000002 0.000000 0.000000 1.117007
    40 1.506963 0.000002 -0.000003 0.000000 0.000000 0.872659
    41 3.915632 -0.278020 -1.402608 0.000796 0.000000 0.000000
    42 1.333083 0.000000 0.000004 0.000000 0.000000 1.518410
    43 1.159203 -0.000004 -0.000003 0.000000 0.000000 0.680671
    44 6.394357 2.457028 2.877110 -0.545644 -0.056807 1.454689
    45 -2.686406 2.279085 1.265268 1.570796 0.000000 1.570796
  time 3
    0 0.135014 8.526284 -24.816700 0.000000 0.000000 -1.570842
    1 0.000001 0.000000 0.000000 -0.000086 -1.570451 -1.570709
    2 4.443613 -0.009641 0.000006 -0.000004 -0.000001 0.000796
    3 12.111416 -0.011447 0.000000 0.000000 0.000000 0.000000
    4 0.000007 0.011445 1.352404 -0.000014 -1.370796 3.140810
    5 6.078087 0.000002 -0.000001 -0.282560 1.013988 -0.365934
    6 13.446752 -0.000001 -0.000002 0.000000 0.000000 -1.161927
    7 15.997001 -0.000001 0.000002 -1.644495 0.000000 0.000000
    8 1.885327 0.833277 -2.177876 -1.564651 0.803225 0.045485
    9 1.506965 0.000000 0.000001 0.000000 0.000000 -0.061091
    10 0.798347 0.000000 0.000001 0.000000 0.000000 0.314152
    11 3.950303 -0.539875 -2.108871 -0.011041 0.357426 -0.064196
    12 1.545796 -0.000002 0.000007 0.000000 0.000000 0.837746
    13 1.667399 0.000000 -0.000006 0.000000 0.000000 0.532312
    14 3.899459 -0.475376 -1.170889 -0.245101 0.070050 0.305373
    15 1.528217 0.000000 0.000002 0.000000 0.000000 0.488691
    16 1.528215 -0.000001 -0.000003 0.000000 0.000000 1.754022
    17 3.899458 -0.431803 0.168226 -0.132734 0.068204 -0.323656
    18 1.506964 0.000001 0.000004 0.000000 0.000000 1.204255
    19 1.506963 0.000000 -0.000003 0.000000 0.000000 1.160623
    20 3.915633 -0.278020 1.402606 -0.181907 0.018780 -0.320480
    21 1.333084 -0.000001 -0.000001 0.000000 0.000000 1.003545
    22 1.159203 0.000002 0.000000 0.000000 0.000000 1.605682
    23 5.024290 0.657701 -3.490760 -1.802628 -1.194217 -3.096992
    24 -1.482695 0.881217 0.000000 0.000000 0.000000 0.000000
    25 0.000005 0.011451 -1.352403 0.011327 1.370796 3.151878
    26 6.078086 -0.000002 0.000001 1.282477 -0.236923 -1.491016
    27 13.446750 -0.000001 -0.000001 0.000000 0.000000 -0.333180
    28 15.996998 -0.000002 0.000000 1.659275 0.045611 -0.669770
    29 1.885326 0.833276 2.177874 1.195118 -0.651728 0.432758
    30 1.506963 -0.000002 0.000002 0.000000 0.000000 -0.139626
    31 0.798350 0.000002 0.000000 0.000000 0.000000 -0.733034
    32 3.950299 -0.539876 2.108874 -0.201314 -0.381983 -0.348015
    33 1.545799 -0.000001 -0.000001 0.000000 0.000000 0.593410
    34 1.667397 -0.000001 0.000000 0.000000 0.000000 0.122173
    35 3.899456 -0.475376 1.170889 0.000688 0.000407 -0.541050
    36 1.528219 0.000001 0.000002 0.000000 0.000000 1.143173
    37 1.528215 -0.000002 -0.000001 0.000000 0.000000 0.218185
    38 3.899457 -0.431804 -0.168226 0.000796 0.000000 0.000000
    39 1.506966 0.000000 0.000002 0.000000 0.000000 1.117007
    40 1.506963 0.000002 -0.000003 0.000000 0.000000 0.872659
    41 3.915632 -0.278020 -1.402608 0.000796 0.000000 0.000000
    42 1.333083 0.000000 0.000004 0.000000 0.000000 1.518410
    43 1.159203 -0.000004 -0.000003 0.000000 0.000000 0.680671
    44 6.394357 2.457028 2.877110 -0.545644 -0.056807 1.454689
    45 -2.686406 2.279085 1.265268 1.570796 0.000000 1.570796
  time 4
    0 0.135014 8.526284 -24.816700 0.000000 0.000000 -1.570842
    1 0.000001 0.000000 0.000000 -0.000086 -1.570451 -1.570709
    2 4.443613 -0.009641 0.000006 -0.000004 -0.000001 0.000796
    3 12.111416 -0.011447 0.000000 0.000000 0.000000 0.000000
    4 0.000007 0.011445 1.352404 -0.000014 -1.370796 3.140810
    5 6.078087 0.000002 -0.000001 -0.280586 1.014587 -0.363469
    6 13.446752 -0.000001 -0.000002 0.000000 0.000000 -1.161927
    7 15.997001 -0.000001 0.000002 -1.630654 0.000000 0.000000
    8 1.885327 0.833277 -2.177876 -1.564651 0.803225 0.045485
    9 1.506965 0.000000 0.000001 0.000000 0.000000 -0.061091
    10 0.798347 0.000000 0.000001 0.000000 0.000000 0.314152
    11 3.950303 -0.539875 -2.108871 -0.011041 0.357426 -0.064196
    12 1.545796 -0.000002 0.000007 0.000000 0.000000 0.837746
    13 1.667399 0.000000 -0.000006 0.000000 0.000000 0.532312
    14 3.899459 -0.475376 -1.170889 -0.245101 0.070050 0.305373
    15 1.528217 0.000000 0.000002 0.000000 0.000000 0.488691
    16 1.528215 -0.000001 -0.000003 0.000000 0.000000 1.754022
    17 3.899458 -0.431803 0.168226 -0.132734 0.068204 -0.323656
    18 1.506964 0.000001 0.000004 0.000000 0.000000 1.204255
    19 1.506963 0.000000 -0.000003 0.000000 0.000000 1.160623
    20 3.915633 -0.278020 1.402606 -0.181907 0.018780 -0.320480
    21 1.333084 -0.000001 -0.000001 0.000000 0.000000 1.003545
    22 1.159203 0.000002 0.000000 0.000000 0.000000 1.605682
    23 5.024290 0.657701 -3.490760 -1.802628 -1.194217 -3.096992
    24 -1.482695 0.881217 0.000000 0.000000 0.000000 0.000000
    25 0.000005 0.011451 -1.352403 0.016098 1.370778 3.156600
    26 6.078086 -0.000002 0.000001 1.291661 -0.235909 -1.495112
    27 13.446750 -0.000001 -0.000001 0.000000 0.000000 -0.329242
    28 15.996998 -0.000002 0.000000 1.657677 0.050359 -0.673977
    29 1.885326 0.833276 2.177874 1.195118 -0.651728 0.432758
    30 1.506963 -0.000002 0.000002 0.000000 0.000000 -0.139626
    31 0.798350 0.000002 0.000000 0.000000 0.000000 -0.733034
    32 3.950299 -0.539876 2.108874 -0.201314 -0.381983 -0.348015
    33 1.545799 -0.000001 -0.000001 0.000000 0.000000 0.593410
    34 1.667397 -0.000001 0.000000 0.000000 0.000000 0.122173
    35 3.899456 -0.475376 1.170889 0.000688 0.000407 -0.541050
    36 1.528219 0.000001 0.000002 0.000000 0.000000 1.143173
    37 1.528215 -0.000002 -0.000001 0.000000 0.000000 0.218185
    38 3.899457 -0.431804 -0.168226 0.000796 0.000000 0.000000
    39 1.506966 0.000000 0.000002 0.000000 0.000000 1.117007
    40 1.506963 0.000002 -0.000003 0.000000 0.000000 0.872659
    41 3.915632 -0.278020 -1.402608 0.000796 0.000000 0.000000
    42 1.333083 0.000000 0.000004 0.000000 0.000000 1.518410
    43 1.159203 -0.000004 -0.000003 0.000000 0.000000 0.680671
    44 6.394357 2.457028 2.877110 -0.545644 -0.056807 1.454689
    45 -2.686406 2.279085 1.265268 1.570796 0.000000 1.570796
  time 5
    0 0.135014 8.526284 -24.816700 0.000000 0.000000 -1.570842
    1 0.000001 0.000000 0.000000 -0.000086 -1.570451 -1.570709
    2 4.443613 -0.009641 0.000006 -0.000004 -0.000001 0.000796
    3 12.111416 -0.011447 0.000000 0.000000 0.000000 0.000000
    4 0.000007 0.011445 1.352404 -0.000014 -1.370796 3.140810
    5 6.078087 0.000002 -0.000001 -0.278174 1.015292 -0.360486
    6 13.446752 -0.000001 -0.000002 0.000000 0.000000 -1.161927
    7 15.997001 -0.000001 0.000002 -1.616451 0.000000 0.000000
    8 1.885327 0.833277 -2.177876 -1.564663 0.803225 0.045485
    9 1.506965 0.000000 0.000001 0.000000 0.000000 -0.061091
    10 0.798347 0.000000 0.000001 0.000000 0.000000 0.314152
    11 3.950303 -0.539875 -2.108871 -0.011041 0.357426 -0.064196
    12 1.545796 -0.000002 0.000007 0.000000 0.000000 0.837746
    13 1.667399 0.000000 -0.000006 0.000000 0.000000 0.532312
    14 3.899459 -0.475376 -1.170889 -0.245101 0.070050 0.305373
    15 1.528217 0.000000 0.000002 0.000000 0.000000 0.488691
    16 1.528215 -0.000001 -0.000003 0.000000 0.000000 1.754022
    17 3.899458 -0.431803 0.168226 -0.132734 0.068204 -0.323656
    18 1.506964 0.000001 0.000004 0.000000 0.000000 1.204255
    19 1.506963 0.000000 -0.000003 0.000000 0.000000 1.160623
    20 3.915633 -0.278020 1.402606 -0.181907 0.018780 -0.320480
    21 1.333084 -0.000001 -0.000001 0.000000 0.000000 1.003545
    22 1.159203 0.000002 0.000000 0.000000 0.000000 1.605682
    23 5.024290 0.657701 -3.490760 -1.802628 -1.194217 -3.096992
    24 -1.482695 0.881217 0.000000 0.000000 0.000000 0.000000
    25 0.000005 0.011451 -1.352403 0.018860 1.370778 3.159315
    26 6.078086 -0.000002 0.000001 1.296890 -0.235454 -1.496833
    27 13.446750 -0.000001 -0.000001 0.000000 0.000000 -0.326999
    28 15.996998 -0.000002 0.000000 1.659075 0.053115 -0.676386
    29 1.885326 0.833276 2.177874 1.195118 -0.651728 0.432758
    30 1.506963 -0.000002 0.000002 0.000000 0.000000 -0.139626
    31 0.798350 0.000002 0.000000 0.000000 0.000000 -0.733034
    32 3.950299 -0.539876 2.108874 -0.201314 -0.381983 -0.348015
    33 1.545799 -0.000001 -0.000001 0.000000 0.000000 0.593410
    34 1.667397 -0.000001 0.000000 0.000000 0.000000 0.122187
    35 3.899456 -0.475376 1.170889 0.000688 0.000407 -0.541050
    36 1.528219 0.000001 0.000002 0.000000 0.000000 1.143173
    37 1.528215 -0.000002 -0.000001 0.000000 0.000000 0.218185
    38 3.899457 -0.431804 -0.168226 0.000796 0.000000 0.000000
    39 1.506966 0.000000 0.000002 0.000000 0.000000 1.117007
    40 1.506963 0.000002 -0.000003 0.000000 0.000000 0.872659
    41 3.915632 -0.278020 -1.402608 0.000796 0.000000 0.000000
    42 1.333083 0.000000 0.000004 0.000000 0.000000 1.518410
    43 1.159203 -0.000004 -0.000003 0.000000 0.000000 0.680671
    44 6.394357 2.457028 2.877110 -0.545644 -0.056807 1.454689
    45 -2.686406 2.279085 1.265268 1.570796 0.000000 1.570796
  time 6
    0 0.135014 8.526284 -24.816700 0.000000 0.000000 -1.570842
    1 0.000001 0.000000 0.000000 -0.000086 -1.570451 -1.570709
    2 4.443613 -0.009641 0.000006 -0.000004 -0.000001 0.000796
    3 12.111416 -0.011447 0.000000 0.000000 0.000000 0.000000
    4 0.000007 0.011445 1.352404 -0.000014 -1.370796 3.140810
    5 6.078087 0.000002 -0.000001 -0.275378 1.016068 -0.357113
    6 13.446752 -0.000001 -0.000002 0.000000 0.000000 -1.161927
    7 15.997001 -0.000001 0.000002 -1.601951 0.000000 0.000000
    8 1.885327 0.833277 -2.177876 -1.564651 0.803225 0.045485
    9 1.506965 0.000000 0.000001 0.000000 0.000000 -0.061091
    10 0.798347 0.000000 0.000001 0.000000 0.000000 0.314152
    11 3.950303 -0.539875 -2.108871 -0.011041 0.357426 -0.064196
    12 1.545796 -0.000002 0.000007 0.000000 0.000000 0.837746
    13 1.667399 0.000000 -0.000006 0.000000 0.000000 0.532312
    14 3.899459 -0.475376 -1.170889 -0.245101 0.070050 0.305373
    15 1.528217 0.000000 0.000002 0.000000 0.000000 0.488691
    16 1.528215 -0.000001 -0.000003 0.000000 0.000000 1.754022
    17 3.899458 -0.431803 0.168226 -0.132734 0.068204 -0.323656
    18 1.506964 0.000001 0.000004 0.000000 0.000000 1.204255
    19 1.506963 0.000000 -0.000003 0.000000 0.000000 1.160623
    20 3.915633 -0.278020 1.402606 -0.181907 0.018780 -0.320480
    21 1.333084 -0.000001 -0.000001 0.000000 0.000000 1.003545
    22 1.159203 0.000002 0.000000 0.000000 0.000000 1.605682
    23 5.024290 0.657701 -3.490760 -1.802628 -1.194217 -3.096992
    24 -1.482695 0.881217 0.000000 0.000000 0.000000 0.000000
    25 0.000005 0.011451 -1.352403 0.018107 1.370778 3.158567
    26 6.078086 -0.000002 0.000001 1.295123 -0.236084 -1.494621
    27 13.446750 -0.000001 -0.000001 0.000000 0.000000 -0.327601
    28 15.996998 -0.000002 0.000000 1.665627 0.052426 -0.675685
    29 1.885326 0.833276 2.177874 1.195118 -0.651728 0.432758
    30 1.506963 -0.000002 0.000002 0.000000 0.000000 -0.139626
    31 0.798350 0.000002 0.000000 0.000000 0.000000 -0.733034
    32 3.950299 -0.539876 2.108874 -0.201314 -0.381971 -0.348015
    33 1.545799 -0.000001 -0.000001 0.000000 0.000000 0.593410
    34 1.667397 -0.000001 0.000000 0.000000 0.000000 0.122173
    35 3.899456 -0.475376 1.170889 0.000688 0.000407 -0.541050
    36 1.528219 0.000001 0.000002 0.000000 0.000000 1.143173
    37 1.528215 -0.000002 -0.000001 0.000000 0.000000 0.218185
    38 3.899457 -0.431804 -0.168226 0.000796 0.000000 0.000000
    39 1.506966 0.000000 0.000002 0.000000 0.000000 1.117007
    40 1.506963 0.000002 -0.000003 0.000000 0.000000 0.872659
    41 3.915632 -0.278020 -1.402608 0.000796 0.000000 0.000000
    42 1.333083 0.000000 0.000004 0.000000 0.000000 1.518410
    43 1.159203 -0.000004 -0.000003 0.000000 0.000000 0.680671
    44 6.394357 2.457028 2.877110 -0.545644 -0.056807 1.454689
    45 -2.686406 2.279085 1.265268 1.570796 0.000000 1.570796
  time 7
    0 0.135014 8.526284 -24.816700 0.000000 0.000000 -1.570842
    1 0.000001 0.000000 0.000000 -0.000086 -1.570451 -1.570709
    2 4.443613 -0.009641 0.000006 -0.000004 -0.000001 0.000796
    3 12.111416 -0.011447 0.000000 0.000000 0.000000 0.000000
    4 0.000007 0.011445 1.352404 -0.000014 -1.370796 3.140810
    5 6.078087 0.000002 -0.000001 -0.272308 1.016949 -0.353352
    6 13.446752 -0.000001 -0.000002 0.000000 0.000000 -1.161927
    7 15.997001 -0.000001 0.000002 -1.587221 0.000000 0.000000
    8 1.885327 0.833277 -2.177876 -1.564651 0.803225 0.045485
    9 1.506965 0.000000 0.000001 0.000000 0.000000 -0.061091
    10 0.798347 0.000000 0.000001 0.000000 0.000000 0.314152
    11 3.950303 -0.539875 -2.108871 -0.011041 0.357426 -0.064196
    12 1.545796 -0.000002 0.000007 0.000000 0.000000 0.837746
    13 1.667399 0.000000 -0.000006 0.000000 0.000000 0.532312
    14 3.899459 -0.475376 -1.170889 -0.245101 0.070050 0.305373
    15 1.528217 0.000000 0.000002 0.000000 0.000000 0.488691
    16 1.528215 -0.000001 -0.000003 0.000000 0.000000 1.754022
    17 3.899458 -0.431803 0.168226 -0.132734 0.068204 -0.323656
    18 1.506964 0.000001 0.000004 0.000000 0.000000 1.204255
    19 1.506963 0.000000 -0.000003 0.000000 0.000000 1.160623
    20 3.915633 -0.278020 1.402606 -0.181907 0.018780 -0.320480
    21 1.333084 -0.000001 -0.000001 0.000000 0.000000 1.003545
    22 1.159203 0.000002 0.000000 0.000000 0.000000 1.605682
    23 5.024290 0.657701 -3.490760 -1.802628 -1.194217 -3.096992
    24 -1.482695 0.881217 0.000000 0.000000 0.000000 0.000000
    25 0.000005 0.011451 -1.352403 0.012332 1.370796 3.152862
    26 6.078086 -0.000002 0.000001 1.283325 -0.238147 -1.486673
    27 13.446750 -0.000001 -0.000001 0.000000 0.000000 -0.332360
    28 15.996998 -0.000002 0.000000 1.679611 0.046718 -0.670532
    29 1.885326 0.833276 2.177874 1.195118 -0.651728 0.432758
    30 1.506963 -0.000002 0.000002 0.000000 0.000000 -0.139626
    31 0.798350 0.000002 0.000000 0.000000 0.000000 -0.733034
    32 3.950299 -0.539876 2.108874 -0.201314 -0.381971 -0.348015
    33 1.545799 -0.000001 -0.000001 0.000000 0.000000 0.593410
    34 1.667397 -0.000001 0.000000 0.000000 0.000000 0.122173
    35 3.899456 -0.475376 1.170889 0.000688 0.000407 -0.541050
    36 1.528219 0.000001 0.000002 0.000000 0.000000 1.143173
    37 1.528215 -0.000002 -0.000001 0.000000 0.000000 0.218185
    38 3.899457 -0.431804 -0.168226 0.000796 0.000000 0.000000
    39 1.506966 0.000000 0.000002 0.000000 0.000000 1.117007
    40 1.506963 0.000002 -0.000003 0.000000 0.000000 0.872659
    41 3.915632 -0.278020 -1.402608 0.000796 0.000000 0.000000
    42 1.333083 0.000000 0.000004 0.000000 0.000000 1.518410
    43 1.159203 -0.000004 -0.000003 0.000000 0.000000 0.680671
    44 6.394357 2.457028 2.877110 -0.545644 -0.056807 1.454689
    45 -2.686406 2.279085 1.265268 1.570796 0.000000 1.570796
  time 8
    0 0.135014 8.526284 -24.816700 0.000000 0.000000 -1.570842
    1 0.000001 0.000000 0.000000 -0.000086 -1.570451 -1.570709
    2 4.443613 -0.009641 0.000006 -0.000004 -0.000001 0.000796
    3 12.111416 -0.011447 0.000000 0.000000 0.000000 0.000000
    4 0.000007 0.011445 1.352404 -0.000014 -1.370796 3.140810
    5 6.078087 0.000002 -0.000001 -0.269074 1.017866 -0.349330
    6 13.446752 -0.000001 -0.000002 0.000000 0.000000 -1.161927
    7 15.997001 -0.000001 0.000002 -1.572359 0.000000 0.000000
    8 1.885327 0.833277 -2.177876 -1.564651 0.803225 0.045485
    9 1.506965 0.000000 0.000001 0.000000 0.000000 -0.061091
    10 0.798347 0.000000 0.000001 0.000000 0.000000 0.314152
    11 3.950303 -0.539875 -2.108871 -0.011041 0.357426 -0.064196
    12 1.545796 -0.000002 0.000007 0.000000 0.000000 0.837746
    13 1.667399 0.000000 -0.000006 0.000000 0.000000 0.532312
    14 3.899459 -0.475376 -1.170889 -0.245101 0.070050 0.305373
    15 1.528217 0.000000 0.000002 0.000000 0.000000 0.488691
    16 1.528215 -0.000001 -0.000003 0.000000 0.000000 1.754022
    17 3.899458 -0.431803 0.168226 -0.132734 0.068204 -0.323656
    18 1.506964 0.000001 0.000004 0.000000 0.000000 1.204255
    19 1.506963 0.000000 -0.000003 0.000000 0.000000 1.160623
    20 3.915633 -0.278020 1.402606 -0.181907 0.018780 -0.320480
    21 1.333084 -0.000001 -0.000001 0.000000 0.000000 1.003545
    22 1.159203 0.000002 0.000000 0.000000 0.000000 1.605682
    23 5.024290 0.657701 -3.490760 -1.802628 -1.194217 -3.096992
    24 -1.482695 0.881217 0.000000 0.000000 0.000000 0.000000
    25 0.000005 0.011451 -1.352403 -0.000014 1.370796 3.140783
    26 6.078086 -0.000002 0.000001 1.258596 -0.241854 -1.471104
    27 13.446750 -0.000001 -0.000001 0.000000 0.000000 -0.342533
    28 15.996998 -0.000002 0.000000 1.703102 0.034344 -0.659831
    29 1.885326 0.833276 2.177874 1.195118 -0.651728 0.432758
    30 1.506963 -0.000002 0.000002 0.000000 0.000000 -0.139626
    31 0.798350 0.000002 0.000000 0.000000 0.000000 -0.733034
    32 3.950299 -0.539876 2.108874 -0.201314 -0.381983 -0.348015
    33 1.545799 -0.000001 -0.000001 0.000000 0.000000 0.593410
    34 1.667397 -0.000001 0.000000 0.000000 0.000000 0.122173
    35 3.899456 -0.475376 1.170889 0.000688 0.000407 -0.541050
    36 1.528219 0.000001 0.000002 0.000000 0.000000 1.143173
    37 1.528215 -0.000002 -0.000001 0.000000 0.000000 0.218185
    38 3.899457 -0.431804 -0.168226 0.000796 0.000000 0.000000
    39 1.506966 0.000000 0.000002 0.000000 0.000000 1.117007
    40 1.506963 0.000002 -0.000003 0.000000 0.000000 0.872659
    41 3.915632 -0.278020 -1.402608 0.000796 0.000000 0.000000
    42 1.333083 0.000000 0.000004 0.000000 0.000000 1.518410
    43 1.159203 -0.000004 -0.000003 0.000000 0.000000 0.680671
    44 6.394357 2.457028 2.877110 -0.545644 -0.056807 1.454689
    45 -2.686406 2.279085 1.265268 1.570796 0.000000 1.570796
  time 9
    0 0.135014 8.526284 -24.816700 0.000000 0.000000 -1.570842
    1 0.000001 0.000000 0.000000 -0.000086 -1.570451 -1.570709
    2 4.443613 -0.009641 0.000006 -0.000004 -0.000001 0.000796
    3 12.111416 -0.011447 0.000000 0.000000 0.000000 0.000000
    4 0.000007 0.011445 1.352404 -0.000014 -1.370796 3.140810
    5 6.078087 0.000002 -0.000001 -0.265620 1.018818 -0.345115
    6 13.446752 -0.000001 -0.000002 0.000000 0.000000 -1.161927
    7 15.997001 -0.000001 0.000002 -1.557332 0.000000 0.000000
    8 1.885327 0.833277 -2.177876 -1.564651 0.803225 0.045485
    9 1.506965 0.000000 0.000001 0.000000 0.000000 -0.061091
    10 0.798347 0.000000 0.000001 0.000000 0.000000 0.314152
    11 3.950303 -0.539875 -2.108871 -0.011041 0.357426 -0.064196
    12 1.545796 -0.000002 0.000007 0.000000 0.000000 0.837746
    13 1.667399 0.000000 -0.000006 0.000000 0.000000 0.532312
    14 3.899459 -0.475376 -1.170889 -0.245101 0.070050 0.305373
    15 1.528217 0.000000 0.000002 0.000000 0.000000 0.488691
    16 1.528215 -0.000001 -0.000003 0.000000 0.000000 1.754022
    17 3.899458 -0.431803 0.168226 -0.132734 0.068204 -0.323656
    18 1.506964 0.000001 0.000004 0.000000 0.000000 1.204255
    19 1.506963 0.000000 -0.000003 0.000000 0.000000 1.160623
    20 3.915633 -0.278020 1.402606 -0.181907 0.018780 -0.320480
    21 1.333084 -0.000001 -0.000001 0.000000 0.000000 1.003545
    22 1.159203 0.000002 0.000000 0.000000 0.000000 1.605682
    23 5.024290 0.657701 -3.490760 -1.802628 -1.194217 -3.096992
    24 -1.482695 0.881217 0.000000 0.000000 0.000000 0.000000
    25 0.000005 0.011451 -1.352403 -0.019390 1.370760 3.121779
    26 6.078086 -0.000002 0.000001 1.219102 -0.247765 -1.446850
    27 13.446750 -0.000001 -0.000001 0.000000 0.000000 -0.358505
    28 15.996998 -0.000002 0.000000 1.736742 0.014441 -0.643612
    29 1.885326 0.833276 2.177874 1.195118 -0.651728 0.432758
    30 1.506963 -0.000002 0.000002 0.000000 0.000000 -0.139626
    31 0.798350 0.000002 0.000000 0.000000 0.000000 -0.733034
    32 3.950299 -0.539876 2.108874 -0.201314 -0.381983 -0.348015
    33 1.545799 -0.000001 -0.000001 0.000000 0.000000 0.593410
    34 1.667397 -0.000001 0.000000 0.000000 0.000000 0.122173
    35 3.899456 -0.475376 1.170889 0.000688 0.000407 -0.541050
    36 1.528219 0.000001 0.000002 0.000000 0.000000 1.143173
    37 1.528215 -0.000002 -0.000001 0.000000 0.000000 0.218166
    38 3.899457 -0.431804 -0.168226 0.000796 0.000000 0.000000
    39 1.506966 0.000000 0.000002 0.000000 0.000000 1.117007
    40 1.506963 0.000002 -0.000003 0.000000 0.000000 0.872659
    41 3.915632 -0.278020 -1.402608 0.000796 0.000000 0.000000
    42 1.333083 0.000000 0.000004 0.000000 0.000000 1.518410
    43 1.159203 -0.000004 -0.000003 0.000000 0.000000 0.680671
    44 6.394357 2.457028 2.877110 -0.545644 -0.056807 1.454689
    45 -2.686406 2.279085 1.265268 1.570796 0.000000 1.570796
  time 10
    0 0.135014 8.526284 -24.816700 0.000000 0.000000 -1.570842
    1 0.000001 0.000000 0.000000 -0.000086 -1.570451 -1.570709
    2 4.443613 -0.009641 0.000006 -0.000004 -0.000001 0.000796
    3 12.111416 -0.011447 0.000000 0.000000 0.000000 0.000000
    4 0.000007 0.011445 1.352404 -0.000014 -1.370796 3.140810
    5 6.078087 0.000002 -0.000001 -0.262111 1.019805 -0.340834
    6 13.446752 -0.000001 -0.000002 0.000000 0.000000 -1.161927
    7 15.997001 -0.000001 0.000002 -1.542272 0.000000 0.000000
    8 1.885327 0.833277 -2.177876 -1.564651 0.803225 0.045485
    9 1.506965 0.000000 0.000001 0.000000 0.000000 -0.061091
    10 0.798347 0.000000 0.000001 0.000000 0.000000 0.314152
    11 3.950303 -0.539875 -2.108871 -0.011041 0.357426 -0.064196
    12 1.545796 -0.000002 0.000007 0.000000 0.000000 0.837746
    13 1.667399 0.000000 -0.000006 0.000000 0.000000 0.532312
    14 3.899459 -0.475376 -1.170889 -0.245101 0.070050 0.305373
    15 1.528217 0.000000 0.000002 0.000000 0.000000 0.488691
    16 1.528215 -0.000001 -0.000003 0.000000 0.000000 1.754022
    17 3.899458 -0.431803 0.168226 -0.132734 0.068204 -0.323656
    18 1.506964 0.000001 0.000004 0.000000 0.000000 1.204255
    19 1.506963 0.000000 -0.000003 0.000000 0.000000 1.160623
    20 3.915633 -0.278020 1.402606 -0.181907 0.018780 -0.320480
    21 1.333084 -0.000001 -0.000001 0.000000 0.000000 1.003545
    22 1.159203 0.000002 0.000000 0.000000 0.000000 1.605682
    23 5.024290 0.657701 -3.490760 -1.802628 -1.194217 -3.096992
    24 -1.482695 0.881217 0.000000 0.000000 0.000000 0.000000
    25 0.000005 0.011451 -1.352403 -0.044458 1.370614 3.097228
    26 6.078086 -0.000002 0.000001 1.167102 -0.255214 -1.414812
    27 13.446750 -0.000001 -0.000001 0.000000 0.000000 -0.379181
    28 15.996998 -0.000002 0.000000 1.778292 -0.012030 -0.623643
    29 1.885326 0.833276 2.177874 1.195118 -0.651728 0.432758
    30 1.506963 -0.000002 0.000002 0.000000 0.000000 -0.139626
    31 0.798350 0.000002 0.000000 0.000000 0.000000 -0.733034
    32 3.950299 -0.539876 2.108874 -0.201314 -0.381971 -0.348015
    33 1.545799 -0.000001 -0.000001 0.000000 0.000000 0.593410
    34 1.667397 -0.000001 0.000000 0.000000 0.000000 0.122173
    35 3.899456 -0.475376 1.170889 0.000688 0.000407 -0.541050
    36 1.528219 0.000001 0.000002 0.000000 0.000000 1.143173
    37 1.528215 -0.000002 -0.000001 0.000000 0.000000 0.218185
    38 3.899457 -0.431804 -0.168226 0.000796 0.000000 0.000000
    39 1.506966 0.000000 0.000002 0.000000 0.000000 1.117007
    40 1.506963 0.000002 -0.000003 0.000000 0.000000 0.872659
    41 3.915632 -0.278020 -1.402608 0.000796 0.000000 0.000000
    42 1.333083 0.000000 0.000004 0.000000 0.000000 1.518410
    43 1.159203 -0.000004 -0.000003 0.000000 0.000000 0.680671
    44 6.394357 2.457028 2.877110 -0.545644 -0.056807 1.454689
    45 -2.686406 2.279085 1.265268 1.570796 0.000000 1.570796
  time 11
    0 0.135014 8.526284 -24.816700 0.000000 0.000000 -1.570842
    1 0.000001 0.000000 0.000000 -0.000086 -1.570451 -1.570709
    2 4.443613 -0.009641 0.000006 -0.000004 -0.000001 0.000796
    3 12.111416 -0.011447 0.000000 0.000000 0.000000 0.000000
    4 0.000007 0.011445 1.352404 -0.000014 -1.370796 3.140810
    5 6.078087 0.000002 -0.000001 -0.258548 1.020756 -0.336489
    6 13.446752 -0.000001 -0.000002 0.000000 0.000000 -1.161927
    7 15.997001 -0.000001 0.000002 -1.527212 0.000000 0.000000
    8 1.885327 0.833277 -2.177876 -1.564651 0.803225 0.045485
    9 1.506965 0.000000 0.000001 0.000000 0.000000 -0.061091
    10 0.798347 0.000000 0.000001 0.000000 0.000000 0.314152
    11 3.950303 -0.539875 -2.108871 -0.011041 0.357426 -0.064196
    12 1.545796 -0.000002 0.000007 0.000000 0.000000 0.837746
    13 1.667399 0.000000 -0.000006 0.000000 0.000000 0.532312
    14 3.899459 -0.475376 -1.170889 -0.245101 0.070050 0.305373
    15 1.528217 0.000000 0.000002 0.000000 0.000000 0.488691
    16 1.528215 -0.000001 -0.000003 0.000000 0.000000 1.754022
    17 3.899458 -0.431803 0.168226 -0.132734 0.068204 -0.323656
    18 1.506964 0.000001 0.000004 0.000000 0.000000 1.204255
    19 1.506963 0.000000 -0.000003 0.000000 0.000000 1.160623
    20 3.915633 -0.278020 1.402606 -0.181907 0.018780 -0.320480
    21 1.333084 -0.000001 -0.000001 0.000000 0.000000 1.003545
    22 1.159203 0.000002 0.000000 0.000000 0.000000 1.605682
    23 5.024290 0.657701 -3.490760 -1.802628 -1.194217 -3.096992
    24 -1.482695 0.881217 0.000000 0.000000 0.000000 0.000000
    25 0.000005 0.011451 -1.352403 -0.073878 1.370268 3.068388
    26 6.078086 -0.000002 0.000001 1.105353 -0.262419 -1.376547
    27 13.446750 -0.000001 -0.000001 0.000000 0.000000 -0.403467
    28 15.996998 -0.000002 0.000000 1.825595 -0.044184 -0.601479
    29 1.885326 0.833276 2.177874 1.195118 -0.651728 0.432758
    30 1.506963 -0.000002 0.000002 0.000000 0.000000 -0.139626
    31 0.798350 0.000002 0.000000 0.000000 0.000000 -0.733034
    32 3.950299 -0.539876 2.108874 -0.201314 -0.381983 -0.348015
    33 1.545799 -0.000001 -0.000001 0.000000 0.000000 0.593410
    34 1.667397 -0.000001 0.000000 0.000000 0.000000 0.122173
    35 3.899456 -0.475376 1.170889 0.000688 0.000407 -0.541050
    36 1.528219 0.000001 0.000002 0.000000 0.000000 1.143173
    37 1.528215 -0.000002 -0.000001 0.000000 0.000000 0.218166
    38 3.899457 -0.431804 -0.168226 0.000796 0.000000 0.000000
    39 1.506966 0.000000 0.000002 0.000000 0.000000 1.117007
    40 1.506963 0.000002 -0.000003 0.000000 0.000000 0.872659
    41 3.915632 -0.278020 -1.402608 0.000796 0.000000 0.000000
    42 1.333083 0.000000 0.000004 0.000000 0.000000 1.518410
    43 1.159203 -0.000004 -0.000003 0.000000 0.000000 0.680671
    44 6.394357 2.457028 2.877110 -0.545644 -0.056807 1.454689
    45 -2.686406 2.279085 1.265268 1.570796 0.000000 1.570796
  time 12
    0 0.135014 8.526284 -24.816700 0.000000 0.000000 -1.570842
    1 0.000001 0.000000 0.000000 -0.000086 -1.570451 -1.570709
    2 4.443613 -0.009641 0.000006 -0.000004 -0.000001 0.000796
    3 12.111416 -0.011447 0.000000 0.000000 0.000000 0.000000
    4 0.000007 0.011445 1.352404 -0.000014 -1.370796 3.140810
    5 6.078087 0.000002 -0.000001 -0.255094 1.021673 -0.332273
    6 13.446752 -0.000001 -0.000002 0.000000 0.000000 -1.161927
    7 15.997001 -0.000001 0.000002 -1.512218 0.000000 0.000000
    8 1.885327 0.833277 -2.177876 -1.564651 0.803225 0.045485
    9 1.506965 0.000000 0.000001 0.000000 0.000000 -0.061091
    10 0.798347 0.000000 0.000001 0.000000 0.000000 0.314152
    11 3.950303 -0.539875 -2.108871 -0.011041 0.357426 -0.064196
    12 1.545796 -0.000002 0.000007 0.000000 0.000000 0.837746
    13 1.667399 0.000000 -0.000006 0.000000 0.000000 0.532312
    14 3.899459 -0.475376 -1.170889 -0.245101 0.070050 0.305373
    15 1.528217 0.000000 0.000002 0.000000 0.000000 0.488691
    16 1.528215 -0.000001 -0.000003 0.000000 0.000000 1.754022
    17 3.899458 -0.431803 0.168226 -0.132734 0.068204 -0.323656
    18 1.506964 0.000001 0.000004 0.000000 0.000000 1.204255
    19 1.506963 0.000000 -0.000003 0.000000 0.000000 1.160623
    20 3.915633 -0.278020 1.402606 -0.181907 0.018780 -0.320480
    21 1.333084 -0.000001 -0.000001 0.000000 0.000000 1.003545
    22 1.159203 0.000002 0.000000 0.000000 0.000000 1.605682
    23 5.024290 0.657701 -3.490760 -1.802628 -1.194217 -3.096992
    24 -1.482695 0.881217 0.000000 0.000000 0.000000 0.000000
    25 0.000005 0.011451 -1.352403 -0.106353 1.369703 3.036558
    26 6.078086 -0.000002 0.000001 1.036891 -0.267770 -1.333939
    27 13.446750 -0.000001 -0.000001 0.000000 0.000000 -0.430433
    28 15.996998 -0.000002 0.000000 1.876654 -0.080988 -0.578644
    29 1.885326 0.833276 2.177874 1.195118 -0.651728 0.432758
    30 1.506963 -0.000002 0.000002 0.000000 0.000000 -0.139626
    31 0.798350 0.000002 0.000000 0.000000 0.000000 -0.733034
    32 3.950299 -0.539876 2.108874 -0.201314 -0.381971 -0.348015
    33 1.545799 -0.000001 -0.000001 0.000000 0.000000 0.593410
    34 1.667397 -0.000001 0.000000 0.000000 0.000000 0.122173
    35 3.899456 -0.475376 1.170889 0.000688 0.000407 -0.541050
    36 1.528219 0.000001 0.000002 0.000000 0.000000 1.143173
    37 1.528215 -0.000002 -0.000001 0.000000 0.000000 0.218166
    38 3.899457 -0.431804 -0.168226 0.000796 0.000000 0.000000
    39 1.506966 0.000000 0.000002 0.000000 0.000000 1.117007
    40 1.506963 0.000002 -0.000003 0.000000 0.000000 0.872659
    41 3.915632 -0.278020 -1.402608 0.000796 0.000000 0.000000
    42 1.333083 0.000000 0.000004 0.000000 0.000000 1.518410
    43 1.159203 -0.000004 -0.000003 0.000000 0.000000 0.680671
    44 6.394357 2.457028 2.877110 -0.545644 -0.056807 1.454689
    45 -2.686406 2.279085 1.265268 1.570796 0.000000 1.570796
  time 13
    0 0.135014 8.526284 -24.816700 0.000000 0.000000 -1.570842
    1 0.000001 0.000000 0.000000 -0.000086 -1.570451 -1.570709
    2 4.443613 -0.009641 0.000006 -0.000004 -0.000001 0.000796
    3 12.111416 -0.011447 0.000000 0.000000 0.000000 0.000000
    4 0.000007 0.011445 1.352404 -0.000014 -1.370796 3.140810
    5 6.078087 0.000002 -0.000001 -0.251750 1.022554 -0.328187
    6 13.446752 -0.000001 -0.000002 0.000000 0.000000 -1.161927
    7 15.997001 -0.000001 0.000002 -1.497323 0.000000 0.000000
    8 1.885327 0.833277 -2.177876 -1.564651 0.803225 0.045485
    9 1.506965 0.000000 0.000001 0.000000 0.000000 -0.061091
    10 0.798347 0.000000 0.000001 0.000000 0.000000 0.314152
    11 3.950303 -0.539875 -2.108871 -0.011041 0.357426 -0.064196
    12 1.545796 -0.000002 0.000007 0.000000 0.000000 0.837746
    13 1.667399 0.000000 -0.000006 0.000000 0.000000 0.532312
    14 3.899459 -0.475376 -1.170889 -0.245101 0.070050 0.305373
    15 1.528217 0.000000 0.000002 0.000000 0.000000 0.488691
    16 1.528215 -0.000001 -0.000003 0.000000 0.000000 1.754022
    17 3.899458 -0.431803 0.168226 -0.132734 0.068204 -0.323656
    18 1.506964 0.000001 0.000004 0.000000 0.000000 1.204255
    19 1.506963 0.000000 -0.000003 0.000000 0.000000 1.160623
    20 3.915633 -0.278020 1.402606 -0.181907 0.018780 -0.320480
    21 1.333084 -0.000001 -0.000001 0.000000 0.000000 1.003545
    22 1.159203 0.000002 0.000000 0.000000 0.000000 1.605682
    23 5.024290 0.657701 -3.490760 -1.802628 -1.194217 -3.096992
    24 -1.482695 0.881217 0.000000 0.000000 0.000000 0.000000
    25 0.000005 0.011451 -1.352403 -0.140502 1.368865 3.003114
    26 6.078086 -0.000002 0.000001 0.964897 -0.270113 -1.289118
    27 13.446750 -0.000001 -0.000001 0.000000 0.000000 -0.458930
    28 15.996998 -0.000002 0.000000 1.929590 -0.121162 -0.556450
    29 1.885326 0.833276 2.177874 1.195118 -0.651728 0.432758
    30 1.506963 -0.000002 0.000002 0.000000 0.000000 -0.139626
    31 0.798350 0.000002 0.000000 0.000000 0.000000 -0.733034
    32 3.950299 -0.539876 2.108874 -0.201314 -0.381983 -0.348015
    33 1.545799 -0.000001 -0.000001 0.000000 0.000000 0.593410
    34 1.667397 -0.000001 0.000000 0.000000 0.000000 0.122173
    35 3.899456 -0.475376 1.170889 0.000688 0.000407 -0.541050
    36 1.528219 0.000001 0.000002 0.000000 0.000000 1.143173
    37 1.528215 -0.000002 -0.000001 0.000000 0.000000 0.218185
    38 3.899457 -0.431804 -0.168226 0.000796 0.000000 0.000000
    39 1.506966 0.000000 0.000002 0.000000 0.000000 1.117007
    40 1.506963 0.000002 -0.000003 0.000000 0.000000 0.872659
    41 3.915632 -0.278020 -1.402608 0.000796 0.000000 0.000000
    42 1.333083 0.000000 0.000004 0.000000 0.000000 1.518410
    43 1.159203 -0.000004 -0.000003 0.000000 0.000000 0.680671
    44 6.394357 2.457028 2.877110 -0.545644 -0.056807 1.454689
    45 -2.686406 2.279085 1.265268 1.570796 0.000000 1.570796
  time 14
    0 0.135014 8.526284 -24.816700 0.000000 0.000000 -1.570842
    1 0.000001 0.000000 0.000000 -0.000086 -1.570451 -1.570709
    2 4.443613 -0.009641 0.000006 -0.000004 -0.000001 0.000796
    3 12.111416 -0.011447 0.000000 0.000000 0.000000 0.000000
    4 0.000007 0.011445 1.352404 -0.000014 -1.370796 3.140810
    5 6.078087 0.000002 -0.000001 -0.248625 1.023400 -0.324360
    6 13.446752 -0.000001 -0.000002 0.000000 0.000000 -1.161927
    7 15.997001 -0.000001 0.000002 -1.482626 0.000000 0.000000
    8 1.885327 0.833277 -2.177876 -1.564651 0.803225 0.045485
    9 1.506965 0.000000 0.000001 0.000000 0.000000 -0.061091
    10 0.798347 0.000000 0.000001 0.000000 0.000000 0.314152
    11 3.950303 -0.539875 -2.108871 -0.011041 0.357426 -0.064196
    12 1.545796 -0.000002 0.000007 0.000000 0.000000 0.837746
    13 1.667399 0.000000 -0.000006 0.000000 0.000000 0.532312
    14 3.899459 -0.475376 -1.170889 -0.245101 0.070050 0.305373
    15 1.528217 0.000000 0.000002 0.000000 0.000000 0.488691
    16 1.528215 -0.000001 -0.000003 0.000000 0.000000 1.754022
    17 3.899458 -0.431803 0.168226 -0.132734 0.068204 -0.323656
    18 1.506964 0.000001 0.000004 0.000000 0.000000 1.204255
    19 1.506963 0.000000 -0.000003 0.000000 0.000000 1.160623
    20 3.915633 -0.278020 1.402606 -0.181907 0.018780 -0.320480
    21 1.333084 -0.000001 -0.000001 0.000000 0.000000 1.003545
    22 1.159203 0.000002 0.000000 0.000000 0.000000 1.605682
    23 5.024290 0.657701 -3.490760 -1.802628 -1.194217 -3.096992
    24 -1.482695 0.881217 0.000000 0.000000 0.000000 0.000000
    25 0.000005 0.011451 -1.352403 -0.175028 1.367791 2.969316
    26 6.078086 -0.000002 0.000001 0.892620 -0.268644 -1.244297
    27 13.446750 -0.000001 -0.000001 0.000000 0.000000 -0.488029
    28 15.996998 -0.000002 0.000000 1.982687 -0.163231 -0.535871
    29 1.885326 0.833276 2.177874 1.195118 -0.651728 0.432758
    30 1.506963 -0.000002 0.000002 0.000000 0.000000 -0.139626
    31 0.798350 0.000002 0.000000 0.000000 0.000000 -0.733034
    32 3.950299 -0.539876 2.108874 -0.201314 -0.381983 -0.348015
    33 1.545799 -0.000001 -0.000001 0.000000 0.000000 0.593410
    34 1.667397 -0.000001 0.000000 0.000000 0.000000 0.122173
    35 3.899456 -0.475376 1.170889 0.000688 0.000407 -0.541050
    36 1.528219 0.000001 0.000002 0.000000 0.000000 1.143173
    37 1.528215 -0.000002 -0.000001 0.000000 0.000000 0.218185
    38 3.899457 -0.431804 -0.168226 0.000796 0.000000 0.000000
    39 1.506966 0.000000 0.000002 0.000000 0.000000 1.117007
    40 1.506963 0.000002 -0.000003 0.000000 0.000000 0.872659
    41 3.915632 -0.278020 -1.402608 0.000796 0.000000 0.000000
    42 1.333083 0.000000 0.000004 0.000000 0.000000 1.518410
    43 1.159203 -0.000004 -0.000003 0.000000 0.000000 0.680671
    44 6.394357 2.457028 2.877110 -0.545644 -0.056807 1.454689
    45 -2.686406 2.279085 1.265268 1.570796 0.000000 1.570796
  time 15
    0 0.135014 8.526284 -24.816700 0.000000 0.000000 -1.570842
    1 0.000001 0.000000 0.000000 -0.000086 -1.570451 -1.570709
    2 4.443613 -0.009641 0.000006 -0.000004 -0.000001 0.000796
    3 12.111416 -0.011447 0.000000 0.000000 0.000000 0.000000
    4 0.000007 0.011445 1.352404 -0.000014 -1.370796 3.140810
    5 6.078087 0.000002 -0.000001 -0.245775 1.024140 -0.320858
    6 13.446752 -0.000001 -0.000002 0.000000 0.000000 -1.161927
    7 15.997001 -0.000001 0.000002 -1.468126 0.000000 0.000000
    8 1.885327 0.833277 -2.177876 -1.564651 0.803225 0.045485
    9 1.506965 0.000000 0.000001 0.000000 0.000000 -0.061091
    10 0.798347 0.000000 0.000001 0.000000 0.000000 0.314152
    11 3.950303 -0.539875 -2.108871 -0.011041 0.357426 -0.064196
    12 1.545796 -0.000002 0.000007 0.000000 0.000000 0.837746
    13 1.667399 0.000000 -0.000006 0.000000 0.000000 0.532312
    14 3.899459 -0.475376 -1.170889 -0.245101 0.070050 0.305373
    15 1.528217 0.000000 0.000002 0.000000 0.000000 0.488691
    16 1.528215 -0.000001 -0.000003 0.000000 0.000000 1.754022
    17 3.899458 -0.431803 0.168226 -0.132734 0.068204 -0.323656
    18 1.506964 0.000001 0.000004 0.000000 0.000000 1.204255
    19 1.506963 0.000000 -0.000003 0.000000 0.000000 1.160623
    20 3.915633 -0.278020 1.402606 -0.181907 0.018780 -0.320480
    21 1.333084 -0.000001 -0.000001 0.000000 0.000000 1.003545
    22 1.159203 0.000002 0.000000 0.000000 0.000000 1.605682
    23 5.024290 0.657701 -3.490760 -1.802628 -1.194217 -3.096992
    24 -1.482695 0.881217 0.000000 0.000000 0.000000 0.000000
    25 0.000005 0.011451 -1.352403 -0.208591 1.366498 2.936424
    26 6.078086 -0.000002 0.000001 0.823452 -0.263049 -1.201935
    27 13.446750 -0.000001 -0.000001 0.000000 0.000000 -0.516691
    28 15.996998 -0.000002 0.000000 2.034345 -0.205643 -0.517731
    29 1.885326 0.833276 2.177874 1.195118 -0.651728 0.432758
    30 1.506963 -0.000002 0.000002 0.000000 0.000000 -0.139626
    31 0.798350 0.000002 0.000000 0.000000 0.000000 -0.733034
    32 3.950299 -0.539876 2.108874 -0.201314 -0.381983 -0.348015
    33 1.545799 -0.000001 -0.000001 0.000000 0.000000 0.593410
    34 1.667397 -0.000001 0.000000 0.000000 0.000000 0.122173
    35 3.899456 -0.475376 1.170889 0.000688 0.000407 -0.541050
    36 1.528219 0.000001 0.000002 0.000000 0.000000 1.143173
    37 1.528215 -0.000002 -0.000001 0.000000 0.000000 0.218166
    38 3.899457 -0.431804 -0.168226 0.000796 0.000000 0.000000
    39 1.506966 0.000000 0.000002 0.000000 0.000000 1.117007
    40 1.506963 0.000002 -0.000003 0.000000 0.000000 0.872659
    41 3.915632 -0.278020 -1.402608 0.000796 0.000000 0.000000
    42 1.333083 0.000000 0.000004 0.000000 0.000000 1.518410
    43 1.159203 -0.000004 -0.000003 0.000000 0.000000 0.680671
    44 6.394357 2.457028 2.877110 -0.545644 -0.056807 1.454689
    45 -2.686406 2.279085 1.265268 1.570796 0.000000 1.570796
  time 16
    0 0.135014 8.526284 -24.816700 0.000000 0.000000 -1.570842
    1 0.000001 0.000000 0.000000 -0.000086 -1.570451 -1.570709
    2 4.443613 -0.009641 0.000006 -0.000004 -0.000001 0.000796
    3 12.111416 -0.011447 0.000000 0.000000 0.000000 0.000000
    4 0.000007 0.011445 1.352404 -0.000014 -1.370796 3.140810
    5 6.078087 0.000002 -0.000001 -0.243253 1.024775 -0.317810
    6 13.446752 -0.000001 -0.000002 0.000000 0.000000 -1.161927
    7 15.997001 -0.000001 0.000002 -1.453923 0.000000 0.000000
    8 1.885327 0.833277 -2.177876 -1.564651 0.803225 0.045485
    9 1.506965 0.000000 0.000001 0.000000 0.000000 -0.061091
    10 0.798347 0.000000 0.000001 0.000000 0.000000 0.314152
    11 3.950303 -0.539875 -2.108871 -0.011041 0.357426 -0.064196
    12 1.545796 -0.000002 0.000007 0.000000 0.000000 0.837746
    13 1.667399 0.000000 -0.000006 0.000000 0.000000 0.532312
    14 3.899459 -0.475376 -1.170889 -0.245101 0.070050 0.305373
    15 1.528217 0.000000 0.000002 0.000000 0.000000 0.488691
    16 1.528215 -0.000001 -0.000003 0.000000 0.000000 1.754022
    17 3.899458 -0.431803 0.168226 -0.132734 0.068204 -0.323656
    18 1.506964 0.000001 0.000004 0.000000 0.000000 1.204255
    19 1.506963 0.000000 -0.000003 0.000000 0.000000 1.160623
    20 3.915633 -0.278020 1.402606 -0.181907 0.018780 -0.320480
    21 1.333084 -0.000001 -0.000001 0.000000 0.000000 1.003545
    22 1.159203 0.000002 0.000000 0.000000 0.000000 1.605682
    23 5.024290 0.657701 -3.490760 -1.802628 -1.194217 -3.096992
    24 -1.482695 0.881217 0.000000 0.000000 0.000000 0.000000
    25 0.000005 0.011451 -1.352403 -0.239978 1.365059 2.905695
    26 6.078086 -0.000002 0.000001 0.760643 -0.253606 -1.164407
    27 13.446750 -0.000001 -0.000001 0.000000 0.000000 -0.543821
    28 15.996998 -0.000002 0.000000 2.083046 -0.246654 -0.502457
    29 1.885326 0.833276 2.177874 1.195118 -0.651728 0.432758
    30 1.506963 -0.000002 0.000002 0.000000 0.000000 -0.139626
    31 0.798350 0.000002 0.000000 0.000000 0.000000 -0.733034
    32 3.950299 -0.539876 2.108874 -0.201314 -0.381983 -0.348015
    33 1.545799 -0.000001 -0.000001 0.000000 0.000000 0.593410
    34 1.667397 -0.000001 0.000000 0.000000 0.000000 0.122173
    35 3.899456 -0.475376 1.170889 0.000688 0.000407 -0.541050
    36 1.528219 0.000001 0.000002 0.000000 0.000000 1.143173
    37 1.528215 -0.000002 -0.000001 0.000000 0.000000 0.218185
    38 3.899457 -0.431804 -0.168226 0.000796 0.000000 0.000000
    39 1.506966 0.000000 0.000002 0.000000 0.000000 1.117007
    40 1.506963 0.000002 -0.000003 0.000000 0.000000 0.872659
    41 3.915632 -0.278020 -1.402608 0.000796 0.000000 0.000000
    42 1.333083 0.000000 0.000004 0.000000 0.000000 1.518410
    43 1.159203 -0.000004 -0.000003 0.000000 0.000000 0.680671
    44 6.394357 2.457028 2.877110 -0.545644 -0.056807 1.454689
    45 -2.686406 2.279085 1.265268 1.570796 0.000000 1.570796
  time 17
    0 0.135014 8.526284 -24.816700 0.000000 0.000000 -1.570842
    1 0.000001 0.000000 0.000000 -0.000086 -1.570451 -1.570709
    2 4.443613 -0.009641 0.000006 -0.000004 -0.000001 0.000796
    3 12.111416 -0.011447 0.000000 0.000000 0.000000 0.000000
    4 0.000007 0.011445 1.352404 -0.000014 -1.370796 3.140810
    5 6.078087 0.000002 -0.000001 -0.241170 1.025304 -0.315280
    6 13.446752 -0.000001 -0.000002 0.000000 0.000000 -1.161927
    7 15.997001 -0.000001 0.000002 -1.440082 0.000000 0.000000
    8 1.885327 0.833277 -2.177876 -1.564651 0.803225 0.045485
    9 1.506965 0.000000 0.000001 0.000000 0.000000 -0.061091
    10 0.798347 0.000000 0.000001 0.000000 0.000000 0.314152
    11 3.950303 -0.539875 -2.108871 -0.011041 0.357426 -0.064196
    12 1.545796 -0.000002 0.000007 0.000000 0.000000 0.837746
    13 1.667399 0.000000 -0.000006 0.000000 0.000000 0.532312
    14 3.899459 -0.475376 -1.170889 -0.245101 0.070050 0.305373
    15 1.528217 0.000000 0.000002 0.000000 0.000000 0.488691
    16 1.528215 -0.000001 -0.000003 0.000000 0.000000 1.754022
    17 3.899458 -0.431803 0.168226 -0.132734 0.068204 -0.323656
    18 1.506964 0.000001 0.000004 0.000000 0.000000 1.204255
    19 1.506963 0.000000 -0.000003 0.000000 0.000000 1.160623
    20 3.915633 -0.278020 1.402606 -0.181907 0.018780 -0.320480
    21 1.333084 -0.000001 -0.000001 0.000000 0.000000 1.003545
    22 1.159203 0.000002 0.000000 0.000000 0.000000 1.605682
    23 5.024290 0.657701 -3.490760 -1.802628 -1.194217 -3.096992
    24 -1.482695 0.881217 0.000000 0.000000 0.000000 0.000000
    25 0.000005 0.011451 -1.352403 -0.268059 1.363602 2.878193
    26 6.078086 -0.000002 0.000001 0.707372 -0.240840 -1.133844
    27 13.446750 -0.000001 -0.000001 0.000000 0.000000 -0.568435
    28 15.996998 -0.000002 0.000000 2.127273 -0.284417 -0.490293
    29 1.885326 0.833276 2.177874 1.195118 -0.651728 0.432758
    30 1.506963 -0.000002 0.000002 0.000000 0.000000 -0.139626
    31 0.798350 0.000002 0.000000 0.000000 0.000000 -0.733034
    32 3.950299 -0.539876 2.108874 -0.201314 -0.381983 -0.348015
    33 1.545799 -0.000001 -0.000001 0.000000 0.000000 0.593410
    34 1.667397 -0.000001 0.000000 0.000000 0.000000 0.122173
    35 3.899456 -0.475376 1.170889 0.000688 0.000407 -0.541050
    36 1.528219 0.000001 0.000002 0.000000 0.000000 1.143173
    37 1.528215 -0.000002 -0.000001 0.000000 0.000000 0.218185
    38 3.899457 -0.431804 -0.168226 0.000796 0.000000 0.000000
    39 1.506966 0.000000 0.000002 0.000000 0.000000 1.117007
    40 1.506963 0.000002 -0.000003 0.000000 0.000000 0.872659
    41 3.915632 -0.278020 -1.402608 0.000796 0.000000 0.000000
    42 1.333083 0.000000 0.000004 0.000000 0.000000 1.518410
    43 1.159203 -0.000004 -0.000003 0.000000 0.000000 0.680671
    44 6.394357 2.457028 2.877110 -0.545644 -0.056807 1.454689
    45 -2.686406 2.279085 1.265268 1.570796 0.000000 1.570796
  time 18
    0 0.135014 8.526284 -24.816700 0.000000 0.000000 -1.570842
    1 0.000001 0.000000 0.000000 -0.000086 -1.570451 -1.570709
    2 4.443613 -0.009641 0.000006 -0.000004 -0.000001 0.000796
    3 12.111416 -0.011447 0.000000 0.000000 0.000000 0.000000
    4 0.000007 0.011445 1.352404 -0.000014 -1.370796 3.140810
    5 6.078087 0.000002 -0.000001 -0.239580 1.025727 -0.313335
    6 13.446752 -0.000001 -0.000002 0.000000 0.000000 -1.161927
    7 15.997001 -0.000001 0.000002 -1.426604 0.000000 0.000000
    8 1.885327 0.833277 -2.177876 -1.564651 0.803225 0.045485
    9 1.506965 0.000000 0.000001 0.000000 0.000000 -0.061091
    10 0.798347 0.000000 0.000001 0.000000 0.000000 0.314152
    11 3.950303 -0.539875 -2.108871 -0.011041 0.357426 -0.064196
    12 1.545796 -0.000002 0.000007 0.000000 0.000000 0.837746
    13 1.667399 0.000000 -0.000006 0.000000 0.000000 0.532312
    14 3.899459 -0.475376 -1.170889 -0.245101 0.070050 0.305373
    15 1.528217 0.000000 0.000002 0.000000 0.000000 0.488691
    16 1.528215 -0.000001 -0.000003 0.000000 0.000000 1.754022
    17 3.899458 -0.431803 0.168226 -0.132734 0.068204 -0.323656
    18 1.506964 0.000001 0.000004 0.000000 0.000000 1.204255
    19 1.506963 0.000000 -0.000003 0.000000 0.000000 1.160623
    20 3.915633 -0.278020 1.402606 -0.181907 0.018780 -0.320480
    21 1.333084 -0.000001 -0.000001 0.000000 0.000000 1.003545
    22 1.159203 0.000002 0.000000 0.000000 0.000000 1.605682
    23 5.024290 0.657701 -3.490760 -1.802628 -1.194217 -3.096992
    24 -1.482695 0.881217 0.000000 0.000000 0.000000 0.000000
    25 0.000005 0.011451 -1.352403 -0.295177 1.362018 2.851674
    26 6.078086 -0.000002 0.000001 0.659187 -0.224543 -1.107951
    27 13.446750 -0.000001 -0.000001 0.000000 0.000000 -0.592502
    28 15.996998 -0.000002 0.000000 2.170621 -0.321861 -0.479958
    29 1.885326 0.833276 2.177874 1.195118 -0.651728 0.432758
    30 1.506963 -0.000002 0.000002 0.000000 0.000000 -0.139626
    31 0.798350 0.000002 0.000000 0.000000 0.000000 -0.733034
    32 3.950299 -0.539876 2.108874 -0.201314 -0.381983 -0.348015
    33 1.545799 -0.000001 -0.000001 0.000000 0.000000 0.593410
    34 1.667397 -0.000001 0.000000 0.000000 0.000000 0.122173
    35 3.899456 -0.475376 1.170889 0.000688 0.000407 -0.541050
    36 1.528219 0.000001 0.000002 0.000000 0.000000 1.143173
    37 1.528215 -0.000002 -0.000001 0.000000 0.000000 0.218185
    38 3.899457 -0.431804 -0.168226 0.000796 0.000000 0.000000
    39 1.506966 0.000000 0.000002 0.000000 0.000000 1.117007
    40 1.506963 0.000002 -0.000003 0.000000 0.000000 0.872659
    41 3.915632 -0.278020 -1.402608 0.000796 0.000000 0.000000
    42 1.333083 0.000000 0.000004 0.000000 0.000000 1.518410
    43 1.159203 -0.000004 -0.000003 0.000000 0.000000 0.680671
    44 6.394357 2.457028 2.877110 -0.545644 -0.056807 1.454689
    45 -2.686406 2.279085 1.265268 1.570796 0.000000 1.570796
  time 19
    0 0.135014 8.526284 -24.816700 0.000000 0.000000 -1.570842
    1 0.000001 0.000000 0.000000 -0.000086 -1.570451 -1.570709
    2 4.443613 -0.009641 0.000006 -0.000004 -0.000001 0.000796
    3 12.111416 -0.011447 0.000000 0.000000 0.000000 0.000000
    4 0.000007 0.011445 1.352404 -0.000014 -1.370796 3.140810
    5 6.078087 0.000002 -0.000001 -0.238593 1.025973 -0.312102
    6 13.446752 -0.000001 -0.000002 0.000000 0.000000 -1.161927
    7 15.997001 -0.000001 0.000002 -1.413588 0.000000 0.000000
    8 1.885327 0.833277 -2.177876 -1.564651 0.803225 0.045485
    9 1.506965 0.000000 0.000001 0.000000 0.000000 -0.061091
    10 0.798347 0.000000 0.000001 0.000000 0.000000 0.314152
    11 3.950303 -0.539875 -2.108871 -0.011041 0.357426 -0.064196
    12 1.545796 -0.000002 0.000007 0.000000 0.000000 0.837746
    13 1.667399 0.000000 -0.000006 0.000000 0.000000 0.532312
    14 3.899459 -0.475376 -1.170889 -0.245101 0.070050 0.305373
    15 1.528217 0.000000 0.000002 0.000000 0.000000 0.488691
    16 1.528215 -0.000001 -0.000003 0.000000 0.000000 1.754022
    17 3.899458 -0.431803 0.168226 -0.132734 0.068204 -0.323656
    18 1.506964 0.000001 0.000004 0.000000 0.000000 1.204255
    19 1.506963 0.000000 -0.000003 0.000000 0.000000 1.160623
    20 3.915633 -0.278020 1.402606 -0.181907 0.018780 -0.320480
    21 1.333084 -0.000001 -0.000001 0.000000 0.000000 1.003545
    22 1.159203 0.000002 0.000000 0.000000 0.000000 1.605682
    23 5.024290 0.657701 -3.490760 -1.802628 -1.194217 -3.096992
    24 -1.482695 0.881217 0.000000 0.000000 0.000000 0.000000
    25 0.000005 0.011451 -1.352403 -0.323760 1.360160 2.823739
    26 6.078086 -0.000002 0.000001 0.610155 -0.204503 -1.083042
    27 13.446750 -0.000001 -0.000001 0.000000 0.000000 -0.618319
    28 15.996998 -0.000002 0.000000 2.217205 -0.362478 -0.470629
    29 1.885326 0.833276 2.177874 1.195118 -0.651728 0.432758
    30 1.506963 -0.000002 0.000002 0.000000 0.000000 -0.139626
    31 0.798350 0.000002 0.000000 0.000000 0.000000 -0.733034
    32 3.950299 -0.539876 2.108874 -0.201314 -0.381971 -0.348015
    33 1.545799 -0.000001 -0.000001 0.000000 0.000000 0.593410
    34 1.667397 -0.000001 0.000000 0.000000 0.000000 0.122173
    35 3.899456 -0.475376 1.170889 0.000688 0.000407 -0.541050
    36 1.528219 0.000001 0.000002 0.000000 0.000000 1.143173
    37 1.528215 -0.000002 -0.000001 0.000000 0.000000 0.218185
    38 3.899457 -0.431804 -0.168226 0.000796 0.000000 0.000000
    39 1.506966 0.000000 0.000002 0.000000 0.000000 1.117007
    40 1.506963 0.000002 -0.000003 0.000000 0.000000 0.872659
    41 3.915632 -0.278020 -1.402608 0.000796 0.000000 0.000000
    42 1.333083 0.000000 0.000004 0.000000 0.000000 1.518410
    43 1.159203 -0.000004 -0.000003 0.000000 0.000000 0.680671
    44 6.394357 2.457028 2.877110 -0.545644 -0.056807 1.454689
    45 -2.686406 2.279085 1.265268 1.570796 0.000000 1.570796
  time 20
    0 0.135014 8.526284 -24.816700 0.000000 0.000000 -1.570842
    1 0.000001 0.000000 0.000000 -0.000086 -1.570451 -1.570709
    2 4.443613 -0.009641 0.000006 -0.000004 -0.000001 0.000796
    3 12.111416 -0.011447 0.000000 0.000000 0.000000 0.000000
    4 0.000007 0.011445 1.352404 -0.000014 -1.370796 3.140810
    5 6.078087 0.000002 -0.000001 -0.238209 1.026044 -0.311713
    6 13.446752 -0.000001 -0.000002 0.000000 0.000000 -1.161927
    7 15.997001 -0.000001 0.000002 -1.401098 0.000000 0.000000
    8 1.885327 0.833277 -2.177876 -1.564663 0.803225 0.045485
    9 1.506965 0.000000 0.000001 0.000000 0.000000 -0.061091
    10 0.798347 0.000000 0.000001 0.000000 0.000000 0.314152
    11 3.950303 -0.539875 -2.108871 -0.011041 0.357426 -0.064196
    12 1.545796 -0.000002 0.000007 0.000000 0.000000 0.837746
    13 1.667399 0.000000 -0.000006 0.000000 0.000000 0.532312
    14 3.899459 -0.475376 -1.170889 -0.245101 0.070050 0.305373
    15 1.528217 0.000000 0.000002 0.000000 0.000000 0.488691
    16 1.528215 -0.000001 -0.000003 0.000000 0.000000 1.754022
    17 3.899458 -0.431803 0.168226 -0.132734 0.068204 -0.323656
    18 1.506964 0.000001 0.000004 0.000000 0.000000 1.204255
    19 1.506963 0.000000 -0.000003 0.000000 0.000000 1.160623
    20 3.915633 -0.278020 1.402606 -0.181907 0.018780 -0.320480
    21 1.333084 -0.000001 -0.000001 0.000000 0.000000 1.003545
    22 1.159203 0.000002 0.000000 0.000000 0.000000 1.605682
    23 5.024290 0.657701 -3.490760 -1.802628 -1.194217 -3.096992
    24 -1.482695 0.881217 0.000000 0.000000 0.000000 0.000000
    25 0.000005 0.011451 -1.352403 -0.353097 1.358029 2.795056
    26 6.078086 -0.000002 0.000001 0.561334 -0.181455 -1.059771
    27 13.446750 -0.000001 -0.000001 0.000000 0.000000 -0.645340
    28 15.996998 -0.000002 0.000000 2.266146 -0.405284 -0.462916
    29 1.885326 0.833276 2.177874 1.195118 -0.651728 0.432758
    30 1.506963 -0.000002 0.000002 0.000000 0.000000 -0.139626
    31 0.798350 0.000002 0.000000 0.000000 0.000000 -0.733034
    32 3.950299 -0.539876 2.108874 -0.201314 -0.381983 -0.348015
    33 1.545799 -0.000001 -0.000001 0.000000 0.000000 0.593410
    34 1.667397 -0.000001 0.000000 0.000000 0.000000 0.122173
    35 3.899456 -0.475376 1.170889 0.000688 0.000407 -0.541050
    36 1.528219 0.000001 0.000002 0.000000 0.000000 1.143173
    37 1.528215 -0.000002 -0.000001 0.000000 0.000000 0.218185
    38 3.899457 -0.431804 -0.168226 0.000796 0.000000 0.000000
    39 1.506966 0.000000 0.000002 0.000000 0.000000 1.117007
    40 1.506963 0.000002 -0.000003 0.000000 0.000000 0.872659
    41 3.915632 -0.278020 -1.402608 0.000796 0.000000 0.000000
    42 1.333083 0.000000 0.000004 0.000000 0.000000 1.518410
    43 1.159203 -0.000004 -0.000003 0.000000 0.000000 0.680671
    44 6.394357 2.457028 2.877110 -0.545644 -0.056807 1.454689
    45 -2.686406 2.279085 1.265268 1.570796 0.000000 1.570796
  time 21
    0 0.135014 8.526284 -24.816700 0.000000 0.000000 -1.570842
    1 0.000001 0.000000 0.000000 -0.000086 -1.570451 -1.570709
    2 4.443613 -0.009641 0.000006 -0.000004 -0.000001 0.000796
    3 12.111416 -0.011447 0.000000 0.000000 0.000000 0.000000
    4 0.000007 0.011445 1.352404 -0.000014 -1.370796 3.140810
    5 6.078087 0.000002 -0.000001 -0.238593 1.025973 -0.312167
    6 13.446752 -0.000001 -0.000002 0.000000 0.000000 -1.161927
    7 15.997001 -0.000001 0.000002 -1.389169 0.000000 0.000000
    8 1.885327 0.833277 -2.177876 -1.564651 0.803225 0.045485
    9 1.506965 0.000000 0.000001 0.000000 0.000000 -0.061091
    10 0.798347 0.000000 0.000001 0.000000 0.000000 0.314152
    11 3.950303 -0.539875 -2.108871 -0.011041 0.357426 -0.064196
    12 1.545796 -0.000002 0.000007 0.000000 0.000000 0.837746
    13 1.667399 0.000000 -0.000006 0.000000 0.000000 0.532312
    14 3.899459 -0.475376 -1.170889 -0.245101 0.070050 0.305373
    15 1.528217 0.000000 0.000002 0.000000 0.000000 0.488691
    16 1.528215 -0.000001 -0.000003 0.000000 0.000000 1.754022
    17 3.899458 -0.431803 0.168226 -0.132734 0.068204 -0.323656
    18 1.506964 0.000001 0.000004 0.000000 0.000000 1.204255
    19 1.506963 0.000000 -0.000003 0.000000 0.000000 1.160623
    20 3.915633 -0.278020 1.402606 -0.181907 0.018780 -0.320480
    21 1.333084 -0.000001 -0.000001 0.000000 0.000000 1.003545
    22 1.159203 0.000002 0.000000 0.000000 0.000000 1.605682
    23 5.024290 0.657701 -3.490760 -1.802628 -1.194217 -3.096992
    24 -1.482695 0.881217 0.000000 0.000000 0.000000 0.000000
    25 0.000005 0.011451 -1.352403 -0.382433 1.355698 2.766374
    26 6.078086 -0.000002 0.000001 0.513433 -0.156239 -1.038549
    27 13.446750 -0.000001 -0.000001 0.000000 0.000000 -0.672907
    28 15.996998 -0.000002 0.000000 2.316646 -0.449321 -0.457245
    29 1.885326 0.833276 2.177874 1.195118 -0.651728 0.432758
    30 1.506963 -0.000002 0.000002 0.000000 0.000000 -0.139626
    31 0.798350 0.000002 0.000000 0.000000 0.000000 -0.733034
    32 3.950299 -0.539876 2.108874 -0.201314 -0.381983 -0.348015
    33 1.545799 -0.000001 -0.000001 0.000000 0.000000 0.593410
    34 1.667397 -0.000001 0.000000 0.000000 0.000000 0.122173
    35 3.899456 -0.475376 1.170889 0.000688 0.000407 -0.541050
    36 1.528219 0.000001 0.000002 0.000000 0.000000 1.143173
    37 1.528215 -0.000002 -0.000001 0.000000 0.000000 0.218166
    38 3.899457 -0.431804 -0.168226 0.000796 0.000000 0.000000
    39 1.506966 0.000000 0.000002 0.000000 0.000000 1.117007
    40 1.506963 0.000002 -0.000003 0.000000 0.000000 0.872659
    41 3.915632 -0.278020 -1.402608 0.000796 0.000000 0.000000
    42 1.333083 0.000000 0.000004 0.000000 0.000000 1.518410
    43 1.159203 -0.000004 -0.000003 0.000000 0.000000 0.680671
    44 6.394357 2.457028 2.877110 -0.545644 -0.056807 1.454689
    45 -2.686406 2.279085 1.265268 1.570796 0.000000 1.570796
  time 22
    0 0.135014 8.526284 -24.816700 0.000000 0.000000 -1.570842
    1 0.000001 0.000000 0.000000 -0.000086 -1.570451 -1.570709
    2 4.443613 -0.009641 0.000006 -0.000004 -0.000001 0.000796
    3 12.111416 -0.011447 0.000000 0.000000 0.000000 0.000000
    4 0.000007 0.011445 1.352404 -0.000014 -1.370796 3.140810
    5 6.078087 0.000002 -0.000001 -0.239799 1.025656 -0.313594
    6 13.446752 -0.000001 -0.000002 0.000000 0.000000 -1.161927
    7 15.997001 -0.000001 0.000002 -1.377899 0.000000 0.000000
    8 1.885327 0.833277 -2.177876 -1.564651 0.803225 0.045485
    9 1.506965 0.000000 0.000001 0.000000 0.000000 -0.061091
    10 0.798347 0.000000 0.000001 0.000000 0.000000 0.314152
    11 3.950303 -0.539875 -2.108871 -0.011041 0.357426 -0.064196
    12 1.545796 -0.000002 0.000007 0.000000 0.000000 0.837746
    13 1.667399 0.000000 -0.000006 0.000000 0.000000 0.532312
    14 3.899459 -0.475376 -1.170889 -0.245101 0.070050 0.305373
    15 1.528217 0.000000 0.000002 0.000000 0.000000 0.488691
    16 1.528215 -0.000001 -0.000003 0.000000 0.000000 1.754022
    17 3.899458 -0.431803 0.168226 -0.132734 0.068204 -0.323656
    18 1.506964 0.000001 0.000004 0.000000 0.000000 1.204255
    19 1.506963 0.000000 -0.000003 0.000000 0.000000 1.160623
    20 3.915633 -0.278020 1.402606 -0.181907 0.018780 -0.320480
    21 1.333084 -0.000001 -0.000001 0.000000 0.000000 1.003545
    22 1.159203 0.000002 0.000000 0.000000 0.000000 1.605682
    23 5.024290 0.657701 -3.490760 -1.802628 -1.194217 -3.096992
    24 -1.482695 0.881217 0.000000 0.000000 0.000000 0.000000
    25 0.000005 0.011451 -1.352403 -0.411100 1.353166 2.738360
    26 6.078086 -0.000002 0.000001 0.467156 -0.129659 -1.019539
    27 13.446750 -0.000001 -0.000001 0.000000 0.000000 -0.700475
    28 15.996998 -0.000002 0.000000 2.367904 -0.493505 -0.453983
    29 1.885326 0.833276 2.177874 1.195118 -0.651728 0.432758
    30 1.506963 -0.000002 0.000002 0.000000 0.000000 -0.139626
    31 0.798350 0.000002 0.000000 0.000000 0.000000 -0.733034
    32 3.950299 -0.539876 2.108874 -0.201314 -0.381983 -0.348015
    33 1.545799 -0.000001 -0.000001 0.000000 0.000000 0.593410
    34 1.667397 -0.000001 0.000000 0.000000 0.000000 0.122173
    35 3.899456 -0.475376 1.170889 0.000688 0.000407 -0.541050
    36 1.528219 0.000001 0.000002 0.000000 0.000000 1.143173
    37 1.528215 -0.000002 -0.000001 0.000000 0.000000 0.218185
    38 3.899457 -0.431804 -0.168226 0.000796 0.000000 0.000000
    39 1.506966 0.000000 0.000002 0.000000 0.000000 1.117007
    40 1.506963 0.000002 -0.000003 0.000000 0.000000 0.872659
    41 3.915632 -0.278020 -1.402608 0.000796 0.000000 0.000000
    42 1.333083 0.000000 0.000004 0.000000 0.000000 1.518410
    43 1.159203 -0.000004 -0.000003 0.000000 0.000000 0.680671
    44 6.394357 2.457028 2.877110 -0.545644 -0.056807 1.454689
    45 -2.686406 2.279085 1.265268 1.570796 0.000000 1.570796
  time 23
    0 0.135014 8.526284 -24.816700 0.000000 0.000000 -1.570842
    1 0.000001 0.000000 0.000000 -0.000086 -1.570451 -1.570709
    2 4.443613 -0.009641 0.000006 -0.000004 -0.000001 0.000796
    3 12.111416 -0.011447 0.000000 0.000000 0.000000 0.000000
    4 0.000007 0.011445 1.352404 -0.000014 -1.370796 3.140810
    5 6.078087 0.000002 -0.000001 -0.241827 1.025163 -0.316059
    6 13.446752 -0.000001 -0.000002 0.000000 0.000000 -1.161927
    7 15.997001 -0.000001 0.000002 -1.367288 0.000000 0.000000
    8 1.885327 0.833277 -2.177876 -1.564651 0.803225 0.045485
    9 1.506965 0.000000 0.000001 0.000000 0.000000 -0.061091
    10 0.798347 0.000000 0.000001 0.000000 0.000000 0.314152
    11 3.950303 -0.539875 -2.108871 -0.011041 0.357426 -0.064196
    12 1.545796 -0.000002 0.000007 0.000000 0.000000 0.837746
    13 1.667399 0.000000 -0.000006 0.000000 0.000000 0.532312
    14 3.899459 -0.475376 -1.170889 -0.245101 0.070050 0.305373
    15 1.528217 0.000000 0.000002 0.000000 0.000000 0.488691
    16 1.528215 -0.000001 -0.000003 0.000000 0.000000 1.754022
    17 3.899458 -0.431803 0.168226 -0.132734 0.068204 -0.323656
    18 1.506964 0.000001 0.000004 0.000000 0.000000 1.204255
    19 1.506963 0.000000 -0.000003 0.000000 0.000000 1.160623
    20 3.915633 -0.278020 1.402606 -0.181907 0.018780 -0.320480
    21 1.333084 -0.000001 -0.000001 0.000000 0.000000 1.003545
    22 1.159203 0.000002 0.000000 0.000000 0.000000 1.605682
    23 5.024290 0.657701 -3.490760 -1.802628 -1.194217 -3.096992
    24 -1.482695 0.881217 0.000000 0.000000 0.000000 0.000000
    25 0.000005 0.011451 -1.352403 -0.438469 1.350544 2.711644
    26 6.078086 -0.000002 0.000001 0.423281 -0.102659 -1.002987
    27 13.446750 -0.000001 -0.000001 0.000000 0.000000 -0.727386
    28 15.996998 -0.000002 0.000000 2.419043 -0.536803 -0.453221
    29 1.885326 0.833276 2.177874 1.195118 -0.651728 0.432758
    30 1.506963 -0.000002 0.000002 0.000000 0.000000 -0.139626
    31 0.798350 0.000002 0.000000 0.000000 0.000000 -0.733034
    32 3.950299 -0.539876 2.108874 -0.201314 -0.381983 -0.348015
    33 1.545799 -0.000001 -0.000001 0.000000 0.000000 0.593410
    34 1.667397 -0.000001 0.000000 0.000000 0.000000 0.122173
    35 3.899456 -0.475376 1.170889 0.000688 0.000407 -0.541050
    36 1.528219 0.000001 0.000002 0.000000 0.000000 1.143173
    37 1.528215 -0.000002 -0.000001 0.000000 0.000000 0.218166
    38 3.899457 -0.431804 -0.168226 0.000796 0.000000 0.000000
    39 1.506966 0.000000 0.000002 0.000000 0.000000 1.117007
    40 1.506963 0.000002 -0.000003 0.000000 0.000000 0.872659
    41 3.915632 -0.278020 -1.402608 0.000796 0.000000 0.000000
    42 1.333083 0.000000 0.000004 0.000000 0.000000 1.518410
    43 1.159203 -0.000004 -0.000003 0.000000 0.000000 0.680671
    44 6.394357 2.457028 2.877110 -0.545644 -0.056807 1.454689
    45 -2.686406 2.279085 1.265268 1.570796 0.000000 1.570796
  time 24
    0 0.135014 8.526284 -24.816700 0.000000 0.000000 -1.570842
    1 0.000001 0.000000 0.000000 -0.000086 -1.570451 -1.570709
    2 4.443613 -0.009641 0.000006 -0.000004 -0.000001 0.000796
    3 12.111416 -0.011447 0.000000 0.000000 0.000000 0.000000
    4 0.000007 0.011445 1.352404 -0.000014 -1.370796 3.140810
    5 6.078087 0.000002 -0.000001 -0.244788 1.024387 -0.319691
    6 13.446752 -0.000001 -0.000002 0.000000 0.000000 -1.161927
    7 15.997001 -0.000001 0.000002 -1.357401 0.000000 0.000000
    8 1.885327 0.833277 -2.177876 -1.564651 0.803225 0.045485
    9 1.506965 0.000000 0.000001 0.000000 0.000000 -0.061091
    10 0.798347 0.000000 0.000001 0.000000 0.000000 0.314152
    11 3.950303 -0.539875 -2.108871 -0.011041 0.357426 -0.064196
    12 1.545796 -0.000002 0.000007 0.000000 0.000000 0.837746
    13 1.667399 0.000000 -0.000006 0.000000 0.000000 0.532312
    14 3.899459 -0.475376 -1.170889 -0.245101 0.070050 0.305373
    15 1.528217 0.000000 0.000002 0.000000 0.000000 0.488691
    16 1.528215 -0.000001 -0.000003 0.000000 0.000000 1.754022
    17 3.899458 -0.431803 0.168226 -0.132734 0.068204 -0.323656
    18 1.506964 0.000001 0.000004 0.000000 0.000000 1.204255
    19 1.506963 0.000000 -0.000003 0.000000 0.000000 1.160623
    20 3.915633 -0.278020 1.402606 -0.181907 0.018780 -0.320480
    21 1.333084 -0.000001 -0.000001 0.000000 0.000000 1.003545
    22 1.159203 0.000002 0.000000 0.000000 0.000000 1.605682
    23 5.024290 0.657701 -3.490760 -1.802628 -1.194217 -3.096992
    24 -1.482695 0.881217 0.000000 0.000000 0.000000 0.000000
    25 0.000005 0.011451 -1.352403 -0.464039 1.347885 2.686739
    26 6.078086 -0.000002 0.000001 0.382303 -0.076114 -0.988894
    27 13.446750 -0.000001 -0.000001 0.000000 0.000000 -0.753094
    28 15.996998 -0.000002 0.000000 2.469143 -0.578134 -0.454958
    29 1.885326 0.833276 2.177874 1.195118 -0.651728 0.432758
    30 1.506963 -0.000002 0.000002 0.000000 0.000000 -0.139626
    31 0.798350 0.000002 0.000000 0.000000 0.000000 -0.733034
    32 3.950299 -0.539876 2.108874 -0.201314 -0.381983 -0.348015
    33 1.545799 -0.000001 -0.000001 0.000000 0.000000 0.593410
    34 1.667397 -0.000001 0.000000 0.000000 0.000000 0.122173
    35 3.899456 -0.475376 1.170889 0.000688 0.000407 -0.541050
    36 1.528219 0.000001 0.000002 0.000000 0.000000 1.143173
    37 1.528215 -0.000002 -0.000001 0.000000 0.000000 0.218185
    38 3.899457 -0.431804 -0.168226 0.000796 0.000000 0.000000
    39 1.506966 0.000000 0.000002 0.000000 0.000000 1.117007
    40 1.506963 0.000002 -0.000003 0.000000 0.000000 0.872659
    41 3.915632 -0.278020 -1.402608 0.000796 0.000000 0.000000
    42 1.333083 0.000000 0.000004 0.000000 0.000000 1.518410
    43 1.159203 -0.000004 -0.000003 0.000000 0.000000 0.680671
    44 6.394357 2.457028 2.877110 -0.545644 -0.056807 1.454689
    45 -2.686406 2.279085 1.265268 1.570796 0.000000 1.570796
  time 25
    0 0.135014 8.526284 -24.816700 0.000000 0.000000 -1.570842
    1 0.000001 0.000000 0.000000 -0.000086 -1.570451 -1.570709
    2 4.443613 -0.009641 0.000006 -0.000004 -0.000001 0.000796
    3 12.111416 -0.011447 0.000000 0.000000 0.000000 0.000000
    4 0.000007 0.011445 1.352404 -0.000014 -1.370796 3.140810
    5 6.078087 0.000002 -0.000001 -0.248735 1.023365 -0.324490
    6 13.446752 -0.000001 -0.000002 0.000000 0.000000 -1.161927
    7 15.997001 -0.000001 0.000002 -1.348339 0.000000 0.000000
    8 1.885327 0.833277 -2.177876 -1.564651 0.803225 0.045485
    9 1.506965 0.000000 0.000001 0.000000 0.000000 -0.061091
    10 0.798347 0.000000 0.000001 0.000000 0.000000 0.314152
    11 3.950303 -0.539875 -2.108871 -0.011041 0.357426 -0.064196
    12 1.545796 -0.000002 0.000007 0.000000 0.000000 0.837746
    13 1.667399 0.000000 -0.000006 0.000000 0.000000 0.532312
    14 3.899459 -0.475376 -1.170889 -0.245101 0.070050 0.305373
    15 1.528217 0.000000 0.000002 0.000000 0.000000 0.488691
    16 1.528215 -0.000001 -0.000003 0.000000 0.000000 1.754022
    17 3.899458 -0.431803 0.168226 -0.132734 0.068204 -0.323656
    18 1.506964 0.000001 0.000004 0.000000 0.000000 1.204255
    19 1.506963 0.000000 -0.000003 0.000000 0.000000 1.160623
    20 3.915633 -0.278020 1.402606 -0.181907 0.018780 -0.320480
    21 1.333084 -0.000001 -0.000001 0.000000 0.000000 1.003545
    22 1.159203 0.000002 0.000000 0.000000 0.000000 1.605682
    23 5.024290 0.657701 -3.490760 -1.802628 -1.194217 -3.096992
    24 -1.482695 0.881217 0.000000 0.000000 0.000000 0.000000
    25 0.000005 0.011451 -1.352403 -0.487224 1.345298 2.664115
    26 6.078086 -0.000002 0.000001 0.344999 -0.050863 -0.977177
    27 13.446750 -0.000001 -0.000001 0.000000 0.000000 -0.777051
    28 15.996998 -0.000002 0.000000 2.517005 -0.616438 -0.458830
    29 1.885326 0.833276 2.177874 1.195118 -0.651728 0.432758
    30 1.506963 -0.000002 0.000002 0.000000 0.000000 -0.139626
    31 0.798350 0.000002 0.000000 0.000000 0.000000 -0.733034
    32 3.950299 -0.539876 2.108874 -0.201314 -0.381983 -0.348015
    33 1.545799 -0.000001 -0.000001 0.000000 0.000000 0.593410
    34 1.667397 -0.000001 0.000000 0.000000 0.000000 0.122173
    35 3.899456 -0.475376 1.170889 0.000688 0.000407 -0.541050
    36 1.528219 0.000001 0.000002 0.000000 0.000000 1.143173
    37 1.528215 -0.000002 -0.000001 0.000000 0.000000 0.218185
    38 3.899457 -0.431804 -0.168226 0.000796 0.000000 0.000000
    39 1.506966 0.000000 0.000002 0.000000 0.000000 1.117007
    40 1.506963 0.000002 -0.000003 0.000000 0.000000 0.872659
    41 3.915632 -0.278020 -1.402608 0.000796 0.000000 0.000000
    42 1.333083 0.000000 0.000004 0.000000 0.000000 1.518410
    43 1.159203 -0.000004 -0.000003 0.000000 0.000000 0.680671
    44 6.394357 2.457028 2.877110 -0.545644 -0.056807 1.454689
    45 -2.686406 2.279085 1.265268 1.570796 0.000000 1.570796
  time 26
    0 0.135014 8.526284 -24.816700 0.000000 0.000000 -1.570842
    1 0.000001 0.000000 0.000000 -0.000086 -1.570451 -1.570709
    2 4.443613 -0.009641 0.000006 -0.000004 -0.000001 0.000796
    3 12.111416 -0.011447 0.000000 0.000000 0.000000 0.000000
    4 0.000007 0.011445 1.352404 -0.000014 -1.370796 3.140810
    5 6.078087 0.000002 -0.000001 -0.253779 1.022025 -0.330651
    6 13.446752 -0.000001 -0.000002 0.000000 0.000000 -1.161927
    7 15.997001 -0.000001 0.000002 -1.340134 0.000000 0.000000
    8 1.885327 0.833277 -2.177876 -1.564651 0.803225 0.045485
    9 1.506965 0.000000 0.000001 0.000000 0.000000 -0.061091
    10 0.798347 0.000000 0.000001 0.000000 0.000000 0.314152
    11 3.950303 -0.539875 -2.108871 -0.011041 0.357426 -0.064196
    12 1.545796 -0.000002 0.000007 0.000000 0.000000 0.837746
    13 1.667399 0.000000 -0.000006 0.000000 0.000000 0.532312
    14 3.899459 -0.475376 -1.170889 -0.245101 0.070050 0.305373
    15 1.528217 0.000000 0.000002 0.000000 0.000000 0.488691
    16 1.528215 -0.000001 -0.000003 0.000000 0.000000 1.754022
    17 3.899458 -0.431803 0.168226 -0.132734 0.068204 -0.323656
    18 1.506964 0.000001 0.000004 0.000000 0.000000 1.204255
    19 1.506963 0.000000 -0.000003 0.000000 0.000000 1.160623
    20 3.915633 -0.278020 1.402606 -0.181907 0.018780 -0.320480
    21 1.333084 -0.000001 -0.000001 0.000000 0.000000 1.003545
    22 1.159203 0.000002 0.000000 0.000000 0.000000 1.605682
    23 5.024290 0.657701 -3.490760 -1.802628 -1.194217 -3.096992
    24 -1.482695 0.881217 0.000000 0.000000 0.000000 0.000000
    25 0.000005 0.011451 -1.352403 -0.507646 1.342876 2.644207
    26 6.078086 -0.000002 0.000001 0.311934 -0.027781 -0.967754
    27 13.446750 -0.000001 -0.000001 0.000000 0.000000 -0.798548
    28 15.996998 -0.000002 0.000000 2.561352 -0.650733 -0.464379
    29 1.885326 0.833276 2.177874 1.195118 -0.651728 0.432758
    30 1.506963 -0.000002 0.000002 0.000000 0.000000 -0.139626
    31 0.798350 0.000002 0.000000 0.000000 0.000000 -0.733034
    32 3.950299 -0.539876 2.108874 -0.201314 -0.381983 -0.348015
    33 1.545799 -0.000001 -0.000001 0.000000 0.000000 0.593410
    34 1.667397 -0.000001 0.000000 0.000000 0.000000 0.122173
    35 3.899456 -0.475376 1.170889 0.000688 0.000407 -0.541050
    36 1.528219 0.000001 0.000002 0.000000 0.000000 1.143173
    37 1.528215 -0.000002 -0.000001 0.000000 0.000000 0.218185
    38 3.899457 -0.431804 -0.168226 0.000796 0.000000 0.000000
    39 1.506966 0.000000 0.000002 0.000000 0.000000 1.117007
    40 1.506963 0.000002 -0.000003 0.000000 0.000000 0.872659
    41 3.915632 -0.278020 -1.402608 0.000796 0.000000 0.000000
    42 1.333083 0.000000 0.000004 0.000000 0.000000 1.518410
    43 1.159203 -0.000004 -0.000003 0.000000 0.000000 0.680671
    44 6.394357 2.457028 2.877110 -0.545644 -0.056807 1.454689
    45 -2.686406 2.279085 1.265268 1.570796 0.000000 1.570796
  time 27
    0 0.135014 8.526284 -24.816700 0.000000 0.000000 -1.570842
    1 0.000001 0.000000 0.000000 -0.000086 -1.570451 -1.570709
    2 4.443613 -0.009641 0.000006 -0.000004 -0.000001 0.000796
    3 12.111416 -0.011447 0.000000 0.000000 0.000000 0.000000
    4 0.000007 0.011445 1.352404 -0.000014 -1.370796 3.140810
    5 6.078087 0.000002 -0.000001 -0.259919 1.020404 -0.338110
    6 13.446752 -0.000001 -0.000002 0.000000 0.000000 -1.161927
    7 15.997001 -0.000001 0.000002 -1.332818 0.000000 0.000000
    8 1.885327 0.833277 -2.177876 -1.564651 0.803225 0.045485
    9 1.506965 0.000000 0.000001 0.000000 0.000000 -0.061091
    10 0.798347 0.000000 0.000001 0.000000 0.000000 0.314152
    11 3.950303 -0.539875 -2.108871 -0.011041 0.357426 -0.064196
    12 1.545796 -0.000002 0.000007 0.000000 0.000000 0.837746
    13 1.667399 0.000000 -0.000006 0.000000 0.000000 0.532312
    14 3.899459 -0.475376 -1.170889 -0.245101 0.070050 0.305373
    15 1.528217 0.000000 0.000002 0.000000 0.000000 0.488691
    16 1.528215 -0.000001 -0.000003 0.000000 0.000000 1.754022
    17 3.899458 -0.431803 0.168226 -0.132734 0.068204 -0.323656
    18 1.506964 0.000001 0.000004 0.000000 0.000000 1.204255
    19 1.506963 0.000000 -0.000003 0.000000 0.000000 1.160623
    20 3.915633 -0.278020 1.402606 -0.181907 0.018780 -0.320480
    21 1.333084 -0.000001 -0.000001 0.000000 0.000000 1.003545
    22 1.159203 0.000002 0.000000 0.000000 0.000000 1.605682
    23 5.024290 0.657701 -3.490760 -1.802628 -1.194217 -3.096992
    24 -1.482695 0.881217 0.000000 0.000000 0.000000 0.000000
    25 0.000005 0.011451 -1.352403 -0.524888 1.340709 2.627446
    26 6.078086 -0.000002 0.000001 0.283814 -0.007671 -0.960461
    27 13.446750 -0.000001 -0.000001 0.000000 0.000000 -0.817035
    28 15.996998 -0.000002 0.000000 2.600665 -0.680058 -0.470842
    29 1.885326 0.833276 2.177874 1.195118 -0.651728 0.432758
    30 1.506963 -0.000002 0.000002 0.000000 0.000000 -0.139626
    31 0.798350 0.000002 0.000000 0.000000 0.000000 -0.733034
    32 3.950299 -0.539876 2.108874 -0.201314 -0.381983 -0.348015
    33 1.545799 -0.000001 -0.000001 0.000000 0.000000 0.593410
    34 1.667397 -0.000001 0.000000 0.000000 0.000000 0.122173
    35 3.899456 -0.475376 1.170889 0.000688 0.000407 -0.541050
    36 1.528219 0.000001 0.000002 0.000000 0.000000 1.143173
    37 1.528215 -0.000002 -0.000001 0.000000 0.000000 0.218185
    38 3.899457 -0.431804 -0.168226 0.000796 0.000000 0.000000
    39 1.506966 0.000000 0.000002 0.000000 0.000000 1.117007
    40 1.506963 0.000002 -0.000003 0.000000 0.000000 0.872659
    41 3.915632 -0.278020 -1.402608 0.000796 0.000000 0.000000
    42 1.333083 0.000000 0.000004 0.000000 0.000000 1.518410
    43 1.159203 -0.000004 -0.000003 0.000000 0.000000 0.680671
    44 6.394357 2.457028 2.877110 -0.545644 -0.056807 1.454689
    45 -2.686406 2.279085 1.265268 1.570796 0.000000 1.570796
  time 28
    0 0.135014 8.526284 -24.816700 0.000000 0.000000 -1.570842
    1 0.000001 0.000000 0.000000 -0.000086 -1.570451 -1.570709
    2 4.443613 -0.009641 0.000006 -0.000004 -0.000001 0.000796
    3 12.111416 -0.011447 0.000000 0.000000 0.000000 0.000000
    4 0.000007 0.011445 1.352404 -0.000014 -1.370796 3.140810
    5 6.078087 0.000002 -0.000001 -0.267155 1.018395 -0.347060
    6 13.446752 -0.000001 -0.000002 0.000000 0.000000 -1.161927
    7 15.997001 -0.000001 0.000002 -1.326491 0.000000 0.000000
    8 1.885327 0.833277 -2.177876 -1.564651 0.803225 0.045485
    9 1.506965 0.000000 0.000001 0.000000 0.000000 -0.061091
    10 0.798347 0.000000 0.000001 0.000000 0.000000 0.314152
    11 3.950303 -0.539875 -2.108871 -0.011041 0.357426 -0.064196
    12 1.545796 -0.000002 0.000007 0.000000 0.000000 0.837746
    13 1.667399 0.000000 -0.000006 0.000000 0.000000 0.532312
    14 3.899459 -0.475376 -1.170889 -0.245101 0.070050 0.305373
    15 1.528217 0.000000 0.000002 0.000000 0.000000 0.488691
    16 1.528215 -0.000001 -0.000003 0.000000 0.000000 1.754022
    17 3.899458 -0.431803 0.168226 -0.132734 0.068204 -0.323656
    18 1.506964 0.000001 0.000004 0.000000 0.000000 1.204255
    19 1.506963 0.000000 -0.000003 0.000000 0.000000 1.160623
    20 3.915633 -0.278020 1.402606 -0.181907 0.018780 -0.320480
    21 1.333084 -0.000001 -0.000001 0.000000 0.000000 1.003545
    22 1.159203 0.000002 0.000000 0.000000 0.000000 1.605682
    23 5.024290 0.657701 -3.490760 -1.802628 -1.194217 -3.096992
    24 -1.482695 0.881217 0.000000 0.000000 0.000000 0.000000
    25 0.000005 0.011451 -1.352403 -0.538531 1.338924 2.614147
    26 6.078086 -0.000002 0.000001 0.261277 0.008662 -0.955053
    27 13.446750 -0.000001 -0.000001 0.000000 0.000000 -0.831968
    28 15.996998 -0.000002 0.000000 2.633225 -0.703527 -0.477275
    29 1.885326 0.833276 2.177874 1.195118 -0.651728 0.432758
    30 1.506963 -0.000002 0.000002 0.000000 0.000000 -0.139626
    31 0.798350 0.000002 0.000000 0.000000 0.000000 -0.733034
    32 3.950299 -0.539876 2.108874 -0.201314 -0.381983 -0.348015
    33 1.545799 -0.000001 -0.000001 0.000000 0.000000 0.593410
    34 1.667397 -0.000001 0.000000 0.000000 0.000000 0.122173
    35 3.899456 -0.475376 1.170889 0.000688 0.000407 -0.541050
    36 1.528219 0.000001 0.000002 0.000000 0.000000 1.143173
    37 1.528215 -0.000002 -0.000001 0.000000 0.000000 0.218185
    38 3.899457 -0.431804 -0.168226 0.000796 0.000000 0.000000
    39 1.506966 0.000000 0.000002 0.000000 0.000000 1.117007
    40 1.506963 0.000002 -0.000003 0.000000 0.000000 0.872659
    41 3.915632 -0.278020 -1.402608 0.000796 0.000000 0.000000
    42 1.333083 0.000000 0.000004 0.000000 0.000000 1.518410
    43 1.159203 -0.000004 -0.000003 0.000000 0.000000 0.680671
    44 6.394357 2.457028 2.877110 -0.545644 -0.056807 1.454689
    45 -2.686406 2.279085 1.265268 1.570796 0.000000 1.570796
  time 29
    0 0.135014 8.526284 -24.816700 0.000000 0.000000 -1.570842
    1 0.000001 0.000000 0.000000 -0.000086 -1.570451 -1.570709
    2 4.443613 -0.009641 0.000006 -0.000004 -0.000001 0.000796
    3 12.111416 -0.011447 0.000000 0.000000 0.000000 0.000000
    4 0.000007 0.011445 1.352404 -0.000014 -1.370796 3.140810
    5 6.078087 0.000002 -0.000001 -0.275652 1.015998 -0.357438
    6 13.446752 -0.000001 -0.000002 0.000000 0.000000 -1.161927
    7 15.997001 -0.000001 0.000002 -1.321185 0.000000 0.000000
    8 1.885327 0.833277 -2.177876 -1.564651 0.803225 0.045485
    9 1.506965 0.000000 0.000001 0.000000 0.000000 -0.061091
    10 0.798347 0.000000 0.000001 0.000000 0.000000 0.314152
    11 3.950303 -0.539875 -2.108871 -0.011041 0.357426 -0.064196
    12 1.545796 -0.000002 0.000007 0.000000 0.000000 0.837746
    13 1.667399 0.000000 -0.000006 0.000000 0.000000 0.532312
    14 3.899459 -0.475376 -1.170889 -0.245101 0.070050 0.305373
    15 1.528217 0.000000 0.000002 0.000000 0.000000 0.488691
    16 1.528215 -0.000001 -0.000003 0.000000 0.000000 1.754022
    17 3.899458 -0.431803 0.168226 -0.132734 0.068204 -0.323656
    18 1.506964 0.000001 0.000004 0.000000 0.000000 1.204255
    19 1.506963 0.000000 -0.000003 0.000000 0.000000 1.160623
    20 3.915633 -0.278020 1.402606 -0.181907 0.018780 -0.320480
    21 1.333084 -0.000001 -0.000001 0.000000 0.000000 1.003545
    22 1.159203 0.000002 0.000000 0.000000 0.000000 1.605682
    23 5.024290 0.657701 -3.490760 -1.802628 -1.194217 -3.096992
    24 -1.482695 0.881217 0.000000 0.000000 0.000000 0.000000
    25 0.000005 0.011451 -1.352403 -0.548240 1.337613 2.604704
    26 6.078086 -0.000002 0.000001 0.245027 0.020378 -0.951366
    27 13.446750 -0.000001 -0.000001 0.000000 0.000000 -0.842743
    28 15.996998 -0.000002 0.000000 2.657197 -0.720330 -0.482580
    29 1.885326 0.833276 2.177874 1.195118 -0.651728 0.432758
    30 1.506963 -0.000002 0.000002 0.000000 0.000000 -0.139626
    31 0.798350 0.000002 0.000000 0.000000 0.000000 -0.733034
    32 3.950299 -0.539876 2.108874 -0.201314 -0.381983 -0.348015
    33 1.545799 -0.000001 -0.000001 0.000000 0.000000 0.593410
    34 1.667397 -0.000001 0.000000 0.000000 0.000000 0.122173
    35 3.899456 -0.475376 1.170889 0.000688 0.000407 -0.541050
    36 1.528219 0.000001 0.000002 0.000000 0.000000 1.143173
    37 1.528215 -0.000002 -0.000001 0.000000 0.000000 0.218185
    38 3.899457 -0.431804 -0.168226 0.000796 0.000000 0.000000
    39 1.506966 0.000000 0.000002 0.000000 0.000000 1.117007
    40 1.506963 0.000002 -0.000003 0.000000 0.000000 0.872659
    41 3.915632 -0.278020 -1.402608 0.000796 0.000000 0.000000
    42 1.333083 0.000000 0.000004 0.000000 0.000000 1.518410
    43 1.159203 -0.000004 -0.000003 0.000000 0.000000 0.680671
    44 6.394357 2.457028 2.877110 -0.545644 -0.056807 1.454689
    45 -2.686406 2.279085 1.265268 1.570796 0.000000 1.570796
  time 30
    0 0.135014 8.526284 -24.816700 0.000000 0.000000 -1.570842
    1 0.000001 0.000000 0.000000 -0.000086 -1.570451 -1.570709
    2 4.443613 -0.009641 0.000006 -0.000004 -0.000001 0.000796
    3 12.111416 -0.011447 0.000000 0.000000 0.000000 0.000000
    4 0.000007 0.011445 1.352404 -0.000014 -1.370796 3.140810
    5 6.078087 0.000002 -0.000001 -0.285356 1.013177 -0.369371
    6 13.446752 -0.000001 -0.000002 0.000000 0.000000 -1.161927
    7 15.997001 -0.000001 0.000002 -1.316934 0.000000 0.000000
    8 1.885327 0.833277 -2.177876 -1.564651 0.803225 0.045485
    9 1.506965 0.000000 0.000001 0.000000 0.000000 -0.061091
    10 0.798347 0.000000 0.000001 0.000000 0.000000 0.314152
    11 3.950303 -0.539875 -2.108871 -0.011041 0.357426 -0.064196
    12 1.545796 -0.000002 0.000007 0.000000 0.000000 0.837746
    13 1.667399 0.000000 -0.000006 0.000000 0.000000 0.532312
    14 3.899459 -0.475376 -1.170889 -0.245101 0.070050 0.305373
    15 1.528217 0.000000 0.000002 0.000000 0.000000 0.488691
    16 1.528215 -0.000001 -0.000003 0.000000 0.000000 1.754022
    17 3.899458 -0.431803 0.168226 -0.132734 0.068204 -0.323656
    18 1.506964 0.000001 0.000004 0.000000 0.000000 1.204255
    19 1.506963 0.000000 -0.000003 0.000000 0.000000 1.160623
    20 3.915633 -0.278020 1.402606 -0.181907 0.018780 -0.320480
    21 1.333084 -0.000001 -0.000001 0.000000 0.000000 1.003545
    22 1.159203 0.000002 0.000000 0.000000 0.000000 1.605682
    23 5.024290 0.657701 -3.490760 -1.802628 -1.194217 -3.096992
    24 -1.482695 0.881217 0.000000 0.000000 0.000000 0.000000
    25 0.000005 0.011451 -1.352403 -0.553555 1.336866 2.599511
    26 6.078086 -0.000002 0.000001 0.235771 0.026813 -0.949154
    27 13.446750 -0.000001 -0.000001 0.000000 0.000000 -0.848705
    28 15.996998 -0.000002 0.000000 2.670740 -0.729605 -0.485811
    29 1.885326 0.833276 2.177874 1.195118 -0.651728 0.432758
    30 1.506963 -0.000002 0.000002 0.000000 0.000000 -0.139626
    31 0.798350 0.000002 0.000000 0.000000 0.000000 -0.733034
    32 3.950299 -0.539876 2.108874 -0.201314 -0.381971 -0.348015
    33 1.545799 -0.000001 -0.000001 0.000000 0.000000 0.593410
    34 1.667397 -0.000001 0.000000 0.000000 0.000000 0.122173
    35 3.899456 -0.475376 1.170889 0.000688 0.000407 -0.541050
    36 1.528219 0.000001 0.000002 0.000000 0.000000 1.143173
    37 1.528215 -0.000002 -0.000001 0.000000 0.000000 0.218185
    38 3.899457 -0.431804 -0.168226 0.000796 0.000000 0.000000
    39 1.506966 0.000000 0.000002 0.000000 0.000000 1.117007
    40 1.506963 0.000002 -0.000003 0.000000 0.000000 0.872659
    41 3.915632 -0.278020 -1.402608 0.000796 0.000000 0.000000
    42 1.333083 0.000000 0.000004 0.000000 0.000000 1.518410
    43 1.159203 -0.000004 -0.000003 0.000000 0.000000 0.680671
    44 6.394357 2.457028 2.877110 -0.545644 -0.056807 1.454689
    45 -2.686406 2.279085 1.265268 1.570796 0.000000 1.570796
end
