// Created by Crowbar 0.68
version 1
nodes
  0 "Bip01" -1
  1 "Bip01 Pelvis" 0
  2 "Bip01 Spine" 1
  3 "Bip01 Neck" 2
  4 "Bip01 L Clavicle" 3
  5 "Bip01 L UpperArm" 4
  6 "Bip01 L Forearm" 5
  7 "Bip01 L Hand" 6
  8 "Bip01 L Finger0" 7
  9 "Bip01 L Finger01" 8
  10 "Bip01 L Finger02" 9
  11 "Bip01 L Finger1" 7
  12 "Bip01 L Finger11" 11
  13 "Bip01 L Finger12" 12
  14 "Bip01 L Finger2" 7
  15 "Bip01 L Finger21" 14
  16 "Bip01 L Finger22" 15
  17 "Bip01 L Finger3" 7
  18 "Bip01 L Finger31" 17
  19 "Bip01 L Finger32" 18
  20 "Bip01 L Finger4" 7
  21 "Bip01 L Finger41" 20
  22 "Bip01 L Finger42" 21
  23 "Dummy16" 7
  24 "Dummy15" 23
  25 "Bip01 R Clavicle" 3
  26 "Bip01 R UpperArm" 25
  27 "Bip01 R Forearm" 26
  28 "Bip01 R Hand" 27
  29 "Bip01 R Finger0" 28
  30 "Bip01 R Finger01" 29
  31 "Bip01 R Finger02" 30
  32 "Bip01 R Finger1" 28
  33 "Bip01 R Finger11" 32
  34 "Bip01 R Finger12" 33
  35 "Bip01 R Finger2" 28
  36 "Bip01 R Finger21" 35
  37 "Bip01 R Finger22" 36
  38 "Bip01 R Finger3" 28
  39 "Bip01 R Finger31" 38
  40 "Bip01 R Finger32" 39
  41 "Bip01 R Finger4" 28
  42 "Bip01 R Finger41" 41
  43 "Bip01 R Finger42" 42
  44 "Dummy14" 28
  45 "Dummy18" 44
end
skeleton
  time 0
    0 0.135014 8.526284 -24.816700 0.000000 0.000000 -1.570794
    1 0.000001 0.000000 0.000000 -0.000086 -1.570451 -1.570709
    2 4.443613 -0.009641 0.000006 -0.000004 -0.000001 0.000796
    3 12.111416 -0.011447 0.000000 0.000000 0.000000 0.000000
    4 0.000007 0.011444 1.352404 1.191582 -1.069791 1.996456
    5 6.078088 0.000002 -0.000003 -0.565657 0.820957 -0.250553
    6 13.446749 -0.000001 -0.000003 0.000000 0.000000 -1.220864
    7 15.996999 0.000001 -0.000001 -1.505891 0.013714 -0.232892
    8 1.885327 0.833274 -2.177877 -1.565718 0.576345 0.043843
    9 1.506965 -0.000001 -0.000001 0.000000 0.000000 -0.061091
    10 0.798346 -0.000001 0.000000 0.000000 0.000000 -0.628304
    11 3.950305 -0.539878 -2.108874 -0.062826 0.352261 -0.213008
    12 1.545794 -0.000001 0.000004 0.000000 0.000000 0.479954
    13 1.667400 -0.000002 -0.000004 0.000000 0.000000 0.846473
    14 3.899459 -0.475376 -1.170890 -0.444073 0.044259 -0.013413
    15 1.528215 -0.000001 0.000002 0.000000 0.000000 0.130902
    16 1.528216 0.000001 0.000002 0.000000 0.000000 0.828996
    17 3.899460 -0.431805 0.168225 -0.254917 0.068204 -0.323656
    18 1.506965 -0.000002 -0.000002 0.000000 0.000000 0.610835
    19 1.506965 0.000004 0.000000 0.000000 0.000000 0.724285
    20 3.915635 -0.278020 1.402608 -0.291950 0.049113 -0.220193
    21 1.333082 -0.000002 -0.000001 0.000000 0.000000 0.767941
    22 1.159204 0.000001 0.000000 0.000000 0.000000 0.785375
    23 -27.949372 16.619126 5.169661 -1.802628 -1.194217 -3.096992
    24 -1.482699 0.881216 0.000000 0.000000 0.000000 0.000000
    25 0.000005 0.011451 -1.352403 -1.191590 1.069779 1.996427
    26 6.078086 0.000000 0.000002 0.846556 -0.869421 -0.466369
    27 13.446753 -0.000001 0.000001 0.000000 0.000000 -1.075591
    28 15.997001 0.000000 0.000000 1.545212 -0.179345 -0.635411
    29 1.885329 0.833277 2.177873 1.272475 -0.122784 0.235575
    30 1.506961 -0.000001 0.000002 0.000000 0.000000 -0.061098
    31 0.798352 0.000002 0.000002 0.000000 0.000000 -0.000014
    32 3.950305 -0.539877 2.108872 -0.304993 -0.095731 -0.302533
    33 1.545795 0.000001 -0.000002 0.000000 0.000000 0.628309
    34 1.667396 -0.000003 0.000003 0.000000 0.000000 0.855201
    35 3.899461 -0.475377 1.170887 0.000592 0.000539 -0.750466
    36 1.528217 0.000000 0.000005 0.000000 0.000000 0.846475
    37 1.528215 0.000001 0.000002 0.000000 0.000000 0.846468
    38 3.899460 -0.431802 -0.168225 0.000652 0.000467 -0.628310
    39 1.506961 -0.000001 -0.000001 0.000000 0.000000 0.689389
    40 1.506964 -0.000002 0.000002 0.000000 0.000000 0.811570
    41 3.915632 -0.278018 -1.402610 0.000736 0.000312 -0.410141
    42 1.333083 0.000002 -0.000001 0.000000 0.000000 0.645758
    43 1.159202 -0.000002 0.000000 0.000000 0.000000 0.680671
    44 6.351387 4.660221 1.005959 -0.146892 0.156303 2.700311
    45 -2.686409 2.279088 1.265273 4.677388 0.000000 1.570796
  time 1
    0 0.135014 8.526284 -24.816700 0.000000 0.000000 -1.570794
    1 0.000001 0.000000 0.000000 -0.000086 -1.570451 -1.570709
    2 4.443613 -0.009641 0.000006 -0.000004 -0.000001 0.000796
    3 12.111416 -0.011447 0.000000 0.000000 0.000000 0.000000
    4 0.000007 0.011444 1.352404 1.191582 -1.069791 1.996456
    5 6.078088 0.000002 -0.000003 -0.586325 0.808267 -0.279025
    6 13.446749 -0.000001 -0.000003 0.000000 0.000000 -1.220864
    7 15.996999 0.000001 -0.000001 -1.505891 0.013714 -0.232892
    8 1.885327 0.833274 -2.177877 -1.565718 0.576345 0.043843
    9 1.506965 -0.000001 -0.000001 0.000000 0.000000 -0.061091
    10 0.798346 -0.000001 0.000000 0.000000 0.000000 -0.628487
    11 3.950305 -0.539878 -2.108874 -0.062790 0.352273 -0.212900
    12 1.545794 -0.000001 0.000004 0.000000 0.000000 0.480079
    13 1.667400 -0.000002 -0.000004 0.000000 0.000000 0.846473
    14 3.899459 -0.475376 -1.170890 -0.444073 0.044259 -0.013413
    15 1.528215 -0.000001 0.000002 0.000000 0.000000 0.131226
    16 1.528216 0.000001 0.000002 0.000000 0.000000 0.828996
    17 3.899460 -0.431805 0.168225 -0.254917 0.068204 -0.323656
    18 1.506965 -0.000002 -0.000002 0.000000 0.000000 0.610835
    19 1.506965 0.000004 0.000000 0.000000 0.000000 0.724285
    20 3.915635 -0.278020 1.402608 -0.291950 0.049113 -0.220193
    21 1.333082 -0.000002 -0.000001 0.000000 0.000000 0.767941
    22 1.159204 0.000001 0.000000 0.000000 0.000000 0.785375
    23 -27.949372 16.619126 5.169661 -1.802628 -1.194217 -3.096992
    24 -1.482699 0.881216 0.000000 0.000000 0.000000 0.000000
    25 0.000005 0.011451 -1.352403 -1.191590 1.069779 1.996427
    26 6.078086 0.000000 0.000002 0.864360 -0.851830 -0.489804
    27 13.446753 -0.000001 0.000001 0.000000 0.000000 -1.075591
    28 15.997001 0.000000 0.000000 1.545212 -0.179345 -0.635411
    29 1.885329 0.833277 2.177873 1.272475 -0.122784 0.235575
    30 1.506961 -0.000001 0.000002 0.000000 0.000000 -0.061098
    31 0.798352 0.000002 0.000002 0.000000 0.000000 -0.000014
    32 3.950305 -0.539877 2.108872 -0.304993 -0.095731 -0.302533
    33 1.545795 0.000001 -0.000002 0.000000 0.000000 0.628309
    34 1.667396 -0.000003 0.000003 0.000000 0.000000 0.855201
    35 3.899461 -0.475377 1.170887 0.000592 0.000539 -0.750466
    36 1.528217 0.000000 0.000005 0.000000 0.000000 0.846475
    37 1.528215 0.000001 0.000002 0.000000 0.000000 0.846468
    38 3.899460 -0.431802 -0.168225 0.000652 0.000467 -0.628310
    39 1.506961 -0.000001 -0.000001 0.000000 0.000000 0.689389
    40 1.506964 -0.000002 0.000002 0.000000 0.000000 0.811570
    41 3.915632 -0.278018 -1.402610 0.000736 0.000312 -0.410141
    42 1.333083 0.000002 -0.000001 0.000000 0.000000 0.645758
    43 1.159202 -0.000002 0.000000 0.000000 0.000000 0.680671
    44 6.351387 4.660221 1.005959 -0.146892 0.156303 2.700311
    45 -2.686409 2.279088 1.265273 4.677388 0.000000 1.570796
  time 2
    0 0.135014 8.526284 -24.816700 0.000000 0.000000 -1.570794
    1 0.000001 0.000000 0.000000 -0.000086 -1.570451 -1.570709
    2 4.443613 -0.009641 0.000006 -0.000004 -0.000001 0.000796
    3 12.111416 -0.011447 0.000000 0.000000 0.000000 0.000000
    4 0.000007 0.011444 1.352404 1.191582 -1.069791 1.996456
    5 6.078088 0.000002 -0.000003 -0.606280 0.795154 -0.306784
    6 13.446749 -0.000001 -0.000003 0.000000 0.000000 -1.220864
    7 15.996999 0.000001 -0.000001 -1.505891 0.013714 -0.232892
    8 1.885327 0.833274 -2.177877 -1.565718 0.576345 0.043843
    9 1.506965 -0.000001 -0.000001 0.000000 0.000000 -0.061091
    10 0.798346 -0.000001 0.000000 0.000000 0.000000 -0.628955
    11 3.950305 -0.539878 -2.108874 -0.062682 0.352285 -0.212601
    12 1.545794 -0.000001 0.000004 0.000000 0.000000 0.480414
    13 1.667400 -0.000002 -0.000004 0.000000 0.000000 0.846473
    14 3.899459 -0.475376 -1.170890 -0.444073 0.044259 -0.013413
    15 1.528215 -0.000001 0.000002 0.000000 0.000000 0.132085
    16 1.528216 0.000001 0.000002 0.000000 0.000000 0.828996
    17 3.899460 -0.431805 0.168225 -0.254917 0.068204 -0.323656
    18 1.506965 -0.000002 -0.000002 0.000000 0.000000 0.610835
    19 1.506965 0.000004 0.000000 0.000000 0.000000 0.724285
    20 3.915635 -0.278020 1.402608 -0.291950 0.049113 -0.220193
    21 1.333082 -0.000002 -0.000001 0.000000 0.000000 0.767941
    22 1.159204 0.000001 0.000000 0.000000 0.000000 0.785375
    23 -27.949372 16.619126 5.169661 -1.802628 -1.194217 -3.096992
    24 -1.482699 0.881216 0.000000 0.000000 0.000000 0.000000
    25 0.000005 0.011451 -1.352403 -1.191590 1.069779 1.996427
    26 6.078086 0.000000 0.000002 0.881246 -0.833853 -0.512501
    27 13.446753 -0.000001 0.000001 0.000000 0.000000 -1.075591
    28 15.997001 0.000000 0.000000 1.545212 -0.179345 -0.635411
    29 1.885329 0.833277 2.177873 1.272475 -0.122784 0.235575
    30 1.506961 -0.000001 0.000002 0.000000 0.000000 -0.061098
    31 0.798352 0.000002 0.000002 0.000000 0.000000 -0.000014
    32 3.950305 -0.539877 2.108872 -0.304993 -0.095731 -0.302533
    33 1.545795 0.000001 -0.000002 0.000000 0.000000 0.628309
    34 1.667396 -0.000003 0.000003 0.000000 0.000000 0.855201
    35 3.899461 -0.475377 1.170887 0.000592 0.000539 -0.750466
    36 1.528217 0.000000 0.000005 0.000000 0.000000 0.846475
    37 1.528215 0.000001 0.000002 0.000000 0.000000 0.846468
    38 3.899460 -0.431802 -0.168225 0.000652 0.000467 -0.628310
    39 1.506961 -0.000001 -0.000001 0.000000 0.000000 0.689389
    40 1.506964 -0.000002 0.000002 0.000000 0.000000 0.811570
    41 3.915632 -0.278018 -1.402610 0.000736 0.000312 -0.410141
    42 1.333083 0.000002 -0.000001 0.000000 0.000000 0.645758
    43 1.159202 -0.000002 0.000000 0.000000 0.000000 0.680671
    44 6.351387 4.660221 1.005959 -0.146892 0.156303 2.700311
    45 -2.686409 2.279088 1.265273 4.677388 0.000000 1.570796
  time 3
    0 0.135014 8.526284 -24.816700 0.000000 0.000000 -1.570794
    1 0.000001 0.000000 0.000000 -0.000086 -1.570451 -1.570709
    2 4.443613 -0.009641 0.000006 -0.000004 -0.000001 0.000796
    3 12.111416 -0.011447 0.000000 0.000000 0.000000 0.000000
    4 0.000007 0.011444 1.352404 1.191582 -1.069791 1.996456
    5 6.078088 0.000002 -0.000003 -0.625522 0.781653 -0.333830
    6 13.446749 -0.000001 -0.000003 0.000000 0.000000 -1.220864
    7 15.996999 0.000001 -0.000001 -1.505891 0.013714 -0.232892
    8 1.885327 0.833274 -2.177877 -1.565718 0.576345 0.043843
    9 1.506965 -0.000001 -0.000001 0.000000 0.000000 -0.061091
    10 0.798346 -0.000001 0.000000 0.000000 0.000000 -0.629707
    11 3.950305 -0.539878 -2.108874 -0.062527 0.352321 -0.212121
    12 1.545794 -0.000001 0.000004 0.000000 0.000000 0.480936
    13 1.667400 -0.000002 -0.000004 0.000000 0.000000 0.846473
    14 3.899459 -0.475376 -1.170890 -0.444073 0.044259 -0.013413
    15 1.528215 -0.000001 0.000002 0.000000 0.000000 0.133420
    16 1.528216 0.000001 0.000002 0.000000 0.000000 0.828996
    17 3.899460 -0.431805 0.168225 -0.254917 0.068204 -0.323656
    18 1.506965 -0.000002 -0.000002 0.000000 0.000000 0.610835
    19 1.506965 0.000004 0.000000 0.000000 0.000000 0.724285
    20 3.915635 -0.278020 1.402608 -0.291950 0.049113 -0.220193
    21 1.333082 -0.000002 -0.000001 0.000000 0.000000 0.767941
    22 1.159204 0.000001 0.000000 0.000000 0.000000 0.785375
    23 -27.949372 16.619126 5.169661 -1.802628 -1.194217 -3.096992
    24 -1.482699 0.881216 0.000000 0.000000 0.000000 0.000000
    25 0.000005 0.011451 -1.352403 -1.191590 1.069779 1.996427
    26 6.078086 0.000000 0.000002 0.897283 -0.815597 -0.534297
    27 13.446753 -0.000001 0.000001 0.000000 0.000000 -1.075591
    28 15.997001 0.000000 0.000000 1.545212 -0.179345 -0.635411
    29 1.885329 0.833277 2.177873 1.272475 -0.122784 0.235575
    30 1.506961 -0.000001 0.000002 0.000000 0.000000 -0.061098
    31 0.798352 0.000002 0.000002 0.000000 0.000000 -0.000014
    32 3.950305 -0.539877 2.108872 -0.304993 -0.095731 -0.302533
    33 1.545795 0.000001 -0.000002 0.000000 0.000000 0.628309
    34 1.667396 -0.000003 0.000003 0.000000 0.000000 0.855201
    35 3.899461 -0.475377 1.170887 0.000592 0.000539 -0.750466
    36 1.528217 0.000000 0.000005 0.000000 0.000000 0.846475
    37 1.528215 0.000001 0.000002 0.000000 0.000000 0.846468
    38 3.899460 -0.431802 -0.168225 0.000652 0.000467 -0.628310
    39 1.506961 -0.000001 -0.000001 0.000000 0.000000 0.689389
    40 1.506964 -0.000002 0.000002 0.000000 0.000000 0.811570
    41 3.915632 -0.278018 -1.402610 0.000736 0.000312 -0.410141
    42 1.333083 0.000002 -0.000001 0.000000 0.000000 0.645758
    43 1.159202 -0.000002 0.000000 0.000000 0.000000 0.680671
    44 6.351387 4.660221 1.005959 -0.146892 0.156303 2.700277
    45 -2.686409 2.279088 1.265273 4.677388 0.000000 1.570796
  time 4
    0 0.135014 8.526284 -24.816700 0.000000 0.000000 -1.570794
    1 0.000001 0.000000 0.000000 -0.000086 -1.570451 -1.570709
    2 4.443613 -0.009641 0.000006 -0.000004 -0.000001 0.000796
    3 12.111416 -0.011447 0.000000 0.000000 0.000000 0.000000
    4 0.000007 0.011444 1.352404 1.191582 -1.069791 1.996456
    5 6.078088 0.000002 -0.000003 -0.643942 0.767764 -0.360226
    6 13.446749 -0.000001 -0.000003 0.000000 0.000000 -1.220864
    7 15.996999 0.000001 -0.000001 -1.505891 0.013714 -0.232892
    8 1.885327 0.833274 -2.177877 -1.565718 0.576345 0.043843
    9 1.506965 -0.000001 -0.000001 0.000000 0.000000 -0.061091
    10 0.798346 -0.000001 0.000000 0.000000 0.000000 -0.630642
    11 3.950305 -0.539878 -2.108874 -0.062311 0.352357 -0.211522
    12 1.545794 -0.000001 0.000004 0.000000 0.000000 0.481584
    13 1.667400 -0.000002 -0.000004 0.000000 0.000000 0.846473
    14 3.899459 -0.475376 -1.170890 -0.444073 0.044259 -0.013413
    15 1.528215 -0.000001 0.000002 0.000000 0.000000 0.135118
    16 1.528216 0.000001 0.000002 0.000000 0.000000 0.828996
    17 3.899460 -0.431805 0.168225 -0.254917 0.068204 -0.323656
    18 1.506965 -0.000002 -0.000002 0.000000 0.000000 0.610835
    19 1.506965 0.000004 0.000000 0.000000 0.000000 0.724285
    20 3.915635 -0.278020 1.402608 -0.291950 0.049113 -0.220193
    21 1.333082 -0.000002 -0.000001 0.000000 0.000000 0.767941
    22 1.159204 0.000001 0.000000 0.000000 0.000000 0.785375
    23 -27.949372 16.619126 5.169661 -1.802628 -1.194217 -3.096992
    24 -1.482699 0.881216 0.000000 0.000000 0.000000 0.000000
    25 0.000005 0.011451 -1.352403 -1.191590 1.069779 1.996427
    26 6.078086 0.000000 0.000002 0.912544 -0.797061 -0.555355
    27 13.446753 -0.000001 0.000001 0.000000 0.000000 -1.075591
    28 15.997001 0.000000 0.000000 1.545212 -0.179345 -0.635411
    29 1.885329 0.833277 2.177873 1.272475 -0.122784 0.235575
    30 1.506961 -0.000001 0.000002 0.000000 0.000000 -0.061098
    31 0.798352 0.000002 0.000002 0.000000 0.000000 -0.000014
    32 3.950305 -0.539877 2.108872 -0.304993 -0.095731 -0.302533
    33 1.545795 0.000001 -0.000002 0.000000 0.000000 0.628309
    34 1.667396 -0.000003 0.000003 0.000000 0.000000 0.855201
    35 3.899461 -0.475377 1.170887 0.000592 0.000539 -0.750466
    36 1.528217 0.000000 0.000005 0.000000 0.000000 0.846475
    37 1.528215 0.000001 0.000002 0.000000 0.000000 0.846468
    38 3.899460 -0.431802 -0.168225 0.000652 0.000467 -0.628310
    39 1.506961 -0.000001 -0.000001 0.000000 0.000000 0.689389
    40 1.506964 -0.000002 0.000002 0.000000 0.000000 0.811570
    41 3.915632 -0.278018 -1.402610 0.000736 0.000312 -0.410141
    42 1.333083 0.000002 -0.000001 0.000000 0.000000 0.645758
    43 1.159202 -0.000002 0.000000 0.000000 0.000000 0.680671
    44 6.351387 4.660221 1.005959 -0.146892 0.156303 2.700311
    45 -2.686409 2.279088 1.265273 4.677388 0.000000 1.570796
  time 5
    0 0.135014 8.526284 -24.816700 0.000000 0.000000 -1.570794
    1 0.000001 0.000000 0.000000 -0.000086 -1.570451 -1.570709
    2 4.443613 -0.009641 0.000006 -0.000004 -0.000001 0.000796
    3 12.111416 -0.011447 0.000000 0.000000 0.000000 0.000000
    4 0.000007 0.011444 1.352404 1.191582 -1.069791 1.996456
    5 6.078088 0.000002 -0.000003 -0.661649 0.753523 -0.385910
    6 13.446749 -0.000001 -0.000003 0.000000 0.000000 -1.220864
    7 15.996999 0.000001 -0.000001 -1.505891 0.013714 -0.232892
    8 1.885327 0.833274 -2.177877 -1.565718 0.576345 0.043843
    9 1.506965 -0.000001 -0.000001 0.000000 0.000000 -0.061091
    10 0.798346 -0.000001 0.000000 0.000000 0.000000 -0.631759
    11 3.950305 -0.539878 -2.108874 -0.062071 0.352393 -0.210815
    12 1.545794 -0.000001 0.000004 0.000000 0.000000 0.482357
    13 1.667400 -0.000002 -0.000004 0.000000 0.000000 0.846473
    14 3.899459 -0.475376 -1.170890 -0.444073 0.044259 -0.013413
    15 1.528215 -0.000001 0.000002 0.000000 0.000000 0.137103
    16 1.528216 0.000001 0.000002 0.000000 0.000000 0.828996
    17 3.899460 -0.431805 0.168225 -0.254917 0.068204 -0.323656
    18 1.506965 -0.000002 -0.000002 0.000000 0.000000 0.610835
    19 1.506965 0.000004 0.000000 0.000000 0.000000 0.724285
    20 3.915635 -0.278020 1.402608 -0.291950 0.049113 -0.220193
    21 1.333082 -0.000002 -0.000001 0.000000 0.000000 0.767941
    22 1.159204 0.000001 0.000000 0.000000 0.000000 0.785375
    23 -27.949372 16.619126 5.169661 -1.802628 -1.194217 -3.096992
    24 -1.482699 0.881216 0.000000 0.000000 0.000000 0.000000
    25 0.000005 0.011451 -1.352403 -1.191590 1.069779 1.996427
    26 6.078086 0.000000 0.000002 0.926887 -0.778245 -0.575676
    27 13.446753 -0.000001 0.000001 0.000000 0.000000 -1.075591
    28 15.997001 0.000000 0.000000 1.545212 -0.179345 -0.635411
    29 1.885329 0.833277 2.177873 1.272475 -0.122784 0.235575
    30 1.506961 -0.000001 0.000002 0.000000 0.000000 -0.061098
    31 0.798352 0.000002 0.000002 0.000000 0.000000 -0.000014
    32 3.950305 -0.539877 2.108872 -0.304993 -0.095731 -0.302533
    33 1.545795 0.000001 -0.000002 0.000000 0.000000 0.628309
    34 1.667396 -0.000003 0.000003 0.000000 0.000000 0.855201
    35 3.899461 -0.475377 1.170887 0.000592 0.000539 -0.750466
    36 1.528217 0.000000 0.000005 0.000000 0.000000 0.846475
    37 1.528215 0.000001 0.000002 0.000000 0.000000 0.846468
    38 3.899460 -0.431802 -0.168225 0.000652 0.000467 -0.628310
    39 1.506961 -0.000001 -0.000001 0.000000 0.000000 0.689389
    40 1.506964 -0.000002 0.000002 0.000000 0.000000 0.811570
    41 3.915632 -0.278018 -1.402610 0.000736 0.000312 -0.410141
    42 1.333083 0.000002 -0.000001 0.000000 0.000000 0.645758
    43 1.159202 -0.000002 0.000000 0.000000 0.000000 0.680671
    44 6.351387 4.660221 1.005959 -0.146892 0.156303 2.700311
    45 -2.686409 2.279088 1.265273 4.677388 0.000000 1.570796
  time 6
    0 0.135014 8.526284 -24.816700 0.000000 0.000000 -1.570794
    1 0.000001 0.000000 0.000000 -0.000086 -1.570451 -1.570709
    2 4.443613 -0.009641 0.000006 -0.000004 -0.000001 0.000796
    3 12.111416 -0.011447 0.000000 0.000000 0.000000 0.000000
    4 0.000007 0.011444 1.352404 1.191582 -1.069791 1.996456
    5 6.078088 0.000002 -0.000003 -0.678644 0.738964 -0.410945
    6 13.446749 -0.000001 -0.000003 0.000000 0.000000 -1.220864
    7 15.996999 0.000001 -0.000001 -1.505891 0.013714 -0.232892
    8 1.885327 0.833274 -2.177877 -1.565718 0.576345 0.043843
    9 1.506965 -0.000001 -0.000001 0.000000 0.000000 -0.061091
    10 0.798346 -0.000001 0.000000 0.000000 0.000000 -0.632959
    11 3.950305 -0.539878 -2.108874 -0.061808 0.352441 -0.210048
    12 1.545794 -0.000001 0.000004 0.000000 0.000000 0.483214
    13 1.667400 -0.000002 -0.000004 0.000000 0.000000 0.846473
    14 3.899459 -0.475376 -1.170890 -0.444073 0.044259 -0.013413
    15 1.528215 -0.000001 0.000002 0.000000 0.000000 0.139278
    16 1.528216 0.000001 0.000002 0.000000 0.000000 0.828996
    17 3.899460 -0.431805 0.168225 -0.254917 0.068204 -0.323656
    18 1.506965 -0.000002 -0.000002 0.000000 0.000000 0.610835
    19 1.506965 0.000004 0.000000 0.000000 0.000000 0.724285
    20 3.915635 -0.278020 1.402608 -0.291950 0.049113 -0.220193
    21 1.333082 -0.000002 -0.000001 0.000000 0.000000 0.767941
    22 1.159204 0.000001 0.000000 0.000000 0.000000 0.785375
    23 -27.949372 16.619126 5.169661 -1.802640 -1.194217 -3.096992
    24 -1.482699 0.881216 0.000000 0.000000 0.000000 0.000000
    25 0.000005 0.011451 -1.352403 -1.191590 1.069779 1.996427
    26 6.078086 0.000000 0.000002 0.940522 -0.759219 -0.595259
    27 13.446753 -0.000001 0.000001 0.000000 0.000000 -1.075591
    28 15.997001 0.000000 0.000000 1.545212 -0.179345 -0.635411
    29 1.885329 0.833277 2.177873 1.272475 -0.122784 0.235575
    30 1.506961 -0.000001 0.000002 0.000000 0.000000 -0.061098
    31 0.798352 0.000002 0.000002 0.000000 0.000000 -0.000014
    32 3.950305 -0.539877 2.108872 -0.304993 -0.095731 -0.302533
    33 1.545795 0.000001 -0.000002 0.000000 0.000000 0.628309
    34 1.667396 -0.000003 0.000003 0.000000 0.000000 0.855201
    35 3.899461 -0.475377 1.170887 0.000592 0.000539 -0.750466
    36 1.528217 0.000000 0.000005 0.000000 0.000000 0.846475
    37 1.528215 0.000001 0.000002 0.000000 0.000000 0.846468
    38 3.899460 -0.431802 -0.168225 0.000652 0.000467 -0.628310
    39 1.506961 -0.000001 -0.000001 0.000000 0.000000 0.689389
    40 1.506964 -0.000002 0.000002 0.000000 0.000000 0.811570
    41 3.915632 -0.278018 -1.402610 0.000736 0.000312 -0.410141
    42 1.333083 0.000002 -0.000001 0.000000 0.000000 0.645758
    43 1.159202 -0.000002 0.000000 0.000000 0.000000 0.680671
    44 6.351387 4.660221 1.005959 -0.146892 0.156303 2.700277
    45 -2.686409 2.279088 1.265273 4.677388 0.000000 1.570796
  time 7
    0 0.135014 8.526284 -24.816700 0.000000 0.000000 -1.570794
    1 0.000001 0.000000 0.000000 -0.000086 -1.570451 -1.570709
    2 4.443613 -0.009641 0.000006 -0.000004 -0.000001 0.000796
    3 12.111416 -0.011447 0.000000 0.000000 0.000000 0.000000
    4 0.000007 0.011444 1.352404 1.191582 -1.069791 1.996456
    5 6.078088 0.000002 -0.000003 -0.694926 0.724124 -0.435331
    6 13.446749 -0.000001 -0.000003 0.000000 0.000000 -1.220864
    7 15.996999 0.000001 -0.000001 -1.505891 0.013714 -0.232892
    8 1.885327 0.833274 -2.177877 -1.565718 0.576345 0.043843
    9 1.506965 -0.000001 -0.000001 0.000000 0.000000 -0.061091
    10 0.798346 -0.000001 0.000000 0.000000 0.000000 -0.634219
    11 3.950305 -0.539878 -2.108874 -0.061532 0.352489 -0.209245
    12 1.545794 -0.000001 0.000004 0.000000 0.000000 0.484092
    13 1.667400 -0.000002 -0.000004 0.000000 0.000000 0.846473
    14 3.899459 -0.475376 -1.170890 -0.444073 0.044259 -0.013413
    15 1.528215 -0.000001 0.000002 0.000000 0.000000 0.141529
    16 1.528216 0.000001 0.000002 0.000000 0.000000 0.828996
    17 3.899460 -0.431805 0.168225 -0.254917 0.068204 -0.323656
    18 1.506965 -0.000002 -0.000002 0.000000 0.000000 0.610835
    19 1.506965 0.000004 0.000000 0.000000 0.000000 0.724285
    20 3.915635 -0.278020 1.402608 -0.291950 0.049113 -0.220193
    21 1.333082 -0.000002 -0.000001 0.000000 0.000000 0.767941
    22 1.159204 0.000001 0.000000 0.000000 0.000000 0.785375
    23 -27.949372 16.619126 5.169661 -1.802628 -1.194217 -3.096992
    24 -1.482699 0.881216 0.000000 0.000000 0.000000 0.000000
    25 0.000005 0.011451 -1.352403 -1.191590 1.069779 1.996427
    26 6.078086 0.000000 0.000002 0.953452 -0.739984 -0.614187
    27 13.446753 -0.000001 0.000001 0.000000 0.000000 -1.075591
    28 15.997001 0.000000 0.000000 1.545212 -0.179345 -0.635411
    29 1.885329 0.833277 2.177873 1.272475 -0.122784 0.235575
    30 1.506961 -0.000001 0.000002 0.000000 0.000000 -0.061098
    31 0.798352 0.000002 0.000002 0.000000 0.000000 -0.000014
    32 3.950305 -0.539877 2.108872 -0.304993 -0.095731 -0.302533
    33 1.545795 0.000001 -0.000002 0.000000 0.000000 0.628309
    34 1.667396 -0.000003 0.000003 0.000000 0.000000 0.855201
    35 3.899461 -0.475377 1.170887 0.000592 0.000539 -0.750466
    36 1.528217 0.000000 0.000005 0.000000 0.000000 0.846475
    37 1.528215 0.000001 0.000002 0.000000 0.000000 0.846468
    38 3.899460 -0.431802 -0.168225 0.000652 0.000467 -0.628310
    39 1.506961 -0.000001 -0.000001 0.000000 0.000000 0.689389
    40 1.506964 -0.000002 0.000002 0.000000 0.000000 0.811570
    41 3.915632 -0.278018 -1.402610 0.000736 0.000312 -0.410141
    42 1.333083 0.000002 -0.000001 0.000000 0.000000 0.645758
    43 1.159202 -0.000002 0.000000 0.000000 0.000000 0.680671
    44 6.351387 4.660221 1.005959 -0.146892 0.156303 2.700311
    45 -2.686409 2.279088 1.265273 4.677388 0.000000 1.570796
  time 8
    0 0.135014 8.526284 -24.816700 0.000000 0.000000 -1.570794
    1 0.000001 0.000000 0.000000 -0.000086 -1.570451 -1.570709
    2 4.443613 -0.009641 0.000006 -0.000004 -0.000001 0.000796
    3 12.111416 -0.011447 0.000000 0.000000 0.000000 0.000000
    4 0.000007 0.011444 1.352404 1.191582 -1.069791 1.996456
    5 6.078088 0.000002 -0.000003 -0.710550 0.708931 -0.459069
    6 13.446749 -0.000001 -0.000003 0.000000 0.000000 -1.220864
    7 15.996999 0.000001 -0.000001 -1.505891 0.013714 -0.232892
    8 1.885327 0.833274 -2.177877 -1.565718 0.576345 0.043843
    9 1.506965 -0.000001 -0.000001 0.000000 0.000000 -0.061091
    10 0.798346 -0.000001 0.000000 0.000000 0.000000 -0.635459
    11 3.950305 -0.539878 -2.108874 -0.061256 0.352525 -0.208442
    12 1.545794 -0.000001 0.000004 0.000000 0.000000 0.484970
    13 1.667400 -0.000002 -0.000004 0.000000 0.000000 0.846473
    14 3.899459 -0.475376 -1.170890 -0.444073 0.044259 -0.013413
    15 1.528215 -0.000001 0.000002 0.000000 0.000000 0.143799
    16 1.528216 0.000001 0.000002 0.000000 0.000000 0.828996
    17 3.899460 -0.431805 0.168225 -0.254917 0.068204 -0.323656
    18 1.506965 -0.000002 -0.000002 0.000000 0.000000 0.610835
    19 1.506965 0.000004 0.000000 0.000000 0.000000 0.724285
    20 3.915635 -0.278020 1.402608 -0.291950 0.049113 -0.220193
    21 1.333082 -0.000002 -0.000001 0.000000 0.000000 0.767941
    22 1.159204 0.000001 0.000000 0.000000 0.000000 0.785375
    23 -27.949372 16.619126 5.169661 -1.802628 -1.194217 -3.096992
    24 -1.482699 0.881216 0.000000 0.000000 0.000000 0.000000
    25 0.000005 0.011451 -1.352403 -1.191590 1.069779 1.996427
    26 6.078086 0.000000 0.000002 0.965604 -0.720574 -0.632460
    27 13.446753 -0.000001 0.000001 0.000000 0.000000 -1.075591
    28 15.997001 0.000000 0.000000 1.545212 -0.179345 -0.635411
    29 1.885329 0.833277 2.177873 1.272475 -0.122784 0.235575
    30 1.506961 -0.000001 0.000002 0.000000 0.000000 -0.061098
    31 0.798352 0.000002 0.000002 0.000000 0.000000 -0.000014
    32 3.950305 -0.539877 2.108872 -0.304993 -0.095731 -0.302533
    33 1.545795 0.000001 -0.000002 0.000000 0.000000 0.628309
    34 1.667396 -0.000003 0.000003 0.000000 0.000000 0.855201
    35 3.899461 -0.475377 1.170887 0.000592 0.000539 -0.750466
    36 1.528217 0.000000 0.000005 0.000000 0.000000 0.846475
    37 1.528215 0.000001 0.000002 0.000000 0.000000 0.846468
    38 3.899460 -0.431802 -0.168225 0.000652 0.000467 -0.628310
    39 1.506961 -0.000001 -0.000001 0.000000 0.000000 0.689389
    40 1.506964 -0.000002 0.000002 0.000000 0.000000 0.811570
    41 3.915632 -0.278018 -1.402610 0.000736 0.000312 -0.410141
    42 1.333083 0.000002 -0.000001 0.000000 0.000000 0.645758
    43 1.159202 -0.000002 0.000000 0.000000 0.000000 0.680671
    44 6.351387 4.660221 1.005959 -0.146892 0.156303 2.700311
    45 -2.686409 2.279088 1.265273 4.677388 0.000000 1.570796
  time 9
    0 0.135014 8.526284 -24.816700 0.000000 0.000000 -1.570794
    1 0.000001 0.000000 0.000000 -0.000086 -1.570451 -1.570709
    2 4.443613 -0.009641 0.000006 -0.000004 -0.000001 0.000796
    3 12.111416 -0.011447 0.000000 0.000000 0.000000 0.000000
    4 0.000007 0.011444 1.352404 1.191582 -1.069791 1.996456
    5 6.078088 0.000002 -0.000003 -0.725461 0.693527 -0.482158
    6 13.446749 -0.000001 -0.000003 0.000000 0.000000 -1.220864
    7 15.996999 0.000001 -0.000001 -1.505891 0.013714 -0.232892
    8 1.885327 0.833274 -2.177877 -1.565718 0.576345 0.043843
    9 1.506965 -0.000001 -0.000001 0.000000 0.000000 -0.061091
    10 0.798346 -0.000001 0.000000 0.000000 0.000000 -0.636678
    11 3.950305 -0.539878 -2.108874 -0.060993 0.352573 -0.207675
    12 1.545794 -0.000001 0.000004 0.000000 0.000000 0.485806
    13 1.667400 -0.000002 -0.000004 0.000000 0.000000 0.846473
    14 3.899459 -0.475376 -1.170890 -0.444073 0.044259 -0.013413
    15 1.528215 -0.000001 0.000002 0.000000 0.000000 0.145955
    16 1.528216 0.000001 0.000002 0.000000 0.000000 0.828996
    17 3.899460 -0.431805 0.168225 -0.254917 0.068204 -0.323656
    18 1.506965 -0.000002 -0.000002 0.000000 0.000000 0.610835
    19 1.506965 0.000004 0.000000 0.000000 0.000000 0.724285
    20 3.915635 -0.278020 1.402608 -0.291950 0.049113 -0.220193
    21 1.333082 -0.000002 -0.000001 0.000000 0.000000 0.767941
    22 1.159204 0.000001 0.000000 0.000000 0.000000 0.785375
    23 -27.949372 16.619126 5.169661 -1.802628 -1.194217 -3.096992
    24 -1.482699 0.881216 0.000000 0.000000 0.000000 0.000000
    25 0.000005 0.011451 -1.352403 -1.191590 1.069779 1.996427
    26 6.078086 0.000000 0.000002 0.977120 -0.701023 -0.650076
    27 13.446753 -0.000001 0.000001 0.000000 0.000000 -1.075591
    28 15.997001 0.000000 0.000000 1.545212 -0.179345 -0.635411
    29 1.885329 0.833277 2.177873 1.272475 -0.122784 0.235575
    30 1.506961 -0.000001 0.000002 0.000000 0.000000 -0.061098
    31 0.798352 0.000002 0.000002 0.000000 0.000000 -0.000014
    32 3.950305 -0.539877 2.108872 -0.304993 -0.095731 -0.302533
    33 1.545795 0.000001 -0.000002 0.000000 0.000000 0.628309
    34 1.667396 -0.000003 0.000003 0.000000 0.000000 0.855201
    35 3.899461 -0.475377 1.170887 0.000592 0.000539 -0.750466
    36 1.528217 0.000000 0.000005 0.000000 0.000000 0.846475
    37 1.528215 0.000001 0.000002 0.000000 0.000000 0.846468
    38 3.899460 -0.431802 -0.168225 0.000652 0.000467 -0.628310
    39 1.506961 -0.000001 -0.000001 0.000000 0.000000 0.689389
    40 1.506964 -0.000002 0.000002 0.000000 0.000000 0.811570
    41 3.915632 -0.278018 -1.402610 0.000736 0.000312 -0.410141
    42 1.333083 0.000002 -0.000001 0.000000 0.000000 0.645758
    43 1.159202 -0.000002 0.000000 0.000000 0.000000 0.680671
    44 6.351387 4.660221 1.005959 -0.146892 0.156303 2.700311
    45 -2.686409 2.279088 1.265273 4.677388 0.000000 1.570796
  time 10
    0 0.135014 8.526284 -24.816700 0.000000 0.000000 -1.570794
    1 0.000001 0.000000 0.000000 -0.000086 -1.570451 -1.570709
    2 4.443613 -0.009641 0.000006 -0.000004 -0.000001 0.000796
    3 12.111416 -0.011447 0.000000 0.000000 0.000000 0.000000
    4 0.000007 0.011444 1.352404 1.191582 -1.069791 1.996456
    5 6.078088 0.000002 -0.000003 -0.739715 0.677840 -0.504664
    6 13.446749 -0.000001 -0.000003 0.000000 0.000000 -1.220864
    7 15.996999 0.000001 -0.000001 -1.505891 0.013714 -0.232892
    8 1.885327 0.833274 -2.177877 -1.565718 0.576345 0.043843
    9 1.506965 -0.000001 -0.000001 0.000000 0.000000 -0.061091
    10 0.798346 -0.000001 0.000000 0.000000 0.000000 -0.637776
    11 3.950305 -0.539878 -2.108874 -0.060741 0.352609 -0.206980
    12 1.545794 -0.000001 0.000004 0.000000 0.000000 0.486579
    13 1.667400 -0.000002 -0.000004 0.000000 0.000000 0.846473
    14 3.899459 -0.475376 -1.170890 -0.444073 0.044259 -0.013413
    15 1.528215 -0.000001 0.000002 0.000000 0.000000 0.147939
    16 1.528216 0.000001 0.000002 0.000000 0.000000 0.828996
    17 3.899460 -0.431805 0.168225 -0.254917 0.068204 -0.323656
    18 1.506965 -0.000002 -0.000002 0.000000 0.000000 0.610835
    19 1.506965 0.000004 0.000000 0.000000 0.000000 0.724285
    20 3.915635 -0.278020 1.402608 -0.291950 0.049113 -0.220193
    21 1.333082 -0.000002 -0.000001 0.000000 0.000000 0.767941
    22 1.159204 0.000001 0.000000 0.000000 0.000000 0.785375
    23 -27.949372 16.619126 5.169661 -1.802628 -1.194217 -3.096992
    24 -1.482699 0.881216 0.000000 0.000000 0.000000 0.000000
    25 0.000005 0.011451 -1.352403 -1.191590 1.069779 1.996427
    26 6.078086 0.000000 0.000002 0.987930 -0.681368 -0.667120
    27 13.446753 -0.000001 0.000001 0.000000 0.000000 -1.075591
    28 15.997001 0.000000 0.000000 1.545212 -0.179345 -0.635411
    29 1.885329 0.833277 2.177873 1.272475 -0.122784 0.235575
    30 1.506961 -0.000001 0.000002 0.000000 0.000000 -0.061098
    31 0.798352 0.000002 0.000002 0.000000 0.000000 -0.000014
    32 3.950305 -0.539877 2.108872 -0.304993 -0.095731 -0.302533
    33 1.545795 0.000001 -0.000002 0.000000 0.000000 0.628309
    34 1.667396 -0.000003 0.000003 0.000000 0.000000 0.855201
    35 3.899461 -0.475377 1.170887 0.000592 0.000539 -0.750466
    36 1.528217 0.000000 0.000005 0.000000 0.000000 0.846475
    37 1.528215 0.000001 0.000002 0.000000 0.000000 0.846468
    38 3.899460 -0.431802 -0.168225 0.000652 0.000467 -0.628310
    39 1.506961 -0.000001 -0.000001 0.000000 0.000000 0.689389
    40 1.506964 -0.000002 0.000002 0.000000 0.000000 0.811570
    41 3.915632 -0.278018 -1.402610 0.000736 0.000312 -0.410141
    42 1.333083 0.000002 -0.000001 0.000000 0.000000 0.645758
    43 1.159202 -0.000002 0.000000 0.000000 0.000000 0.680671
    44 6.351387 4.660221 1.005959 -0.146892 0.156303 2.700311
    45 -2.686409 2.279088 1.265273 4.677388 0.000000 1.570796
  time 11
    0 0.135014 8.526284 -24.816700 0.000000 0.000000 -1.570794
    1 0.000001 0.000000 0.000000 -0.000086 -1.570451 -1.570709
    2 4.443613 -0.009641 0.000006 -0.000004 -0.000001 0.000796
    3 12.111416 -0.011447 0.000000 0.000000 0.000000 0.000000
    4 0.000007 0.011444 1.352404 1.191582 -1.069791 1.996456
    5 6.078088 0.000002 -0.000003 -0.753311 0.661942 -0.526586
    6 13.446749 -0.000001 -0.000003 0.000000 0.000000 -1.220864
    7 15.996999 0.000001 -0.000001 -1.505891 0.013714 -0.232892
    8 1.885327 0.833274 -2.177877 -1.565718 0.576345 0.043843
    9 1.506965 -0.000001 -0.000001 0.000000 0.000000 -0.061091
    10 0.798346 -0.000001 0.000000 0.000000 0.000000 -0.638711
    11 3.950305 -0.539878 -2.108874 -0.060537 0.352645 -0.206369
    12 1.545794 -0.000001 0.000004 0.000000 0.000000 0.487248
    13 1.667400 -0.000002 -0.000004 0.000000 0.000000 0.846473
    14 3.899459 -0.475376 -1.170890 -0.444073 0.044259 -0.013413
    15 1.528215 -0.000001 0.000002 0.000000 0.000000 0.149657
    16 1.528216 0.000001 0.000002 0.000000 0.000000 0.828996
    17 3.899460 -0.431805 0.168225 -0.254917 0.068204 -0.323656
    18 1.506965 -0.000002 -0.000002 0.000000 0.000000 0.610835
    19 1.506965 0.000004 0.000000 0.000000 0.000000 0.724285
    20 3.915635 -0.278020 1.402608 -0.291950 0.049113 -0.220193
    21 1.333082 -0.000002 -0.000001 0.000000 0.000000 0.767941
    22 1.159204 0.000001 0.000000 0.000000 0.000000 0.785375
    23 -27.949372 16.619126 5.169661 -1.802628 -1.194217 -3.096992
    24 -1.482699 0.881216 0.000000 0.000000 0.000000 0.000000
    25 0.000005 0.011451 -1.352403 -1.191590 1.069779 1.996427
    26 6.078086 0.000000 0.000002 0.998174 -0.661608 -0.683589
    27 13.446753 -0.000001 0.000001 0.000000 0.000000 -1.075591
    28 15.997001 0.000000 0.000000 1.545212 -0.179345 -0.635411
    29 1.885329 0.833277 2.177873 1.272475 -0.122784 0.235575
    30 1.506961 -0.000001 0.000002 0.000000 0.000000 -0.061098
    31 0.798352 0.000002 0.000002 0.000000 0.000000 -0.000014
    32 3.950305 -0.539877 2.108872 -0.304993 -0.095731 -0.302533
    33 1.545795 0.000001 -0.000002 0.000000 0.000000 0.628309
    34 1.667396 -0.000003 0.000003 0.000000 0.000000 0.855201
    35 3.899461 -0.475377 1.170887 0.000592 0.000539 -0.750466
    36 1.528217 0.000000 0.000005 0.000000 0.000000 0.846475
    37 1.528215 0.000001 0.000002 0.000000 0.000000 0.846468
    38 3.899460 -0.431802 -0.168225 0.000652 0.000467 -0.628310
    39 1.506961 -0.000001 -0.000001 0.000000 0.000000 0.689389
    40 1.506964 -0.000002 0.000002 0.000000 0.000000 0.811570
    41 3.915632 -0.278018 -1.402610 0.000736 0.000312 -0.410141
    42 1.333083 0.000002 -0.000001 0.000000 0.000000 0.645758
    43 1.159202 -0.000002 0.000000 0.000000 0.000000 0.680671
    44 6.351387 4.660221 1.005959 -0.146892 0.156303 2.700311
    45 -2.686409 2.279088 1.265273 4.677388 0.000000 1.570796
  time 12
    0 0.135014 8.526284 -24.816700 0.000000 0.000000 -1.570794
    1 0.000001 0.000000 0.000000 -0.000086 -1.570451 -1.570709
    2 4.443613 -0.009641 0.000006 -0.000004 -0.000001 0.000796
    3 12.111416 -0.011447 0.000000 0.000000 0.000000 0.000000
    4 0.000007 0.011444 1.352404 1.191582 -1.069791 1.996456
    5 6.078088 0.000002 -0.000003 -0.766303 0.645868 -0.547924
    6 13.446749 -0.000001 -0.000003 0.000000 0.000000 -1.220864
    7 15.996999 0.000001 -0.000001 -1.505891 0.013714 -0.232892
    8 1.885327 0.833274 -2.177877 -1.565718 0.576345 0.043843
    9 1.506965 -0.000001 -0.000001 0.000000 0.000000 -0.061091
    10 0.798346 -0.000001 0.000000 0.000000 0.000000 -0.639463
    11 3.950305 -0.539878 -2.108874 -0.060369 0.352681 -0.205901
    12 1.545794 -0.000001 0.000004 0.000000 0.000000 0.487770
    13 1.667400 -0.000002 -0.000004 0.000000 0.000000 0.846473
    14 3.899459 -0.475376 -1.170890 -0.444073 0.044259 -0.013413
    15 1.528215 -0.000001 0.000002 0.000000 0.000000 0.150973
    16 1.528216 0.000001 0.000002 0.000000 0.000000 0.828996
    17 3.899460 -0.431805 0.168225 -0.254917 0.068204 -0.323656
    18 1.506965 -0.000002 -0.000002 0.000000 0.000000 0.610835
    19 1.506965 0.000004 0.000000 0.000000 0.000000 0.724285
    20 3.915635 -0.278020 1.402608 -0.291950 0.049113 -0.220193
    21 1.333082 -0.000002 -0.000001 0.000000 0.000000 0.767941
    22 1.159204 0.000001 0.000000 0.000000 0.000000 0.785375
    23 -27.949372 16.619126 5.169661 -1.802628 -1.194217 -3.096992
    24 -1.482699 0.881216 0.000000 0.000000 0.000000 0.000000
    25 0.000005 0.011451 -1.352403 -1.191590 1.069779 1.996427
    26 6.078086 0.000000 0.000002 1.007853 -0.641778 -0.699486
    27 13.446753 -0.000001 0.000001 0.000000 0.000000 -1.075591
    28 15.997001 0.000000 0.000000 1.545212 -0.179345 -0.635411
    29 1.885329 0.833277 2.177873 1.272475 -0.122784 0.235575
    30 1.506961 -0.000001 0.000002 0.000000 0.000000 -0.061098
    31 0.798352 0.000002 0.000002 0.000000 0.000000 -0.000014
    32 3.950305 -0.539877 2.108872 -0.304993 -0.095731 -0.302533
    33 1.545795 0.000001 -0.000002 0.000000 0.000000 0.628309
    34 1.667396 -0.000003 0.000003 0.000000 0.000000 0.855201
    35 3.899461 -0.475377 1.170887 0.000592 0.000539 -0.750466
    36 1.528217 0.000000 0.000005 0.000000 0.000000 0.846475
    37 1.528215 0.000001 0.000002 0.000000 0.000000 0.846468
    38 3.899460 -0.431802 -0.168225 0.000652 0.000467 -0.628310
    39 1.506961 -0.000001 -0.000001 0.000000 0.000000 0.689389
    40 1.506964 -0.000002 0.000002 0.000000 0.000000 0.811570
    41 3.915632 -0.278018 -1.402610 0.000736 0.000312 -0.410141
    42 1.333083 0.000002 -0.000001 0.000000 0.000000 0.645758
    43 1.159202 -0.000002 0.000000 0.000000 0.000000 0.680671
    44 6.351387 4.660221 1.005959 -0.146892 0.156303 2.700311
    45 -2.686409 2.279088 1.265273 4.677388 0.000000 1.570796
  time 13
    0 0.135014 8.526284 -24.816700 0.000000 0.000000 -1.570794
    1 0.000001 0.000000 0.000000 -0.000086 -1.570451 -1.570709
    2 4.443613 -0.009641 0.000006 -0.000004 -0.000001 0.000796
    3 12.111416 -0.011447 0.000000 0.000000 0.000000 0.000000
    4 0.000007 0.011444 1.352404 1.191582 -1.069791 1.996456
    5 6.078088 0.000002 -0.000003 -0.778693 0.629547 -0.568743
    6 13.446749 -0.000001 -0.000003 0.000000 0.000000 -1.220864
    7 15.996999 0.000001 -0.000001 -1.505891 0.013714 -0.232892
    8 1.885327 0.833274 -2.177877 -1.565718 0.576345 0.043843
    9 1.506965 -0.000001 -0.000001 0.000000 0.000000 -0.061091
    10 0.798346 -0.000001 0.000000 0.000000 0.000000 -0.639951
    11 3.950305 -0.539878 -2.108874 -0.060262 0.352692 -0.205590
    12 1.545794 -0.000001 0.000004 0.000000 0.000000 0.488105
    13 1.667400 -0.000002 -0.000004 0.000000 0.000000 0.846473
    14 3.899459 -0.475376 -1.170890 -0.444073 0.044259 -0.013413
    15 1.528215 -0.000001 0.000002 0.000000 0.000000 0.151851
    16 1.528216 0.000001 0.000002 0.000000 0.000000 0.828996
    17 3.899460 -0.431805 0.168225 -0.254917 0.068204 -0.323656
    18 1.506965 -0.000002 -0.000002 0.000000 0.000000 0.610835
    19 1.506965 0.000004 0.000000 0.000000 0.000000 0.724285
    20 3.915635 -0.278020 1.402608 -0.291950 0.049113 -0.220193
    21 1.333082 -0.000002 -0.000001 0.000000 0.000000 0.767941
    22 1.159204 0.000001 0.000000 0.000000 0.000000 0.785375
    23 -27.949372 16.619126 5.169661 -1.802628 -1.194217 -3.096992
    24 -1.482699 0.881216 0.000000 0.000000 0.000000 0.000000
    25 0.000005 0.011451 -1.352403 -1.191590 1.069779 1.996427
    26 6.078086 0.000000 0.000002 1.016968 -0.621878 -0.714808
    27 13.446753 -0.000001 0.000001 0.000000 0.000000 -1.075591
    28 15.997001 0.000000 0.000000 1.545212 -0.179345 -0.635411
    29 1.885329 0.833277 2.177873 1.272475 -0.122784 0.235575
    30 1.506961 -0.000001 0.000002 0.000000 0.000000 -0.061098
    31 0.798352 0.000002 0.000002 0.000000 0.000000 -0.000014
    32 3.950305 -0.539877 2.108872 -0.304993 -0.095731 -0.302533
    33 1.545795 0.000001 -0.000002 0.000000 0.000000 0.628309
    34 1.667396 -0.000003 0.000003 0.000000 0.000000 0.855201
    35 3.899461 -0.475377 1.170887 0.000592 0.000539 -0.750466
    36 1.528217 0.000000 0.000005 0.000000 0.000000 0.846475
    37 1.528215 0.000001 0.000002 0.000000 0.000000 0.846468
    38 3.899460 -0.431802 -0.168225 0.000652 0.000467 -0.628310
    39 1.506961 -0.000001 -0.000001 0.000000 0.000000 0.689389
    40 1.506964 -0.000002 0.000002 0.000000 0.000000 0.811570
    41 3.915632 -0.278018 -1.402610 0.000736 0.000312 -0.410141
    42 1.333083 0.000002 -0.000001 0.000000 0.000000 0.645758
    43 1.159202 -0.000002 0.000000 0.000000 0.000000 0.680671
    44 6.351387 4.660221 1.005959 -0.146892 0.156303 2.700311
    45 -2.686409 2.279088 1.265273 4.677388 0.000000 1.570796
  time 14
    0 0.135014 8.526284 -24.816700 0.000000 0.000000 -1.570794
    1 0.000001 0.000000 0.000000 -0.000086 -1.570451 -1.570709
    2 4.443613 -0.009641 0.000006 -0.000004 -0.000001 0.000796
    3 12.111416 -0.011447 0.000000 0.000000 0.000000 0.000000
    4 0.000007 0.011444 1.352404 1.191582 -1.069791 1.996456
    5 6.078088 0.000002 -0.000003 -0.790480 0.613120 -0.589043
    6 13.446749 -0.000001 -0.000003 0.000000 0.000000 -1.220864
    7 15.996999 0.000001 -0.000001 -1.505891 0.013714 -0.232892
    8 1.885327 0.833274 -2.177877 -1.565718 0.576345 0.043843
    9 1.506965 -0.000001 -0.000001 0.000000 0.000000 -0.061091
    10 0.798346 -0.000001 0.000000 0.000000 0.000000 -0.640113
    11 3.950305 -0.539878 -2.108874 -0.060226 0.352704 -0.205482
    12 1.545794 -0.000001 0.000004 0.000000 0.000000 0.488209
    13 1.667400 -0.000002 -0.000004 0.000000 0.000000 0.846473
    14 3.899459 -0.475376 -1.170890 -0.444073 0.044259 -0.013413
    15 1.528215 -0.000001 0.000002 0.000000 0.000000 0.152156
    16 1.528216 0.000001 0.000002 0.000000 0.000000 0.828996
    17 3.899460 -0.431805 0.168225 -0.254917 0.068204 -0.323656
    18 1.506965 -0.000002 -0.000002 0.000000 0.000000 0.610835
    19 1.506965 0.000004 0.000000 0.000000 0.000000 0.724285
    20 3.915635 -0.278020 1.402608 -0.291950 0.049113 -0.220193
    21 1.333082 -0.000002 -0.000001 0.000000 0.000000 0.767941
    22 1.159204 0.000001 0.000000 0.000000 0.000000 0.785375
    23 -27.949372 16.619126 5.169661 -1.802628 -1.194217 -3.096992
    24 -1.482699 0.881216 0.000000 0.000000 0.000000 0.000000
    25 0.000005 0.011451 -1.352403 -1.191590 1.069779 1.996427
    26 6.078086 0.000000 0.000002 1.025516 -0.602013 -0.729721
    27 13.446753 -0.000001 0.000001 0.000000 0.000000 -1.075591
    28 15.997001 0.000000 0.000000 1.545212 -0.179345 -0.635411
    29 1.885329 0.833277 2.177873 1.272475 -0.122784 0.235575
    30 1.506961 -0.000001 0.000002 0.000000 0.000000 -0.061098
    31 0.798352 0.000002 0.000002 0.000000 0.000000 -0.000014
    32 3.950305 -0.539877 2.108872 -0.304993 -0.095731 -0.302533
    33 1.545795 0.000001 -0.000002 0.000000 0.000000 0.628309
    34 1.667396 -0.000003 0.000003 0.000000 0.000000 0.855201
    35 3.899461 -0.475377 1.170887 0.000592 0.000539 -0.750466
    36 1.528217 0.000000 0.000005 0.000000 0.000000 0.846475
    37 1.528215 0.000001 0.000002 0.000000 0.000000 0.846468
    38 3.899460 -0.431802 -0.168225 0.000652 0.000467 -0.628310
    39 1.506961 -0.000001 -0.000001 0.000000 0.000000 0.689389
    40 1.506964 -0.000002 0.000002 0.000000 0.000000 0.811570
    41 3.915632 -0.278018 -1.402610 0.000736 0.000312 -0.410141
    42 1.333083 0.000002 -0.000001 0.000000 0.000000 0.645758
    43 1.159202 -0.000002 0.000000 0.000000 0.000000 0.680671
    44 6.351387 4.660221 1.005959 -0.146892 0.156303 2.700311
    45 -2.686409 2.279088 1.265273 4.677388 0.000000 1.570796
  time 15
    0 0.135014 8.526284 -24.816700 0.000000 0.000000 -1.570794
    1 0.000001 0.000000 0.000000 -0.000086 -1.570451 -1.570709
    2 4.443613 -0.009641 0.000006 -0.000004 -0.000001 0.000796
    3 12.111416 -0.011447 0.000000 0.000000 0.000000 0.000000
    4 0.000007 0.011444 1.352404 1.191582 -1.069791 1.996456
    5 6.078088 0.000002 -0.000003 -0.801718 0.596482 -0.608825
    6 13.446749 -0.000001 -0.000003 0.000000 0.000000 -1.220864
    7 15.996999 0.000001 -0.000001 -1.505891 0.013714 -0.232892
    8 1.885327 0.833274 -2.177877 -1.565718 0.576345 0.043843
    9 1.506965 -0.000001 -0.000001 0.000000 0.000000 -0.061091
    10 0.798346 -0.000001 0.000000 0.000000 0.000000 -0.639931
    11 3.950305 -0.539878 -2.108874 -0.060274 0.352692 -0.205602
    12 1.545794 -0.000001 0.000004 0.000000 0.000000 0.488084
    13 1.667400 -0.000002 -0.000004 0.000000 0.000000 0.846473
    14 3.899459 -0.475376 -1.170890 -0.444073 0.044259 -0.013413
    15 1.528215 -0.000001 0.000002 0.000000 0.000000 0.151812
    16 1.528216 0.000001 0.000002 0.000000 0.000000 0.828996
    17 3.899460 -0.431805 0.168225 -0.254917 0.068204 -0.323656
    18 1.506965 -0.000002 -0.000002 0.000000 0.000000 0.610835
    19 1.506965 0.000004 0.000000 0.000000 0.000000 0.724285
    20 3.915635 -0.278020 1.402608 -0.291950 0.049113 -0.220193
    21 1.333082 -0.000002 -0.000001 0.000000 0.000000 0.767941
    22 1.159204 0.000001 0.000000 0.000000 0.000000 0.785375
    23 -27.949372 16.619126 5.169661 -1.802628 -1.194217 -3.096992
    24 -1.482699 0.881216 0.000000 0.000000 0.000000 0.000000
    25 0.000005 0.011451 -1.352403 -1.191590 1.069779 1.996427
    26 6.078086 0.000000 0.000002 1.033500 -0.582113 -0.744142
    27 13.446753 -0.000001 0.000001 0.000000 0.000000 -1.075591
    28 15.997001 0.000000 0.000000 1.545212 -0.179345 -0.635411
    29 1.885329 0.833277 2.177873 1.272475 -0.122784 0.235575
    30 1.506961 -0.000001 0.000002 0.000000 0.000000 -0.061098
    31 0.798352 0.000002 0.000002 0.000000 0.000000 -0.000014
    32 3.950305 -0.539877 2.108872 -0.304993 -0.095731 -0.302533
    33 1.545795 0.000001 -0.000002 0.000000 0.000000 0.628309
    34 1.667396 -0.000003 0.000003 0.000000 0.000000 0.855201
    35 3.899461 -0.475377 1.170887 0.000592 0.000539 -0.750466
    36 1.528217 0.000000 0.000005 0.000000 0.000000 0.846475
    37 1.528215 0.000001 0.000002 0.000000 0.000000 0.846468
    38 3.899460 -0.431802 -0.168225 0.000652 0.000467 -0.628310
    39 1.506961 -0.000001 -0.000001 0.000000 0.000000 0.689389
    40 1.506964 -0.000002 0.000002 0.000000 0.000000 0.811570
    41 3.915632 -0.278018 -1.402610 0.000736 0.000312 -0.410141
    42 1.333083 0.000002 -0.000001 0.000000 0.000000 0.645758
    43 1.159202 -0.000002 0.000000 0.000000 0.000000 0.680671
    44 6.351387 4.660221 1.005959 -0.146892 0.156303 2.700277
    45 -2.686409 2.279088 1.265273 4.677388 0.000000 1.570796
  time 16
    0 0.135014 8.526284 -24.816700 0.000000 0.000000 -1.570794
    1 0.000001 0.000000 0.000000 -0.000086 -1.570451 -1.570709
    2 4.443613 -0.009641 0.000006 -0.000004 -0.000001 0.000796
    3 12.111416 -0.011447 0.000000 0.000000 0.000000 0.000000
    4 0.000007 0.011444 1.352404 1.191582 -1.069791 1.996456
    5 6.078088 0.000002 -0.000003 -0.812408 0.579738 -0.628088
    6 13.446749 -0.000001 -0.000003 0.000000 0.000000 -1.220864
    7 15.996999 0.000001 -0.000001 -1.505891 0.013714 -0.232892
    8 1.885327 0.833274 -2.177877 -1.565718 0.576345 0.043843
    9 1.506965 -0.000001 -0.000001 0.000000 0.000000 -0.061091
    10 0.798346 -0.000001 0.000000 0.000000 0.000000 -0.639321
    11 3.950305 -0.539878 -2.108874 -0.060405 0.352669 -0.205985
    12 1.545794 -0.000001 0.000004 0.000000 0.000000 0.487666
    13 1.667400 -0.000002 -0.000004 0.000000 0.000000 0.846473
    14 3.899459 -0.475376 -1.170890 -0.444073 0.044259 -0.013413
    15 1.528215 -0.000001 0.000002 0.000000 0.000000 0.150725
    16 1.528216 0.000001 0.000002 0.000000 0.000000 0.828996
    17 3.899460 -0.431805 0.168225 -0.254917 0.068204 -0.323656
    18 1.506965 -0.000002 -0.000002 0.000000 0.000000 0.610835
    19 1.506965 0.000004 0.000000 0.000000 0.000000 0.724285
    20 3.915635 -0.278020 1.402608 -0.291950 0.049113 -0.220193
    21 1.333082 -0.000002 -0.000001 0.000000 0.000000 0.767941
    22 1.159204 0.000001 0.000000 0.000000 0.000000 0.785375
    23 -27.949372 16.619126 5.169661 -1.802628 -1.194217 -3.096992
    24 -1.482699 0.881216 0.000000 0.000000 0.000000 0.000000
    25 0.000005 0.011451 -1.352403 -1.191590 1.069779 1.996427
    26 6.078086 0.000000 0.000002 1.041060 -0.562248 -0.758072
    27 13.446753 -0.000001 0.000001 0.000000 0.000000 -1.075591
    28 15.997001 0.000000 0.000000 1.545212 -0.179345 -0.635411
    29 1.885329 0.833277 2.177873 1.272475 -0.122784 0.235575
    30 1.506961 -0.000001 0.000002 0.000000 0.000000 -0.061098
    31 0.798352 0.000002 0.000002 0.000000 0.000000 -0.000014
    32 3.950305 -0.539877 2.108872 -0.304993 -0.095731 -0.302533
    33 1.545795 0.000001 -0.000002 0.000000 0.000000 0.628309
    34 1.667396 -0.000003 0.000003 0.000000 0.000000 0.855201
    35 3.899461 -0.475377 1.170887 0.000592 0.000539 -0.750466
    36 1.528217 0.000000 0.000005 0.000000 0.000000 0.846475
    37 1.528215 0.000001 0.000002 0.000000 0.000000 0.846468
    38 3.899460 -0.431802 -0.168225 0.000652 0.000467 -0.628310
    39 1.506961 -0.000001 -0.000001 0.000000 0.000000 0.689389
    40 1.506964 -0.000002 0.000002 0.000000 0.000000 0.811570
    41 3.915632 -0.278018 -1.402610 0.000736 0.000312 -0.410141
    42 1.333083 0.000002 -0.000001 0.000000 0.000000 0.645758
    43 1.159202 -0.000002 0.000000 0.000000 0.000000 0.680671
    44 6.351387 4.660221 1.005959 -0.146892 0.156303 2.700311
    45 -2.686409 2.279088 1.265273 4.677388 0.000000 1.570796
  time 17
    0 0.135014 8.526284 -24.816700 0.000000 0.000000 -1.570794
    1 0.000001 0.000000 0.000000 -0.000086 -1.570451 -1.570709
    2 4.443613 -0.009641 0.000006 -0.000004 -0.000001 0.000796
    3 12.111416 -0.011447 0.000000 0.000000 0.000000 0.000000
    4 0.000007 0.011444 1.352404 1.191582 -1.069791 1.996456
    5 6.078088 0.000002 -0.000003 -0.822605 0.562888 -0.646896
    6 13.446749 -0.000001 -0.000003 0.000000 0.000000 -1.220864
    7 15.996999 0.000001 -0.000001 -1.505891 0.013714 -0.232892
    8 1.885327 0.833274 -2.177877 -1.565718 0.576345 0.043843
    9 1.506965 -0.000001 -0.000001 0.000000 0.000000 -0.061091
    10 0.798346 -0.000001 0.000000 0.000000 0.000000 -0.638264
    11 3.950305 -0.539878 -2.108874 -0.060633 0.352633 -0.206668
    12 1.545794 -0.000001 0.000004 0.000000 0.000000 0.486913
    13 1.667400 -0.000002 -0.000004 0.000000 0.000000 0.846473
    14 3.899459 -0.475376 -1.170890 -0.444073 0.044259 -0.013413
    15 1.528215 -0.000001 0.000002 0.000000 0.000000 0.148817
    16 1.528216 0.000001 0.000002 0.000000 0.000000 0.828996
    17 3.899460 -0.431805 0.168225 -0.254917 0.068204 -0.323656
    18 1.506965 -0.000002 -0.000002 0.000000 0.000000 0.610835
    19 1.506965 0.000004 0.000000 0.000000 0.000000 0.724285
    20 3.915635 -0.278020 1.402608 -0.291950 0.049113 -0.220193
    21 1.333082 -0.000002 -0.000001 0.000000 0.000000 0.767941
    22 1.159204 0.000001 0.000000 0.000000 0.000000 0.785375
    23 -27.949372 16.619126 5.169661 -1.802628 -1.194217 -3.096992
    24 -1.482699 0.881216 0.000000 0.000000 0.000000 0.000000
    25 0.000005 0.011451 -1.352403 -1.191590 1.069779 1.996427
    26 6.078086 0.000000 0.000002 1.048196 -0.542418 -0.771592
    27 13.446753 -0.000001 0.000001 0.000000 0.000000 -1.075591
    28 15.997001 0.000000 0.000000 1.545212 -0.179345 -0.635411
    29 1.885329 0.833277 2.177873 1.272475 -0.122784 0.235575
    30 1.506961 -0.000001 0.000002 0.000000 0.000000 -0.061098
    31 0.798352 0.000002 0.000002 0.000000 0.000000 -0.000014
    32 3.950305 -0.539877 2.108872 -0.304993 -0.095731 -0.302533
    33 1.545795 0.000001 -0.000002 0.000000 0.000000 0.628309
    34 1.667396 -0.000003 0.000003 0.000000 0.000000 0.855201
    35 3.899461 -0.475377 1.170887 0.000592 0.000539 -0.750466
    36 1.528217 0.000000 0.000005 0.000000 0.000000 0.846475
    37 1.528215 0.000001 0.000002 0.000000 0.000000 0.846468
    38 3.899460 -0.431802 -0.168225 0.000652 0.000467 -0.628310
    39 1.506961 -0.000001 -0.000001 0.000000 0.000000 0.689389
    40 1.506964 -0.000002 0.000002 0.000000 0.000000 0.811570
    41 3.915632 -0.278018 -1.402610 0.000736 0.000312 -0.410141
    42 1.333083 0.000002 -0.000001 0.000000 0.000000 0.645758
    43 1.159202 -0.000002 0.000000 0.000000 0.000000 0.680671
    44 6.351387 4.660221 1.005959 -0.146892 0.156303 2.700311
    45 -2.686409 2.279088 1.265273 4.677388 0.000000 1.570796
  time 18
    0 0.135014 8.526284 -24.816700 0.000000 0.000000 -1.570794
    1 0.000001 0.000000 0.000000 -0.000086 -1.570451 -1.570709
    2 4.443613 -0.009641 0.000006 -0.000004 -0.000001 0.000796
    3 12.111416 -0.011447 0.000000 0.000000 0.000000 0.000000
    4 0.000007 0.011444 1.352404 1.191582 -1.069791 1.996456
    5 6.078088 0.000002 -0.000003 -0.832253 0.545933 -0.665186
    6 13.446749 -0.000001 -0.000003 0.000000 0.000000 -1.220864
    7 15.996999 0.000001 -0.000001 -1.505891 0.013714 -0.232892
    8 1.885327 0.833274 -2.177877 -1.565718 0.576345 0.043843
    9 1.506965 -0.000001 -0.000001 0.000000 0.000000 -0.061091
    10 0.798346 -0.000001 0.000000 0.000000 0.000000 -0.636678
    11 3.950305 -0.539878 -2.108874 -0.060993 0.352573 -0.207675
    12 1.545794 -0.000001 0.000004 0.000000 0.000000 0.485806
    13 1.667400 -0.000002 -0.000004 0.000000 0.000000 0.846473
    14 3.899459 -0.475376 -1.170890 -0.444073 0.044259 -0.013413
    15 1.528215 -0.000001 0.000002 0.000000 0.000000 0.145955
    16 1.528216 0.000001 0.000002 0.000000 0.000000 0.828996
    17 3.899460 -0.431805 0.168225 -0.254917 0.068204 -0.323656
    18 1.506965 -0.000002 -0.000002 0.000000 0.000000 0.610835
    19 1.506965 0.000004 0.000000 0.000000 0.000000 0.724285
    20 3.915635 -0.278020 1.402608 -0.291950 0.049113 -0.220193
    21 1.333082 -0.000002 -0.000001 0.000000 0.000000 0.767941
    22 1.159204 0.000001 0.000000 0.000000 0.000000 0.785375
    23 -27.949372 16.619126 5.169661 -1.802628 -1.194217 -3.096992
    24 -1.482699 0.881216 0.000000 0.000000 0.000000 0.000000
    25 0.000005 0.011451 -1.352403 -1.191590 1.069779 1.996427
    26 6.078086 0.000000 0.000002 1.054837 -0.522693 -0.784702
    27 13.446753 -0.000001 0.000001 0.000000 0.000000 -1.075591
    28 15.997001 0.000000 0.000000 1.545212 -0.179345 -0.635411
    29 1.885329 0.833277 2.177873 1.272475 -0.122784 0.235575
    30 1.506961 -0.000001 0.000002 0.000000 0.000000 -0.061098
    31 0.798352 0.000002 0.000002 0.000000 0.000000 -0.000014
    32 3.950305 -0.539877 2.108872 -0.304993 -0.095731 -0.302533
    33 1.545795 0.000001 -0.000002 0.000000 0.000000 0.628309
    34 1.667396 -0.000003 0.000003 0.000000 0.000000 0.855201
    35 3.899461 -0.475377 1.170887 0.000592 0.000539 -0.750466
    36 1.528217 0.000000 0.000005 0.000000 0.000000 0.846475
    37 1.528215 0.000001 0.000002 0.000000 0.000000 0.846468
    38 3.899460 -0.431802 -0.168225 0.000652 0.000467 -0.628310
    39 1.506961 -0.000001 -0.000001 0.000000 0.000000 0.689389
    40 1.506964 -0.000002 0.000002 0.000000 0.000000 0.811570
    41 3.915632 -0.278018 -1.402610 0.000736 0.000312 -0.410141
    42 1.333083 0.000002 -0.000001 0.000000 0.000000 0.645758
    43 1.159202 -0.000002 0.000000 0.000000 0.000000 0.680671
    44 6.351387 4.660221 1.005959 -0.146892 0.156303 2.700311
    45 -2.686409 2.279088 1.265273 4.677388 0.000000 1.570796
  time 19
    0 0.135014 8.526284 -24.816700 0.000000 0.000000 -1.570794
    1 0.000001 0.000000 0.000000 -0.000086 -1.570451 -1.570709
    2 4.443613 -0.009641 0.000006 -0.000004 -0.000001 0.000796
    3 12.111416 -0.011447 0.000000 0.000000 0.000000 0.000000
    4 0.000007 0.011444 1.352404 1.191582 -1.069791 1.996456
    5 6.078088 0.000002 -0.000003 -0.841409 0.528872 -0.683087
    6 13.446749 -0.000001 -0.000003 0.000000 0.000000 -1.220864
    7 15.996999 0.000001 -0.000001 -1.505891 0.013714 -0.232892
    8 1.885327 0.833274 -2.177877 -1.565718 0.576345 0.043843
    9 1.506965 -0.000001 -0.000001 0.000000 0.000000 -0.061091
    10 0.798346 -0.000001 0.000000 0.000000 0.000000 -0.634524
    11 3.950305 -0.539878 -2.108874 -0.061460 0.352501 -0.209053
    12 1.545794 -0.000001 0.000004 0.000000 0.000000 0.484301
    13 1.667400 -0.000002 -0.000004 0.000000 0.000000 0.846473
    14 3.899459 -0.475376 -1.170890 -0.444073 0.044259 -0.013413
    15 1.528215 -0.000001 0.000002 0.000000 0.000000 0.142082
    16 1.528216 0.000001 0.000002 0.000000 0.000000 0.828996
    17 3.899460 -0.431805 0.168225 -0.254917 0.068204 -0.323656
    18 1.506965 -0.000002 -0.000002 0.000000 0.000000 0.610835
    19 1.506965 0.000004 0.000000 0.000000 0.000000 0.724285
    20 3.915635 -0.278020 1.402608 -0.291950 0.049113 -0.220193
    21 1.333082 -0.000002 -0.000001 0.000000 0.000000 0.767941
    22 1.159204 0.000001 0.000000 0.000000 0.000000 0.785375
    23 -27.949372 16.619126 5.169661 -1.802628 -1.194217 -3.096992
    24 -1.482699 0.881216 0.000000 0.000000 0.000000 0.000000
    25 0.000005 0.011451 -1.352403 -1.191590 1.069779 1.996427
    26 6.078086 0.000000 0.000002 1.061054 -0.503038 -0.797403
    27 13.446753 -0.000001 0.000001 0.000000 0.000000 -1.075591
    28 15.997001 0.000000 0.000000 1.545212 -0.179345 -0.635411
    29 1.885329 0.833277 2.177873 1.272475 -0.122784 0.235575
    30 1.506961 -0.000001 0.000002 0.000000 0.000000 -0.061098
    31 0.798352 0.000002 0.000002 0.000000 0.000000 -0.000014
    32 3.950305 -0.539877 2.108872 -0.304993 -0.095731 -0.302533
    33 1.545795 0.000001 -0.000002 0.000000 0.000000 0.628309
    34 1.667396 -0.000003 0.000003 0.000000 0.000000 0.855201
    35 3.899461 -0.475377 1.170887 0.000592 0.000539 -0.750466
    36 1.528217 0.000000 0.000005 0.000000 0.000000 0.846475
    37 1.528215 0.000001 0.000002 0.000000 0.000000 0.846468
    38 3.899460 -0.431802 -0.168225 0.000652 0.000467 -0.628310
    39 1.506961 -0.000001 -0.000001 0.000000 0.000000 0.689389
    40 1.506964 -0.000002 0.000002 0.000000 0.000000 0.811570
    41 3.915632 -0.278018 -1.402610 0.000736 0.000312 -0.410141
    42 1.333083 0.000002 -0.000001 0.000000 0.000000 0.645758
    43 1.159202 -0.000002 0.000000 0.000000 0.000000 0.680671
    44 6.351387 4.660221 1.005959 -0.146892 0.156303 2.700311
    45 -2.686409 2.279088 1.265273 4.677388 0.000000 1.570796
  time 20
    0 0.135014 8.526284 -24.816700 0.000000 0.000000 -1.570794
    1 0.000001 0.000000 0.000000 -0.000086 -1.570451 -1.570709
    2 4.443613 -0.009641 0.000006 -0.000004 -0.000001 0.000796
    3 12.111416 -0.011447 0.000000 0.000000 0.000000 0.000000
    4 0.000007 0.011444 1.352404 1.191582 -1.069791 1.996456
    5 6.078088 0.000002 -0.000003 -0.850125 0.511740 -0.700598
    6 13.446749 -0.000001 -0.000003 0.000000 0.000000 -1.220864
    7 15.996999 0.000001 -0.000001 -1.505891 0.013714 -0.232892
    8 1.885327 0.833274 -2.177877 -1.565718 0.576345 0.043843
    9 1.506965 -0.000001 -0.000001 0.000000 0.000000 -0.061091
    10 0.798346 -0.000001 0.000000 0.000000 0.000000 -0.631759
    11 3.950305 -0.539878 -2.108874 -0.062071 0.352393 -0.210815
    12 1.545794 -0.000001 0.000004 0.000000 0.000000 0.482357
    13 1.667400 -0.000002 -0.000004 0.000000 0.000000 0.846473
    14 3.899459 -0.475376 -1.170890 -0.444073 0.044259 -0.013413
    15 1.528215 -0.000001 0.000002 0.000000 0.000000 0.137103
    16 1.528216 0.000001 0.000002 0.000000 0.000000 0.828996
    17 3.899460 -0.431805 0.168225 -0.254917 0.068204 -0.323656
    18 1.506965 -0.000002 -0.000002 0.000000 0.000000 0.610835
    19 1.506965 0.000004 0.000000 0.000000 0.000000 0.724285
    20 3.915635 -0.278020 1.402608 -0.291950 0.049113 -0.220193
    21 1.333082 -0.000002 -0.000001 0.000000 0.000000 0.767941
    22 1.159204 0.000001 0.000000 0.000000 0.000000 0.785375
    23 -27.949372 16.619126 5.169661 -1.802628 -1.194217 -3.096992
    24 -1.482699 0.881216 0.000000 0.000000 0.000000 0.000000
    25 0.000005 0.011451 -1.352403 -1.191590 1.069779 1.996427
    26 6.078086 0.000000 0.000002 1.066918 -0.483522 -0.809693
    27 13.446753 -0.000001 0.000001 0.000000 0.000000 -1.075591
    28 15.997001 0.000000 0.000000 1.545212 -0.179345 -0.635411
    29 1.885329 0.833277 2.177873 1.272475 -0.122784 0.235575
    30 1.506961 -0.000001 0.000002 0.000000 0.000000 -0.061098
    31 0.798352 0.000002 0.000002 0.000000 0.000000 -0.000014
    32 3.950305 -0.539877 2.108872 -0.304993 -0.095731 -0.302533
    33 1.545795 0.000001 -0.000002 0.000000 0.000000 0.628309
    34 1.667396 -0.000003 0.000003 0.000000 0.000000 0.855201
    35 3.899461 -0.475377 1.170887 0.000592 0.000539 -0.750466
    36 1.528217 0.000000 0.000005 0.000000 0.000000 0.846475
    37 1.528215 0.000001 0.000002 0.000000 0.000000 0.846468
    38 3.899460 -0.431802 -0.168225 0.000652 0.000467 -0.628310
    39 1.506961 -0.000001 -0.000001 0.000000 0.000000 0.689389
    40 1.506964 -0.000002 0.000002 0.000000 0.000000 0.811570
    41 3.915632 -0.278018 -1.402610 0.000736 0.000312 -0.410141
    42 1.333083 0.000002 -0.000001 0.000000 0.000000 0.645758
    43 1.159202 -0.000002 0.000000 0.000000 0.000000 0.680671
    44 6.351387 4.660221 1.005959 -0.146892 0.156303 2.700311
    45 -2.686409 2.279088 1.265273 4.677388 0.000000 1.570796
  time 21
    0 0.135014 8.526284 -24.816700 0.000000 0.000000 -1.570794
    1 0.000001 0.000000 0.000000 -0.000086 -1.570451 -1.570709
    2 4.443613 -0.009641 0.000006 -0.000004 -0.000001 0.000796
    3 12.111416 -0.011447 0.000000 0.000000 0.000000 0.000000
    4 0.000007 0.011444 1.352404 1.191582 -1.069791 1.996456
    5 6.078088 0.000002 -0.000003 -0.858348 0.494573 -0.717656
    6 13.446749 -0.000001 -0.000003 0.000000 0.000000 -1.220864
    7 15.996999 0.000001 -0.000001 -1.505891 0.013714 -0.232892
    8 1.885327 0.833274 -2.177877 -1.565718 0.576345 0.043843
    9 1.506965 -0.000001 -0.000001 0.000000 0.000000 -0.061091
    10 0.798346 -0.000001 0.000000 0.000000 0.000000 -0.628304
    11 3.950305 -0.539878 -2.108874 -0.062826 0.352261 -0.213008
    12 1.545794 -0.000001 0.000004 0.000000 0.000000 0.479954
    13 1.667400 -0.000002 -0.000004 0.000000 0.000000 0.846473
    14 3.899459 -0.475376 -1.170890 -0.444073 0.044259 -0.013413
    15 1.528215 -0.000001 0.000002 0.000000 0.000000 0.130902
    16 1.528216 0.000001 0.000002 0.000000 0.000000 0.828996
    17 3.899460 -0.431805 0.168225 -0.254917 0.068204 -0.323656
    18 1.506965 -0.000002 -0.000002 0.000000 0.000000 0.610835
    19 1.506965 0.000004 0.000000 0.000000 0.000000 0.724285
    20 3.915635 -0.278020 1.402608 -0.291950 0.049113 -0.220193
    21 1.333082 -0.000002 -0.000001 0.000000 0.000000 0.767941
    22 1.159204 0.000001 0.000000 0.000000 0.000000 0.785375
    23 -27.949372 16.619126 5.169661 -1.802628 -1.194217 -3.096992
    24 -1.482699 0.881216 0.000000 0.000000 0.000000 0.000000
    25 0.000005 0.011451 -1.352403 -1.191590 1.069779 1.996427
    26 6.078086 0.000000 0.000002 1.072358 -0.464147 -0.821657
    27 13.446753 -0.000001 0.000001 0.000000 0.000000 -1.075591
    28 15.997001 0.000000 0.000000 1.545212 -0.179345 -0.635411
    29 1.885329 0.833277 2.177873 1.272475 -0.122784 0.235575
    30 1.506961 -0.000001 0.000002 0.000000 0.000000 -0.061098
    31 0.798352 0.000002 0.000002 0.000000 0.000000 -0.000014
    32 3.950305 -0.539877 2.108872 -0.304993 -0.095731 -0.302533
    33 1.545795 0.000001 -0.000002 0.000000 0.000000 0.628309
    34 1.667396 -0.000003 0.000003 0.000000 0.000000 0.855201
    35 3.899461 -0.475377 1.170887 0.000592 0.000539 -0.750466
    36 1.528217 0.000000 0.000005 0.000000 0.000000 0.846475
    37 1.528215 0.000001 0.000002 0.000000 0.000000 0.846468
    38 3.899460 -0.431802 -0.168225 0.000652 0.000467 -0.628310
    39 1.506961 -0.000001 -0.000001 0.000000 0.000000 0.689389
    40 1.506964 -0.000002 0.000002 0.000000 0.000000 0.811570
    41 3.915632 -0.278018 -1.402610 0.000736 0.000312 -0.410141
    42 1.333083 0.000002 -0.000001 0.000000 0.000000 0.645758
    43 1.159202 -0.000002 0.000000 0.000000 0.000000 0.680671
    44 6.351387 4.660221 1.005959 -0.146892 0.156303 2.700311
    45 -2.686409 2.279088 1.265273 4.677388 0.000000 1.570796
  time 22
    0 0.135014 8.526284 -24.816700 0.000000 0.000000 -1.570794
    1 0.000001 0.000000 0.000000 -0.000086 -1.570451 -1.570709
    2 4.443613 -0.009641 0.000006 -0.000004 -0.000001 0.000796
    3 12.111416 -0.011447 0.000000 0.000000 0.000000 0.000000
    4 0.000007 0.011444 1.352404 1.191582 -1.069791 1.996456
    5 6.078088 0.000002 -0.000003 -0.864762 0.480438 -0.731405
    6 13.446749 -0.000001 -0.000003 0.000000 0.000000 -1.220864
    7 15.996999 0.000001 -0.000001 -1.505891 0.013714 -0.232892
    8 1.885327 0.833274 -2.177877 -1.565718 0.576345 0.043843
    9 1.506965 -0.000001 -0.000001 0.000000 0.000000 -0.061091
    10 0.798346 -0.000001 0.000000 0.000000 0.000000 -0.588262
    11 3.950305 -0.539878 -2.108874 -0.071623 0.350655 -0.238535
    12 1.545794 -0.000001 0.000004 0.000000 0.000000 0.451949
    13 1.667400 -0.000002 -0.000004 0.000000 0.000000 0.836303
    14 3.899459 -0.475376 -1.170890 -0.444073 0.044259 -0.013413
    15 1.528215 -0.000001 0.000002 0.000000 0.000000 0.058840
    16 1.528216 0.000001 0.000002 0.000000 0.000000 0.828996
    17 3.899460 -0.431805 0.168225 -0.254917 0.068204 -0.323656
    18 1.506965 -0.000002 -0.000002 0.000000 0.000000 0.610835
    19 1.506965 0.000004 0.000000 0.000000 0.000000 0.724285
    20 3.915635 -0.278020 1.402608 -0.291950 0.049113 -0.220193
    21 1.333082 -0.000002 -0.000001 0.000000 0.000000 0.767941
    22 1.159204 0.000001 0.000000 0.000000 0.000000 0.785375
    23 -27.949372 16.619126 5.169661 -1.802628 -1.194217 -3.096992
    24 -1.482699 0.881216 0.000000 0.000000 0.000000 0.000000
    25 0.000005 0.011451 -1.352403 -1.191590 1.069779 1.996427
    26 6.078086 0.000000 0.000002 1.076810 -0.447360 -0.831735
    27 13.446753 -0.000001 0.000001 0.000000 0.000000 -1.075591
    28 15.997001 0.000000 0.000000 1.545212 -0.179345 -0.635411
    29 1.885329 0.833277 2.177873 1.272475 -0.122784 0.235575
    30 1.506961 -0.000001 0.000002 0.000000 0.000000 -0.061098
    31 0.798352 0.000002 0.000002 0.000000 0.000000 -0.000014
    32 3.950305 -0.539877 2.108872 -0.304993 -0.095731 -0.302533
    33 1.545795 0.000001 -0.000002 0.000000 0.000000 0.628309
    34 1.667396 -0.000003 0.000003 0.000000 0.000000 0.855201
    35 3.899461 -0.475377 1.170887 0.000592 0.000539 -0.750466
    36 1.528217 0.000000 0.000005 0.000000 0.000000 0.846475
    37 1.528215 0.000001 0.000002 0.000000 0.000000 0.846468
    38 3.899460 -0.431802 -0.168225 0.000652 0.000467 -0.628310
    39 1.506961 -0.000001 -0.000001 0.000000 0.000000 0.689389
    40 1.506964 -0.000002 0.000002 0.000000 0.000000 0.811570
    41 3.915632 -0.278018 -1.402610 0.000736 0.000312 -0.410141
    42 1.333083 0.000002 -0.000001 0.000000 0.000000 0.645758
    43 1.159202 -0.000002 0.000000 0.000000 0.000000 0.680671
    44 6.351387 4.660221 1.005959 -0.146892 0.156303 2.700311
    45 -2.686409 2.279088 1.265273 4.677388 0.000000 1.570796
  time 23
    0 0.135014 8.526284 -24.816700 0.000000 0.000000 -1.570794
    1 0.000001 0.000000 0.000000 -0.000086 -1.570451 -1.570709
    2 4.443613 -0.009641 0.000006 -0.000004 -0.000001 0.000796
    3 12.111416 -0.011447 0.000000 0.000000 0.000000 0.000000
    4 0.000007 0.011444 1.352404 1.191582 -1.069791 1.996456
    5 6.078088 0.000002 -0.000003 -0.869861 0.468805 -0.742496
    6 13.446749 -0.000001 -0.000003 0.000000 0.000000 -1.220864
    7 15.996999 0.000001 -0.000001 -1.505891 0.013714 -0.232892
    8 1.885327 0.833274 -2.177877 -1.565718 0.576345 0.043843
    9 1.506965 -0.000001 -0.000001 0.000000 0.000000 -0.061091
    10 0.798346 -0.000001 0.000000 0.000000 0.000000 -0.541044
    11 3.950305 -0.539878 -2.108874 -0.081918 0.348474 -0.268617
    12 1.545794 -0.000001 0.000004 0.000000 0.000000 0.418887
    13 1.667400 -0.000002 -0.000004 0.000000 0.000000 0.846473
    14 3.899459 -0.475376 -1.170890 -0.444073 0.044259 -0.013413
    15 1.528215 -0.000001 0.000002 0.000000 0.000000 -0.026176
    16 1.528216 0.000001 0.000002 0.000000 0.000000 0.828996
    17 3.899460 -0.431805 0.168225 -0.254917 0.068204 -0.323656
    18 1.506965 -0.000002 -0.000002 0.000000 0.000000 0.610835
    19 1.506965 0.000004 0.000000 0.000000 0.000000 0.724285
    20 3.915635 -0.278020 1.402608 -0.291950 0.049113 -0.220193
    21 1.333082 -0.000002 -0.000001 0.000000 0.000000 0.767941
    22 1.159204 0.000001 0.000000 0.000000 0.000000 0.785375
    23 -27.949372 16.619126 5.169661 -1.802628 -1.194217 -3.096992
    24 -1.482699 0.881216 0.000000 0.000000 0.000000 0.000000
    25 0.000005 0.011451 -1.352403 -1.191590 1.069779 1.996427
    26 6.078086 0.000000 0.000002 1.080130 -0.434279 -0.839519
    27 13.446753 -0.000001 0.000001 0.000000 0.000000 -1.075591
    28 15.997001 0.000000 0.000000 1.545212 -0.179345 -0.635411
    29 1.885329 0.833277 2.177873 1.272475 -0.122784 0.235575
    30 1.506961 -0.000001 0.000002 0.000000 0.000000 -0.061098
    31 0.798352 0.000002 0.000002 0.000000 0.000000 -0.000014
    32 3.950305 -0.539877 2.108872 -0.304993 -0.095731 -0.302533
    33 1.545795 0.000001 -0.000002 0.000000 0.000000 0.628309
    34 1.667396 -0.000003 0.000003 0.000000 0.000000 0.855201
    35 3.899461 -0.475377 1.170887 0.000592 0.000539 -0.750466
    36 1.528217 0.000000 0.000005 0.000000 0.000000 0.846475
    37 1.528215 0.000001 0.000002 0.000000 0.000000 0.846468
    38 3.899460 -0.431802 -0.168225 0.000652 0.000467 -0.628310
    39 1.506961 -0.000001 -0.000001 0.000000 0.000000 0.689389
    40 1.506964 -0.000002 0.000002 0.000000 0.000000 0.811570
    41 3.915632 -0.278018 -1.402610 0.000736 0.000312 -0.410141
    42 1.333083 0.000002 -0.000001 0.000000 0.000000 0.645758
    43 1.159202 -0.000002 0.000000 0.000000 0.000000 0.680671
    44 6.351387 4.660221 1.005959 -0.146892 0.156303 2.700311
    45 -2.686409 2.279088 1.265273 4.677388 0.000000 1.570796
  time 24
    0 0.135014 8.526284 -24.816700 0.000000 0.000000 -1.570794
    1 0.000001 0.000000 0.000000 -0.000086 -1.570451 -1.570709
    2 4.443613 -0.009641 0.000006 -0.000004 -0.000001 0.000796
    3 12.111416 -0.011447 0.000000 0.000000 0.000000 0.000000
    4 0.000007 0.011444 1.352404 1.191582 -1.069791 1.996456
    5 6.078088 0.000002 -0.000003 -0.874356 0.458089 -0.752614
    6 13.446749 -0.000001 -0.000003 0.000000 0.000000 -1.220864
    7 15.996999 0.000001 -0.000001 -1.505891 0.013714 -0.232892
    8 1.885327 0.833274 -2.177877 -1.565718 0.576345 0.043843
    9 1.506965 -0.000001 -0.000001 0.000000 0.000000 -0.061091
    10 0.798346 -0.000001 0.000000 0.000000 0.000000 -0.573769
    11 3.950305 -0.539878 -2.108874 -0.074787 0.350008 -0.247788
    12 1.545794 -0.000001 0.000004 0.000000 0.000000 0.441792
    13 1.667400 -0.000002 -0.000004 0.000000 0.000000 0.968642
    14 3.899459 -0.475376 -1.170890 -0.444073 0.044259 -0.013413
    15 1.528215 -0.000001 0.000002 0.000000 0.000000 0.032740
    16 1.528216 0.000001 0.000002 0.000000 0.000000 0.828996
    17 3.899460 -0.431805 0.168225 -0.254917 0.068204 -0.323656
    18 1.506965 -0.000002 -0.000002 0.000000 0.000000 0.610835
    19 1.506965 0.000004 0.000000 0.000000 0.000000 0.724285
    20 3.915635 -0.278020 1.402608 -0.291950 0.049113 -0.220193
    21 1.333082 -0.000002 -0.000001 0.000000 0.000000 0.767941
    22 1.159204 0.000001 0.000000 0.000000 0.000000 0.785375
    23 -27.949372 16.619126 5.169661 -1.802628 -1.194217 -3.096992
    24 -1.482699 0.881216 0.000000 0.000000 0.000000 0.000000
    25 0.000005 0.011451 -1.352403 -1.191590 1.069779 1.996427
    26 6.078086 0.000000 0.000002 1.082956 -0.422668 -0.846320
    27 13.446753 -0.000001 0.000001 0.000000 0.000000 -1.075591
    28 15.997001 0.000000 0.000000 1.545212 -0.179345 -0.635411
    29 1.885329 0.833277 2.177873 1.272475 -0.122784 0.235575
    30 1.506961 -0.000001 0.000002 0.000000 0.000000 -0.061098
    31 0.798352 0.000002 0.000002 0.000000 0.000000 -0.000014
    32 3.950305 -0.539877 2.108872 -0.304993 -0.095731 -0.302533
    33 1.545795 0.000001 -0.000002 0.000000 0.000000 0.628309
    34 1.667396 -0.000003 0.000003 0.000000 0.000000 0.855201
    35 3.899461 -0.475377 1.170887 0.000592 0.000539 -0.750466
    36 1.528217 0.000000 0.000005 0.000000 0.000000 0.846475
    37 1.528215 0.000001 0.000002 0.000000 0.000000 0.846468
    38 3.899460 -0.431802 -0.168225 0.000652 0.000467 -0.628310
    39 1.506961 -0.000001 -0.000001 0.000000 0.000000 0.689389
    40 1.506964 -0.000002 0.000002 0.000000 0.000000 0.811570
    41 3.915632 -0.278018 -1.402610 0.000736 0.000312 -0.410141
    42 1.333083 0.000002 -0.000001 0.000000 0.000000 0.645758
    43 1.159202 -0.000002 0.000000 0.000000 0.000000 0.680671
    44 6.351387 4.660221 1.005959 -0.146892 0.156303 2.700311
    45 -2.686409 2.279088 1.265273 4.677388 0.000000 1.570796
  time 25
    0 0.135014 8.526284 -24.816700 0.000000 0.000000 -1.570794
    1 0.000001 0.000000 0.000000 -0.000086 -1.570451 -1.570709
    2 4.443613 -0.009641 0.000006 -0.000004 -0.000001 0.000796
    3 12.111416 -0.011447 0.000000 0.000000 0.000000 0.000000
    4 0.000007 0.011444 1.352404 1.191582 -1.069791 1.996456
    5 6.078088 0.000002 -0.000003 -0.878468 0.447937 -0.761953
    6 13.446749 -0.000001 -0.000003 0.000000 0.000000 -1.220864
    7 15.996999 0.000001 -0.000001 -1.505891 0.013714 -0.232892
    8 1.885327 0.833274 -2.177877 -1.565718 0.576345 0.043843
    9 1.506965 -0.000001 -0.000001 0.000000 0.000000 -0.061091
    10 0.798346 -0.000001 0.000000 0.000000 0.000000 -0.628304
    11 3.950305 -0.539878 -2.108874 -0.062826 0.352261 -0.213008
    12 1.545794 -0.000001 0.000004 0.000000 0.000000 0.479954
    13 1.667400 -0.000002 -0.000004 0.000000 0.000000 0.846473
    14 3.899459 -0.475376 -1.170890 -0.444073 0.044259 -0.013413
    15 1.528215 -0.000001 0.000002 0.000000 0.000000 0.130902
    16 1.528216 0.000001 0.000002 0.000000 0.000000 0.828996
    17 3.899460 -0.431805 0.168225 -0.254917 0.068204 -0.323656
    18 1.506965 -0.000002 -0.000002 0.000000 0.000000 0.610835
    19 1.506965 0.000004 0.000000 0.000000 0.000000 0.724285
    20 3.915635 -0.278020 1.402608 -0.291950 0.049113 -0.220193
    21 1.333082 -0.000002 -0.000001 0.000000 0.000000 0.767941
    22 1.159204 0.000001 0.000000 0.000000 0.000000 0.785375
    23 -27.949372 16.619126 5.169661 -1.802628 -1.194217 -3.096992
    24 -1.482699 0.881216 0.000000 0.000000 0.000000 0.000000
    25 0.000005 0.011451 -1.352403 -1.191590 1.069779 1.996427
    26 6.078086 0.000000 0.000002 1.085853 -0.410288 -0.853531
    27 13.446753 -0.000001 0.000001 0.000000 0.000000 -1.075591
    28 15.997001 0.000000 0.000000 1.545212 -0.179345 -0.635411
    29 1.885329 0.833277 2.177873 1.272475 -0.122784 0.235575
    30 1.506961 -0.000001 0.000002 0.000000 0.000000 -0.061098
    31 0.798352 0.000002 0.000002 0.000000 0.000000 -0.000014
    32 3.950305 -0.539877 2.108872 -0.304993 -0.095731 -0.302533
    33 1.545795 0.000001 -0.000002 0.000000 0.000000 0.628309
    34 1.667396 -0.000003 0.000003 0.000000 0.000000 0.855201
    35 3.899461 -0.475377 1.170887 0.000592 0.000539 -0.750466
    36 1.528217 0.000000 0.000005 0.000000 0.000000 0.846475
    37 1.528215 0.000001 0.000002 0.000000 0.000000 0.846468
    38 3.899460 -0.431802 -0.168225 0.000652 0.000467 -0.628310
    39 1.506961 -0.000001 -0.000001 0.000000 0.000000 0.689389
    40 1.506964 -0.000002 0.000002 0.000000 0.000000 0.811570
    41 3.915632 -0.278018 -1.402610 0.000736 0.000312 -0.410141
    42 1.333083 0.000002 -0.000001 0.000000 0.000000 0.645758
    43 1.159202 -0.000002 0.000000 0.000000 0.000000 0.680671
    44 6.351387 4.660221 1.005959 -0.146892 0.156303 2.700311
    45 -2.686409 2.279088 1.265273 4.677388 0.000000 1.570796
end
