// Created by Crowbar 0.68
version 1
nodes
  0 "Bip01" -1
  1 "Bip01 Pelvis" 0
  2 "Bip01 Spine" 1
  3 "Bip01 Neck" 2
  4 "Bip01 L Clavicle" 3
  5 "Bip01 L UpperArm" 4
  6 "Bip01 L Forearm" 5
  7 "Bip01 L Hand" 6
  8 "Bip01 L Finger0" 7
  9 "Bip01 L Finger01" 8
  10 "Bip01 L Finger02" 9
  11 "Bip01 L Finger1" 7
  12 "Bip01 L Finger11" 11
  13 "Bip01 L Finger12" 12
  14 "Bip01 L Finger2" 7
  15 "Bip01 L Finger21" 14
  16 "Bip01 L Finger22" 15
  17 "Bip01 L Finger3" 7
  18 "Bip01 L Finger31" 17
  19 "Bip01 L Finger32" 18
  20 "Bip01 L Finger4" 7
  21 "Bip01 L Finger41" 20
  22 "Bip01 L Finger42" 21
  23 "Dummy16" 7
  24 "Dummy15" 23
  25 "Bip01 R Clavicle" 3
  26 "Bip01 R UpperArm" 25
  27 "Bip01 R Forearm" 26
  28 "Bip01 R Hand" 27
  29 "Bip01 R Finger0" 28
  30 "Bip01 R Finger01" 29
  31 "Bip01 R Finger02" 30
  32 "Bip01 R Finger1" 28
  33 "Bip01 R Finger11" 32
  34 "Bip01 R Finger12" 33
  35 "Bip01 R Finger2" 28
  36 "Bip01 R Finger21" 35
  37 "Bip01 R Finger22" 36
  38 "Bip01 R Finger3" 28
  39 "Bip01 R Finger31" 38
  40 "Bip01 R Finger32" 39
  41 "Bip01 R Finger4" 28
  42 "Bip01 R Finger41" 41
  43 "Bip01 R Finger42" 42
  44 "Dummy14" 28
  45 "Dummy18" 44
end
skeleton
  time 0
    0 0.135014 8.526284 -24.816700 0.000000 0.000000 -1.570794
    1 0.000001 0.000000 0.000000 -0.000086 -1.570451 -1.570709
    2 4.443613 -0.009641 0.000006 -0.000004 -0.000001 0.000796
    3 12.111416 -0.011447 0.000000 0.000000 0.000000 0.000000
    4 0.000007 0.011444 1.352404 1.191582 -1.069791 1.996456
    5 6.078089 0.000002 -0.000002 -0.878468 0.447937 -0.761953
    6 13.446752 0.000002 -0.000002 0.000000 0.000000 -1.220864
    7 15.997002 -0.000005 0.000001 -1.505891 0.013714 -0.232892
    8 1.885330 0.833276 -2.177876 -1.565718 0.576345 0.043843
    9 1.506962 -0.000004 0.000001 0.000000 0.000000 -0.061091
    10 0.798349 0.000001 0.000001 0.000000 0.000000 -0.628304
    11 3.950305 -0.539876 -2.108871 -0.062826 0.352261 -0.213008
    12 1.545797 0.000000 0.000001 0.000000 0.000000 0.479954
    13 1.667398 0.000002 -0.000004 0.000000 0.000000 0.846473
    14 3.899463 -0.475377 -1.170892 -0.444073 0.044259 -0.013413
    15 1.528214 0.000001 0.000001 0.000000 0.000000 0.130902
    16 1.528215 -0.000001 0.000000 0.000000 0.000000 0.828996
    17 3.899462 -0.431805 0.168225 -0.254917 0.068204 -0.323656
    18 1.506964 0.000000 0.000003 0.000000 0.000000 0.610835
    19 1.506967 -0.000001 -0.000005 0.000000 0.000000 0.724285
    20 3.915634 -0.278019 1.402608 -0.291950 0.049113 -0.220193
    21 1.333087 -0.000001 -0.000002 0.000000 0.000000 0.767941
    22 1.159203 0.000002 0.000002 0.000000 0.000000 0.785375
    23 -27.949372 16.619126 5.169661 -1.802628 -1.194217 -3.096992
    24 -1.482691 0.881221 -0.000002 0.000000 0.000000 0.000000
    25 0.000005 0.011451 -1.352403 -1.191590 1.069779 1.996427
    26 6.078086 0.000000 0.000002 1.085853 -0.410288 -0.853531
    27 13.446753 -0.000001 0.000000 0.000000 0.000000 -1.075591
    28 15.996994 0.000001 -0.000001 1.545212 -0.179345 -0.635411
    29 1.885327 0.833276 2.177872 1.272475 -0.122784 0.235575
    30 1.506962 0.000000 0.000000 0.000000 0.000000 -0.061098
    31 0.798350 0.000003 0.000000 0.000000 0.000000 -0.000014
    32 3.950309 -0.539878 2.108873 -0.304993 -0.095731 -0.302533
    33 1.545797 -0.000001 -0.000003 0.000000 0.000000 0.628309
    34 1.667392 0.000006 -0.000002 0.000000 0.000000 0.855201
    35 3.899458 -0.475377 1.170886 0.000592 0.000539 -0.750466
    36 1.528219 0.000002 0.000004 0.000000 0.000000 0.846475
    37 1.528216 0.000001 -0.000004 0.000000 0.000000 0.846468
    38 3.899456 -0.431803 -0.168226 0.000652 0.000467 -0.628310
    39 1.506976 0.000002 0.000001 0.000000 0.000000 0.689389
    40 1.506956 0.000005 -0.000008 0.000000 0.000000 0.811570
    41 3.915636 -0.278021 -1.402610 0.000736 0.000312 -0.410141
    42 1.333084 0.000000 0.000000 0.000000 0.000000 0.645758
    43 1.159205 0.000001 -0.000001 0.000000 0.000000 0.680671
    44 6.351387 4.660221 1.005959 -0.146892 0.156303 2.700311
    45 -2.686412 2.279088 1.265274 4.677388 0.000000 1.570796
  time 1
    0 0.135014 8.526284 -24.816700 0.000000 0.000000 -1.570794
    1 0.000001 0.000000 0.000000 -0.000086 -1.570451 -1.570709
    2 4.443613 -0.009641 0.000006 -0.000004 -0.000001 0.000796
    3 12.111416 -0.011447 0.000000 0.000000 0.000000 0.000000
    4 0.000007 0.011444 1.352404 1.191582 -1.069791 1.996456
    5 6.078089 0.000002 -0.000002 -0.909497 0.355722 -0.835113
    6 13.446752 0.000002 -0.000002 0.000000 0.000000 -1.027997
    7 15.997002 -0.000005 0.000001 -1.519270 0.026194 -0.312590
    8 1.885330 0.833276 -2.177876 -1.565718 0.576345 0.043843
    9 1.506962 -0.000004 0.000001 0.000000 0.000000 -0.061091
    10 0.798349 0.000001 0.000001 0.000000 0.000000 -0.628304
    11 3.950305 -0.539876 -2.108871 -0.062826 0.352261 -0.213008
    12 1.545797 0.000000 0.000001 0.000000 0.000000 0.479954
    13 1.667398 0.000002 -0.000004 0.000000 0.000000 0.846473
    14 3.899463 -0.475377 -1.170892 -0.444073 0.044259 -0.013413
    15 1.528214 0.000001 0.000001 0.000000 0.000000 0.130902
    16 1.528215 -0.000001 0.000000 0.000000 0.000000 0.828996
    17 3.899462 -0.431805 0.168225 -0.254917 0.068204 -0.323656
    18 1.506964 0.000000 0.000003 0.000000 0.000000 0.610835
    19 1.506967 -0.000001 -0.000005 0.000000 0.000000 0.724285
    20 3.915634 -0.278019 1.402608 -0.291950 0.049113 -0.220193
    21 1.333087 -0.000001 -0.000002 0.000000 0.000000 0.767941
    22 1.159203 0.000002 0.000002 0.000000 0.000000 0.785375
    23 -27.949372 16.619126 5.169661 -1.802628 -1.194217 -3.096992
    24 -1.482691 0.881221 -0.000002 0.000000 0.000000 0.000000
    25 0.000005 0.011451 -1.352403 -1.191590 1.069779 1.996427
    26 6.078086 0.000000 0.000002 1.108603 -0.286796 -0.918344
    27 13.446753 -0.000001 0.000000 0.000000 0.000000 -0.839133
    28 15.996994 0.000001 -0.000001 1.572020 -0.185077 -0.716598
    29 1.885327 0.833276 2.177872 1.272475 -0.122784 0.235575
    30 1.506962 0.000000 0.000000 0.000000 0.000000 -0.061098
    31 0.798350 0.000003 0.000000 0.000000 0.000000 -0.000014
    32 3.950309 -0.539878 2.108873 -0.304993 -0.095731 -0.302533
    33 1.545797 -0.000001 -0.000003 0.000000 0.000000 0.628309
    34 1.667392 0.000006 -0.000002 0.000000 0.000000 0.855201
    35 3.899458 -0.475377 1.170886 0.000592 0.000539 -0.750466
    36 1.528219 0.000002 0.000004 0.000000 0.000000 0.846475
    37 1.528216 0.000001 -0.000004 0.000000 0.000000 0.846468
    38 3.899456 -0.431803 -0.168226 0.000652 0.000467 -0.628310
    39 1.506976 0.000002 0.000001 0.000000 0.000000 0.689389
    40 1.506956 0.000005 -0.000008 0.000000 0.000000 0.811570
    41 3.915636 -0.278021 -1.402610 0.000736 0.000312 -0.410141
    42 1.333084 0.000000 0.000000 0.000000 0.000000 0.645758
    43 1.159205 0.000001 -0.000001 0.000000 0.000000 0.680671
    44 6.351387 4.660221 1.005959 -0.146892 0.156303 2.700311
    45 -2.686412 2.279088 1.265274 4.677388 0.000000 1.570796
  time 2
    0 0.135014 8.526284 -24.816700 0.000000 0.000000 -1.570794
    1 0.000001 0.000000 0.000000 -0.000086 -1.570451 -1.570709
    2 4.443613 -0.009641 0.000006 -0.000004 -0.000001 0.000796
    3 12.111416 -0.011447 0.000000 0.000000 0.000000 0.000000
    4 0.000007 0.011444 1.352404 1.191582 -1.069791 1.996456
    5 6.078089 0.000002 -0.000002 -0.934111 0.253954 -0.908466
    6 13.446752 0.000002 -0.000002 0.000000 0.000000 -0.819723
    7 15.997002 -0.000005 0.000001 -1.546292 0.044952 -0.404506
    8 1.885330 0.833276 -2.177876 -1.565718 0.576345 0.043843
    9 1.506962 -0.000004 0.000001 0.000000 0.000000 -0.061091
    10 0.798349 0.000001 0.000001 0.000000 0.000000 -0.628304
    11 3.950305 -0.539876 -2.108871 -0.062826 0.352261 -0.213008
    12 1.545797 0.000000 0.000001 0.000000 0.000000 0.479954
    13 1.667398 0.000002 -0.000004 0.000000 0.000000 0.846473
    14 3.899463 -0.475377 -1.170892 -0.444073 0.044259 -0.013413
    15 1.528214 0.000001 0.000001 0.000000 0.000000 0.130902
    16 1.528215 -0.000001 0.000000 0.000000 0.000000 0.828996
    17 3.899462 -0.431805 0.168225 -0.254917 0.068204 -0.323656
    18 1.506964 0.000000 0.000003 0.000000 0.000000 0.610835
    19 1.506967 -0.000001 -0.000005 0.000000 0.000000 0.724285
    20 3.915634 -0.278019 1.402608 -0.291950 0.049113 -0.220193
    21 1.333087 -0.000001 -0.000002 0.000000 0.000000 0.767941
    22 1.159203 0.000002 0.000002 0.000000 0.000000 0.785375
    23 -27.949372 16.619126 5.169661 -1.802628 -1.194217 -3.096992
    24 -1.482691 0.881221 -0.000002 0.000000 0.000000 0.000000
    25 0.000005 0.011451 -1.352403 -1.191590 1.069779 1.996427
    26 6.078086 0.000000 0.000002 1.123581 -0.150643 -0.983978
    27 13.446753 -0.000001 0.000000 0.000000 0.000000 -0.580960
    28 15.996994 0.000001 -0.000001 1.613290 -0.192260 -0.806627
    29 1.885327 0.833276 2.177872 1.272475 -0.122784 0.235575
    30 1.506962 0.000000 0.000000 0.000000 0.000000 -0.061098
    31 0.798350 0.000003 0.000000 0.000000 0.000000 -0.000014
    32 3.950309 -0.539878 2.108873 -0.304993 -0.095731 -0.302533
    33 1.545797 -0.000001 -0.000003 0.000000 0.000000 0.628309
    34 1.667392 0.000006 -0.000002 0.000000 0.000000 0.855201
    35 3.899458 -0.475377 1.170886 0.000592 0.000539 -0.750466
    36 1.528219 0.000002 0.000004 0.000000 0.000000 0.846475
    37 1.528216 0.000001 -0.000004 0.000000 0.000000 0.846468
    38 3.899456 -0.431803 -0.168226 0.000652 0.000467 -0.628310
    39 1.506976 0.000002 0.000001 0.000000 0.000000 0.689389
    40 1.506956 0.000005 -0.000008 0.000000 0.000000 0.811570
    41 3.915636 -0.278021 -1.402610 0.000736 0.000312 -0.410141
    42 1.333084 0.000000 0.000000 0.000000 0.000000 0.645758
    43 1.159205 0.000001 -0.000001 0.000000 0.000000 0.680671
    44 6.351387 4.660221 1.005959 -0.146892 0.156303 2.700311
    45 -2.686412 2.279088 1.265274 4.677388 0.000000 1.570796
  time 3
    0 0.135014 8.526284 -24.816700 0.000000 0.000000 -1.570794
    1 0.000001 0.000000 0.000000 -0.000086 -1.570451 -1.570709
    2 4.443613 -0.009641 0.000006 -0.000004 -0.000001 0.000796
    3 12.111416 -0.011447 0.000000 0.000000 0.000000 0.000000
    4 0.000007 0.011444 1.352404 1.191582 -1.069791 1.996456
    5 6.078089 0.000002 -0.000002 -0.950119 0.154688 -0.975269
    6 13.446752 0.000002 -0.000002 0.000000 0.000000 -0.619128
    7 15.997002 -0.000005 0.000001 -1.568339 0.057852 -0.490899
    8 1.885330 0.833276 -2.177876 -1.565718 0.576345 0.043843
    9 1.506962 -0.000004 0.000001 0.000000 0.000000 -0.061091
    10 0.798349 0.000001 0.000001 0.000000 0.000000 -0.628304
    11 3.950305 -0.539876 -2.108871 -0.062826 0.352261 -0.213008
    12 1.545797 0.000000 0.000001 0.000000 0.000000 0.479954
    13 1.667398 0.000002 -0.000004 0.000000 0.000000 0.846473
    14 3.899463 -0.475377 -1.170892 -0.444073 0.044259 -0.013413
    15 1.528214 0.000001 0.000001 0.000000 0.000000 0.130902
    16 1.528215 -0.000001 0.000000 0.000000 0.000000 0.828996
    17 3.899462 -0.431805 0.168225 -0.254917 0.068204 -0.323656
    18 1.506964 0.000000 0.000003 0.000000 0.000000 0.610835
    19 1.506967 -0.000001 -0.000005 0.000000 0.000000 0.724285
    20 3.915634 -0.278019 1.402608 -0.291938 0.049113 -0.220193
    21 1.333087 -0.000001 -0.000002 0.000000 0.000000 0.767941
    22 1.159203 0.000002 0.000002 0.000000 0.000000 0.785375
    23 -27.949372 16.619126 5.169661 -1.802628 -1.194217 -3.096992
    24 -1.482691 0.881221 -0.000002 0.000000 0.000000 0.000000
    25 0.000005 0.011451 -1.352403 -1.191590 1.069779 1.996427
    26 6.078086 0.000000 0.000002 1.129304 -0.019702 -1.044121
    27 13.446753 -0.000001 0.000000 0.000000 0.000000 -0.333618
    28 15.996994 0.000001 -0.000001 1.647929 -0.194376 -0.892661
    29 1.885327 0.833276 2.177872 1.272475 -0.122784 0.235575
    30 1.506962 0.000000 0.000000 0.000000 0.000000 -0.061098
    31 0.798350 0.000003 0.000000 0.000000 0.000000 -0.000014
    32 3.950309 -0.539878 2.108873 -0.304993 -0.095731 -0.302533
    33 1.545797 -0.000001 -0.000003 0.000000 0.000000 0.628309
    34 1.667392 0.000006 -0.000002 0.000000 0.000000 0.855201
    35 3.899458 -0.475377 1.170886 0.000592 0.000539 -0.750466
    36 1.528219 0.000002 0.000004 0.000000 0.000000 0.846475
    37 1.528216 0.000001 -0.000004 0.000000 0.000000 0.846468
    38 3.899456 -0.431803 -0.168226 0.000652 0.000467 -0.628310
    39 1.506976 0.000002 0.000001 0.000000 0.000000 0.689389
    40 1.506956 0.000005 -0.000008 0.000000 0.000000 0.811570
    41 3.915636 -0.278021 -1.402610 0.000736 0.000312 -0.410141
    42 1.333084 0.000000 0.000000 0.000000 0.000000 0.645758
    43 1.159205 0.000001 -0.000001 0.000000 0.000000 0.680671
    44 6.351387 4.660221 1.005959 -0.146892 0.156303 2.700311
    45 -2.686412 2.279088 1.265274 4.677388 0.000000 1.570796
  time 4
    0 0.135014 8.526284 -24.816700 0.000000 0.000000 -1.570794
    1 0.000001 0.000000 0.000000 -0.000086 -1.570451 -1.570709
    2 4.443613 -0.009641 0.000006 -0.000004 -0.000001 0.000796
    3 12.111416 -0.011447 0.000000 0.000000 0.000000 0.000000
    4 0.000007 0.011444 1.352404 1.191582 -1.069791 1.996456
    5 6.078089 0.000002 -0.000002 -0.958343 0.070369 -1.029814
    6 13.446752 0.000002 -0.000002 0.000000 0.000000 -0.449498
    7 15.997002 -0.000005 0.000001 -1.564582 0.056643 -0.552997
    8 1.885330 0.833276 -2.177876 -1.565718 0.576345 0.043843
    9 1.506962 -0.000004 0.000001 0.000000 0.000000 -0.061091
    10 0.798349 0.000001 0.000001 0.000000 0.000000 -0.628304
    11 3.950305 -0.539876 -2.108871 -0.062826 0.352261 -0.213008
    12 1.545797 0.000000 0.000001 0.000000 0.000000 0.479954
    13 1.667398 0.000002 -0.000004 0.000000 0.000000 0.846473
    14 3.899463 -0.475377 -1.170892 -0.444073 0.044259 -0.013413
    15 1.528214 0.000001 0.000001 0.000000 0.000000 0.130902
    16 1.528215 -0.000001 0.000000 0.000000 0.000000 0.828996
    17 3.899462 -0.431805 0.168225 -0.254917 0.068204 -0.323656
    18 1.506964 0.000000 0.000003 0.000000 0.000000 0.610835
    19 1.506967 -0.000001 -0.000005 0.000000 0.000000 0.724285
    20 3.915634 -0.278019 1.402608 -0.291950 0.049113 -0.220193
    21 1.333087 -0.000001 -0.000002 0.000000 0.000000 0.767941
    22 1.159203 0.000002 0.000002 0.000000 0.000000 0.785375
    23 -27.949372 16.619126 5.169661 -1.802628 -1.194217 -3.096992
    24 -1.482691 0.881221 -0.000002 0.000000 0.000000 0.000000
    25 0.000005 0.011451 -1.352403 -1.191590 1.069779 1.996427
    26 6.078086 0.000000 0.000002 1.128173 0.088297 -1.093366
    27 13.446753 -0.000001 0.000000 0.000000 0.000000 -0.129814
    28 15.996994 0.000001 -0.000001 1.654121 -0.189160 -0.961105
    29 1.885327 0.833276 2.177872 1.272475 -0.122784 0.235575
    30 1.506962 0.000000 0.000000 0.000000 0.000000 -0.061098
    31 0.798350 0.000003 0.000000 0.000000 0.000000 -0.000014
    32 3.950309 -0.539878 2.108873 -0.304993 -0.095731 -0.302533
    33 1.545797 -0.000001 -0.000003 0.000000 0.000000 0.628309
    34 1.667392 0.000006 -0.000002 0.000000 0.000000 0.855201
    35 3.899458 -0.475377 1.170886 0.000592 0.000539 -0.750466
    36 1.528219 0.000002 0.000004 0.000000 0.000000 0.846475
    37 1.528216 0.000001 -0.000004 0.000000 0.000000 0.846468
    38 3.899456 -0.431803 -0.168226 0.000652 0.000467 -0.628310
    39 1.506976 0.000002 0.000001 0.000000 0.000000 0.689389
    40 1.506956 0.000005 -0.000008 0.000000 0.000000 0.811570
    41 3.915636 -0.278021 -1.402610 0.000736 0.000312 -0.410141
    42 1.333084 0.000000 0.000000 0.000000 0.000000 0.645758
    43 1.159205 0.000001 -0.000001 0.000000 0.000000 0.680671
    44 6.351387 4.660221 1.005959 -0.146892 0.156303 2.700311
    45 -2.686412 2.279088 1.265274 4.677388 0.000000 1.570796
  time 5
    0 0.135014 8.526284 -24.816700 0.000000 0.000000 -1.570794
    1 0.000001 0.000000 0.000000 -0.000086 -1.570451 -1.570709
    2 4.443613 -0.009641 0.000006 -0.000004 -0.000001 0.000796
    3 12.111416 -0.011447 0.000000 0.000000 0.000000 0.000000
    4 0.000007 0.011444 1.352404 1.191582 -1.069791 1.996456
    5 6.078089 0.000002 -0.000002 -0.961303 0.013334 -1.066329
    6 13.446752 0.000002 -0.000002 0.000000 0.000000 -0.333917
    7 15.997002 -0.000005 0.000001 -1.514130 0.034325 -0.572695
    8 1.885330 0.833276 -2.177876 -1.565718 0.576345 0.043843
    9 1.506962 -0.000004 0.000001 0.000000 0.000000 -0.061091
    10 0.798349 0.000001 0.000001 0.000000 0.000000 -0.628304
    11 3.950305 -0.539876 -2.108871 -0.062826 0.352261 -0.213008
    12 1.545797 0.000000 0.000001 0.000000 0.000000 0.479954
    13 1.667398 0.000002 -0.000004 0.000000 0.000000 0.846473
    14 3.899463 -0.475377 -1.170892 -0.444073 0.044259 -0.013413
    15 1.528214 0.000001 0.000001 0.000000 0.000000 0.130902
    16 1.528215 -0.000001 0.000000 0.000000 0.000000 0.828996
    17 3.899462 -0.431805 0.168225 -0.254917 0.068204 -0.323656
    18 1.506964 0.000000 0.000003 0.000000 0.000000 0.610835
    19 1.506967 -0.000001 -0.000005 0.000000 0.000000 0.724285
    20 3.915634 -0.278019 1.402608 -0.291950 0.049113 -0.220193
    21 1.333087 -0.000001 -0.000002 0.000000 0.000000 0.767941
    22 1.159203 0.000002 0.000002 0.000000 0.000000 0.785375
    23 -27.949372 16.619126 5.169661 -1.802628 -1.194217 -3.096992
    24 -1.482691 0.881221 -0.000002 0.000000 0.000000 0.000000
    25 0.000005 0.011451 -1.352403 -1.191590 1.069779 1.996427
    26 6.078086 0.000000 0.000002 1.124711 0.155691 -1.124585
    27 13.446753 -0.000001 0.000000 0.000000 0.000000 -0.002095
    28 15.996994 0.000001 -0.000001 1.610294 -0.176565 -0.999000
    29 1.885327 0.833276 2.177872 1.272475 -0.122784 0.235575
    30 1.506962 0.000000 0.000000 0.000000 0.000000 -0.061098
    31 0.798350 0.000003 0.000000 0.000000 0.000000 -0.000014
    32 3.950309 -0.539878 2.108873 -0.304993 -0.095731 -0.302533
    33 1.545797 -0.000001 -0.000003 0.000000 0.000000 0.628309
    34 1.667392 0.000006 -0.000002 0.000000 0.000000 0.855201
    35 3.899458 -0.475377 1.170886 0.000592 0.000539 -0.750466
    36 1.528219 0.000002 0.000004 0.000000 0.000000 0.846475
    37 1.528216 0.000001 -0.000004 0.000000 0.000000 0.846468
    38 3.899456 -0.431803 -0.168226 0.000652 0.000467 -0.628310
    39 1.506976 0.000002 0.000001 0.000000 0.000000 0.689389
    40 1.506956 0.000005 -0.000008 0.000000 0.000000 0.811570
    41 3.915636 -0.278021 -1.402610 0.000736 0.000312 -0.410141
    42 1.333084 0.000000 0.000000 0.000000 0.000000 0.645758
    43 1.159205 0.000001 -0.000001 0.000000 0.000000 0.680671
    44 6.351387 4.660221 1.005959 -0.146892 0.156303 2.700311
    45 -2.686412 2.279088 1.265274 4.677388 0.000000 1.570796
end
