// Created by Crowbar 0.68
version 1
nodes
  0 "blender_implicit" -1
  1 "root" -1
  2 "pin" 1
end
skeleton
  time 0
    0 0.000000 0.000000 0.000000 0.000000 0.000000 0.000000
    1 0.000000 0.000000 0.000000 1.570796 0.000000 0.000000
    2 -0.798351 4.500331 -1.199062 -1.570796 0.000000 0.000000
end
triangles
grenadetop
  2 -0.767256 0.326621 4.460542 0.508978 0.005492 -0.860762 0.247829 -0.000844 1 2 1.000000
  2 -0.827600 1.250439 4.459199 -0.490897 -0.006829 -0.871191 0.131027 -0.007402 1 2 1.000000
  2 -0.778639 1.251040 4.459710 0.508987 0.005493 -0.860757 0.131027 -0.007402 1 2 1.000000
grenadetop
  2 -0.767256 0.326621 4.460542 0.508978 0.005492 -0.860762 0.247829 -0.000844 1 2 1.000000
  2 -0.816216 0.326018 4.460032 -0.490918 -0.006830 -0.871179 0.247829 -0.000844 1 2 1.000000
  2 -0.827600 1.250439 4.459199 -0.490897 -0.006829 -0.871191 0.131027 -0.007402 1 2 1.000000
grenadetop
  2 -0.816216 0.326018 4.460032 -0.490918 -0.006830 -0.871179 0.247829 -0.000844 1 2 1.000000
  2 -0.852524 1.250169 4.501351 -0.999870 -0.012320 -0.010440 0.131027 -0.007402 1 2 1.000000
  2 -0.827600 1.250439 4.459199 -0.490897 -0.006829 -0.871191 0.131027 -0.007402 1 2 1.000000
grenadetop
  2 -0.816216 0.326018 4.460032 -0.490918 -0.006830 -0.871179 0.247829 -0.000844 1 2 1.000000
  2 -0.841142 0.325749 4.502187 -0.999870 -0.012322 -0.010388 0.247829 -0.000844 1 2 1.000000
  2 -0.852524 1.250169 4.501351 -0.999870 -0.012320 -0.010440 0.131027 -0.007402 1 2 1.000000
grenadetop
  2 -0.841142 0.325749 4.502187 -0.999870 -0.012322 -0.010388 0.247829 -0.000844 1 2 1.000000
  2 -0.828485 1.250503 4.544015 -0.508990 -0.005493 0.860755 0.131027 -0.007402 1 2 1.000000
  2 -0.852524 1.250169 4.501351 -0.999870 -0.012320 -0.010440 0.131027 -0.007402 1 2 1.000000
grenadetop
  2 -0.841142 0.325749 4.502187 -0.999870 -0.012322 -0.010388 0.247829 -0.000844 1 2 1.000000
  2 -0.817103 0.326084 4.544843 -0.508953 -0.005496 0.860777 0.247829 -0.000844 1 2 1.000000
  2 -0.828485 1.250503 4.544015 -0.508990 -0.005493 0.860755 0.131027 -0.007402 1 2 1.000000
grenadetop
  2 -0.817103 0.326084 4.544843 -0.508953 -0.005496 0.860777 0.247829 -0.000844 1 2 1.000000
  2 -0.779521 1.251107 4.544526 0.490905 0.006824 0.871186 0.126824 -0.000844 1 2 1.000000
  2 -0.828485 1.250503 4.544015 -0.508990 -0.005493 0.860755 0.131027 -0.007402 1 2 1.000000
grenadetop
  2 -0.817103 0.326084 4.544843 -0.508953 -0.005496 0.860777 0.247829 -0.000844 1 2 1.000000
  2 -0.768142 0.326686 4.545354 0.490887 0.006825 0.871196 0.247829 -0.000844 1 2 1.000000
  2 -0.779521 1.251107 4.544526 0.490905 0.006824 0.871186 0.126824 -0.000844 1 2 1.000000
grenadetop
  2 -0.768142 0.326686 4.545354 0.490887 0.006825 0.871196 0.247829 -0.000844 1 2 1.000000
  2 -0.754600 1.251375 4.502375 0.999870 0.012318 0.010424 0.131027 -0.007402 1 2 1.000000
  2 -0.779521 1.251107 4.544526 0.490905 0.006824 0.871186 0.126824 -0.000844 1 2 1.000000
grenadetop
  2 -0.768142 0.326686 4.545354 0.490887 0.006825 0.871196 0.247829 -0.000844 1 2 1.000000
  2 -0.743218 0.326956 4.503205 0.999869 0.012320 0.010451 0.247829 -0.000844 1 2 1.000000
  2 -0.754600 1.251375 4.502375 0.999870 0.012318 0.010424 0.131027 -0.007402 1 2 1.000000
grenadetop
  2 -0.743218 0.326956 4.503205 0.999869 0.012320 0.010451 0.247829 -0.000844 1 2 1.000000
  2 -0.778639 1.251040 4.459710 0.508987 0.005493 -0.860757 0.131027 -0.007402 1 2 1.000000
  2 -0.754600 1.251375 4.502375 0.999870 0.012318 0.010424 0.131027 -0.007402 1 2 1.000000
grenadetop
  2 -0.743218 0.326956 4.503205 0.999869 0.012320 0.010451 0.247829 -0.000844 1 2 1.000000
  2 -0.767256 0.326621 4.460542 0.508978 0.005492 -0.860762 0.247829 -0.000844 1 2 1.000000
  2 -0.778639 1.251040 4.459710 0.508987 0.005493 -0.860757 0.131027 -0.007402 1 2 1.000000
grenadetop
  2 -1.082669 1.196661 4.376397 0.220343 -0.650029 -0.727263 0.156415 -0.023300 1 2 1.000000
  2 -1.316942 1.337698 4.214997 -0.951695 -0.172970 0.253688 0.158569 -0.040217 1 2 1.000000
  2 -1.250647 1.315656 4.176713 0.346446 -0.739308 -0.577407 0.158569 -0.040217 1 2 1.000000
grenadetop
  2 -1.250647 1.315656 4.176713 0.346446 -0.739308 -0.577407 0.158569 -0.040217 1 2 1.000000
  2 -1.316942 1.337698 4.214997 -0.951695 -0.172970 0.253688 0.158569 -0.040217 1 2 1.000000
  2 -1.316130 1.509598 3.933969 -0.950171 0.149529 -0.273524 0.148640 -0.070296 1 2 1.000000
grenadetop
  2 -1.316942 1.337698 4.214997 -0.951695 -0.172970 0.253688 0.158569 -0.040217 1 2 1.000000
  2 -1.251210 1.533259 3.973622 0.315992 0.747485 0.584307 0.148640 -0.070296 1 2 1.000000
  2 -1.316130 1.509598 3.933969 -0.950171 0.149529 -0.273524 0.148640 -0.070296 1 2 1.000000
grenadetop
  2 -1.316130 1.509598 3.933969 -0.950171 0.149529 -0.273524 0.148640 -0.070296 1 2 1.000000
  2 -1.251210 1.533259 3.973622 0.315992 0.747485 0.584307 0.148640 -0.070296 1 2 1.000000
  2 -1.082085 1.656405 3.777448 0.189048 0.655066 0.731539 0.129838 -0.094630 1 2 1.000000
grenadetop
  2 -1.251210 1.533259 3.973622 0.315992 0.747485 0.584307 0.148640 -0.070296 1 2 1.000000
  2 -1.080814 1.588450 3.735887 0.218970 -0.944076 -0.246519 0.129838 -0.094630 1 2 1.000000
  2 -1.082085 1.656405 3.777448 0.189048 0.655066 0.731539 0.129838 -0.094630 1 2 1.000000
grenadetop
  2 -1.082085 1.656405 3.777448 0.189048 0.655066 0.731539 0.129838 -0.094630 1 2 1.000000
  2 -1.080814 1.588450 3.735887 0.218970 -0.944076 -0.246519 0.129838 -0.094630 1 2 1.000000
  2 -0.807874 1.638057 3.663129 0.014100 -0.981314 -0.191896 0.105813 -0.103925 1 2 1.000000
grenadetop
  2 -1.250647 1.315656 4.176713 0.346446 -0.739308 -0.577407 0.158569 -0.040217 1 2 1.000000
  2 -1.316130 1.509598 3.933969 -0.950171 0.149529 -0.273524 0.148640 -0.070296 1 2 1.000000
  2 -1.249939 1.465304 3.932057 0.345888 -0.851654 -0.393761 0.148640 -0.070296 1 2 1.000000
grenadetop
  2 -1.249939 1.465304 3.932057 0.345888 -0.851654 -0.393761 0.148640 -0.070296 1 2 1.000000
  2 -1.316130 1.509598 3.933969 -0.950171 0.149529 -0.273524 0.148640 -0.070296 1 2 1.000000
  2 -1.121861 1.651053 3.708631 -0.585715 0.414903 -0.696271 0.129838 -0.094630 1 2 1.000000
grenadetop
  2 -1.316130 1.509598 3.933969 -0.950171 0.149529 -0.273524 0.148640 -0.070296 1 2 1.000000
  2 -1.082085 1.656405 3.777448 0.189048 0.655066 0.731539 0.129838 -0.094630 1 2 1.000000
  2 -1.121861 1.651053 3.708631 -0.585715 0.414903 -0.696271 0.129838 -0.094630 1 2 1.000000
grenadetop
  2 -1.121861 1.651053 3.708631 -0.585715 0.414903 -0.696271 0.129838 -0.094630 1 2 1.000000
  2 -1.082085 1.656405 3.777448 0.189048 0.655066 0.731539 0.129838 -0.094630 1 2 1.000000
  2 -0.809143 1.706011 3.704690 -0.015812 0.617832 0.786151 0.105813 -0.103925 1 2 1.000000
grenadetop
  2 -1.082085 1.656405 3.777448 0.189048 0.655066 0.731539 0.129838 -0.094630 1 2 1.000000
  2 -0.807874 1.638057 3.663129 0.014100 -0.981314 -0.191896 0.105813 -0.103925 1 2 1.000000
  2 -0.809143 1.706011 3.704690 -0.015812 0.617832 0.786151 0.105813 -0.103925 1 2 1.000000
grenadetop
  2 -0.809143 1.706011 3.704690 -0.015812 0.617832 0.786151 0.105813 -0.103925 1 2 1.000000
  2 -0.807874 1.638057 3.663129 0.014100 -0.981314 -0.191896 0.105813 -0.103925 1 2 1.000000
  2 -0.535370 1.595172 3.741574 -0.190442 -0.949120 -0.250803 0.082255 -0.094630 1 2 1.000000
grenadetop
  2 -0.807874 1.638057 3.663129 0.014100 -0.981314 -0.191896 0.105813 -0.103925 1 2 1.000000
  2 -0.495318 1.658775 3.715165 0.589705 0.429402 -0.684004 0.082255 -0.094630 1 2 1.000000
  2 -0.535370 1.595172 3.741574 -0.190442 -0.949120 -0.250803 0.082255 -0.094630 1 2 1.000000
grenadetop
  2 -0.535370 1.595172 3.741574 -0.190442 -0.949120 -0.250803 0.082255 -0.094630 1 2 1.000000
  2 -0.495318 1.658775 3.715165 0.589705 0.429402 -0.684004 0.082255 -0.094630 1 2 1.000000
  2 -0.302364 1.522091 3.944543 0.951697 0.172959 -0.253689 0.067957 -0.070296 1 2 1.000000
grenadetop
  2 -0.495318 1.658775 3.715165 0.589705 0.429402 -0.684004 0.082255 -0.094630 1 2 1.000000
  2 -0.368660 1.544134 3.982827 -0.346431 0.739323 0.577397 0.067957 -0.070296 1 2 1.000000
  2 -0.302364 1.522091 3.944543 0.951697 0.172959 -0.253689 0.067957 -0.070296 1 2 1.000000
grenadetop
  2 -0.302364 1.522091 3.944543 0.951697 0.172959 -0.253689 0.067957 -0.070296 1 2 1.000000
  2 -0.368660 1.544134 3.982827 -0.346431 0.739323 0.577397 0.067957 -0.070296 1 2 1.000000
  2 -0.369370 1.394485 4.227479 -0.345915 0.851646 0.393753 0.071056 -0.038642 1 2 1.000000
grenadetop
  2 -0.368660 1.544134 3.982827 -0.346431 0.739323 0.577397 0.067957 -0.070296 1 2 1.000000
  2 -0.368098 1.326530 4.185918 -0.315982 -0.747482 -0.584317 0.076902 -0.043366 1 2 1.000000
  2 -0.369370 1.394485 4.227479 -0.345915 0.851646 0.393753 0.071056 -0.038642 1 2 1.000000
grenadetop
  2 -0.369370 1.394485 4.227479 -0.345915 0.851646 0.393753 0.071056 -0.038642 1 2 1.000000
  2 -0.368098 1.326530 4.185918 -0.315982 -0.747482 -0.584317 0.076902 -0.043366 1 2 1.000000
  2 -0.537223 1.203383 4.382089 -0.189044 -0.655063 -0.731542 0.100951 -0.015882 1 2 1.000000
grenadetop
  2 -0.368098 1.326530 4.185918 -0.315982 -0.747482 -0.584317 0.076902 -0.043366 1 2 1.000000
  2 -0.497448 1.208736 4.450906 0.585713 -0.414904 0.696272 0.100951 -0.015882 1 2 1.000000
  2 -0.537223 1.203383 4.382089 -0.189044 -0.655063 -0.731542 0.100951 -0.015882 1 2 1.000000
grenadetop
  2 -0.537223 1.203383 4.382089 -0.189044 -0.655063 -0.731542 0.100951 -0.015882 1 2 1.000000
  2 -0.497448 1.208736 4.450906 0.585713 -0.414904 0.696272 0.100951 -0.015882 1 2 1.000000
  2 -0.810970 1.151756 4.534482 -0.002468 -0.521806 0.853061 0.137375 -0.001991 1 2 1.000000
grenadetop
  2 -0.497448 1.208736 4.450906 0.585713 -0.414904 0.696272 0.100951 -0.015882 1 2 1.000000
  2 -0.811435 1.221734 4.496408 -0.014092 0.981311 0.191913 0.131027 -0.007402 1 2 1.000000
  2 -0.810970 1.151756 4.534482 -0.002468 -0.521806 0.853061 0.137375 -0.001991 1 2 1.000000
grenadetop
  2 -0.810970 1.151756 4.534482 -0.002468 -0.521806 0.853061 0.137375 -0.001991 1 2 1.000000
  2 -0.811435 1.221734 4.496408 -0.014092 0.981311 0.191913 0.131027 -0.007402 1 2 1.000000
  2 -1.083939 1.264617 4.417962 0.190431 0.949124 0.250798 0.155318 -0.013733 1 2 1.000000
grenadetop
  2 -0.811435 1.221734 4.496408 -0.014092 0.981311 0.191913 0.131027 -0.007402 1 2 1.000000
  2 -1.082669 1.196661 4.376397 0.220343 -0.650029 -0.727263 0.156415 -0.023300 1 2 1.000000
  2 -1.083939 1.264617 4.417962 0.190431 0.949124 0.250798 0.155318 -0.013733 1 2 1.000000
grenadetop
  2 -1.083939 1.264617 4.417962 0.190431 0.949124 0.250798 0.155318 -0.013733 1 2 1.000000
  2 -1.082669 1.196661 4.376397 0.220343 -0.650029 -0.727263 0.156415 -0.023300 1 2 1.000000
  2 -1.250647 1.315656 4.176713 0.346446 -0.739308 -0.577407 0.158569 -0.040217 1 2 1.000000
grenadetop
  2 -1.249939 1.465304 3.932057 0.345888 -0.851654 -0.393761 0.148640 -0.070296 1 2 1.000000
  2 -1.121861 1.651053 3.708631 -0.585715 0.414903 -0.696271 0.129838 -0.094630 1 2 1.000000
  2 -1.080814 1.588450 3.735887 0.218970 -0.944076 -0.246519 0.129838 -0.094630 1 2 1.000000
grenadetop
  2 -1.080814 1.588450 3.735887 0.218970 -0.944076 -0.246519 0.129838 -0.094630 1 2 1.000000
  2 -1.121861 1.651053 3.708631 -0.585715 0.414903 -0.696271 0.129838 -0.094630 1 2 1.000000
  2 -0.808338 1.708035 3.625054 0.002469 0.521796 -0.853067 0.105813 -0.103925 1 2 1.000000
grenadetop
  2 -1.121861 1.651053 3.708631 -0.585715 0.414903 -0.696271 0.129838 -0.094630 1 2 1.000000
  2 -0.809143 1.706011 3.704690 -0.015812 0.617832 0.786151 0.105813 -0.103925 1 2 1.000000
  2 -0.808338 1.708035 3.625054 0.002469 0.521796 -0.853067 0.105813 -0.103925 1 2 1.000000
grenadetop
  2 -0.808338 1.708035 3.625054 0.002469 0.521796 -0.853067 0.105813 -0.103925 1 2 1.000000
  2 -0.809143 1.706011 3.704690 -0.015812 0.617832 0.786151 0.105813 -0.103925 1 2 1.000000
  2 -0.536641 1.663126 3.783135 -0.220358 0.650008 0.727277 0.082255 -0.094630 1 2 1.000000
grenadetop
  2 -0.809143 1.706011 3.704690 -0.015812 0.617832 0.786151 0.105813 -0.103925 1 2 1.000000
  2 -0.535370 1.595172 3.741574 -0.190442 -0.949120 -0.250803 0.082255 -0.094630 1 2 1.000000
  2 -0.536641 1.663126 3.783135 -0.220358 0.650008 0.727277 0.082255 -0.094630 1 2 1.000000
grenadetop
  2 -0.536641 1.663126 3.783135 -0.220358 0.650008 0.727277 0.082255 -0.094630 1 2 1.000000
  2 -0.535370 1.595172 3.741574 -0.190442 -0.949120 -0.250803 0.082255 -0.094630 1 2 1.000000
  2 -0.367390 1.476182 3.941266 -0.316541 -0.859811 -0.400658 0.067957 -0.070296 1 2 1.000000
grenadetop
  2 -0.535370 1.595172 3.741574 -0.190442 -0.949120 -0.250803 0.082255 -0.094630 1 2 1.000000
  2 -0.302364 1.522091 3.944543 0.951697 0.172959 -0.253689 0.067957 -0.070296 1 2 1.000000
  2 -0.367390 1.476182 3.941266 -0.316541 -0.859811 -0.400658 0.067957 -0.070296 1 2 1.000000
grenadetop
  2 -0.367390 1.476182 3.941266 -0.316541 -0.859811 -0.400658 0.067957 -0.070296 1 2 1.000000
  2 -0.302364 1.522091 3.944543 0.951697 0.172959 -0.253689 0.067957 -0.070296 1 2 1.000000
  2 -0.303178 1.350191 4.225572 0.950169 -0.149519 0.273537 0.071056 -0.038642 1 2 1.000000
grenadetop
  2 -0.302364 1.522091 3.944543 0.951697 0.172959 -0.253689 0.067957 -0.070296 1 2 1.000000
  2 -0.369370 1.394485 4.227479 -0.345915 0.851646 0.393753 0.071056 -0.038642 1 2 1.000000
  2 -0.303178 1.350191 4.225572 0.950169 -0.149519 0.273537 0.071056 -0.038642 1 2 1.000000
grenadetop
  2 -0.303178 1.350191 4.225572 0.950169 -0.149519 0.273537 0.071056 -0.038642 1 2 1.000000
  2 -0.369370 1.394485 4.227479 -0.345915 0.851646 0.393753 0.071056 -0.038642 1 2 1.000000
  2 -0.538494 1.271338 4.423650 -0.218967 0.944078 0.246517 0.100951 -0.015882 1 2 1.000000
grenadetop
  2 -0.369370 1.394485 4.227479 -0.345915 0.851646 0.393753 0.071056 -0.038642 1 2 1.000000
  2 -0.537223 1.203383 4.382089 -0.189044 -0.655063 -0.731542 0.100951 -0.015882 1 2 1.000000
  2 -0.538494 1.271338 4.423650 -0.218967 0.944078 0.246517 0.100951 -0.015882 1 2 1.000000
grenadetop
  2 -0.538494 1.271338 4.423650 -0.218967 0.944078 0.246517 0.100951 -0.015882 1 2 1.000000
  2 -0.537223 1.203383 4.382089 -0.189044 -0.655063 -0.731542 0.100951 -0.015882 1 2 1.000000
  2 -0.810165 1.153780 4.454846 0.015810 -0.617821 -0.786160 0.131027 -0.007402 1 2 1.000000
grenadetop
  2 -0.537223 1.203383 4.382089 -0.189044 -0.655063 -0.731542 0.100951 -0.015882 1 2 1.000000
  2 -0.810970 1.151756 4.534482 -0.002468 -0.521806 0.853061 0.137375 -0.001991 1 2 1.000000
  2 -0.810165 1.153780 4.454846 0.015810 -0.617821 -0.786160 0.131027 -0.007402 1 2 1.000000
grenadetop
  2 -0.810165 1.153780 4.454846 0.015810 -0.617821 -0.786160 0.131027 -0.007402 1 2 1.000000
  2 -0.810970 1.151756 4.534482 -0.002468 -0.521806 0.853061 0.137375 -0.001991 1 2 1.000000
  2 -1.123989 1.201016 4.444371 -0.589703 -0.429381 0.684020 0.155318 -0.013733 1 2 1.000000
grenadetop
  2 -0.810970 1.151756 4.534482 -0.002468 -0.521806 0.853061 0.137375 -0.001991 1 2 1.000000
  2 -1.083939 1.264617 4.417962 0.190431 0.949124 0.250798 0.155318 -0.013733 1 2 1.000000
  2 -1.123989 1.201016 4.444371 -0.589703 -0.429381 0.684020 0.155318 -0.013733 1 2 1.000000
grenadetop
  2 -1.123989 1.201016 4.444371 -0.589703 -0.429381 0.684020 0.155318 -0.013733 1 2 1.000000
  2 -1.083939 1.264617 4.417962 0.190431 0.949124 0.250798 0.155318 -0.013733 1 2 1.000000
  2 -1.251919 1.383608 4.218274 0.316509 0.859813 0.400679 0.158569 -0.040217 1 2 1.000000
grenadetop
  2 -1.083939 1.264617 4.417962 0.190431 0.949124 0.250798 0.155318 -0.013733 1 2 1.000000
  2 -1.250647 1.315656 4.176713 0.346446 -0.739308 -0.577407 0.158569 -0.040217 1 2 1.000000
  2 -1.251919 1.383608 4.218274 0.316509 0.859813 0.400679 0.158569 -0.040217 1 2 1.000000
grenadetop
  2 -1.251919 1.383608 4.218274 0.316509 0.859813 0.400679 0.158569 -0.040217 1 2 1.000000
  2 -1.250647 1.315656 4.176713 0.346446 -0.739308 -0.577407 0.158569 -0.040217 1 2 1.000000
  2 -1.249939 1.465304 3.932057 0.345888 -0.851654 -0.393761 0.148640 -0.070296 1 2 1.000000
grenadetop
  2 -1.080814 1.588450 3.735887 0.218970 -0.944076 -0.246519 0.129838 -0.094630 1 2 1.000000
  2 -0.808338 1.708035 3.625054 0.002469 0.521796 -0.853067 0.105813 -0.103925 1 2 1.000000
  2 -0.807874 1.638057 3.663129 0.014100 -0.981314 -0.191896 0.105813 -0.103925 1 2 1.000000
grenadetop
  2 -0.807874 1.638057 3.663129 0.014100 -0.981314 -0.191896 0.105813 -0.103925 1 2 1.000000
  2 -0.808338 1.708035 3.625054 0.002469 0.521796 -0.853067 0.105813 -0.103925 1 2 1.000000
  2 -0.495318 1.658775 3.715165 0.589705 0.429402 -0.684004 0.082255 -0.094630 1 2 1.000000
grenadetop
  2 -0.808338 1.708035 3.625054 0.002469 0.521796 -0.853067 0.105813 -0.103925 1 2 1.000000
  2 -0.536641 1.663126 3.783135 -0.220358 0.650008 0.727277 0.082255 -0.094630 1 2 1.000000
  2 -0.495318 1.658775 3.715165 0.589705 0.429402 -0.684004 0.082255 -0.094630 1 2 1.000000
grenadetop
  2 -0.495318 1.658775 3.715165 0.589705 0.429402 -0.684004 0.082255 -0.094630 1 2 1.000000
  2 -0.536641 1.663126 3.783135 -0.220358 0.650008 0.727277 0.082255 -0.094630 1 2 1.000000
  2 -0.368660 1.544134 3.982827 -0.346431 0.739323 0.577397 0.067957 -0.070296 1 2 1.000000
grenadetop
  2 -0.536641 1.663126 3.783135 -0.220358 0.650008 0.727277 0.082255 -0.094630 1 2 1.000000
  2 -0.367390 1.476182 3.941266 -0.316541 -0.859811 -0.400658 0.067957 -0.070296 1 2 1.000000
  2 -0.368660 1.544134 3.982827 -0.346431 0.739323 0.577397 0.067957 -0.070296 1 2 1.000000
grenadetop
  2 -0.368660 1.544134 3.982827 -0.346431 0.739323 0.577397 0.067957 -0.070296 1 2 1.000000
  2 -0.367390 1.476182 3.941266 -0.316541 -0.859811 -0.400658 0.067957 -0.070296 1 2 1.000000
  2 -0.368098 1.326530 4.185918 -0.315982 -0.747482 -0.584317 0.076902 -0.043366 1 2 1.000000
grenadetop
  2 -0.367390 1.476182 3.941266 -0.316541 -0.859811 -0.400658 0.067957 -0.070296 1 2 1.000000
  2 -0.303178 1.350191 4.225572 0.950169 -0.149519 0.273537 0.071056 -0.038642 1 2 1.000000
  2 -0.368098 1.326530 4.185918 -0.315982 -0.747482 -0.584317 0.076902 -0.043366 1 2 1.000000
grenadetop
  2 -0.368098 1.326530 4.185918 -0.315982 -0.747482 -0.584317 0.076902 -0.043366 1 2 1.000000
  2 -0.303178 1.350191 4.225572 0.950169 -0.149519 0.273537 0.071056 -0.038642 1 2 1.000000
  2 -0.497448 1.208736 4.450906 0.585713 -0.414904 0.696272 0.100951 -0.015882 1 2 1.000000
grenadetop
  2 -0.303178 1.350191 4.225572 0.950169 -0.149519 0.273537 0.071056 -0.038642 1 2 1.000000
  2 -0.538494 1.271338 4.423650 -0.218967 0.944078 0.246517 0.100951 -0.015882 1 2 1.000000
  2 -0.497448 1.208736 4.450906 0.585713 -0.414904 0.696272 0.100951 -0.015882 1 2 1.000000
grenadetop
  2 -0.497448 1.208736 4.450906 0.585713 -0.414904 0.696272 0.100951 -0.015882 1 2 1.000000
  2 -0.538494 1.271338 4.423650 -0.218967 0.944078 0.246517 0.100951 -0.015882 1 2 1.000000
  2 -0.811435 1.221734 4.496408 -0.014092 0.981311 0.191913 0.131027 -0.007402 1 2 1.000000
grenadetop
  2 -0.538494 1.271338 4.423650 -0.218967 0.944078 0.246517 0.100951 -0.015882 1 2 1.000000
  2 -0.810165 1.153780 4.454846 0.015810 -0.617821 -0.786160 0.131027 -0.007402 1 2 1.000000
  2 -0.811435 1.221734 4.496408 -0.014092 0.981311 0.191913 0.131027 -0.007402 1 2 1.000000
grenadetop
  2 -0.811435 1.221734 4.496408 -0.014092 0.981311 0.191913 0.131027 -0.007402 1 2 1.000000
  2 -0.810165 1.153780 4.454846 0.015810 -0.617821 -0.786160 0.131027 -0.007402 1 2 1.000000
  2 -1.082669 1.196661 4.376397 0.220343 -0.650029 -0.727263 0.156415 -0.023300 1 2 1.000000
grenadetop
  2 -0.810165 1.153780 4.454846 0.015810 -0.617821 -0.786160 0.131027 -0.007402 1 2 1.000000
  2 -1.123989 1.201016 4.444371 -0.589703 -0.429381 0.684020 0.155318 -0.013733 1 2 1.000000
  2 -1.082669 1.196661 4.376397 0.220343 -0.650029 -0.727263 0.156415 -0.023300 1 2 1.000000
grenadetop
  2 -1.082669 1.196661 4.376397 0.220343 -0.650029 -0.727263 0.156415 -0.023300 1 2 1.000000
  2 -1.123989 1.201016 4.444371 -0.589703 -0.429381 0.684020 0.155318 -0.013733 1 2 1.000000
  2 -1.316942 1.337698 4.214997 -0.951695 -0.172970 0.253688 0.158569 -0.040217 1 2 1.000000
grenadetop
  2 -1.123989 1.201016 4.444371 -0.589703 -0.429381 0.684020 0.155318 -0.013733 1 2 1.000000
  2 -1.251919 1.383608 4.218274 0.316509 0.859813 0.400679 0.158569 -0.040217 1 2 1.000000
  2 -1.316942 1.337698 4.214997 -0.951695 -0.172970 0.253688 0.158569 -0.040217 1 2 1.000000
grenadetop
  2 -1.316942 1.337698 4.214997 -0.951695 -0.172970 0.253688 0.158569 -0.040217 1 2 1.000000
  2 -1.251919 1.383608 4.218274 0.316509 0.859813 0.400679 0.158569 -0.040217 1 2 1.000000
  2 -1.251210 1.533259 3.973622 0.315992 0.747485 0.584307 0.148640 -0.070296 1 2 1.000000
grenadetop
  2 -1.251919 1.383608 4.218274 0.316509 0.859813 0.400679 0.158569 -0.040217 1 2 1.000000
  2 -1.249939 1.465304 3.932057 0.345888 -0.851654 -0.393761 0.148640 -0.070296 1 2 1.000000
  2 -1.251210 1.533259 3.973622 0.315992 0.747485 0.584307 0.148640 -0.070296 1 2 1.000000
grenadetop
  2 -1.251210 1.533259 3.973622 0.315992 0.747485 0.584307 0.148640 -0.070296 1 2 1.000000
  2 -1.249939 1.465304 3.932057 0.345888 -0.851654 -0.393761 0.148640 -0.070296 1 2 1.000000
  2 -1.080814 1.588450 3.735887 0.218970 -0.944076 -0.246519 0.129838 -0.094630 1 2 1.000000
grenadetop
  2 -0.792180 0.326351 4.502695 0.012308 -0.999924 0.000902 0.247829 -0.000844 1 2 1.000000
  2 -0.767256 0.326621 4.460542 0.012324 -0.999924 0.000885 0.247829 -0.000844 1 2 1.000000
  2 -0.743218 0.326956 4.503205 0.012339 -0.999923 0.000899 0.247829 -0.000844 1 2 1.000000
grenadetop
  2 -0.792180 0.326351 4.502695 0.012308 -0.999924 0.000902 0.247829 -0.000844 1 2 1.000000
  2 -0.816216 0.326018 4.460032 0.012295 -0.999924 0.000885 0.247829 -0.000844 1 2 1.000000
  2 -0.767256 0.326621 4.460542 0.012324 -0.999924 0.000885 0.247829 -0.000844 1 2 1.000000
grenadetop
  2 -0.792180 0.326351 4.502695 0.012308 -0.999924 0.000902 0.247829 -0.000844 1 2 1.000000
  2 -0.841142 0.325749 4.502187 0.012280 -0.999924 0.000904 0.247829 -0.000844 1 2 1.000000
  2 -0.816216 0.326018 4.460032 0.012295 -0.999924 0.000885 0.247829 -0.000844 1 2 1.000000
grenadetop
  2 -0.792180 0.326351 4.502695 0.012308 -0.999924 0.000902 0.247829 -0.000844 1 2 1.000000
  2 -0.817103 0.326084 4.544843 0.012290 -0.999924 0.000921 0.247829 -0.000844 1 2 1.000000
  2 -0.841142 0.325749 4.502187 0.012280 -0.999924 0.000904 0.247829 -0.000844 1 2 1.000000
grenadetop
  2 -0.792180 0.326351 4.502695 0.012308 -0.999924 0.000902 0.247829 -0.000844 1 2 1.000000
  2 -0.768142 0.326686 4.545354 0.012319 -0.999924 0.000916 0.247829 -0.000844 1 2 1.000000
  2 -0.817103 0.326084 4.544843 0.012290 -0.999924 0.000921 0.247829 -0.000844 1 2 1.000000
grenadetop
  2 -0.792180 0.326351 4.502695 0.012308 -0.999924 0.000902 0.247829 -0.000844 1 2 1.000000
  2 -0.743218 0.326956 4.503205 0.012339 -0.999923 0.000899 0.247829 -0.000844 1 2 1.000000
  2 -0.768142 0.326686 4.545354 0.012319 -0.999924 0.000916 0.247829 -0.000844 1 2 1.000000
grenadetop
  2 -0.805074 1.250749 4.501355 -0.012304 0.999924 -0.000895 0.247829 -0.000844 1 2 1.000000
  2 -0.827600 1.250439 4.459199 -0.012251 0.999925 -0.000808 0.247829 -0.000844 1 2 1.000000
  2 -0.852524 1.250169 4.501351 -0.012219 0.999925 -0.000881 0.247829 -0.000844 1 2 1.000000
grenadetop
  2 -0.805074 1.250749 4.501355 -0.012304 0.999924 -0.000895 0.247829 -0.000844 1 2 1.000000
  2 -0.778639 1.251040 4.459710 -0.012340 0.999923 -0.000827 0.247829 -0.000844 1 2 1.000000
  2 -0.827600 1.250439 4.459199 -0.012251 0.999925 -0.000808 0.247829 -0.000844 1 2 1.000000
grenadetop
  2 -0.805074 1.250749 4.501355 -0.012304 0.999924 -0.000895 0.247829 -0.000844 1 2 1.000000
  2 -0.754600 1.251375 4.502375 -0.012394 0.999923 -0.000910 0.247829 -0.000844 1 2 1.000000
  2 -0.778639 1.251040 4.459710 -0.012340 0.999923 -0.000827 0.247829 -0.000844 1 2 1.000000
grenadetop
  2 -0.805074 1.250749 4.501355 -0.012304 0.999924 -0.000895 0.247829 -0.000844 1 2 1.000000
  2 -0.779521 1.251107 4.544526 -0.012361 0.999923 -0.000979 0.247829 -0.000844 1 2 1.000000
  2 -0.754600 1.251375 4.502375 -0.012394 0.999923 -0.000910 0.247829 -0.000844 1 2 1.000000
grenadetop
  2 -0.805074 1.250749 4.501355 -0.012304 0.999924 -0.000895 0.247829 -0.000844 1 2 1.000000
  2 -0.828485 1.250503 4.544015 -0.012275 0.999924 -0.000969 0.247829 -0.000844 1 2 1.000000
  2 -0.779521 1.251107 4.544526 -0.012361 0.999923 -0.000979 0.247829 -0.000844 1 2 1.000000
grenadetop
  2 -0.805074 1.250749 4.501355 -0.012304 0.999924 -0.000895 0.247829 -0.000844 1 2 1.000000
  2 -0.852524 1.250169 4.501351 -0.012219 0.999925 -0.000881 0.247829 -0.000844 1 2 1.000000
  2 -0.828485 1.250503 4.544015 -0.012275 0.999924 -0.000969 0.247829 -0.000844 1 2 1.000000
end
