//=================================================================================
//	SMD Generated by Source Model Decompiler.
//=================================================================================
version 1
nodes
0 "Bip01"  -1
1 "Bip01 Pelvis"  0
2 "Bip01 Spine"  1
3 "Bip01 Neck"  2
4 "Bip01 L Clavicle"  3
5 "Bip01 L UpperArm"  4
6 "Bip01 L Forearm"  5
7 "Bip01 L Hand"  6
8 "Bip01 L Finger0"  7
9 "Bip01 L Finger01"  8
10 "Bip01 L Finger02"  9
11 "Bip01 L Finger1"  7
12 "Bip01 L Finger11"  11
13 "Bip01 L Finger12"  12
14 "Bip01 L Finger2"  7
15 "Bip01 L Finger21"  14
16 "Bip01 L Finger22"  15
17 "Bip01 L Finger3"  7
18 "Bip01 L Finger31"  17
19 "Bip01 L Finger32"  18
20 "Bip01 L Finger4"  7
21 "Bip01 L Finger41"  20
22 "Bip01 L Finger42"  21
23 "Bip01 R Clavicle"  3
24 "Bip01 R UpperArm"  23
25 "Bip01 R Forearm"  24
26 "Bip01 R Hand"  25
27 "Bip01 R Finger0"  26
28 "Bip01 R Finger01"  27
29 "Bip01 R Finger02"  28
30 "Bip01 R Finger1"  26
31 "Bip01 R Finger11"  30
32 "Bip01 R Finger12"  31
33 "Bip01 R Finger2"  26
34 "Bip01 R Finger21"  33
35 "Bip01 R Finger22"  34
36 "Bip01 R Finger3"  26
37 "Bip01 R Finger31"  36
38 "Bip01 R Finger32"  37
39 "Bip01 R Finger4"  26
40 "Bip01 R Finger41"  39
41 "Bip01 R Finger42"  40
42 "Dummy18"  26
43 "Dummy19"  42
44 "Dummy14"  26
45 "Dummy16"  44
end
skeleton
time 0
0 0.135014 5.690259 -24.816700 0.000000 -0.000000 -1.570795
1 0.000001 -0.000000 0.000000 0.000000 -1.570451 -1.570795
2 4.443614 -0.009643 0.000006 -0.000004 -0.000001 0.000796
3 12.111418 -0.011445 -0.000000 0.000000 -0.000000 -0.000000
4 0.000007 0.011443 1.352402 1.414063 -0.656219 1.823449
5 6.078088 0.000001 -0.000002 -1.035026 0.043626 -0.976790
6 13.446752 -0.000004 0.000001 0.000000 0.000000 -0.236266
7 15.996999 0.000004 0.000001 3.077554 0.539687 -0.074424
8 1.885327 0.833278 -2.177879 -1.600019 0.776634 -0.003660
9 1.506966 0.000001 0.000000 0.000000 -0.000000 0.008713
10 0.798351 -0.000000 -0.000002 0.000000 -0.000000 0.174517
11 3.950303 -0.539873 -2.108874 0.037509 0.152574 0.247136
12 1.545799 -0.000002 -0.000002 -0.000000 0.000000 0.715569
13 1.667394 -0.000001 -0.000000 -0.000000 0.000000 0.680668
14 3.899459 -0.475374 -1.170894 -0.000748 0.000276 0.357764
15 1.528215 -0.000001 0.000001 -0.000000 0.000000 0.689376
16 1.528216 -0.000001 -0.000001 -0.000000 0.000000 0.837758
17 3.899459 -0.431801 0.168223 -0.000712 0.000360 0.471217
18 1.506963 -0.000002 0.000002 -0.000000 0.000000 0.898835
19 1.506965 0.000001 0.000000 -0.000000 0.000000 0.811556
20 3.915633 -0.278016 1.402604 -0.000664 0.000443 0.593371
21 1.333083 -0.000002 0.000002 -0.000000 0.000000 1.230415
22 1.159200 -0.000000 -0.000001 -0.000000 0.000000 0.811537
23 0.000006 0.011449 -1.352403 1.059490 1.178038 -2.117378
24 6.078087 -0.000000 -0.000000 1.072849 -0.858815 -1.479242
25 13.446753 -0.000000 -0.000001 -0.000000 -0.000000 -1.278363
26 15.997004 -0.000006 0.000000 1.709752 -0.034612 0.391019
27 1.885325 0.833277 2.177875 1.053551 -0.492788 0.918760
28 1.506962 -0.000001 0.000001 -0.000000 0.000000 -0.776653
29 0.798351 -0.000000 -0.000001 -0.000000 0.000000 -0.532314
30 3.950301 -0.539875 2.108874 -0.019867 -0.155834 0.132388
31 1.545795 -0.000001 0.000000 0.000000 0.000000 0.436340
32 1.667399 -0.000000 -0.000002 0.000000 0.000000 1.003547
33 3.899458 -0.475377 1.170888 0.000796 0.000000 0.000000
34 1.528217 0.000000 0.000002 0.000000 -0.000000 0.829016
35 1.528216 -0.000001 0.000000 0.000000 -0.000000 1.308972
36 3.899458 -0.431803 -0.168227 0.167478 0.002685 0.088950
37 1.506965 -0.000001 -0.000006 0.000000 -0.000000 0.802843
38 1.506964 0.000001 -0.000000 0.000000 -0.000000 1.439864
39 3.915631 -0.278019 -1.402610 0.259543 -0.121320 0.097051
40 1.333084 -0.000000 0.000002 0.000000 -0.000000 1.029732
41 1.159202 -0.000004 -0.000002 0.000000 -0.000000 1.108257
42 -4.700889 1.283648 7.188919 1.589381 0.011446 1.586449
43 -0.000000 0.000001 5.621233 -0.000002 -0.000000 0.000000
44 -14.432661 1.132933 7.330523 1.589381 0.011446 1.586449
45 0.000000 0.000005 4.150281 0.000000 -0.000000 0.000000
time 1
0 0.135014 5.690259 -24.816700 0.000000 -0.000000 -1.570795
1 0.000001 -0.000000 0.000000 0.000000 -1.570451 -1.570795
2 4.443614 -0.009643 0.000006 -0.000004 -0.000001 0.000796
3 12.111418 -0.011445 -0.000000 0.000000 -0.000000 -0.000000
4 0.000007 0.011443 1.352402 1.414063 -0.656219 1.823449
5 6.078088 0.000001 -0.000002 -1.035026 0.043626 -0.976790
6 13.446752 -0.000004 0.000001 0.000000 0.000000 -0.236266
7 15.996999 0.000004 0.000001 3.077554 0.539687 -0.074424
8 1.885327 0.833278 -2.177879 -1.600019 0.776634 -0.003660
9 1.506966 0.000001 0.000000 0.000000 -0.000000 0.008713
10 0.798351 -0.000000 -0.000002 0.000000 -0.000000 0.174517
11 3.950303 -0.539873 -2.108874 0.037509 0.152574 0.247136
12 1.545799 -0.000002 -0.000002 -0.000000 0.000000 0.715569
13 1.667394 -0.000001 -0.000000 -0.000000 0.000000 0.680668
14 3.899459 -0.475374 -1.170894 -0.000748 0.000276 0.357764
15 1.528215 -0.000001 0.000001 -0.000000 0.000000 0.689376
16 1.528216 -0.000001 -0.000001 -0.000000 0.000000 0.837758
17 3.899459 -0.431801 0.168223 -0.000712 0.000360 0.471217
18 1.506963 -0.000002 0.000002 -0.000000 0.000000 0.898835
19 1.506965 0.000001 0.000000 -0.000000 0.000000 0.811556
20 3.915633 -0.278016 1.402604 -0.000664 0.000443 0.593371
21 1.333083 -0.000002 0.000002 -0.000000 0.000000 1.230415
22 1.159200 -0.000000 -0.000001 -0.000000 0.000000 0.811537
23 0.000006 0.011449 -1.352403 1.059490 1.178038 -2.117378
24 6.078087 -0.000000 -0.000000 1.072970 -0.858640 -1.479406
25 13.446753 -0.000000 -0.000001 -0.000000 -0.000000 -1.278006
26 15.997004 -0.000006 0.000000 1.709752 -0.034612 0.391019
27 1.885325 0.833277 2.177875 1.053551 -0.492788 0.918760
28 1.506962 -0.000001 0.000001 -0.000000 0.000000 -0.776653
29 0.798351 -0.000000 -0.000001 -0.000000 0.000000 -0.532314
30 3.950301 -0.539875 2.108874 -0.019867 -0.155834 0.132388
31 1.545795 -0.000001 0.000000 0.000000 0.000000 0.436340
32 1.667399 -0.000000 -0.000002 0.000000 0.000000 1.003547
33 3.899458 -0.475377 1.170888 0.000796 0.000000 0.000000
34 1.528217 0.000000 0.000002 0.000000 -0.000000 0.829016
35 1.528216 -0.000001 0.000000 0.000000 -0.000000 1.308972
36 3.899458 -0.431803 -0.168227 0.167478 0.002685 0.088950
37 1.506965 -0.000001 -0.000006 0.000000 -0.000000 0.802843
38 1.506964 0.000001 -0.000000 0.000000 -0.000000 1.439864
39 3.915631 -0.278019 -1.402610 0.259543 -0.121320 0.097051
40 1.333084 -0.000000 0.000002 0.000000 -0.000000 1.029732
41 1.159202 -0.000004 -0.000002 0.000000 -0.000000 1.108257
42 -4.700889 1.283648 7.188919 1.589381 0.011446 1.586449
43 -0.000000 0.000001 5.621233 -0.000002 -0.000000 0.000000
44 -14.432661 1.132933 7.330523 1.589381 0.011446 1.586449
45 0.000000 0.000005 4.150281 0.000000 -0.000000 0.000000
time 2
0 0.135014 5.690259 -24.816700 0.000000 -0.000000 -1.570795
1 0.000001 -0.000000 0.000000 0.000000 -1.570451 -1.570795
2 4.443614 -0.009643 0.000006 -0.000004 -0.000001 0.000796
3 12.111418 -0.011445 -0.000000 0.000000 -0.000000 -0.000000
4 0.000007 0.011443 1.352402 1.414063 -0.656219 1.823449
5 6.078088 0.000001 -0.000002 -1.035026 0.043626 -0.976790
6 13.446752 -0.000004 0.000001 0.000000 0.000000 -0.236266
7 15.996999 0.000004 0.000001 3.077554 0.539687 -0.074424
8 1.885327 0.833278 -2.177879 -1.600019 0.776634 -0.003660
9 1.506966 0.000001 0.000000 0.000000 -0.000000 0.008713
10 0.798351 -0.000000 -0.000002 0.000000 -0.000000 0.174517
11 3.950303 -0.539873 -2.108874 0.037509 0.152574 0.247136
12 1.545799 -0.000002 -0.000002 -0.000000 0.000000 0.715569
13 1.667394 -0.000001 -0.000000 -0.000000 0.000000 0.680668
14 3.899459 -0.475374 -1.170894 -0.000748 0.000276 0.357764
15 1.528215 -0.000001 0.000001 -0.000000 0.000000 0.689376
16 1.528216 -0.000001 -0.000001 -0.000000 0.000000 0.837758
17 3.899459 -0.431801 0.168223 -0.000712 0.000360 0.471217
18 1.506963 -0.000002 0.000002 -0.000000 0.000000 0.898835
19 1.506965 0.000001 0.000000 -0.000000 0.000000 0.811556
20 3.915633 -0.278016 1.402604 -0.000664 0.000443 0.593371
21 1.333083 -0.000002 0.000002 -0.000000 0.000000 1.230415
22 1.159200 -0.000000 -0.000001 -0.000000 0.000000 0.811537
23 0.000006 0.011449 -1.352403 1.059490 1.178038 -2.117378
24 6.078087 -0.000000 -0.000000 1.073090 -0.858430 -1.479569
25 13.446753 -0.000000 -0.000001 -0.000000 -0.000000 -1.277649
26 15.997004 -0.000006 0.000000 1.709752 -0.034612 0.391019
27 1.885325 0.833277 2.177875 1.053551 -0.492788 0.918760
28 1.506962 -0.000001 0.000001 -0.000000 0.000000 -0.776653
29 0.798351 -0.000000 -0.000001 -0.000000 0.000000 -0.532314
30 3.950301 -0.539875 2.108874 -0.019867 -0.155834 0.132388
31 1.545795 -0.000001 0.000000 0.000000 0.000000 0.436340
32 1.667399 -0.000000 -0.000002 0.000000 0.000000 1.003547
33 3.899458 -0.475377 1.170888 0.000796 0.000000 0.000000
34 1.528217 0.000000 0.000002 0.000000 -0.000000 0.829016
35 1.528216 -0.000001 0.000000 0.000000 -0.000000 1.308972
36 3.899458 -0.431803 -0.168227 0.167478 0.002685 0.088950
37 1.506965 -0.000001 -0.000006 0.000000 -0.000000 0.802843
38 1.506964 0.000001 -0.000000 0.000000 -0.000000 1.439864
39 3.915631 -0.278019 -1.402610 0.259543 -0.121320 0.097051
40 1.333084 -0.000000 0.000002 0.000000 -0.000000 1.029732
41 1.159202 -0.000004 -0.000002 0.000000 -0.000000 1.108257
42 -4.700889 1.283648 7.188919 1.589381 0.011446 1.586449
43 -0.000000 0.000001 5.621233 -0.000002 -0.000000 0.000000
44 -14.432661 1.132933 7.330523 1.589381 0.011446 1.586449
45 0.000000 0.000005 4.150281 0.000000 -0.000000 0.000000
time 3
0 0.135014 5.690259 -24.816700 0.000000 -0.000000 -1.570795
1 0.000001 -0.000000 0.000000 0.000000 -1.570451 -1.570795
2 4.443614 -0.009643 0.000006 -0.000004 -0.000001 0.000796
3 12.111418 -0.011445 -0.000000 0.000000 -0.000000 -0.000000
4 0.000007 0.011443 1.352402 1.414063 -0.656219 1.823449
5 6.078088 0.000001 -0.000002 -1.035026 0.043626 -0.976790
6 13.446752 -0.000004 0.000001 0.000000 0.000000 -0.236266
7 15.996999 0.000004 0.000001 3.077554 0.539687 -0.074424
8 1.885327 0.833278 -2.177879 -1.600019 0.776634 -0.003660
9 1.506966 0.000001 0.000000 0.000000 -0.000000 0.008713
10 0.798351 -0.000000 -0.000002 0.000000 -0.000000 0.174517
11 3.950303 -0.539873 -2.108874 0.037509 0.152574 0.247136
12 1.545799 -0.000002 -0.000002 -0.000000 0.000000 0.715569
13 1.667394 -0.000001 -0.000000 -0.000000 0.000000 0.680668
14 3.899459 -0.475374 -1.170894 -0.000748 0.000276 0.357764
15 1.528215 -0.000001 0.000001 -0.000000 0.000000 0.689376
16 1.528216 -0.000001 -0.000001 -0.000000 0.000000 0.837758
17 3.899459 -0.431801 0.168223 -0.000712 0.000360 0.471217
18 1.506963 -0.000002 0.000002 -0.000000 0.000000 0.898835
19 1.506965 0.000001 0.000000 -0.000000 0.000000 0.811556
20 3.915633 -0.278016 1.402604 -0.000664 0.000443 0.593371
21 1.333083 -0.000002 0.000002 -0.000000 0.000000 1.230415
22 1.159200 -0.000000 -0.000001 -0.000000 0.000000 0.811537
23 0.000006 0.011449 -1.352403 1.059490 1.178038 -2.117378
24 6.078087 -0.000000 -0.000000 1.073211 -0.858255 -1.479732
25 13.446753 -0.000000 -0.000001 -0.000000 -0.000000 -1.277293
26 15.997004 -0.000006 0.000000 1.709752 -0.034612 0.391019
27 1.885325 0.833277 2.177875 1.053551 -0.492788 0.918760
28 1.506962 -0.000001 0.000001 -0.000000 0.000000 -0.776653
29 0.798351 -0.000000 -0.000001 -0.000000 0.000000 -0.532314
30 3.950301 -0.539875 2.108874 -0.019867 -0.155834 0.132388
31 1.545795 -0.000001 0.000000 0.000000 0.000000 0.436340
32 1.667399 -0.000000 -0.000002 0.000000 0.000000 1.003547
33 3.899458 -0.475377 1.170888 0.000796 0.000000 0.000000
34 1.528217 0.000000 0.000002 0.000000 -0.000000 0.829016
35 1.528216 -0.000001 0.000000 0.000000 -0.000000 1.308972
36 3.899458 -0.431803 -0.168227 0.167478 0.002685 0.088950
37 1.506965 -0.000001 -0.000006 0.000000 -0.000000 0.802843
38 1.506964 0.000001 -0.000000 0.000000 -0.000000 1.439864
39 3.915631 -0.278019 -1.402610 0.259543 -0.121320 0.097051
40 1.333084 -0.000000 0.000002 0.000000 -0.000000 1.029732
41 1.159202 -0.000004 -0.000002 0.000000 -0.000000 1.108257
42 -4.700889 1.283648 7.188919 1.589381 0.011446 1.586449
43 -0.000000 0.000001 5.621233 -0.000002 -0.000000 0.000000
44 -14.432661 1.132933 7.330523 1.589381 0.011446 1.586449
45 0.000000 0.000005 4.150281 0.000000 -0.000000 0.000000
time 4
0 0.135014 5.690259 -24.816700 0.000000 -0.000000 -1.570795
1 0.000001 -0.000000 0.000000 0.000000 -1.570451 -1.570795
2 4.443614 -0.009643 0.000006 -0.000004 -0.000001 0.000796
3 12.111418 -0.011445 -0.000000 0.000000 -0.000000 -0.000000
4 0.000007 0.011443 1.352402 1.414063 -0.656219 1.823449
5 6.078088 0.000001 -0.000002 -1.035026 0.043626 -0.976790
6 13.446752 -0.000004 0.000001 0.000000 0.000000 -0.236266
7 15.996999 0.000004 0.000001 3.077554 0.539687 -0.074424
8 1.885327 0.833278 -2.177879 -1.600019 0.776634 -0.003660
9 1.506966 0.000001 0.000000 0.000000 -0.000000 0.008713
10 0.798351 -0.000000 -0.000002 0.000000 -0.000000 0.174517
11 3.950303 -0.539873 -2.108874 0.037509 0.152574 0.247136
12 1.545799 -0.000002 -0.000002 -0.000000 0.000000 0.715569
13 1.667394 -0.000001 -0.000000 -0.000000 0.000000 0.680668
14 3.899459 -0.475374 -1.170894 -0.000748 0.000276 0.357764
15 1.528215 -0.000001 0.000001 -0.000000 0.000000 0.689376
16 1.528216 -0.000001 -0.000001 -0.000000 0.000000 0.837758
17 3.899459 -0.431801 0.168223 -0.000712 0.000360 0.471217
18 1.506963 -0.000002 0.000002 -0.000000 0.000000 0.898835
19 1.506965 0.000001 0.000000 -0.000000 0.000000 0.811556
20 3.915633 -0.278016 1.402604 -0.000664 0.000443 0.593371
21 1.333083 -0.000002 0.000002 -0.000000 0.000000 1.230415
22 1.159200 -0.000000 -0.000001 -0.000000 0.000000 0.811537
23 0.000006 0.011449 -1.352403 1.059490 1.178038 -2.117378
24 6.078087 -0.000000 -0.000000 1.073332 -0.858045 -1.479896
25 13.446753 -0.000000 -0.000001 -0.000000 -0.000000 -1.276936
26 15.997004 -0.000006 0.000000 1.709752 -0.034612 0.391019
27 1.885325 0.833277 2.177875 1.053551 -0.492788 0.918760
28 1.506962 -0.000001 0.000001 -0.000000 0.000000 -0.776653
29 0.798351 -0.000000 -0.000001 -0.000000 0.000000 -0.532314
30 3.950301 -0.539875 2.108874 -0.019867 -0.155834 0.132388
31 1.545795 -0.000001 0.000000 0.000000 0.000000 0.436340
32 1.667399 -0.000000 -0.000002 0.000000 0.000000 1.003547
33 3.899458 -0.475377 1.170888 0.000796 0.000000 0.000000
34 1.528217 0.000000 0.000002 0.000000 -0.000000 0.829016
35 1.528216 -0.000001 0.000000 0.000000 -0.000000 1.308972
36 3.899458 -0.431803 -0.168227 0.167478 0.002685 0.088950
37 1.506965 -0.000001 -0.000006 0.000000 -0.000000 0.802843
38 1.506964 0.000001 -0.000000 0.000000 -0.000000 1.439864
39 3.915631 -0.278019 -1.402610 0.259543 -0.121320 0.097051
40 1.333084 -0.000000 0.000002 0.000000 -0.000000 1.029732
41 1.159202 -0.000004 -0.000002 0.000000 -0.000000 1.108257
42 -4.700889 1.283648 7.188919 1.589381 0.011446 1.586449
43 -0.000000 0.000001 5.621233 -0.000002 -0.000000 0.000000
44 -14.432661 1.132933 7.330523 1.589381 0.011446 1.586449
45 0.000000 0.000005 4.150281 0.000000 -0.000000 0.000000
time 5
0 0.135014 5.690259 -24.816700 0.000000 -0.000000 -1.570795
1 0.000001 -0.000000 0.000000 0.000000 -1.570451 -1.570795
2 4.443614 -0.009643 0.000006 -0.000004 -0.000001 0.000796
3 12.111418 -0.011445 -0.000000 0.000000 -0.000000 -0.000000
4 0.000007 0.011443 1.352402 1.414063 -0.656219 1.823449
5 6.078088 0.000001 -0.000002 -1.035026 0.043626 -0.976790
6 13.446752 -0.000004 0.000001 0.000000 0.000000 -0.236266
7 15.996999 0.000004 0.000001 3.077554 0.539687 -0.074424
8 1.885327 0.833278 -2.177879 -1.600019 0.776634 -0.003660
9 1.506966 0.000001 0.000000 0.000000 -0.000000 0.008713
10 0.798351 -0.000000 -0.000002 0.000000 -0.000000 0.174517
11 3.950303 -0.539873 -2.108874 0.037509 0.152574 0.247136
12 1.545799 -0.000002 -0.000002 -0.000000 0.000000 0.715569
13 1.667394 -0.000001 -0.000000 -0.000000 0.000000 0.680668
14 3.899459 -0.475374 -1.170894 -0.000748 0.000276 0.357764
15 1.528215 -0.000001 0.000001 -0.000000 0.000000 0.689376
16 1.528216 -0.000001 -0.000001 -0.000000 0.000000 0.837758
17 3.899459 -0.431801 0.168223 -0.000712 0.000360 0.471217
18 1.506963 -0.000002 0.000002 -0.000000 0.000000 0.898835
19 1.506965 0.000001 0.000000 -0.000000 0.000000 0.811556
20 3.915633 -0.278016 1.402604 -0.000664 0.000443 0.593371
21 1.333083 -0.000002 0.000002 -0.000000 0.000000 1.230415
22 1.159200 -0.000000 -0.000001 -0.000000 0.000000 0.811537
23 0.000006 0.011449 -1.352403 1.059490 1.178038 -2.117378
24 6.078087 -0.000000 -0.000000 1.073453 -0.857870 -1.480100
25 13.446753 -0.000000 -0.000001 -0.000000 -0.000000 -1.276579
26 15.997004 -0.000006 0.000000 1.709752 -0.034612 0.391019
27 1.885325 0.833277 2.177875 1.053551 -0.492788 0.918760
28 1.506962 -0.000001 0.000001 -0.000000 0.000000 -0.776653
29 0.798351 -0.000000 -0.000001 -0.000000 0.000000 -0.532314
30 3.950301 -0.539875 2.108874 -0.019867 -0.155834 0.132388
31 1.545795 -0.000001 0.000000 0.000000 0.000000 0.436340
32 1.667399 -0.000000 -0.000002 0.000000 0.000000 1.003547
33 3.899458 -0.475377 1.170888 0.000796 0.000000 0.000000
34 1.528217 0.000000 0.000002 0.000000 -0.000000 0.829016
35 1.528216 -0.000001 0.000000 0.000000 -0.000000 1.308972
36 3.899458 -0.431803 -0.168227 0.167478 0.002685 0.088950
37 1.506965 -0.000001 -0.000006 0.000000 -0.000000 0.802843
38 1.506964 0.000001 -0.000000 0.000000 -0.000000 1.439864
39 3.915631 -0.278019 -1.402610 0.259543 -0.121320 0.097051
40 1.333084 -0.000000 0.000002 0.000000 -0.000000 1.029732
41 1.159202 -0.000004 -0.000002 0.000000 -0.000000 1.108257
42 -4.700889 1.283648 7.188919 1.589381 0.011446 1.586449
43 -0.000000 0.000001 5.621233 -0.000002 -0.000000 0.000000
44 -14.432661 1.132933 7.330523 1.589381 0.011446 1.586449
45 0.000000 0.000005 4.150281 0.000000 -0.000000 0.000000
time 6
0 0.135014 5.690259 -24.816700 0.000000 -0.000000 -1.570795
1 0.000001 -0.000000 0.000000 0.000000 -1.570451 -1.570795
2 4.443614 -0.009643 0.000006 -0.000004 -0.000001 0.000796
3 12.111418 -0.011445 -0.000000 0.000000 -0.000000 -0.000000
4 0.000007 0.011443 1.352402 1.414063 -0.656219 1.823449
5 6.078088 0.000001 -0.000002 -1.035026 0.043626 -0.976790
6 13.446752 -0.000004 0.000001 0.000000 0.000000 -0.236266
7 15.996999 0.000004 0.000001 3.077554 0.539687 -0.074424
8 1.885327 0.833278 -2.177879 -1.600019 0.776634 -0.003660
9 1.506966 0.000001 0.000000 0.000000 -0.000000 0.008713
10 0.798351 -0.000000 -0.000002 0.000000 -0.000000 0.174517
11 3.950303 -0.539873 -2.108874 0.037509 0.152574 0.247136
12 1.545799 -0.000002 -0.000002 -0.000000 0.000000 0.715569
13 1.667394 -0.000001 -0.000000 -0.000000 0.000000 0.680668
14 3.899459 -0.475374 -1.170894 -0.000748 0.000276 0.357764
15 1.528215 -0.000001 0.000001 -0.000000 0.000000 0.689376
16 1.528216 -0.000001 -0.000001 -0.000000 0.000000 0.837758
17 3.899459 -0.431801 0.168223 -0.000712 0.000360 0.471217
18 1.506963 -0.000002 0.000002 -0.000000 0.000000 0.898835
19 1.506965 0.000001 0.000000 -0.000000 0.000000 0.811556
20 3.915633 -0.278016 1.402604 -0.000664 0.000443 0.593371
21 1.333083 -0.000002 0.000002 -0.000000 0.000000 1.230415
22 1.159200 -0.000000 -0.000001 -0.000000 0.000000 0.811537
23 0.000006 0.011449 -1.352403 1.059490 1.178038 -2.117378
24 6.078087 -0.000000 -0.000000 1.073573 -0.857695 -1.480263
25 13.446753 -0.000000 -0.000001 -0.000000 -0.000000 -1.276282
26 15.997004 -0.000006 0.000000 1.709752 -0.034612 0.391019
27 1.885325 0.833277 2.177875 1.053551 -0.492788 0.918760
28 1.506962 -0.000001 0.000001 -0.000000 0.000000 -0.776653
29 0.798351 -0.000000 -0.000001 -0.000000 0.000000 -0.532314
30 3.950301 -0.539875 2.108874 -0.019867 -0.155834 0.132388
31 1.545795 -0.000001 0.000000 0.000000 0.000000 0.436340
32 1.667399 -0.000000 -0.000002 0.000000 0.000000 1.003547
33 3.899458 -0.475377 1.170888 0.000796 0.000000 0.000000
34 1.528217 0.000000 0.000002 0.000000 -0.000000 0.829031
35 1.528216 -0.000001 0.000000 0.000000 -0.000000 1.308972
36 3.899458 -0.431803 -0.168227 0.167478 0.002685 0.088950
37 1.506965 -0.000001 -0.000006 0.000000 -0.000000 0.802843
38 1.506964 0.000001 -0.000000 0.000000 -0.000000 1.439864
39 3.915631 -0.278019 -1.402610 0.259543 -0.121320 0.097051
40 1.333084 -0.000000 0.000002 0.000000 -0.000000 1.029744
41 1.159202 -0.000004 -0.000002 0.000000 -0.000000 1.108257
42 -4.700889 1.283648 7.188919 1.589381 0.011446 1.586449
43 -0.000000 0.000001 5.621233 -0.000002 -0.000000 0.000000
44 -14.432661 1.132933 7.330523 1.589381 0.011446 1.586449
45 0.000000 0.000005 4.150281 0.000000 -0.000000 0.000000
time 7
0 0.135014 5.690259 -24.816700 0.000000 -0.000000 -1.570795
1 0.000001 -0.000000 0.000000 0.000000 -1.570451 -1.570795
2 4.443614 -0.009643 0.000006 -0.000004 -0.000001 0.000796
3 12.111418 -0.011445 -0.000000 0.000000 -0.000000 -0.000000
4 0.000007 0.011443 1.352402 1.414063 -0.656219 1.823449
5 6.078088 0.000001 -0.000002 -1.035026 0.043626 -0.976790
6 13.446752 -0.000004 0.000001 0.000000 0.000000 -0.236266
7 15.996999 0.000004 0.000001 3.077554 0.539687 -0.074424
8 1.885327 0.833278 -2.177879 -1.600019 0.776634 -0.003660
9 1.506966 0.000001 0.000000 0.000000 -0.000000 0.008713
10 0.798351 -0.000000 -0.000002 0.000000 -0.000000 0.174517
11 3.950303 -0.539873 -2.108874 0.037509 0.152574 0.247136
12 1.545799 -0.000002 -0.000002 -0.000000 0.000000 0.715569
13 1.667394 -0.000001 -0.000000 -0.000000 0.000000 0.680668
14 3.899459 -0.475374 -1.170894 -0.000748 0.000276 0.357764
15 1.528215 -0.000001 0.000001 -0.000000 0.000000 0.689376
16 1.528216 -0.000001 -0.000001 -0.000000 0.000000 0.837758
17 3.899459 -0.431801 0.168223 -0.000712 0.000360 0.471217
18 1.506963 -0.000002 0.000002 -0.000000 0.000000 0.898835
19 1.506965 0.000001 0.000000 -0.000000 0.000000 0.811556
20 3.915633 -0.278016 1.402604 -0.000664 0.000443 0.593371
21 1.333083 -0.000002 0.000002 -0.000000 0.000000 1.230415
22 1.159200 -0.000000 -0.000001 -0.000000 0.000000 0.811537
23 0.000006 0.011449 -1.352403 1.059490 1.178038 -2.117378
24 6.078087 -0.000000 -0.000000 1.073694 -0.857486 -1.480427
25 13.446753 -0.000000 -0.000001 -0.000000 -0.000000 -1.275925
26 15.997004 -0.000006 0.000000 1.709752 -0.034612 0.391019
27 1.885325 0.833277 2.177875 1.053551 -0.492788 0.918760
28 1.506962 -0.000001 0.000001 -0.000000 0.000000 -0.776653
29 0.798351 -0.000000 -0.000001 -0.000000 0.000000 -0.532314
30 3.950301 -0.539875 2.108874 -0.019867 -0.155834 0.132388
31 1.545795 -0.000001 0.000000 0.000000 0.000000 0.436340
32 1.667399 -0.000000 -0.000002 0.000000 0.000000 1.003547
33 3.899458 -0.475377 1.170888 0.000796 0.000000 0.000000
34 1.528217 0.000000 0.000002 0.000000 -0.000000 0.829016
35 1.528216 -0.000001 0.000000 0.000000 -0.000000 1.308972
36 3.899458 -0.431803 -0.168227 0.167478 0.002685 0.088950
37 1.506965 -0.000001 -0.000006 0.000000 -0.000000 0.802843
38 1.506964 0.000001 -0.000000 0.000000 -0.000000 1.439864
39 3.915631 -0.278019 -1.402610 0.259543 -0.121320 0.097051
40 1.333084 -0.000000 0.000002 0.000000 -0.000000 1.029732
41 1.159202 -0.000004 -0.000002 0.000000 -0.000000 1.108257
42 -4.700889 1.283648 7.188919 1.589381 0.011446 1.586449
43 -0.000000 0.000001 5.621233 -0.000002 -0.000000 0.000000
44 -14.432661 1.132933 7.330523 1.589381 0.011446 1.586449
45 0.000000 0.000005 4.150281 0.000000 -0.000000 0.000000
time 8
0 0.135014 5.690259 -24.816700 0.000000 -0.000000 -1.570795
1 0.000001 -0.000000 0.000000 0.000000 -1.570451 -1.570795
2 4.443614 -0.009643 0.000006 -0.000004 -0.000001 0.000796
3 12.111418 -0.011445 -0.000000 0.000000 -0.000000 -0.000000
4 0.000007 0.011443 1.352402 1.414063 -0.656219 1.823449
5 6.078088 0.000001 -0.000002 -1.035026 0.043626 -0.976790
6 13.446752 -0.000004 0.000001 0.000000 0.000000 -0.236266
7 15.996999 0.000004 0.000001 3.077554 0.539687 -0.074424
8 1.885327 0.833278 -2.177879 -1.600019 0.776634 -0.003660
9 1.506966 0.000001 0.000000 0.000000 -0.000000 0.008713
10 0.798351 -0.000000 -0.000002 0.000000 -0.000000 0.174517
11 3.950303 -0.539873 -2.108874 0.037509 0.152574 0.247136
12 1.545799 -0.000002 -0.000002 -0.000000 0.000000 0.715569
13 1.667394 -0.000001 -0.000000 -0.000000 0.000000 0.680668
14 3.899459 -0.475374 -1.170894 -0.000748 0.000276 0.357764
15 1.528215 -0.000001 0.000001 -0.000000 0.000000 0.689376
16 1.528216 -0.000001 -0.000001 -0.000000 0.000000 0.837758
17 3.899459 -0.431801 0.168223 -0.000712 0.000360 0.471217
18 1.506963 -0.000002 0.000002 -0.000000 0.000000 0.898835
19 1.506965 0.000001 0.000000 -0.000000 0.000000 0.811556
20 3.915633 -0.278016 1.402604 -0.000664 0.000443 0.593371
21 1.333083 -0.000002 0.000002 -0.000000 0.000000 1.230415
22 1.159200 -0.000000 -0.000001 -0.000000 0.000000 0.811537
23 0.000006 0.011449 -1.352403 1.059490 1.178038 -2.117378
24 6.078087 -0.000000 -0.000000 1.073815 -0.857311 -1.480590
25 13.446753 -0.000000 -0.000001 -0.000000 -0.000000 -1.275569
26 15.997004 -0.000006 0.000000 1.709752 -0.034612 0.391019
27 1.885325 0.833277 2.177875 1.053551 -0.492788 0.918760
28 1.506962 -0.000001 0.000001 -0.000000 0.000000 -0.776653
29 0.798351 -0.000000 -0.000001 -0.000000 0.000000 -0.532314
30 3.950301 -0.539875 2.108874 -0.019867 -0.155834 0.132388
31 1.545795 -0.000001 0.000000 0.000000 0.000000 0.436340
32 1.667399 -0.000000 -0.000002 0.000000 0.000000 1.003547
33 3.899458 -0.475377 1.170888 0.000796 0.000000 0.000000
34 1.528217 0.000000 0.000002 0.000000 -0.000000 0.829016
35 1.528216 -0.000001 0.000000 0.000000 -0.000000 1.308972
36 3.899458 -0.431803 -0.168227 0.167478 0.002685 0.088950
37 1.506965 -0.000001 -0.000006 0.000000 -0.000000 0.802843
38 1.506964 0.000001 -0.000000 0.000000 -0.000000 1.439864
39 3.915631 -0.278019 -1.402610 0.259543 -0.121320 0.097051
40 1.333084 -0.000000 0.000002 0.000000 -0.000000 1.029732
41 1.159202 -0.000004 -0.000002 0.000000 -0.000000 1.108257
42 -4.700889 1.283648 7.188919 1.589381 0.011446 1.586449
43 -0.000000 0.000001 5.621233 -0.000002 -0.000000 0.000000
44 -14.432661 1.132933 7.330523 1.589381 0.011446 1.586449
45 0.000000 0.000005 4.150281 0.000000 -0.000000 0.000000
end
