//=================================================================================
//	QC Generated by Source Model Decompiler.
//=================================================================================

$modelname "weapons/v_sniper.mdl"
$cdmaterials "models/Weapons/V_hand/"
$cdmaterials "models/Weapons/V_sniper/"

$body "studio" "sniper_reference.smd"
$body "studio" "hands.smd"
$illumposition 30.93 -3.78 -8.24

$surfaceprop "default"

$contents solid

$bbox -2.42 -10.97 -15.46 64.29 3.42 -1.02
$hboxset "default"
$hbox 0 "Bip01 L Forearm"    0.00   -3.27   -2.82    16.00   -3.27    2.73
$hbox 0 "Bip01 L Hand"    0.00   -1.89   -2.67     4.31   -1.89    2.28
$hbox 0 "Bip01 L Finger0"   -0.01   -0.72   -1.49     1.51   -0.72    0.73
$hbox 0 "Bip01 L Finger01"    0.00   -0.42   -0.77     1.04   -0.42    0.40
$hbox 0 "Bip01 L Finger1"    0.00   -0.93   -0.50     1.55   -0.93    0.71
$hbox 0 "Bip01 L Finger11"    0.00   -0.66   -0.69     1.67   -0.66    0.48
$hbox 0 "Bip01 L Finger2"    0.00   -1.03   -0.43     1.53   -1.03    0.84
$hbox 0 "Bip01 L Finger21"    0.00   -0.68   -0.56     1.89   -0.68    0.67
$hbox 0 "Bip01 L Finger3"    0.00   -1.11   -0.54     1.51   -1.11    0.67
$hbox 0 "Bip01 L Finger31"    0.00   -0.77   -0.61     1.59   -0.77    0.53
$hbox 0 "Bip01 L Finger4"   -0.56   -1.19   -0.57     1.33   -1.19    0.60
$hbox 0 "Bip01 L Finger41"   -0.29   -0.69   -0.40     1.16   -0.69    0.61
$hbox 0 "Bip01 R Forearm"    0.00   -2.03   -0.65    16.00   -2.03    1.48
$hbox 0 "Bip01 R Hand"  -14.43   -1.62   -2.28    48.76   -1.62   11.95
$hbox 0 "Bip01 R Finger0"   -0.68   -0.72   -0.78     1.51   -0.72    1.43
$hbox 0 "Bip01 R Finger01"   -0.15   -0.42   -0.45     0.89   -0.42    1.10
$hbox 0 "Bip01 R Finger1"    0.00   -0.87   -0.64     1.55   -0.87    0.50
$hbox 0 "Bip01 R Finger11"    0.00   -0.61   -0.48     1.67   -0.61    0.69
$hbox 0 "Bip01 R Finger2"    0.00   -0.97   -0.80     1.53   -0.97    0.43
$hbox 0 "Bip01 R Finger21"    0.00   -0.63   -0.67     1.90   -0.63    0.56
$hbox 0 "Bip01 R Finger3"    0.00   -1.06   -0.80     1.51   -1.06    0.52
$hbox 0 "Bip01 R Finger31"    0.00   -0.72   -0.53     1.61   -0.72    0.61
$hbox 0 "Dummy18"   -0.64   -0.60   -3.85     0.63   -0.60    5.62
$hbox 0 "Dummy14"   -1.64   -5.98   -3.53     1.88   -5.98    9.97
$hbox 0 "Dummy16"   -1.11   -3.62   -4.13     2.74   -3.62    2.15

$attachment "muzzle" "Bip01 R Hand" 49.42 2.18 6.12 rotate 1.06 0.88 -0.68
$attachment "1" "Bip01 R Hand" -10.42 0.18 3.12 rotate 90 2 0


$sequence "sniper_idle01" "@sniper_idle01.smd" fps 30.00 loop ACT_VM_IDLE 1  {

}

$sequence "sniper_fire" "@sniper_fire.smd" fps 40.00 snap ACT_VM_PRIMARYATTACK 1 node Fire {
{ event AE_MUZZLEFLASH 0 "SHOTGUN MUZZLE" } 


}

$sequence "sniper_fire_dry" "@sniper_fire_dry.smd" fps 30.00 snap ACT_VM_DRYFIRE 1  {

}

$sequence "sniper_draw" "@sniper_draw.smd" fps 30.00 ACT_VM_DRAW 1  {

}

$sequence "sniper_reload" "@sniper_reload.smd" fps 35.00 ACT_VM_RELOAD 1  {
	{ event 6001 48.0 "1 }
}

