// Created by Crowbar 0.68
version 1
nodes
  0 "ValveBiped.Bip01" -1
  1 "ValveBiped.Bip01_Spine" 0
  2 "ValveBiped.Bip01_Spine1" 1
  3 "ValveBiped.Bip01_Spine2" 2
  4 "ValveBiped.Bip01_Spine4" 3
  5 "ValveBiped.Bip01_L_Clavicle" 4
  6 "ValveBiped.Bip01_L_UpperArm" 5
  7 "ValveBiped.Bip01_L_Forearm" 6
  8 "ValveBiped.Bip01_L_Hand" 7
  9 "ValveBiped.Bip01_L_Finger4" 8
  10 "ValveBiped.Bip01_L_Finger41" 9
  11 "ValveBiped.Bip01_L_Finger42" 10
  12 "ValveBiped.Bip01_L_Finger3" 8
  13 "ValveBiped.Bip01_L_Finger31" 12
  14 "ValveBiped.Bip01_L_Finger32" 13
  15 "ValveBiped.Bip01_L_Finger2" 8
  16 "ValveBiped.Bip01_L_Finger21" 15
  17 "ValveBiped.Bip01_L_Finger22" 16
  18 "ValveBiped.Bip01_L_Finger1" 8
  19 "ValveBiped.Bip01_L_Finger11" 18
  20 "ValveBiped.Bip01_L_Finger12" 19
  21 "ValveBiped.Bip01_L_Finger0" 8
  22 "ValveBiped.Bip01_L_Finger01" 21
  23 "ValveBiped.Bip01_L_Finger02" 22
  24 "ValveBiped.Bip01_R_Clavicle" 4
  25 "ValveBiped.Bip01_R_UpperArm" 24
  26 "ValveBiped.Bip01_R_Forearm" 25
  27 "ValveBiped.Bip01_R_Hand" 26
  28 "ValveBiped.Bip01_R_Finger1" 27
  29 "ValveBiped.Bip01_R_Finger11" 28
  30 "ValveBiped.Bip01_R_Finger12" 29
  31 "ValveBiped.Bip01_R_Finger0" 27
  32 "ValveBiped.Bip01_R_Finger01" 31
  33 "ValveBiped.Bip01_R_Finger02" 32
  34 "ValveBiped.base" 27
  35 "ValveBiped.eject" 34
  36 "ValveBiped.muzzle" 34
  37 "ValveBiped.square" 34
  38 "ValveBiped.hammer" 34
  39 "ValveBiped.clip" 27
end
skeleton
  time 0
    0 -0.002349 -0.531261 -29.431251 1.570796 0.000000 0.000000
    1 0.000005 3.345126 -2.981901 1.570796 0.086293 1.570796
    2 4.018332 0.000000 0.000000 0.000000 0.000000 -0.029242
    3 3.518572 0.000000 0.000000 0.000000 0.000000 0.100336
    4 8.942638 0.000001 0.000000 0.000000 0.000000 0.194096
    5 2.033349 1.000767 1.937660 1.596637 -1.286515 2.942961
    6 6.028142 0.000000 -0.000001 -1.579219 0.357992 -1.145041
    7 11.692554 -0.000002 0.000000 0.000000 0.000000 -1.541527
    8 11.481672 0.000000 -0.000031 1.573171 -0.028074 0.044380
    9 3.859705 -0.142405 -1.191976 -0.476795 0.134331 -0.965123
    10 1.312561 0.000000 0.000004 0.000000 0.000000 -0.279217
    11 0.729363 0.000002 -0.000004 0.000000 0.000000 -0.096881
    12 3.942328 0.046771 -0.431443 -0.145074 0.087435 -0.741658
    13 1.539093 0.000001 -0.000003 0.000000 0.000000 -0.309337
    14 1.196322 0.000000 0.000002 0.000000 0.000000 -0.521227
    15 3.883689 -0.046772 0.431443 0.085902 0.021830 -0.587867
    16 1.719575 0.000000 0.000000 0.000000 0.005516 -0.366479
    17 1.209184 0.000002 0.000000 0.000000 0.003084 -0.216399
    18 3.859862 -0.137947 1.332464 0.354449 -0.042750 -0.531718
    19 1.719428 0.000000 0.000003 0.000000 0.004074 -0.363009
    20 1.099666 -0.000001 -0.000002 0.000000 0.002596 -0.244330
    21 0.806047 -0.348922 1.321259 -1.166384 -0.626623 -0.921971
    22 1.789786 -0.000001 0.000001 0.000000 0.000000 0.189107
    23 1.206998 0.000003 0.000000 0.000000 0.000000 0.306017
    24 2.033356 1.000770 -1.937611 -1.668474 1.286518 2.942952
    25 6.028142 -0.000001 0.000000 1.415739 0.359529 -1.181215
    26 11.692551 -0.000001 0.000000 0.000000 0.000000 -1.106170
    27 11.481700 0.000002 0.000000 -1.715416 -0.567218 0.743377
    28 3.859826 -0.148935 -1.331284 -0.248840 0.263123 -0.072130
    29 1.719426 0.000000 -0.000001 -0.000003 0.000000 -0.676754
    30 1.099667 0.000002 -0.000001 0.000000 0.000000 -1.021291
    31 0.806016 -0.359832 -1.318335 1.349688 0.343495 -0.771452
    32 1.789782 0.000002 -0.000001 0.000000 0.000000 0.397501
    33 1.207000 -0.000003 0.000000 0.000000 0.000000 0.989035
    34 6.114871 -1.450001 -1.922837 -1.564198 -0.011689 -1.581440
    35 0.051129 3.122168 0.141700 0.000000 0.000000 1.570796
    36 0.000001 1.537869 5.938445 0.000000 -1.570796 0.000000
    37 0.000000 1.607461 -1.997381 0.000000 0.000000 0.000000
    38 0.000000 1.225112 -3.954163 0.000000 0.000000 0.000000
    39 3.820733 -1.409994 -0.589409 -1.564198 -0.011689 -1.581440
  time 1
    0 -0.002349 -0.531261 -29.431251 1.570796 0.000000 0.000000
    1 0.000005 3.345126 -2.981901 1.570796 0.086293 1.570796
    2 4.018332 0.000000 0.000000 0.000000 0.000000 -0.029242
    3 3.518572 0.000000 0.000000 0.000000 0.000000 0.100336
    4 8.942638 0.000001 0.000000 0.000000 0.000000 0.194096
    5 2.033349 1.000767 1.937660 1.596637 -1.286515 2.942961
    6 6.028142 0.000000 -0.000001 -1.579219 0.357992 -1.145041
    7 11.692554 -0.000002 0.000000 0.000000 0.000000 -1.541527
    8 11.481672 0.000000 -0.000031 1.573171 -0.028074 0.044380
    9 3.859705 -0.142405 -1.191976 -0.476795 0.134331 -0.965123
    10 1.312561 0.000000 0.000004 0.000000 0.000000 -0.279217
    11 0.729363 0.000002 -0.000004 0.000000 0.000000 -0.096881
    12 3.942328 0.046771 -0.431443 -0.145074 0.087435 -0.741658
    13 1.539093 0.000001 -0.000003 0.000000 0.000000 -0.309337
    14 1.196322 0.000000 0.000002 0.000000 0.000000 -0.521227
    15 3.883689 -0.046772 0.431443 0.085902 0.021830 -0.587867
    16 1.719575 0.000000 0.000000 0.000000 0.005516 -0.366479
    17 1.209184 0.000002 0.000000 0.000000 0.003084 -0.216399
    18 3.859862 -0.137947 1.332464 0.354449 -0.042750 -0.531718
    19 1.719428 0.000000 0.000003 0.000000 0.004074 -0.363009
    20 1.099666 -0.000001 -0.000002 0.000000 0.002596 -0.244330
    21 0.806047 -0.348922 1.321259 -1.166384 -0.626623 -0.921971
    22 1.789786 -0.000001 0.000001 0.000000 0.000000 0.189107
    23 1.206998 0.000003 0.000000 0.000000 0.000000 0.306017
    24 2.033356 1.000770 -1.937611 -1.668474 1.286518 2.942952
    25 6.028142 -0.000001 0.000000 1.415739 0.359529 -1.181215
    26 11.692551 -0.000001 0.000000 0.000000 0.000000 -1.106170
    27 11.481700 0.000002 0.000000 -1.715416 -0.567218 0.743377
    28 3.859826 -0.148935 -1.331284 -0.248840 0.263123 -0.072130
    29 1.719426 0.000000 -0.000001 -0.000003 0.000000 -0.676754
    30 1.099667 0.000002 -0.000001 0.000000 0.000000 -1.021291
    31 0.806016 -0.359832 -1.318335 1.349688 0.343495 -0.771452
    32 1.789782 0.000002 -0.000001 0.000000 0.000000 0.397501
    33 1.207000 -0.000003 0.000000 0.000000 0.000000 0.989035
    34 6.114871 -1.450001 -1.922837 -1.564198 -0.011689 -1.581440
    35 0.051129 3.122168 0.141700 0.000000 0.000000 1.570796
    36 0.000001 1.537869 5.938445 0.000000 -1.570796 0.000000
    37 0.000000 1.607461 -1.997381 0.000000 0.000000 0.000000
    38 0.000000 1.225112 -3.954163 0.000000 0.000000 0.000000
    39 3.820733 -1.409994 -0.589409 -1.564198 -0.011689 -1.581440
  time 2
    0 -0.002349 -0.531261 -29.431251 1.570796 0.000000 0.000000
    1 0.000005 3.345126 -2.981901 1.570796 0.086293 1.570796
    2 4.018332 0.000000 0.000000 0.000000 0.000000 -0.029242
    3 3.518572 0.000000 0.000000 0.000000 0.000000 0.100336
    4 8.942638 0.000001 0.000000 0.000000 0.000000 0.194096
    5 2.033349 1.000767 1.937660 1.596637 -1.286515 2.942961
    6 6.028142 0.000000 -0.000001 -1.579219 0.357992 -1.145041
    7 11.692554 -0.000002 0.000000 0.000000 0.000000 -1.541527
    8 11.481672 0.000000 -0.000031 1.573171 -0.028074 0.044380
    9 3.859705 -0.142405 -1.191976 -0.476795 0.134331 -0.965123
    10 1.312561 0.000000 0.000004 0.000000 0.000000 -0.279217
    11 0.729363 0.000002 -0.000004 0.000000 0.000000 -0.096881
    12 3.942328 0.046771 -0.431443 -0.145074 0.087435 -0.741658
    13 1.539093 0.000001 -0.000003 0.000000 0.000000 -0.309337
    14 1.196322 0.000000 0.000002 0.000000 0.000000 -0.521227
    15 3.883689 -0.046772 0.431443 0.085902 0.021830 -0.587867
    16 1.719575 0.000000 0.000000 0.000000 0.005516 -0.366479
    17 1.209184 0.000002 0.000000 0.000000 0.003084 -0.216399
    18 3.859862 -0.137947 1.332464 0.354449 -0.042750 -0.531718
    19 1.719428 0.000000 0.000003 0.000000 0.004074 -0.363009
    20 1.099666 -0.000001 -0.000002 0.000000 0.002596 -0.244330
    21 0.806047 -0.348922 1.321259 -1.166384 -0.626623 -0.921971
    22 1.789786 -0.000001 0.000001 0.000000 0.000000 0.189107
    23 1.206998 0.000003 0.000000 0.000000 0.000000 0.306017
    24 2.033356 1.000770 -1.937611 -1.668474 1.286518 2.942952
    25 6.028142 -0.000001 0.000000 1.415878 0.371340 -1.182265
    26 11.692551 -0.000001 0.000000 0.000000 0.000000 -1.105676
    27 11.481700 0.000002 0.000000 -1.715258 -0.566726 0.745776
    28 3.859826 -0.148935 -1.331284 -0.248840 0.263123 -0.072130
    29 1.719426 0.000000 -0.000001 -0.000003 0.000000 -0.676754
    30 1.099667 0.000002 -0.000001 0.000000 0.000000 -1.021291
    31 0.806016 -0.359832 -1.318335 1.349688 0.343495 -0.771452
    32 1.789782 0.000002 -0.000001 0.000000 0.000000 0.397501
    33 1.207000 -0.000003 0.000000 0.000000 0.000000 0.989035
    34 6.114871 -1.450001 -1.922837 -1.564198 -0.011689 -1.581440
    35 0.051129 3.122168 0.141700 0.000000 0.000000 1.570796
    36 0.000001 1.537869 5.938445 0.000000 -1.570796 0.000000
    37 0.000000 1.607461 -1.997381 0.000000 0.000000 0.000000
    38 0.000000 1.225112 -3.954163 0.000000 0.000000 0.000000
    39 3.820733 -1.409994 -0.589409 -1.564198 -0.011689 -1.581440
  time 3
    0 -0.002349 -0.531261 -29.431251 1.570796 0.000000 0.000000
    1 0.000005 3.345126 -2.981901 1.570796 0.086293 1.570796
    2 4.018332 0.000000 0.000000 0.000000 0.000000 -0.029242
    3 3.518572 0.000000 0.000000 0.000000 0.000000 0.100336
    4 8.942638 0.000001 0.000000 0.000000 0.000000 0.194096
    5 2.033349 1.000767 1.937660 1.596637 -1.286515 2.942961
    6 6.028142 0.000000 -0.000001 -1.579219 0.357992 -1.145041
    7 11.692554 -0.000002 0.000000 0.000000 0.000000 -1.541527
    8 11.481672 0.000000 -0.000031 1.573171 -0.028074 0.044380
    9 3.859705 -0.142405 -1.191976 -0.476795 0.134331 -0.965123
    10 1.312561 0.000000 0.000004 0.000000 0.000000 -0.279217
    11 0.729363 0.000002 -0.000004 0.000000 0.000000 -0.096881
    12 3.942328 0.046771 -0.431443 -0.145074 0.087435 -0.741658
    13 1.539093 0.000001 -0.000003 0.000000 0.000000 -0.309337
    14 1.196322 0.000000 0.000002 0.000000 0.000000 -0.521227
    15 3.883689 -0.046772 0.431443 0.085902 0.021830 -0.587867
    16 1.719575 0.000000 0.000000 0.000000 0.005516 -0.366479
    17 1.209184 0.000002 0.000000 0.000000 0.003084 -0.216399
    18 3.859862 -0.137947 1.332464 0.354449 -0.042750 -0.531718
    19 1.719428 0.000000 0.000003 0.000000 0.004074 -0.363009
    20 1.099666 -0.000001 -0.000002 0.000000 0.002596 -0.244330
    21 0.806047 -0.348922 1.321259 -1.166384 -0.626623 -0.921971
    22 1.789786 -0.000001 0.000001 0.000000 0.000000 0.189107
    23 1.206998 0.000003 0.000000 0.000000 0.000000 0.306017
    24 2.033356 1.000770 -1.937611 -1.668474 1.286518 2.942952
    25 6.028142 -0.000001 0.000000 1.418379 0.400618 -1.182303
    26 11.692551 -0.000001 0.000000 0.000000 0.000000 -1.102839
    27 11.481700 0.000002 0.000000 -1.711374 -0.566146 0.748239
    28 3.859826 -0.148935 -1.331284 -0.248840 0.263123 -0.072130
    29 1.719426 0.000000 -0.000001 -0.000003 0.000000 -0.676754
    30 1.099667 0.000002 -0.000001 0.000000 0.000000 -1.021291
    31 0.806016 -0.359832 -1.318335 1.349688 0.343495 -0.771452
    32 1.789782 0.000002 -0.000001 0.000000 0.000000 0.397501
    33 1.207000 -0.000003 0.000000 0.000000 0.000000 0.989035
    34 6.114871 -1.450001 -1.922837 -1.564198 -0.011689 -1.581440
    35 0.051129 3.122168 0.141700 0.000000 0.000000 1.570796
    36 0.000001 1.537869 5.938445 0.000000 -1.570796 0.000000
    37 0.000000 1.607461 -1.997381 0.000000 0.000000 0.000000
    38 0.000000 1.225112 -3.954163 0.000000 0.000000 0.000000
    39 3.820733 -1.409994 -0.589409 -1.564198 -0.011689 -1.581440
  time 4
    0 -0.002349 -0.531261 -29.431251 1.570796 0.000000 0.000000
    1 0.000005 3.345126 -2.981901 1.570796 0.086293 1.570796
    2 4.018332 0.000000 0.000000 0.000000 0.000000 -0.029242
    3 3.518572 0.000000 0.000000 0.000000 0.000000 0.100336
    4 8.942638 0.000001 0.000000 0.000000 0.000000 0.194096
    5 2.033349 1.000767 1.937660 1.596637 -1.286515 2.942961
    6 6.028142 0.000000 -0.000001 -1.579219 0.357992 -1.145041
    7 11.692554 -0.000002 0.000000 0.000000 0.000000 -1.541527
    8 11.481672 0.000000 -0.000031 1.573171 -0.028074 0.044380
    9 3.859705 -0.142405 -1.191976 -0.476795 0.134331 -0.965123
    10 1.312561 0.000000 0.000004 0.000000 0.000000 -0.279217
    11 0.729363 0.000002 -0.000004 0.000000 0.000000 -0.096881
    12 3.942328 0.046771 -0.431443 -0.145074 0.087435 -0.741658
    13 1.539093 0.000001 -0.000003 0.000000 0.000000 -0.309337
    14 1.196322 0.000000 0.000002 0.000000 0.000000 -0.521227
    15 3.883689 -0.046772 0.431443 0.085902 0.021830 -0.587867
    16 1.719575 0.000000 0.000000 0.000000 0.005516 -0.366479
    17 1.209184 0.000002 0.000000 0.000000 0.003084 -0.216399
    18 3.859862 -0.137947 1.332464 0.354449 -0.042750 -0.531718
    19 1.719428 0.000000 0.000003 0.000000 0.004074 -0.363009
    20 1.099666 -0.000001 -0.000002 0.000000 0.002596 -0.244330
    21 0.806047 -0.348922 1.321259 -1.166384 -0.626623 -0.921971
    22 1.789786 -0.000001 0.000001 0.000000 0.000000 0.189107
    23 1.206998 0.000003 0.000000 0.000000 0.000000 0.306017
    24 2.033356 1.000770 -1.937611 -1.668474 1.286518 2.942952
    25 6.028142 -0.000001 0.000000 1.423260 0.445189 -1.180652
    26 11.692551 -0.000001 0.000000 0.000000 0.000000 -1.095017
    27 11.481700 0.000002 0.000000 -1.701836 -0.565479 0.750335
    28 3.859826 -0.148935 -1.331284 -0.248840 0.263123 -0.072130
    29 1.719426 0.000000 -0.000001 -0.000003 0.000000 -0.676754
    30 1.099667 0.000002 -0.000001 0.000000 0.000000 -1.021291
    31 0.806016 -0.359832 -1.318335 1.349688 0.343495 -0.771452
    32 1.789782 0.000002 -0.000001 0.000000 0.000000 0.397501
    33 1.207000 -0.000003 0.000000 0.000000 0.000000 0.989035
    34 6.114871 -1.450001 -1.922837 -1.564198 -0.011689 -1.581440
    35 0.051129 3.122168 0.141700 0.000000 0.000000 1.570796
    36 0.000001 1.537869 5.938445 0.000000 -1.570796 0.000000
    37 0.000000 1.607461 -1.997381 0.000000 0.000000 0.000000
    38 0.000000 1.225112 -3.954163 0.000000 0.000000 0.000000
    39 3.820733 -1.409994 -0.589409 -1.564198 -0.011689 -1.581440
  time 5
    0 -0.002349 -0.531261 -29.431251 1.570796 0.000000 0.000000
    1 0.000005 3.345126 -2.981901 1.570796 0.086293 1.570796
    2 4.018332 0.000000 0.000000 0.000000 0.000000 -0.029242
    3 3.518572 0.000000 0.000000 0.000000 0.000000 0.100336
    4 8.942638 0.000001 0.000000 0.000000 0.000000 0.194096
    5 2.033349 1.000767 1.937660 1.596637 -1.286515 2.942961
    6 6.028142 0.000000 -0.000001 -1.579219 0.357992 -1.145041
    7 11.692554 -0.000002 0.000000 0.000000 0.000000 -1.541527
    8 11.481672 0.000000 -0.000031 1.573171 -0.028074 0.044380
    9 3.859705 -0.142405 -1.191976 -0.476795 0.134331 -0.965123
    10 1.312561 0.000000 0.000004 0.000000 0.000000 -0.279217
    11 0.729363 0.000002 -0.000004 0.000000 0.000000 -0.096881
    12 3.942328 0.046771 -0.431443 -0.145074 0.087435 -0.741658
    13 1.539093 0.000001 -0.000003 0.000000 0.000000 -0.309337
    14 1.196322 0.000000 0.000002 0.000000 0.000000 -0.521227
    15 3.883689 -0.046772 0.431443 0.085902 0.021830 -0.587867
    16 1.719575 0.000000 0.000000 0.000000 0.005516 -0.366479
    17 1.209184 0.000002 0.000000 0.000000 0.003084 -0.216399
    18 3.859862 -0.137947 1.332464 0.354449 -0.042750 -0.531718
    19 1.719428 0.000000 0.000003 0.000000 0.004074 -0.363009
    20 1.099666 -0.000001 -0.000002 0.000000 0.002596 -0.244330
    21 0.806047 -0.348922 1.321259 -1.166384 -0.626623 -0.921971
    22 1.789786 -0.000001 0.000001 0.000000 0.000000 0.189107
    23 1.206998 0.000003 0.000000 0.000000 0.000000 0.306017
    24 2.033356 1.000770 -1.937611 -1.668474 1.286518 2.942952
    25 6.028142 -0.000001 0.000000 1.429550 0.501757 -1.177651
    26 11.692551 -0.000001 0.000000 0.000000 0.000000 -1.080952
    27 11.481700 0.000002 0.000000 -1.683447 -0.564688 0.751588
    28 3.859826 -0.148935 -1.331284 -0.248840 0.263123 -0.072130
    29 1.719426 0.000000 -0.000001 -0.000003 0.000000 -0.676754
    30 1.099667 0.000002 -0.000001 0.000000 0.000000 -1.021291
    31 0.806016 -0.359832 -1.318335 1.349688 0.343495 -0.771452
    32 1.789782 0.000002 -0.000001 0.000000 0.000000 0.397501
    33 1.207000 -0.000003 0.000000 0.000000 0.000000 0.989035
    34 6.114871 -1.450001 -1.922837 -1.564198 -0.011689 -1.581440
    35 0.051129 3.122168 0.141700 0.000000 0.000000 1.570796
    36 0.000001 1.537869 5.938445 0.000000 -1.570796 0.000000
    37 0.000000 1.607461 -1.997381 0.000000 0.000000 0.000000
    38 0.000000 1.225112 -3.954163 0.000000 0.000000 0.000000
    39 3.820733 -1.409994 -0.589409 -1.564198 -0.011689 -1.581440
  time 6
    0 -0.002349 -0.531261 -29.431251 1.570796 0.000000 0.000000
    1 0.000005 3.345126 -2.981901 1.570796 0.086293 1.570796
    2 4.018332 0.000000 0.000000 0.000000 0.000000 -0.029242
    3 3.518572 0.000000 0.000000 0.000000 0.000000 0.100336
    4 8.942638 0.000001 0.000000 0.000000 0.000000 0.194096
    5 2.033349 1.000767 1.937660 1.596637 -1.286515 2.942961
    6 6.028142 0.000000 -0.000001 -1.579219 0.357992 -1.145041
    7 11.692554 -0.000002 0.000000 0.000000 0.000000 -1.541527
    8 11.481672 0.000000 -0.000031 1.573171 -0.028074 0.044380
    9 3.859705 -0.142405 -1.191976 -0.476795 0.134331 -0.965123
    10 1.312561 0.000000 0.000004 0.000000 0.000000 -0.279217
    11 0.729363 0.000002 -0.000004 0.000000 0.000000 -0.096881
    12 3.942328 0.046771 -0.431443 -0.145074 0.087435 -0.741658
    13 1.539093 0.000001 -0.000003 0.000000 0.000000 -0.309337
    14 1.196322 0.000000 0.000002 0.000000 0.000000 -0.521227
    15 3.883689 -0.046772 0.431443 0.085902 0.021830 -0.587867
    16 1.719575 0.000000 0.000000 0.000000 0.005516 -0.366479
    17 1.209184 0.000002 0.000000 0.000000 0.003084 -0.216399
    18 3.859862 -0.137947 1.332464 0.354449 -0.042750 -0.531718
    19 1.719428 0.000000 0.000003 0.000000 0.004074 -0.363009
    20 1.099666 -0.000001 -0.000002 0.000000 0.002596 -0.244330
    21 0.806047 -0.348922 1.321259 -1.166384 -0.626623 -0.921971
    22 1.789786 -0.000001 0.000001 0.000000 0.000000 0.189107
    23 1.206998 0.000003 0.000000 0.000000 0.000000 0.306017
    24 2.033356 1.000770 -1.937611 -1.668474 1.286518 2.942952
    25 6.028142 -0.000001 0.000000 1.436436 0.566748 -1.173524
    26 11.692551 -0.000001 0.000000 0.000000 0.000000 -1.060496
    27 11.481700 0.000002 0.000000 -1.650130 -0.563775 0.750983
    28 3.859826 -0.148935 -1.331284 -0.248840 0.263123 -0.072130
    29 1.719426 0.000000 -0.000001 -0.000003 0.000000 -0.676754
    30 1.099667 0.000002 -0.000001 0.000000 0.000000 -1.021291
    31 0.806016 -0.359832 -1.318335 1.349688 0.343495 -0.771452
    32 1.789782 0.000002 -0.000001 0.000000 0.000000 0.397501
    33 1.207000 -0.000003 0.000000 0.000000 0.000000 0.989035
    34 6.114871 -1.450001 -1.922837 -1.564198 -0.011689 -1.581440
    35 0.051129 3.122168 0.141700 0.000000 0.000000 1.570796
    36 0.000001 1.537869 5.938445 0.000000 -1.570796 0.000000
    37 0.000000 1.607461 -1.997381 0.000000 0.000000 0.000000
    38 0.000000 1.225112 -3.954163 0.000000 0.000000 0.000000
    39 3.820733 -1.409994 -0.589409 -1.564198 -0.011689 -1.581440
  time 7
    0 -0.002349 -0.531261 -29.431251 1.570796 0.000000 0.000000
    1 0.000005 3.345126 -2.981901 1.570796 0.086293 1.570796
    2 4.018332 0.000000 0.000000 0.000000 0.000000 -0.029242
    3 3.518572 0.000000 0.000000 0.000000 0.000000 0.100336
    4 8.942638 0.000001 0.000000 0.000000 0.000000 0.194096
    5 2.033349 1.000767 1.937660 1.596637 -1.286515 2.942961
    6 6.028142 0.000000 -0.000001 -1.579219 0.357992 -1.145041
    7 11.692554 -0.000002 0.000000 0.000000 0.000000 -1.541527
    8 11.481672 0.000000 -0.000031 1.573171 -0.028074 0.044380
    9 3.859705 -0.142405 -1.191976 -0.476795 0.134331 -0.965123
    10 1.312561 0.000000 0.000004 0.000000 0.000000 -0.279217
    11 0.729363 0.000002 -0.000004 0.000000 0.000000 -0.096881
    12 3.942328 0.046771 -0.431443 -0.145074 0.087435 -0.741658
    13 1.539093 0.000001 -0.000003 0.000000 0.000000 -0.309337
    14 1.196322 0.000000 0.000002 0.000000 0.000000 -0.521227
    15 3.883689 -0.046772 0.431443 0.085902 0.021830 -0.587867
    16 1.719575 0.000000 0.000000 0.000000 0.005516 -0.366479
    17 1.209184 0.000002 0.000000 0.000000 0.003084 -0.216399
    18 3.859862 -0.137947 1.332464 0.354449 -0.042750 -0.531718
    19 1.719428 0.000000 0.000003 0.000000 0.004074 -0.363009
    20 1.099666 -0.000001 -0.000002 0.000000 0.002596 -0.244330
    21 0.806047 -0.348922 1.321259 -1.166384 -0.626623 -0.921971
    22 1.789786 -0.000001 0.000001 0.000000 0.000000 0.189107
    23 1.206998 0.000003 0.000000 0.000000 0.000000 0.306017
    24 2.033356 1.000770 -1.937611 -1.668474 1.286518 2.942952
    25 6.028142 -0.000001 0.000000 1.443619 0.636898 -1.168234
    26 11.692551 -0.000001 0.000000 0.000000 0.000000 -1.034142
    27 11.481700 0.000002 0.000000 -1.594752 -0.562721 0.746446
    28 3.859826 -0.148935 -1.331284 -0.248840 0.263123 -0.072130
    29 1.719426 0.000000 -0.000001 -0.000003 0.000000 -0.676754
    30 1.099667 0.000002 -0.000001 0.000000 0.000000 -1.021291
    31 0.806016 -0.359832 -1.318335 1.349688 0.343495 -0.771452
    32 1.789782 0.000002 -0.000001 0.000000 0.000000 0.397501
    33 1.207000 -0.000003 0.000000 0.000000 0.000000 0.989035
    34 6.114871 -1.450001 -1.922837 -1.564198 -0.011689 -1.581440
    35 0.051129 3.122168 0.141700 0.000000 0.000000 1.570796
    36 0.000001 1.537869 5.938445 0.000000 -1.570796 0.000000
    37 0.000000 1.607461 -1.997381 0.000000 0.000000 0.000000
    38 0.000000 1.225112 -3.954163 0.000000 0.000000 0.000000
    39 3.820733 -1.409994 -0.589409 -1.564198 -0.011689 -1.581440
  time 8
    0 -0.002349 -0.531261 -29.431251 1.570796 0.000000 0.000000
    1 0.000005 3.345126 -2.981901 1.570796 0.086293 1.570796
    2 4.018332 0.000000 0.000000 0.000000 0.000000 -0.029242
    3 3.518572 0.000000 0.000000 0.000000 0.000000 0.100336
    4 8.942638 0.000001 0.000000 0.000000 0.000000 0.194096
    5 2.033349 1.000767 1.937660 1.596637 -1.286515 2.942961
    6 6.028142 0.000000 -0.000001 -1.579219 0.357992 -1.145041
    7 11.692554 -0.000002 0.000000 0.000000 0.000000 -1.541527
    8 11.481672 0.000000 -0.000031 1.573171 -0.028074 0.044380
    9 3.859705 -0.142405 -1.191976 -0.476795 0.134331 -0.965123
    10 1.312561 0.000000 0.000004 0.000000 0.000000 -0.279217
    11 0.729363 0.000002 -0.000004 0.000000 0.000000 -0.096881
    12 3.942328 0.046771 -0.431443 -0.145074 0.087435 -0.741658
    13 1.539093 0.000001 -0.000003 0.000000 0.000000 -0.309337
    14 1.196322 0.000000 0.000002 0.000000 0.000000 -0.521227
    15 3.883689 -0.046772 0.431443 0.085902 0.021830 -0.587867
    16 1.719575 0.000000 0.000000 0.000000 0.005516 -0.366479
    17 1.209184 0.000002 0.000000 0.000000 0.003084 -0.216399
    18 3.859862 -0.137947 1.332464 0.354449 -0.042750 -0.531718
    19 1.719428 0.000000 0.000003 0.000000 0.004074 -0.363009
    20 1.099666 -0.000001 -0.000002 0.000000 0.002596 -0.244330
    21 0.806047 -0.348922 1.321259 -1.166384 -0.626623 -0.921971
    22 1.789786 -0.000001 0.000001 0.000000 0.000000 0.189107
    23 1.206998 0.000003 0.000000 0.000000 0.000000 0.306017
    24 2.033356 1.000770 -1.937611 -1.668474 1.286518 2.942952
    25 6.028142 -0.000001 0.000000 1.451001 0.709815 -1.161706
    26 11.692551 -0.000001 0.000000 0.000000 0.000000 -1.002410
    27 11.481700 0.000002 0.000000 -1.535833 -0.561104 0.733849
    28 3.859826 -0.148935 -1.331284 -0.248840 0.263123 -0.072130
    29 1.719426 0.000000 -0.000001 -0.000003 0.000000 -0.676754
    30 1.099667 0.000002 -0.000001 0.000000 0.000000 -1.021291
    31 0.806016 -0.359832 -1.318335 1.349688 0.343495 -0.771452
    32 1.789782 0.000002 -0.000001 0.000000 0.000000 0.397501
    33 1.207000 -0.000003 0.000000 0.000000 0.000000 0.989035
    34 6.114871 -1.450001 -1.922837 -1.564198 -0.011689 -1.581440
    35 0.051129 3.122168 0.141700 0.000000 0.000000 1.570796
    36 0.000001 1.537869 5.938445 0.000000 -1.570796 0.000000
    37 0.000000 1.607461 -1.997381 0.000000 0.000000 0.000000
    38 0.000000 1.225112 -3.954163 0.000000 0.000000 0.000000
    39 3.820733 -1.409994 -0.589409 -1.564198 -0.011689 -1.581440
  time 9
    0 -0.002349 -0.531261 -29.431251 1.570796 0.000000 0.000000
    1 0.000005 3.345126 -2.981901 1.570796 0.086293 1.570796
    2 4.018332 0.000000 0.000000 0.000000 0.000000 -0.029242
    3 3.518572 0.000000 0.000000 0.000000 0.000000 0.100336
    4 8.942638 0.000001 0.000000 0.000000 0.000000 0.194096
    5 2.033349 1.000767 1.937660 1.596637 -1.286515 2.942961
    6 6.028142 0.000000 -0.000001 -1.579219 0.357992 -1.145041
    7 11.692554 -0.000002 0.000000 0.000000 0.000000 -1.541527
    8 11.481672 0.000000 -0.000031 1.573171 -0.028074 0.044380
    9 3.859705 -0.142405 -1.191976 -0.476795 0.134331 -0.965123
    10 1.312561 0.000000 0.000004 0.000000 0.000000 -0.279217
    11 0.729363 0.000002 -0.000004 0.000000 0.000000 -0.096881
    12 3.942328 0.046771 -0.431443 -0.145074 0.087435 -0.741658
    13 1.539093 0.000001 -0.000003 0.000000 0.000000 -0.309337
    14 1.196322 0.000000 0.000002 0.000000 0.000000 -0.521227
    15 3.883689 -0.046772 0.431443 0.085902 0.021830 -0.587867
    16 1.719575 0.000000 0.000000 0.000000 0.005516 -0.366479
    17 1.209184 0.000002 0.000000 0.000000 0.003084 -0.216399
    18 3.859862 -0.137947 1.332464 0.354449 -0.042750 -0.531718
    19 1.719428 0.000000 0.000003 0.000000 0.004074 -0.363009
    20 1.099666 -0.000001 -0.000002 0.000000 0.002596 -0.244330
    21 0.806047 -0.348922 1.321259 -1.166384 -0.626623 -0.921971
    22 1.789786 -0.000001 0.000001 0.000000 0.000000 0.189107
    23 1.206998 0.000003 0.000000 0.000000 0.000000 0.306017
    24 2.033356 1.000770 -1.937611 -1.668474 1.286518 2.942952
    25 6.028142 -0.000001 0.000000 1.458641 0.783726 -1.153827
    26 11.692551 -0.000001 0.000000 0.000000 0.000000 -0.965866
    27 11.481700 0.000002 0.000000 -1.491684 -0.555817 0.708203
    28 3.859826 -0.148935 -1.331284 -0.248840 0.263123 -0.072130
    29 1.719426 0.000000 -0.000001 -0.000003 0.000000 -0.676754
    30 1.099667 0.000002 -0.000001 0.000000 0.000000 -1.021291
    31 0.806016 -0.359832 -1.318335 1.349688 0.343495 -0.771452
    32 1.789782 0.000002 -0.000001 0.000000 0.000000 0.397501
    33 1.207000 -0.000003 0.000000 0.000000 0.000000 0.989035
    34 6.114871 -1.450001 -1.922837 -1.564198 -0.011689 -1.581440
    35 0.051129 3.122168 0.141700 0.000000 0.000000 1.570796
    36 0.000001 1.537869 5.938445 0.000000 -1.570796 0.000000
    37 0.000000 1.607461 -1.997381 0.000000 0.000000 0.000000
    38 0.000000 1.225112 -3.954163 0.000000 0.000000 0.000000
    39 3.820733 -1.409994 -0.589409 -1.564198 -0.011689 -1.581440
  time 10
    0 -0.002349 -0.531261 -29.431251 1.570796 0.000000 0.000000
    1 0.000005 3.345126 -2.981901 1.570796 0.086293 1.570796
    2 4.018332 0.000000 0.000000 0.000000 0.000000 -0.029242
    3 3.518572 0.000000 0.000000 0.000000 0.000000 0.100336
    4 8.942638 0.000001 0.000000 0.000000 0.000000 0.194096
    5 2.033349 1.000767 1.937660 1.596637 -1.286515 2.942961
    6 6.028142 0.000000 -0.000001 -1.579219 0.357992 -1.145041
    7 11.692554 -0.000002 0.000000 0.000000 0.000000 -1.541527
    8 11.481672 0.000000 -0.000031 1.573171 -0.028074 0.044380
    9 3.859705 -0.142405 -1.191976 -0.476795 0.134331 -0.965123
    10 1.312561 0.000000 0.000004 0.000000 0.000000 -0.279217
    11 0.729363 0.000002 -0.000004 0.000000 0.000000 -0.096881
    12 3.942328 0.046771 -0.431443 -0.145074 0.087435 -0.741658
    13 1.539093 0.000001 -0.000003 0.000000 0.000000 -0.309337
    14 1.196322 0.000000 0.000002 0.000000 0.000000 -0.521227
    15 3.883689 -0.046772 0.431443 0.085902 0.021830 -0.587867
    16 1.719575 0.000000 0.000000 0.000000 0.005516 -0.366479
    17 1.209184 0.000002 0.000000 0.000000 0.003084 -0.216399
    18 3.859862 -0.137947 1.332464 0.354449 -0.042750 -0.531718
    19 1.719428 0.000000 0.000003 0.000000 0.004074 -0.363009
    20 1.099666 -0.000001 -0.000002 0.000000 0.002596 -0.244330
    21 0.806047 -0.348922 1.321259 -1.166384 -0.626623 -0.921971
    22 1.789786 -0.000001 0.000001 0.000000 0.000000 0.189107
    23 1.206998 0.000003 0.000000 0.000000 0.000000 0.306017
    24 2.033356 1.000770 -1.937611 -1.668474 1.286518 2.942952
    25 6.028142 -0.000001 0.000000 1.466717 0.857451 -1.144447
    26 11.692551 -0.000001 0.000000 0.000000 0.000000 -0.924979
    27 11.481700 0.000002 0.000000 -1.450070 -0.539865 0.669701
    28 3.859826 -0.148935 -1.331284 -0.248840 0.263123 -0.072130
    29 1.719426 0.000000 -0.000001 -0.000003 0.000000 -0.676754
    30 1.099667 0.000002 -0.000001 0.000000 0.000000 -1.021291
    31 0.806016 -0.359832 -1.318335 1.349688 0.343495 -0.771452
    32 1.789782 0.000002 -0.000001 0.000000 0.000000 0.397501
    33 1.207000 -0.000003 0.000000 0.000000 0.000000 0.989035
    34 6.114871 -1.450001 -1.922837 -1.564198 -0.011689 -1.581440
    35 0.051129 3.122168 0.141700 0.000000 0.000000 1.570796
    36 0.000001 1.537869 5.938445 0.000000 -1.570796 0.000000
    37 0.000000 1.607461 -1.997381 0.000000 0.000000 0.000000
    38 0.000000 1.225112 -3.954163 0.000000 0.000000 0.000000
    39 3.820733 -1.409994 -0.589409 -1.564198 -0.011689 -1.581440
  time 11
    0 -0.002349 -0.531261 -29.431251 1.570796 0.000000 0.000000
    1 0.000005 3.345126 -2.981901 1.570796 0.086293 1.570796
    2 4.018332 0.000000 0.000000 0.000000 0.000000 -0.029242
    3 3.518572 0.000000 0.000000 0.000000 0.000000 0.100336
    4 8.942638 0.000001 0.000000 0.000000 0.000000 0.194096
    5 2.033349 1.000767 1.937660 1.596637 -1.286515 2.942961
    6 6.028142 0.000000 -0.000001 -1.579219 0.357992 -1.145041
    7 11.692554 -0.000002 0.000000 0.000000 0.000000 -1.541527
    8 11.481672 0.000000 -0.000031 1.573171 -0.028074 0.044380
    9 3.859705 -0.142405 -1.191976 -0.476795 0.134331 -0.965123
    10 1.312561 0.000000 0.000004 0.000000 0.000000 -0.279217
    11 0.729363 0.000002 -0.000004 0.000000 0.000000 -0.096881
    12 3.942328 0.046771 -0.431443 -0.145074 0.087435 -0.741658
    13 1.539093 0.000001 -0.000003 0.000000 0.000000 -0.309337
    14 1.196322 0.000000 0.000002 0.000000 0.000000 -0.521227
    15 3.883689 -0.046772 0.431443 0.085902 0.021830 -0.587867
    16 1.719575 0.000000 0.000000 0.000000 0.005516 -0.366479
    17 1.209184 0.000002 0.000000 0.000000 0.003084 -0.216399
    18 3.859862 -0.137947 1.332464 0.354449 -0.042750 -0.531718
    19 1.719428 0.000000 0.000003 0.000000 0.004074 -0.363009
    20 1.099666 -0.000001 -0.000002 0.000000 0.002596 -0.244330
    21 0.806047 -0.348922 1.321259 -1.166384 -0.626623 -0.921971
    22 1.789786 -0.000001 0.000001 0.000000 0.000000 0.189107
    23 1.206998 0.000003 0.000000 0.000000 0.000000 0.306017
    24 2.033356 1.000770 -1.937611 -1.668474 1.286518 2.942952
    25 6.028142 -0.000001 0.000000 1.475507 0.930212 -1.133417
    26 11.692551 -0.000001 0.000000 0.000000 0.000000 -0.880168
    27 11.481700 0.000002 0.000000 -1.401905 -0.516606 0.610500
    28 3.859826 -0.148935 -1.331284 -0.248840 0.263123 -0.072130
    29 1.719426 0.000000 -0.000001 -0.000003 0.000000 -0.676754
    30 1.099667 0.000002 -0.000001 0.000000 0.000000 -1.021291
    31 0.806016 -0.359832 -1.318335 1.349688 0.343495 -0.771452
    32 1.789782 0.000002 -0.000001 0.000000 0.000000 0.397501
    33 1.207000 -0.000003 0.000000 0.000000 0.000000 0.989035
    34 6.114871 -1.450001 -1.922837 -1.564198 -0.011689 -1.581440
    35 0.051129 3.122168 0.141700 0.000000 0.000000 1.570796
    36 0.000001 1.537869 5.938445 0.000000 -1.570796 0.000000
    37 0.000000 1.607461 -1.997381 0.000000 0.000000 0.000000
    38 0.000000 1.225112 -3.954163 0.000000 0.000000 0.000000
    39 3.820733 -1.409994 -0.589409 -1.564198 -0.011689 -1.581440
  time 12
    0 -0.002349 -0.531261 -29.431251 1.570796 0.000000 0.000000
    1 0.000005 3.345126 -2.981901 1.570796 0.086293 1.570796
    2 4.018332 0.000000 0.000000 0.000000 0.000000 -0.029242
    3 3.518572 0.000000 0.000000 0.000000 0.000000 0.100336
    4 8.942638 0.000001 0.000000 0.000000 0.000000 0.194096
    5 2.033349 1.000767 1.937660 1.596637 -1.286515 2.942961
    6 6.028142 0.000000 -0.000001 -1.579219 0.357992 -1.145041
    7 11.692554 -0.000002 0.000000 0.000000 0.000000 -1.541527
    8 11.481672 0.000000 -0.000031 1.573171 -0.028074 0.044380
    9 3.859705 -0.142405 -1.191976 -0.476795 0.134331 -0.965123
    10 1.312561 0.000000 0.000004 0.000000 0.000000 -0.279217
    11 0.729363 0.000002 -0.000004 0.000000 0.000000 -0.096881
    12 3.942328 0.046771 -0.431443 -0.145074 0.087435 -0.741658
    13 1.539093 0.000001 -0.000003 0.000000 0.000000 -0.309337
    14 1.196322 0.000000 0.000002 0.000000 0.000000 -0.521227
    15 3.883689 -0.046772 0.431443 0.085902 0.021830 -0.587867
    16 1.719575 0.000000 0.000000 0.000000 0.005516 -0.366479
    17 1.209184 0.000002 0.000000 0.000000 0.003084 -0.216399
    18 3.859862 -0.137947 1.332464 0.354449 -0.042750 -0.531718
    19 1.719428 0.000000 0.000003 0.000000 0.004074 -0.363009
    20 1.099666 -0.000001 -0.000002 0.000000 0.002596 -0.244330
    21 0.806047 -0.348922 1.321259 -1.166384 -0.626623 -0.921971
    22 1.789786 -0.000001 0.000001 0.000000 0.000000 0.189107
    23 1.206998 0.000003 0.000000 0.000000 0.000000 0.306017
    24 2.033356 1.000770 -1.937611 -1.668474 1.286518 2.942952
    25 6.028142 -0.000001 0.000000 1.485429 1.001450 -1.120436
    26 11.692551 -0.000001 0.000000 0.000000 0.000000 -0.831928
    27 11.481700 0.000002 0.000000 -1.351996 -0.481120 0.542548
    28 3.859826 -0.148935 -1.331284 -0.248840 0.263123 -0.072130
    29 1.719426 0.000000 -0.000001 -0.000003 0.000000 -0.676754
    30 1.099667 0.000002 -0.000001 0.000000 0.000000 -1.021291
    31 0.806016 -0.359832 -1.318335 1.349688 0.343495 -0.771452
    32 1.789782 0.000002 -0.000001 0.000000 0.000000 0.397501
    33 1.207000 -0.000003 0.000000 0.000000 0.000000 0.989035
    34 6.114871 -1.450001 -1.922837 -1.564198 -0.011689 -1.581440
    35 0.051129 3.122168 0.141700 0.000000 0.000000 1.570796
    36 0.000001 1.537869 5.938445 0.000000 -1.570796 0.000000
    37 0.000000 1.607461 -1.997381 0.000000 0.000000 0.000000
    38 0.000000 1.225112 -3.954163 0.000000 0.000000 0.000000
    39 3.820733 -1.409994 -0.589409 -1.564198 -0.011689 -1.581440
  time 13
    0 -0.002349 -0.531261 -29.431251 1.570796 0.000000 0.000000
    1 0.000005 3.345126 -2.981901 1.570796 0.086293 1.570796
    2 4.018332 0.000000 0.000000 0.000000 0.000000 -0.029242
    3 3.518572 0.000000 0.000000 0.000000 0.000000 0.100336
    4 8.942638 0.000001 0.000000 0.000000 0.000000 0.194096
    5 2.033349 1.000767 1.937660 1.596637 -1.286515 2.942961
    6 6.028142 0.000000 -0.000001 -1.579219 0.357992 -1.145041
    7 11.692554 -0.000002 0.000000 0.000000 0.000000 -1.541527
    8 11.481672 0.000000 -0.000031 1.573171 -0.028074 0.044380
    9 3.859705 -0.142405 -1.191976 -0.476795 0.134331 -0.965123
    10 1.312561 0.000000 0.000004 0.000000 0.000000 -0.279217
    11 0.729363 0.000002 -0.000004 0.000000 0.000000 -0.096881
    12 3.942328 0.046771 -0.431443 -0.145074 0.087435 -0.741658
    13 1.539093 0.000001 -0.000003 0.000000 0.000000 -0.309337
    14 1.196322 0.000000 0.000002 0.000000 0.000000 -0.521227
    15 3.883689 -0.046772 0.431443 0.085902 0.021830 -0.587867
    16 1.719575 0.000000 0.000000 0.000000 0.005516 -0.366479
    17 1.209184 0.000002 0.000000 0.000000 0.003084 -0.216399
    18 3.859862 -0.137947 1.332464 0.354449 -0.042750 -0.531718
    19 1.719428 0.000000 0.000003 0.000000 0.004074 -0.363009
    20 1.099666 -0.000001 -0.000002 0.000000 0.002596 -0.244330
    21 0.806047 -0.348922 1.321259 -1.166384 -0.626623 -0.921971
    22 1.789786 -0.000001 0.000001 0.000000 0.000000 0.189107
    23 1.206998 0.000003 0.000000 0.000000 0.000000 0.306017
    24 2.033356 1.000770 -1.937611 -1.668474 1.286518 2.942952
    25 6.028142 -0.000001 0.000000 1.496998 1.070793 -1.105016
    26 11.692551 -0.000001 0.000000 0.000000 0.000000 -0.780726
    27 11.481700 0.000002 0.000000 -1.305733 -0.431773 0.474770
    28 3.859826 -0.148935 -1.331284 -0.248840 0.263123 -0.072130
    29 1.719426 0.000000 -0.000001 -0.000003 0.000000 -0.676754
    30 1.099667 0.000002 -0.000001 0.000000 0.000000 -1.021291
    31 0.806016 -0.359832 -1.318335 1.349688 0.343495 -0.771452
    32 1.789782 0.000002 -0.000001 0.000000 0.000000 0.397501
    33 1.207000 -0.000003 0.000000 0.000000 0.000000 0.989035
    34 6.114871 -1.450001 -1.922837 -1.564198 -0.011689 -1.581440
    35 0.051129 3.122168 0.141700 0.000000 0.000000 1.570796
    36 0.000001 1.537869 5.938445 0.000000 -1.570796 0.000000
    37 0.000000 1.607461 -1.997381 0.000000 0.000000 0.000000
    38 0.000000 1.225112 -3.954163 0.000000 0.000000 0.000000
    39 3.820733 -1.409994 -0.589409 -1.564198 -0.011689 -1.581440
  time 14
    0 -0.002349 -0.531261 -29.431251 1.570796 0.000000 0.000000
    1 0.000005 3.345126 -2.981901 1.570796 0.086293 1.570796
    2 4.018332 0.000000 0.000000 0.000000 0.000000 -0.029242
    3 3.518572 0.000000 0.000000 0.000000 0.000000 0.100336
    4 8.942638 0.000001 0.000000 0.000000 0.000000 0.194096
    5 2.033349 1.000767 1.937660 1.596637 -1.286515 2.942961
    6 6.028142 0.000000 -0.000001 -1.579219 0.357992 -1.145041
    7 11.692554 -0.000002 0.000000 0.000000 0.000000 -1.541527
    8 11.481672 0.000000 -0.000031 1.573171 -0.028074 0.044380
    9 3.859705 -0.142405 -1.191976 -0.476795 0.134331 -0.965123
    10 1.312561 0.000000 0.000004 0.000000 0.000000 -0.279217
    11 0.729363 0.000002 -0.000004 0.000000 0.000000 -0.096881
    12 3.942328 0.046771 -0.431443 -0.145074 0.087435 -0.741658
    13 1.539093 0.000001 -0.000003 0.000000 0.000000 -0.309337
    14 1.196322 0.000000 0.000002 0.000000 0.000000 -0.521227
    15 3.883689 -0.046772 0.431443 0.085902 0.021830 -0.587867
    16 1.719575 0.000000 0.000000 0.000000 0.005516 -0.366479
    17 1.209184 0.000002 0.000000 0.000000 0.003084 -0.216399
    18 3.859862 -0.137947 1.332464 0.354449 -0.042750 -0.531718
    19 1.719428 0.000000 0.000003 0.000000 0.004074 -0.363009
    20 1.099666 -0.000001 -0.000002 0.000000 0.002596 -0.244330
    21 0.806047 -0.348922 1.321259 -1.166384 -0.626623 -0.921971
    22 1.789786 -0.000001 0.000001 0.000000 0.000000 0.189107
    23 1.206998 0.000003 0.000000 0.000000 0.000000 0.306017
    24 2.033356 1.000770 -1.937611 -1.668474 1.286518 2.942952
    25 6.028142 -0.000001 0.000000 1.511027 1.138053 -1.086483
    26 11.692551 -0.000001 0.000000 0.000000 0.000000 -0.726983
    27 11.481700 0.000002 0.000000 -1.266260 -0.370164 0.410621
    28 3.859826 -0.148935 -1.331284 -0.248840 0.263123 -0.072130
    29 1.719426 0.000000 -0.000001 -0.000003 0.000000 -0.676754
    30 1.099667 0.000002 -0.000001 0.000000 0.000000 -1.021291
    31 0.806016 -0.359832 -1.318335 1.349688 0.343495 -0.771452
    32 1.789782 0.000002 -0.000001 0.000000 0.000000 0.397501
    33 1.207000 -0.000003 0.000000 0.000000 0.000000 0.989035
    34 6.114871 -1.450001 -1.922837 -1.564198 -0.011689 -1.581440
    35 0.051129 3.122168 0.141700 0.000000 0.000000 1.570796
    36 0.000001 1.537869 5.938445 0.000000 -1.570796 0.000000
    37 0.000000 1.607461 -1.997381 0.000000 0.000000 0.000000
    38 0.000000 1.225112 -3.954163 0.000000 0.000000 0.000000
    39 3.820733 -1.409994 -0.589409 -1.564198 -0.011689 -1.581440
  time 15
    0 -0.002349 -0.531261 -29.431251 1.570796 0.000000 0.000000
    1 0.000005 3.345126 -2.981901 1.570796 0.086293 1.570796
    2 4.018332 0.000000 0.000000 0.000000 0.000000 -0.029242
    3 3.518572 0.000000 0.000000 0.000000 0.000000 0.100336
    4 8.942638 0.000001 0.000000 0.000000 0.000000 0.194096
    5 2.033349 1.000767 1.937660 1.596637 -1.286515 2.942961
    6 6.028142 0.000000 -0.000001 -1.579219 0.357992 -1.145041
    7 11.692554 -0.000002 0.000000 0.000000 0.000000 -1.541527
    8 11.481672 0.000000 -0.000031 1.573171 -0.028074 0.044380
    9 3.859705 -0.142405 -1.191976 -0.476795 0.134331 -0.965123
    10 1.312561 0.000000 0.000004 0.000000 0.000000 -0.279217
    11 0.729363 0.000002 -0.000004 0.000000 0.000000 -0.096881
    12 3.942328 0.046771 -0.431443 -0.145074 0.087435 -0.741658
    13 1.539093 0.000001 -0.000003 0.000000 0.000000 -0.309337
    14 1.196322 0.000000 0.000002 0.000000 0.000000 -0.521227
    15 3.883689 -0.046772 0.431443 0.085902 0.021830 -0.587867
    16 1.719575 0.000000 0.000000 0.000000 0.005516 -0.366479
    17 1.209184 0.000002 0.000000 0.000000 0.003084 -0.216399
    18 3.859862 -0.137947 1.332464 0.354449 -0.042750 -0.531718
    19 1.719428 0.000000 0.000003 0.000000 0.004074 -0.363009
    20 1.099666 -0.000001 -0.000002 0.000000 0.002596 -0.244330
    21 0.806047 -0.348922 1.321259 -1.166384 -0.626623 -0.921971
    22 1.789786 -0.000001 0.000001 0.000000 0.000000 0.189107
    23 1.206998 0.000003 0.000000 0.000000 0.000000 0.306017
    24 2.033356 1.000770 -1.937611 -1.668474 1.286518 2.942952
    25 6.028142 -0.000001 0.000000 1.528925 1.202391 -1.063522
    26 11.692551 -0.000001 0.000000 0.000000 0.000000 -0.672303
    27 11.481700 0.000002 0.000000 -1.235717 -0.299648 0.351896
    28 3.859826 -0.148935 -1.331284 -0.248840 0.263123 -0.072130
    29 1.719426 0.000000 -0.000001 -0.000003 0.000000 -0.676754
    30 1.099667 0.000002 -0.000001 0.000000 0.000000 -1.021291
    31 0.806016 -0.359832 -1.318335 1.349688 0.343495 -0.771452
    32 1.789782 0.000002 -0.000001 0.000000 0.000000 0.397501
    33 1.207000 -0.000003 0.000000 0.000000 0.000000 0.989035
    34 6.114871 -1.450001 -1.922837 -1.564198 -0.011689 -1.581440
    35 0.051129 3.122168 0.141700 0.000000 0.000000 1.570796
    36 0.000001 1.537869 5.938445 0.000000 -1.570796 0.000000
    37 0.000000 1.607461 -1.997381 0.000000 0.000000 0.000000
    38 0.000000 1.225112 -3.954163 0.000000 0.000000 0.000000
    39 3.820733 -1.409994 -0.589409 -1.564198 -0.011689 -1.581440
  time 16
    0 -0.002349 -0.531261 -29.431251 1.570796 0.000000 0.000000
    1 0.000005 3.345126 -2.981901 1.570796 0.086293 1.570796
    2 4.018332 0.000000 0.000000 0.000000 0.000000 -0.029242
    3 3.518572 0.000000 0.000000 0.000000 0.000000 0.100336
    4 8.942638 0.000001 0.000000 0.000000 0.000000 0.194096
    5 2.033349 1.000767 1.937660 1.596637 -1.286515 2.942961
    6 6.028142 0.000000 -0.000001 -1.579219 0.357992 -1.145041
    7 11.692554 -0.000002 0.000000 0.000000 0.000000 -1.541527
    8 11.481672 0.000000 -0.000031 1.573171 -0.028074 0.044380
    9 3.859705 -0.142405 -1.191976 -0.476795 0.134331 -0.965123
    10 1.312561 0.000000 0.000004 0.000000 0.000000 -0.279217
    11 0.729363 0.000002 -0.000004 0.000000 0.000000 -0.096881
    12 3.942328 0.046771 -0.431443 -0.145074 0.087435 -0.741658
    13 1.539093 0.000001 -0.000003 0.000000 0.000000 -0.309337
    14 1.196322 0.000000 0.000002 0.000000 0.000000 -0.521227
    15 3.883689 -0.046772 0.431443 0.085902 0.021830 -0.587867
    16 1.719575 0.000000 0.000000 0.000000 0.005516 -0.366479
    17 1.209184 0.000002 0.000000 0.000000 0.003084 -0.216399
    18 3.859862 -0.137947 1.332464 0.354449 -0.042750 -0.531718
    19 1.719428 0.000000 0.000003 0.000000 0.004074 -0.363009
    20 1.099666 -0.000001 -0.000002 0.000000 0.002596 -0.244330
    21 0.806047 -0.348922 1.321259 -1.166384 -0.626623 -0.921971
    22 1.789786 -0.000001 0.000001 0.000000 0.000000 0.189107
    23 1.206998 0.000003 0.000000 0.000000 0.000000 0.306017
    24 2.033356 1.000770 -1.937611 -1.668474 1.286518 2.942952
    25 6.028142 -0.000001 0.000000 1.552856 1.262968 -1.034108
    26 11.692551 -0.000001 0.000000 0.000000 0.000000 -0.618634
    27 11.481700 0.000002 0.000000 -1.215082 -0.224845 0.299220
    28 3.859826 -0.148935 -1.331284 -0.248840 0.263123 -0.072130
    29 1.719426 0.000000 -0.000001 -0.000003 0.000000 -0.676754
    30 1.099667 0.000002 -0.000001 0.000000 0.000000 -1.021291
    31 0.806016 -0.359832 -1.318335 1.349688 0.343495 -0.771452
    32 1.789782 0.000002 -0.000001 0.000000 0.000000 0.397501
    33 1.207000 -0.000003 0.000000 0.000000 0.000000 0.989035
    34 6.114871 -1.450001 -1.922837 -1.564198 -0.011689 -1.581440
    35 0.051129 3.122168 0.141700 0.000000 0.000000 1.570796
    36 0.000001 1.537869 5.938445 0.000000 -1.570796 0.000000
    37 0.000000 1.607461 -1.997381 0.000000 0.000000 0.000000
    38 0.000000 1.225112 -3.954163 0.000000 0.000000 0.000000
    39 3.820733 -1.409994 -0.589409 -1.564198 -0.011689 -1.581440
  time 17
    0 -0.002349 -0.531261 -29.431251 1.570796 0.000000 0.000000
    1 0.000005 3.345126 -2.981901 1.570796 0.086293 1.570796
    2 4.018332 0.000000 0.000000 0.000000 0.000000 -0.029242
    3 3.518572 0.000000 0.000000 0.000000 0.000000 0.100336
    4 8.942638 0.000001 0.000000 0.000000 0.000000 0.194096
    5 2.033349 1.000767 1.937660 1.596637 -1.286515 2.942961
    6 6.028142 0.000000 -0.000001 -1.579219 0.357992 -1.145041
    7 11.692554 -0.000002 0.000000 0.000000 0.000000 -1.541527
    8 11.481672 0.000000 -0.000031 1.573171 -0.028074 0.044380
    9 3.859705 -0.142405 -1.191976 -0.476795 0.134331 -0.965123
    10 1.312561 0.000000 0.000004 0.000000 0.000000 -0.279217
    11 0.729363 0.000002 -0.000004 0.000000 0.000000 -0.096881
    12 3.942328 0.046771 -0.431443 -0.145074 0.087435 -0.741658
    13 1.539093 0.000001 -0.000003 0.000000 0.000000 -0.309337
    14 1.196322 0.000000 0.000002 0.000000 0.000000 -0.521227
    15 3.883689 -0.046772 0.431443 0.085902 0.021830 -0.587867
    16 1.719575 0.000000 0.000000 0.000000 0.005516 -0.366479
    17 1.209184 0.000002 0.000000 0.000000 0.003084 -0.216399
    18 3.859862 -0.137947 1.332464 0.354449 -0.042750 -0.531718
    19 1.719428 0.000000 0.000003 0.000000 0.004074 -0.363009
    20 1.099666 -0.000001 -0.000002 0.000000 0.002596 -0.244330
    21 0.806047 -0.348922 1.321259 -1.166384 -0.626623 -0.921971
    22 1.789786 -0.000001 0.000001 0.000000 0.000000 0.189107
    23 1.206998 0.000003 0.000000 0.000000 0.000000 0.306017
    24 2.033356 1.000770 -1.937611 -1.668474 1.286518 2.942952
    25 6.028142 -0.000001 0.000000 1.584824 1.318697 -0.996477
    26 11.692551 -0.000001 0.000000 0.000000 0.000000 -0.566421
    27 11.481700 0.000002 0.000000 -1.204382 -0.151290 0.252594
    28 3.859826 -0.148935 -1.331284 -0.248840 0.263123 -0.072130
    29 1.719426 0.000000 -0.000001 -0.000003 0.000000 -0.676754
    30 1.099667 0.000002 -0.000001 0.000000 0.000000 -1.021291
    31 0.806016 -0.359832 -1.318335 1.349688 0.343495 -0.771452
    32 1.789782 0.000002 -0.000001 0.000000 0.000000 0.397501
    33 1.207000 -0.000003 0.000000 0.000000 0.000000 0.989035
    34 6.114871 -1.450001 -1.922837 -1.564198 -0.011689 -1.581440
    35 0.051129 3.122168 0.141700 0.000000 0.000000 1.570796
    36 0.000001 1.537869 5.938445 0.000000 -1.570796 0.000000
    37 0.000000 1.607461 -1.997381 0.000000 0.000000 0.000000
    38 0.000000 1.225112 -3.954163 0.000000 0.000000 0.000000
    39 3.820733 -1.409994 -0.589409 -1.564198 -0.011689 -1.581440
  time 18
    0 -0.002349 -0.531261 -29.431251 1.570796 0.000000 0.000000
    1 0.000005 3.345126 -2.981901 1.570796 0.086293 1.570796
    2 4.018332 0.000000 0.000000 0.000000 0.000000 -0.029242
    3 3.518572 0.000000 0.000000 0.000000 0.000000 0.100336
    4 8.942638 0.000001 0.000000 0.000000 0.000000 0.194096
    5 2.033349 1.000767 1.937660 1.596637 -1.286515 2.942961
    6 6.028142 0.000000 -0.000001 -1.579219 0.357992 -1.145041
    7 11.692554 -0.000002 0.000000 0.000000 0.000000 -1.541527
    8 11.481672 0.000000 -0.000031 1.573171 -0.028074 0.044380
    9 3.859705 -0.142405 -1.191976 -0.476795 0.134331 -0.965123
    10 1.312561 0.000000 0.000004 0.000000 0.000000 -0.279217
    11 0.729363 0.000002 -0.000004 0.000000 0.000000 -0.096881
    12 3.942328 0.046771 -0.431443 -0.145074 0.087435 -0.741658
    13 1.539093 0.000001 -0.000003 0.000000 0.000000 -0.309337
    14 1.196322 0.000000 0.000002 0.000000 0.000000 -0.521227
    15 3.883689 -0.046772 0.431443 0.085902 0.021830 -0.587867
    16 1.719575 0.000000 0.000000 0.000000 0.005516 -0.366479
    17 1.209184 0.000002 0.000000 0.000000 0.003084 -0.216399
    18 3.859862 -0.137947 1.332464 0.354449 -0.042750 -0.531718
    19 1.719428 0.000000 0.000003 0.000000 0.004074 -0.363009
    20 1.099666 -0.000001 -0.000002 0.000000 0.002596 -0.244330
    21 0.806047 -0.348922 1.321259 -1.166384 -0.626623 -0.921971
    22 1.789786 -0.000001 0.000001 0.000000 0.000000 0.189107
    23 1.206998 0.000003 0.000000 0.000000 0.000000 0.306017
    24 2.033356 1.000770 -1.937611 -1.668474 1.286518 2.942952
    25 6.028142 -0.000001 0.000000 1.626594 1.367868 -0.949393
    26 11.692551 -0.000001 0.000000 0.000000 0.000000 -0.516749
    27 11.481700 0.000002 0.000000 -1.202744 -0.084727 0.211888
    28 3.859826 -0.148935 -1.331284 -0.248840 0.263123 -0.072130
    29 1.719426 0.000000 -0.000001 -0.000003 0.000000 -0.676754
    30 1.099667 0.000002 -0.000001 0.000000 0.000000 -1.021291
    31 0.806016 -0.359832 -1.318335 1.349688 0.343495 -0.771452
    32 1.789782 0.000002 -0.000001 0.000000 0.000000 0.397501
    33 1.207000 -0.000003 0.000000 0.000000 0.000000 0.989035
    34 6.114871 -1.450001 -1.922837 -1.564198 -0.011689 -1.581440
    35 0.051129 3.122168 0.141700 0.000000 0.000000 1.570796
    36 0.000001 1.537869 5.938445 0.000000 -1.570796 0.000000
    37 0.000000 1.607461 -1.997381 0.000000 0.000000 0.000000
    38 0.000000 1.225112 -3.954163 0.000000 0.000000 0.000000
    39 3.820733 -1.409994 -0.589409 -1.564198 -0.011689 -1.581440
  time 19
    0 -0.002349 -0.531261 -29.431251 1.570796 0.000000 0.000000
    1 0.000005 3.345126 -2.981901 1.570796 0.086293 1.570796
    2 4.018332 0.000000 0.000000 0.000000 0.000000 -0.029242
    3 3.518572 0.000000 0.000000 0.000000 0.000000 0.100336
    4 8.942638 0.000001 0.000000 0.000000 0.000000 0.194096
    5 2.033349 1.000767 1.937660 1.596637 -1.286515 2.942961
    6 6.028142 0.000000 -0.000001 -1.579219 0.357992 -1.145041
    7 11.692554 -0.000002 0.000000 0.000000 0.000000 -1.541527
    8 11.481672 0.000000 -0.000031 1.573171 -0.028074 0.044380
    9 3.859705 -0.142405 -1.191976 -0.476795 0.134331 -0.965123
    10 1.312561 0.000000 0.000004 0.000000 0.000000 -0.279217
    11 0.729363 0.000002 -0.000004 0.000000 0.000000 -0.096881
    12 3.942328 0.046771 -0.431443 -0.145074 0.087435 -0.741658
    13 1.539093 0.000001 -0.000003 0.000000 0.000000 -0.309337
    14 1.196322 0.000000 0.000002 0.000000 0.000000 -0.521227
    15 3.883689 -0.046772 0.431443 0.085902 0.021830 -0.587867
    16 1.719575 0.000000 0.000000 0.000000 0.005516 -0.366479
    17 1.209184 0.000002 0.000000 0.000000 0.003084 -0.216399
    18 3.859862 -0.137947 1.332464 0.354449 -0.042750 -0.531718
    19 1.719428 0.000000 0.000003 0.000000 0.004074 -0.363009
    20 1.099666 -0.000001 -0.000002 0.000000 0.002596 -0.244330
    21 0.806047 -0.348922 1.321259 -1.166384 -0.626623 -0.921971
    22 1.789786 -0.000001 0.000001 0.000000 0.000000 0.189107
    23 1.206998 0.000003 0.000000 0.000000 0.000000 0.306017
    24 2.033356 1.000770 -1.937611 -1.668474 1.286518 2.942952
    25 6.028142 -0.000001 0.000000 1.681481 1.409672 -0.889777
    26 11.692551 -0.000001 0.000000 0.000000 0.000000 -0.471445
    27 11.481700 0.000002 0.000000 -1.208583 -0.030532 0.177491
    28 3.859826 -0.148935 -1.331284 -0.248840 0.263123 -0.072130
    29 1.719426 0.000000 -0.000001 -0.000003 0.000000 -0.676754
    30 1.099667 0.000002 -0.000001 0.000000 0.000000 -1.021291
    31 0.806016 -0.359832 -1.318335 1.349688 0.343495 -0.771452
    32 1.789782 0.000002 -0.000001 0.000000 0.000000 0.397501
    33 1.207000 -0.000003 0.000000 0.000000 0.000000 0.989035
    34 6.114871 -1.450001 -1.922837 -1.564198 -0.011689 -1.581440
    35 0.051129 3.122168 0.141700 0.000000 0.000000 1.570796
    36 0.000001 1.537869 5.938445 0.000000 -1.570796 0.000000
    37 0.000000 1.607461 -1.997381 0.000000 0.000000 0.000000
    38 0.000000 1.225112 -3.954163 0.000000 0.000000 0.000000
    39 3.820733 -1.409994 -0.589409 -1.564198 -0.011689 -1.581440
  time 20
    0 -0.002349 -0.531261 -29.431251 1.570796 0.000000 0.000000
    1 0.000005 3.345126 -2.981901 1.570796 0.086293 1.570796
    2 4.018332 0.000000 0.000000 0.000000 0.000000 -0.029242
    3 3.518572 0.000000 0.000000 0.000000 0.000000 0.100336
    4 8.942638 0.000001 0.000000 0.000000 0.000000 0.194096
    5 2.033349 1.000767 1.937660 1.596637 -1.286515 2.942961
    6 6.028142 0.000000 -0.000001 -1.579219 0.357992 -1.145041
    7 11.692554 -0.000002 0.000000 0.000000 0.000000 -1.541527
    8 11.481672 0.000000 -0.000031 1.573171 -0.028074 0.044380
    9 3.859705 -0.142405 -1.191976 -0.476795 0.134331 -0.965123
    10 1.312561 0.000000 0.000004 0.000000 0.000000 -0.279217
    11 0.729363 0.000002 -0.000004 0.000000 0.000000 -0.096881
    12 3.942328 0.046771 -0.431443 -0.145074 0.087435 -0.741658
    13 1.539093 0.000001 -0.000003 0.000000 0.000000 -0.309337
    14 1.196322 0.000000 0.000002 0.000000 0.000000 -0.521227
    15 3.883689 -0.046772 0.431443 0.085902 0.021830 -0.587867
    16 1.719575 0.000000 0.000000 0.000000 0.005516 -0.366479
    17 1.209184 0.000002 0.000000 0.000000 0.003084 -0.216399
    18 3.859862 -0.137947 1.332464 0.354449 -0.042750 -0.531718
    19 1.719428 0.000000 0.000003 0.000000 0.004074 -0.363009
    20 1.099666 -0.000001 -0.000002 0.000000 0.002596 -0.244330
    21 0.806047 -0.348922 1.321259 -1.166384 -0.626623 -0.921971
    22 1.789786 -0.000001 0.000001 0.000000 0.000000 0.189107
    23 1.206998 0.000003 0.000000 0.000000 0.000000 0.306017
    24 2.033356 1.000770 -1.937611 -1.668474 1.286518 2.942952
    25 6.028142 -0.000001 0.000000 1.752103 1.443519 -0.815154
    26 11.692551 -0.000001 0.000000 0.000000 0.000000 -0.432112
    27 11.481700 0.000002 0.000000 -1.219732 0.006799 0.151369
    28 3.859826 -0.148935 -1.331284 -0.248840 0.263123 -0.072130
    29 1.719426 0.000000 -0.000001 -0.000003 0.000000 -0.676754
    30 1.099667 0.000002 -0.000001 0.000000 0.000000 -1.021291
    31 0.806016 -0.359832 -1.318335 1.349688 0.343495 -0.771452
    32 1.789782 0.000002 -0.000001 0.000000 0.000000 0.397501
    33 1.207000 -0.000003 0.000000 0.000000 0.000000 0.989035
    34 6.114871 -1.450001 -1.922837 -1.564198 -0.011689 -1.581440
    35 0.051129 3.122168 0.141700 0.000000 0.000000 1.570796
    36 0.000001 1.537869 5.938445 0.000000 -1.570796 0.000000
    37 0.000000 1.607461 -1.997381 0.000000 0.000000 0.000000
    38 0.000000 1.225112 -3.954163 0.000000 0.000000 0.000000
    39 3.820733 -1.409994 -0.589409 -1.564198 -0.011689 -1.581440
  time 21
    0 -0.002349 -0.531261 -29.431251 1.570796 0.000000 0.000000
    1 0.000005 3.345126 -2.981901 1.570796 0.086293 1.570796
    2 4.018332 0.000000 0.000000 0.000000 0.000000 -0.029242
    3 3.518572 0.000000 0.000000 0.000000 0.000000 0.100336
    4 8.942638 0.000001 0.000000 0.000000 0.000000 0.194096
    5 2.033349 1.000767 1.937660 1.596637 -1.286515 2.942961
    6 6.028142 0.000000 -0.000001 -1.579219 0.357992 -1.145041
    7 11.692554 -0.000002 0.000000 0.000000 0.000000 -1.541527
    8 11.481672 0.000000 -0.000031 1.573171 -0.028074 0.044380
    9 3.859705 -0.142405 -1.191976 -0.476795 0.134331 -0.965123
    10 1.312561 0.000000 0.000004 0.000000 0.000000 -0.279217
    11 0.729363 0.000002 -0.000004 0.000000 0.000000 -0.096881
    12 3.942328 0.046771 -0.431443 -0.145074 0.087435 -0.741658
    13 1.539093 0.000001 -0.000003 0.000000 0.000000 -0.309337
    14 1.196322 0.000000 0.000002 0.000000 0.000000 -0.521227
    15 3.883689 -0.046772 0.431443 0.085902 0.021830 -0.587867
    16 1.719575 0.000000 0.000000 0.000000 0.005516 -0.366479
    17 1.209184 0.000002 0.000000 0.000000 0.003084 -0.216399
    18 3.859862 -0.137947 1.332464 0.354449 -0.042750 -0.531718
    19 1.719428 0.000000 0.000003 0.000000 0.004074 -0.363009
    20 1.099666 -0.000001 -0.000002 0.000000 0.002596 -0.244330
    21 0.806047 -0.348922 1.321259 -1.166384 -0.626623 -0.921971
    22 1.789786 -0.000001 0.000001 0.000000 0.000000 0.189107
    23 1.206998 0.000003 0.000000 0.000000 0.000000 0.306017
    24 2.033356 1.000770 -1.937611 -1.668474 1.286518 2.942952
    25 6.028142 -0.000001 0.000000 1.837488 1.469224 -0.726649
    26 11.692551 -0.000001 0.000000 0.000000 0.000000 -0.399862
    27 11.481700 0.000002 0.000000 -1.233736 0.024103 0.139291
    28 3.859826 -0.148935 -1.331284 -0.248840 0.263123 -0.072130
    29 1.719426 0.000000 -0.000001 -0.000003 0.000000 -0.676754
    30 1.099667 0.000002 -0.000001 0.000000 0.000000 -1.021291
    31 0.806016 -0.359832 -1.318335 1.349688 0.343495 -0.771452
    32 1.789782 0.000002 -0.000001 0.000000 0.000000 0.397501
    33 1.207000 -0.000003 0.000000 0.000000 0.000000 0.989035
    34 6.114871 -1.450001 -1.922837 -1.564198 -0.011689 -1.581440
    35 0.051129 3.122168 0.141700 0.000000 0.000000 1.570796
    36 0.000001 1.537869 5.938445 0.000000 -1.570796 0.000000
    37 0.000000 1.607461 -1.997381 0.000000 0.000000 0.000000
    38 0.000000 1.225112 -3.954163 0.000000 0.000000 0.000000
    39 3.820733 -1.409994 -0.589409 -1.564198 -0.011689 -1.581440
  time 22
    0 -0.002349 -0.531261 -29.431251 1.570796 0.000000 0.000000
    1 0.000005 3.345126 -2.981901 1.570796 0.086293 1.570796
    2 4.018332 0.000000 0.000000 0.000000 0.000000 -0.029242
    3 3.518572 0.000000 0.000000 0.000000 0.000000 0.100336
    4 8.942638 0.000001 0.000000 0.000000 0.000000 0.194096
    5 2.033349 1.000767 1.937660 1.596637 -1.286515 2.942961
    6 6.028142 0.000000 -0.000001 -1.579219 0.357992 -1.145041
    7 11.692554 -0.000002 0.000000 0.000000 0.000000 -1.541527
    8 11.481672 0.000000 -0.000031 1.573171 -0.028074 0.044380
    9 3.859705 -0.142405 -1.191976 -0.476795 0.134331 -0.965123
    10 1.312561 0.000000 0.000004 0.000000 0.000000 -0.279217
    11 0.729363 0.000002 -0.000004 0.000000 0.000000 -0.096881
    12 3.942328 0.046771 -0.431443 -0.145074 0.087435 -0.741658
    13 1.539093 0.000001 -0.000003 0.000000 0.000000 -0.309337
    14 1.196322 0.000000 0.000002 0.000000 0.000000 -0.521227
    15 3.883689 -0.046772 0.431443 0.085902 0.021830 -0.587867
    16 1.719575 0.000000 0.000000 0.000000 0.005516 -0.366479
    17 1.209184 0.000002 0.000000 0.000000 0.003084 -0.216399
    18 3.859862 -0.137947 1.332464 0.354449 -0.042750 -0.531718
    19 1.719428 0.000000 0.000003 0.000000 0.004074 -0.363009
    20 1.099666 -0.000001 -0.000002 0.000000 0.002596 -0.244330
    21 0.806047 -0.348922 1.321259 -1.166384 -0.626623 -0.921971
    22 1.789786 -0.000001 0.000001 0.000000 0.000000 0.189107
    23 1.206998 0.000003 0.000000 0.000000 0.000000 0.306017
    24 2.033356 1.000770 -1.937611 -1.668474 1.286518 2.942952
    25 6.028142 -0.000001 0.000000 1.928946 1.487157 -0.633043
    26 11.692551 -0.000001 0.000000 0.000000 0.000000 -0.374940
    27 11.481700 0.000002 0.000000 -1.248267 0.027142 0.140436
    28 3.859826 -0.148935 -1.331284 -0.248840 0.263123 -0.072130
    29 1.719426 0.000000 -0.000001 -0.000003 0.000000 -0.676754
    30 1.099667 0.000002 -0.000001 0.000000 0.000000 -1.021291
    31 0.806016 -0.359832 -1.318335 1.349688 0.343495 -0.771452
    32 1.789782 0.000002 -0.000001 0.000000 0.000000 0.397501
    33 1.207000 -0.000003 0.000000 0.000000 0.000000 0.989035
    34 6.114871 -1.450001 -1.922837 -1.564198 -0.011689 -1.581440
    35 0.051129 3.122168 0.141700 0.000000 0.000000 1.570796
    36 0.000001 1.537869 5.938445 0.000000 -1.570796 0.000000
    37 0.000000 1.607461 -1.997381 0.000000 0.000000 0.000000
    38 0.000000 1.225112 -3.954163 0.000000 0.000000 0.000000
    39 3.820733 -1.409994 -0.589409 -1.564198 -0.011689 -1.581440
  time 23
    0 -0.002349 -0.531261 -29.431251 1.570796 0.000000 0.000000
    1 0.000005 3.345126 -2.981901 1.570796 0.086293 1.570796
    2 4.018332 0.000000 0.000000 0.000000 0.000000 -0.029242
    3 3.518572 0.000000 0.000000 0.000000 0.000000 0.100336
    4 8.942638 0.000001 0.000000 0.000000 0.000000 0.194096
    5 2.033349 1.000767 1.937660 1.596637 -1.286515 2.942961
    6 6.028142 0.000000 -0.000001 -1.579219 0.357992 -1.145041
    7 11.692554 -0.000002 0.000000 0.000000 0.000000 -1.541527
    8 11.481672 0.000000 -0.000031 1.573171 -0.028074 0.044380
    9 3.859705 -0.142405 -1.191976 -0.476795 0.134331 -0.965123
    10 1.312561 0.000000 0.000004 0.000000 0.000000 -0.279217
    11 0.729363 0.000002 -0.000004 0.000000 0.000000 -0.096881
    12 3.942328 0.046771 -0.431443 -0.145074 0.087435 -0.741658
    13 1.539093 0.000001 -0.000003 0.000000 0.000000 -0.309337
    14 1.196322 0.000000 0.000002 0.000000 0.000000 -0.521227
    15 3.883689 -0.046772 0.431443 0.085902 0.021830 -0.587867
    16 1.719575 0.000000 0.000000 0.000000 0.005516 -0.366479
    17 1.209184 0.000002 0.000000 0.000000 0.003084 -0.216399
    18 3.859862 -0.137947 1.332464 0.354449 -0.042750 -0.531718
    19 1.719428 0.000000 0.000003 0.000000 0.004074 -0.363009
    20 1.099666 -0.000001 -0.000002 0.000000 0.002596 -0.244330
    21 0.806047 -0.348922 1.321259 -1.166384 -0.626623 -0.921971
    22 1.789786 -0.000001 0.000001 0.000000 0.000000 0.189107
    23 1.206998 0.000003 0.000000 0.000000 0.000000 0.306017
    24 2.033356 1.000770 -1.937611 -1.668474 1.286518 2.942952
    25 6.028142 -0.000001 0.000000 2.011018 1.498689 -0.549753
    26 11.692551 -0.000001 0.000000 0.000000 0.000000 -0.356482
    27 11.481700 0.000002 0.000000 -1.261847 0.026492 0.145384
    28 3.859826 -0.148935 -1.331284 -0.248840 0.263123 -0.072130
    29 1.719426 0.000000 -0.000001 -0.000003 0.000000 -0.676754
    30 1.099667 0.000002 -0.000001 0.000000 0.000000 -1.021291
    31 0.806016 -0.359832 -1.318335 1.349688 0.343495 -0.771452
    32 1.789782 0.000002 -0.000001 0.000000 0.000000 0.397501
    33 1.207000 -0.000003 0.000000 0.000000 0.000000 0.989035
    34 6.114871 -1.450001 -1.922837 -1.564198 -0.011689 -1.581440
    35 0.051129 3.122168 0.141700 0.000000 0.000000 1.570796
    36 0.000001 1.537869 5.938445 0.000000 -1.570796 0.000000
    37 0.000000 1.607461 -1.997381 0.000000 0.000000 0.000000
    38 0.000000 1.225112 -3.954163 0.000000 0.000000 0.000000
    39 3.820733 -1.409994 -0.589409 -1.564198 -0.011689 -1.581440
  time 24
    0 -0.002349 -0.531261 -29.431251 1.570796 0.000000 0.000000
    1 0.000005 3.345126 -2.981901 1.570796 0.086293 1.570796
    2 4.018332 0.000000 0.000000 0.000000 0.000000 -0.029242
    3 3.518572 0.000000 0.000000 0.000000 0.000000 0.100336
    4 8.942638 0.000001 0.000000 0.000000 0.000000 0.194096
    5 2.033349 1.000767 1.937660 1.596637 -1.286515 2.942961
    6 6.028142 0.000000 -0.000001 -1.579219 0.357992 -1.145041
    7 11.692554 -0.000002 0.000000 0.000000 0.000000 -1.541527
    8 11.481672 0.000000 -0.000031 1.573171 -0.028074 0.044380
    9 3.859705 -0.142405 -1.191976 -0.476795 0.134331 -0.965123
    10 1.312561 0.000000 0.000004 0.000000 0.000000 -0.279217
    11 0.729363 0.000002 -0.000004 0.000000 0.000000 -0.096881
    12 3.942328 0.046771 -0.431443 -0.145074 0.087435 -0.741658
    13 1.539093 0.000001 -0.000003 0.000000 0.000000 -0.309337
    14 1.196322 0.000000 0.000002 0.000000 0.000000 -0.521227
    15 3.883689 -0.046772 0.431443 0.085902 0.021830 -0.587867
    16 1.719575 0.000000 0.000000 0.000000 0.005516 -0.366479
    17 1.209184 0.000002 0.000000 0.000000 0.003084 -0.216399
    18 3.859862 -0.137947 1.332464 0.354449 -0.042750 -0.531718
    19 1.719428 0.000000 0.000003 0.000000 0.004074 -0.363009
    20 1.099666 -0.000001 -0.000002 0.000000 0.002596 -0.244330
    21 0.806047 -0.348922 1.321259 -1.166384 -0.626623 -0.921971
    22 1.789786 -0.000001 0.000001 0.000000 0.000000 0.189107
    23 1.206998 0.000003 0.000000 0.000000 0.000000 0.306017
    24 2.033356 1.000770 -1.937611 -1.668474 1.286518 2.942952
    25 6.028142 -0.000001 0.000000 2.073147 1.505899 -0.487061
    26 11.692551 -0.000001 0.000000 0.000000 0.000000 -0.342393
    27 11.481700 0.000002 0.000000 -1.273658 0.024103 0.153249
    28 3.859826 -0.148935 -1.331284 -0.248840 0.263123 -0.072130
    29 1.719426 0.000000 -0.000001 -0.000003 0.000000 -0.676754
    30 1.099667 0.000002 -0.000001 0.000000 0.000000 -1.021291
    31 0.806016 -0.359832 -1.318335 1.349688 0.343495 -0.771452
    32 1.789782 0.000002 -0.000001 0.000000 0.000000 0.397501
    33 1.207000 -0.000003 0.000000 0.000000 0.000000 0.989035
    34 6.114871 -1.450001 -1.922837 -1.564198 -0.011689 -1.581440
    35 0.051129 3.122168 0.141700 0.000000 0.000000 1.570796
    36 0.000001 1.537869 5.938445 0.000000 -1.570796 0.000000
    37 0.000000 1.607461 -1.997381 0.000000 0.000000 0.000000
    38 0.000000 1.225112 -3.954163 0.000000 0.000000 0.000000
    39 3.820733 -1.409994 -0.589409 -1.564198 -0.011689 -1.581440
  time 25
    0 -0.002349 -0.531261 -29.431251 1.570796 0.000000 0.000000
    1 0.000005 3.345126 -2.981901 1.570796 0.086293 1.570796
    2 4.018332 0.000000 0.000000 0.000000 0.000000 -0.029242
    3 3.518572 0.000000 0.000000 0.000000 0.000000 0.100336
    4 8.942638 0.000001 0.000000 0.000000 0.000000 0.194096
    5 2.033349 1.000767 1.937660 1.596637 -1.286515 2.942961
    6 6.028142 0.000000 -0.000001 -1.579219 0.357992 -1.145041
    7 11.692554 -0.000002 0.000000 0.000000 0.000000 -1.541527
    8 11.481672 0.000000 -0.000031 1.573171 -0.028074 0.044380
    9 3.859705 -0.142405 -1.191976 -0.476795 0.134331 -0.965123
    10 1.312561 0.000000 0.000004 0.000000 0.000000 -0.279217
    11 0.729363 0.000002 -0.000004 0.000000 0.000000 -0.096881
    12 3.942328 0.046771 -0.431443 -0.145074 0.087435 -0.741658
    13 1.539093 0.000001 -0.000003 0.000000 0.000000 -0.309337
    14 1.196322 0.000000 0.000002 0.000000 0.000000 -0.521227
    15 3.883689 -0.046772 0.431443 0.085902 0.021830 -0.587867
    16 1.719575 0.000000 0.000000 0.000000 0.005516 -0.366479
    17 1.209184 0.000002 0.000000 0.000000 0.003084 -0.216399
    18 3.859862 -0.137947 1.332464 0.354449 -0.042750 -0.531718
    19 1.719428 0.000000 0.000003 0.000000 0.004074 -0.363009
    20 1.099666 -0.000001 -0.000002 0.000000 0.002596 -0.244330
    21 0.806047 -0.348922 1.321259 -1.166384 -0.626623 -0.921971
    22 1.789786 -0.000001 0.000001 0.000000 0.000000 0.189107
    23 1.206998 0.000003 0.000000 0.000000 0.000000 0.306017
    24 2.033356 1.000770 -1.937611 -1.668474 1.286518 2.942952
    25 6.028142 -0.000001 0.000000 2.124561 1.511339 -0.435549
    26 11.692551 -0.000001 0.000000 0.000000 0.000000 -0.329562
    27 11.481700 0.000002 0.000000 -1.282377 0.020853 0.163015
    28 3.859826 -0.148935 -1.331284 -0.248840 0.263123 -0.072130
    29 1.719426 0.000000 -0.000001 -0.000003 0.000000 -0.676754
    30 1.099667 0.000002 -0.000001 0.000000 0.000000 -1.021291
    31 0.806016 -0.359832 -1.318335 1.349688 0.343495 -0.771452
    32 1.789782 0.000002 -0.000001 0.000000 0.000000 0.397501
    33 1.207000 -0.000003 0.000000 0.000000 0.000000 0.989035
    34 6.114871 -1.450001 -1.922837 -1.564198 -0.011689 -1.581440
    35 0.051129 3.122168 0.141700 0.000000 0.000000 1.570796
    36 0.000001 1.537869 5.938445 0.000000 -1.570796 0.000000
    37 0.000000 1.607461 -1.997381 0.000000 0.000000 0.000000
    38 0.000000 1.225112 -3.954163 0.000000 0.000000 0.000000
    39 3.820733 -1.409994 -0.589409 -1.564198 -0.011689 -1.581440
  time 26
    0 -0.002349 -0.531261 -29.431251 1.570796 0.000000 0.000000
    1 0.000005 3.345126 -2.981901 1.570796 0.086293 1.570796
    2 4.018332 0.000000 0.000000 0.000000 0.000000 -0.029242
    3 3.518572 0.000000 0.000000 0.000000 0.000000 0.100336
    4 8.942638 0.000001 0.000000 0.000000 0.000000 0.194096
    5 2.033349 1.000767 1.937660 1.596637 -1.286515 2.942961
    6 6.028142 0.000000 -0.000001 -1.579219 0.357992 -1.145041
    7 11.692554 -0.000002 0.000000 0.000000 0.000000 -1.541527
    8 11.481672 0.000000 -0.000031 1.573171 -0.028074 0.044380
    9 3.859705 -0.142405 -1.191976 -0.476795 0.134331 -0.965123
    10 1.312561 0.000000 0.000004 0.000000 0.000000 -0.279217
    11 0.729363 0.000002 -0.000004 0.000000 0.000000 -0.096881
    12 3.942328 0.046771 -0.431443 -0.145074 0.087435 -0.741658
    13 1.539093 0.000001 -0.000003 0.000000 0.000000 -0.309337
    14 1.196322 0.000000 0.000002 0.000000 0.000000 -0.521227
    15 3.883689 -0.046772 0.431443 0.085902 0.021830 -0.587867
    16 1.719575 0.000000 0.000000 0.000000 0.005516 -0.366479
    17 1.209184 0.000002 0.000000 0.000000 0.003084 -0.216399
    18 3.859862 -0.137947 1.332464 0.354449 -0.042750 -0.531718
    19 1.719428 0.000000 0.000003 0.000000 0.004074 -0.363009
    20 1.099666 -0.000001 -0.000002 0.000000 0.002596 -0.244330
    21 0.806047 -0.348922 1.321259 -1.166384 -0.626623 -0.921971
    22 1.789786 -0.000001 0.000001 0.000000 0.000000 0.189107
    23 1.206998 0.000003 0.000000 0.000000 0.000000 0.306017
    24 2.033356 1.000770 -1.937611 -1.668474 1.286518 2.942952
    25 6.028142 -0.000001 0.000000 2.202029 1.517679 -0.357887
    26 11.692551 -0.000001 0.000000 0.000000 0.000000 -0.314189
    27 11.481700 0.000002 0.000000 -1.286445 0.017252 0.173580
    28 3.859826 -0.148935 -1.331284 -0.248840 0.263123 -0.072130
    29 1.719426 0.000000 -0.000001 -0.000003 0.000000 -0.676754
    30 1.099667 0.000002 -0.000001 0.000000 0.000000 -1.021291
    31 0.806016 -0.359832 -1.318335 1.349688 0.343495 -0.771452
    32 1.789782 0.000002 -0.000001 0.000000 0.000000 0.397501
    33 1.207000 -0.000003 0.000000 0.000000 0.000000 0.989035
    34 6.114871 -1.450001 -1.922837 -1.564198 -0.011689 -1.581440
    35 0.051129 3.122168 0.141700 0.000000 0.000000 1.570796
    36 0.000001 1.537869 5.938445 0.000000 -1.570796 0.000000
    37 0.000000 1.607461 -1.997381 0.000000 0.000000 0.000000
    38 0.000000 1.225112 -3.954163 0.000000 0.000000 0.000000
    39 3.820733 -1.409994 -0.589409 -1.564198 -0.011689 -1.581440
  time 27
    0 -0.002349 -0.531261 -29.431251 1.570796 0.000000 0.000000
    1 0.000005 3.345126 -2.981901 1.570796 0.086293 1.570796
    2 4.018332 0.000000 0.000000 0.000000 0.000000 -0.029242
    3 3.518572 0.000000 0.000000 0.000000 0.000000 0.100336
    4 8.942638 0.000001 0.000000 0.000000 0.000000 0.194096
    5 2.033349 1.000767 1.937660 1.596637 -1.286515 2.942961
    6 6.028142 0.000000 -0.000001 -1.579219 0.357992 -1.145041
    7 11.692554 -0.000002 0.000000 0.000000 0.000000 -1.541527
    8 11.481672 0.000000 -0.000031 1.573171 -0.028074 0.044380
    9 3.859705 -0.142405 -1.191976 -0.476795 0.134331 -0.965123
    10 1.312561 0.000000 0.000004 0.000000 0.000000 -0.279217
    11 0.729363 0.000002 -0.000004 0.000000 0.000000 -0.096881
    12 3.942328 0.046771 -0.431443 -0.145074 0.087435 -0.741658
    13 1.539093 0.000001 -0.000003 0.000000 0.000000 -0.309337
    14 1.196322 0.000000 0.000002 0.000000 0.000000 -0.521227
    15 3.883689 -0.046772 0.431443 0.085902 0.021830 -0.587867
    16 1.719575 0.000000 0.000000 0.000000 0.005516 -0.366479
    17 1.209184 0.000002 0.000000 0.000000 0.003084 -0.216399
    18 3.859862 -0.137947 1.332464 0.354449 -0.042750 -0.531718
    19 1.719428 0.000000 0.000003 0.000000 0.004074 -0.363009
    20 1.099666 -0.000001 -0.000002 0.000000 0.002596 -0.244330
    21 0.806047 -0.348922 1.321259 -1.166384 -0.626623 -0.921971
    22 1.789786 -0.000001 0.000001 0.000000 0.000000 0.189107
    23 1.206998 0.000003 0.000000 0.000000 0.000000 0.306017
    24 2.033356 1.000770 -1.937611 -1.668474 1.286518 2.942952
    25 6.028142 -0.000001 0.000000 2.251221 1.521223 -0.308739
    26 11.692551 -0.000001 0.000000 0.000000 0.000000 -0.304343
    27 11.481700 0.000002 0.000000 -1.288295 0.013721 0.183778
    28 3.859826 -0.148935 -1.331284 -0.248840 0.263123 -0.072130
    29 1.719426 0.000000 -0.000001 -0.000003 0.000000 -0.676754
    30 1.099667 0.000002 -0.000001 0.000000 0.000000 -1.021291
    31 0.806016 -0.359832 -1.318335 1.349688 0.343495 -0.771452
    32 1.789782 0.000002 -0.000001 0.000000 0.000000 0.397501
    33 1.207000 -0.000003 0.000000 0.000000 0.000000 0.989035
    34 6.114871 -1.450001 -1.922837 -1.564198 -0.011689 -1.581440
    35 0.051129 3.122168 0.141700 0.000000 0.000000 1.570796
    36 0.000001 1.537869 5.938445 0.000000 -1.570796 0.000000
    37 0.000000 1.607461 -1.997381 0.000000 0.000000 0.000000
    38 0.000000 1.225112 -3.954163 0.000000 0.000000 0.000000
    39 3.820733 -1.409994 -0.589409 -1.564198 -0.011689 -1.581440
  time 28
    0 -0.002349 -0.531261 -29.431251 1.570796 0.000000 0.000000
    1 0.000005 3.345126 -2.981901 1.570796 0.086293 1.570796
    2 4.018332 0.000000 0.000000 0.000000 0.000000 -0.029242
    3 3.518572 0.000000 0.000000 0.000000 0.000000 0.100336
    4 8.942638 0.000001 0.000000 0.000000 0.000000 0.194096
    5 2.033349 1.000767 1.937660 1.596637 -1.286515 2.942961
    6 6.028142 0.000000 -0.000001 -1.579219 0.357992 -1.145041
    7 11.692554 -0.000002 0.000000 0.000000 0.000000 -1.541527
    8 11.481672 0.000000 -0.000031 1.573171 -0.028074 0.044380
    9 3.859705 -0.142405 -1.191976 -0.476795 0.134331 -0.965123
    10 1.312561 0.000000 0.000004 0.000000 0.000000 -0.279217
    11 0.729363 0.000002 -0.000004 0.000000 0.000000 -0.096881
    12 3.942328 0.046771 -0.431443 -0.145074 0.087435 -0.741658
    13 1.539093 0.000001 -0.000003 0.000000 0.000000 -0.309337
    14 1.196322 0.000000 0.000002 0.000000 0.000000 -0.521227
    15 3.883689 -0.046772 0.431443 0.085902 0.021830 -0.587867
    16 1.719575 0.000000 0.000000 0.000000 0.005516 -0.366479
    17 1.209184 0.000002 0.000000 0.000000 0.003084 -0.216399
    18 3.859862 -0.137947 1.332464 0.354449 -0.042750 -0.531718
    19 1.719428 0.000000 0.000003 0.000000 0.004074 -0.363009
    20 1.099666 -0.000001 -0.000002 0.000000 0.002596 -0.244330
    21 0.806047 -0.348922 1.321259 -1.166384 -0.626623 -0.921971
    22 1.789786 -0.000001 0.000001 0.000000 0.000000 0.189107
    23 1.206998 0.000003 0.000000 0.000000 0.000000 0.306017
    24 2.033356 1.000770 -1.937611 -1.668474 1.286518 2.942952
    25 6.028142 -0.000001 0.000000 2.216475 1.519731 -0.343893
    26 11.692551 -0.000001 0.000000 0.000000 0.000000 -0.306243
    27 11.481700 0.000002 0.000000 -1.288929 0.010611 0.192464
    28 3.859826 -0.148935 -1.331284 -0.248840 0.263123 -0.072130
    29 1.719426 0.000000 -0.000001 -0.000003 0.000000 -0.676754
    30 1.099667 0.000002 -0.000001 0.000000 0.000000 -1.021291
    31 0.806016 -0.359832 -1.318335 1.349688 0.343495 -0.771452
    32 1.789782 0.000002 -0.000001 0.000000 0.000000 0.397501
    33 1.207000 -0.000003 0.000000 0.000000 0.000000 0.989035
    34 6.114871 -1.450001 -1.922837 -1.564198 -0.011689 -1.581440
    35 0.051129 3.122168 0.141700 0.000000 0.000000 1.570796
    36 0.000001 1.537869 5.938445 0.000000 -1.570796 0.000000
    37 0.000000 1.607461 -1.997381 0.000000 0.000000 0.000000
    38 0.000000 1.225112 -3.954163 0.000000 0.000000 0.000000
    39 3.820733 -1.409994 -0.589409 -1.564198 -0.011689 -1.581440
  time 29
    0 -0.002349 -0.531261 -29.431251 1.570796 0.000000 0.000000
    1 0.000005 3.345126 -2.981901 1.570796 0.086293 1.570796
    2 4.018332 0.000000 0.000000 0.000000 0.000000 -0.029242
    3 3.518572 0.000000 0.000000 0.000000 0.000000 0.100336
    4 8.942638 0.000001 0.000000 0.000000 0.000000 0.194096
    5 2.033349 1.000767 1.937660 1.596637 -1.286515 2.942961
    6 6.028142 0.000000 -0.000001 -1.579219 0.357992 -1.145041
    7 11.692554 -0.000002 0.000000 0.000000 0.000000 -1.541527
    8 11.481672 0.000000 -0.000031 1.573171 -0.028074 0.044380
    9 3.859705 -0.142405 -1.191976 -0.476795 0.134331 -0.965123
    10 1.312561 0.000000 0.000004 0.000000 0.000000 -0.279217
    11 0.729363 0.000002 -0.000004 0.000000 0.000000 -0.096881
    12 3.942328 0.046771 -0.431443 -0.145074 0.087435 -0.741658
    13 1.539093 0.000001 -0.000003 0.000000 0.000000 -0.309337
    14 1.196322 0.000000 0.000002 0.000000 0.000000 -0.521227
    15 3.883689 -0.046772 0.431443 0.085902 0.021830 -0.587867
    16 1.719575 0.000000 0.000000 0.000000 0.005516 -0.366479
    17 1.209184 0.000002 0.000000 0.000000 0.003084 -0.216399
    18 3.859862 -0.137947 1.332464 0.354449 -0.042750 -0.531718
    19 1.719428 0.000000 0.000003 0.000000 0.004074 -0.363009
    20 1.099666 -0.000001 -0.000002 0.000000 0.002596 -0.244330
    21 0.806047 -0.348922 1.321259 -1.166384 -0.626623 -0.921971
    22 1.789786 -0.000001 0.000001 0.000000 0.000000 0.189107
    23 1.206998 0.000003 0.000000 0.000000 0.000000 0.306017
    24 2.033356 1.000770 -1.937611 -1.668474 1.286518 2.942952
    25 6.028142 -0.000001 0.000000 2.156211 1.516156 -0.404634
    26 11.692551 -0.000001 0.000000 0.000000 0.000000 -0.312708
    27 11.481700 0.000002 0.000000 -1.288955 0.008345 0.198449
    28 3.859826 -0.148935 -1.331284 -0.248840 0.263123 -0.072130
    29 1.719426 0.000000 -0.000001 -0.000003 0.000000 -0.676754
    30 1.099667 0.000002 -0.000001 0.000000 0.000000 -1.021291
    31 0.806016 -0.359832 -1.318335 1.349688 0.343495 -0.771452
    32 1.789782 0.000002 -0.000001 0.000000 0.000000 0.397501
    33 1.207000 -0.000003 0.000000 0.000000 0.000000 0.989035
    34 6.114871 -1.450001 -1.922837 -1.564198 -0.011689 -1.581440
    35 0.051129 3.122168 0.141700 0.000000 0.000000 1.570796
    36 0.000001 1.537869 5.938445 0.000000 -1.570796 0.000000
    37 0.000000 1.607461 -1.997381 0.000000 0.000000 0.000000
    38 0.000000 1.225112 -3.954163 0.000000 0.000000 0.000000
    39 3.820733 -1.409994 -0.589409 -1.564198 -0.011689 -1.581440
end
