// Created by Crowbar 0.68
version 1
nodes
  0 "ValveBiped.Bip01" -1
  1 "ValveBiped.Bip01_Spine" 0
  2 "ValveBiped.Bip01_Spine1" 1
  3 "ValveBiped.Bip01_Spine2" 2
  4 "ValveBiped.Bip01_Spine4" 3
  5 "ValveBiped.Bip01_L_Clavicle" 4
  6 "ValveBiped.Bip01_L_UpperArm" 5
  7 "ValveBiped.Bip01_L_Forearm" 6
  8 "ValveBiped.Bip01_L_Hand" 7
  9 "ValveBiped.Bip01_L_Finger4" 8
  10 "ValveBiped.Bip01_L_Finger41" 9
  11 "ValveBiped.Bip01_L_Finger42" 10
  12 "ValveBiped.Bip01_L_Finger3" 8
  13 "ValveBiped.Bip01_L_Finger31" 12
  14 "ValveBiped.Bip01_L_Finger32" 13
  15 "ValveBiped.Bip01_L_Finger2" 8
  16 "ValveBiped.Bip01_L_Finger21" 15
  17 "ValveBiped.Bip01_L_Finger22" 16
  18 "ValveBiped.Bip01_L_Finger1" 8
  19 "ValveBiped.Bip01_L_Finger11" 18
  20 "ValveBiped.Bip01_L_Finger12" 19
  21 "ValveBiped.Bip01_L_Finger0" 8
  22 "ValveBiped.Bip01_L_Finger01" 21
  23 "ValveBiped.Bip01_L_Finger02" 22
  24 "ValveBiped.Bip01_R_Clavicle" 4
  25 "ValveBiped.Bip01_R_UpperArm" 24
  26 "ValveBiped.Bip01_R_Forearm" 25
  27 "ValveBiped.Bip01_R_Hand" 26
  28 "ValveBiped.Bip01_R_Finger1" 27
  29 "ValveBiped.Bip01_R_Finger11" 28
  30 "ValveBiped.Bip01_R_Finger12" 29
  31 "ValveBiped.Bip01_R_Finger0" 27
  32 "ValveBiped.Bip01_R_Finger01" 31
  33 "ValveBiped.Bip01_R_Finger02" 32
  34 "ValveBiped.clip" 27
  35 "ValveBiped.base" 27
  36 "ValveBiped.square" 35
  37 "ValveBiped.hammer" 35
  38 "ValveBiped" -1
  39 "ValveBiped.eject" 35
  40 "ValveBiped.muzzle" 35
end
skeleton
  time 0
    0 -0.002349 1.800841 -29.431251 1.570796 0.000000 0.000000
    1 0.000005 3.345128 -2.981901 1.570796 0.086293 1.570796
    2 4.018331 0.000000 0.000000 0.000000 0.000000 -0.029242
    3 3.518565 0.000000 0.000000 0.000000 0.000000 0.100336
    4 8.942642 0.000000 0.000000 0.000000 0.000000 0.194096
    5 2.033346 1.000768 1.937660 1.596637 -1.286515 2.942961
    6 6.028142 0.000001 0.000000 -1.580194 0.690781 -1.292031
    7 11.692552 -0.000001 0.000000 0.000000 0.000000 -0.732188
    8 11.481672 -0.000001 -0.000032 1.573170 -0.028074 0.044380
    9 3.859704 -0.142405 -1.191973 -0.476795 0.134331 -0.965122
    10 1.312562 0.000001 -0.000001 0.000000 0.000000 -0.279217
    11 0.729363 0.000001 0.000000 0.000000 0.000000 -0.096881
    12 3.942325 0.046771 -0.431445 -0.145158 0.087291 -0.742649
    13 1.539092 0.000000 0.000003 0.000000 0.000000 -0.308405
    14 1.196322 0.000000 -0.000001 0.000000 0.000000 -0.519878
    15 3.883687 -0.046771 0.431442 0.085902 0.021830 -0.587867
    16 1.719575 0.000000 -0.000002 0.000000 0.005516 -0.366479
    17 1.209183 0.000000 0.000000 0.000000 0.003084 -0.216399
    18 3.859859 -0.137948 1.332466 0.354449 -0.042750 -0.531718
    19 1.719429 0.000001 0.000001 0.000000 0.004074 -0.363009
    20 1.099666 0.000000 -0.000001 0.000000 0.002596 -0.244330
    21 0.806045 -0.348922 1.321258 -1.166383 -0.626622 -0.921971
    22 1.789785 0.000000 0.000000 0.000000 0.000000 0.189107
    23 1.206998 0.000002 0.000000 0.000000 0.000000 0.306017
    24 2.033353 1.000771 -1.937610 -1.668475 1.286518 2.942953
    25 6.028143 0.000000 0.000000 1.635267 1.081420 -0.932356
    26 11.692554 0.000002 0.000000 0.000000 0.000000 -1.256039
    27 11.481700 0.000000 0.000001 -1.286818 0.004691 0.534468
    28 3.859828 -0.148935 -1.331285 -0.248836 0.263135 -0.072059
    29 1.719426 0.000001 0.000000 0.000000 0.000000 -0.676654
    30 1.099664 0.000000 -0.000001 0.000000 0.000000 -1.021218
    31 0.806017 -0.359833 -1.318336 1.349688 0.343495 -0.771452
    32 1.789783 -0.000003 0.000000 0.000000 0.000000 0.397501
    33 1.206999 0.000002 0.000000 0.000000 0.000000 0.989035
    34 3.820737 -1.409994 -0.589411 -1.564198 -0.011689 -1.581440
    35 6.114873 -1.450001 -1.922836 -1.564198 -0.011689 -1.581440
    36 0.000000 1.607459 -1.997382 0.000000 0.000000 0.000000
    37 0.000000 1.225113 -3.954164 0.000000 0.000000 0.000000
    38 0.000000 0.000000 -68.000000 1.570674 0.000061 -0.000061
    39 0.051129 3.122168 0.141701 0.000000 0.000000 1.570796
    40 0.000000 1.537867 5.938447 0.000000 -1.570796 0.000000
  time 1
    0 -0.002349 1.511770 -29.431251 1.570796 0.000000 0.000000
    1 0.000005 3.345128 -2.981901 1.570796 0.086293 1.570796
    2 4.018331 0.000000 0.000000 0.000000 0.000000 -0.029242
    3 3.518565 0.000000 0.000000 0.000000 0.000000 0.100336
    4 8.942642 0.000000 0.000000 0.000000 0.000000 0.194096
    5 2.033346 1.000768 1.937660 1.596637 -1.286515 2.942961
    6 6.028142 0.000001 0.000000 -1.580194 0.690781 -1.292031
    7 11.692552 -0.000001 0.000000 0.000000 0.000000 -0.732188
    8 11.481672 -0.000001 -0.000032 1.573170 -0.028074 0.044380
    9 3.859704 -0.142405 -1.191973 -0.476795 0.134331 -0.965122
    10 1.312562 0.000001 -0.000001 0.000000 0.000000 -0.279217
    11 0.729363 0.000001 0.000000 0.000000 0.000000 -0.096881
    12 3.942325 0.046771 -0.431445 -0.145158 0.087291 -0.742649
    13 1.539092 0.000000 0.000003 0.000000 0.000000 -0.308405
    14 1.196322 0.000000 -0.000001 0.000000 0.000000 -0.519878
    15 3.883687 -0.046771 0.431442 0.085902 0.021830 -0.587867
    16 1.719575 0.000000 -0.000002 0.000000 0.005516 -0.366479
    17 1.209183 0.000000 0.000000 0.000000 0.003084 -0.216399
    18 3.859859 -0.137948 1.332466 0.354449 -0.042750 -0.531718
    19 1.719429 0.000001 0.000001 0.000000 0.004074 -0.363009
    20 1.099666 0.000000 -0.000001 0.000000 0.002596 -0.244330
    21 0.806045 -0.348922 1.321258 -1.166383 -0.626622 -0.921971
    22 1.789785 0.000000 0.000000 0.000000 0.000000 0.189107
    23 1.206998 0.000002 0.000000 0.000000 0.000000 0.306017
    24 2.033353 1.000771 -1.937610 -1.668475 1.286518 2.942953
    25 6.028143 0.000000 0.000000 1.638773 1.121922 -0.928646
    26 11.692554 0.000002 0.000000 0.000000 0.000000 -1.160702
    27 11.481700 0.000000 0.000001 -1.287774 0.006220 0.358051
    28 3.859828 -0.148935 -1.331285 -0.248836 0.263135 -0.072059
    29 1.719426 0.000001 0.000000 0.000000 0.000000 -0.676654
    30 1.099664 0.000000 -0.000001 0.000000 0.000000 -1.021218
    31 0.806017 -0.359833 -1.318336 1.349688 0.343495 -0.771452
    32 1.789783 -0.000003 0.000000 0.000000 0.000000 0.397501
    33 1.206999 0.000002 0.000000 0.000000 0.000000 0.989035
    34 3.820737 -1.409994 -0.589411 -1.564198 -0.011689 -1.581440
    35 6.114873 -1.450001 -1.922836 -1.564198 -0.011689 -1.581440
    36 0.000000 1.607459 -1.997382 0.000000 0.000000 0.000000
    37 0.000000 1.225113 -3.954164 0.000000 0.000000 0.000000
    38 0.000000 0.000000 -68.000000 1.570674 0.000061 -0.000061
    39 0.051129 3.122168 0.141701 0.000000 0.000000 1.570796
    40 0.000000 1.537867 5.938447 0.000000 -1.570796 0.000000
  time 2
    0 -0.002349 1.078163 -29.431251 1.570796 0.000000 0.000000
    1 0.000005 3.345128 -2.981901 1.570796 0.086293 1.570796
    2 4.018331 0.000000 0.000000 0.000000 0.000000 -0.029242
    3 3.518565 0.000000 0.000000 0.000000 0.000000 0.100336
    4 8.942642 0.000000 0.000000 0.000000 0.000000 0.194096
    5 2.033346 1.000768 1.937660 1.596637 -1.286515 2.942961
    6 6.028142 0.000001 0.000000 -1.580194 0.690781 -1.292031
    7 11.692552 -0.000001 0.000000 0.000000 0.000000 -0.732188
    8 11.481672 -0.000001 -0.000032 1.573170 -0.028074 0.044380
    9 3.859704 -0.142405 -1.191973 -0.476795 0.134331 -0.965122
    10 1.312562 0.000001 -0.000001 0.000000 0.000000 -0.279217
    11 0.729363 0.000001 0.000000 0.000000 0.000000 -0.096881
    12 3.942325 0.046771 -0.431445 -0.145158 0.087291 -0.742649
    13 1.539092 0.000000 0.000003 0.000000 0.000000 -0.308405
    14 1.196322 0.000000 -0.000001 0.000000 0.000000 -0.519878
    15 3.883687 -0.046771 0.431442 0.085902 0.021830 -0.587867
    16 1.719575 0.000000 -0.000002 0.000000 0.005516 -0.366479
    17 1.209183 0.000000 0.000000 0.000000 0.003084 -0.216399
    18 3.859859 -0.137948 1.332466 0.354449 -0.042750 -0.531718
    19 1.719429 0.000001 0.000001 0.000000 0.004074 -0.363009
    20 1.099666 0.000000 -0.000001 0.000000 0.002596 -0.244330
    21 0.806045 -0.348922 1.321258 -1.166383 -0.626622 -0.921971
    22 1.789785 0.000000 0.000000 0.000000 0.000000 0.189107
    23 1.206998 0.000002 0.000000 0.000000 0.000000 0.306017
    24 2.033353 1.000771 -1.937610 -1.668475 1.286518 2.942953
    25 6.028143 0.000000 0.000000 1.656455 1.230239 -0.909856
    26 11.692554 0.000002 0.000000 0.000000 0.000000 -0.918623
    27 11.481700 0.000000 0.000001 -1.288809 0.007397 0.204094
    28 3.859828 -0.148935 -1.331285 -0.248836 0.263135 -0.072059
    29 1.719426 0.000001 0.000000 0.000000 0.000000 -0.676654
    30 1.099664 0.000000 -0.000001 0.000000 0.000000 -1.021218
    31 0.806017 -0.359833 -1.318336 1.349688 0.343495 -0.771452
    32 1.789783 -0.000003 0.000000 0.000000 0.000000 0.397501
    33 1.206999 0.000002 0.000000 0.000000 0.000000 0.989035
    34 3.820737 -1.409994 -0.589411 -1.564198 -0.011689 -1.581440
    35 6.114873 -1.450001 -1.922836 -1.564198 -0.011689 -1.581440
    36 0.000000 1.607459 -1.677059 0.000000 0.000000 0.000000
    37 0.000000 1.225113 -3.954164 0.000000 0.000000 0.000000
    38 0.000000 0.000000 -68.000000 1.570674 0.000061 -0.000061
    39 0.051129 3.122168 0.141701 0.000000 0.000000 1.570796
    40 0.000000 1.537867 5.938447 0.000000 -1.570796 0.000000
  time 3
    0 -0.002349 0.695339 -29.431251 1.570796 0.000000 0.000000
    1 0.000005 3.345128 -2.981901 1.570796 0.086293 1.570796
    2 4.018331 0.000000 0.000000 0.000000 0.000000 -0.029242
    3 3.518565 0.000000 0.000000 0.000000 0.000000 0.100336
    4 8.942642 0.000000 0.000000 0.000000 0.000000 0.194096
    5 2.033346 1.000768 1.937660 1.596637 -1.286515 2.942961
    6 6.028142 0.000001 0.000000 -1.580194 0.690781 -1.292031
    7 11.692552 -0.000001 0.000000 0.000000 0.000000 -0.732188
    8 11.481672 -0.000001 -0.000032 1.573170 -0.028074 0.044380
    9 3.859704 -0.142405 -1.191973 -0.476795 0.134331 -0.965122
    10 1.312562 0.000001 -0.000001 0.000000 0.000000 -0.279217
    11 0.729363 0.000001 0.000000 0.000000 0.000000 -0.096881
    12 3.942325 0.046771 -0.431445 -0.145158 0.087291 -0.742649
    13 1.539092 0.000000 0.000003 0.000000 0.000000 -0.308405
    14 1.196322 0.000000 -0.000001 0.000000 0.000000 -0.519878
    15 3.883687 -0.046771 0.431442 0.085902 0.021830 -0.587867
    16 1.719575 0.000000 -0.000002 0.000000 0.005516 -0.366479
    17 1.209183 0.000000 0.000000 0.000000 0.003084 -0.216399
    18 3.859859 -0.137948 1.332466 0.354449 -0.042750 -0.531718
    19 1.719429 0.000001 0.000001 0.000000 0.004074 -0.363009
    20 1.099666 0.000000 -0.000001 0.000000 0.002596 -0.244330
    21 0.806045 -0.348922 1.321258 -1.166383 -0.626622 -0.921971
    22 1.789785 0.000000 0.000000 0.000000 0.000000 0.189107
    23 1.206998 0.000002 0.000000 0.000000 0.000000 0.306017
    24 2.033353 1.000771 -1.937610 -1.668475 1.286518 2.942953
    25 6.028143 0.000000 0.000000 1.721455 1.376200 -0.842395
    26 11.692554 0.000002 0.000000 0.000000 0.000000 -0.610159
    27 11.481700 0.000000 0.000001 -1.288916 0.007484 0.192864
    28 3.859828 -0.148935 -1.331285 -0.248836 0.263135 -0.072059
    29 1.719426 0.000001 0.000000 0.000000 0.000000 -0.676654
    30 1.099664 0.000000 -0.000001 0.000000 0.000000 -1.021218
    31 0.806017 -0.359833 -1.318336 1.349688 0.343495 -0.771452
    32 1.789783 -0.000003 0.000000 0.000000 0.000000 0.397501
    33 1.206999 0.000002 0.000000 0.000000 0.000000 0.989035
    34 3.820737 -1.409994 -0.589411 -1.564198 -0.011689 -1.581440
    35 6.114873 -1.450001 -1.922836 -1.564198 -0.011689 -1.581440
    36 0.000000 1.607459 -0.020759 0.000000 0.000000 0.000000
    37 0.000000 1.225113 -3.954164 0.000000 0.000000 0.000000
    38 0.000000 0.000000 -68.000000 1.570674 0.000061 -0.000061
    39 0.051129 3.122168 0.141701 0.000000 0.000000 1.570796
    40 0.000000 1.537867 5.938447 0.000000 -1.570796 0.000000
  time 4
    0 -0.002349 0.382829 -29.431251 1.570796 0.000000 0.000000
    1 0.000005 3.345128 -2.981901 1.570796 0.086293 1.570796
    2 4.018331 0.000000 0.000000 0.000000 0.000000 -0.029242
    3 3.518565 0.000000 0.000000 0.000000 0.000000 0.100336
    4 8.942642 0.000000 0.000000 0.000000 0.000000 0.194096
    5 2.033346 1.000768 1.937660 1.596637 -1.286515 2.942961
    6 6.028142 0.000001 0.000000 -1.580194 0.690781 -1.292031
    7 11.692552 -0.000001 0.000000 0.000000 0.000000 -0.732188
    8 11.481672 -0.000001 -0.000032 1.573170 -0.028074 0.044380
    9 3.859704 -0.142405 -1.191973 -0.476795 0.134331 -0.965122
    10 1.312562 0.000001 -0.000001 0.000000 0.000000 -0.279217
    11 0.729363 0.000001 0.000000 0.000000 0.000000 -0.096881
    12 3.942325 0.046771 -0.431445 -0.145158 0.087291 -0.742649
    13 1.539092 0.000000 0.000003 0.000000 0.000000 -0.308405
    14 1.196322 0.000000 -0.000001 0.000000 0.000000 -0.519878
    15 3.883687 -0.046771 0.431442 0.085902 0.021830 -0.587867
    16 1.719575 0.000000 -0.000002 0.000000 0.005516 -0.366479
    17 1.209183 0.000000 0.000000 0.000000 0.003084 -0.216399
    18 3.859859 -0.137948 1.332466 0.354449 -0.042750 -0.531718
    19 1.719429 0.000001 0.000001 0.000000 0.004074 -0.363009
    20 1.099666 0.000000 -0.000001 0.000000 0.002596 -0.244330
    21 0.806045 -0.348922 1.321258 -1.166383 -0.626622 -0.921971
    22 1.789785 0.000000 0.000000 0.000000 0.000000 0.189107
    23 1.206998 0.000002 0.000000 0.000000 0.000000 0.306017
    24 2.033353 1.000771 -1.937610 -1.668475 1.286518 2.942953
    25 6.028143 0.000000 0.000000 1.865589 1.468903 -0.696499
    26 11.692554 0.000002 0.000000 0.000000 0.000000 -0.415969
    27 11.481700 0.000000 0.000001 -1.288464 0.007063 0.251875
    28 3.859828 -0.148935 -1.331285 -0.248836 0.263135 -0.072059
    29 1.719426 0.000001 0.000000 0.000000 0.000000 -0.676654
    30 1.099664 0.000000 -0.000001 0.000000 0.000000 -1.021218
    31 0.806017 -0.359833 -1.318336 1.349688 0.343495 -0.771452
    32 1.789783 -0.000003 0.000000 0.000000 0.000000 0.397501
    33 1.206999 0.000002 0.000000 0.000000 0.000000 0.989035
    34 3.820737 -1.409994 -0.589411 -1.564198 -0.011689 -1.581440
    35 6.114873 -1.450001 -1.922836 -1.564198 -0.011689 -1.581440
    36 0.000000 1.607459 -0.020759 0.000000 0.000000 0.000000
    37 0.000000 1.225113 -3.954164 0.000000 0.000000 0.000000
    38 0.000000 0.000000 -68.000000 1.570674 0.000061 -0.000061
    39 0.051129 3.122168 0.141701 0.000000 0.000000 1.570796
    40 0.000000 1.537867 5.938447 0.000000 -1.570796 0.000000
  time 5
    0 -0.002349 0.128915 -29.431251 1.570796 0.000000 0.000000
    1 0.000005 3.345128 -2.981901 1.570796 0.086293 1.570796
    2 4.018331 0.000000 0.000000 0.000000 0.000000 -0.029242
    3 3.518565 0.000000 0.000000 0.000000 0.000000 0.100336
    4 8.942642 0.000000 0.000000 0.000000 0.000000 0.194096
    5 2.033346 1.000768 1.937660 1.596637 -1.286515 2.942961
    6 6.028142 0.000001 0.000000 -1.580194 0.690781 -1.292031
    7 11.692552 -0.000001 0.000000 0.000000 0.000000 -0.732188
    8 11.481672 -0.000001 -0.000032 1.573170 -0.028074 0.044380
    9 3.859704 -0.142405 -1.191973 -0.476795 0.134331 -0.965122
    10 1.312562 0.000001 -0.000001 0.000000 0.000000 -0.279217
    11 0.729363 0.000001 0.000000 0.000000 0.000000 -0.096881
    12 3.942325 0.046771 -0.431445 -0.145158 0.087291 -0.742649
    13 1.539092 0.000000 0.000003 0.000000 0.000000 -0.308405
    14 1.196322 0.000000 -0.000001 0.000000 0.000000 -0.519878
    15 3.883687 -0.046771 0.431442 0.085902 0.021830 -0.587867
    16 1.719575 0.000000 -0.000002 0.000000 0.005516 -0.366479
    17 1.209183 0.000000 0.000000 0.000000 0.003084 -0.216399
    18 3.859859 -0.137948 1.332466 0.354449 -0.042750 -0.531718
    19 1.719429 0.000001 0.000001 0.000000 0.004074 -0.363009
    20 1.099666 0.000000 -0.000001 0.000000 0.002596 -0.244330
    21 0.806045 -0.348922 1.321258 -1.166383 -0.626622 -0.921971
    22 1.789785 0.000000 0.000000 0.000000 0.000000 0.189107
    23 1.206998 0.000002 0.000000 0.000000 0.000000 0.306017
    24 2.033353 1.000771 -1.937610 -1.668475 1.286518 2.942953
    25 6.028143 0.000000 0.000000 1.921465 1.484439 -0.640328
    26 11.692554 0.000002 0.000000 0.000000 0.000000 -0.382496
    27 11.481700 0.000000 0.000001 -1.288119 0.006659 0.302894
    28 3.859828 -0.148935 -1.331285 -0.248836 0.263135 -0.072059
    29 1.719426 0.000001 0.000000 0.000000 0.000000 -0.676654
    30 1.099664 0.000000 -0.000001 0.000000 0.000000 -1.021218
    31 0.806017 -0.359833 -1.318336 1.349688 0.343495 -0.771452
    32 1.789783 -0.000003 0.000000 0.000000 0.000000 0.397501
    33 1.206999 0.000002 0.000000 0.000000 0.000000 0.989035
    34 3.820737 -1.409994 -0.589411 -1.564198 -0.011689 -1.581440
    35 6.114873 -1.450001 -1.922836 -1.564198 -0.011689 -1.581440
    36 0.000000 1.607459 -0.020759 0.000000 0.000000 0.000000
    37 0.000000 1.225113 -3.954164 0.000000 0.000000 0.000000
    38 0.000000 0.000000 -68.000000 1.570674 0.000061 -0.000061
    39 0.051129 3.122168 0.141701 0.000000 0.000000 1.570796
    40 0.000000 1.537867 5.938447 0.000000 -1.570796 0.000000
  time 6
    0 -0.002349 -0.066403 -29.431251 1.570796 0.000000 0.000000
    1 0.000005 3.345128 -2.981901 1.570796 0.086293 1.570796
    2 4.018331 0.000000 0.000000 0.000000 0.000000 -0.029242
    3 3.518565 0.000000 0.000000 0.000000 0.000000 0.100336
    4 8.942642 0.000000 0.000000 0.000000 0.000000 0.194096
    5 2.033346 1.000768 1.937660 1.596637 -1.286515 2.942961
    6 6.028142 0.000001 0.000000 -1.580194 0.690781 -1.292031
    7 11.692552 -0.000001 0.000000 0.000000 0.000000 -0.732188
    8 11.481672 -0.000001 -0.000032 1.573170 -0.028074 0.044380
    9 3.859704 -0.142405 -1.191973 -0.476795 0.134331 -0.965122
    10 1.312562 0.000001 -0.000001 0.000000 0.000000 -0.279217
    11 0.729363 0.000001 0.000000 0.000000 0.000000 -0.096881
    12 3.942325 0.046771 -0.431445 -0.145158 0.087291 -0.742661
    13 1.539092 0.000000 0.000003 0.000000 0.000000 -0.308393
    14 1.196322 0.000000 -0.000001 0.000000 0.000000 -0.519878
    15 3.883687 -0.046771 0.431442 0.085902 0.021830 -0.587867
    16 1.719575 0.000000 -0.000002 0.000000 0.005516 -0.366479
    17 1.209183 0.000000 0.000000 0.000000 0.003084 -0.216399
    18 3.859859 -0.137948 1.332466 0.354449 -0.042750 -0.531718
    19 1.719429 0.000001 0.000001 0.000000 0.004074 -0.363009
    20 1.099666 0.000000 -0.000001 0.000000 0.002596 -0.244330
    21 0.806045 -0.348922 1.321258 -1.166383 -0.626622 -0.921971
    22 1.789785 0.000000 0.000000 0.000000 0.000000 0.189107
    23 1.206998 0.000002 0.000000 0.000000 0.000000 0.306017
    24 2.033353 1.000771 -1.937610 -1.668475 1.286518 2.942953
    25 6.028143 0.000000 0.000000 1.971070 1.494574 -0.590551
    26 11.692554 0.000002 0.000000 0.000000 0.000000 -0.360280
    27 11.481700 0.000000 0.000001 -1.288040 0.006553 0.316303
    28 3.859828 -0.148935 -1.331285 -0.248836 0.263135 -0.072059
    29 1.719426 0.000001 0.000000 0.000000 0.000000 -0.676654
    30 1.099664 0.000000 -0.000001 0.000000 0.000000 -1.021218
    31 0.806017 -0.359833 -1.318336 1.349688 0.343495 -0.771452
    32 1.789783 -0.000003 0.000000 0.000000 0.000000 0.397501
    33 1.206999 0.000002 0.000000 0.000000 0.000000 0.989035
    34 3.820737 -1.409994 -0.589411 -1.564198 -0.011689 -1.581440
    35 6.114873 -1.450001 -1.922836 -1.564198 -0.011689 -1.581440
    36 0.000000 1.607459 -0.020759 0.000000 0.000000 0.000000
    37 0.000000 1.225113 -3.954164 0.000000 0.000000 0.000000
    38 0.000000 0.000000 -68.000000 1.570674 0.000061 -0.000061
    39 0.051129 3.122168 0.141701 0.000000 0.000000 1.570796
    40 0.000000 1.537867 5.938447 0.000000 -1.570796 0.000000
  time 7
    0 -0.002349 -0.222658 -29.431251 1.570796 0.000000 0.000000
    1 0.000005 3.345128 -2.981901 1.570796 0.086293 1.570796
    2 4.018331 0.000000 0.000000 0.000000 0.000000 -0.029242
    3 3.518565 0.000000 0.000000 0.000000 0.000000 0.100336
    4 8.942642 0.000000 0.000000 0.000000 0.000000 0.194096
    5 2.033346 1.000768 1.937660 1.596637 -1.286515 2.942961
    6 6.028142 0.000001 0.000000 -1.580194 0.690781 -1.292031
    7 11.692552 -0.000001 0.000000 0.000000 0.000000 -0.732188
    8 11.481672 -0.000001 -0.000032 1.573170 -0.028074 0.044380
    9 3.859704 -0.142405 -1.191973 -0.476795 0.134331 -0.965122
    10 1.312562 0.000001 -0.000001 0.000000 0.000000 -0.279217
    11 0.729363 0.000001 0.000000 0.000000 0.000000 -0.096881
    12 3.942325 0.046771 -0.431445 -0.145158 0.087291 -0.742661
    13 1.539092 0.000000 0.000003 0.000000 0.000000 -0.308393
    14 1.196322 0.000000 -0.000001 0.000000 0.000000 -0.519845
    15 3.883687 -0.046771 0.431442 0.085902 0.021830 -0.587867
    16 1.719575 0.000000 -0.000002 0.000000 0.005516 -0.366479
    17 1.209183 0.000000 0.000000 0.000000 0.003084 -0.216399
    18 3.859859 -0.137948 1.332466 0.354449 -0.042750 -0.531718
    19 1.719429 0.000001 0.000001 0.000000 0.004074 -0.363009
    20 1.099666 0.000000 -0.000001 0.000000 0.002596 -0.244330
    21 0.806045 -0.348922 1.321258 -1.166383 -0.626622 -0.921971
    22 1.789785 0.000000 0.000000 0.000000 0.000000 0.189107
    23 1.206998 0.000002 0.000000 0.000000 0.000000 0.306017
    24 2.033353 1.000771 -1.937610 -1.668475 1.286518 2.942953
    25 6.028143 0.000000 0.000000 2.017321 1.501970 -0.544130
    26 11.692554 0.000002 0.000000 0.000000 0.000000 -0.343765
    27 11.481700 0.000000 0.000001 -1.288332 0.006887 0.272992
    28 3.859828 -0.148935 -1.331285 -0.248836 0.263135 -0.072059
    29 1.719426 0.000001 0.000000 0.000000 0.000000 -0.676654
    30 1.099664 0.000000 -0.000001 0.000000 0.000000 -1.021218
    31 0.806017 -0.359833 -1.318336 1.349688 0.343495 -0.771452
    32 1.789783 -0.000003 0.000000 0.000000 0.000000 0.397501
    33 1.206999 0.000002 0.000000 0.000000 0.000000 0.989035
    34 3.820737 -1.409994 -0.589411 -1.564198 -0.011689 -1.581440
    35 6.114873 -1.450001 -1.922836 -1.564198 -0.011689 -1.581440
    36 0.000000 1.607459 -0.020759 0.000000 0.000000 0.000000
    37 0.000000 1.225113 -3.954164 0.000000 0.000000 0.000000
    38 0.000000 0.000000 -68.000000 1.570674 0.000061 -0.000061
    39 0.051129 3.122168 0.141701 0.000000 0.000000 1.570796
    40 0.000000 1.537867 5.938447 0.000000 -1.570796 0.000000
  time 8
    0 -0.002349 -0.339849 -29.431251 1.570796 0.000000 0.000000
    1 0.000005 3.345128 -2.981901 1.570796 0.086293 1.570796
    2 4.018331 0.000000 0.000000 0.000000 0.000000 -0.029242
    3 3.518565 0.000000 0.000000 0.000000 0.000000 0.100336
    4 8.942642 0.000000 0.000000 0.000000 0.000000 0.194096
    5 2.033346 1.000768 1.937660 1.596637 -1.286515 2.942961
    6 6.028142 0.000001 0.000000 -1.580194 0.690781 -1.292031
    7 11.692552 -0.000001 0.000000 0.000000 0.000000 -0.732188
    8 11.481672 -0.000001 -0.000032 1.573170 -0.028074 0.044380
    9 3.859704 -0.142405 -1.191973 -0.476795 0.134331 -0.965122
    10 1.312562 0.000001 -0.000001 0.000000 0.000000 -0.279217
    11 0.729363 0.000001 0.000000 0.000000 0.000000 -0.096881
    12 3.942325 0.046771 -0.431445 -0.145158 0.087291 -0.742661
    13 1.539092 0.000000 0.000003 0.000000 0.000000 -0.308393
    14 1.196322 0.000000 -0.000001 0.000000 0.000000 -0.519845
    15 3.883687 -0.046771 0.431442 0.085902 0.021830 -0.587867
    16 1.719575 0.000000 -0.000002 0.000000 0.005516 -0.366479
    17 1.209183 0.000000 0.000000 0.000000 0.003084 -0.216399
    18 3.859859 -0.137948 1.332466 0.354449 -0.042750 -0.531718
    19 1.719429 0.000001 0.000001 0.000000 0.004074 -0.363009
    20 1.099666 0.000000 -0.000001 0.000000 0.002596 -0.244330
    21 0.806045 -0.348922 1.321258 -1.166383 -0.626622 -0.921971
    22 1.789785 0.000000 0.000000 0.000000 0.000000 0.189107
    23 1.206998 0.000002 0.000000 0.000000 0.000000 0.306017
    24 2.033353 1.000771 -1.937610 -1.668475 1.286518 2.942953
    25 6.028143 0.000000 0.000000 2.058978 1.507409 -0.502367
    26 11.692554 0.000002 0.000000 0.000000 0.000000 -0.331386
    27 11.481700 0.000000 0.000001 -1.288624 0.007203 0.232433
    28 3.859828 -0.148935 -1.331285 -0.248836 0.263135 -0.072059
    29 1.719426 0.000001 0.000000 0.000000 0.000000 -0.676654
    30 1.099664 0.000000 -0.000001 0.000000 0.000000 -1.021218
    31 0.806017 -0.359833 -1.318336 1.349688 0.343495 -0.771452
    32 1.789783 -0.000003 0.000000 0.000000 0.000000 0.397501
    33 1.206999 0.000002 0.000000 0.000000 0.000000 0.989035
    34 3.820737 -1.409994 -0.589411 -1.564198 -0.011689 -1.581440
    35 6.114873 -1.450001 -1.922836 -1.564198 -0.011689 -1.581440
    36 0.000000 1.607459 -0.020759 0.000000 0.000000 0.000000
    37 0.000000 1.225113 -3.954164 0.000000 0.000000 0.000000
    38 0.000000 0.000000 -68.000000 1.570674 0.000061 -0.000061
    39 0.051129 3.122168 0.141701 0.000000 0.000000 1.570796
    40 0.000000 1.537867 5.938447 0.000000 -1.570796 0.000000
  time 9
    0 -0.002349 -0.429696 -29.431251 1.570796 0.000000 0.000000
    1 0.000005 3.345128 -2.981901 1.570796 0.086293 1.570796
    2 4.018331 0.000000 0.000000 0.000000 0.000000 -0.029242
    3 3.518565 0.000000 0.000000 0.000000 0.000000 0.100336
    4 8.942642 0.000000 0.000000 0.000000 0.000000 0.194096
    5 2.033346 1.000768 1.937660 1.596637 -1.286515 2.942961
    6 6.028142 0.000001 0.000000 -1.580194 0.690781 -1.292031
    7 11.692552 -0.000001 0.000000 0.000000 0.000000 -0.732188
    8 11.481672 -0.000001 -0.000032 1.573170 -0.028074 0.044380
    9 3.859704 -0.142405 -1.191973 -0.476795 0.134331 -0.965122
    10 1.312562 0.000001 -0.000001 0.000000 0.000000 -0.279217
    11 0.729363 0.000001 0.000000 0.000000 0.000000 -0.096881
    12 3.942325 0.046771 -0.431445 -0.145158 0.087291 -0.742661
    13 1.539092 0.000000 0.000003 0.000000 0.000000 -0.308393
    14 1.196322 0.000000 -0.000001 0.000000 0.000000 -0.519845
    15 3.883687 -0.046771 0.431442 0.085902 0.021830 -0.587867
    16 1.719575 0.000000 -0.000002 0.000000 0.005516 -0.366479
    17 1.209183 0.000000 0.000000 0.000000 0.003084 -0.216399
    18 3.859859 -0.137948 1.332466 0.354449 -0.042750 -0.531718
    19 1.719429 0.000001 0.000001 0.000000 0.004074 -0.363009
    20 1.099666 0.000000 -0.000001 0.000000 0.002596 -0.244330
    21 0.806045 -0.348922 1.321258 -1.166383 -0.626622 -0.921971
    22 1.789785 0.000000 0.000000 0.000000 0.000000 0.189107
    23 1.206998 0.000002 0.000000 0.000000 0.000000 0.306017
    24 2.033353 1.000771 -1.937610 -1.668475 1.286518 2.942953
    25 6.028143 0.000000 0.000000 2.092970 1.511166 -0.468301
    26 11.692554 0.000002 0.000000 0.000000 0.000000 -0.322671
    27 11.481700 0.000000 0.000001 -1.288783 0.007361 0.210744
    28 3.859828 -0.148935 -1.331285 -0.248836 0.263135 -0.072059
    29 1.719426 0.000001 0.000000 0.000000 0.000000 -0.676654
    30 1.099664 0.000000 -0.000001 0.000000 0.000000 -1.021218
    31 0.806017 -0.359833 -1.318336 1.349688 0.343495 -0.771452
    32 1.789783 -0.000003 0.000000 0.000000 0.000000 0.397501
    33 1.206999 0.000002 0.000000 0.000000 0.000000 0.989035
    34 3.820737 -1.409994 -0.589411 -1.564198 -0.011689 -1.581440
    35 6.114873 -1.450001 -1.922836 -1.564198 -0.011689 -1.581440
    36 0.000000 1.607459 -0.020759 0.000000 0.000000 0.000000
    37 0.000000 1.225113 -3.954164 0.000000 0.000000 0.000000
    38 0.000000 0.000000 -68.000000 1.570674 0.000061 -0.000061
    39 0.051129 3.122168 0.141701 0.000000 0.000000 1.570796
    40 0.000000 1.537867 5.938447 0.000000 -1.570796 0.000000
  time 10
    0 -0.002349 -0.488291 -29.431251 1.570796 0.000000 0.000000
    1 0.000005 3.345128 -2.981901 1.570796 0.086293 1.570796
    2 4.018331 0.000000 0.000000 0.000000 0.000000 -0.029242
    3 3.518565 0.000000 0.000000 0.000000 0.000000 0.100336
    4 8.942642 0.000000 0.000000 0.000000 0.000000 0.194096
    5 2.033346 1.000768 1.937660 1.596637 -1.286515 2.942961
    6 6.028142 0.000001 0.000000 -1.580194 0.690781 -1.292031
    7 11.692552 -0.000001 0.000000 0.000000 0.000000 -0.732188
    8 11.481672 -0.000001 -0.000032 1.573170 -0.028074 0.044380
    9 3.859704 -0.142405 -1.191973 -0.476795 0.134331 -0.965122
    10 1.312562 0.000001 -0.000001 0.000000 0.000000 -0.279217
    11 0.729363 0.000001 0.000000 0.000000 0.000000 -0.096881
    12 3.942325 0.046771 -0.431445 -0.145158 0.087291 -0.742661
    13 1.539092 0.000000 0.000003 0.000000 0.000000 -0.308393
    14 1.196322 0.000000 -0.000001 0.000000 0.000000 -0.519845
    15 3.883687 -0.046771 0.431442 0.085902 0.021830 -0.587867
    16 1.719575 0.000000 -0.000002 0.000000 0.005516 -0.366479
    17 1.209183 0.000000 0.000000 0.000000 0.003084 -0.216399
    18 3.859859 -0.137948 1.332466 0.354449 -0.042750 -0.531718
    19 1.719429 0.000001 0.000001 0.000000 0.004074 -0.363009
    20 1.099666 0.000000 -0.000001 0.000000 0.002596 -0.244330
    21 0.806045 -0.348922 1.321258 -1.166383 -0.626622 -0.921971
    22 1.789785 0.000000 0.000000 0.000000 0.000000 0.189107
    23 1.206998 0.000002 0.000000 0.000000 0.000000 0.306017
    24 2.033353 1.000771 -1.937610 -1.668475 1.286518 2.942953
    25 6.028143 0.000000 0.000000 2.114855 1.513318 -0.446393
    26 11.692554 0.000002 0.000000 0.000000 0.000000 -0.317589
    27 11.481700 0.000000 0.000001 -1.288836 0.007414 0.201099
    28 3.859828 -0.148935 -1.331285 -0.248836 0.263135 -0.072059
    29 1.719426 0.000001 0.000000 0.000000 0.000000 -0.676654
    30 1.099664 0.000000 -0.000001 0.000000 0.000000 -1.021218
    31 0.806017 -0.359833 -1.318336 1.349688 0.343495 -0.771452
    32 1.789783 -0.000003 0.000000 0.000000 0.000000 0.397501
    33 1.206999 0.000002 0.000000 0.000000 0.000000 0.989035
    34 3.820737 -1.409994 -0.589411 -1.564198 -0.011689 -1.581440
    35 6.114873 -1.450001 -1.922836 -1.564198 -0.011689 -1.581440
    36 0.000000 1.607459 -0.020759 0.000000 0.000000 0.000000
    37 0.000000 1.225113 -3.954164 0.000000 0.000000 0.000000
    38 0.000000 0.000000 -68.000000 1.570674 0.000061 -0.000061
    39 0.051129 3.122168 0.141701 0.000000 0.000000 1.570796
    40 0.000000 1.537867 5.938447 0.000000 -1.570796 0.000000
  time 11
    0 -0.002349 -0.519542 -29.431251 1.570796 0.000000 0.000000
    1 0.000005 3.345128 -2.981901 1.570796 0.086293 1.570796
    2 4.018331 0.000000 0.000000 0.000000 0.000000 -0.029242
    3 3.518565 0.000000 0.000000 0.000000 0.000000 0.100336
    4 8.942642 0.000000 0.000000 0.000000 0.000000 0.194096
    5 2.033346 1.000768 1.937660 1.596637 -1.286515 2.942961
    6 6.028142 0.000001 0.000000 -1.580194 0.690781 -1.292031
    7 11.692552 -0.000001 0.000000 0.000000 0.000000 -0.732188
    8 11.481672 -0.000001 -0.000032 1.573170 -0.028074 0.044380
    9 3.859704 -0.142405 -1.191973 -0.476795 0.134331 -0.965122
    10 1.312562 0.000001 -0.000001 0.000000 0.000000 -0.279217
    11 0.729363 0.000001 0.000000 0.000000 0.000000 -0.096881
    12 3.942325 0.046771 -0.431445 -0.145158 0.087291 -0.742673
    13 1.539092 0.000000 0.000003 0.000000 0.000000 -0.308393
    14 1.196322 0.000000 -0.000001 0.000000 0.000000 -0.519845
    15 3.883687 -0.046771 0.431442 0.085902 0.021830 -0.587867
    16 1.719575 0.000000 -0.000002 0.000000 0.005516 -0.366479
    17 1.209183 0.000000 0.000000 0.000000 0.003084 -0.216399
    18 3.859859 -0.137948 1.332466 0.354449 -0.042750 -0.531718
    19 1.719429 0.000001 0.000001 0.000000 0.004074 -0.363009
    20 1.099666 0.000000 -0.000001 0.000000 0.002596 -0.244330
    21 0.806045 -0.348922 1.321258 -1.166383 -0.626622 -0.921971
    22 1.789785 0.000000 0.000000 0.000000 0.000000 0.189107
    23 1.206998 0.000002 0.000000 0.000000 0.000000 0.306017
    24 2.033353 1.000771 -1.937610 -1.668475 1.286518 2.942953
    25 6.028143 0.000000 0.000000 2.118883 1.513670 -0.442327
    26 11.692554 0.000002 0.000000 0.000000 0.000000 -0.316673
    27 11.481700 0.000000 0.000001 -1.288836 0.007432 0.200681
    28 3.859828 -0.148935 -1.331285 -0.248836 0.263135 -0.072059
    29 1.719426 0.000001 0.000000 0.000000 0.000000 -0.676654
    30 1.099664 0.000000 -0.000001 0.000000 0.000000 -1.021218
    31 0.806017 -0.359833 -1.318336 1.349688 0.343495 -0.771452
    32 1.789783 -0.000003 0.000000 0.000000 0.000000 0.397501
    33 1.206999 0.000002 0.000000 0.000000 0.000000 0.989035
    34 3.820737 -1.409994 -0.589411 -1.564198 -0.011689 -1.581440
    35 6.114873 -1.450001 -1.922836 -1.564198 -0.011689 -1.581440
    36 0.000000 1.607459 -0.020759 0.000000 0.000000 0.000000
    37 0.000000 1.225113 -3.954164 0.000000 0.000000 0.000000
    38 0.000000 0.000000 -68.000000 1.570674 0.000061 -0.000061
    39 0.051129 3.122168 0.141701 0.000000 0.000000 1.570796
    40 0.000000 1.537867 5.938447 0.000000 -1.570796 0.000000
  time 12
    0 -0.002349 -0.531261 -29.431251 1.570796 0.000000 0.000000
    1 0.000005 3.345128 -2.981901 1.570796 0.086293 1.570796
    2 4.018331 0.000000 0.000000 0.000000 0.000000 -0.029242
    3 3.518565 0.000000 0.000000 0.000000 0.000000 0.100336
    4 8.942642 0.000000 0.000000 0.000000 0.000000 0.194096
    5 2.033346 1.000768 1.937660 1.596637 -1.286515 2.942961
    6 6.028142 0.000001 0.000000 -1.580194 0.690781 -1.292031
    7 11.692552 -0.000001 0.000000 0.000000 0.000000 -0.732188
    8 11.481672 -0.000001 -0.000032 1.573170 -0.028074 0.044380
    9 3.859704 -0.142405 -1.191973 -0.476795 0.134331 -0.965122
    10 1.312562 0.000001 -0.000001 0.000000 0.000000 -0.279217
    11 0.729363 0.000001 0.000000 0.000000 0.000000 -0.096881
    12 3.942325 0.046771 -0.431445 -0.145158 0.087291 -0.742673
    13 1.539092 0.000000 0.000003 0.000000 0.000000 -0.308381
    14 1.196322 0.000000 -0.000001 0.000000 0.000000 -0.519845
    15 3.883687 -0.046771 0.431442 0.085902 0.021830 -0.587867
    16 1.719575 0.000000 -0.000002 0.000000 0.005516 -0.366479
    17 1.209183 0.000000 0.000000 0.000000 0.003084 -0.216399
    18 3.859859 -0.137948 1.332466 0.354449 -0.042750 -0.531718
    19 1.719429 0.000001 0.000001 0.000000 0.004074 -0.363009
    20 1.099666 0.000000 -0.000001 0.000000 0.002596 -0.244330
    21 0.806045 -0.348922 1.321258 -1.166383 -0.626622 -0.921971
    22 1.789785 0.000000 0.000000 0.000000 0.000000 0.189107
    23 1.206998 0.000002 0.000000 0.000000 0.000000 0.306017
    24 2.033353 1.000771 -1.937610 -1.668475 1.286518 2.942953
    25 6.028143 0.000000 0.000000 2.118883 1.513670 -0.442327
    26 11.692554 0.000002 0.000000 0.000000 0.000000 -0.316673
    27 11.481700 0.000000 0.000001 -1.288836 0.007432 0.200681
    28 3.859828 -0.148935 -1.331285 -0.248836 0.263135 -0.072059
    29 1.719426 0.000001 0.000000 0.000000 0.000000 -0.676654
    30 1.099664 0.000000 -0.000001 0.000000 0.000000 -1.021218
    31 0.806017 -0.359833 -1.318336 1.349688 0.343495 -0.771452
    32 1.789783 -0.000003 0.000000 0.000000 0.000000 0.397501
    33 1.206999 0.000002 0.000000 0.000000 0.000000 0.989035
    34 3.820737 -1.409994 -0.589411 -1.564198 -0.011689 -1.581440
    35 6.114873 -1.450001 -1.922836 -1.564198 -0.011689 -1.581440
    36 0.000000 1.607459 -0.020759 0.000000 0.000000 0.000000
    37 0.000000 1.225113 -3.954164 0.000000 0.000000 0.000000
    38 0.000000 0.000000 -68.000000 1.570674 0.000061 -0.000061
    39 0.051129 3.122168 0.141701 0.000000 0.000000 1.570796
    40 0.000000 1.537867 5.938447 0.000000 -1.570796 0.000000
end
