// Created by Crowbar 0.68
version 1
nodes
  0 "ValveBiped.Bip01" -1
  1 "ValveBiped.Bip01_Spine" 0
  2 "ValveBiped.Bip01_Spine1" 1
  3 "ValveBiped.Bip01_Spine2" 2
  4 "ValveBiped.Bip01_Spine4" 3
  5 "ValveBiped.Bip01_L_Clavicle" 4
  6 "ValveBiped.Bip01_L_UpperArm" 5
  7 "ValveBiped.Bip01_L_Forearm" 6
  8 "ValveBiped.Bip01_L_Hand" 7
  9 "ValveBiped.Bip01_L_Finger4" 8
  10 "ValveBiped.Bip01_L_Finger41" 9
  11 "ValveBiped.Bip01_L_Finger42" 10
  12 "ValveBiped.Bip01_L_Finger3" 8
  13 "ValveBiped.Bip01_L_Finger31" 12
  14 "ValveBiped.Bip01_L_Finger32" 13
  15 "ValveBiped.Bip01_L_Finger2" 8
  16 "ValveBiped.Bip01_L_Finger21" 15
  17 "ValveBiped.Bip01_L_Finger22" 16
  18 "ValveBiped.Bip01_L_Finger1" 8
  19 "ValveBiped.Bip01_L_Finger11" 18
  20 "ValveBiped.Bip01_L_Finger12" 19
  21 "ValveBiped.Bip01_L_Finger0" 8
  22 "ValveBiped.Bip01_L_Finger01" 21
  23 "ValveBiped.Bip01_L_Finger02" 22
  24 "ValveBiped.Bip01_R_Clavicle" 4
  25 "ValveBiped.Bip01_R_UpperArm" 24
  26 "ValveBiped.Bip01_R_Forearm" 25
  27 "ValveBiped.Bip01_R_Hand" 26
  28 "ValveBiped.Bip01_R_Finger1" 27
  29 "ValveBiped.Bip01_R_Finger11" 28
  30 "ValveBiped.Bip01_R_Finger12" 29
  31 "ValveBiped.Bip01_R_Finger0" 27
  32 "ValveBiped.Bip01_R_Finger01" 31
  33 "ValveBiped.Bip01_R_Finger02" 32
  34 "ValveBiped.base" 27
  35 "ValveBiped.eject" 34
  36 "ValveBiped.muzzle" 34
  37 "ValveBiped.square" 34
  38 "ValveBiped.hammer" 34
  39 "ValveBiped.clip" 27
end
skeleton
  time 0
    0 -0.002349 -0.531261 -29.431251 1.570796 0.000000 0.000000
    1 0.000005 3.345126 -2.981901 1.570796 0.086293 1.570796
    2 4.018332 0.000000 0.000000 0.000000 0.000000 -0.029242
    3 3.518572 0.000000 0.000000 0.000000 0.000000 0.100336
    4 8.942638 0.000001 0.000000 0.000000 0.000000 0.194096
    5 2.033349 1.000767 1.937660 1.596637 -1.286515 2.942961
    6 6.028142 0.000000 -0.000001 -1.579219 0.357992 -1.145041
    7 11.692554 -0.000002 0.000000 0.000000 0.000000 -1.541527
    8 11.481672 0.000000 -0.000031 1.573171 -0.028074 0.044380
    9 3.859705 -0.142405 -1.191976 -0.476795 0.134331 -0.965123
    10 1.312561 0.000000 0.000004 0.000000 0.000000 -0.279217
    11 0.729363 0.000002 -0.000004 0.000000 0.000000 -0.096881
    12 3.942328 0.046771 -0.431443 -0.145074 0.087435 -0.741666
    13 1.539092 0.000000 -0.000001 0.000000 0.000000 -0.309328
    14 1.196322 0.000001 0.000003 0.000000 0.000000 -0.521202
    15 3.883689 -0.046772 0.431443 0.085902 0.021830 -0.587867
    16 1.719575 0.000000 0.000000 0.000000 0.005516 -0.366479
    17 1.209184 0.000002 0.000000 0.000000 0.003084 -0.216399
    18 3.859862 -0.137947 1.332464 0.354449 -0.042750 -0.531718
    19 1.719428 0.000000 0.000003 0.000000 0.004074 -0.363009
    20 1.099666 -0.000001 -0.000002 0.000000 0.002596 -0.244330
    21 0.806047 -0.348922 1.321259 -1.166384 -0.626623 -0.921971
    22 1.789786 -0.000001 0.000001 0.000000 0.000000 0.189107
    23 1.206998 0.000003 0.000000 0.000000 0.000000 0.306017
    24 2.033356 1.000770 -1.937611 -1.668474 1.286518 2.942952
    25 6.028142 -0.000002 0.000000 1.865587 1.468913 -0.696485
    26 11.692551 -0.000002 -0.000001 0.000000 0.000000 -0.316681
    27 8.368323 -1.898498 -0.023438 -1.288268 0.006026 0.051440
    28 3.859829 -0.148935 -1.331282 -0.248840 0.263123 -0.072130
    29 1.719425 0.000000 -0.000001 -0.000003 0.000000 -0.676754
    30 1.099668 0.000002 0.000000 0.000000 0.000000 -1.021291
    31 0.806016 -0.359832 -1.318335 1.349688 0.343495 -0.771452
    32 1.789781 0.000002 0.000000 0.000000 0.000000 0.397501
    33 1.207000 -0.000003 0.000000 0.000000 0.000000 0.989035
    34 6.114872 -1.450000 -1.922837 -1.564198 -0.011689 -1.581440
    35 0.051129 3.122167 0.141701 0.000000 0.000000 1.570796
    36 0.000000 1.537868 5.938447 0.000000 -1.570796 0.000000
    37 0.000000 1.607461 -1.997381 0.000000 0.000000 0.000000
    38 0.000000 1.225112 -3.954164 0.000000 0.000000 0.000000
    39 3.820736 -1.409993 -0.589407 -1.564198 -0.011689 -1.581440
  time 1
    0 -0.002349 -0.531261 -29.431251 1.570796 0.000000 0.000000
    1 0.000005 3.345126 -2.981901 1.570796 0.086293 1.570796
    2 4.018332 0.000000 0.000000 0.000000 0.000000 -0.029242
    3 3.518572 0.000000 0.000000 0.000000 0.000000 0.100336
    4 8.942638 0.000001 0.000000 0.000000 0.000000 0.194096
    5 2.033349 1.000767 1.937660 1.596637 -1.286515 2.942961
    6 6.028142 0.000000 -0.000001 -1.579219 0.357992 -1.145041
    7 11.692554 -0.000002 0.000000 0.000000 0.000000 -1.541527
    8 11.481672 0.000000 -0.000031 1.573171 -0.028074 0.044380
    9 3.859705 -0.142405 -1.191976 -0.476795 0.134331 -0.965123
    10 1.312561 0.000000 0.000004 0.000000 0.000000 -0.279217
    11 0.729363 0.000002 -0.000004 0.000000 0.000000 -0.096881
    12 3.942328 0.046771 -0.431443 -0.145074 0.087435 -0.741666
    13 1.539092 0.000000 -0.000001 0.000000 0.000000 -0.309328
    14 1.196322 0.000001 0.000003 0.000000 0.000000 -0.521202
    15 3.883689 -0.046772 0.431443 0.085902 0.021830 -0.587867
    16 1.719575 0.000000 0.000000 0.000000 0.005516 -0.366479
    17 1.209184 0.000002 0.000000 0.000000 0.003084 -0.216399
    18 3.859862 -0.137947 1.332464 0.354449 -0.042750 -0.531718
    19 1.719428 0.000000 0.000003 0.000000 0.004074 -0.363009
    20 1.099666 -0.000001 -0.000002 0.000000 0.002596 -0.244330
    21 0.806047 -0.348922 1.321259 -1.166384 -0.626623 -0.921971
    22 1.789786 -0.000001 0.000001 0.000000 0.000000 0.189107
    23 1.206998 0.000003 0.000000 0.000000 0.000000 0.306017
    24 2.033356 1.000770 -1.937611 -1.668474 1.286518 2.942952
    25 6.028142 -0.000002 0.000000 1.865587 1.468913 -0.696485
    26 11.692551 -0.000002 -0.000001 0.000000 0.000000 -0.316681
    27 8.368323 -1.898498 -0.023438 -1.288268 0.006026 0.051440
    28 3.859829 -0.148935 -1.331282 -0.248840 0.263123 -0.072130
    29 1.719425 0.000000 -0.000001 -0.000003 0.000000 -0.676754
    30 1.099668 0.000002 0.000000 0.000000 0.000000 -1.021291
    31 0.806016 -0.359832 -1.318335 1.349688 0.343495 -0.771452
    32 1.789781 0.000002 0.000000 0.000000 0.000000 0.397501
    33 1.207000 -0.000003 0.000000 0.000000 0.000000 0.989035
    34 6.114872 -1.450000 -1.922837 -1.564198 -0.011689 -1.581440
    35 0.051129 3.122167 0.141701 0.000000 0.000000 1.570796
    36 0.000000 1.537868 5.938447 0.000000 -1.570796 0.000000
    37 0.000000 1.607461 -1.997381 0.000000 0.000000 0.000000
    38 0.000000 1.225112 -3.954164 0.000000 0.000000 0.000000
    39 3.820736 -1.409993 -0.589407 -1.564198 -0.011689 -1.581440
  time 2
    0 -0.002349 -0.531261 -29.431251 1.570796 0.000000 0.000000
    1 0.000005 3.345126 -2.981901 1.570796 0.086293 1.570796
    2 4.018332 0.000000 0.000000 0.000000 0.000000 -0.029242
    3 3.518572 0.000000 0.000000 0.000000 0.000000 0.100336
    4 8.942638 0.000001 0.000000 0.000000 0.000000 0.194096
    5 2.033349 1.000767 1.937660 1.596637 -1.286515 2.942961
    6 6.028142 0.000000 -0.000001 -1.579219 0.357992 -1.145041
    7 11.692554 -0.000002 0.000000 0.000000 0.000000 -1.541527
    8 11.481672 0.000000 -0.000031 1.573171 -0.028074 0.044380
    9 3.859705 -0.142405 -1.191976 -0.476795 0.134331 -0.965123
    10 1.312561 0.000000 0.000004 0.000000 0.000000 -0.279217
    11 0.729363 0.000002 -0.000004 0.000000 0.000000 -0.096881
    12 3.942328 0.046771 -0.431443 -0.145074 0.087435 -0.741666
    13 1.539092 0.000000 -0.000001 0.000000 0.000000 -0.309328
    14 1.196322 0.000001 0.000003 0.000000 0.000000 -0.521202
    15 3.883689 -0.046772 0.431443 0.085902 0.021830 -0.587867
    16 1.719575 0.000000 0.000000 0.000000 0.005516 -0.366479
    17 1.209184 0.000002 0.000000 0.000000 0.003084 -0.216399
    18 3.859862 -0.137947 1.332464 0.354449 -0.042750 -0.531718
    19 1.719428 0.000000 0.000003 0.000000 0.004074 -0.363009
    20 1.099666 -0.000001 -0.000002 0.000000 0.002596 -0.244330
    21 0.806047 -0.348922 1.321259 -1.166384 -0.626623 -0.921971
    22 1.789786 -0.000001 0.000001 0.000000 0.000000 0.189107
    23 1.206998 0.000003 0.000000 0.000000 0.000000 0.306017
    24 2.033356 1.000770 -1.937611 -1.668474 1.286518 2.942952
    25 6.028142 -0.000002 0.000000 1.648898 1.173858 -0.917315
    26 11.692551 -0.000002 -0.000001 0.000000 0.000000 -1.050749
    27 11.481699 -0.000002 0.000000 -1.287529 0.005886 0.399429
    28 3.859829 -0.148935 -1.331282 -0.248840 0.263123 -0.072130
    29 1.719425 0.000000 -0.000001 -0.000003 0.000000 -0.676754
    30 1.099668 0.000002 0.000000 0.000000 0.000000 -1.021291
    31 0.806016 -0.359832 -1.318335 1.349688 0.343495 -0.771452
    32 1.789781 0.000002 0.000000 0.000000 0.000000 0.397501
    33 1.207000 -0.000003 0.000000 0.000000 0.000000 0.989035
    34 6.114872 -1.450000 -1.922837 -1.564198 -0.011689 -1.581440
    35 0.051129 3.122167 0.141701 0.000000 0.000000 1.570796
    36 0.000000 1.537868 5.938447 0.000000 -1.570796 0.000000
    37 0.000000 1.607461 -1.997381 0.000000 0.000000 0.000000
    38 0.000000 1.225112 -3.954164 0.000000 0.000000 0.000000
    39 3.820736 -1.409993 -0.589407 -1.564198 -0.011689 -1.581440
  time 3
    0 -0.002349 -0.531261 -29.431251 1.570796 0.000000 0.000000
    1 0.000005 3.345126 -2.981901 1.570796 0.086293 1.570796
    2 4.018332 0.000000 0.000000 0.000000 0.000000 -0.029242
    3 3.518572 0.000000 0.000000 0.000000 0.000000 0.100336
    4 8.942638 0.000001 0.000000 0.000000 0.000000 0.194096
    5 2.033349 1.000767 1.937660 1.596637 -1.286515 2.942961
    6 6.028142 0.000000 -0.000001 -1.579219 0.357992 -1.145041
    7 11.692554 -0.000002 0.000000 0.000000 0.000000 -1.541527
    8 11.481672 0.000000 -0.000031 1.573171 -0.028074 0.044380
    9 3.859705 -0.142405 -1.191976 -0.476795 0.134331 -0.965123
    10 1.312561 0.000000 0.000004 0.000000 0.000000 -0.279217
    11 0.729363 0.000002 -0.000004 0.000000 0.000000 -0.096881
    12 3.942328 0.046771 -0.431443 -0.145074 0.087435 -0.741666
    13 1.539092 0.000000 -0.000001 0.000000 0.000000 -0.309328
    14 1.196322 0.000001 0.000003 0.000000 0.000000 -0.521202
    15 3.883689 -0.046772 0.431443 0.085902 0.021830 -0.587867
    16 1.719575 0.000000 0.000000 0.000000 0.005516 -0.366479
    17 1.209184 0.000002 0.000000 0.000000 0.003084 -0.216399
    18 3.859862 -0.137947 1.332464 0.354449 -0.042750 -0.531718
    19 1.719428 0.000000 0.000003 0.000000 0.004074 -0.363009
    20 1.099666 -0.000001 -0.000002 0.000000 0.002596 -0.244330
    21 0.806047 -0.348922 1.321259 -1.166384 -0.626623 -0.921971
    22 1.789786 -0.000001 0.000001 0.000000 0.000000 0.189107
    23 1.206998 0.000003 0.000000 0.000000 0.000000 0.306017
    24 2.033356 1.000770 -1.937611 -1.668474 1.286518 2.942952
    25 6.028142 -0.000002 0.000000 1.667610 1.266605 -0.897918
    26 11.692551 -0.000002 -0.000001 0.000000 0.000000 -0.842785
    27 11.481699 -0.000002 0.000000 -1.288480 0.007063 0.250584
    28 3.859829 -0.148935 -1.331282 -0.248840 0.263123 -0.072130
    29 1.719425 0.000000 -0.000001 -0.000003 0.000000 -0.676754
    30 1.099668 0.000002 0.000000 0.000000 0.000000 -1.021291
    31 0.806016 -0.359832 -1.318335 1.349688 0.343495 -0.771452
    32 1.789781 0.000002 0.000000 0.000000 0.000000 0.397501
    33 1.207000 -0.000003 0.000000 0.000000 0.000000 0.989035
    34 6.114872 -1.450000 -1.922837 -1.564198 -0.011689 -1.581440
    35 0.051129 3.122167 0.141701 0.000000 0.000000 1.570796
    36 0.000000 1.537868 5.938447 0.000000 -1.570796 0.000000
    37 0.000000 1.607461 -1.997381 0.000000 0.000000 0.000000
    38 0.000000 1.225112 -3.954164 0.000000 0.000000 0.000000
    39 3.820736 -1.409993 -0.589407 -1.564198 -0.011689 -1.581440
  time 4
    0 -0.002349 -0.531261 -29.431251 1.570796 0.000000 0.000000
    1 0.000005 3.345126 -2.981901 1.570796 0.086293 1.570796
    2 4.018332 0.000000 0.000000 0.000000 0.000000 -0.029242
    3 3.518572 0.000000 0.000000 0.000000 0.000000 0.100336
    4 8.942638 0.000001 0.000000 0.000000 0.000000 0.194096
    5 2.033349 1.000767 1.937660 1.596637 -1.286515 2.942961
    6 6.028142 0.000000 -0.000001 -1.579219 0.357992 -1.145041
    7 11.692554 -0.000002 0.000000 0.000000 0.000000 -1.541527
    8 11.481672 0.000000 -0.000031 1.573171 -0.028074 0.044380
    9 3.859705 -0.142405 -1.191976 -0.476795 0.134331 -0.965123
    10 1.312561 0.000000 0.000004 0.000000 0.000000 -0.279217
    11 0.729363 0.000002 -0.000004 0.000000 0.000000 -0.096881
    12 3.942328 0.046771 -0.431443 -0.145074 0.087435 -0.741666
    13 1.539092 0.000000 -0.000001 0.000000 0.000000 -0.309328
    14 1.196322 0.000001 0.000003 0.000000 0.000000 -0.521202
    15 3.883689 -0.046772 0.431443 0.085902 0.021830 -0.587867
    16 1.719575 0.000000 0.000000 0.000000 0.005516 -0.366479
    17 1.209184 0.000002 0.000000 0.000000 0.003084 -0.216399
    18 3.859862 -0.137947 1.332464 0.354449 -0.042750 -0.531718
    19 1.719428 0.000000 0.000003 0.000000 0.004074 -0.363009
    20 1.099666 -0.000001 -0.000002 0.000000 0.002596 -0.244330
    21 0.806047 -0.348922 1.321259 -1.166384 -0.626623 -0.921971
    22 1.789786 -0.000001 0.000001 0.000000 0.000000 0.189107
    23 1.206998 0.000003 0.000000 0.000000 0.000000 0.306017
    24 2.033356 1.000770 -1.937611 -1.668474 1.286518 2.942952
    25 6.028142 -0.000002 0.000000 1.733926 1.390495 -0.829636
    26 11.692551 -0.000002 -0.000001 0.000000 0.000000 -0.580387
    27 11.481699 -0.000002 0.000000 -1.289087 0.007660 0.167357
    28 3.859829 -0.148935 -1.331282 -0.248840 0.263123 -0.072130
    29 1.719425 0.000000 -0.000001 -0.000003 0.000000 -0.676754
    30 1.099668 0.000002 0.000000 0.000000 0.000000 -1.021291
    31 0.806016 -0.359832 -1.318335 1.349688 0.343495 -0.771452
    32 1.789781 0.000002 0.000000 0.000000 0.000000 0.397501
    33 1.207000 -0.000003 0.000000 0.000000 0.000000 0.989035
    34 6.114872 -1.450000 -1.922837 -1.564198 -0.011689 -1.581440
    35 0.051129 3.122167 0.141701 0.000000 0.000000 1.570796
    36 0.000000 1.537868 5.938447 0.000000 -1.570796 0.000000
    37 0.000000 1.607461 -1.997381 0.000000 0.000000 0.000000
    38 0.000000 1.225112 -3.954164 0.000000 0.000000 0.000000
    39 3.820736 -1.409993 -0.589407 -1.564198 -0.011689 -1.581440
  time 5
    0 -0.002349 -0.531261 -29.431251 1.570796 0.000000 0.000000
    1 0.000005 3.345126 -2.981901 1.570796 0.086293 1.570796
    2 4.018332 0.000000 0.000000 0.000000 0.000000 -0.029242
    3 3.518572 0.000000 0.000000 0.000000 0.000000 0.100336
    4 8.942638 0.000001 0.000000 0.000000 0.000000 0.194096
    5 2.033349 1.000767 1.937660 1.596637 -1.286515 2.942961
    6 6.028142 0.000000 -0.000001 -1.579219 0.357992 -1.145041
    7 11.692554 -0.000002 0.000000 0.000000 0.000000 -1.541527
    8 11.481672 0.000000 -0.000031 1.573171 -0.028074 0.044380
    9 3.859705 -0.142405 -1.191976 -0.476795 0.134331 -0.965123
    10 1.312561 0.000000 0.000004 0.000000 0.000000 -0.279217
    11 0.729363 0.000002 -0.000004 0.000000 0.000000 -0.096881
    12 3.942328 0.046771 -0.431443 -0.145074 0.087435 -0.741666
    13 1.539092 0.000000 -0.000001 0.000000 0.000000 -0.309328
    14 1.196322 0.000001 0.000003 0.000000 0.000000 -0.521202
    15 3.883689 -0.046772 0.431443 0.085902 0.021830 -0.587867
    16 1.719575 0.000000 0.000000 0.000000 0.005516 -0.366479
    17 1.209184 0.000002 0.000000 0.000000 0.003084 -0.216399
    18 3.859862 -0.137947 1.332464 0.354449 -0.042750 -0.531718
    19 1.719428 0.000000 0.000003 0.000000 0.004074 -0.363009
    20 1.099666 -0.000001 -0.000002 0.000000 0.002596 -0.244330
    21 0.806047 -0.348922 1.321259 -1.166384 -0.626623 -0.921971
    22 1.789786 -0.000001 0.000001 0.000000 0.000000 0.189107
    23 1.206998 0.000003 0.000000 0.000000 0.000000 0.306017
    24 2.033356 1.000770 -1.937611 -1.668474 1.286518 2.942952
    25 6.028142 -0.000002 0.000000 1.865587 1.468913 -0.696485
    26 11.692551 -0.000002 -0.000001 0.000000 0.000000 -0.415950
    27 11.481699 -0.000002 0.000000 -1.288982 0.007555 0.181401
    28 3.859829 -0.148935 -1.331282 -0.248857 0.263123 -0.072130
    29 1.719425 0.000000 -0.000001 -0.000003 0.000000 -0.676754
    30 1.099668 0.000002 0.000000 0.000000 0.000000 -1.021291
    31 0.806016 -0.359832 -1.318335 1.349688 0.343495 -0.771452
    32 1.789781 0.000002 0.000000 0.000000 0.000000 0.397501
    33 1.207000 -0.000003 0.000000 0.000000 0.000000 0.989035
    34 6.114872 -1.450000 -1.922837 -1.564198 -0.011689 -1.581440
    35 0.051129 3.122167 0.141701 0.000000 0.000000 1.570796
    36 0.000000 1.537868 5.938447 0.000000 -1.570796 0.000000
    37 0.000000 1.607461 -1.997381 0.000000 0.000000 0.000000
    38 0.000000 1.225112 -3.954164 0.000000 0.000000 0.000000
    39 3.820736 -1.409993 -0.589407 -1.564198 -0.011689 -1.581440
  time 6
    0 -0.002349 -0.531261 -29.431251 1.570796 0.000000 0.000000
    1 0.000005 3.345126 -2.981901 1.570796 0.086293 1.570796
    2 4.018332 0.000000 0.000000 0.000000 0.000000 -0.029242
    3 3.518572 0.000000 0.000000 0.000000 0.000000 0.100336
    4 8.942638 0.000001 0.000000 0.000000 0.000000 0.194096
    5 2.033349 1.000767 1.937660 1.596637 -1.286515 2.942961
    6 6.028142 0.000000 -0.000001 -1.579219 0.357992 -1.145041
    7 11.692554 -0.000002 0.000000 0.000000 0.000000 -1.541527
    8 11.481672 0.000000 -0.000031 1.573171 -0.028074 0.044380
    9 3.859705 -0.142405 -1.191976 -0.476795 0.134331 -0.965123
    10 1.312561 0.000000 0.000004 0.000000 0.000000 -0.279217
    11 0.729363 0.000002 -0.000004 0.000000 0.000000 -0.096881
    12 3.942328 0.046771 -0.431443 -0.145074 0.087435 -0.741666
    13 1.539092 0.000000 -0.000001 0.000000 0.000000 -0.309328
    14 1.196322 0.000001 0.000003 0.000000 0.000000 -0.521202
    15 3.883689 -0.046772 0.431443 0.085902 0.021830 -0.587867
    16 1.719575 0.000000 0.000000 0.000000 0.005516 -0.366479
    17 1.209184 0.000002 0.000000 0.000000 0.003084 -0.216399
    18 3.859862 -0.137947 1.332464 0.354449 -0.042750 -0.531718
    19 1.719428 0.000000 0.000003 0.000000 0.004074 -0.363009
    20 1.099666 -0.000001 -0.000002 0.000000 0.002596 -0.244330
    21 0.806047 -0.348922 1.321259 -1.166384 -0.626623 -0.921971
    22 1.789786 -0.000001 0.000001 0.000000 0.000000 0.189107
    23 1.206998 0.000003 0.000000 0.000000 0.000000 0.306017
    24 2.033356 1.000770 -1.937611 -1.668474 1.286518 2.942952
    25 6.028142 -0.000002 0.000000 1.921465 1.484453 -0.640321
    26 11.692551 -0.000002 -0.000001 0.000000 0.000000 -0.382490
    27 11.481699 -0.000002 0.000000 -1.288480 0.007080 0.249590
    28 3.859829 -0.148935 -1.331282 -0.248840 0.263123 -0.072130
    29 1.719425 0.000000 -0.000001 -0.000003 0.000000 -0.676754
    30 1.099668 0.000002 0.000000 0.000000 0.000000 -1.021291
    31 0.806016 -0.359832 -1.318335 1.349688 0.343495 -0.771452
    32 1.789781 0.000002 0.000000 0.000000 0.000000 0.397501
    33 1.207000 -0.000003 0.000000 0.000000 0.000000 0.989035
    34 6.114872 -1.450000 -1.922837 -1.564198 -0.011689 -1.581440
    35 0.051129 3.122167 0.141701 0.000000 0.000000 1.570796
    36 0.000000 1.537868 5.938447 0.000000 -1.570796 0.000000
    37 0.000000 1.607461 -1.997381 0.000000 0.000000 0.000000
    38 0.000000 1.225112 -3.954164 0.000000 0.000000 0.000000
    39 3.820736 -1.409993 -0.589407 -1.564198 -0.011689 -1.581440
  time 7
    0 -0.002349 -0.531261 -29.431251 1.570796 0.000000 0.000000
    1 0.000005 3.345126 -2.981901 1.570796 0.086293 1.570796
    2 4.018332 0.000000 0.000000 0.000000 0.000000 -0.029242
    3 3.518572 0.000000 0.000000 0.000000 0.000000 0.100336
    4 8.942638 0.000001 0.000000 0.000000 0.000000 0.194096
    5 2.033349 1.000767 1.937660 1.596637 -1.286515 2.942961
    6 6.028142 0.000000 -0.000001 -1.579219 0.357992 -1.145041
    7 11.692554 -0.000002 0.000000 0.000000 0.000000 -1.541527
    8 11.481672 0.000000 -0.000031 1.573171 -0.028074 0.044380
    9 3.859705 -0.142405 -1.191976 -0.476795 0.134331 -0.965123
    10 1.312561 0.000000 0.000004 0.000000 0.000000 -0.279217
    11 0.729363 0.000002 -0.000004 0.000000 0.000000 -0.096881
    12 3.942328 0.046771 -0.431443 -0.145074 0.087435 -0.741666
    13 1.539092 0.000000 -0.000001 0.000000 0.000000 -0.309328
    14 1.196322 0.000001 0.000003 0.000000 0.000000 -0.521202
    15 3.883689 -0.046772 0.431443 0.085902 0.021830 -0.587867
    16 1.719575 0.000000 0.000000 0.000000 0.005516 -0.366479
    17 1.209184 0.000002 0.000000 0.000000 0.003084 -0.216399
    18 3.859862 -0.137947 1.332464 0.354449 -0.042750 -0.531718
    19 1.719428 0.000000 0.000003 0.000000 0.004074 -0.363009
    20 1.099666 -0.000001 -0.000002 0.000000 0.002596 -0.244330
    21 0.806047 -0.348922 1.321259 -1.166384 -0.626623 -0.921971
    22 1.789786 -0.000001 0.000001 0.000000 0.000000 0.189107
    23 1.206998 0.000003 0.000000 0.000000 0.000000 0.306017
    24 2.033356 1.000770 -1.937611 -1.668474 1.286518 2.942952
    25 6.028142 -0.000002 0.000000 1.971073 1.494586 -0.590535
    26 11.692551 -0.000002 -0.000001 0.000000 0.000000 -0.360282
    27 11.481699 -0.000002 0.000000 -1.288083 0.006624 0.307754
    28 3.859829 -0.148935 -1.331282 -0.248840 0.263123 -0.072130
    29 1.719425 0.000000 -0.000001 -0.000003 0.000000 -0.676754
    30 1.099668 0.000002 0.000000 0.000000 0.000000 -1.021291
    31 0.806016 -0.359832 -1.318335 1.349688 0.343495 -0.771452
    32 1.789781 0.000002 0.000000 0.000000 0.000000 0.397501
    33 1.207000 -0.000003 0.000000 0.000000 0.000000 0.989035
    34 6.114872 -1.450000 -1.922837 -1.564198 -0.011689 -1.581440
    35 0.051129 3.122167 0.141701 0.000000 0.000000 1.570796
    36 0.000000 1.537868 5.938447 0.000000 -1.570796 0.000000
    37 0.000000 1.607461 -1.997381 0.000000 0.000000 0.000000
    38 0.000000 1.225112 -3.954164 0.000000 0.000000 0.000000
    39 3.820736 -1.409993 -0.589407 -1.564198 -0.011689 -1.581440
  time 8
    0 -0.002349 -0.531261 -29.431251 1.570796 0.000000 0.000000
    1 0.000005 3.345126 -2.981901 1.570796 0.086293 1.570796
    2 4.018332 0.000000 0.000000 0.000000 0.000000 -0.029242
    3 3.518572 0.000000 0.000000 0.000000 0.000000 0.100336
    4 8.942638 0.000001 0.000000 0.000000 0.000000 0.194096
    5 2.033349 1.000767 1.937660 1.596637 -1.286515 2.942961
    6 6.028142 0.000000 -0.000001 -1.579219 0.357992 -1.145041
    7 11.692554 -0.000002 0.000000 0.000000 0.000000 -1.541527
    8 11.481672 0.000000 -0.000031 1.573171 -0.028074 0.044380
    9 3.859705 -0.142405 -1.191976 -0.476795 0.134331 -0.965123
    10 1.312561 0.000000 0.000004 0.000000 0.000000 -0.279217
    11 0.729363 0.000002 -0.000004 0.000000 0.000000 -0.096881
    12 3.942328 0.046771 -0.431443 -0.145074 0.087435 -0.741666
    13 1.539092 0.000000 -0.000001 0.000000 0.000000 -0.309328
    14 1.196322 0.000001 0.000003 0.000000 0.000000 -0.521202
    15 3.883689 -0.046772 0.431443 0.085902 0.021830 -0.587867
    16 1.719575 0.000000 0.000000 0.000000 0.005516 -0.366479
    17 1.209184 0.000002 0.000000 0.000000 0.003084 -0.216399
    18 3.859862 -0.137947 1.332464 0.354449 -0.042750 -0.531718
    19 1.719428 0.000000 0.000003 0.000000 0.004074 -0.363009
    20 1.099666 -0.000001 -0.000002 0.000000 0.002596 -0.244330
    21 0.806047 -0.348922 1.321259 -1.166384 -0.626623 -0.921971
    22 1.789786 -0.000001 0.000001 0.000000 0.000000 0.189107
    23 1.206998 0.000003 0.000000 0.000000 0.000000 0.306017
    24 2.033356 1.000770 -1.937611 -1.668474 1.286518 2.942952
    25 6.028142 -0.000002 0.000000 2.017308 1.501983 -0.544125
    26 11.692551 -0.000002 -0.000001 0.000000 0.000000 -0.343775
    27 11.481699 -0.000002 0.000000 -1.288374 0.006940 0.267135
    28 3.859829 -0.148935 -1.331282 -0.248840 0.263123 -0.072130
    29 1.719425 0.000000 -0.000001 -0.000003 0.000000 -0.676754
    30 1.099668 0.000002 0.000000 0.000000 0.000000 -1.021291
    31 0.806016 -0.359832 -1.318335 1.349688 0.343495 -0.771452
    32 1.789781 0.000002 0.000000 0.000000 0.000000 0.397501
    33 1.207000 -0.000003 0.000000 0.000000 0.000000 0.989035
    34 6.114872 -1.450000 -1.922837 -1.564198 -0.011689 -1.581440
    35 0.051129 3.122167 0.141701 0.000000 0.000000 1.570796
    36 0.000000 1.537868 5.938447 0.000000 -1.570796 0.000000
    37 0.000000 1.607461 -1.997381 0.000000 0.000000 0.000000
    38 0.000000 1.225112 -3.954164 0.000000 0.000000 0.000000
    39 3.820736 -1.409993 -0.589407 -1.564198 -0.011689 -1.581440
  time 9
    0 -0.002349 -0.531261 -29.431251 1.570796 0.000000 0.000000
    1 0.000005 3.345126 -2.981901 1.570796 0.086293 1.570796
    2 4.018332 0.000000 0.000000 0.000000 0.000000 -0.029242
    3 3.518572 0.000000 0.000000 0.000000 0.000000 0.100336
    4 8.942638 0.000001 0.000000 0.000000 0.000000 0.194096
    5 2.033349 1.000767 1.937660 1.596637 -1.286515 2.942961
    6 6.028142 0.000000 -0.000001 -1.579219 0.357992 -1.145041
    7 11.692554 -0.000002 0.000000 0.000000 0.000000 -1.541527
    8 11.481672 0.000000 -0.000031 1.573171 -0.028074 0.044380
    9 3.859705 -0.142405 -1.191976 -0.476795 0.134331 -0.965123
    10 1.312561 0.000000 0.000004 0.000000 0.000000 -0.279217
    11 0.729363 0.000002 -0.000004 0.000000 0.000000 -0.096881
    12 3.942328 0.046771 -0.431443 -0.145074 0.087435 -0.741666
    13 1.539092 0.000000 -0.000001 0.000000 0.000000 -0.309328
    14 1.196322 0.000001 0.000003 0.000000 0.000000 -0.521202
    15 3.883689 -0.046772 0.431443 0.085902 0.021830 -0.587867
    16 1.719575 0.000000 0.000000 0.000000 0.005516 -0.366479
    17 1.209184 0.000002 0.000000 0.000000 0.003084 -0.216399
    18 3.859862 -0.137947 1.332464 0.354449 -0.042750 -0.531718
    19 1.719428 0.000000 0.000003 0.000000 0.004074 -0.363009
    20 1.099666 -0.000001 -0.000002 0.000000 0.002596 -0.244330
    21 0.806047 -0.348922 1.321259 -1.166384 -0.626623 -0.921971
    22 1.789786 -0.000001 0.000001 0.000000 0.000000 0.189107
    23 1.206998 0.000003 0.000000 0.000000 0.000000 0.306017
    24 2.033356 1.000770 -1.937611 -1.668474 1.286518 2.942952
    25 6.028142 -0.000002 0.000000 2.058979 1.507391 -0.502368
    26 11.692551 -0.000002 -0.000001 0.000000 0.000000 -0.331388
    27 11.481699 -0.000002 0.000000 -1.288718 0.007309 0.218262
    28 3.859829 -0.148935 -1.331282 -0.248840 0.263123 -0.072130
    29 1.719425 0.000000 -0.000001 -0.000003 0.000000 -0.676754
    30 1.099668 0.000002 0.000000 0.000000 0.000000 -1.021291
    31 0.806016 -0.359832 -1.318335 1.349688 0.343495 -0.771452
    32 1.789781 0.000002 0.000000 0.000000 0.000000 0.397501
    33 1.207000 -0.000003 0.000000 0.000000 0.000000 0.989035
    34 6.114872 -1.450000 -1.922837 -1.564198 -0.011689 -1.581440
    35 0.051129 3.122167 0.141701 0.000000 0.000000 1.570796
    36 0.000000 1.537868 5.938447 0.000000 -1.570796 0.000000
    37 0.000000 1.607461 -1.997381 0.000000 0.000000 0.000000
    38 0.000000 1.225112 -3.954164 0.000000 0.000000 0.000000
    39 3.820736 -1.409993 -0.589407 -1.564198 -0.011689 -1.581440
  time 10
    0 -0.002349 -0.531261 -29.431251 1.570796 0.000000 0.000000
    1 0.000005 3.345126 -2.981901 1.570796 0.086293 1.570796
    2 4.018332 0.000000 0.000000 0.000000 0.000000 -0.029242
    3 3.518572 0.000000 0.000000 0.000000 0.000000 0.100336
    4 8.942638 0.000001 0.000000 0.000000 0.000000 0.194096
    5 2.033349 1.000767 1.937660 1.596637 -1.286515 2.942961
    6 6.028142 0.000000 -0.000001 -1.579219 0.357992 -1.145041
    7 11.692554 -0.000002 0.000000 0.000000 0.000000 -1.541527
    8 11.481672 0.000000 -0.000031 1.573171 -0.028074 0.044380
    9 3.859705 -0.142405 -1.191976 -0.476795 0.134331 -0.965123
    10 1.312561 0.000000 0.000004 0.000000 0.000000 -0.279217
    11 0.729363 0.000002 -0.000004 0.000000 0.000000 -0.096881
    12 3.942328 0.046771 -0.431443 -0.145074 0.087435 -0.741666
    13 1.539092 0.000000 -0.000001 0.000000 0.000000 -0.309328
    14 1.196322 0.000001 0.000003 0.000000 0.000000 -0.521202
    15 3.883689 -0.046772 0.431443 0.085902 0.021830 -0.587867
    16 1.719575 0.000000 0.000000 0.000000 0.005516 -0.366479
    17 1.209184 0.000002 0.000000 0.000000 0.003084 -0.216399
    18 3.859862 -0.137947 1.332464 0.354449 -0.042750 -0.531718
    19 1.719428 0.000000 0.000003 0.000000 0.004074 -0.363009
    20 1.099666 -0.000001 -0.000002 0.000000 0.002596 -0.244330
    21 0.806047 -0.348922 1.321259 -1.166384 -0.626623 -0.921971
    22 1.789786 -0.000001 0.000001 0.000000 0.000000 0.189107
    23 1.206998 0.000003 0.000000 0.000000 0.000000 0.306017
    24 2.033356 1.000770 -1.937611 -1.668474 1.286518 2.942952
    25 6.028142 -0.000002 0.000000 2.092971 1.511152 -0.468302
    26 11.692551 -0.000002 -0.000001 0.000000 0.000000 -0.322677
    27 11.481699 -0.000002 0.000000 -1.288850 0.007432 0.198751
    28 3.859829 -0.148935 -1.331282 -0.248840 0.263123 -0.072130
    29 1.719425 0.000000 -0.000001 -0.000003 0.000000 -0.676754
    30 1.099668 0.000002 0.000000 0.000000 0.000000 -1.021291
    31 0.806016 -0.359832 -1.318335 1.349688 0.343495 -0.771452
    32 1.789781 0.000002 0.000000 0.000000 0.000000 0.397501
    33 1.207000 -0.000003 0.000000 0.000000 0.000000 0.989035
    34 6.114872 -1.450000 -1.922837 -1.564198 -0.011689 -1.581440
    35 0.051129 3.122167 0.141701 0.000000 0.000000 1.570796
    36 0.000000 1.537868 5.938447 0.000000 -1.570796 0.000000
    37 0.000000 1.607461 -1.997381 0.000000 0.000000 0.000000
    38 0.000000 1.225112 -3.954164 0.000000 0.000000 0.000000
    39 3.820736 -1.409993 -0.589407 -1.564198 -0.011689 -1.581440
  time 11
    0 -0.002349 -0.531261 -29.431251 1.570796 0.000000 0.000000
    1 0.000005 3.345126 -2.981901 1.570796 0.086293 1.570796
    2 4.018332 0.000000 0.000000 0.000000 0.000000 -0.029242
    3 3.518572 0.000000 0.000000 0.000000 0.000000 0.100336
    4 8.942638 0.000001 0.000000 0.000000 0.000000 0.194096
    5 2.033349 1.000767 1.937660 1.596637 -1.286515 2.942961
    6 6.028142 0.000000 -0.000001 -1.579219 0.357992 -1.145041
    7 11.692554 -0.000002 0.000000 0.000000 0.000000 -1.541527
    8 11.481672 0.000000 -0.000031 1.573171 -0.028074 0.044380
    9 3.859705 -0.142405 -1.191976 -0.476795 0.134331 -0.965123
    10 1.312561 0.000000 0.000004 0.000000 0.000000 -0.279217
    11 0.729363 0.000002 -0.000004 0.000000 0.000000 -0.096881
    12 3.942328 0.046771 -0.431443 -0.145074 0.087435 -0.741666
    13 1.539092 0.000000 -0.000001 0.000000 0.000000 -0.309328
    14 1.196322 0.000001 0.000003 0.000000 0.000000 -0.521202
    15 3.883689 -0.046772 0.431443 0.085902 0.021830 -0.587867
    16 1.719575 0.000000 0.000000 0.000000 0.005516 -0.366479
    17 1.209184 0.000002 0.000000 0.000000 0.003084 -0.216399
    18 3.859862 -0.137947 1.332464 0.354449 -0.042750 -0.531718
    19 1.719428 0.000000 0.000003 0.000000 0.004074 -0.363009
    20 1.099666 -0.000001 -0.000002 0.000000 0.002596 -0.244330
    21 0.806047 -0.348922 1.321259 -1.166384 -0.626623 -0.921971
    22 1.789786 -0.000001 0.000001 0.000000 0.000000 0.189107
    23 1.206998 0.000003 0.000000 0.000000 0.000000 0.306017
    24 2.033356 1.000770 -1.937611 -1.668474 1.286518 2.942952
    25 6.028142 -0.000002 0.000000 2.114858 1.513297 -0.446392
    26 11.692551 -0.000002 -0.000001 0.000000 0.000000 -0.317569
    27 11.481699 -0.000002 0.000000 -1.288876 0.007467 0.195402
    28 3.859829 -0.148935 -1.331282 -0.248840 0.263123 -0.072130
    29 1.719425 0.000000 -0.000001 -0.000003 0.000000 -0.676754
    30 1.099668 0.000002 0.000000 0.000000 0.000000 -1.021291
    31 0.806016 -0.359832 -1.318335 1.349688 0.343495 -0.771452
    32 1.789781 0.000002 0.000000 0.000000 0.000000 0.397501
    33 1.207000 -0.000003 0.000000 0.000000 0.000000 0.989035
    34 6.114872 -1.450000 -1.922837 -1.564198 -0.011689 -1.581440
    35 0.051129 3.122167 0.141701 0.000000 0.000000 1.570796
    36 0.000000 1.537868 5.938447 0.000000 -1.570796 0.000000
    37 0.000000 1.607461 -1.997381 0.000000 0.000000 0.000000
    38 0.000000 1.225112 -3.954164 0.000000 0.000000 0.000000
    39 3.820736 -1.409993 -0.589407 -1.564198 -0.011689 -1.581440
end
