// Created by Crowbar 0.68
version 1
nodes
  0 "ValveBiped.Bip01" -1
  1 "ValveBiped.Bip01_Spine" 0
  2 "ValveBiped.Bip01_Spine1" 1
  3 "ValveBiped.Bip01_Spine2" 2
  4 "ValveBiped.Bip01_Spine4" 3
  5 "ValveBiped.Bip01_L_Clavicle" 4
  6 "ValveBiped.Bip01_L_UpperArm" 5
  7 "ValveBiped.Bip01_L_Forearm" 6
  8 "ValveBiped.Bip01_L_Hand" 7
  9 "ValveBiped.Bip01_L_Finger4" 8
  10 "ValveBiped.Bip01_L_Finger41" 9
  11 "ValveBiped.Bip01_L_Finger42" 10
  12 "ValveBiped.Bip01_L_Finger3" 8
  13 "ValveBiped.Bip01_L_Finger31" 12
  14 "ValveBiped.Bip01_L_Finger32" 13
  15 "ValveBiped.Bip01_L_Finger2" 8
  16 "ValveBiped.Bip01_L_Finger21" 15
  17 "ValveBiped.Bip01_L_Finger22" 16
  18 "ValveBiped.Bip01_L_Finger1" 8
  19 "ValveBiped.Bip01_L_Finger11" 18
  20 "ValveBiped.Bip01_L_Finger12" 19
  21 "ValveBiped.Bip01_L_Finger0" 8
  22 "ValveBiped.Bip01_L_Finger01" 21
  23 "ValveBiped.Bip01_L_Finger02" 22
  24 "ValveBiped.Bip01_R_Clavicle" 4
  25 "ValveBiped.Bip01_R_UpperArm" 24
  26 "ValveBiped.Bip01_R_Forearm" 25
  27 "ValveBiped.Bip01_R_Hand" 26
  28 "ValveBiped.Bip01_R_Finger1" 27
  29 "ValveBiped.Bip01_R_Finger11" 28
  30 "ValveBiped.Bip01_R_Finger12" 29
  31 "ValveBiped.Bip01_R_Finger0" 27
  32 "ValveBiped.Bip01_R_Finger01" 31
  33 "ValveBiped.Bip01_R_Finger02" 32
  34 "ValveBiped.clip" 27
  35 "ValveBiped.base" 27
  36 "ValveBiped.square" 35
  37 "ValveBiped.hammer" 35
  38 "ValveBiped" -1
  39 "ValveBiped.eject" 35
  40 "ValveBiped.muzzle" 35
end
skeleton
  time 0
    0 -0.000005 -0.533203 -29.421875 1.570674 0.000061 -0.000061
    1 0.000005 3.345128 -2.981901 1.570796 0.086293 1.570796
    2 4.018331 0.000000 0.000000 0.000000 0.000000 -0.029242
    3 3.518565 0.000000 0.000000 0.000000 0.000000 0.100336
    4 8.942642 0.000000 0.000000 0.000000 0.000000 0.194096
    5 2.033346 1.000768 1.937660 1.596637 -1.286515 2.942961
    6 6.028142 0.000001 0.000000 -1.579126 0.358090 -1.144891
    7 11.692552 -0.000001 0.000000 0.000000 0.000000 -1.541449
    8 11.481672 -0.000001 -0.000032 1.573170 -0.028074 0.044380
    9 3.859704 -0.142405 -1.191973 -0.476795 0.134331 -0.965122
    10 1.312562 0.000001 -0.000001 0.000000 0.000000 -0.279217
    11 0.729363 0.000001 0.000000 0.000000 0.000000 -0.096881
    12 3.942325 0.046771 -0.431445 -0.145074 0.087435 -0.741654
    13 1.539092 0.000000 0.000003 0.000000 0.000000 -0.309340
    14 1.196322 0.000000 -0.000001 0.000000 0.000000 -0.521231
    15 3.883687 -0.046771 0.431442 0.085902 0.021830 -0.587867
    16 1.719575 0.000000 -0.000002 0.000000 0.005516 -0.366479
    17 1.209183 0.000000 0.000000 0.000000 0.003084 -0.216399
    18 3.859859 -0.137948 1.332466 0.354449 -0.042750 -0.531718
    19 1.719429 0.000001 0.000001 0.000000 0.004074 -0.363009
    20 1.099666 0.000000 -0.000001 0.000000 0.002596 -0.244330
    21 0.806045 -0.348922 1.321258 -1.166383 -0.626622 -0.921971
    22 1.789785 0.000000 0.000000 0.000000 0.000000 0.189107
    23 1.206998 0.000002 0.000000 0.000000 0.000000 0.306017
    24 2.033353 1.000771 -1.937610 -1.668475 1.286518 2.942953
    25 6.028143 0.000000 0.000000 1.592914 1.460920 -0.988922
    26 11.692554 0.000002 0.000000 0.000000 0.000000 -0.262225
    27 11.481700 0.000000 0.000001 -1.335321 -0.112220 0.464536
    28 3.859828 -0.148935 -1.331285 -0.248836 0.263135 -0.072059
    29 1.719426 0.000001 0.000000 0.000000 0.000000 -0.676654
    30 1.099664 0.000000 -0.000001 0.000000 0.000000 -1.021218
    31 0.806017 -0.359833 -1.318336 1.349688 0.343495 -0.771452
    32 1.789783 -0.000003 0.000000 0.000000 0.000000 0.397501
    33 1.206999 0.000002 0.000000 0.000000 0.000000 0.989035
    34 3.820737 -1.409994 -0.589411 -1.564198 -0.011689 -1.581440
    35 6.114873 -1.450001 -1.922836 -1.564198 -0.011689 -1.581440
    36 0.000000 1.607459 -0.020759 0.000000 0.000000 0.000000
    37 0.000000 1.225113 -3.954164 0.000000 0.000000 0.000000
    38 0.000000 0.000000 0.000000 1.570796 0.000000 -1.570796
    39 0.051129 3.122168 0.141701 0.000000 0.000000 1.570796
    40 0.000000 1.537867 5.938447 0.000000 -1.570796 0.000000
  time 1
    0 -0.000005 -0.533203 -29.421875 1.570674 0.000061 -0.000061
    1 0.000005 3.345128 -2.981901 1.570796 0.086293 1.570796
    2 4.018331 0.000000 0.000000 0.000000 0.000000 -0.029242
    3 3.518565 0.000000 0.000000 0.000000 0.000000 0.100336
    4 8.942642 0.000000 0.000000 0.000000 0.000000 0.194096
    5 2.033346 1.000768 1.937660 1.596637 -1.286515 2.942961
    6 6.028142 0.000001 0.000000 -1.579126 0.358090 -1.144891
    7 11.692552 -0.000001 0.000000 0.000000 0.000000 -1.541449
    8 11.481672 -0.000001 -0.000032 1.573170 -0.028074 0.044380
    9 3.859704 -0.142405 -1.191973 -0.476795 0.134331 -0.965122
    10 1.312562 0.000001 -0.000001 0.000000 0.000000 -0.279217
    11 0.729363 0.000001 0.000000 0.000000 0.000000 -0.096881
    12 3.942325 0.046771 -0.431445 -0.145074 0.087435 -0.741654
    13 1.539092 0.000000 0.000003 0.000000 0.000000 -0.309340
    14 1.196322 0.000000 -0.000001 0.000000 0.000000 -0.521231
    15 3.883687 -0.046771 0.431442 0.085902 0.021830 -0.587867
    16 1.719575 0.000000 -0.000002 0.000000 0.005516 -0.366479
    17 1.209183 0.000000 0.000000 0.000000 0.003084 -0.216399
    18 3.859859 -0.137948 1.332466 0.354449 -0.042750 -0.531718
    19 1.719429 0.000001 0.000001 0.000000 0.004074 -0.363009
    20 1.099666 0.000000 -0.000001 0.000000 0.002596 -0.244330
    21 0.806045 -0.348922 1.321258 -1.166383 -0.626622 -0.921971
    22 1.789785 0.000000 0.000000 0.000000 0.000000 0.189107
    23 1.206998 0.000002 0.000000 0.000000 0.000000 0.306017
    24 2.033353 1.000771 -1.937610 -1.668475 1.286518 2.942953
    25 6.028143 0.000000 0.000000 1.598837 1.461507 -0.982567
    26 11.692554 0.000002 0.000000 0.000000 0.000000 -0.265475
    27 11.481700 0.000000 0.000001 -1.334286 -0.109673 0.462708
    28 3.859828 -0.148935 -1.331285 -0.248836 0.263135 -0.072059
    29 1.719426 0.000001 0.000000 0.000000 0.000000 -0.676654
    30 1.099664 0.000000 -0.000001 0.000000 0.000000 -1.021218
    31 0.806017 -0.359833 -1.318336 1.349688 0.343495 -0.771452
    32 1.789783 -0.000003 0.000000 0.000000 0.000000 0.397501
    33 1.206999 0.000002 0.000000 0.000000 0.000000 0.989035
    34 3.820737 -1.409994 -0.589411 -1.564198 -0.011689 -1.581440
    35 6.114873 -1.450001 -1.922836 -1.564198 -0.011689 -1.581440
    36 0.000000 1.607459 -0.020759 0.000000 0.000000 0.000000
    37 0.000000 1.225113 -3.954164 0.000000 0.000000 0.000000
    38 0.000000 0.000000 0.000000 1.570796 0.000000 -1.570796
    39 0.051129 3.122168 0.141701 0.000000 0.000000 1.570796
    40 0.000000 1.537867 5.938447 0.000000 -1.570796 0.000000
  time 2
    0 -0.000005 -0.533203 -29.421875 1.570674 0.000061 -0.000061
    1 0.000005 3.345128 -2.981901 1.570796 0.086293 1.570796
    2 4.018331 0.000000 0.000000 0.000000 0.000000 -0.029242
    3 3.518565 0.000000 0.000000 0.000000 0.000000 0.100336
    4 8.942642 0.000000 0.000000 0.000000 0.000000 0.194096
    5 2.033346 1.000768 1.937660 1.596637 -1.286515 2.942961
    6 6.028142 0.000001 0.000000 -1.579126 0.358090 -1.144891
    7 11.692552 -0.000001 0.000000 0.000000 0.000000 -1.541449
    8 11.481672 -0.000001 -0.000032 1.573170 -0.028074 0.044380
    9 3.859704 -0.142405 -1.191973 -0.476795 0.134331 -0.965122
    10 1.312562 0.000001 -0.000001 0.000000 0.000000 -0.279217
    11 0.729363 0.000001 0.000000 0.000000 0.000000 -0.096881
    12 3.942325 0.046771 -0.431445 -0.145074 0.087435 -0.741654
    13 1.539092 0.000000 0.000003 0.000000 0.000000 -0.309340
    14 1.196322 0.000000 -0.000001 0.000000 0.000000 -0.521231
    15 3.883687 -0.046771 0.431442 0.085902 0.021830 -0.587867
    16 1.719575 0.000000 -0.000002 0.000000 0.005516 -0.366479
    17 1.209183 0.000000 0.000000 0.000000 0.003084 -0.216399
    18 3.859859 -0.137948 1.332466 0.354449 -0.042750 -0.531718
    19 1.719429 0.000001 0.000001 0.000000 0.004074 -0.363009
    20 1.099666 0.000000 -0.000001 0.000000 0.002596 -0.244330
    21 0.806045 -0.348922 1.321258 -1.166383 -0.626622 -0.921971
    22 1.789785 0.000000 0.000000 0.000000 0.000000 0.189107
    23 1.206998 0.000002 0.000000 0.000000 0.000000 0.306017
    24 2.033353 1.000771 -1.937610 -1.668475 1.286518 2.942953
    25 6.028143 0.000000 0.000000 1.620961 1.462173 -0.958685
    26 11.692554 0.000002 0.000000 0.000000 0.000000 -0.280601
    27 11.481700 0.000000 0.000001 -1.330781 -0.100714 0.454473
    28 3.859828 -0.148935 -1.331285 -0.248836 0.263135 -0.072059
    29 1.719426 0.000001 0.000000 0.000000 0.000000 -0.676654
    30 1.099664 0.000000 -0.000001 0.000000 0.000000 -1.021218
    31 0.806017 -0.359833 -1.318336 1.349688 0.343495 -0.771452
    32 1.789783 -0.000003 0.000000 0.000000 0.000000 0.397501
    33 1.206999 0.000002 0.000000 0.000000 0.000000 0.989035
    34 3.820737 -1.409994 -0.589411 -1.564198 -0.011689 -1.581440
    35 6.114873 -1.450001 -1.922836 -1.564198 -0.011689 -1.581440
    36 0.000000 1.607459 -0.020759 0.000000 0.000000 0.000000
    37 0.000000 1.225113 -3.954164 0.000000 0.000000 0.000000
    38 0.000000 0.000000 0.000000 1.570796 0.000000 -1.570796
    39 0.051129 3.122168 0.141701 0.000000 0.000000 1.570796
    40 0.000000 1.537867 5.938447 0.000000 -1.570796 0.000000
  time 3
    0 -0.000005 -0.533203 -29.421875 1.570674 0.000061 -0.000061
    1 0.000005 3.345128 -2.981901 1.570796 0.086293 1.570796
    2 4.018331 0.000000 0.000000 0.000000 0.000000 -0.029242
    3 3.518565 0.000000 0.000000 0.000000 0.000000 0.100336
    4 8.942642 0.000000 0.000000 0.000000 0.000000 0.194096
    5 2.033346 1.000768 1.937660 1.596637 -1.286515 2.942961
    6 6.028142 0.000001 0.000000 -1.579126 0.358090 -1.144891
    7 11.692552 -0.000001 0.000000 0.000000 0.000000 -1.541449
    8 11.481672 -0.000001 -0.000032 1.573170 -0.028074 0.044380
    9 3.859704 -0.142405 -1.191973 -0.476795 0.134331 -0.965122
    10 1.312562 0.000001 -0.000001 0.000000 0.000000 -0.279217
    11 0.729363 0.000001 0.000000 0.000000 0.000000 -0.096881
    12 3.942325 0.046771 -0.431445 -0.145074 0.087435 -0.741654
    13 1.539092 0.000000 0.000003 0.000000 0.000000 -0.309340
    14 1.196322 0.000000 -0.000001 0.000000 0.000000 -0.521231
    15 3.883687 -0.046771 0.431442 0.085902 0.021830 -0.587867
    16 1.719575 0.000000 -0.000002 0.000000 0.005516 -0.366479
    17 1.209183 0.000000 0.000000 0.000000 0.003084 -0.216399
    18 3.859859 -0.137948 1.332466 0.354449 -0.042750 -0.531718
    19 1.719429 0.000001 0.000001 0.000000 0.004074 -0.363009
    20 1.099666 0.000000 -0.000001 0.000000 0.002596 -0.244330
    21 0.806045 -0.348922 1.321258 -1.166383 -0.626622 -0.921971
    22 1.789785 0.000000 0.000000 0.000000 0.000000 0.189107
    23 1.206998 0.000002 0.000000 0.000000 0.000000 0.306017
    24 2.033353 1.000771 -1.937610 -1.668475 1.286518 2.942953
    25 6.028143 0.000000 0.000000 1.670609 1.465107 -0.905356
    26 11.692554 0.000002 0.000000 0.000000 0.000000 -0.308785
    27 11.481700 0.000000 0.000001 -1.322366 -0.083129 0.432784
    28 3.859828 -0.148935 -1.331285 -0.248836 0.263135 -0.072059
    29 1.719426 0.000001 0.000000 0.000000 0.000000 -0.676654
    30 1.099664 0.000000 -0.000001 0.000000 0.000000 -1.021218
    31 0.806017 -0.359833 -1.318336 1.349688 0.343495 -0.771452
    32 1.789783 -0.000003 0.000000 0.000000 0.000000 0.397501
    33 1.206999 0.000002 0.000000 0.000000 0.000000 0.989035
    34 3.820737 -1.409994 -0.589411 -1.564198 -0.011689 -1.581440
    35 6.114873 -1.450001 -1.922836 -1.564198 -0.011689 -1.581440
    36 0.000000 1.607459 -0.020759 0.000000 0.000000 0.000000
    37 0.000000 1.225113 -3.954164 0.000000 0.000000 0.000000
    38 0.000000 0.000000 0.000000 1.570796 0.000000 -1.570796
    39 0.051129 3.122168 0.141701 0.000000 0.000000 1.570796
    40 0.000000 1.537867 5.938447 0.000000 -1.570796 0.000000
  time 4
    0 -0.000005 -0.533203 -29.421875 1.570674 0.000061 -0.000061
    1 0.000005 3.345128 -2.981901 1.570796 0.086293 1.570796
    2 4.018331 0.000000 0.000000 0.000000 0.000000 -0.029242
    3 3.518565 0.000000 0.000000 0.000000 0.000000 0.100336
    4 8.942642 0.000000 0.000000 0.000000 0.000000 0.194096
    5 2.033346 1.000768 1.937660 1.596637 -1.286515 2.942961
    6 6.028142 0.000001 0.000000 -1.579126 0.358090 -1.144891
    7 11.692552 -0.000001 0.000000 0.000000 0.000000 -1.541449
    8 11.481672 -0.000001 -0.000032 1.573170 -0.028074 0.044380
    9 3.859704 -0.142405 -1.191973 -0.476795 0.134331 -0.965122
    10 1.312562 0.000001 -0.000001 0.000000 0.000000 -0.279217
    11 0.729363 0.000001 0.000000 0.000000 0.000000 -0.096881
    12 3.942325 0.046771 -0.431445 -0.145074 0.087435 -0.741654
    13 1.539092 0.000000 0.000003 0.000000 0.000000 -0.309340
    14 1.196322 0.000000 -0.000001 0.000000 0.000000 -0.521231
    15 3.883687 -0.046771 0.431442 0.085902 0.021830 -0.587867
    16 1.719575 0.000000 -0.000002 0.000000 0.005516 -0.366479
    17 1.209183 0.000000 0.000000 0.000000 0.003084 -0.216399
    18 3.859859 -0.137948 1.332466 0.354449 -0.042750 -0.531718
    19 1.719429 0.000001 0.000001 0.000000 0.004074 -0.363009
    20 1.099666 0.000000 -0.000001 0.000000 0.002596 -0.244330
    21 0.806045 -0.348922 1.321258 -1.166383 -0.626622 -0.921971
    22 1.789785 0.000000 0.000000 0.000000 0.000000 0.189107
    23 1.206998 0.000002 0.000000 0.000000 0.000000 0.306017
    24 2.033353 1.000771 -1.937610 -1.668475 1.286518 2.942953
    25 6.028143 0.000000 0.000000 1.775568 1.482521 -0.794869
    26 11.692554 0.000002 0.000000 0.000000 0.000000 -0.319687
    27 11.481700 0.000000 0.000001 -1.309517 -0.056988 0.387755
    28 3.859828 -0.148935 -1.331285 -0.248836 0.263135 -0.072059
    29 1.719426 0.000001 0.000000 0.000000 0.000000 -0.676654
    30 1.099664 0.000000 -0.000001 0.000000 0.000000 -1.021218
    31 0.806017 -0.359833 -1.318336 1.349688 0.343495 -0.771452
    32 1.789783 -0.000003 0.000000 0.000000 0.000000 0.397501
    33 1.206999 0.000002 0.000000 0.000000 0.000000 0.989035
    34 3.820737 -1.409994 -0.589411 -1.564198 -0.011689 -1.581440
    35 6.114873 -1.450001 -1.922836 -1.564198 -0.011689 -1.581440
    36 0.000000 1.607459 -0.020759 0.000000 0.000000 0.000000
    37 0.000000 1.225113 -3.954164 0.000000 0.000000 0.000000
    38 0.000000 0.000000 0.000000 1.570796 0.000000 -1.570796
    39 0.051129 3.122168 0.141701 0.000000 0.000000 1.570796
    40 0.000000 1.537867 5.938447 0.000000 -1.570796 0.000000
  time 5
    0 -0.000005 -0.533203 -29.421875 1.570674 0.000061 -0.000061
    1 0.000005 3.345128 -2.981901 1.570796 0.086293 1.570796
    2 4.018331 0.000000 0.000000 0.000000 0.000000 -0.029242
    3 3.518565 0.000000 0.000000 0.000000 0.000000 0.100336
    4 8.942642 0.000000 0.000000 0.000000 0.000000 0.194096
    5 2.033346 1.000768 1.937660 1.596637 -1.286515 2.942961
    6 6.028142 0.000001 0.000000 -1.579126 0.358090 -1.144891
    7 11.692552 -0.000001 0.000000 0.000000 0.000000 -1.541449
    8 11.481672 -0.000001 -0.000032 1.573170 -0.028074 0.044380
    9 3.859704 -0.142405 -1.191973 -0.476795 0.134331 -0.965122
    10 1.312562 0.000001 -0.000001 0.000000 0.000000 -0.279217
    11 0.729363 0.000001 0.000000 0.000000 0.000000 -0.096881
    12 3.942325 0.046771 -0.431445 -0.145074 0.087435 -0.741654
    13 1.539092 0.000000 0.000003 0.000000 0.000000 -0.309340
    14 1.196322 0.000000 -0.000001 0.000000 0.000000 -0.521231
    15 3.883687 -0.046771 0.431442 0.085902 0.021830 -0.587867
    16 1.719575 0.000000 -0.000002 0.000000 0.005516 -0.366479
    17 1.209183 0.000000 0.000000 0.000000 0.003084 -0.216399
    18 3.859859 -0.137948 1.332466 0.354449 -0.042750 -0.531718
    19 1.719429 0.000001 0.000001 0.000000 0.004074 -0.363009
    20 1.099666 0.000000 -0.000001 0.000000 0.002596 -0.244330
    21 0.806045 -0.348922 1.321258 -1.166383 -0.626622 -0.921971
    22 1.789785 0.000000 0.000000 0.000000 0.000000 0.189107
    23 1.206998 0.000002 0.000000 0.000000 0.000000 0.306017
    24 2.033353 1.000771 -1.937610 -1.668475 1.286518 2.942953
    25 6.028143 0.000000 0.000000 1.916478 1.499348 -0.649131
    26 11.692554 0.000002 0.000000 0.000000 0.000000 -0.320307
    27 11.481700 0.000000 0.000001 -1.298075 -0.029161 0.322513
    28 3.859828 -0.148935 -1.331285 -0.248836 0.263135 -0.072059
    29 1.719426 0.000001 0.000000 0.000000 0.000000 -0.676654
    30 1.099664 0.000000 -0.000001 0.000000 0.000000 -1.021218
    31 0.806017 -0.359833 -1.318336 1.349688 0.343495 -0.771452
    32 1.789783 -0.000003 0.000000 0.000000 0.000000 0.397501
    33 1.206999 0.000002 0.000000 0.000000 0.000000 0.989035
    34 3.820737 -1.409994 -0.589411 -1.564198 -0.011689 -1.581440
    35 6.114873 -1.450001 -1.922836 -1.564198 -0.011689 -1.581440
    36 0.000000 1.607459 -0.020759 0.000000 0.000000 0.000000
    37 0.000000 1.225113 -3.954164 0.000000 0.000000 0.000000
    38 0.000000 0.000000 0.000000 1.570796 0.000000 -1.570796
    39 0.051129 3.122168 0.141701 0.000000 0.000000 1.570796
    40 0.000000 1.537867 5.938447 0.000000 -1.570796 0.000000
  time 6
    0 -0.000005 -0.533203 -29.421875 1.570674 0.000061 -0.000061
    1 0.000005 3.345128 -2.981901 1.570796 0.086293 1.570796
    2 4.018331 0.000000 0.000000 0.000000 0.000000 -0.029242
    3 3.518565 0.000000 0.000000 0.000000 0.000000 0.100336
    4 8.942642 0.000000 0.000000 0.000000 0.000000 0.194096
    5 2.033346 1.000768 1.937660 1.596637 -1.286515 2.942961
    6 6.028142 0.000001 0.000000 -1.579126 0.358090 -1.144891
    7 11.692552 -0.000001 0.000000 0.000000 0.000000 -1.541449
    8 11.481672 -0.000001 -0.000032 1.573170 -0.028074 0.044380
    9 3.859704 -0.142405 -1.191973 -0.476795 0.134331 -0.965122
    10 1.312562 0.000001 -0.000001 0.000000 0.000000 -0.279217
    11 0.729363 0.000001 0.000000 0.000000 0.000000 -0.096881
    12 3.942325 0.046771 -0.431445 -0.145074 0.087435 -0.741654
    13 1.539092 0.000000 0.000003 0.000000 0.000000 -0.309340
    14 1.196322 0.000000 -0.000001 0.000000 0.000000 -0.521231
    15 3.883687 -0.046771 0.431442 0.085902 0.021830 -0.587867
    16 1.719575 0.000000 -0.000002 0.000000 0.005516 -0.366479
    17 1.209183 0.000000 0.000000 0.000000 0.003084 -0.216399
    18 3.859859 -0.137948 1.332466 0.354449 -0.042750 -0.531718
    19 1.719429 0.000001 0.000001 0.000000 0.004074 -0.363009
    20 1.099666 0.000000 -0.000001 0.000000 0.002596 -0.244330
    21 0.806045 -0.348922 1.321258 -1.166383 -0.626622 -0.921971
    22 1.789785 0.000000 0.000000 0.000000 0.000000 0.189107
    23 1.206998 0.000002 0.000000 0.000000 0.000000 0.306017
    24 2.033353 1.000771 -1.937610 -1.668475 1.286518 2.942953
    25 6.028143 0.000000 0.000000 2.037965 1.508974 -0.524788
    26 11.692554 0.000002 0.000000 0.000000 0.000000 -0.318239
    27 11.481700 0.000000 0.000001 -1.291623 -0.007729 0.258789
    28 3.859828 -0.148935 -1.331285 -0.248836 0.263135 -0.072059
    29 1.719426 0.000001 0.000000 0.000000 0.000000 -0.676654
    30 1.099664 0.000000 -0.000001 0.000000 0.000000 -1.021218
    31 0.806017 -0.359833 -1.318336 1.349688 0.343495 -0.771452
    32 1.789783 -0.000003 0.000000 0.000000 0.000000 0.397501
    33 1.206999 0.000002 0.000000 0.000000 0.000000 0.989035
    34 3.820737 -1.409994 -0.589411 -1.564198 -0.011689 -1.581440
    35 6.114873 -1.450001 -1.922836 -1.564198 -0.011689 -1.581440
    36 0.000000 1.607459 -0.020759 0.000000 0.000000 0.000000
    37 0.000000 1.225113 -3.954164 0.000000 0.000000 0.000000
    38 0.000000 0.000000 0.000000 1.570796 0.000000 -1.570796
    39 0.051129 3.122168 0.141701 0.000000 0.000000 1.570796
    40 0.000000 1.537867 5.938447 0.000000 -1.570796 0.000000
  time 7
    0 -0.000005 -0.533203 -29.421875 1.570674 0.000061 -0.000061
    1 0.000005 3.345128 -2.981901 1.570796 0.086293 1.570796
    2 4.018331 0.000000 0.000000 0.000000 0.000000 -0.029242
    3 3.518565 0.000000 0.000000 0.000000 0.000000 0.100336
    4 8.942642 0.000000 0.000000 0.000000 0.000000 0.194096
    5 2.033346 1.000768 1.937660 1.596637 -1.286515 2.942961
    6 6.028142 0.000001 0.000000 -1.579126 0.358090 -1.144891
    7 11.692552 -0.000001 0.000000 0.000000 0.000000 -1.541449
    8 11.481672 -0.000001 -0.000032 1.573170 -0.028074 0.044380
    9 3.859704 -0.142405 -1.191973 -0.476795 0.134331 -0.965122
    10 1.312562 0.000001 -0.000001 0.000000 0.000000 -0.279217
    11 0.729363 0.000001 0.000000 0.000000 0.000000 -0.096881
    12 3.942325 0.046771 -0.431445 -0.145074 0.087435 -0.741654
    13 1.539092 0.000000 0.000003 0.000000 0.000000 -0.309340
    14 1.196322 0.000000 -0.000001 0.000000 0.000000 -0.521231
    15 3.883687 -0.046771 0.431442 0.085902 0.021830 -0.587867
    16 1.719575 0.000000 -0.000002 0.000000 0.005516 -0.366479
    17 1.209183 0.000000 0.000000 0.000000 0.003084 -0.216399
    18 3.859859 -0.137948 1.332466 0.354449 -0.042750 -0.531718
    19 1.719429 0.000001 0.000001 0.000000 0.004074 -0.363009
    20 1.099666 0.000000 -0.000001 0.000000 0.002596 -0.244330
    21 0.806045 -0.348922 1.321258 -1.166383 -0.626622 -0.921971
    22 1.789785 0.000000 0.000000 0.000000 0.000000 0.189107
    23 1.206998 0.000002 0.000000 0.000000 0.000000 0.306017
    24 2.033353 1.000771 -1.937610 -1.668475 1.286518 2.942953
    25 6.028143 0.000000 0.000000 2.106384 1.513044 -0.455077
    26 11.692554 0.000002 0.000000 0.000000 0.000000 -0.316851
    27 11.481700 0.000000 0.000001 -1.289287 0.004182 0.214971
    28 3.859828 -0.148935 -1.331285 -0.248836 0.263135 -0.072059
    29 1.719426 0.000001 0.000000 0.000000 0.000000 -0.676654
    30 1.099664 0.000000 -0.000001 0.000000 0.000000 -1.021218
    31 0.806017 -0.359833 -1.318336 1.349688 0.343495 -0.771452
    32 1.789783 -0.000003 0.000000 0.000000 0.000000 0.397501
    33 1.206999 0.000002 0.000000 0.000000 0.000000 0.989035
    34 3.820737 -1.409994 -0.589411 -1.564198 -0.011689 -1.581440
    35 6.114873 -1.450001 -1.922836 -1.564198 -0.011689 -1.581440
    36 0.000000 1.607459 -0.020759 0.000000 0.000000 0.000000
    37 0.000000 1.225113 -3.954164 0.000000 0.000000 0.000000
    38 0.000000 0.000000 0.000000 1.570796 0.000000 -1.570796
    39 0.051129 3.122168 0.141701 0.000000 0.000000 1.570796
    40 0.000000 1.537867 5.938447 0.000000 -1.570796 0.000000
  time 8
    0 -0.000005 -0.533203 -29.421875 1.570674 0.000061 -0.000061
    1 0.000005 3.345128 -2.981901 1.570796 0.086293 1.570796
    2 4.018331 0.000000 0.000000 0.000000 0.000000 -0.029242
    3 3.518565 0.000000 0.000000 0.000000 0.000000 0.100336
    4 8.942642 0.000000 0.000000 0.000000 0.000000 0.194096
    5 2.033346 1.000768 1.937660 1.596637 -1.286515 2.942961
    6 6.028142 0.000001 0.000000 -1.579126 0.358090 -1.144891
    7 11.692552 -0.000001 0.000000 0.000000 0.000000 -1.541449
    8 11.481672 -0.000001 -0.000032 1.573170 -0.028074 0.044380
    9 3.859704 -0.142405 -1.191973 -0.476795 0.134331 -0.965122
    10 1.312562 0.000001 -0.000001 0.000000 0.000000 -0.279217
    11 0.729363 0.000001 0.000000 0.000000 0.000000 -0.096881
    12 3.942325 0.046771 -0.431445 -0.145074 0.087435 -0.741654
    13 1.539092 0.000000 0.000003 0.000000 0.000000 -0.309340
    14 1.196322 0.000000 -0.000001 0.000000 0.000000 -0.521231
    15 3.883687 -0.046771 0.431442 0.085902 0.021830 -0.587867
    16 1.719575 0.000000 -0.000002 0.000000 0.005516 -0.366479
    17 1.209183 0.000000 0.000000 0.000000 0.003084 -0.216399
    18 3.859859 -0.137948 1.332466 0.354449 -0.042750 -0.531718
    19 1.719429 0.000001 0.000001 0.000000 0.004074 -0.363009
    20 1.099666 0.000000 -0.000001 0.000000 0.002596 -0.244330
    21 0.806045 -0.348922 1.321258 -1.166383 -0.626622 -0.921971
    22 1.789785 0.000000 0.000000 0.000000 0.000000 0.189107
    23 1.206998 0.000002 0.000000 0.000000 0.000000 0.306017
    24 2.033353 1.000771 -1.937610 -1.668475 1.286518 2.942953
    25 6.028143 0.000000 0.000000 2.118883 1.513670 -0.442327
    26 11.692554 0.000002 0.000000 0.000000 0.000000 -0.316673
    27 11.481700 0.000000 0.000001 -1.288836 0.007432 0.200681
    28 3.859828 -0.148935 -1.331285 -0.248836 0.263135 -0.072059
    29 1.719426 0.000001 0.000000 0.000000 0.000000 -0.676654
    30 1.099664 0.000000 -0.000001 0.000000 0.000000 -1.021218
    31 0.806017 -0.359833 -1.318336 1.349688 0.343495 -0.771452
    32 1.789783 -0.000003 0.000000 0.000000 0.000000 0.397501
    33 1.206999 0.000002 0.000000 0.000000 0.000000 0.989035
    34 3.820737 -1.409994 -0.589411 -1.564198 -0.011689 -1.581440
    35 6.114873 -1.450001 -1.922836 -1.564198 -0.011689 -1.581440
    36 0.000000 1.607459 -0.020759 0.000000 0.000000 0.000000
    37 0.000000 1.225113 -3.954164 0.000000 0.000000 0.000000
    38 0.000000 0.000000 0.000000 1.570796 0.000000 -1.570796
    39 0.051129 3.122168 0.141701 0.000000 0.000000 1.570796
    40 0.000000 1.537867 5.938447 0.000000 -1.570796 0.000000
end
