//=================================================================================
//	SMD Generated by Source Model Decompiler.
//=================================================================================
version 1
nodes
0 "Bip01"  -1
1 "Bip01 Pelvis"  0
2 "Bip01 Spine"  1
3 "Bip01 Neck"  2
4 "Bip01 L Clavicle"  3
5 "Bip01 L UpperArm"  4
6 "Bip01 L Forearm"  5
7 "Bip01 L Hand"  6
8 "Bip01 L Finger0"  7
9 "Bip01 L Finger01"  8
10 "Bip01 L Finger02"  9
11 "Bip01 L Finger1"  7
12 "Bip01 L Finger11"  11
13 "Bip01 L Finger12"  12
14 "Bip01 L Finger2"  7
15 "Bip01 L Finger21"  14
16 "Bip01 L Finger22"  15
17 "Bip01 L Finger3"  7
18 "Bip01 L Finger31"  17
19 "Bip01 L Finger32"  18
20 "Bip01 L Finger4"  7
21 "Bip01 L Finger41"  20
22 "Bip01 L Finger42"  21
23 "Dummy14"  7
24 "Dummy15"  23
25 "Dummy16"  24
26 "Muzzle"  7
end
skeleton
time 0
0 -14.853417 -9.686016 -24.109648 0.000000 -0.000000 -1.570795
1 -0.000000 -0.000000 -0.000002 0.000000 -1.570451 -1.570795
2 4.443617 -0.009642 0.000006 -0.000004 -0.000001 0.000796
3 12.111417 -0.011446 0.000000 0.000000 -0.000000 -0.000000
4 0.000007 0.011442 1.352404 -0.000014 -1.370796 3.140810
5 6.078087 -0.000001 -0.000001 -1.106242 0.857516 -1.212193
6 13.446751 0.000002 -0.000000 0.000000 0.000000 -1.170317
7 15.997005 0.000001 0.000002 -0.899629 -0.016862 0.217924
8 1.885327 0.833276 -2.177877 -1.342085 0.488042 0.396212
9 1.506962 0.000000 -0.000001 0.000000 -0.000000 -0.314158
10 0.798347 -0.000001 -0.000001 0.000000 -0.000000 -0.287978
11 3.950301 -0.539876 -2.108870 -0.041206 0.151627 -0.261498
12 1.545798 -0.000001 -0.000001 -0.000000 0.000000 0.774916
13 1.667396 0.000005 0.000002 -0.000000 0.000000 0.788883
14 3.899461 -0.475376 -1.170889 -0.000796 -0.000048 -0.073298
15 1.528216 0.000000 0.000001 -0.000000 0.000000 0.687651
16 1.528216 -0.000000 -0.000002 -0.000000 0.000000 0.836004
17 3.899458 -0.431803 0.168224 -0.000796 0.000000 -0.000000
18 1.506964 0.000001 0.000003 -0.000000 0.000000 0.808081
19 1.506962 -0.000002 -0.000003 -0.000000 0.000000 0.720814
20 3.915631 -0.278021 1.402608 -0.000796 0.000000 -0.000000
21 1.333086 -0.000000 0.000001 -0.000000 0.000000 0.968647
22 1.159204 -0.000003 -0.000000 -0.000000 0.000000 0.549768
23 0.035453 0.146664 -8.992992 -3.113792 -0.773884 -1.560691
24 2.186862 3.710785 -0.695477 -0.000000 0.000000 0.000000
25 0.739280 -0.050910 2.180753 -0.000000 0.000000 0.000000
26 41.624191 11.098160 -0.241271 -1.582244 0.018583 -3.126151
time 1
0 -14.853417 -9.686016 -24.109648 0.000000 -0.000000 -1.570795
1 -0.000000 -0.000000 -0.000002 0.000000 -1.570451 -1.570795
2 4.443617 -0.009642 0.000006 -0.000004 -0.000001 0.000796
3 12.111417 -0.011446 0.000000 0.000000 -0.000000 -0.000000
4 0.000007 0.011442 1.352404 -0.000014 -1.370796 3.140810
5 6.078087 -0.000001 -0.000001 -0.974811 1.047848 -1.104950
6 13.446751 0.000002 -0.000000 0.000000 0.000000 -1.603834
7 15.997005 0.000001 0.000002 -0.920482 -0.075539 0.446546
8 1.885327 0.833276 -2.177877 -1.342085 0.488042 0.396212
9 1.506962 0.000000 -0.000001 0.000000 -0.000000 -0.314158
10 0.798347 -0.000001 -0.000001 0.000000 -0.000000 -0.287978
11 3.950301 -0.539876 -2.108870 -0.041206 0.151627 -0.261498
12 1.545798 -0.000001 -0.000001 -0.000000 0.000000 0.774916
13 1.667396 0.000005 0.000002 -0.000000 0.000000 0.788883
14 3.899461 -0.475376 -1.170889 -0.000796 -0.000048 -0.073298
15 1.528216 0.000000 0.000001 -0.000000 0.000000 0.687651
16 1.528216 -0.000000 -0.000002 -0.000000 0.000000 0.836004
17 3.899458 -0.431803 0.168224 -0.000796 0.000000 -0.000000
18 1.506964 0.000001 0.000003 -0.000000 0.000000 0.808081
19 1.506962 -0.000002 -0.000003 -0.000000 0.000000 0.720814
20 3.915631 -0.278021 1.402608 -0.000796 0.000000 -0.000000
21 1.333086 -0.000000 0.000001 -0.000000 0.000000 0.968647
22 1.159204 -0.000003 -0.000000 -0.000000 0.000000 0.549768
23 0.035453 0.146664 -8.992992 -3.113792 -0.773884 -1.560691
24 2.186862 3.710785 -0.695477 -0.000000 0.000000 0.000000
25 0.739280 -0.050910 2.180753 -0.000000 0.000000 0.000000
26 41.624191 11.098160 -0.241271 -1.582244 0.018583 -3.126151
time 2
0 -14.853417 -9.686016 -24.109648 0.000000 -0.000000 -1.570795
1 -0.000000 -0.000000 -0.000002 0.000000 -1.570451 -1.570795
2 4.443617 -0.009642 0.000006 -0.000004 -0.000001 0.000796
3 12.111417 -0.011446 0.000000 0.000000 -0.000000 -0.000000
4 0.000007 0.011442 1.352404 -0.000014 -1.370796 3.140810
5 6.078087 -0.000001 -0.000001 -1.060597 0.937599 -1.181444
6 13.446751 0.000002 -0.000000 0.000000 0.000000 -1.434380
7 15.997005 0.000001 0.000002 -0.851740 -0.051785 0.359532
8 1.885327 0.833276 -2.177877 -1.342085 0.488042 0.396212
9 1.506962 0.000000 -0.000001 0.000000 -0.000000 -0.314158
10 0.798347 -0.000001 -0.000001 0.000000 -0.000000 -0.287978
11 3.950301 -0.539876 -2.108870 -0.041206 0.151627 -0.261498
12 1.545798 -0.000001 -0.000001 -0.000000 0.000000 0.774916
13 1.667396 0.000005 0.000002 -0.000000 0.000000 0.788883
14 3.899461 -0.475376 -1.170889 -0.000796 -0.000048 -0.073298
15 1.528216 0.000000 0.000001 -0.000000 0.000000 0.687651
16 1.528216 -0.000000 -0.000002 -0.000000 0.000000 0.836004
17 3.899458 -0.431803 0.168224 -0.000796 0.000000 -0.000000
18 1.506964 0.000001 0.000003 -0.000000 0.000000 0.808081
19 1.506962 -0.000002 -0.000003 -0.000000 0.000000 0.720814
20 3.915631 -0.278021 1.402608 -0.000796 0.000000 -0.000000
21 1.333086 -0.000000 0.000001 -0.000000 0.000000 0.968647
22 1.159204 -0.000003 -0.000000 -0.000000 0.000000 0.549768
23 0.035453 0.146664 -8.992992 -3.113792 -0.773884 -1.560691
24 2.186862 3.710785 -0.695477 -0.000000 0.000000 0.000000
25 2.364330 -0.050910 2.196378 -0.000000 0.000000 0.000000
26 41.624191 11.098160 -0.241271 -1.582244 0.018583 -3.126151
time 3
0 -14.853417 -9.686016 -24.109648 0.000000 -0.000000 -1.570795
1 -0.000000 -0.000000 -0.000002 0.000000 -1.570451 -1.570795
2 4.443617 -0.009642 0.000006 -0.000004 -0.000001 0.000796
3 12.111417 -0.011446 0.000000 0.000000 -0.000000 -0.000000
4 0.000007 0.011442 1.352404 -0.000014 -1.370796 3.140810
5 6.078087 -0.000001 -0.000001 -1.144828 0.778483 -1.258283
6 13.446751 0.000002 -0.000000 0.000000 0.000000 -1.149334
7 15.997005 0.000001 0.000002 -0.798394 -0.016862 0.217924
8 1.885327 0.833276 -2.177877 -1.342085 0.488042 0.396212
9 1.506962 0.000000 -0.000001 0.000000 -0.000000 -0.314158
10 0.798347 -0.000001 -0.000001 0.000000 -0.000000 -0.287978
11 3.950301 -0.539876 -2.108870 -0.041206 0.151627 -0.261498
12 1.545798 -0.000001 -0.000001 -0.000000 0.000000 0.774916
13 1.667396 0.000005 0.000002 -0.000000 0.000000 0.788883
14 3.899461 -0.475376 -1.170889 -0.000796 -0.000048 -0.073298
15 1.528216 0.000000 0.000001 -0.000000 0.000000 0.687651
16 1.528216 -0.000000 -0.000002 -0.000000 0.000000 0.836004
17 3.899458 -0.431803 0.168224 -0.000796 0.000000 -0.000000
18 1.506964 0.000001 0.000003 -0.000000 0.000000 0.808081
19 1.506962 -0.000002 -0.000003 -0.000000 0.000000 0.720814
20 3.915631 -0.278021 1.402608 -0.000796 0.000000 -0.000000
21 1.333086 -0.000000 0.000001 -0.000000 0.000000 0.968647
22 1.159204 -0.000003 -0.000000 -0.000000 0.000000 0.549768
23 0.035453 0.146664 -8.992992 -3.113792 -0.773884 -1.560691
24 2.186862 3.710785 -0.695477 -0.000000 0.000000 0.000000
25 2.364330 -0.050910 2.196378 -0.000000 0.000000 0.000000
26 41.624191 11.098160 -0.241271 -1.582244 0.018583 -3.126151
time 4
0 -14.853417 -9.686016 -24.109648 0.000000 -0.000000 -1.570795
1 -0.000000 -0.000000 -0.000002 0.000000 -1.570451 -1.570795
2 4.443617 -0.009642 0.000006 -0.000004 -0.000001 0.000796
3 12.111417 -0.011446 0.000000 0.000000 -0.000000 -0.000000
4 0.000007 0.011442 1.352404 -0.000014 -1.370796 3.140810
5 6.078087 -0.000001 -0.000001 -1.196455 0.640202 -1.335053
6 13.446751 0.000002 -0.000000 0.000000 0.000000 -0.849347
7 15.997005 0.000001 0.000002 -0.831752 -0.029482 0.085420
8 1.885327 0.833276 -2.177877 -1.342085 0.488042 0.396212
9 1.506962 0.000000 -0.000001 0.000000 -0.000000 -0.314158
10 0.798347 -0.000001 -0.000001 0.000000 -0.000000 -0.287978
11 3.950301 -0.539876 -2.108870 -0.041206 0.151627 -0.261498
12 1.545798 -0.000001 -0.000001 -0.000000 0.000000 0.774916
13 1.667396 0.000005 0.000002 -0.000000 0.000000 0.788883
14 3.899461 -0.475376 -1.170889 -0.000796 -0.000048 -0.073298
15 1.528216 0.000000 0.000001 -0.000000 0.000000 0.687651
16 1.528216 -0.000000 -0.000002 -0.000000 0.000000 0.836004
17 3.899458 -0.431803 0.168224 -0.000796 0.000000 -0.000000
18 1.506964 0.000001 0.000003 -0.000000 0.000000 0.808081
19 1.506962 -0.000002 -0.000003 -0.000000 0.000000 0.720814
20 3.915631 -0.278021 1.402608 -0.000796 0.000000 -0.000000
21 1.333086 -0.000000 0.000001 -0.000000 0.000000 0.968647
22 1.159204 -0.000003 -0.000000 -0.000000 0.000000 0.549768
23 0.035453 0.146664 -8.992992 -3.113792 -0.773884 -1.560691
24 2.186862 3.710785 -0.695477 0.888111 0.000000 0.000000
25 2.364330 -0.050910 2.196378 -0.000000 0.000000 0.000000
26 41.624191 11.098160 -0.241271 -1.582244 0.018583 -3.126151
time 5
0 -14.853417 -9.686016 -24.109648 0.000000 -0.000000 -1.570795
1 -0.000000 -0.000000 -0.000002 0.000000 -1.570451 -1.570795
2 4.443617 -0.009642 0.000006 -0.000004 -0.000001 0.000796
3 12.111417 -0.011446 0.000000 0.000000 -0.000000 -0.000000
4 0.000007 0.011442 1.352404 -0.000014 -1.370796 3.140810
5 6.078087 -0.000001 -0.000001 -1.214940 0.573835 -1.375822
6 13.446751 0.000002 -0.000000 0.000000 0.000000 -0.650480
7 15.997005 0.000001 0.000002 -0.877967 -0.058077 -0.008204
8 1.885327 0.833276 -2.177877 -1.342085 0.488042 0.396212
9 1.506962 0.000000 -0.000001 0.000000 -0.000000 -0.314158
10 0.798347 -0.000001 -0.000001 0.000000 -0.000000 -0.287978
11 3.950301 -0.539876 -2.108870 -0.041206 0.151627 -0.261498
12 1.545798 -0.000001 -0.000001 -0.000000 0.000000 0.774916
13 1.667396 0.000005 0.000002 -0.000000 0.000000 0.788883
14 3.899461 -0.475376 -1.170889 -0.000796 -0.000048 -0.073298
15 1.528216 0.000000 0.000001 -0.000000 0.000000 0.687651
16 1.528216 -0.000000 -0.000002 -0.000000 0.000000 0.836004
17 3.899458 -0.431803 0.168224 -0.000796 0.000000 -0.000000
18 1.506964 0.000001 0.000003 -0.000000 0.000000 0.808081
19 1.506962 -0.000002 -0.000003 -0.000000 0.000000 0.720814
20 3.915631 -0.278021 1.402608 -0.000796 0.000000 -0.000000
21 1.333086 -0.000000 0.000001 -0.000000 0.000000 0.968647
22 1.159204 -0.000003 -0.000000 -0.000000 0.000000 0.549768
23 0.035453 0.146664 -8.992992 -3.113792 -0.773884 -1.560691
24 2.186862 3.710785 -0.695477 1.909566 0.000000 0.000000
25 2.364330 -0.050910 2.196378 -0.000000 0.000000 0.000000
26 41.624191 11.098160 -0.241271 -1.582244 0.018583 -3.126151
time 6
0 -14.853417 -9.686016 -24.109648 0.000000 -0.000000 -1.570795
1 -0.000000 -0.000000 -0.000002 0.000000 -1.570451 -1.570795
2 4.443617 -0.009642 0.000006 -0.000004 -0.000001 0.000796
3 12.111417 -0.011446 0.000000 0.000000 -0.000000 -0.000000
4 0.000007 0.011442 1.352404 -0.000014 -1.370796 3.140810
5 6.078087 -0.000001 -0.000001 -1.172406 0.721447 -1.310522
6 13.446751 0.000002 -0.000000 0.000000 0.000000 -0.798670
7 15.997005 0.000001 0.000002 -0.886718 -0.071260 0.012347
8 1.885327 0.833276 -2.177877 -1.342085 0.488042 0.396212
9 1.506962 0.000000 -0.000001 0.000000 -0.000000 -0.314158
10 0.798347 -0.000001 -0.000001 0.000000 -0.000000 -0.287978
11 3.950301 -0.539876 -2.108870 -0.041206 0.151627 -0.261498
12 1.545798 -0.000001 -0.000001 -0.000000 0.000000 0.774916
13 1.667396 0.000005 0.000002 -0.000000 0.000000 0.788883
14 3.899461 -0.475376 -1.170889 -0.000796 -0.000048 -0.073298
15 1.528216 0.000000 0.000001 -0.000000 0.000000 0.687651
16 1.528216 -0.000000 -0.000002 -0.000000 0.000000 0.836004
17 3.899458 -0.431803 0.168224 -0.000796 0.000000 -0.000000
18 1.506964 0.000001 0.000003 -0.000000 0.000000 0.808081
19 1.506962 -0.000002 -0.000003 -0.000000 0.000000 0.720814
20 3.915631 -0.278021 1.402608 -0.000796 0.000000 -0.000000
21 1.333086 -0.000000 0.000001 -0.000000 0.000000 0.968647
22 1.159204 -0.000003 -0.000000 -0.000000 0.000000 0.549768
23 0.035453 0.146664 -8.992992 -3.113792 -0.773884 -1.560691
24 2.186862 3.710785 -0.695477 2.398009 0.000000 0.000000
25 2.364330 -0.050910 2.196378 -0.000000 0.000000 0.000000
26 41.624191 11.098160 -0.241271 -1.582244 0.018583 -3.126151
time 7
0 -14.853417 -9.686016 -24.109648 0.000000 -0.000000 -1.570795
1 -0.000000 -0.000000 -0.000002 0.000000 -1.570451 -1.570795
2 4.443617 -0.009642 0.000006 -0.000004 -0.000001 0.000796
3 12.111417 -0.011446 0.000000 0.000000 -0.000000 -0.000000
4 0.000007 0.011442 1.352404 -0.000014 -1.370796 3.140810
5 6.078087 -0.000001 -0.000001 -1.099661 0.879214 -1.212124
6 13.446751 0.000002 -0.000000 0.000000 0.000000 -1.004891
7 15.997005 0.000001 0.000002 -0.887502 -0.072890 0.070102
8 1.885327 0.833276 -2.177877 -1.342085 0.488042 0.396212
9 1.506962 0.000000 -0.000001 0.000000 -0.000000 -0.314158
10 0.798347 -0.000001 -0.000001 0.000000 -0.000000 -0.287978
11 3.950301 -0.539876 -2.108870 -0.041206 0.151627 -0.261498
12 1.545798 -0.000001 -0.000001 -0.000000 0.000000 0.774916
13 1.667396 0.000005 0.000002 -0.000000 0.000000 0.788883
14 3.899461 -0.475376 -1.170889 -0.000796 -0.000048 -0.073298
15 1.528216 0.000000 0.000001 -0.000000 0.000000 0.687651
16 1.528216 -0.000000 -0.000002 -0.000000 0.000000 0.836004
17 3.899458 -0.431803 0.168224 -0.000796 0.000000 -0.000000
18 1.506964 0.000001 0.000003 -0.000000 0.000000 0.808081
19 1.506962 -0.000002 -0.000003 -0.000000 0.000000 0.720814
20 3.915631 -0.278021 1.402608 -0.000796 0.000000 -0.000000
21 1.333086 -0.000000 0.000001 -0.000000 0.000000 0.968647
22 1.159204 -0.000003 -0.000000 -0.000000 0.000000 0.549768
23 0.035453 0.146664 -8.992992 -3.113792 -0.773884 -1.560691
24 2.186862 3.710785 -0.695477 2.364929 0.000000 0.000000
25 2.364330 -0.050910 2.196378 -0.000000 0.000000 0.000000
26 41.624191 11.098160 -0.241271 -1.582244 0.018583 -3.126151
time 8
0 -14.853417 -9.686016 -24.109648 0.000000 -0.000000 -1.570795
1 -0.000000 -0.000000 -0.000002 0.000000 -1.570451 -1.570795
2 4.443617 -0.009642 0.000006 -0.000004 -0.000001 0.000796
3 12.111417 -0.011446 0.000000 0.000000 -0.000000 -0.000000
4 0.000007 0.011442 1.352404 -0.000014 -1.370796 3.140810
5 6.078087 -0.000001 -0.000001 -1.080339 0.909006 -1.187110
6 13.446751 0.000002 -0.000000 0.000000 0.000000 -1.064420
7 15.997005 0.000001 0.000002 -0.891580 -0.061661 0.111040
8 1.885327 0.833276 -2.177877 -1.342085 0.488042 0.396212
9 1.506962 0.000000 -0.000001 0.000000 -0.000000 -0.314158
10 0.798347 -0.000001 -0.000001 0.000000 -0.000000 -0.287978
11 3.950301 -0.539876 -2.108870 -0.041206 0.151627 -0.261498
12 1.545798 -0.000001 -0.000001 -0.000000 0.000000 0.774916
13 1.667396 0.000005 0.000002 -0.000000 0.000000 0.788883
14 3.899461 -0.475376 -1.170889 -0.000796 -0.000048 -0.073298
15 1.528216 0.000000 0.000001 -0.000000 0.000000 0.687651
16 1.528216 -0.000000 -0.000002 -0.000000 0.000000 0.836004
17 3.899458 -0.431803 0.168224 -0.000796 0.000000 -0.000000
18 1.506964 0.000001 0.000003 -0.000000 0.000000 0.808081
19 1.506962 -0.000002 -0.000003 -0.000000 0.000000 0.720814
20 3.915631 -0.278021 1.402608 -0.000796 0.000000 -0.000000
21 1.333086 -0.000000 0.000001 -0.000000 0.000000 0.968647
22 1.159204 -0.000003 -0.000000 -0.000000 0.000000 0.549768
23 0.035453 0.146664 -8.992992 -3.113792 -0.773884 -1.560691
24 2.186862 3.710785 -0.695477 2.271617 0.000000 0.000000
25 2.364330 -0.050910 2.196378 -0.000000 0.000000 0.000000
26 41.624191 11.098160 -0.241271 -1.582244 0.018583 -3.126151
time 9
0 -14.853417 -9.686016 -24.109648 0.000000 -0.000000 -1.570795
1 -0.000000 -0.000000 -0.000002 0.000000 -1.570451 -1.570795
2 4.443617 -0.009642 0.000006 -0.000004 -0.000001 0.000796
3 12.111417 -0.011446 0.000000 0.000000 -0.000000 -0.000000
4 0.000007 0.011442 1.352404 -0.000014 -1.370796 3.140810
5 6.078087 -0.000001 -0.000001 -1.079501 0.908594 -1.184760
6 13.446751 0.000002 -0.000000 0.000000 0.000000 -1.094208
7 15.997005 0.000001 0.000002 -0.894795 -0.045050 0.153737
8 1.885327 0.833276 -2.177877 -1.342085 0.488042 0.396212
9 1.506962 0.000000 -0.000001 0.000000 -0.000000 -0.314158
10 0.798347 -0.000001 -0.000001 0.000000 -0.000000 -0.287978
11 3.950301 -0.539876 -2.108870 -0.041206 0.151627 -0.261498
12 1.545798 -0.000001 -0.000001 -0.000000 0.000000 0.774916
13 1.667396 0.000005 0.000002 -0.000000 0.000000 0.788883
14 3.899461 -0.475376 -1.170889 -0.000796 -0.000048 -0.073298
15 1.528216 0.000000 0.000001 -0.000000 0.000000 0.687651
16 1.528216 -0.000000 -0.000002 -0.000000 0.000000 0.836004
17 3.899458 -0.431803 0.168224 -0.000796 0.000000 -0.000000
18 1.506964 0.000001 0.000003 -0.000000 0.000000 0.808081
19 1.506962 -0.000002 -0.000003 -0.000000 0.000000 0.720814
20 3.915631 -0.278021 1.402608 -0.000796 0.000000 -0.000000
21 1.333086 -0.000000 0.000001 -0.000000 0.000000 0.968647
22 1.159204 -0.000003 -0.000000 -0.000000 0.000000 0.549768
23 0.035453 0.146664 -8.992992 -3.113792 -0.773884 -1.560691
24 2.186862 3.710785 -0.695477 2.127075 0.000000 0.000000
25 2.364330 -0.050910 2.196378 -0.000000 0.000000 0.000000
26 41.624191 11.098160 -0.241271 -1.582244 0.018583 -3.126151
time 10
0 -14.853417 -9.686016 -24.109648 0.000000 -0.000000 -1.570795
1 -0.000000 -0.000000 -0.000002 0.000000 -1.570451 -1.570795
2 4.443617 -0.009642 0.000006 -0.000004 -0.000001 0.000796
3 12.111417 -0.011446 0.000000 0.000000 -0.000000 -0.000000
4 0.000007 0.011442 1.352404 -0.000014 -1.370796 3.140810
5 6.078087 -0.000001 -0.000001 -1.086500 0.895927 -1.192154
6 13.446751 0.000002 -0.000000 0.000000 0.000000 -1.110600
7 15.997005 0.000001 0.000002 -0.897225 -0.028344 0.191568
8 1.885327 0.833276 -2.177877 -1.342085 0.488042 0.396212
9 1.506962 0.000000 -0.000001 0.000000 -0.000000 -0.314158
10 0.798347 -0.000001 -0.000001 0.000000 -0.000000 -0.287978
11 3.950301 -0.539876 -2.108870 -0.041206 0.151627 -0.261498
12 1.545798 -0.000001 -0.000001 -0.000000 0.000000 0.774916
13 1.667396 0.000005 0.000002 -0.000000 0.000000 0.788883
14 3.899461 -0.475376 -1.170889 -0.000796 -0.000048 -0.073298
15 1.528216 0.000000 0.000001 -0.000000 0.000000 0.687651
16 1.528216 -0.000000 -0.000002 -0.000000 0.000000 0.836004
17 3.899458 -0.431803 0.168224 -0.000796 0.000000 -0.000000
18 1.506964 0.000001 0.000003 -0.000000 0.000000 0.808081
19 1.506962 -0.000002 -0.000003 -0.000000 0.000000 0.720814
20 3.915631 -0.278021 1.402608 -0.000796 0.000000 -0.000000
21 1.333086 -0.000000 0.000001 -0.000000 0.000000 0.968647
22 1.159204 -0.000003 -0.000000 -0.000000 0.000000 0.549768
23 0.035453 0.146664 -8.992992 -3.113792 -0.773884 -1.560691
24 2.186862 3.710785 -0.695477 1.940304 0.000000 0.000000
25 2.364330 -0.050910 2.196378 -0.000000 0.000000 0.000000
26 41.624191 11.098160 -0.241271 -1.582244 0.018583 -3.126151
time 11
0 -14.853417 -9.686016 -24.109648 0.000000 -0.000000 -1.570795
1 -0.000000 -0.000000 -0.000002 0.000000 -1.570451 -1.570795
2 4.443617 -0.009642 0.000006 -0.000004 -0.000001 0.000796
3 12.111417 -0.011446 0.000000 0.000000 -0.000000 -0.000000
4 0.000007 0.011442 1.352404 -0.000014 -1.370796 3.140810
5 6.078087 -0.000001 -0.000001 -1.090030 0.888695 -1.195402
6 13.446751 0.000002 -0.000000 0.000000 0.000000 -1.130178
7 15.997005 0.000001 0.000002 -0.899629 -0.016862 0.217924
8 1.885327 0.833276 -2.177877 -1.342085 0.488042 0.396212
9 1.506962 0.000000 -0.000001 0.000000 -0.000000 -0.314158
10 0.798347 -0.000001 -0.000001 0.000000 -0.000000 -0.287978
11 3.950301 -0.539876 -2.108870 -0.041206 0.151627 -0.261498
12 1.545798 -0.000001 -0.000001 -0.000000 0.000000 0.774916
13 1.667396 0.000005 0.000002 -0.000000 0.000000 0.788883
14 3.899461 -0.475376 -1.170889 -0.000796 -0.000048 -0.073298
15 1.528216 0.000000 0.000001 -0.000000 0.000000 0.687651
16 1.528216 -0.000000 -0.000002 -0.000000 0.000000 0.836004
17 3.899458 -0.431803 0.168224 -0.000796 0.000000 -0.000000
18 1.506964 0.000001 0.000003 -0.000000 0.000000 0.808081
19 1.506962 -0.000002 -0.000003 -0.000000 0.000000 0.720814
20 3.915631 -0.278021 1.402608 -0.000796 0.000000 -0.000000
21 1.333086 -0.000000 0.000001 -0.000000 0.000000 0.968647
22 1.159204 -0.000003 -0.000000 -0.000000 0.000000 0.549768
23 0.035453 0.146664 -8.992992 -3.113792 -0.773884 -1.560691
24 2.186862 3.710785 -0.695477 1.720161 0.000000 0.000000
25 2.364330 -0.050910 2.196378 -0.000000 0.000000 0.000000
26 41.624191 11.098160 -0.241271 -1.582244 0.018583 -3.126151
time 12
0 -14.853417 -9.686016 -24.109648 0.000000 -0.000000 -1.570795
1 -0.000000 -0.000000 -0.000002 0.000000 -1.570451 -1.570795
2 4.443617 -0.009642 0.000006 -0.000004 -0.000001 0.000796
3 12.111417 -0.011446 0.000000 0.000000 -0.000000 -0.000000
4 0.000007 0.011442 1.352404 -0.000014 -1.370796 3.140810
5 6.078087 -0.000001 -0.000001 -1.088355 0.890119 -1.192154
6 13.446751 0.000002 -0.000000 0.000000 0.000000 -1.157249
7 15.997005 0.000001 0.000002 -0.903897 -0.012847 0.228281
8 1.885327 0.833276 -2.177877 -1.342085 0.488042 0.396212
9 1.506962 0.000000 -0.000001 0.000000 -0.000000 -0.314158
10 0.798347 -0.000001 -0.000001 0.000000 -0.000000 -0.287978
11 3.950301 -0.539876 -2.108870 -0.041206 0.151627 -0.261498
12 1.545798 -0.000001 -0.000001 -0.000000 0.000000 0.774916
13 1.667396 0.000005 0.000002 -0.000000 0.000000 0.788883
14 3.899461 -0.475376 -1.170889 -0.000796 -0.000048 -0.073298
15 1.528216 0.000000 0.000001 -0.000000 0.000000 0.687651
16 1.528216 -0.000000 -0.000002 -0.000000 0.000000 0.836004
17 3.899458 -0.431803 0.168224 -0.000796 0.000000 -0.000000
18 1.506964 0.000001 0.000003 -0.000000 0.000000 0.808081
19 1.506962 -0.000002 -0.000003 -0.000000 0.000000 0.720814
20 3.915631 -0.278021 1.402608 -0.000796 0.000000 -0.000000
21 1.333086 -0.000000 0.000001 -0.000000 0.000000 0.968647
22 1.159204 -0.000003 -0.000000 -0.000000 0.000000 0.549768
23 0.035453 0.146664 -8.992992 -3.113792 -0.773884 -1.560691
24 2.186862 3.710785 -0.695477 1.475720 0.000000 0.000000
25 2.364330 -0.050910 2.196378 -0.000000 0.000000 0.000000
26 41.624191 11.098160 -0.241271 -1.582244 0.018583 -3.126151
time 13
0 -14.853417 -9.686016 -24.109648 0.000000 -0.000000 -1.570795
1 -0.000000 -0.000000 -0.000002 0.000000 -1.570451 -1.570795
2 4.443617 -0.009642 0.000006 -0.000004 -0.000001 0.000796
3 12.111417 -0.011446 0.000000 0.000000 -0.000000 -0.000000
4 0.000007 0.011442 1.352404 -0.000014 -1.370796 3.140810
5 6.078087 -0.000001 -0.000001 -1.086919 0.891243 -1.189183
6 13.446751 0.000002 -0.000000 0.000000 0.000000 -1.183056
7 15.997005 0.000001 0.000002 -0.909434 -0.013267 0.227109
8 1.885327 0.833276 -2.177877 -1.342085 0.488042 0.396212
9 1.506962 0.000000 -0.000001 0.000000 -0.000000 -0.314158
10 0.798347 -0.000001 -0.000001 0.000000 -0.000000 -0.287978
11 3.950301 -0.539876 -2.108870 -0.041206 0.151627 -0.261498
12 1.545798 -0.000001 -0.000001 -0.000000 0.000000 0.774916
13 1.667396 0.000005 0.000002 -0.000000 0.000000 0.788883
14 3.899461 -0.475376 -1.170889 -0.000796 -0.000048 -0.073298
15 1.528216 0.000000 0.000001 -0.000000 0.000000 0.687651
16 1.528216 -0.000000 -0.000002 -0.000000 0.000000 0.836004
17 3.899458 -0.431803 0.168224 -0.000796 0.000000 -0.000000
18 1.506964 0.000001 0.000003 -0.000000 0.000000 0.808081
19 1.506962 -0.000002 -0.000003 -0.000000 0.000000 0.720814
20 3.915631 -0.278021 1.402608 -0.000796 0.000000 -0.000000
21 1.333086 -0.000000 0.000001 -0.000000 0.000000 0.968647
22 1.159204 -0.000003 -0.000000 -0.000000 0.000000 0.549768
23 0.035453 0.146664 -8.992992 -3.113792 -0.773884 -1.560691
24 2.186862 3.710785 -0.695477 1.215837 0.000000 0.000000
25 2.364330 -0.050910 2.196378 -0.000000 0.000000 0.000000
26 41.624191 11.098160 -0.241271 -1.582244 0.018583 -3.126151
time 14
0 -14.853417 -9.686016 -24.109648 0.000000 -0.000000 -1.570795
1 -0.000000 -0.000000 -0.000002 0.000000 -1.570451 -1.570795
2 4.443617 -0.009642 0.000006 -0.000004 -0.000001 0.000796
3 12.111417 -0.011446 0.000000 0.000000 -0.000000 -0.000000
4 0.000007 0.011442 1.352404 -0.000014 -1.370796 3.140810
5 6.078087 -0.000001 -0.000001 -1.086082 0.891618 -1.187110
6 13.446751 0.000002 -0.000000 0.000000 0.000000 -1.204367
7 15.997005 0.000001 0.000002 -0.913567 -0.015508 0.221372
8 1.885327 0.833276 -2.177877 -1.342085 0.488042 0.396212
9 1.506962 0.000000 -0.000001 0.000000 -0.000000 -0.314158
10 0.798347 -0.000001 -0.000001 0.000000 -0.000000 -0.287978
11 3.950301 -0.539876 -2.108870 -0.041206 0.151627 -0.261498
12 1.545798 -0.000001 -0.000001 -0.000000 0.000000 0.774916
13 1.667396 0.000005 0.000002 -0.000000 0.000000 0.788883
14 3.899461 -0.475376 -1.170889 -0.000796 -0.000048 -0.073298
15 1.528216 0.000000 0.000001 -0.000000 0.000000 0.687651
16 1.528216 -0.000000 -0.000002 -0.000000 0.000000 0.836004
17 3.899458 -0.431803 0.168224 -0.000796 0.000000 -0.000000
18 1.506964 0.000001 0.000003 -0.000000 0.000000 0.808081
19 1.506962 -0.000002 -0.000003 -0.000000 0.000000 0.720814
20 3.915631 -0.278021 1.402608 -0.000796 0.000000 -0.000000
21 1.333086 -0.000000 0.000001 -0.000000 0.000000 0.968647
22 1.159204 -0.000003 -0.000000 -0.000000 0.000000 0.549768
23 0.035453 0.146664 -8.992992 -3.113792 -0.773884 -1.560691
24 2.186862 3.710785 -0.695477 0.949660 0.000000 0.000000
25 2.364330 -0.050910 2.196378 -0.000000 0.000000 0.000000
26 41.624191 11.098160 -0.241271 -1.582244 0.018583 -3.126151
time 15
0 -14.853417 -9.686016 -24.109648 0.000000 -0.000000 -1.570795
1 -0.000000 -0.000000 -0.000002 0.000000 -1.570451 -1.570795
2 4.443617 -0.009642 0.000006 -0.000004 -0.000001 0.000796
3 12.111417 -0.011446 0.000000 0.000000 -0.000000 -0.000000
4 0.000007 0.011442 1.352404 -0.000014 -1.370796 3.140810
5 6.078087 -0.000001 -0.000001 -1.086141 0.890756 -1.186557
6 13.446751 0.000002 -0.000000 0.000000 0.000000 -1.217949
7 15.997005 0.000001 0.000002 -0.913594 -0.016862 0.217924
8 1.885327 0.833276 -2.177877 -1.342085 0.488042 0.396212
9 1.506962 0.000000 -0.000001 0.000000 -0.000000 -0.314158
10 0.798347 -0.000001 -0.000001 0.000000 -0.000000 -0.287978
11 3.950301 -0.539876 -2.108870 -0.041206 0.151627 -0.261498
12 1.545798 -0.000001 -0.000001 -0.000000 0.000000 0.774916
13 1.667396 0.000005 0.000002 -0.000000 0.000000 0.788883
14 3.899461 -0.475376 -1.170889 -0.000796 -0.000048 -0.073298
15 1.528216 0.000000 0.000001 -0.000000 0.000000 0.687651
16 1.528216 -0.000000 -0.000002 -0.000000 0.000000 0.836004
17 3.899458 -0.431803 0.168224 -0.000796 0.000000 -0.000000
18 1.506964 0.000001 0.000003 -0.000000 0.000000 0.808081
19 1.506962 -0.000002 -0.000003 -0.000000 0.000000 0.720814
20 3.915631 -0.278021 1.402608 -0.000796 0.000000 -0.000000
21 1.333086 -0.000000 0.000001 -0.000000 0.000000 0.968647
22 1.159204 -0.000003 -0.000000 -0.000000 0.000000 0.549768
23 0.035453 0.146664 -8.992992 -3.113792 -0.773884 -1.560691
24 2.186862 3.710785 -0.695477 0.685971 0.000000 0.000000
25 2.364330 -0.050910 2.196378 -0.000000 0.000000 0.000000
26 41.624191 11.098160 -0.241271 -1.582244 0.018583 -3.126151
time 16
0 -14.853417 -9.686016 -24.109648 0.000000 -0.000000 -1.570795
1 -0.000000 -0.000000 -0.000002 0.000000 -1.570451 -1.570795
2 4.443617 -0.009642 0.000006 -0.000004 -0.000001 0.000796
3 12.111417 -0.011446 0.000000 0.000000 -0.000000 -0.000000
4 0.000007 0.011442 1.352404 -0.000014 -1.370796 3.140810
5 6.078087 -0.000001 -0.000001 -1.089731 0.885397 -1.191463
6 13.446751 0.000002 -0.000000 0.000000 0.000000 -1.203149
7 15.997005 0.000001 0.000002 -0.897469 -0.016862 0.217924
8 1.885327 0.833276 -2.177877 -1.342085 0.488042 0.396212
9 1.506962 0.000000 -0.000001 0.000000 -0.000000 -0.314158
10 0.798347 -0.000001 -0.000001 0.000000 -0.000000 -0.287978
11 3.950301 -0.539876 -2.108870 -0.041206 0.151627 -0.261498
12 1.545798 -0.000001 -0.000001 -0.000000 0.000000 0.774916
13 1.667396 0.000005 0.000002 -0.000000 0.000000 0.788883
14 3.899461 -0.475376 -1.170889 -0.000796 -0.000048 -0.073298
15 1.528216 0.000000 0.000001 -0.000000 0.000000 0.687651
16 1.528216 -0.000000 -0.000002 -0.000000 0.000000 0.836004
17 3.899458 -0.431803 0.168224 -0.000796 0.000000 -0.000000
18 1.506964 0.000001 0.000003 -0.000000 0.000000 0.808081
19 1.506962 -0.000002 -0.000003 -0.000000 0.000000 0.720814
20 3.915631 -0.278021 1.402608 -0.000796 0.000000 -0.000000
21 1.333086 -0.000000 0.000001 -0.000000 0.000000 0.968647
22 1.159204 -0.000003 -0.000000 -0.000000 0.000000 0.549768
23 0.035453 0.146664 -8.992992 -3.113792 -0.773884 -1.560691
24 2.186862 3.710785 -0.695477 0.433773 0.000000 0.000000
25 2.364330 -0.050910 2.196378 -0.000000 0.000000 0.000000
26 41.624191 11.098160 -0.241271 -1.582244 0.018583 -3.126151
time 17
0 -14.853417 -9.686016 -24.109648 0.000000 -0.000000 -1.570795
1 -0.000000 -0.000000 -0.000002 0.000000 -1.570451 -1.570795
2 4.443617 -0.009642 0.000006 -0.000004 -0.000001 0.000796
3 12.111417 -0.011446 0.000000 0.000000 -0.000000 -0.000000
4 0.000007 0.011442 1.352404 -0.000014 -1.370796 3.140810
5 6.078087 -0.000001 -0.000001 -1.093978 0.879139 -1.197406
6 13.446751 0.000002 -0.000000 0.000000 0.000000 -1.181745
7 15.997005 0.000001 0.000002 -0.882100 -0.016862 0.217924
8 1.885327 0.833276 -2.177877 -1.342085 0.488042 0.396212
9 1.506962 0.000000 -0.000001 0.000000 -0.000000 -0.314158
10 0.798347 -0.000001 -0.000001 0.000000 -0.000000 -0.287978
11 3.950301 -0.539876 -2.108870 -0.041206 0.151627 -0.261498
12 1.545798 -0.000001 -0.000001 -0.000000 0.000000 0.774916
13 1.667396 0.000005 0.000002 -0.000000 0.000000 0.788883
14 3.899461 -0.475376 -1.170889 -0.000796 -0.000048 -0.073298
15 1.528216 0.000000 0.000001 -0.000000 0.000000 0.687651
16 1.528216 -0.000000 -0.000002 -0.000000 0.000000 0.836004
17 3.899458 -0.431803 0.168224 -0.000796 0.000000 -0.000000
18 1.506964 0.000001 0.000003 -0.000000 0.000000 0.808081
19 1.506962 -0.000002 -0.000003 -0.000000 0.000000 0.720814
20 3.915631 -0.278021 1.402608 -0.000796 0.000000 -0.000000
21 1.333086 -0.000000 0.000001 -0.000000 0.000000 0.968647
22 1.159204 -0.000003 -0.000000 -0.000000 0.000000 0.549768
23 0.035453 0.146664 -8.992992 -3.113792 -0.773884 -1.560691
24 2.186862 3.710785 -0.695477 0.202139 0.000000 0.000000
25 2.364330 -0.050910 2.196378 -0.000000 0.000000 0.000000
26 41.624191 11.098160 -0.241271 -1.582244 0.018583 -3.126151
time 18
0 -14.853417 -9.686016 -24.109648 0.000000 -0.000000 -1.570795
1 -0.000000 -0.000000 -0.000002 0.000000 -1.570451 -1.570795
2 4.443617 -0.009642 0.000006 -0.000004 -0.000001 0.000796
3 12.111417 -0.011446 0.000000 0.000000 -0.000000 -0.000000
4 0.000007 0.011442 1.352404 -0.000014 -1.370796 3.140810
5 6.078087 -0.000001 -0.000001 -1.095892 0.875953 -1.199824
6 13.446751 0.000002 -0.000000 0.000000 0.000000 -1.177764
7 15.997005 0.000001 0.000002 -0.881532 -0.016862 0.217924
8 1.885327 0.833276 -2.177877 -1.342085 0.488042 0.396212
9 1.506962 0.000000 -0.000001 0.000000 -0.000000 -0.314158
10 0.798347 -0.000001 -0.000001 0.000000 -0.000000 -0.287978
11 3.950301 -0.539876 -2.108870 -0.041206 0.151627 -0.261498
12 1.545798 -0.000001 -0.000001 -0.000000 0.000000 0.774916
13 1.667396 0.000005 0.000002 -0.000000 0.000000 0.788883
14 3.899461 -0.475376 -1.170889 -0.000796 -0.000048 -0.073298
15 1.528216 0.000000 0.000001 -0.000000 0.000000 0.687651
16 1.528216 -0.000000 -0.000002 -0.000000 0.000000 0.836004
17 3.899458 -0.431803 0.168224 -0.000796 0.000000 -0.000000
18 1.506964 0.000001 0.000003 -0.000000 0.000000 0.808081
19 1.506962 -0.000002 -0.000003 -0.000000 0.000000 0.720814
20 3.915631 -0.278021 1.402608 -0.000796 0.000000 -0.000000
21 1.333086 -0.000000 0.000001 -0.000000 0.000000 0.968647
22 1.159204 -0.000003 -0.000000 -0.000000 0.000000 0.549768
23 0.035453 0.146664 -8.992992 -3.113792 -0.773884 -1.560691
24 2.186862 3.710785 -0.695477 -0.000000 0.000000 0.000000
25 2.364330 -0.050910 2.196378 -0.000000 0.000000 0.000000
26 41.624191 11.098160 -0.241271 -1.582244 0.018583 -3.126151
time 19
0 -14.853417 -9.686016 -24.109648 0.000000 -0.000000 -1.570795
1 -0.000000 -0.000000 -0.000002 0.000000 -1.570451 -1.570795
2 4.443617 -0.009642 0.000006 -0.000004 -0.000001 0.000796
3 12.111417 -0.011446 0.000000 0.000000 -0.000000 -0.000000
4 0.000007 0.011442 1.352404 -0.000014 -1.370796 3.140810
5 6.078087 -0.000001 -0.000001 -1.097627 0.873030 -1.201897
6 13.446751 0.000002 -0.000000 0.000000 0.000000 -1.175141
7 15.997005 0.000001 0.000002 -0.882451 -0.016862 0.217924
8 1.885327 0.833276 -2.177877 -1.342085 0.488042 0.396212
9 1.506962 0.000000 -0.000001 0.000000 -0.000000 -0.314158
10 0.798347 -0.000001 -0.000001 0.000000 -0.000000 -0.287978
11 3.950301 -0.539876 -2.108870 -0.041206 0.151627 -0.261498
12 1.545798 -0.000001 -0.000001 -0.000000 0.000000 0.774916
13 1.667396 0.000005 0.000002 -0.000000 0.000000 0.788883
14 3.899461 -0.475376 -1.170889 -0.000796 -0.000048 -0.073298
15 1.528216 0.000000 0.000001 -0.000000 0.000000 0.687651
16 1.528216 -0.000000 -0.000002 -0.000000 0.000000 0.836004
17 3.899458 -0.431803 0.168224 -0.000796 0.000000 -0.000000
18 1.506964 0.000001 0.000003 -0.000000 0.000000 0.808081
19 1.506962 -0.000002 -0.000003 -0.000000 0.000000 0.720814
20 3.915631 -0.278021 1.402608 -0.000796 0.000000 -0.000000
21 1.333086 -0.000000 0.000001 -0.000000 0.000000 0.968647
22 1.159204 -0.000003 -0.000000 -0.000000 0.000000 0.549768
23 0.035453 0.146664 -8.992992 -3.113792 -0.773884 -1.560691
24 2.186862 3.710785 -0.695477 -0.000000 0.000000 0.000000
25 2.364330 -0.050910 2.196378 -0.000000 0.000000 0.000000
26 41.624191 11.098160 -0.241271 -1.582244 0.018583 -3.126151
time 20
0 -14.853417 -9.686016 -24.109648 0.000000 -0.000000 -1.570795
1 -0.000000 -0.000000 -0.000002 0.000000 -1.570451 -1.570795
2 4.443617 -0.009642 0.000006 -0.000004 -0.000001 0.000796
3 12.111417 -0.011446 0.000000 0.000000 -0.000000 -0.000000
4 0.000007 0.011442 1.352404 -0.000014 -1.370796 3.140810
5 6.078087 -0.000001 -0.000001 -1.099183 0.870295 -1.203832
6 13.446751 0.000002 -0.000000 0.000000 0.000000 -1.173548
7 15.997005 0.000001 0.000002 -0.884477 -0.016862 0.217924
8 1.885327 0.833276 -2.177877 -1.342085 0.488042 0.396212
9 1.506962 0.000000 -0.000001 0.000000 -0.000000 -0.314158
10 0.798347 -0.000001 -0.000001 0.000000 -0.000000 -0.287978
11 3.950301 -0.539876 -2.108870 -0.041206 0.151627 -0.261498
12 1.545798 -0.000001 -0.000001 -0.000000 0.000000 0.774916
13 1.667396 0.000005 0.000002 -0.000000 0.000000 0.788883
14 3.899461 -0.475376 -1.170889 -0.000796 -0.000048 -0.073298
15 1.528216 0.000000 0.000001 -0.000000 0.000000 0.687651
16 1.528216 -0.000000 -0.000002 -0.000000 0.000000 0.836004
17 3.899458 -0.431803 0.168224 -0.000796 0.000000 -0.000000
18 1.506964 0.000001 0.000003 -0.000000 0.000000 0.808081
19 1.506962 -0.000002 -0.000003 -0.000000 0.000000 0.720814
20 3.915631 -0.278021 1.402608 -0.000796 0.000000 -0.000000
21 1.333086 -0.000000 0.000001 -0.000000 0.000000 0.968647
22 1.159204 -0.000003 -0.000000 -0.000000 0.000000 0.549768
23 0.035453 0.146664 -8.992992 -3.113792 -0.773884 -1.560691
24 2.186862 3.710785 -0.695477 -0.000000 0.000000 0.000000
25 2.364330 -0.050910 2.196378 -0.000000 0.000000 0.000000
26 41.624191 11.098160 -0.241271 -1.582244 0.018583 -3.126151
time 21
0 -14.853417 -9.686016 -24.109648 0.000000 -0.000000 -1.570795
1 -0.000000 -0.000000 -0.000002 0.000000 -1.570451 -1.570795
2 4.443617 -0.009642 0.000006 -0.000004 -0.000001 0.000796
3 12.111417 -0.011446 0.000000 0.000000 -0.000000 -0.000000
4 0.000007 0.011442 1.352404 -0.000014 -1.370796 3.140810
5 6.078087 -0.000001 -0.000001 -1.100678 0.867709 -1.205560
6 13.446751 0.000002 -0.000000 0.000000 0.000000 -1.172705
7 15.997005 0.000001 0.000002 -0.887286 -0.016862 0.217924
8 1.885327 0.833276 -2.177877 -1.342085 0.488042 0.396212
9 1.506962 0.000000 -0.000001 0.000000 -0.000000 -0.314158
10 0.798347 -0.000001 -0.000001 0.000000 -0.000000 -0.287978
11 3.950301 -0.539876 -2.108870 -0.041206 0.151627 -0.261498
12 1.545798 -0.000001 -0.000001 -0.000000 0.000000 0.774916
13 1.667396 0.000005 0.000002 -0.000000 0.000000 0.788883
14 3.899461 -0.475376 -1.170889 -0.000796 -0.000048 -0.073298
15 1.528216 0.000000 0.000001 -0.000000 0.000000 0.687651
16 1.528216 -0.000000 -0.000002 -0.000000 0.000000 0.836004
17 3.899458 -0.431803 0.168224 -0.000796 0.000000 -0.000000
18 1.506964 0.000001 0.000003 -0.000000 0.000000 0.808081
19 1.506962 -0.000002 -0.000003 -0.000000 0.000000 0.720814
20 3.915631 -0.278021 1.402608 -0.000796 0.000000 -0.000000
21 1.333086 -0.000000 0.000001 -0.000000 0.000000 0.968647
22 1.159204 -0.000003 -0.000000 -0.000000 0.000000 0.549768
23 0.035453 0.146664 -8.992992 -3.113792 -0.773884 -1.560691
24 2.186862 3.710785 -0.695477 -0.000000 0.000000 0.000000
25 2.364330 -0.050910 2.196378 -0.000000 0.000000 0.000000
26 41.624191 11.098160 -0.241271 -1.582244 0.018583 -3.126151
time 22
0 -14.853417 -9.686016 -24.109648 0.000000 -0.000000 -1.570795
1 -0.000000 -0.000000 -0.000002 0.000000 -1.570451 -1.570795
2 4.443617 -0.009642 0.000006 -0.000004 -0.000001 0.000796
3 12.111417 -0.011446 0.000000 0.000000 -0.000000 -0.000000
4 0.000007 0.011442 1.352404 -0.000014 -1.370796 3.140810
5 6.078087 -0.000001 -0.000001 -1.102054 0.865198 -1.207218
6 13.446751 0.000002 -0.000000 0.000000 0.000000 -1.172284
7 15.997005 0.000001 0.000002 -0.890527 -0.016862 0.217924
8 1.885327 0.833276 -2.177877 -1.342085 0.488042 0.396212
9 1.506962 0.000000 -0.000001 0.000000 -0.000000 -0.314158
10 0.798347 -0.000001 -0.000001 0.000000 -0.000000 -0.287978
11 3.950301 -0.539876 -2.108870 -0.041206 0.151627 -0.261498
12 1.545798 -0.000001 -0.000001 -0.000000 0.000000 0.774916
13 1.667396 0.000005 0.000002 -0.000000 0.000000 0.788883
14 3.899461 -0.475376 -1.170889 -0.000796 -0.000048 -0.073298
15 1.528216 0.000000 0.000001 -0.000000 0.000000 0.687651
16 1.528216 -0.000000 -0.000002 -0.000000 0.000000 0.836004
17 3.899458 -0.431803 0.168224 -0.000796 0.000000 -0.000000
18 1.506964 0.000001 0.000003 -0.000000 0.000000 0.808081
19 1.506962 -0.000002 -0.000003 -0.000000 0.000000 0.720814
20 3.915631 -0.278021 1.402608 -0.000796 0.000000 -0.000000
21 1.333086 -0.000000 0.000001 -0.000000 0.000000 0.968647
22 1.159204 -0.000003 -0.000000 -0.000000 0.000000 0.549768
23 0.035453 0.146664 -8.992992 -3.113792 -0.773884 -1.560691
24 2.186862 3.710785 -0.695477 -0.000000 0.000000 0.000000
25 2.364330 -0.050910 2.196378 -0.000000 0.000000 0.000000
26 41.624191 11.098160 -0.241271 -1.582244 0.018583 -3.126151
time 23
0 -14.853417 -9.686016 -24.109648 0.000000 -0.000000 -1.570795
1 -0.000000 -0.000000 -0.000002 0.000000 -1.570451 -1.570795
2 4.443617 -0.009642 0.000006 -0.000004 -0.000001 0.000796
3 12.111417 -0.011446 0.000000 0.000000 -0.000000 -0.000000
4 0.000007 0.011442 1.352404 -0.000014 -1.370796 3.140810
5 6.078087 -0.000001 -0.000001 -1.103430 0.862687 -1.208807
6 13.446751 0.000002 -0.000000 0.000000 0.000000 -1.171956
7 15.997005 0.000001 0.000002 -0.893903 -0.016862 0.217924
8 1.885327 0.833276 -2.177877 -1.342085 0.488042 0.396212
9 1.506962 0.000000 -0.000001 0.000000 -0.000000 -0.314158
10 0.798347 -0.000001 -0.000001 0.000000 -0.000000 -0.287978
11 3.950301 -0.539876 -2.108870 -0.041206 0.151627 -0.261498
12 1.545798 -0.000001 -0.000001 -0.000000 0.000000 0.774916
13 1.667396 0.000005 0.000002 -0.000000 0.000000 0.788883
14 3.899461 -0.475376 -1.170889 -0.000796 -0.000048 -0.073298
15 1.528216 0.000000 0.000001 -0.000000 0.000000 0.687651
16 1.528216 -0.000000 -0.000002 -0.000000 0.000000 0.836004
17 3.899458 -0.431803 0.168224 -0.000796 0.000000 -0.000000
18 1.506964 0.000001 0.000003 -0.000000 0.000000 0.808081
19 1.506962 -0.000002 -0.000003 -0.000000 0.000000 0.720814
20 3.915631 -0.278021 1.402608 -0.000796 0.000000 -0.000000
21 1.333086 -0.000000 0.000001 -0.000000 0.000000 0.968647
22 1.159204 -0.000003 -0.000000 -0.000000 0.000000 0.549768
23 0.035453 0.146664 -8.992992 -3.113792 -0.773884 -1.560691
24 2.186862 3.710785 -0.695477 -0.000000 0.000000 0.000000
25 2.364330 -0.050910 2.196378 -0.000000 0.000000 0.000000
26 41.624191 11.098160 -0.241271 -1.582244 0.018583 -3.126151
time 24
0 -14.853417 -9.686016 -24.109648 0.000000 -0.000000 -1.570795
1 -0.000000 -0.000000 -0.000002 0.000000 -1.570451 -1.570795
2 4.443617 -0.009642 0.000006 -0.000004 -0.000001 0.000796
3 12.111417 -0.011446 0.000000 0.000000 -0.000000 -0.000000
4 0.000007 0.011442 1.352404 -0.000014 -1.370796 3.140810
5 6.078087 -0.000001 -0.000001 -1.104806 0.860139 -1.210466
6 13.446751 0.000002 -0.000000 0.000000 0.000000 -1.171394
7 15.997005 0.000001 0.000002 -0.897063 -0.016862 0.217924
8 1.885327 0.833276 -2.177877 -1.342085 0.488042 0.396212
9 1.506962 0.000000 -0.000001 0.000000 -0.000000 -0.314158
10 0.798347 -0.000001 -0.000001 0.000000 -0.000000 -0.287978
11 3.950301 -0.539876 -2.108870 -0.041206 0.151627 -0.261498
12 1.545798 -0.000001 -0.000001 -0.000000 0.000000 0.774916
13 1.667396 0.000005 0.000002 -0.000000 0.000000 0.788883
14 3.899461 -0.475376 -1.170889 -0.000796 -0.000048 -0.073298
15 1.528216 0.000000 0.000001 -0.000000 0.000000 0.687651
16 1.528216 -0.000000 -0.000002 -0.000000 0.000000 0.836004
17 3.899458 -0.431803 0.168224 -0.000796 0.000000 -0.000000
18 1.506964 0.000001 0.000003 -0.000000 0.000000 0.808081
19 1.506962 -0.000002 -0.000003 -0.000000 0.000000 0.720814
20 3.915631 -0.278021 1.402608 -0.000796 0.000000 -0.000000
21 1.333086 -0.000000 0.000001 -0.000000 0.000000 0.968647
22 1.159204 -0.000003 -0.000000 -0.000000 0.000000 0.549768
23 0.035453 0.146664 -8.992992 -3.113792 -0.773884 -1.560691
24 2.186862 3.710785 -0.695477 -0.000000 0.000000 0.000000
25 2.364330 -0.050910 2.196378 -0.000000 0.000000 0.000000
26 41.624191 11.098160 -0.241271 -1.582244 0.018583 -3.126151
time 25
0 -14.853417 -9.686016 -24.109648 0.000000 -0.000000 -1.570795
1 -0.000000 -0.000000 -0.000002 0.000000 -1.570451 -1.570795
2 4.443617 -0.009642 0.000006 -0.000004 -0.000001 0.000796
3 12.111417 -0.011446 0.000000 0.000000 -0.000000 -0.000000
4 0.000007 0.011442 1.352404 -0.000014 -1.370796 3.140810
5 6.078087 -0.000001 -0.000001 -1.106242 0.857516 -1.212193
6 13.446751 0.000002 -0.000000 0.000000 0.000000 -1.170317
7 15.997005 0.000001 0.000002 -0.899629 -0.016862 0.217924
8 1.885327 0.833276 -2.177877 -1.342085 0.488042 0.396212
9 1.506962 0.000000 -0.000001 0.000000 -0.000000 -0.314158
10 0.798347 -0.000001 -0.000001 0.000000 -0.000000 -0.287978
11 3.950301 -0.539876 -2.108870 -0.041206 0.151627 -0.261498
12 1.545798 -0.000001 -0.000001 -0.000000 0.000000 0.774916
13 1.667396 0.000005 0.000002 -0.000000 0.000000 0.788883
14 3.899461 -0.475376 -1.170889 -0.000796 -0.000048 -0.073298
15 1.528216 0.000000 0.000001 -0.000000 0.000000 0.687651
16 1.528216 -0.000000 -0.000002 -0.000000 0.000000 0.836004
17 3.899458 -0.431803 0.168224 -0.000796 0.000000 -0.000000
18 1.506964 0.000001 0.000003 -0.000000 0.000000 0.808081
19 1.506962 -0.000002 -0.000003 -0.000000 0.000000 0.720814
20 3.915631 -0.278021 1.402608 -0.000796 0.000000 -0.000000
21 1.333086 -0.000000 0.000001 -0.000000 0.000000 0.968647
22 1.159204 -0.000003 -0.000000 -0.000000 0.000000 0.549768
23 0.035453 0.146664 -8.992992 -3.113792 -0.773884 -1.560691
24 2.186862 3.710785 -0.695477 -0.000000 0.000000 0.000000
25 2.364330 -0.050910 2.196378 -0.000000 0.000000 0.000000
26 41.624191 11.098160 -0.241271 -1.582244 0.018583 -3.126151
end
