//=================================================================================
//	SMD Generated by Source Model Decompiler.
//=================================================================================
version 1
nodes
0 "Bip01"  -1
1 "Bip01 Pelvis"  0
2 "Bip01 Spine"  1
3 "Bip01 Neck"  2
4 "Bip01 R Clavicle"  3
5 "Bip01 R UpperArm"  4
6 "Bip01 R Forearm"  5
7 "Bip01 R Hand"  6
8 "Bip01 R Finger0"  7
9 "Bip01 R Finger01"  8
10 "Bip01 R Finger02"  9
11 "Bip01 R Finger1"  7
12 "Bip01 R Finger11"  11
13 "Bip01 R Finger12"  12
14 "Bip01 R Finger2"  7
15 "Bip01 R Finger21"  14
16 "Bip01 R Finger22"  15
17 "Bip01 R Finger3"  7
18 "Bip01 R Finger31"  17
19 "Bip01 R Finger32"  18
20 "Bip01 R Finger4"  7
21 "Bip01 R Finger41"  20
22 "Bip01 R Finger42"  21
23 "Dummy14"  7
24 "Dummy15"  23
25 "tip"  23
end
skeleton
time 0
0 0.135014 3.127681 -24.816700 0.000000 -0.000000 -1.570795
1 0.000000 0.000000 0.000000 0.000000 -1.570451 -1.570795
2 4.443614 -0.009643 0.000006 -0.000004 -0.000001 0.000796
3 12.111417 -0.011446 -0.000000 0.000000 -0.000000 -0.000000
4 0.000009 0.011451 -1.352403 -0.000014 1.370796 3.140783
5 6.078086 0.000001 0.000002 -0.581711 -0.845547 0.940261
6 13.446753 -0.000001 0.000001 -0.000000 -0.000000 -1.055165
7 15.997001 -0.000002 0.000002 1.676664 -0.038715 0.346986
8 1.885326 0.833276 2.177872 1.120510 -0.553777 0.784980
9 1.506962 -0.000001 0.000000 -0.000000 0.000000 -0.872643
10 0.798345 0.000001 -0.000002 -0.000000 0.000000 -0.453772
11 3.950304 -0.539878 2.108871 -0.054059 -0.007920 0.354150
12 1.545802 0.000004 -0.000003 0.000000 0.000000 0.837739
13 1.667395 0.000002 0.000001 0.000000 0.000000 1.396232
14 3.899460 -0.475378 1.170887 0.000760 0.052085 0.340374
15 1.528217 0.000001 0.000001 0.000000 -0.000000 0.741744
16 1.528216 -0.000001 0.000000 0.000000 -0.000000 1.466066
17 3.899459 -0.431806 -0.168226 0.000796 -0.043756 0.165771
18 1.506964 0.000002 -0.000002 0.000000 -0.000000 1.064639
19 1.506961 0.000002 -0.000001 0.000000 -0.000000 1.282779
20 3.915633 -0.278021 -1.402610 0.070618 -0.183256 -0.000144
21 1.333081 0.000000 -0.000001 0.000000 -0.000000 1.178087
22 1.159204 -0.000001 -0.000001 0.000000 -0.000000 0.977371
23 4.305006 0.932601 1.268975 0.018585 0.011445 1.586448
24 0.000001 -0.000002 4.465613 -0.000001 -0.000000 0.000000
25 -0.009319 -0.020458 19.838097 -0.000000 -0.000000 0.000000
time 1
0 0.135014 3.127681 -24.816700 0.000000 -0.000000 -1.570795
1 0.000000 0.000000 0.000000 0.000000 -1.570451 -1.570795
2 4.443614 -0.009643 0.000006 -0.000004 -0.000001 0.000796
3 12.111417 -0.011446 -0.000000 0.000000 -0.000000 -0.000000
4 0.000009 0.011451 -1.352403 -0.000014 1.370796 3.140783
5 6.078086 0.000001 0.000002 -0.519733 -0.868670 0.863550
6 13.446753 -0.000001 0.000001 -0.000000 -0.000000 -1.055165
7 15.997001 -0.000002 0.000002 1.677200 -0.037209 0.332870
8 1.885326 0.833276 2.177872 1.120510 -0.553777 0.784980
9 1.506962 -0.000001 0.000000 -0.000000 0.000000 -0.872643
10 0.798345 0.000001 -0.000002 -0.000000 0.000000 -0.453772
11 3.950304 -0.539878 2.108871 -0.054059 -0.007920 0.354150
12 1.545802 0.000004 -0.000003 0.000000 0.000000 0.837739
13 1.667395 0.000002 0.000001 0.000000 0.000000 1.396232
14 3.899460 -0.475378 1.170887 0.000760 0.052085 0.340374
15 1.528217 0.000001 0.000001 0.000000 -0.000000 0.741744
16 1.528216 -0.000001 0.000000 0.000000 -0.000000 1.466066
17 3.899459 -0.431806 -0.168226 0.000796 -0.043756 0.165771
18 1.506964 0.000002 -0.000002 0.000000 -0.000000 1.064639
19 1.506961 0.000002 -0.000001 0.000000 -0.000000 1.282779
20 3.915633 -0.278021 -1.402610 0.070618 -0.183256 -0.000144
21 1.333081 0.000000 -0.000001 0.000000 -0.000000 1.178087
22 1.159204 -0.000001 -0.000001 0.000000 -0.000000 0.977371
23 4.305006 0.932601 1.268975 0.018585 0.011445 1.586448
24 0.000001 -0.000002 4.465613 -0.000001 -0.000000 0.000000
25 -0.009319 -0.020458 19.838097 -0.000000 -0.000000 0.000000
time 2
0 0.135014 3.127681 -24.816700 0.000000 -0.000000 -1.570795
1 0.000000 0.000000 0.000000 0.000000 -1.570451 -1.570795
2 4.443614 -0.009643 0.000006 -0.000004 -0.000001 0.000796
3 12.111417 -0.011446 -0.000000 0.000000 -0.000000 -0.000000
4 0.000009 0.011451 -1.352403 -0.000014 1.370796 3.140783
5 6.078086 0.000001 0.000002 -0.451483 -0.888581 0.780484
6 13.446753 -0.000001 0.000001 -0.000000 -0.000000 -1.055165
7 15.997001 -0.000002 0.000002 1.677763 -0.035563 0.317643
8 1.885326 0.833276 2.177872 1.120510 -0.553777 0.784980
9 1.506962 -0.000001 0.000000 -0.000000 0.000000 -0.872643
10 0.798345 0.000001 -0.000002 -0.000000 0.000000 -0.453772
11 3.950304 -0.539878 2.108871 -0.054059 -0.007920 0.354150
12 1.545802 0.000004 -0.000003 0.000000 0.000000 0.837739
13 1.667395 0.000002 0.000001 0.000000 0.000000 1.396232
14 3.899460 -0.475378 1.170887 0.000760 0.052085 0.340374
15 1.528217 0.000001 0.000001 0.000000 -0.000000 0.741744
16 1.528216 -0.000001 0.000000 0.000000 -0.000000 1.466066
17 3.899459 -0.431806 -0.168226 0.000796 -0.043756 0.165771
18 1.506964 0.000002 -0.000002 0.000000 -0.000000 1.064639
19 1.506961 0.000002 -0.000001 0.000000 -0.000000 1.282779
20 3.915633 -0.278021 -1.402610 0.070618 -0.183256 -0.000144
21 1.333081 0.000000 -0.000001 0.000000 -0.000000 1.178087
22 1.159204 -0.000001 -0.000001 0.000000 -0.000000 0.977371
23 4.305006 0.932601 1.268975 0.018585 0.011445 1.586448
24 0.000001 -0.000002 4.465613 -0.000001 -0.000000 0.000000
25 -0.009319 -0.020458 19.838097 -0.000000 -0.000000 0.000000
time 3
0 0.135014 3.127681 -24.816700 0.000000 -0.000000 -1.570795
1 0.000000 0.000000 0.000000 0.000000 -1.570451 -1.570795
2 4.443614 -0.009643 0.000006 -0.000004 -0.000001 0.000796
3 12.111417 -0.011446 -0.000000 0.000000 -0.000000 -0.000000
4 0.000009 0.011451 -1.352403 -0.000014 1.370796 3.140783
5 6.078086 0.000001 0.000002 -0.377470 -0.904739 0.691518
6 13.446753 -0.000001 0.000001 -0.000000 -0.000000 -1.055165
7 15.997001 -0.000002 0.000002 1.678326 -0.033812 0.301469
8 1.885326 0.833276 2.177872 1.120510 -0.553777 0.784980
9 1.506962 -0.000001 0.000000 -0.000000 0.000000 -0.872643
10 0.798345 0.000001 -0.000002 -0.000000 0.000000 -0.453772
11 3.950304 -0.539878 2.108871 -0.054059 -0.007920 0.354150
12 1.545802 0.000004 -0.000003 0.000000 0.000000 0.837739
13 1.667395 0.000002 0.000001 0.000000 0.000000 1.396232
14 3.899460 -0.475378 1.170887 0.000760 0.052085 0.340374
15 1.528217 0.000001 0.000001 0.000000 -0.000000 0.741744
16 1.528216 -0.000001 0.000000 0.000000 -0.000000 1.466066
17 3.899459 -0.431806 -0.168226 0.000796 -0.043756 0.165771
18 1.506964 0.000002 -0.000002 0.000000 -0.000000 1.064639
19 1.506961 0.000002 -0.000001 0.000000 -0.000000 1.282779
20 3.915633 -0.278021 -1.402610 0.070618 -0.183256 -0.000144
21 1.333081 0.000000 -0.000001 0.000000 -0.000000 1.178087
22 1.159204 -0.000001 -0.000001 0.000000 -0.000000 0.977371
23 4.305006 0.932601 1.268975 0.018585 0.011445 1.586448
24 0.000001 -0.000002 4.465613 -0.000001 -0.000000 0.000000
25 -0.009319 -0.020458 19.838097 -0.000000 -0.000000 0.000000
time 4
0 0.135014 3.127681 -24.816700 0.000000 -0.000000 -1.570795
1 0.000000 0.000000 0.000000 0.000000 -1.570451 -1.570795
2 4.443614 -0.009643 0.000006 -0.000004 -0.000001 0.000796
3 12.111417 -0.011446 -0.000000 0.000000 -0.000000 -0.000000
4 0.000009 0.011451 -1.352403 -0.000014 1.370796 3.140783
5 6.078086 0.000001 0.000002 -0.298599 -0.916537 0.597710
6 13.446753 -0.000001 0.000001 -0.000000 -0.000000 -1.055165
7 15.997001 -0.000002 0.000002 1.678889 -0.031974 0.284542
8 1.885326 0.833276 2.177872 1.120510 -0.553777 0.784980
9 1.506962 -0.000001 0.000000 -0.000000 0.000000 -0.872643
10 0.798345 0.000001 -0.000002 -0.000000 0.000000 -0.453772
11 3.950304 -0.539878 2.108871 -0.054059 -0.007920 0.354150
12 1.545802 0.000004 -0.000003 0.000000 0.000000 0.837739
13 1.667395 0.000002 0.000001 0.000000 0.000000 1.396232
14 3.899460 -0.475378 1.170887 0.000760 0.052085 0.340374
15 1.528217 0.000001 0.000001 0.000000 -0.000000 0.741744
16 1.528216 -0.000001 0.000000 0.000000 -0.000000 1.466066
17 3.899459 -0.431806 -0.168226 0.000796 -0.043756 0.165771
18 1.506964 0.000002 -0.000002 0.000000 -0.000000 1.064639
19 1.506961 0.000002 -0.000001 0.000000 -0.000000 1.282779
20 3.915633 -0.278021 -1.402610 0.070618 -0.183256 -0.000144
21 1.333081 0.000000 -0.000001 0.000000 -0.000000 1.178087
22 1.159204 -0.000001 -0.000001 0.000000 -0.000000 0.977371
23 4.305006 0.932601 1.268975 0.018585 0.011445 1.586448
24 0.000001 -0.000002 4.465613 -0.000001 -0.000000 0.000000
25 -0.009319 -0.020458 19.838097 -0.000000 -0.000000 0.000000
time 5
0 0.135014 3.127681 -24.816700 0.000000 -0.000000 -1.570795
1 0.000000 0.000000 0.000000 0.000000 -1.570451 -1.570795
2 4.443614 -0.009643 0.000006 -0.000004 -0.000001 0.000796
3 12.111417 -0.011446 -0.000000 0.000000 -0.000000 -0.000000
4 0.000009 0.011451 -1.352403 -0.000014 1.370796 3.140783
5 6.078086 0.000001 0.000002 -0.216225 -0.923603 0.500346
6 13.446753 -0.000001 0.000001 -0.000000 -0.000000 -1.055165
7 15.997001 -0.000002 0.000002 1.679425 -0.030048 0.267093
8 1.885326 0.833276 2.177872 1.120510 -0.553777 0.784980
9 1.506962 -0.000001 0.000000 -0.000000 0.000000 -0.872643
10 0.798345 0.000001 -0.000002 -0.000000 0.000000 -0.453772
11 3.950304 -0.539878 2.108871 -0.054059 -0.007920 0.354150
12 1.545802 0.000004 -0.000003 0.000000 0.000000 0.837739
13 1.667395 0.000002 0.000001 0.000000 0.000000 1.396232
14 3.899460 -0.475378 1.170887 0.000760 0.052085 0.340374
15 1.528217 0.000001 0.000001 0.000000 -0.000000 0.741744
16 1.528216 -0.000001 0.000000 0.000000 -0.000000 1.466066
17 3.899459 -0.431806 -0.168226 0.000796 -0.043756 0.165771
18 1.506964 0.000002 -0.000002 0.000000 -0.000000 1.064639
19 1.506961 0.000002 -0.000001 0.000000 -0.000000 1.282779
20 3.915633 -0.278021 -1.402610 0.070618 -0.183256 -0.000144
21 1.333081 0.000000 -0.000001 0.000000 -0.000000 1.178087
22 1.159204 -0.000001 -0.000001 0.000000 -0.000000 0.977371
23 4.305006 0.932601 1.268975 0.018585 0.011445 1.586448
24 0.000001 -0.000002 4.465613 -0.000001 -0.000000 0.000000
25 -0.009319 -0.020458 19.838097 -0.000000 -0.000000 0.000000
time 6
0 0.135014 3.127681 -24.816700 0.000000 -0.000000 -1.570795
1 0.000000 0.000000 0.000000 0.000000 -1.570451 -1.570795
2 4.443614 -0.009643 0.000006 -0.000004 -0.000001 0.000796
3 12.111417 -0.011446 -0.000000 0.000000 -0.000000 -0.000000
4 0.000009 0.011451 -1.352403 -0.000014 1.370796 3.140783
5 6.078086 0.000001 0.000002 -0.131986 -0.925631 0.401015
6 13.446753 -0.000001 0.000001 -0.000000 -0.000000 -1.055165
7 15.997001 -0.000002 0.000002 1.679934 -0.028104 0.249318
8 1.885326 0.833276 2.177872 1.120510 -0.553777 0.784980
9 1.506962 -0.000001 0.000000 -0.000000 0.000000 -0.872643
10 0.798345 0.000001 -0.000002 -0.000000 0.000000 -0.453772
11 3.950304 -0.539878 2.108871 -0.054059 -0.007920 0.354150
12 1.545802 0.000004 -0.000003 0.000000 0.000000 0.837739
13 1.667395 0.000002 0.000001 0.000000 0.000000 1.396232
14 3.899460 -0.475378 1.170887 0.000760 0.052085 0.340374
15 1.528217 0.000001 0.000001 0.000000 -0.000000 0.741744
16 1.528216 -0.000001 0.000000 0.000000 -0.000000 1.466066
17 3.899459 -0.431806 -0.168226 0.000796 -0.043756 0.165771
18 1.506964 0.000002 -0.000002 0.000000 -0.000000 1.064639
19 1.506961 0.000002 -0.000001 0.000000 -0.000000 1.282779
20 3.915633 -0.278021 -1.402610 0.070618 -0.183256 -0.000144
21 1.333081 0.000000 -0.000001 0.000000 -0.000000 1.178087
22 1.159204 -0.000001 -0.000001 0.000000 -0.000000 0.977371
23 4.305006 0.932601 1.268975 0.018585 0.011445 1.586448
24 0.000001 -0.000002 4.465613 -0.000001 -0.000000 0.000000
25 -0.009319 -0.020458 19.838097 -0.000000 -0.000000 0.000000
time 7
0 0.135014 3.127681 -24.816700 0.000000 -0.000000 -1.570795
1 0.000000 0.000000 0.000000 0.000000 -1.570451 -1.570795
2 4.443614 -0.009643 0.000006 -0.000004 -0.000001 0.000796
3 12.111417 -0.011446 -0.000000 0.000000 -0.000000 -0.000000
4 0.000009 0.011451 -1.352403 -0.000014 1.370796 3.140783
5 6.078086 0.000001 0.000002 -0.047635 -0.922521 0.301609
6 13.446753 -0.000001 0.000001 -0.000000 -0.000000 -1.055165
7 15.997001 -0.000002 0.000002 1.680417 -0.026108 0.231379
8 1.885326 0.833276 2.177872 1.120510 -0.553777 0.784980
9 1.506962 -0.000001 0.000000 -0.000000 0.000000 -0.872643
10 0.798345 0.000001 -0.000002 -0.000000 0.000000 -0.453772
11 3.950304 -0.539878 2.108871 -0.054059 -0.007920 0.354150
12 1.545802 0.000004 -0.000003 0.000000 0.000000 0.837739
13 1.667395 0.000002 0.000001 0.000000 0.000000 1.396232
14 3.899460 -0.475378 1.170887 0.000760 0.052085 0.340374
15 1.528217 0.000001 0.000001 0.000000 -0.000000 0.741744
16 1.528216 -0.000001 0.000000 0.000000 -0.000000 1.466066
17 3.899459 -0.431806 -0.168226 0.000796 -0.043756 0.165771
18 1.506964 0.000002 -0.000002 0.000000 -0.000000 1.064639
19 1.506961 0.000002 -0.000001 0.000000 -0.000000 1.282779
20 3.915633 -0.278021 -1.402610 0.070618 -0.183256 -0.000144
21 1.333081 0.000000 -0.000001 0.000000 -0.000000 1.178087
22 1.159204 -0.000001 -0.000001 0.000000 -0.000000 0.977371
23 4.305006 0.932601 1.268975 0.018585 0.011445 1.586448
24 0.000001 -0.000002 4.465613 -0.000001 -0.000000 0.000000
25 -0.009319 -0.020458 19.838097 -0.000000 -0.000000 0.000000
time 8
0 0.135014 3.127681 -24.816700 0.000000 -0.000000 -1.570795
1 0.000000 0.000000 0.000000 0.000000 -1.570451 -1.570795
2 4.443614 -0.009643 0.000006 -0.000004 -0.000001 0.000796
3 12.111417 -0.011446 -0.000000 0.000000 -0.000000 -0.000000
4 0.000009 0.011451 -1.352403 -0.000014 1.370796 3.140783
5 6.078086 0.000001 0.000002 0.035022 -0.914509 0.203791
6 13.446753 -0.000001 0.000001 -0.000000 -0.000000 -1.055165
7 15.997001 -0.000002 0.000002 1.680873 -0.024129 0.213538
8 1.885326 0.833276 2.177872 1.120510 -0.553777 0.784980
9 1.506962 -0.000001 0.000000 -0.000000 0.000000 -0.872643
10 0.798345 0.000001 -0.000002 -0.000000 0.000000 -0.453772
11 3.950304 -0.539878 2.108871 -0.054059 -0.007920 0.354150
12 1.545802 0.000004 -0.000003 0.000000 0.000000 0.837739
13 1.667395 0.000002 0.000001 0.000000 0.000000 1.396232
14 3.899460 -0.475378 1.170887 0.000760 0.052085 0.340374
15 1.528217 0.000001 0.000001 0.000000 -0.000000 0.741744
16 1.528216 -0.000001 0.000000 0.000000 -0.000000 1.466066
17 3.899459 -0.431806 -0.168226 0.000796 -0.043756 0.165771
18 1.506964 0.000002 -0.000002 0.000000 -0.000000 1.064639
19 1.506961 0.000002 -0.000001 0.000000 -0.000000 1.282779
20 3.915633 -0.278021 -1.402610 0.070618 -0.183256 -0.000144
21 1.333081 0.000000 -0.000001 0.000000 -0.000000 1.178087
22 1.159204 -0.000001 -0.000001 0.000000 -0.000000 0.977371
23 4.305006 0.932601 1.268975 0.018585 0.011445 1.586448
24 0.000001 -0.000002 4.465613 -0.000001 -0.000000 0.000000
25 -0.009319 -0.020458 19.838097 -0.000000 -0.000000 0.000000
time 9
0 0.135014 3.127681 -24.816700 0.000000 -0.000000 -1.570795
1 0.000000 0.000000 0.000000 0.000000 -1.570451 -1.570795
2 4.443614 -0.009643 0.000006 -0.000004 -0.000001 0.000796
3 12.111417 -0.011446 -0.000000 0.000000 -0.000000 -0.000000
4 0.000009 0.011451 -1.352403 -0.000014 1.370796 3.140783
5 6.078086 0.000001 0.000002 0.114571 -0.901832 0.109150
6 13.446753 -0.000001 0.000001 -0.000000 -0.000000 -1.055165
7 15.997001 -0.000002 0.000002 1.681275 -0.022168 0.195958
8 1.885326 0.833276 2.177872 1.120510 -0.553777 0.784980
9 1.506962 -0.000001 0.000000 -0.000000 0.000000 -0.872643
10 0.798345 0.000001 -0.000002 -0.000000 0.000000 -0.453772
11 3.950304 -0.539878 2.108871 -0.054059 -0.007920 0.354150
12 1.545802 0.000004 -0.000003 0.000000 0.000000 0.837739
13 1.667395 0.000002 0.000001 0.000000 0.000000 1.396232
14 3.899460 -0.475378 1.170887 0.000760 0.052085 0.340374
15 1.528217 0.000001 0.000001 0.000000 -0.000000 0.741744
16 1.528216 -0.000001 0.000000 0.000000 -0.000000 1.466066
17 3.899459 -0.431806 -0.168226 0.000796 -0.043756 0.165771
18 1.506964 0.000002 -0.000002 0.000000 -0.000000 1.064639
19 1.506961 0.000002 -0.000001 0.000000 -0.000000 1.282779
20 3.915633 -0.278021 -1.402610 0.070618 -0.183256 -0.000144
21 1.333081 0.000000 -0.000001 0.000000 -0.000000 1.178087
22 1.159204 -0.000001 -0.000001 0.000000 -0.000000 0.977371
23 4.305006 0.932601 1.268975 0.018585 0.011445 1.586448
24 0.000001 -0.000002 4.465613 -0.000001 -0.000000 0.000000
25 -0.009319 -0.020458 19.838097 -0.000000 -0.000000 0.000000
time 10
0 0.135014 3.127681 -24.816700 0.000000 -0.000000 -1.570795
1 0.000000 0.000000 0.000000 0.000000 -1.570451 -1.570795
2 4.443614 -0.009643 0.000006 -0.000004 -0.000001 0.000796
3 12.111417 -0.011446 -0.000000 0.000000 -0.000000 -0.000000
4 0.000009 0.011451 -1.352403 -0.000014 1.370796 3.140783
5 6.078086 0.000001 0.000002 0.189714 -0.885031 0.018898
6 13.446753 -0.000001 0.000001 -0.000000 -0.000000 -1.055165
7 15.997001 -0.000002 0.000002 1.681650 -0.020259 0.178836
8 1.885326 0.833276 2.177872 1.120510 -0.553777 0.784980
9 1.506962 -0.000001 0.000000 -0.000000 0.000000 -0.872643
10 0.798345 0.000001 -0.000002 -0.000000 0.000000 -0.453772
11 3.950304 -0.539878 2.108871 -0.054059 -0.007920 0.354150
12 1.545802 0.000004 -0.000003 0.000000 0.000000 0.837739
13 1.667395 0.000002 0.000001 0.000000 0.000000 1.396232
14 3.899460 -0.475378 1.170887 0.000760 0.052085 0.340374
15 1.528217 0.000001 0.000001 0.000000 -0.000000 0.741744
16 1.528216 -0.000001 0.000000 0.000000 -0.000000 1.466066
17 3.899459 -0.431806 -0.168226 0.000796 -0.043756 0.165771
18 1.506964 0.000002 -0.000002 0.000000 -0.000000 1.064639
19 1.506961 0.000002 -0.000001 0.000000 -0.000000 1.282779
20 3.915633 -0.278021 -1.402610 0.070618 -0.183256 -0.000144
21 1.333081 0.000000 -0.000001 0.000000 -0.000000 1.178087
22 1.159204 -0.000001 -0.000001 0.000000 -0.000000 0.977371
23 4.305006 0.932601 1.268975 0.018585 0.011445 1.586448
24 0.000001 -0.000002 4.465613 -0.000001 -0.000000 0.000000
25 -0.009319 -0.020458 19.838097 -0.000000 -0.000000 0.000000
time 11
0 0.135014 3.127681 -24.816700 0.000000 -0.000000 -1.570795
1 0.000000 0.000000 0.000000 0.000000 -1.570451 -1.570795
2 4.443614 -0.009643 0.000006 -0.000004 -0.000001 0.000796
3 12.111417 -0.011446 -0.000000 0.000000 -0.000000 -0.000000
4 0.000009 0.011451 -1.352403 -0.000014 1.370796 3.140783
5 6.078086 0.000001 0.000002 0.259602 -0.864715 -0.066059
6 13.446753 -0.000001 0.000001 -0.000000 -0.000000 -1.055165
7 15.997001 -0.000002 0.000002 1.681972 -0.018421 0.162400
8 1.885326 0.833276 2.177872 1.120510 -0.553777 0.784980
9 1.506962 -0.000001 0.000000 -0.000000 0.000000 -0.872643
10 0.798345 0.000001 -0.000002 -0.000000 0.000000 -0.453772
11 3.950304 -0.539878 2.108871 -0.054059 -0.007920 0.354150
12 1.545802 0.000004 -0.000003 0.000000 0.000000 0.837739
13 1.667395 0.000002 0.000001 0.000000 0.000000 1.396232
14 3.899460 -0.475378 1.170887 0.000760 0.052085 0.340374
15 1.528217 0.000001 0.000001 0.000000 -0.000000 0.741744
16 1.528216 -0.000001 0.000000 0.000000 -0.000000 1.466066
17 3.899459 -0.431806 -0.168226 0.000796 -0.043756 0.165771
18 1.506964 0.000002 -0.000002 0.000000 -0.000000 1.064639
19 1.506961 0.000002 -0.000001 0.000000 -0.000000 1.282779
20 3.915633 -0.278021 -1.402610 0.070618 -0.183256 -0.000144
21 1.333081 0.000000 -0.000001 0.000000 -0.000000 1.178087
22 1.159204 -0.000001 -0.000001 0.000000 -0.000000 0.977371
23 4.305006 0.932601 1.268975 0.018585 0.011445 1.586448
24 0.000001 -0.000002 4.465613 -0.000001 -0.000000 0.000000
25 -0.009319 -0.020458 19.838097 -0.000000 -0.000000 0.000000
time 12
0 0.135014 3.127681 -24.816700 0.000000 -0.000000 -1.570795
1 0.000000 0.000000 0.000000 0.000000 -1.570451 -1.570795
2 4.443614 -0.009643 0.000006 -0.000004 -0.000001 0.000796
3 12.111417 -0.011446 -0.000000 0.000000 -0.000000 -0.000000
4 0.000009 0.011451 -1.352403 -0.000014 1.370796 3.140783
5 6.078086 0.000001 0.000002 0.323840 -0.841491 -0.145342
6 13.446753 -0.000001 0.000001 -0.000000 -0.000000 -1.055165
7 15.997001 -0.000002 0.000002 1.682240 -0.016670 0.146846
8 1.885326 0.833276 2.177872 1.120510 -0.553777 0.784980
9 1.506962 -0.000001 0.000000 -0.000000 0.000000 -0.872643
10 0.798345 0.000001 -0.000002 -0.000000 0.000000 -0.453772
11 3.950304 -0.539878 2.108871 -0.054059 -0.007920 0.354150
12 1.545802 0.000004 -0.000003 0.000000 0.000000 0.837739
13 1.667395 0.000002 0.000001 0.000000 0.000000 1.396232
14 3.899460 -0.475378 1.170887 0.000760 0.052085 0.340374
15 1.528217 0.000001 0.000001 0.000000 -0.000000 0.741744
16 1.528216 -0.000001 0.000000 0.000000 -0.000000 1.466066
17 3.899459 -0.431806 -0.168226 0.000796 -0.043756 0.165771
18 1.506964 0.000002 -0.000002 0.000000 -0.000000 1.064639
19 1.506961 0.000002 -0.000001 0.000000 -0.000000 1.282779
20 3.915633 -0.278021 -1.402610 0.070618 -0.183256 -0.000144
21 1.333081 0.000000 -0.000001 0.000000 -0.000000 1.178087
22 1.159204 -0.000001 -0.000001 0.000000 -0.000000 0.977371
23 4.305006 0.932601 1.268975 0.018585 0.011445 1.586448
24 0.000001 -0.000002 4.465613 -0.000001 -0.000000 0.000000
25 -0.009319 -0.020458 19.838097 -0.000000 -0.000000 0.000000
time 13
0 0.135014 3.127681 -24.816700 0.000000 -0.000000 -1.570795
1 0.000000 0.000000 0.000000 0.000000 -1.570451 -1.570795
2 4.443614 -0.009643 0.000006 -0.000004 -0.000001 0.000796
3 12.111417 -0.011446 -0.000000 0.000000 -0.000000 -0.000000
4 0.000009 0.011451 -1.352403 -0.000014 1.370796 3.140783
5 6.078086 0.000001 0.000002 0.382259 -0.816070 -0.218725
6 13.446753 -0.000001 0.000001 -0.000000 -0.000000 -1.055165
7 15.997001 -0.000002 0.000002 1.682454 -0.015024 0.132370
8 1.885326 0.833276 2.177872 1.120510 -0.553777 0.784980
9 1.506962 -0.000001 0.000000 -0.000000 0.000000 -0.872643
10 0.798345 0.000001 -0.000002 -0.000000 0.000000 -0.453772
11 3.950304 -0.539878 2.108871 -0.054059 -0.007920 0.354150
12 1.545802 0.000004 -0.000003 0.000000 0.000000 0.837739
13 1.667395 0.000002 0.000001 0.000000 0.000000 1.396232
14 3.899460 -0.475378 1.170887 0.000760 0.052085 0.340374
15 1.528217 0.000001 0.000001 0.000000 -0.000000 0.741744
16 1.528216 -0.000001 0.000000 0.000000 -0.000000 1.466066
17 3.899459 -0.431806 -0.168226 0.000796 -0.043756 0.165771
18 1.506964 0.000002 -0.000002 0.000000 -0.000000 1.064639
19 1.506961 0.000002 -0.000001 0.000000 -0.000000 1.282779
20 3.915633 -0.278021 -1.402610 0.070618 -0.183256 -0.000144
21 1.333081 0.000000 -0.000001 0.000000 -0.000000 1.178087
22 1.159204 -0.000001 -0.000001 0.000000 -0.000000 0.977371
23 4.305006 0.932601 1.268975 0.018585 0.011445 1.586448
24 0.000001 -0.000002 4.465613 -0.000001 -0.000000 0.000000
25 -0.009319 -0.020458 19.838097 -0.000000 -0.000000 0.000000
time 14
0 0.135014 3.127681 -24.816700 0.000000 -0.000000 -1.570795
1 0.000000 0.000000 0.000000 0.000000 -1.570451 -1.570795
2 4.443614 -0.009643 0.000006 -0.000004 -0.000001 0.000796
3 12.111417 -0.011446 -0.000000 0.000000 -0.000000 -0.000000
4 0.000009 0.011451 -1.352403 -0.000014 1.370796 3.140783
5 6.078086 0.000001 0.000002 0.435029 -0.789161 -0.286282
6 13.446753 -0.000001 0.000001 -0.000000 -0.000000 -1.055165
7 15.997001 -0.000002 0.000002 1.682642 -0.013535 0.119137
8 1.885326 0.833276 2.177872 1.120510 -0.553777 0.784980
9 1.506962 -0.000001 0.000000 -0.000000 0.000000 -0.872643
10 0.798345 0.000001 -0.000002 -0.000000 0.000000 -0.453772
11 3.950304 -0.539878 2.108871 -0.054059 -0.007920 0.354150
12 1.545802 0.000004 -0.000003 0.000000 0.000000 0.837739
13 1.667395 0.000002 0.000001 0.000000 0.000000 1.396232
14 3.899460 -0.475378 1.170887 0.000760 0.052085 0.340374
15 1.528217 0.000001 0.000001 0.000000 -0.000000 0.741744
16 1.528216 -0.000001 0.000000 0.000000 -0.000000 1.466066
17 3.899459 -0.431806 -0.168226 0.000796 -0.043756 0.165771
18 1.506964 0.000002 -0.000002 0.000000 -0.000000 1.064639
19 1.506961 0.000002 -0.000001 0.000000 -0.000000 1.282779
20 3.915633 -0.278021 -1.402610 0.070618 -0.183256 -0.000144
21 1.333081 0.000000 -0.000001 0.000000 -0.000000 1.178087
22 1.159204 -0.000001 -0.000001 0.000000 -0.000000 0.977371
23 4.305006 0.932601 1.268975 0.018585 0.011445 1.586448
24 0.000001 -0.000002 4.465613 -0.000001 -0.000000 0.000000
25 -0.009319 -0.020458 19.838097 -0.000000 -0.000000 0.000000
time 15
0 0.135014 3.127681 -24.816700 0.000000 -0.000000 -1.570795
1 0.000000 0.000000 0.000000 0.000000 -1.570451 -1.570795
2 4.443614 -0.009643 0.000006 -0.000004 -0.000001 0.000796
3 12.111417 -0.011446 -0.000000 0.000000 -0.000000 -0.000000
4 0.000009 0.011451 -1.352403 -0.000014 1.370796 3.140783
5 6.078086 0.000001 0.000002 0.482374 -0.761373 -0.348316
6 13.446753 -0.000001 0.000001 -0.000000 -0.000000 -1.055165
7 15.997001 -0.000002 0.000002 1.682803 -0.012205 0.107439
8 1.885326 0.833276 2.177872 1.120510 -0.553777 0.784980
9 1.506962 -0.000001 0.000000 -0.000000 0.000000 -0.872643
10 0.798345 0.000001 -0.000002 -0.000000 0.000000 -0.453772
11 3.950304 -0.539878 2.108871 -0.054059 -0.007920 0.354150
12 1.545802 0.000004 -0.000003 0.000000 0.000000 0.837739
13 1.667395 0.000002 0.000001 0.000000 0.000000 1.396232
14 3.899460 -0.475378 1.170887 0.000760 0.052085 0.340374
15 1.528217 0.000001 0.000001 0.000000 -0.000000 0.741744
16 1.528216 -0.000001 0.000000 0.000000 -0.000000 1.466066
17 3.899459 -0.431806 -0.168226 0.000796 -0.043756 0.165771
18 1.506964 0.000002 -0.000002 0.000000 -0.000000 1.064639
19 1.506961 0.000002 -0.000001 0.000000 -0.000000 1.282779
20 3.915633 -0.278021 -1.402610 0.070618 -0.183256 -0.000144
21 1.333081 0.000000 -0.000001 0.000000 -0.000000 1.178087
22 1.159204 -0.000001 -0.000001 0.000000 -0.000000 0.977371
23 4.305006 0.932601 1.268975 0.018585 0.011445 1.586448
24 0.000001 -0.000002 4.465613 -0.000001 -0.000000 0.000000
25 -0.009319 -0.020458 19.838097 -0.000000 -0.000000 0.000000
time 16
0 0.135014 3.127681 -24.816700 0.000000 -0.000000 -1.570795
1 0.000000 0.000000 0.000000 0.000000 -1.570451 -1.570795
2 4.443614 -0.009643 0.000006 -0.000004 -0.000001 0.000796
3 12.111417 -0.011446 -0.000000 0.000000 -0.000000 -0.000000
4 0.000009 0.011451 -1.352403 -0.000014 1.370796 3.140783
5 6.078086 0.000001 0.000002 0.524691 -0.733349 -0.405131
6 13.446753 -0.000001 0.000001 -0.000000 -0.000000 -1.055165
7 15.997001 -0.000002 0.000002 1.682910 -0.011067 0.097374
8 1.885326 0.833276 2.177872 1.120510 -0.553777 0.784980
9 1.506962 -0.000001 0.000000 -0.000000 0.000000 -0.872643
10 0.798345 0.000001 -0.000002 -0.000000 0.000000 -0.453772
11 3.950304 -0.539878 2.108871 -0.054059 -0.007920 0.354150
12 1.545802 0.000004 -0.000003 0.000000 0.000000 0.837739
13 1.667395 0.000002 0.000001 0.000000 0.000000 1.396232
14 3.899460 -0.475378 1.170887 0.000760 0.052085 0.340374
15 1.528217 0.000001 0.000001 0.000000 -0.000000 0.741744
16 1.528216 -0.000001 0.000000 0.000000 -0.000000 1.466066
17 3.899459 -0.431806 -0.168226 0.000796 -0.043756 0.165771
18 1.506964 0.000002 -0.000002 0.000000 -0.000000 1.064639
19 1.506961 0.000002 -0.000001 0.000000 -0.000000 1.282779
20 3.915633 -0.278021 -1.402610 0.070618 -0.183256 -0.000144
21 1.333081 0.000000 -0.000001 0.000000 -0.000000 1.178087
22 1.159204 -0.000001 -0.000001 0.000000 -0.000000 0.977371
23 4.305006 0.932601 1.268975 0.018585 0.011445 1.586448
24 0.000001 -0.000002 4.465613 -0.000001 -0.000000 0.000000
25 -0.009319 -0.020458 19.838097 -0.000000 -0.000000 0.000000
time 17
0 0.135014 3.127681 -24.816700 0.000000 -0.000000 -1.570795
1 0.000000 0.000000 0.000000 0.000000 -1.570451 -1.570795
2 4.443614 -0.009643 0.000006 -0.000004 -0.000001 0.000796
3 12.111417 -0.011446 -0.000000 0.000000 -0.000000 -0.000000
4 0.000009 0.011451 -1.352403 -0.000014 1.370796 3.140783
5 6.078086 0.000001 0.000002 0.562432 -0.705629 -0.457104
6 13.446753 -0.000001 0.000001 -0.000000 -0.000000 -1.055165
7 15.997001 -0.000002 0.000002 1.683017 -0.010138 0.089205
8 1.885326 0.833276 2.177872 1.120510 -0.553777 0.784980
9 1.506962 -0.000001 0.000000 -0.000000 0.000000 -0.872643
10 0.798345 0.000001 -0.000002 -0.000000 0.000000 -0.453772
11 3.950304 -0.539878 2.108871 -0.054059 -0.007920 0.354150
12 1.545802 0.000004 -0.000003 0.000000 0.000000 0.837739
13 1.667395 0.000002 0.000001 0.000000 0.000000 1.396232
14 3.899460 -0.475378 1.170887 0.000760 0.052085 0.340374
15 1.528217 0.000001 0.000001 0.000000 -0.000000 0.741744
16 1.528216 -0.000001 0.000000 0.000000 -0.000000 1.466066
17 3.899459 -0.431806 -0.168226 0.000796 -0.043756 0.165771
18 1.506964 0.000002 -0.000002 0.000000 -0.000000 1.064639
19 1.506961 0.000002 -0.000001 0.000000 -0.000000 1.282779
20 3.915633 -0.278021 -1.402610 0.070618 -0.183256 -0.000144
21 1.333081 0.000000 -0.000001 0.000000 -0.000000 1.178087
22 1.159204 -0.000001 -0.000001 0.000000 -0.000000 0.977371
23 4.305006 0.932601 1.268975 0.018585 0.011445 1.586448
24 0.000001 -0.000002 4.465613 -0.000001 -0.000000 0.000000
25 -0.009319 -0.020458 19.838097 -0.000000 -0.000000 0.000000
time 18
0 0.135014 3.127681 -24.816700 0.000000 -0.000000 -1.570795
1 0.000000 0.000000 0.000000 0.000000 -1.570451 -1.570795
2 4.443614 -0.009643 0.000006 -0.000004 -0.000001 0.000796
3 12.111417 -0.011446 -0.000000 0.000000 -0.000000 -0.000000
4 0.000009 0.011451 -1.352403 -0.000014 1.370796 3.140783
5 6.078086 0.000001 0.000002 0.595935 -0.678788 -0.504537
6 13.446753 -0.000001 0.000001 -0.000000 -0.000000 -1.055165
7 15.997001 -0.000002 0.000002 1.683071 -0.009456 0.083128
8 1.885326 0.833276 2.177872 1.120510 -0.553777 0.784980
9 1.506962 -0.000001 0.000000 -0.000000 0.000000 -0.872643
10 0.798345 0.000001 -0.000002 -0.000000 0.000000 -0.453772
11 3.950304 -0.539878 2.108871 -0.054059 -0.007920 0.354150
12 1.545802 0.000004 -0.000003 0.000000 0.000000 0.837739
13 1.667395 0.000002 0.000001 0.000000 0.000000 1.396232
14 3.899460 -0.475378 1.170887 0.000760 0.052085 0.340374
15 1.528217 0.000001 0.000001 0.000000 -0.000000 0.741744
16 1.528216 -0.000001 0.000000 0.000000 -0.000000 1.466066
17 3.899459 -0.431806 -0.168226 0.000796 -0.043756 0.165771
18 1.506964 0.000002 -0.000002 0.000000 -0.000000 1.064639
19 1.506961 0.000002 -0.000001 0.000000 -0.000000 1.282779
20 3.915633 -0.278021 -1.402610 0.070618 -0.183256 -0.000144
21 1.333081 0.000000 -0.000001 0.000000 -0.000000 1.178087
22 1.159204 -0.000001 -0.000001 0.000000 -0.000000 0.977371
23 4.305006 0.932601 1.268975 0.018585 0.011445 1.586448
24 0.000001 -0.000002 4.465613 -0.000001 -0.000000 0.000000
25 -0.009319 -0.020458 19.838097 -0.000000 -0.000000 0.000000
time 19
0 0.135014 3.127681 -24.816700 0.000000 -0.000000 -1.570795
1 0.000000 0.000000 0.000000 0.000000 -1.570451 -1.570795
2 4.443614 -0.009643 0.000006 -0.000004 -0.000001 0.000796
3 12.111417 -0.011446 -0.000000 0.000000 -0.000000 -0.000000
4 0.000009 0.011451 -1.352403 -0.000014 1.370796 3.140783
5 6.078086 0.000001 0.000002 0.625710 -0.653300 -0.547886
6 13.446753 -0.000001 0.000001 -0.000000 -0.000000 -1.055165
7 15.997001 -0.000002 0.000002 1.683098 -0.009018 0.079337
8 1.885326 0.833276 2.177872 1.120510 -0.553777 0.784980
9 1.506962 -0.000001 0.000000 -0.000000 0.000000 -0.872643
10 0.798345 0.000001 -0.000002 -0.000000 0.000000 -0.453772
11 3.950304 -0.539878 2.108871 -0.054059 -0.007920 0.354150
12 1.545802 0.000004 -0.000003 0.000000 0.000000 0.837739
13 1.667395 0.000002 0.000001 0.000000 0.000000 1.396232
14 3.899460 -0.475378 1.170887 0.000760 0.052085 0.340374
15 1.528217 0.000001 0.000001 0.000000 -0.000000 0.741744
16 1.528216 -0.000001 0.000000 0.000000 -0.000000 1.466066
17 3.899459 -0.431806 -0.168226 0.000796 -0.043756 0.165771
18 1.506964 0.000002 -0.000002 0.000000 -0.000000 1.064639
19 1.506961 0.000002 -0.000001 0.000000 -0.000000 1.282779
20 3.915633 -0.278021 -1.402610 0.070618 -0.183256 -0.000144
21 1.333081 0.000000 -0.000001 0.000000 -0.000000 1.178087
22 1.159204 -0.000001 -0.000001 0.000000 -0.000000 0.977371
23 4.305006 0.932601 1.268975 0.018585 0.011445 1.586448
24 0.000001 -0.000002 4.465613 -0.000001 -0.000000 0.000000
25 -0.009319 -0.020458 19.838097 -0.000000 -0.000000 0.000000
time 20
0 0.135014 3.127681 -24.816700 0.000000 -0.000000 -1.570795
1 0.000000 0.000000 0.000000 0.000000 -1.570451 -1.570795
2 4.443614 -0.009643 0.000006 -0.000004 -0.000001 0.000796
3 12.111417 -0.011446 -0.000000 0.000000 -0.000000 -0.000000
4 0.000009 0.011451 -1.352403 -0.000014 1.370796 3.140783
5 6.078086 0.000001 0.000002 0.652151 -0.629603 -0.587376
6 13.446753 -0.000001 0.000001 -0.000000 -0.000000 -1.055165
7 15.997001 -0.000002 0.000002 1.683124 -0.008878 0.078030
8 1.885326 0.833276 2.177872 1.120510 -0.553777 0.784980
9 1.506962 -0.000001 0.000000 -0.000000 0.000000 -0.872643
10 0.798345 0.000001 -0.000002 -0.000000 0.000000 -0.453772
11 3.950304 -0.539878 2.108871 -0.054059 -0.007920 0.354150
12 1.545802 0.000004 -0.000003 0.000000 0.000000 0.837739
13 1.667395 0.000002 0.000001 0.000000 0.000000 1.396232
14 3.899460 -0.475378 1.170887 0.000760 0.052085 0.340374
15 1.528217 0.000001 0.000001 0.000000 -0.000000 0.741744
16 1.528216 -0.000001 0.000000 0.000000 -0.000000 1.466066
17 3.899459 -0.431806 -0.168226 0.000796 -0.043756 0.165771
18 1.506964 0.000002 -0.000002 0.000000 -0.000000 1.064639
19 1.506961 0.000002 -0.000001 0.000000 -0.000000 1.282779
20 3.915633 -0.278021 -1.402610 0.070618 -0.183256 -0.000144
21 1.333081 0.000000 -0.000001 0.000000 -0.000000 1.178087
22 1.159204 -0.000001 -0.000001 0.000000 -0.000000 0.977371
23 4.305006 0.932601 1.268975 0.018585 0.011445 1.586448
24 0.000001 -0.000002 4.465613 -0.000001 -0.000000 0.000000
25 -0.009319 -0.020458 19.838097 -0.000000 -0.000000 0.000000
time 21
0 0.135014 3.127681 -24.816700 0.000000 -0.000000 -1.570795
1 0.000000 0.000000 0.000000 0.000000 -1.570451 -1.570795
2 4.443614 -0.009643 0.000006 -0.000004 -0.000001 0.000796
3 12.111417 -0.011446 -0.000000 0.000000 -0.000000 -0.000000
4 0.000009 0.011451 -1.352403 -0.000014 1.370796 3.140783
5 6.078086 0.000001 0.000002 0.672264 -0.615607 -0.618469
6 13.446753 -0.000001 0.000001 -0.000000 -0.000000 -1.055165
7 15.997001 -0.000002 0.000002 1.683044 -0.009771 0.085905
8 1.885326 0.833276 2.177872 1.120510 -0.553777 0.784980
9 1.506962 -0.000001 0.000000 -0.000000 0.000000 -0.872643
10 0.798345 0.000001 -0.000002 -0.000000 0.000000 -0.453772
11 3.950304 -0.539878 2.108871 -0.054059 -0.007920 0.354150
12 1.545802 0.000004 -0.000003 0.000000 0.000000 0.837739
13 1.667395 0.000002 0.000001 0.000000 0.000000 1.396232
14 3.899460 -0.475378 1.170887 0.000760 0.052085 0.340374
15 1.528217 0.000001 0.000001 0.000000 -0.000000 0.741744
16 1.528216 -0.000001 0.000000 0.000000 -0.000000 1.466066
17 3.899459 -0.431806 -0.168226 0.000796 -0.043756 0.165771
18 1.506964 0.000002 -0.000002 0.000000 -0.000000 1.064639
19 1.506961 0.000002 -0.000001 0.000000 -0.000000 1.282779
20 3.915633 -0.278021 -1.402610 0.070618 -0.183256 -0.000144
21 1.333081 0.000000 -0.000001 0.000000 -0.000000 1.178087
22 1.159204 -0.000001 -0.000001 0.000000 -0.000000 0.977371
23 4.305006 0.932601 1.268975 0.018585 0.011445 1.586448
24 0.000001 -0.000002 4.465613 -0.000001 -0.000000 0.000000
25 -0.009319 -0.020458 19.838097 -0.000000 -0.000000 0.000000
time 22
0 0.135014 3.127681 -24.816700 0.000000 -0.000000 -1.570795
1 0.000000 0.000000 0.000000 0.000000 -1.570451 -1.570795
2 4.443614 -0.009643 0.000006 -0.000004 -0.000001 0.000796
3 12.111417 -0.011446 -0.000000 0.000000 -0.000000 -0.000000
4 0.000009 0.011451 -1.352403 -0.000014 1.370796 3.140783
5 6.078086 0.000001 0.000002 0.684976 -0.616824 -0.638819
6 13.446753 -0.000001 0.000001 -0.000000 -0.000000 -1.055165
7 15.997001 -0.000002 0.000002 1.682803 -0.012205 0.107439
8 1.885326 0.833276 2.177872 1.120510 -0.553777 0.784980
9 1.506962 -0.000001 0.000000 -0.000000 0.000000 -0.872643
10 0.798345 0.000001 -0.000002 -0.000000 0.000000 -0.453772
11 3.950304 -0.539878 2.108871 -0.054059 -0.007920 0.354150
12 1.545802 0.000004 -0.000003 0.000000 0.000000 0.837739
13 1.667395 0.000002 0.000001 0.000000 0.000000 1.396232
14 3.899460 -0.475378 1.170887 0.000760 0.052085 0.340374
15 1.528217 0.000001 0.000001 0.000000 -0.000000 0.741744
16 1.528216 -0.000001 0.000000 0.000000 -0.000000 1.466066
17 3.899459 -0.431806 -0.168226 0.000796 -0.043756 0.165771
18 1.506964 0.000002 -0.000002 0.000000 -0.000000 1.064639
19 1.506961 0.000002 -0.000001 0.000000 -0.000000 1.282779
20 3.915633 -0.278021 -1.402610 0.070618 -0.183256 -0.000144
21 1.333081 0.000000 -0.000001 0.000000 -0.000000 1.178087
22 1.159204 -0.000001 -0.000001 0.000000 -0.000000 0.977371
23 4.305006 0.932601 1.268975 0.018585 0.011445 1.586448
24 0.000001 -0.000002 4.465613 -0.000001 -0.000000 0.000000
25 -0.009319 -0.020458 19.838097 -0.000000 -0.000000 0.000000
time 23
0 0.135014 3.127681 -24.816700 0.000000 -0.000000 -1.570795
1 0.000000 0.000000 0.000000 0.000000 -1.570451 -1.570795
2 4.443614 -0.009643 0.000006 -0.000004 -0.000001 0.000796
3 12.111417 -0.011446 -0.000000 0.000000 -0.000000 -0.000000
4 0.000009 0.011451 -1.352403 -0.000014 1.370796 3.140783
5 6.078086 0.000001 0.000002 0.692660 -0.629974 -0.651453
6 13.446753 -0.000001 0.000001 -0.000000 -0.000000 -1.055165
7 15.997001 -0.000002 0.000002 1.682347 -0.015829 0.139461
8 1.885326 0.833276 2.177872 1.120510 -0.553777 0.784980
9 1.506962 -0.000001 0.000000 -0.000000 0.000000 -0.872643
10 0.798345 0.000001 -0.000002 -0.000000 0.000000 -0.453772
11 3.950304 -0.539878 2.108871 -0.054059 -0.007920 0.354150
12 1.545802 0.000004 -0.000003 0.000000 0.000000 0.837739
13 1.667395 0.000002 0.000001 0.000000 0.000000 1.396232
14 3.899460 -0.475378 1.170887 0.000760 0.052085 0.340374
15 1.528217 0.000001 0.000001 0.000000 -0.000000 0.741744
16 1.528216 -0.000001 0.000000 0.000000 -0.000000 1.466066
17 3.899459 -0.431806 -0.168226 0.000796 -0.043756 0.165771
18 1.506964 0.000002 -0.000002 0.000000 -0.000000 1.064639
19 1.506961 0.000002 -0.000001 0.000000 -0.000000 1.282779
20 3.915633 -0.278021 -1.402610 0.070618 -0.183256 -0.000144
21 1.333081 0.000000 -0.000001 0.000000 -0.000000 1.178087
22 1.159204 -0.000001 -0.000001 0.000000 -0.000000 0.977371
23 4.305006 0.932601 1.268975 0.018585 0.011445 1.586448
24 0.000001 -0.000002 4.465613 -0.000001 -0.000000 0.000000
25 -0.009319 -0.020458 19.838097 -0.000000 -0.000000 0.000000
time 24
0 0.135014 3.127681 -24.816700 0.000000 -0.000000 -1.570795
1 0.000000 0.000000 0.000000 0.000000 -1.570451 -1.570795
2 4.443614 -0.009643 0.000006 -0.000004 -0.000001 0.000796
3 12.111417 -0.011446 -0.000000 0.000000 -0.000000 -0.000000
4 0.000009 0.011451 -1.352403 -0.000014 1.370796 3.140783
5 6.078086 0.000001 0.000002 0.697010 -0.651576 -0.658791
6 13.446753 -0.000001 0.000001 -0.000000 -0.000000 -1.055165
7 15.997001 -0.000002 0.000002 1.681650 -0.020259 0.178836
8 1.885326 0.833276 2.177872 1.120510 -0.553777 0.784980
9 1.506962 -0.000001 0.000000 -0.000000 0.000000 -0.872643
10 0.798345 0.000001 -0.000002 -0.000000 0.000000 -0.453772
11 3.950304 -0.539878 2.108871 -0.054059 -0.007920 0.354150
12 1.545802 0.000004 -0.000003 0.000000 0.000000 0.837739
13 1.667395 0.000002 0.000001 0.000000 0.000000 1.396232
14 3.899460 -0.475378 1.170887 0.000760 0.052085 0.340374
15 1.528217 0.000001 0.000001 0.000000 -0.000000 0.741744
16 1.528216 -0.000001 0.000000 0.000000 -0.000000 1.466066
17 3.899459 -0.431806 -0.168226 0.000796 -0.043756 0.165771
18 1.506964 0.000002 -0.000002 0.000000 -0.000000 1.064639
19 1.506961 0.000002 -0.000001 0.000000 -0.000000 1.282779
20 3.915633 -0.278021 -1.402610 0.070618 -0.183256 -0.000144
21 1.333081 0.000000 -0.000001 0.000000 -0.000000 1.178087
22 1.159204 -0.000001 -0.000001 0.000000 -0.000000 0.977371
23 4.305006 0.932601 1.268975 0.018585 0.011445 1.586448
24 0.000001 -0.000002 4.465613 -0.000001 -0.000000 0.000000
25 -0.009319 -0.020458 19.838097 -0.000000 -0.000000 0.000000
time 25
0 0.135014 3.127681 -24.816700 0.000000 -0.000000 -1.570795
1 0.000000 0.000000 0.000000 0.000000 -1.570451 -1.570795
2 4.443614 -0.009643 0.000006 -0.000004 -0.000001 0.000796
3 12.111417 -0.011446 -0.000000 0.000000 -0.000000 -0.000000
4 0.000009 0.011451 -1.352403 -0.000014 1.370796 3.140783
5 6.078086 0.000001 0.000002 0.699440 -0.678011 -0.663179
6 13.446753 -0.000001 0.000001 -0.000000 -0.000000 -1.055165
7 15.997001 -0.000002 0.000002 1.680658 -0.025127 0.222425
8 1.885326 0.833276 2.177872 1.120510 -0.553777 0.784980
9 1.506962 -0.000001 0.000000 -0.000000 0.000000 -0.872643
10 0.798345 0.000001 -0.000002 -0.000000 0.000000 -0.453772
11 3.950304 -0.539878 2.108871 -0.054059 -0.007920 0.354150
12 1.545802 0.000004 -0.000003 0.000000 0.000000 0.837739
13 1.667395 0.000002 0.000001 0.000000 0.000000 1.396232
14 3.899460 -0.475378 1.170887 0.000760 0.052085 0.340374
15 1.528217 0.000001 0.000001 0.000000 -0.000000 0.741744
16 1.528216 -0.000001 0.000000 0.000000 -0.000000 1.466066
17 3.899459 -0.431806 -0.168226 0.000796 -0.043756 0.165771
18 1.506964 0.000002 -0.000002 0.000000 -0.000000 1.064639
19 1.506961 0.000002 -0.000001 0.000000 -0.000000 1.282779
20 3.915633 -0.278021 -1.402610 0.070618 -0.183256 -0.000144
21 1.333081 0.000000 -0.000001 0.000000 -0.000000 1.178087
22 1.159204 -0.000001 -0.000001 0.000000 -0.000000 0.977371
23 4.305006 0.932601 1.268975 0.018585 0.011445 1.586448
24 0.000001 -0.000002 4.465613 -0.000001 -0.000000 0.000000
25 -0.009319 -0.020458 19.838097 -0.000000 -0.000000 0.000000
time 26
0 0.135014 3.127681 -24.816700 0.000000 -0.000000 -1.570795
1 0.000000 0.000000 0.000000 0.000000 -1.570451 -1.570795
2 4.443614 -0.009643 0.000006 -0.000004 -0.000001 0.000796
3 12.111417 -0.011446 -0.000000 0.000000 -0.000000 -0.000000
4 0.000009 0.011451 -1.352403 -0.000014 1.370796 3.140783
5 6.078086 0.000001 0.000002 0.701530 -0.705629 -0.666962
6 13.446753 -0.000001 0.000001 -0.000000 -0.000000 -1.055165
7 15.997001 -0.000002 0.000002 1.679425 -0.030048 0.267093
8 1.885326 0.833276 2.177872 1.120510 -0.553777 0.784980
9 1.506962 -0.000001 0.000000 -0.000000 0.000000 -0.872643
10 0.798345 0.000001 -0.000002 -0.000000 0.000000 -0.453772
11 3.950304 -0.539878 2.108871 -0.054059 -0.007920 0.354150
12 1.545802 0.000004 -0.000003 0.000000 0.000000 0.837739
13 1.667395 0.000002 0.000001 0.000000 0.000000 1.396232
14 3.899460 -0.475378 1.170887 0.000760 0.052085 0.340374
15 1.528217 0.000001 0.000001 0.000000 -0.000000 0.741744
16 1.528216 -0.000001 0.000000 0.000000 -0.000000 1.466066
17 3.899459 -0.431806 -0.168226 0.000796 -0.043756 0.165771
18 1.506964 0.000002 -0.000002 0.000000 -0.000000 1.064639
19 1.506961 0.000002 -0.000001 0.000000 -0.000000 1.282779
20 3.915633 -0.278021 -1.402610 0.070618 -0.183256 -0.000144
21 1.333081 0.000000 -0.000001 0.000000 -0.000000 1.178087
22 1.159204 -0.000001 -0.000001 0.000000 -0.000000 0.977371
23 4.305006 0.932601 1.268975 0.018585 0.011445 1.586448
24 0.000001 -0.000002 4.465613 -0.000001 -0.000000 0.000000
25 -0.009319 -0.020458 19.838097 -0.000000 -0.000000 0.000000
time 27
0 0.135014 3.127681 -24.816700 0.000000 -0.000000 -1.570795
1 0.000000 0.000000 0.000000 0.000000 -1.570451 -1.570795
2 4.443614 -0.009643 0.000006 -0.000004 -0.000001 0.000796
3 12.111417 -0.011446 -0.000000 0.000000 -0.000000 -0.000000
4 0.000009 0.011451 -1.352403 -0.000014 1.370796 3.140783
5 6.078086 0.000001 0.000002 0.704976 -0.730814 -0.672560
6 13.446753 -0.000001 0.000001 -0.000000 -0.000000 -1.055165
7 15.997001 -0.000002 0.000002 1.678031 -0.034705 0.309670
8 1.885326 0.833276 2.177872 1.120510 -0.553777 0.784980
9 1.506962 -0.000001 0.000000 -0.000000 0.000000 -0.872643
10 0.798345 0.000001 -0.000002 -0.000000 0.000000 -0.453772
11 3.950304 -0.539878 2.108871 -0.054059 -0.007920 0.354150
12 1.545802 0.000004 -0.000003 0.000000 0.000000 0.837739
13 1.667395 0.000002 0.000001 0.000000 0.000000 1.396232
14 3.899460 -0.475378 1.170887 0.000760 0.052085 0.340374
15 1.528217 0.000001 0.000001 0.000000 -0.000000 0.741744
16 1.528216 -0.000001 0.000000 0.000000 -0.000000 1.466066
17 3.899459 -0.431806 -0.168226 0.000796 -0.043756 0.165771
18 1.506964 0.000002 -0.000002 0.000000 -0.000000 1.064639
19 1.506961 0.000002 -0.000001 0.000000 -0.000000 1.282779
20 3.915633 -0.278021 -1.402610 0.070618 -0.183256 -0.000144
21 1.333081 0.000000 -0.000001 0.000000 -0.000000 1.178087
22 1.159204 -0.000001 -0.000001 0.000000 -0.000000 0.977371
23 4.305006 0.932601 1.268975 0.018585 0.011445 1.586448
24 0.000001 -0.000002 4.465613 -0.000001 -0.000000 0.000000
25 -0.009319 -0.020458 19.838097 -0.000000 -0.000000 0.000000
time 28
0 0.135014 3.127681 -24.816700 0.000000 -0.000000 -1.570795
1 0.000000 0.000000 0.000000 0.000000 -1.570451 -1.570795
2 4.443614 -0.009643 0.000006 -0.000004 -0.000001 0.000796
3 12.111417 -0.011446 -0.000000 0.000000 -0.000000 -0.000000
4 0.000009 0.011451 -1.352403 -0.000014 1.370796 3.140783
5 6.078086 0.000001 0.000002 0.711587 -0.749880 -0.682622
6 13.446753 -0.000001 0.000001 -0.000000 -0.000000 -1.055165
7 15.997001 -0.000002 0.000002 1.676664 -0.038715 0.346986
8 1.885326 0.833276 2.177872 1.120510 -0.553777 0.784980
9 1.506962 -0.000001 0.000000 -0.000000 0.000000 -0.872643
10 0.798345 0.000001 -0.000002 -0.000000 0.000000 -0.453772
11 3.950304 -0.539878 2.108871 -0.054059 -0.007920 0.354151
12 1.545802 0.000004 -0.000003 0.000000 0.000000 0.837739
13 1.667395 0.000002 0.000001 0.000000 0.000000 1.396232
14 3.899460 -0.475378 1.170887 0.000760 0.052085 0.340374
15 1.528217 0.000001 0.000001 0.000000 -0.000000 0.741744
16 1.528216 -0.000001 0.000000 0.000000 -0.000000 1.466066
17 3.899459 -0.431806 -0.168226 0.000796 -0.043756 0.165771
18 1.506964 0.000002 -0.000002 0.000000 -0.000000 1.064639
19 1.506961 0.000002 -0.000001 0.000000 -0.000000 1.282779
20 3.915633 -0.278021 -1.402610 0.070618 -0.183256 -0.000144
21 1.333081 0.000000 -0.000001 0.000000 -0.000000 1.178087
22 1.159204 -0.000001 -0.000001 0.000000 -0.000000 0.977371
23 4.305006 0.932601 1.268975 0.018585 0.011445 1.586448
24 0.000001 -0.000002 4.465613 -0.000001 -0.000000 0.000000
25 -0.009319 -0.020458 19.838097 -0.000000 -0.000000 0.000000
end
