// Created by Crowbar 0.68
version 1
nodes
  0 "static_prop" -1
end
skeleton
  time 0
    0 0.000000 0.000000 0.000000 0.000000 0.000000 0.000000
end
triangles
barrelbottom04a
  0 0.000001 -15.194000 0.311200 0.000000 0.000000 -1.000000 0.500000 0.000500 1 0 1.000000
  0 10.743800 -10.743800 0.311200 0.000000 0.000000 -1.000000 0.853200 0.146800 1 0 1.000000
  0 5.814500 -14.037400 0.311200 0.000000 0.000000 -1.000000 0.691200 0.038500 1 0 1.000000
barrelbottom04a
  0 0.000001 -15.194000 0.311200 0.000000 0.000000 -1.000000 0.500000 0.000500 1 0 1.000000
  0 14.037400 -5.814499 0.311200 0.000000 0.000000 -1.000000 0.961500 0.308800 1 0 1.000000
  0 10.743800 -10.743800 0.311200 0.000000 0.000000 -1.000000 0.853200 0.146800 1 0 1.000000
barrelbottom04a
  0 0.000001 -15.194000 0.311200 0.000000 0.000000 -1.000000 0.500000 0.000500 1 0 1.000000
  0 15.194000 0.000001 0.311200 0.000000 0.000000 -1.000000 0.999500 0.500000 1 0 1.000000
  0 14.037400 -5.814499 0.311200 0.000000 0.000000 -1.000000 0.961500 0.308800 1 0 1.000000
barrelbottom04a
  0 0.000001 -15.194000 0.311200 0.000000 0.000000 -1.000000 0.500000 0.000500 1 0 1.000000
  0 14.037400 5.814500 0.311200 0.000000 0.000000 -1.000000 0.961500 0.691200 1 0 1.000000
  0 15.194000 0.000001 0.311200 0.000000 0.000000 -1.000000 0.999500 0.500000 1 0 1.000000
barrelbottom04a
  0 0.000001 -15.194000 0.311200 0.000000 0.000000 -1.000000 0.500000 0.000500 1 0 1.000000
  0 10.743800 10.743800 0.311200 0.000000 0.000000 -1.000000 0.853200 0.853200 1 0 1.000000
  0 14.037400 5.814500 0.311200 0.000000 0.000000 -1.000000 0.961500 0.691200 1 0 1.000000
barrelbottom04a
  0 0.000001 -15.194000 0.311200 0.000000 0.000000 -1.000000 0.500000 0.000500 1 0 1.000000
  0 5.814499 14.037400 0.311200 0.000000 0.000000 -1.000000 0.691200 0.961500 1 0 1.000000
  0 10.743800 10.743800 0.311200 0.000000 0.000000 -1.000000 0.853200 0.853200 1 0 1.000000
barrelbottom04a
  0 0.000001 -15.194000 0.311200 0.000000 0.000000 -1.000000 0.500000 0.000500 1 0 1.000000
  0 -0.000001 15.194000 0.311200 0.000000 0.000000 -1.000000 0.500000 0.999500 1 0 1.000000
  0 5.814499 14.037400 0.311200 0.000000 0.000000 -1.000000 0.691200 0.961500 1 0 1.000000
barrelbottom04a
  0 0.000001 -15.194000 0.311200 0.000000 0.000000 -1.000000 0.500000 0.000500 1 0 1.000000
  0 -5.814500 14.037400 0.311200 0.000000 0.000000 -1.000000 0.308800 0.961500 1 0 1.000000
  0 -0.000001 15.194000 0.311200 0.000000 0.000000 -1.000000 0.500000 0.999500 1 0 1.000000
barrelbottom04a
  0 0.000001 -15.194000 0.311200 0.000000 0.000000 -1.000000 0.500000 0.000500 1 0 1.000000
  0 -10.743800 10.743800 0.311200 0.000000 0.000000 -1.000000 0.146800 0.853200 1 0 1.000000
  0 -5.814500 14.037400 0.311200 0.000000 0.000000 -1.000000 0.308800 0.961500 1 0 1.000000
barrelbottom04a
  0 0.000001 -15.194000 0.311200 0.000000 0.000000 -1.000000 0.500000 0.000500 1 0 1.000000
  0 -14.037400 5.814499 0.311200 0.000000 0.000000 -1.000000 0.038500 0.691200 1 0 1.000000
  0 -10.743800 10.743800 0.311200 0.000000 0.000000 -1.000000 0.146800 0.853200 1 0 1.000000
barrelbottom04a
  0 0.000001 -15.194000 0.311200 0.000000 0.000000 -1.000000 0.500000 0.000500 1 0 1.000000
  0 -15.194000 -0.000001 0.311200 0.000000 0.000000 -1.000000 0.000500 0.500000 1 0 1.000000
  0 -14.037400 5.814499 0.311200 0.000000 0.000000 -1.000000 0.038500 0.691200 1 0 1.000000
barrelbottom04a
  0 0.000001 -15.194000 0.311200 0.000000 0.000000 -1.000000 0.500000 0.000500 1 0 1.000000
  0 -14.037400 -5.814500 0.311200 0.000000 0.000000 -1.000000 0.038500 0.308800 1 0 1.000000
  0 -15.194000 -0.000001 0.311200 0.000000 0.000000 -1.000000 0.000500 0.500000 1 0 1.000000
barrelbottom04a
  0 0.000001 -15.194000 0.311200 0.000000 0.000000 -1.000000 0.500000 0.000500 1 0 1.000000
  0 -10.743800 -10.743800 0.311200 0.000000 0.000000 -1.000000 0.146800 0.146800 1 0 1.000000
  0 -14.037400 -5.814500 0.311200 0.000000 0.000000 -1.000000 0.038500 0.308800 1 0 1.000000
barrelbottom04a
  0 0.000001 -15.194000 0.311200 0.000000 0.000000 -1.000000 0.500000 0.000500 1 0 1.000000
  0 -5.814499 -14.037400 0.311200 0.000000 0.000000 -1.000000 0.308800 0.038500 1 0 1.000000
  0 -10.743800 -10.743800 0.311200 0.000000 0.000000 -1.000000 0.146800 0.146800 1 0 1.000000
barrelside04a
  0 5.814500 -14.037400 35.993500 0.443009 -0.896517 0.000000 0.562500 0.741100 1 0 1.000000
  0 10.743800 -10.743800 48.444401 0.658809 -0.752310 0.000000 0.625000 0.999500 1 0 1.000000
  0 5.814500 -14.037400 48.444401 0.320694 -0.947183 0.000000 0.562500 0.999500 1 0 1.000000
barrelside04a
  0 5.814500 -14.037400 35.993500 0.443009 -0.896517 0.000000 0.562500 0.741100 1 0 1.000000
  0 10.743800 -10.743800 35.993500 0.752310 -0.658809 0.000000 0.625000 0.741100 1 0 1.000000
  0 10.743800 -10.743800 48.444401 0.658809 -0.752310 0.000000 0.625000 0.999500 1 0 1.000000
barrelside04a
  0 10.743800 -10.743800 35.993500 0.752310 -0.658809 0.000000 0.625000 0.741100 1 0 1.000000
  0 14.037400 -5.814499 48.444401 0.896517 -0.443009 0.000000 0.687500 0.999500 1 0 1.000000
  0 10.743800 -10.743800 48.444401 0.658809 -0.752310 0.000000 0.625000 0.999500 1 0 1.000000
barrelside04a
  0 10.743800 -10.743800 35.993500 0.752310 -0.658809 0.000000 0.625000 0.741100 1 0 1.000000
  0 14.037400 -5.814499 35.993500 0.947183 -0.320694 0.000000 0.687500 0.741100 1 0 1.000000
  0 14.037400 -5.814499 48.444401 0.896517 -0.443009 0.000000 0.687500 0.999500 1 0 1.000000
barrelside04a
  0 14.037400 -5.814499 35.993500 0.947183 -0.320694 0.000000 0.687500 0.741100 1 0 1.000000
  0 15.194000 0.000001 48.444401 0.997806 -0.066200 0.000000 0.750000 0.999500 1 0 1.000000
  0 14.037400 -5.814499 48.444401 0.896517 -0.443009 0.000000 0.687500 0.999500 1 0 1.000000
barrelside04a
  0 14.037400 -5.814499 35.993500 0.947183 -0.320694 0.000000 0.687500 0.741100 1 0 1.000000
  0 15.194000 0.000001 35.993500 0.997806 0.066200 0.000000 0.750000 0.741100 1 0 1.000000
  0 15.194000 0.000001 48.444401 0.997806 -0.066200 0.000000 0.750000 0.999500 1 0 1.000000
barrelside04a
  0 15.194000 0.000001 35.993500 0.997806 0.066200 0.000000 0.750000 0.741100 1 0 1.000000
  0 14.037400 5.814500 48.444401 0.947183 0.320694 0.000000 0.812500 0.999500 1 0 1.000000
  0 15.194000 0.000001 48.444401 0.997806 -0.066200 0.000000 0.750000 0.999500 1 0 1.000000
barrelside04a
  0 15.194000 0.000001 35.993500 0.997806 0.066200 0.000000 0.750000 0.741100 1 0 1.000000
  0 14.037400 5.814500 35.993500 0.896517 0.443009 0.000000 0.812500 0.741100 1 0 1.000000
  0 14.037400 5.814500 48.444401 0.947183 0.320694 0.000000 0.812500 0.999500 1 0 1.000000
barrelside04a
  0 14.037400 5.814500 35.993500 0.896517 0.443009 0.000000 0.812500 0.741100 1 0 1.000000
  0 10.743800 10.743800 48.444401 0.752310 0.658809 0.000000 0.875000 0.999500 1 0 1.000000
  0 14.037400 5.814500 48.444401 0.947183 0.320694 0.000000 0.812500 0.999500 1 0 1.000000
barrelside04a
  0 14.037400 5.814500 35.993500 0.896517 0.443009 0.000000 0.812500 0.741100 1 0 1.000000
  0 10.743800 10.743800 35.993500 0.658809 0.752310 0.000000 0.875000 0.741100 1 0 1.000000
  0 10.743800 10.743800 48.444401 0.752310 0.658809 0.000000 0.875000 0.999500 1 0 1.000000
barrelside04a
  0 10.743800 10.743800 35.993500 0.658809 0.752310 0.000000 0.875000 0.741100 1 0 1.000000
  0 5.814499 14.037400 48.444401 0.443009 0.896517 0.000000 0.937500 0.999500 1 0 1.000000
  0 10.743800 10.743800 48.444401 0.752310 0.658809 0.000000 0.875000 0.999500 1 0 1.000000
barrelside04a
  0 10.743800 10.743800 35.993500 0.658809 0.752310 0.000000 0.875000 0.741100 1 0 1.000000
  0 5.814499 14.037400 35.993500 0.320694 0.947183 0.000000 0.937500 0.741100 1 0 1.000000
  0 5.814499 14.037400 48.444401 0.443009 0.896517 0.000000 0.937500 0.999500 1 0 1.000000
barrelside04a
  0 5.814499 14.037400 35.993500 0.320694 0.947183 0.000000 0.937500 0.741100 1 0 1.000000
  0 -0.000001 15.194000 48.444401 0.066200 0.997806 0.000000 1.000000 0.999500 1 0 1.000000
  0 5.814499 14.037400 48.444401 0.443009 0.896517 0.000000 0.937500 0.999500 1 0 1.000000
barrelside04a
  0 5.814499 14.037400 35.993500 0.320694 0.947183 0.000000 0.937500 0.741100 1 0 1.000000
  0 -0.000001 15.194000 35.993500 -0.066200 0.997806 0.000000 1.000000 0.741100 1 0 1.000000
  0 -0.000001 15.194000 48.444401 0.066200 0.997806 0.000000 1.000000 0.999500 1 0 1.000000
barrelside04a
  0 -0.000001 15.194000 35.993500 -0.066200 0.997806 0.000000 0.000000 0.741100 1 0 1.000000
  0 -5.814500 14.037400 48.444401 -0.320694 0.947183 0.000000 0.062500 0.999500 1 0 1.000000
  0 -0.000001 15.194000 48.444401 0.066200 0.997806 0.000000 0.000000 0.999500 1 0 1.000000
barrelside04a
  0 -0.000001 15.194000 35.993500 -0.066200 0.997806 0.000000 0.000000 0.741100 1 0 1.000000
  0 -5.814500 14.037400 35.993500 -0.443009 0.896517 0.000000 0.062500 0.741100 1 0 1.000000
  0 -5.814500 14.037400 48.444401 -0.320694 0.947183 0.000000 0.062500 0.999500 1 0 1.000000
barrelside04a
  0 -5.814500 14.037400 35.993500 -0.443009 0.896517 0.000000 0.062500 0.741100 1 0 1.000000
  0 -10.743800 10.743800 48.444401 -0.658809 0.752310 0.000000 0.125000 0.999500 1 0 1.000000
  0 -5.814500 14.037400 48.444401 -0.320694 0.947183 0.000000 0.062500 0.999500 1 0 1.000000
barrelside04a
  0 -5.814500 14.037400 35.993500 -0.443009 0.896517 0.000000 0.062500 0.741100 1 0 1.000000
  0 -10.743800 10.743800 35.993500 -0.752310 0.658809 0.000000 0.125000 0.741100 1 0 1.000000
  0 -10.743800 10.743800 48.444401 -0.658809 0.752310 0.000000 0.125000 0.999500 1 0 1.000000
barrelside04a
  0 -10.743800 10.743800 35.993500 -0.752310 0.658809 0.000000 0.125000 0.741100 1 0 1.000000
  0 -14.037400 5.814499 48.444401 -0.896517 0.443009 0.000000 0.187500 0.999500 1 0 1.000000
  0 -10.743800 10.743800 48.444401 -0.658809 0.752310 0.000000 0.125000 0.999500 1 0 1.000000
barrelside04a
  0 -10.743800 10.743800 35.993500 -0.752310 0.658809 0.000000 0.125000 0.741100 1 0 1.000000
  0 -14.037400 5.814499 35.993500 -0.947183 0.320694 0.000000 0.187500 0.741100 1 0 1.000000
  0 -14.037400 5.814499 48.444401 -0.896517 0.443009 0.000000 0.187500 0.999500 1 0 1.000000
barrelside04a
  0 -14.037400 5.814499 35.993500 -0.947183 0.320694 0.000000 0.187500 0.741100 1 0 1.000000
  0 -15.194000 -0.000001 48.444401 -0.997806 0.066200 0.000000 0.250000 0.999500 1 0 1.000000
  0 -14.037400 5.814499 48.444401 -0.896517 0.443009 0.000000 0.187500 0.999500 1 0 1.000000
barrelside04a
  0 -14.037400 5.814499 35.993500 -0.947183 0.320694 0.000000 0.187500 0.741100 1 0 1.000000
  0 -15.194000 -0.000001 35.993500 -0.997806 -0.066200 0.000000 0.250000 0.741100 1 0 1.000000
  0 -15.194000 -0.000001 48.444401 -0.997806 0.066200 0.000000 0.250000 0.999500 1 0 1.000000
barrelside04a
  0 -15.194000 -0.000001 35.993500 -0.997806 -0.066200 0.000000 0.250000 0.741100 1 0 1.000000
  0 -14.037400 -5.814500 48.444401 -0.947183 -0.320694 0.000000 0.312500 0.999500 1 0 1.000000
  0 -15.194000 -0.000001 48.444401 -0.997806 0.066200 0.000000 0.250000 0.999500 1 0 1.000000
barrelside04a
  0 -15.194000 -0.000001 35.993500 -0.997806 -0.066200 0.000000 0.250000 0.741100 1 0 1.000000
  0 -14.037400 -5.814500 35.993500 -0.896517 -0.443009 0.000000 0.312500 0.741100 1 0 1.000000
  0 -14.037400 -5.814500 48.444401 -0.947183 -0.320694 0.000000 0.312500 0.999500 1 0 1.000000
barrelside04a
  0 -14.037400 -5.814500 35.993500 -0.896517 -0.443009 0.000000 0.312500 0.741100 1 0 1.000000
  0 -10.743800 -10.743800 48.444401 -0.752310 -0.658809 0.000000 0.375000 0.999500 1 0 1.000000
  0 -14.037400 -5.814500 48.444401 -0.947183 -0.320694 0.000000 0.312500 0.999500 1 0 1.000000
barrelside04a
  0 -14.037400 -5.814500 35.993500 -0.896517 -0.443009 0.000000 0.312500 0.741100 1 0 1.000000
  0 -10.743800 -10.743800 35.993500 -0.658809 -0.752310 0.000000 0.375000 0.741100 1 0 1.000000
  0 -10.743800 -10.743800 48.444401 -0.752310 -0.658809 0.000000 0.375000 0.999500 1 0 1.000000
barrelside04a
  0 -10.743800 -10.743800 35.993500 -0.658809 -0.752310 0.000000 0.375000 0.741100 1 0 1.000000
  0 -5.814499 -14.037400 48.444401 -0.443009 -0.896517 0.000000 0.437500 0.999500 1 0 1.000000
  0 -10.743800 -10.743800 48.444401 -0.752310 -0.658809 0.000000 0.375000 0.999500 1 0 1.000000
barrelside04a
  0 -10.743800 -10.743800 35.993500 -0.658809 -0.752310 0.000000 0.375000 0.741100 1 0 1.000000
  0 -5.814499 -14.037400 35.993500 -0.320694 -0.947183 0.000000 0.437500 0.741100 1 0 1.000000
  0 -5.814499 -14.037400 48.444401 -0.443009 -0.896517 0.000000 0.437500 0.999500 1 0 1.000000
barrelside04a
  0 -5.814499 -14.037400 35.993500 -0.320694 -0.947183 0.000000 0.437500 0.741100 1 0 1.000000
  0 0.000001 -15.194000 48.444401 -0.066200 -0.997806 0.000000 0.500000 0.999500 1 0 1.000000
  0 -5.814499 -14.037400 48.444401 -0.443009 -0.896517 0.000000 0.437500 0.999500 1 0 1.000000
barrelside04a
  0 -5.814499 -14.037400 35.993500 -0.320694 -0.947183 0.000000 0.437500 0.741100 1 0 1.000000
  0 0.000001 -15.194000 35.993500 0.066200 -0.997806 0.000000 0.500000 0.741100 1 0 1.000000
  0 0.000001 -15.194000 48.444401 -0.066200 -0.997806 0.000000 0.500000 0.999500 1 0 1.000000
barrelside04a
  0 0.000001 -15.194000 35.993500 0.066200 -0.997806 0.000000 0.500000 0.741100 1 0 1.000000
  0 5.814500 -14.037400 48.444401 0.320694 -0.947183 0.000000 0.562500 0.999500 1 0 1.000000
  0 0.000001 -15.194000 48.444401 -0.066200 -0.997806 0.000000 0.500000 0.999500 1 0 1.000000
barrelside04a
  0 0.000001 -15.194000 35.993500 0.066200 -0.997806 0.000000 0.500000 0.741100 1 0 1.000000
  0 5.814500 -14.037400 35.993500 0.443009 -0.896517 0.000000 0.562500 0.741100 1 0 1.000000
  0 5.814500 -14.037400 48.444401 0.320694 -0.947183 0.000000 0.562500 0.999500 1 0 1.000000
barrelside04a
  0 -0.000001 15.194000 0.311200 -0.066200 0.997806 0.000000 0.000000 0.000500 1 0 1.000000
  0 -5.814500 14.037400 12.894500 -0.320694 0.947183 0.000000 0.062500 0.261700 1 0 1.000000
  0 -0.000001 15.194000 12.894500 0.066200 0.997806 0.000000 0.000000 0.261700 1 0 1.000000
barrelside04a
  0 -0.000001 15.194000 0.311200 -0.066200 0.997806 0.000000 0.000000 0.000500 1 0 1.000000
  0 -5.814500 14.037400 0.311200 -0.443009 0.896517 0.000000 0.062500 0.000500 1 0 1.000000
  0 -5.814500 14.037400 12.894500 -0.320694 0.947183 0.000000 0.062500 0.261700 1 0 1.000000
barrelside04a
  0 -5.814500 14.037400 0.311200 -0.443009 0.896517 0.000000 0.062500 0.000500 1 0 1.000000
  0 -10.743800 10.743800 12.894500 -0.658809 0.752310 0.000000 0.125000 0.261700 1 0 1.000000
  0 -5.814500 14.037400 12.894500 -0.320694 0.947183 0.000000 0.062500 0.261700 1 0 1.000000
barrelside04a
  0 -5.814500 14.037400 0.311200 -0.443009 0.896517 0.000000 0.062500 0.000500 1 0 1.000000
  0 -10.743800 10.743800 0.311200 -0.752310 0.658809 0.000000 0.125000 0.000500 1 0 1.000000
  0 -10.743800 10.743800 12.894500 -0.658809 0.752310 0.000000 0.125000 0.261700 1 0 1.000000
barrelside04a
  0 -10.743800 10.743800 0.311200 -0.752310 0.658809 0.000000 0.125000 0.000500 1 0 1.000000
  0 -14.037400 5.814499 12.894500 -0.896517 0.443009 0.000000 0.187500 0.261700 1 0 1.000000
  0 -10.743800 10.743800 12.894500 -0.658809 0.752310 0.000000 0.125000 0.261700 1 0 1.000000
barrelside04a
  0 -10.743800 10.743800 0.311200 -0.752310 0.658809 0.000000 0.125000 0.000500 1 0 1.000000
  0 -14.037400 5.814499 0.311200 -0.947183 0.320694 0.000000 0.187500 0.000500 1 0 1.000000
  0 -14.037400 5.814499 12.894500 -0.896517 0.443009 0.000000 0.187500 0.261700 1 0 1.000000
barrelside04a
  0 -14.037400 5.814499 0.311200 -0.947183 0.320694 0.000000 0.187500 0.000500 1 0 1.000000
  0 -15.194000 -0.000001 12.894500 -0.997806 0.066200 0.000000 0.250000 0.261700 1 0 1.000000
  0 -14.037400 5.814499 12.894500 -0.896517 0.443009 0.000000 0.187500 0.261700 1 0 1.000000
barrelside04a
  0 -14.037400 5.814499 0.311200 -0.947183 0.320694 0.000000 0.187500 0.000500 1 0 1.000000
  0 -15.194000 -0.000001 0.311200 -0.997806 -0.066200 0.000000 0.250000 0.000500 1 0 1.000000
  0 -15.194000 -0.000001 12.894500 -0.997806 0.066200 0.000000 0.250000 0.261700 1 0 1.000000
barrelside04a
  0 -15.194000 -0.000001 0.311200 -0.997806 -0.066200 0.000000 0.250000 0.000500 1 0 1.000000
  0 -14.037400 -5.814500 12.894500 -0.947183 -0.320694 0.000000 0.312500 0.261700 1 0 1.000000
  0 -15.194000 -0.000001 12.894500 -0.997806 0.066200 0.000000 0.250000 0.261700 1 0 1.000000
barrelside04a
  0 -15.194000 -0.000001 0.311200 -0.997806 -0.066200 0.000000 0.250000 0.000500 1 0 1.000000
  0 -14.037400 -5.814500 0.311200 -0.896517 -0.443009 0.000000 0.312500 0.000500 1 0 1.000000
  0 -14.037400 -5.814500 12.894500 -0.947183 -0.320694 0.000000 0.312500 0.261700 1 0 1.000000
barrelside04a
  0 -14.037400 -5.814500 0.311200 -0.896517 -0.443009 0.000000 0.312500 0.000500 1 0 1.000000
  0 -10.743800 -10.743800 12.894500 -0.752310 -0.658809 0.000000 0.375000 0.261700 1 0 1.000000
  0 -14.037400 -5.814500 12.894500 -0.947183 -0.320694 0.000000 0.312500 0.261700 1 0 1.000000
barrelside04a
  0 -14.037400 -5.814500 0.311200 -0.896517 -0.443009 0.000000 0.312500 0.000500 1 0 1.000000
  0 -10.743800 -10.743800 0.311200 -0.658809 -0.752310 0.000000 0.375000 0.000500 1 0 1.000000
  0 -10.743800 -10.743800 12.894500 -0.752310 -0.658809 0.000000 0.375000 0.261700 1 0 1.000000
barrelside04a
  0 -10.743800 -10.743800 0.311200 -0.658809 -0.752310 0.000000 0.375000 0.000500 1 0 1.000000
  0 -5.814499 -14.037400 12.894500 -0.443009 -0.896517 0.000000 0.437500 0.261700 1 0 1.000000
  0 -10.743800 -10.743800 12.894500 -0.752310 -0.658809 0.000000 0.375000 0.261700 1 0 1.000000
barrelside04a
  0 -10.743800 -10.743800 0.311200 -0.658809 -0.752310 0.000000 0.375000 0.000500 1 0 1.000000
  0 -5.814499 -14.037400 0.311200 -0.320694 -0.947183 0.000000 0.437500 0.000500 1 0 1.000000
  0 -5.814499 -14.037400 12.894500 -0.443009 -0.896517 0.000000 0.437500 0.261700 1 0 1.000000
barrelside04a
  0 -5.814499 -14.037400 0.311200 -0.320694 -0.947183 0.000000 0.437500 0.000500 1 0 1.000000
  0 0.000001 -15.194000 12.894500 -0.066200 -0.997806 0.000000 0.500000 0.261700 1 0 1.000000
  0 -5.814499 -14.037400 12.894500 -0.443009 -0.896517 0.000000 0.437500 0.261700 1 0 1.000000
barrelside04a
  0 -5.814499 -14.037400 0.311200 -0.320694 -0.947183 0.000000 0.437500 0.000500 1 0 1.000000
  0 0.000001 -15.194000 0.311200 0.066200 -0.997806 0.000000 0.500000 0.000500 1 0 1.000000
  0 0.000001 -15.194000 12.894500 -0.066200 -0.997806 0.000000 0.500000 0.261700 1 0 1.000000
barrelside04a
  0 0.000001 -15.194000 0.311200 0.066200 -0.997806 0.000000 0.500000 0.000500 1 0 1.000000
  0 5.814500 -14.037400 12.894500 0.320694 -0.947183 0.000000 0.562500 0.261700 1 0 1.000000
  0 0.000001 -15.194000 12.894500 -0.066200 -0.997806 0.000000 0.500000 0.261700 1 0 1.000000
barrelside04a
  0 0.000001 -15.194000 0.311200 0.066200 -0.997806 0.000000 0.500000 0.000500 1 0 1.000000
  0 5.814500 -14.037400 0.311200 0.443009 -0.896517 0.000000 0.562500 0.000500 1 0 1.000000
  0 5.814500 -14.037400 12.894500 0.320694 -0.947183 0.000000 0.562500 0.261700 1 0 1.000000
barrelside04a
  0 5.814500 -14.037400 0.311200 0.443009 -0.896517 0.000000 0.562500 0.000500 1 0 1.000000
  0 10.743800 -10.743800 12.894500 0.658809 -0.752310 0.000000 0.625000 0.261700 1 0 1.000000
  0 5.814500 -14.037400 12.894500 0.320694 -0.947183 0.000000 0.562500 0.261700 1 0 1.000000
barrelside04a
  0 5.814500 -14.037400 0.311200 0.443009 -0.896517 0.000000 0.562500 0.000500 1 0 1.000000
  0 10.743800 -10.743800 0.311200 0.752310 -0.658809 0.000000 0.625000 0.000500 1 0 1.000000
  0 10.743800 -10.743800 12.894500 0.658809 -0.752310 0.000000 0.625000 0.261700 1 0 1.000000
barrelside04a
  0 10.743800 -10.743800 0.311200 0.752310 -0.658809 0.000000 0.625000 0.000500 1 0 1.000000
  0 14.037400 -5.814499 12.894500 0.896517 -0.443009 0.000000 0.687500 0.261700 1 0 1.000000
  0 10.743800 -10.743800 12.894500 0.658809 -0.752310 0.000000 0.625000 0.261700 1 0 1.000000
barrelside04a
  0 10.743800 -10.743800 0.311200 0.752310 -0.658809 0.000000 0.625000 0.000500 1 0 1.000000
  0 14.037400 -5.814499 0.311200 0.947183 -0.320694 0.000000 0.687500 0.000500 1 0 1.000000
  0 14.037400 -5.814499 12.894500 0.896517 -0.443009 0.000000 0.687500 0.261700 1 0 1.000000
barrelside04a
  0 14.037400 -5.814499 0.311200 0.947183 -0.320694 0.000000 0.687500 0.000500 1 0 1.000000
  0 15.194000 0.000001 12.894500 0.997806 -0.066200 0.000000 0.750000 0.261700 1 0 1.000000
  0 14.037400 -5.814499 12.894500 0.896517 -0.443009 0.000000 0.687500 0.261700 1 0 1.000000
barrelside04a
  0 14.037400 -5.814499 0.311200 0.947183 -0.320694 0.000000 0.687500 0.000500 1 0 1.000000
  0 15.194000 0.000001 0.311200 0.997806 0.066200 0.000000 0.750000 0.000500 1 0 1.000000
  0 15.194000 0.000001 12.894500 0.997806 -0.066200 0.000000 0.750000 0.261700 1 0 1.000000
barrelside04a
  0 15.194000 0.000001 0.311200 0.997806 0.066200 0.000000 0.750000 0.000500 1 0 1.000000
  0 14.037400 5.814500 12.894500 0.947183 0.320694 0.000000 0.812500 0.261700 1 0 1.000000
  0 15.194000 0.000001 12.894500 0.997806 -0.066200 0.000000 0.750000 0.261700 1 0 1.000000
barrelside04a
  0 15.194000 0.000001 0.311200 0.997806 0.066200 0.000000 0.750000 0.000500 1 0 1.000000
  0 14.037400 5.814500 0.311200 0.896517 0.443009 0.000000 0.812500 0.000500 1 0 1.000000
  0 14.037400 5.814500 12.894500 0.947183 0.320694 0.000000 0.812500 0.261700 1 0 1.000000
barrelside04a
  0 14.037400 5.814500 0.311200 0.896517 0.443009 0.000000 0.812500 0.000500 1 0 1.000000
  0 10.743800 10.743800 12.894500 0.752310 0.658809 0.000000 0.875000 0.261700 1 0 1.000000
  0 14.037400 5.814500 12.894500 0.947183 0.320694 0.000000 0.812500 0.261700 1 0 1.000000
barrelside04a
  0 14.037400 5.814500 0.311200 0.896517 0.443009 0.000000 0.812500 0.000500 1 0 1.000000
  0 10.743800 10.743800 0.311200 0.658809 0.752310 0.000000 0.875000 0.000500 1 0 1.000000
  0 10.743800 10.743800 12.894500 0.752310 0.658809 0.000000 0.875000 0.261700 1 0 1.000000
barrelside04a
  0 10.743800 10.743800 0.311200 0.658809 0.752310 0.000000 0.875000 0.000500 1 0 1.000000
  0 5.814499 14.037400 12.894500 0.443009 0.896517 0.000000 0.937500 0.261700 1 0 1.000000
  0 10.743800 10.743800 12.894500 0.752310 0.658809 0.000000 0.875000 0.261700 1 0 1.000000
barrelside04a
  0 10.743800 10.743800 0.311200 0.658809 0.752310 0.000000 0.875000 0.000500 1 0 1.000000
  0 5.814499 14.037400 0.311200 0.320694 0.947183 0.000000 0.937500 0.000500 1 0 1.000000
  0 5.814499 14.037400 12.894500 0.443009 0.896517 0.000000 0.937500 0.261700 1 0 1.000000
barrelside04a
  0 5.814499 14.037400 0.311200 0.320694 0.947183 0.000000 0.937500 0.000500 1 0 1.000000
  0 -0.000001 15.194000 12.894500 0.066200 0.997806 0.000000 1.000000 0.261700 1 0 1.000000
  0 5.814499 14.037400 12.894500 0.443009 0.896517 0.000000 0.937500 0.261700 1 0 1.000000
barrelside04a
  0 5.814499 14.037400 0.311200 0.320694 0.947183 0.000000 0.937500 0.000500 1 0 1.000000
  0 -0.000001 15.194000 0.311200 -0.066200 0.997806 0.000000 1.000000 0.000500 1 0 1.000000
  0 -0.000001 15.194000 12.894500 0.066200 0.997806 0.000000 1.000000 0.261700 1 0 1.000000
barrelside04a
  0 -0.000001 15.194000 12.894500 -0.053398 0.805575 -0.590082 0.000000 0.261700 1 0 1.000000
  0 -6.117900 14.769800 13.976600 -0.258898 0.764695 -0.590096 0.062500 0.284100 1 0 1.000000
  0 -0.000001 15.986700 13.976600 0.053398 0.805575 -0.590082 0.000000 0.284100 1 0 1.000000
barrelside04a
  0 -0.000001 15.194000 12.894500 -0.053398 0.805575 -0.590082 0.000000 0.261700 1 0 1.000000
  0 -5.814500 14.037400 12.894500 -0.357603 0.723806 -0.590105 0.062500 0.261700 1 0 1.000000
  0 -6.117900 14.769800 13.976600 -0.258898 0.764695 -0.590096 0.062500 0.284100 1 0 1.000000
barrelside04a
  0 -5.814500 14.037400 12.894500 -0.357603 0.723806 -0.590105 0.062500 0.261700 1 0 1.000000
  0 -11.304301 11.304299 13.976600 -0.531810 0.607411 -0.590111 0.125000 0.284100 1 0 1.000000
  0 -6.117900 14.769800 13.976600 -0.258898 0.764695 -0.590096 0.062500 0.284100 1 0 1.000000
barrelside04a
  0 -5.814500 14.037400 12.894500 -0.357603 0.723806 -0.590105 0.062500 0.261700 1 0 1.000000
  0 -10.743800 10.743800 12.894500 -0.607411 0.531810 -0.590111 0.125000 0.261700 1 0 1.000000
  0 -11.304301 11.304299 13.976600 -0.531810 0.607411 -0.590111 0.125000 0.284100 1 0 1.000000
barrelside04a
  0 -10.743800 10.743800 12.894500 -0.607411 0.531810 -0.590111 0.125000 0.261700 1 0 1.000000
  0 -14.769800 6.117899 13.976600 -0.723806 0.357603 -0.590105 0.187500 0.284100 1 0 1.000000
  0 -11.304301 11.304299 13.976600 -0.531810 0.607411 -0.590111 0.125000 0.284100 1 0 1.000000
barrelside04a
  0 -10.743800 10.743800 12.894500 -0.607411 0.531810 -0.590111 0.125000 0.261700 1 0 1.000000
  0 -14.037400 5.814499 12.894500 -0.764695 0.258898 -0.590096 0.187500 0.261700 1 0 1.000000
  0 -14.769800 6.117899 13.976600 -0.723806 0.357603 -0.590105 0.187500 0.284100 1 0 1.000000
barrelside04a
  0 -14.037400 5.814499 12.894500 -0.764695 0.258898 -0.590096 0.187500 0.261700 1 0 1.000000
  0 -15.986700 -0.000001 13.976600 -0.805575 0.053398 -0.590082 0.250000 0.284100 1 0 1.000000
  0 -14.769800 6.117899 13.976600 -0.723806 0.357603 -0.590105 0.187500 0.284100 1 0 1.000000
barrelside04a
  0 -14.037400 5.814499 12.894500 -0.764695 0.258898 -0.590096 0.187500 0.261700 1 0 1.000000
  0 -15.194000 -0.000001 12.894500 -0.805575 -0.053398 -0.590082 0.250000 0.261700 1 0 1.000000
  0 -15.986700 -0.000001 13.976600 -0.805575 0.053398 -0.590082 0.250000 0.284100 1 0 1.000000
barrelside04a
  0 -15.194000 -0.000001 12.894500 -0.805575 -0.053398 -0.590082 0.250000 0.261700 1 0 1.000000
  0 -14.769800 -6.117900 13.976600 -0.764695 -0.258898 -0.590096 0.312500 0.284100 1 0 1.000000
  0 -15.986700 -0.000001 13.976600 -0.805575 0.053398 -0.590082 0.250000 0.284100 1 0 1.000000
barrelside04a
  0 -15.194000 -0.000001 12.894500 -0.805575 -0.053398 -0.590082 0.250000 0.261700 1 0 1.000000
  0 -14.037400 -5.814500 12.894500 -0.723806 -0.357603 -0.590105 0.312500 0.261700 1 0 1.000000
  0 -14.769800 -6.117900 13.976600 -0.764695 -0.258898 -0.590096 0.312500 0.284100 1 0 1.000000
barrelside04a
  0 -14.037400 -5.814500 12.894500 -0.723806 -0.357603 -0.590105 0.312500 0.261700 1 0 1.000000
  0 -11.304299 -11.304301 13.976600 -0.607411 -0.531810 -0.590111 0.375000 0.284100 1 0 1.000000
  0 -14.769800 -6.117900 13.976600 -0.764695 -0.258898 -0.590096 0.312500 0.284100 1 0 1.000000
barrelside04a
  0 -14.037400 -5.814500 12.894500 -0.723806 -0.357603 -0.590105 0.312500 0.261700 1 0 1.000000
  0 -10.743800 -10.743800 12.894500 -0.531810 -0.607411 -0.590111 0.375000 0.261700 1 0 1.000000
  0 -11.304299 -11.304301 13.976600 -0.607411 -0.531810 -0.590111 0.375000 0.284100 1 0 1.000000
barrelside04a
  0 -10.743800 -10.743800 12.894500 -0.531810 -0.607411 -0.590111 0.375000 0.261700 1 0 1.000000
  0 -6.117899 -14.769800 13.976600 -0.357603 -0.723806 -0.590105 0.437500 0.284100 1 0 1.000000
  0 -11.304299 -11.304301 13.976600 -0.607411 -0.531810 -0.590111 0.375000 0.284100 1 0 1.000000
barrelside04a
  0 -10.743800 -10.743800 12.894500 -0.531810 -0.607411 -0.590111 0.375000 0.261700 1 0 1.000000
  0 -5.814499 -14.037400 12.894500 -0.258898 -0.764695 -0.590096 0.437500 0.261700 1 0 1.000000
  0 -6.117899 -14.769800 13.976600 -0.357603 -0.723806 -0.590105 0.437500 0.284100 1 0 1.000000
barrelside04a
  0 -5.814499 -14.037400 12.894500 -0.258898 -0.764695 -0.590096 0.437500 0.261700 1 0 1.000000
  0 0.000001 -15.986700 13.976600 -0.053398 -0.805575 -0.590082 0.500000 0.284100 1 0 1.000000
  0 -6.117899 -14.769800 13.976600 -0.357603 -0.723806 -0.590105 0.437500 0.284100 1 0 1.000000
barrelside04a
  0 -5.814499 -14.037400 12.894500 -0.258898 -0.764695 -0.590096 0.437500 0.261700 1 0 1.000000
  0 0.000001 -15.194000 12.894500 0.053398 -0.805575 -0.590082 0.500000 0.261700 1 0 1.000000
  0 0.000001 -15.986700 13.976600 -0.053398 -0.805575 -0.590082 0.500000 0.284100 1 0 1.000000
barrelside04a
  0 0.000001 -15.194000 12.894500 0.053398 -0.805575 -0.590082 0.500000 0.261700 1 0 1.000000
  0 6.117900 -14.769800 13.976600 0.258898 -0.764695 -0.590096 0.562500 0.284100 1 0 1.000000
  0 0.000001 -15.986700 13.976600 -0.053398 -0.805575 -0.590082 0.500000 0.284100 1 0 1.000000
barrelside04a
  0 0.000001 -15.194000 12.894500 0.053398 -0.805575 -0.590082 0.500000 0.261700 1 0 1.000000
  0 5.814500 -14.037400 12.894500 0.357603 -0.723806 -0.590105 0.562500 0.261700 1 0 1.000000
  0 6.117900 -14.769800 13.976600 0.258898 -0.764695 -0.590096 0.562500 0.284100 1 0 1.000000
barrelside04a
  0 5.814500 -14.037400 12.894500 0.357603 -0.723806 -0.590105 0.562500 0.261700 1 0 1.000000
  0 11.304301 -11.304299 13.976600 0.531810 -0.607411 -0.590111 0.625000 0.284100 1 0 1.000000
  0 6.117900 -14.769800 13.976600 0.258898 -0.764695 -0.590096 0.562500 0.284100 1 0 1.000000
barrelside04a
  0 5.814500 -14.037400 12.894500 0.357603 -0.723806 -0.590105 0.562500 0.261700 1 0 1.000000
  0 10.743800 -10.743800 12.894500 0.607411 -0.531810 -0.590111 0.625000 0.261700 1 0 1.000000
  0 11.304301 -11.304299 13.976600 0.531810 -0.607411 -0.590111 0.625000 0.284100 1 0 1.000000
barrelside04a
  0 10.743800 -10.743800 12.894500 0.607411 -0.531810 -0.590111 0.625000 0.261700 1 0 1.000000
  0 14.769800 -6.117899 13.976600 0.723806 -0.357603 -0.590105 0.687500 0.284100 1 0 1.000000
  0 11.304301 -11.304299 13.976600 0.531810 -0.607411 -0.590111 0.625000 0.284100 1 0 1.000000
barrelside04a
  0 10.743800 -10.743800 12.894500 0.607411 -0.531810 -0.590111 0.625000 0.261700 1 0 1.000000
  0 14.037400 -5.814499 12.894500 0.764695 -0.258898 -0.590096 0.687500 0.261700 1 0 1.000000
  0 14.769800 -6.117899 13.976600 0.723806 -0.357603 -0.590105 0.687500 0.284100 1 0 1.000000
barrelside04a
  0 14.037400 -5.814499 12.894500 0.764695 -0.258898 -0.590096 0.687500 0.261700 1 0 1.000000
  0 15.986700 0.000001 13.976600 0.805575 -0.053398 -0.590082 0.750000 0.284100 1 0 1.000000
  0 14.769800 -6.117899 13.976600 0.723806 -0.357603 -0.590105 0.687500 0.284100 1 0 1.000000
barrelside04a
  0 14.037400 -5.814499 12.894500 0.764695 -0.258898 -0.590096 0.687500 0.261700 1 0 1.000000
  0 15.194000 0.000001 12.894500 0.805575 0.053398 -0.590082 0.750000 0.261700 1 0 1.000000
  0 15.986700 0.000001 13.976600 0.805575 -0.053398 -0.590082 0.750000 0.284100 1 0 1.000000
barrelside04a
  0 15.194000 0.000001 12.894500 0.805575 0.053398 -0.590082 0.750000 0.261700 1 0 1.000000
  0 14.769800 6.117900 13.976600 0.764695 0.258898 -0.590096 0.812500 0.284100 1 0 1.000000
  0 15.986700 0.000001 13.976600 0.805575 -0.053398 -0.590082 0.750000 0.284100 1 0 1.000000
barrelside04a
  0 15.194000 0.000001 12.894500 0.805575 0.053398 -0.590082 0.750000 0.261700 1 0 1.000000
  0 14.037400 5.814500 12.894500 0.723806 0.357603 -0.590105 0.812500 0.261700 1 0 1.000000
  0 14.769800 6.117900 13.976600 0.764695 0.258898 -0.590096 0.812500 0.284100 1 0 1.000000
barrelside04a
  0 14.037400 5.814500 12.894500 0.723806 0.357603 -0.590105 0.812500 0.261700 1 0 1.000000
  0 11.304299 11.304301 13.976600 0.607411 0.531810 -0.590111 0.875000 0.284100 1 0 1.000000
  0 14.769800 6.117900 13.976600 0.764695 0.258898 -0.590096 0.812500 0.284100 1 0 1.000000
barrelside04a
  0 14.037400 5.814500 12.894500 0.723806 0.357603 -0.590105 0.812500 0.261700 1 0 1.000000
  0 10.743800 10.743800 12.894500 0.531810 0.607411 -0.590111 0.875000 0.261700 1 0 1.000000
  0 11.304299 11.304301 13.976600 0.607411 0.531810 -0.590111 0.875000 0.284100 1 0 1.000000
barrelside04a
  0 10.743800 10.743800 12.894500 0.531810 0.607411 -0.590111 0.875000 0.261700 1 0 1.000000
  0 6.117899 14.769800 13.976600 0.357603 0.723806 -0.590105 0.937500 0.284100 1 0 1.000000
  0 11.304299 11.304301 13.976600 0.607411 0.531810 -0.590111 0.875000 0.284100 1 0 1.000000
barrelside04a
  0 10.743800 10.743800 12.894500 0.531810 0.607411 -0.590111 0.875000 0.261700 1 0 1.000000
  0 5.814499 14.037400 12.894500 0.258898 0.764695 -0.590096 0.937500 0.261700 1 0 1.000000
  0 6.117899 14.769800 13.976600 0.357603 0.723806 -0.590105 0.937500 0.284100 1 0 1.000000
barrelside04a
  0 5.814499 14.037400 12.894500 0.258898 0.764695 -0.590096 0.937500 0.261700 1 0 1.000000
  0 -0.000001 15.986700 13.976600 0.053398 0.805575 -0.590082 1.000000 0.284100 1 0 1.000000
  0 6.117899 14.769800 13.976600 0.357603 0.723806 -0.590105 0.937500 0.284100 1 0 1.000000
barrelside04a
  0 5.814499 14.037400 12.894500 0.258898 0.764695 -0.590096 0.937500 0.261700 1 0 1.000000
  0 -0.000001 15.194000 12.894500 -0.053398 0.805575 -0.590082 1.000000 0.261700 1 0 1.000000
  0 -0.000001 15.986700 13.976600 0.053398 0.805575 -0.590082 1.000000 0.284100 1 0 1.000000
barrelside04a
  0 -0.000001 15.986700 13.976600 -0.053401 0.805114 0.590711 0.000000 0.284100 1 0 1.000000
  0 -5.814500 14.037400 15.057200 -0.258792 0.764278 0.590683 0.062500 0.306600 1 0 1.000000
  0 -0.000001 15.194000 15.057200 0.053401 0.805114 0.590711 0.000000 0.306600 1 0 1.000000
barrelside04a
  0 -0.000001 15.986700 13.976600 -0.053401 0.805114 0.590711 0.000000 0.284100 1 0 1.000000
  0 -6.117900 14.769800 13.976600 -0.357406 0.723411 0.590709 0.062500 0.284100 1 0 1.000000
  0 -5.814500 14.037400 15.057200 -0.258792 0.764278 0.590683 0.062500 0.306600 1 0 1.000000
barrelside04a
  0 -6.117900 14.769800 13.976600 -0.357406 0.723411 0.590709 0.062500 0.284100 1 0 1.000000
  0 -10.743800 10.743800 15.057200 -0.531575 0.607071 0.590672 0.125000 0.306600 1 0 1.000000
  0 -5.814500 14.037400 15.057200 -0.258792 0.764278 0.590683 0.062500 0.306600 1 0 1.000000
barrelside04a
  0 -6.117900 14.769800 13.976600 -0.357406 0.723411 0.590709 0.062500 0.284100 1 0 1.000000
  0 -11.304301 11.304299 13.976600 -0.607071 0.531575 0.590672 0.125000 0.284100 1 0 1.000000
  0 -10.743800 10.743800 15.057200 -0.531575 0.607071 0.590672 0.125000 0.306600 1 0 1.000000
barrelside04a
  0 -11.304301 11.304299 13.976600 -0.607071 0.531575 0.590672 0.125000 0.284100 1 0 1.000000
  0 -14.037400 5.814499 15.057200 -0.723411 0.357406 0.590709 0.187500 0.306600 1 0 1.000000
  0 -10.743800 10.743800 15.057200 -0.531575 0.607071 0.590672 0.125000 0.306600 1 0 1.000000
barrelside04a
  0 -11.304301 11.304299 13.976600 -0.607071 0.531575 0.590672 0.125000 0.284100 1 0 1.000000
  0 -14.769800 6.117899 13.976600 -0.764278 0.258792 0.590683 0.187500 0.284100 1 0 1.000000
  0 -14.037400 5.814499 15.057200 -0.723411 0.357406 0.590709 0.187500 0.306600 1 0 1.000000
barrelside04a
  0 -14.769800 6.117899 13.976600 -0.764278 0.258792 0.590683 0.187500 0.284100 1 0 1.000000
  0 -15.194000 -0.000001 15.057200 -0.805114 0.053401 0.590711 0.250000 0.306600 1 0 1.000000
  0 -14.037400 5.814499 15.057200 -0.723411 0.357406 0.590709 0.187500 0.306600 1 0 1.000000
barrelside04a
  0 -14.769800 6.117899 13.976600 -0.764278 0.258792 0.590683 0.187500 0.284100 1 0 1.000000
  0 -15.986700 -0.000001 13.976600 -0.805114 -0.053401 0.590711 0.250000 0.284100 1 0 1.000000
  0 -15.194000 -0.000001 15.057200 -0.805114 0.053401 0.590711 0.250000 0.306600 1 0 1.000000
barrelside04a
  0 -15.986700 -0.000001 13.976600 -0.805114 -0.053401 0.590711 0.250000 0.284100 1 0 1.000000
  0 -14.037400 -5.814500 15.057200 -0.764278 -0.258792 0.590683 0.312500 0.306600 1 0 1.000000
  0 -15.194000 -0.000001 15.057200 -0.805114 0.053401 0.590711 0.250000 0.306600 1 0 1.000000
barrelside04a
  0 -15.986700 -0.000001 13.976600 -0.805114 -0.053401 0.590711 0.250000 0.284100 1 0 1.000000
  0 -14.769800 -6.117900 13.976600 -0.723411 -0.357406 0.590709 0.312500 0.284100 1 0 1.000000
  0 -14.037400 -5.814500 15.057200 -0.764278 -0.258792 0.590683 0.312500 0.306600 1 0 1.000000
barrelside04a
  0 -14.769800 -6.117900 13.976600 -0.723411 -0.357406 0.590709 0.312500 0.284100 1 0 1.000000
  0 -10.743800 -10.743800 15.057200 -0.607071 -0.531575 0.590672 0.375000 0.306600 1 0 1.000000
  0 -14.037400 -5.814500 15.057200 -0.764278 -0.258792 0.590683 0.312500 0.306600 1 0 1.000000
barrelside04a
  0 -14.769800 -6.117900 13.976600 -0.723411 -0.357406 0.590709 0.312500 0.284100 1 0 1.000000
  0 -11.304299 -11.304301 13.976600 -0.531575 -0.607071 0.590672 0.375000 0.284100 1 0 1.000000
  0 -10.743800 -10.743800 15.057200 -0.607071 -0.531575 0.590672 0.375000 0.306600 1 0 1.000000
barrelside04a
  0 -11.304299 -11.304301 13.976600 -0.531575 -0.607071 0.590672 0.375000 0.284100 1 0 1.000000
  0 -5.814499 -14.037400 15.057200 -0.357406 -0.723411 0.590709 0.437500 0.306600 1 0 1.000000
  0 -10.743800 -10.743800 15.057200 -0.607071 -0.531575 0.590672 0.375000 0.306600 1 0 1.000000
barrelside04a
  0 -11.304299 -11.304301 13.976600 -0.531575 -0.607071 0.590672 0.375000 0.284100 1 0 1.000000
  0 -6.117899 -14.769800 13.976600 -0.258792 -0.764278 0.590683 0.437500 0.284100 1 0 1.000000
  0 -5.814499 -14.037400 15.057200 -0.357406 -0.723411 0.590709 0.437500 0.306600 1 0 1.000000
barrelside04a
  0 -6.117899 -14.769800 13.976600 -0.258792 -0.764278 0.590683 0.437500 0.284100 1 0 1.000000
  0 0.000001 -15.194000 15.057200 -0.053401 -0.805114 0.590711 0.500000 0.306600 1 0 1.000000
  0 -5.814499 -14.037400 15.057200 -0.357406 -0.723411 0.590709 0.437500 0.306600 1 0 1.000000
barrelside04a
  0 -6.117899 -14.769800 13.976600 -0.258792 -0.764278 0.590683 0.437500 0.284100 1 0 1.000000
  0 0.000001 -15.986700 13.976600 0.053401 -0.805114 0.590711 0.500000 0.284100 1 0 1.000000
  0 0.000001 -15.194000 15.057200 -0.053401 -0.805114 0.590711 0.500000 0.306600 1 0 1.000000
barrelside04a
  0 0.000001 -15.986700 13.976600 0.053401 -0.805114 0.590711 0.500000 0.284100 1 0 1.000000
  0 5.814500 -14.037400 15.057200 0.258792 -0.764278 0.590683 0.562500 0.306600 1 0 1.000000
  0 0.000001 -15.194000 15.057200 -0.053401 -0.805114 0.590711 0.500000 0.306600 1 0 1.000000
barrelside04a
  0 0.000001 -15.986700 13.976600 0.053401 -0.805114 0.590711 0.500000 0.284100 1 0 1.000000
  0 6.117900 -14.769800 13.976600 0.357406 -0.723411 0.590709 0.562500 0.284100 1 0 1.000000
  0 5.814500 -14.037400 15.057200 0.258792 -0.764278 0.590683 0.562500 0.306600 1 0 1.000000
barrelside04a
  0 6.117900 -14.769800 13.976600 0.357406 -0.723411 0.590709 0.562500 0.284100 1 0 1.000000
  0 10.743800 -10.743800 15.057200 0.531575 -0.607071 0.590672 0.625000 0.306600 1 0 1.000000
  0 5.814500 -14.037400 15.057200 0.258792 -0.764278 0.590683 0.562500 0.306600 1 0 1.000000
barrelside04a
  0 6.117900 -14.769800 13.976600 0.357406 -0.723411 0.590709 0.562500 0.284100 1 0 1.000000
  0 11.304301 -11.304299 13.976600 0.607071 -0.531575 0.590672 0.625000 0.284100 1 0 1.000000
  0 10.743800 -10.743800 15.057200 0.531575 -0.607071 0.590672 0.625000 0.306600 1 0 1.000000
barrelside04a
  0 11.304301 -11.304299 13.976600 0.607071 -0.531575 0.590672 0.625000 0.284100 1 0 1.000000
  0 14.037400 -5.814499 15.057200 0.723411 -0.357406 0.590709 0.687500 0.306600 1 0 1.000000
  0 10.743800 -10.743800 15.057200 0.531575 -0.607071 0.590672 0.625000 0.306600 1 0 1.000000
barrelside04a
  0 11.304301 -11.304299 13.976600 0.607071 -0.531575 0.590672 0.625000 0.284100 1 0 1.000000
  0 14.769800 -6.117899 13.976600 0.764278 -0.258792 0.590683 0.687500 0.284100 1 0 1.000000
  0 14.037400 -5.814499 15.057200 0.723411 -0.357406 0.590709 0.687500 0.306600 1 0 1.000000
barrelside04a
  0 14.769800 -6.117899 13.976600 0.764278 -0.258792 0.590683 0.687500 0.284100 1 0 1.000000
  0 15.194000 0.000001 15.057200 0.805114 -0.053401 0.590711 0.750000 0.306600 1 0 1.000000
  0 14.037400 -5.814499 15.057200 0.723411 -0.357406 0.590709 0.687500 0.306600 1 0 1.000000
barrelside04a
  0 14.769800 -6.117899 13.976600 0.764278 -0.258792 0.590683 0.687500 0.284100 1 0 1.000000
  0 15.986700 0.000001 13.976600 0.805114 0.053401 0.590711 0.750000 0.284100 1 0 1.000000
  0 15.194000 0.000001 15.057200 0.805114 -0.053401 0.590711 0.750000 0.306600 1 0 1.000000
barrelside04a
  0 15.986700 0.000001 13.976600 0.805114 0.053401 0.590711 0.750000 0.284100 1 0 1.000000
  0 14.037400 5.814500 15.057200 0.764278 0.258792 0.590683 0.812500 0.306600 1 0 1.000000
  0 15.194000 0.000001 15.057200 0.805114 -0.053401 0.590711 0.750000 0.306600 1 0 1.000000
barrelside04a
  0 15.986700 0.000001 13.976600 0.805114 0.053401 0.590711 0.750000 0.284100 1 0 1.000000
  0 14.769800 6.117900 13.976600 0.723411 0.357406 0.590709 0.812500 0.284100 1 0 1.000000
  0 14.037400 5.814500 15.057200 0.764278 0.258792 0.590683 0.812500 0.306600 1 0 1.000000
barrelside04a
  0 14.769800 6.117900 13.976600 0.723411 0.357406 0.590709 0.812500 0.284100 1 0 1.000000
  0 10.743800 10.743800 15.057200 0.607071 0.531575 0.590672 0.875000 0.306600 1 0 1.000000
  0 14.037400 5.814500 15.057200 0.764278 0.258792 0.590683 0.812500 0.306600 1 0 1.000000
barrelside04a
  0 14.769800 6.117900 13.976600 0.723411 0.357406 0.590709 0.812500 0.284100 1 0 1.000000
  0 11.304299 11.304301 13.976600 0.531575 0.607071 0.590672 0.875000 0.284100 1 0 1.000000
  0 10.743800 10.743800 15.057200 0.607071 0.531575 0.590672 0.875000 0.306600 1 0 1.000000
barrelside04a
  0 11.304299 11.304301 13.976600 0.531575 0.607071 0.590672 0.875000 0.284100 1 0 1.000000
  0 5.814499 14.037400 15.057200 0.357406 0.723411 0.590709 0.937500 0.306600 1 0 1.000000
  0 10.743800 10.743800 15.057200 0.607071 0.531575 0.590672 0.875000 0.306600 1 0 1.000000
barrelside04a
  0 11.304299 11.304301 13.976600 0.531575 0.607071 0.590672 0.875000 0.284100 1 0 1.000000
  0 6.117899 14.769800 13.976600 0.258792 0.764278 0.590683 0.937500 0.284100 1 0 1.000000
  0 5.814499 14.037400 15.057200 0.357406 0.723411 0.590709 0.937500 0.306600 1 0 1.000000
barrelside04a
  0 6.117899 14.769800 13.976600 0.258792 0.764278 0.590683 0.937500 0.284100 1 0 1.000000
  0 -0.000001 15.194000 15.057200 0.053401 0.805114 0.590711 1.000000 0.306600 1 0 1.000000
  0 5.814499 14.037400 15.057200 0.357406 0.723411 0.590709 0.937500 0.306600 1 0 1.000000
barrelside04a
  0 6.117899 14.769800 13.976600 0.258792 0.764278 0.590683 0.937500 0.284100 1 0 1.000000
  0 -0.000001 15.986700 13.976600 -0.053401 0.805114 0.590711 1.000000 0.284100 1 0 1.000000
  0 -0.000001 15.194000 15.057200 0.053401 0.805114 0.590711 1.000000 0.306600 1 0 1.000000
barrelside04a
  0 -0.000001 15.194000 15.057200 -0.066200 0.997806 0.000000 0.000000 0.306600 1 0 1.000000
  0 -5.814500 14.037400 33.459000 -0.320694 0.947183 0.000000 0.062500 0.688500 1 0 1.000000
  0 -0.000001 15.194000 33.459000 0.066200 0.997806 0.000000 0.000000 0.688500 1 0 1.000000
barrelside04a
  0 -0.000001 15.194000 15.057200 -0.066200 0.997806 0.000000 0.000000 0.306600 1 0 1.000000
  0 -5.814500 14.037400 15.057200 -0.443009 0.896517 0.000000 0.062500 0.306600 1 0 1.000000
  0 -5.814500 14.037400 33.459000 -0.320694 0.947183 0.000000 0.062500 0.688500 1 0 1.000000
barrelside04a
  0 -5.814500 14.037400 15.057200 -0.443009 0.896517 0.000000 0.062500 0.306600 1 0 1.000000
  0 -10.743800 10.743800 33.459000 -0.658809 0.752310 0.000000 0.125000 0.688500 1 0 1.000000
  0 -5.814500 14.037400 33.459000 -0.320694 0.947183 0.000000 0.062500 0.688500 1 0 1.000000
barrelside04a
  0 -5.814500 14.037400 15.057200 -0.443009 0.896517 0.000000 0.062500 0.306600 1 0 1.000000
  0 -10.743800 10.743800 15.057200 -0.752310 0.658809 0.000000 0.125000 0.306600 1 0 1.000000
  0 -10.743800 10.743800 33.459000 -0.658809 0.752310 0.000000 0.125000 0.688500 1 0 1.000000
barrelside04a
  0 -10.743800 10.743800 15.057200 -0.752310 0.658809 0.000000 0.125000 0.306600 1 0 1.000000
  0 -14.037400 5.814499 33.459000 -0.896517 0.443009 0.000000 0.187500 0.688500 1 0 1.000000
  0 -10.743800 10.743800 33.459000 -0.658809 0.752310 0.000000 0.125000 0.688500 1 0 1.000000
barrelside04a
  0 -10.743800 10.743800 15.057200 -0.752310 0.658809 0.000000 0.125000 0.306600 1 0 1.000000
  0 -14.037400 5.814499 15.057200 -0.947183 0.320694 0.000000 0.187500 0.306600 1 0 1.000000
  0 -14.037400 5.814499 33.459000 -0.896517 0.443009 0.000000 0.187500 0.688500 1 0 1.000000
barrelside04a
  0 -14.037400 5.814499 15.057200 -0.947183 0.320694 0.000000 0.187500 0.306600 1 0 1.000000
  0 -15.194000 -0.000001 33.459000 -0.997806 0.066200 0.000000 0.250000 0.688500 1 0 1.000000
  0 -14.037400 5.814499 33.459000 -0.896517 0.443009 0.000000 0.187500 0.688500 1 0 1.000000
barrelside04a
  0 -14.037400 5.814499 15.057200 -0.947183 0.320694 0.000000 0.187500 0.306600 1 0 1.000000
  0 -15.194000 -0.000001 15.057200 -0.997806 -0.066200 0.000000 0.250000 0.306600 1 0 1.000000
  0 -15.194000 -0.000001 33.459000 -0.997806 0.066200 0.000000 0.250000 0.688500 1 0 1.000000
barrelside04a
  0 -15.194000 -0.000001 15.057200 -0.997806 -0.066200 0.000000 0.250000 0.306600 1 0 1.000000
  0 -14.037400 -5.814500 33.459000 -0.947183 -0.320694 0.000000 0.312500 0.688500 1 0 1.000000
  0 -15.194000 -0.000001 33.459000 -0.997806 0.066200 0.000000 0.250000 0.688500 1 0 1.000000
barrelside04a
  0 -15.194000 -0.000001 15.057200 -0.997806 -0.066200 0.000000 0.250000 0.306600 1 0 1.000000
  0 -14.037400 -5.814500 15.057200 -0.896517 -0.443009 0.000000 0.312500 0.306600 1 0 1.000000
  0 -14.037400 -5.814500 33.459000 -0.947183 -0.320694 0.000000 0.312500 0.688500 1 0 1.000000
barrelside04a
  0 -14.037400 -5.814500 15.057200 -0.896517 -0.443009 0.000000 0.312500 0.306600 1 0 1.000000
  0 -10.743800 -10.743800 33.459000 -0.752310 -0.658809 0.000000 0.375000 0.688500 1 0 1.000000
  0 -14.037400 -5.814500 33.459000 -0.947183 -0.320694 0.000000 0.312500 0.688500 1 0 1.000000
barrelside04a
  0 -14.037400 -5.814500 15.057200 -0.896517 -0.443009 0.000000 0.312500 0.306600 1 0 1.000000
  0 -10.743800 -10.743800 15.057200 -0.658809 -0.752310 0.000000 0.375000 0.306600 1 0 1.000000
  0 -10.743800 -10.743800 33.459000 -0.752310 -0.658809 0.000000 0.375000 0.688500 1 0 1.000000
barrelside04a
  0 -10.743800 -10.743800 15.057200 -0.658809 -0.752310 0.000000 0.375000 0.306600 1 0 1.000000
  0 -5.814499 -14.037400 33.459000 -0.443009 -0.896517 0.000000 0.437500 0.688500 1 0 1.000000
  0 -10.743800 -10.743800 33.459000 -0.752310 -0.658809 0.000000 0.375000 0.688500 1 0 1.000000
barrelside04a
  0 -10.743800 -10.743800 15.057200 -0.658809 -0.752310 0.000000 0.375000 0.306600 1 0 1.000000
  0 -5.814499 -14.037400 15.057200 -0.320694 -0.947183 0.000000 0.437500 0.306600 1 0 1.000000
  0 -5.814499 -14.037400 33.459000 -0.443009 -0.896517 0.000000 0.437500 0.688500 1 0 1.000000
barrelside04a
  0 -5.814499 -14.037400 15.057200 -0.320694 -0.947183 0.000000 0.437500 0.306600 1 0 1.000000
  0 0.000001 -15.194000 33.459000 -0.066200 -0.997806 0.000000 0.500000 0.688500 1 0 1.000000
  0 -5.814499 -14.037400 33.459000 -0.443009 -0.896517 0.000000 0.437500 0.688500 1 0 1.000000
barrelside04a
  0 -5.814499 -14.037400 15.057200 -0.320694 -0.947183 0.000000 0.437500 0.306600 1 0 1.000000
  0 0.000001 -15.194000 15.057200 0.066200 -0.997806 0.000000 0.500000 0.306600 1 0 1.000000
  0 0.000001 -15.194000 33.459000 -0.066200 -0.997806 0.000000 0.500000 0.688500 1 0 1.000000
barrelside04a
  0 0.000001 -15.194000 15.057200 0.066200 -0.997806 0.000000 0.500000 0.306600 1 0 1.000000
  0 5.814500 -14.037400 33.459000 0.320694 -0.947183 0.000000 0.562500 0.688500 1 0 1.000000
  0 0.000001 -15.194000 33.459000 -0.066200 -0.997806 0.000000 0.500000 0.688500 1 0 1.000000
barrelside04a
  0 0.000001 -15.194000 15.057200 0.066200 -0.997806 0.000000 0.500000 0.306600 1 0 1.000000
  0 5.814500 -14.037400 15.057200 0.443009 -0.896517 0.000000 0.562500 0.306600 1 0 1.000000
  0 5.814500 -14.037400 33.459000 0.320694 -0.947183 0.000000 0.562500 0.688500 1 0 1.000000
barrelside04a
  0 5.814500 -14.037400 15.057200 0.443009 -0.896517 0.000000 0.562500 0.306600 1 0 1.000000
  0 10.743800 -10.743800 33.459000 0.658809 -0.752310 0.000000 0.625000 0.688500 1 0 1.000000
  0 5.814500 -14.037400 33.459000 0.320694 -0.947183 0.000000 0.562500 0.688500 1 0 1.000000
barrelside04a
  0 5.814500 -14.037400 15.057200 0.443009 -0.896517 0.000000 0.562500 0.306600 1 0 1.000000
  0 10.743800 -10.743800 15.057200 0.752310 -0.658809 0.000000 0.625000 0.306600 1 0 1.000000
  0 10.743800 -10.743800 33.459000 0.658809 -0.752310 0.000000 0.625000 0.688500 1 0 1.000000
barrelside04a
  0 10.743800 -10.743800 15.057200 0.752310 -0.658809 0.000000 0.625000 0.306600 1 0 1.000000
  0 14.037400 -5.814499 33.459000 0.896517 -0.443009 0.000000 0.687500 0.688500 1 0 1.000000
  0 10.743800 -10.743800 33.459000 0.658809 -0.752310 0.000000 0.625000 0.688500 1 0 1.000000
barrelside04a
  0 10.743800 -10.743800 15.057200 0.752310 -0.658809 0.000000 0.625000 0.306600 1 0 1.000000
  0 14.037400 -5.814499 15.057200 0.947183 -0.320694 0.000000 0.687500 0.306600 1 0 1.000000
  0 14.037400 -5.814499 33.459000 0.896517 -0.443009 0.000000 0.687500 0.688500 1 0 1.000000
barrelside04a
  0 14.037400 -5.814499 15.057200 0.947183 -0.320694 0.000000 0.687500 0.306600 1 0 1.000000
  0 15.194000 0.000001 33.459000 0.997806 -0.066200 0.000000 0.750000 0.688500 1 0 1.000000
  0 14.037400 -5.814499 33.459000 0.896517 -0.443009 0.000000 0.687500 0.688500 1 0 1.000000
barrelside04a
  0 14.037400 -5.814499 15.057200 0.947183 -0.320694 0.000000 0.687500 0.306600 1 0 1.000000
  0 15.194000 0.000001 15.057200 0.997806 0.066200 0.000000 0.750000 0.306600 1 0 1.000000
  0 15.194000 0.000001 33.459000 0.997806 -0.066200 0.000000 0.750000 0.688500 1 0 1.000000
barrelside04a
  0 15.194000 0.000001 15.057200 0.997806 0.066200 0.000000 0.750000 0.306600 1 0 1.000000
  0 14.037400 5.814500 33.459000 0.947183 0.320694 0.000000 0.812500 0.688500 1 0 1.000000
  0 15.194000 0.000001 33.459000 0.997806 -0.066200 0.000000 0.750000 0.688500 1 0 1.000000
barrelside04a
  0 15.194000 0.000001 15.057200 0.997806 0.066200 0.000000 0.750000 0.306600 1 0 1.000000
  0 14.037400 5.814500 15.057200 0.896517 0.443009 0.000000 0.812500 0.306600 1 0 1.000000
  0 14.037400 5.814500 33.459000 0.947183 0.320694 0.000000 0.812500 0.688500 1 0 1.000000
barrelside04a
  0 14.037400 5.814500 15.057200 0.896517 0.443009 0.000000 0.812500 0.306600 1 0 1.000000
  0 10.743800 10.743800 33.459000 0.752310 0.658809 0.000000 0.875000 0.688500 1 0 1.000000
  0 14.037400 5.814500 33.459000 0.947183 0.320694 0.000000 0.812500 0.688500 1 0 1.000000
barrelside04a
  0 14.037400 5.814500 15.057200 0.896517 0.443009 0.000000 0.812500 0.306600 1 0 1.000000
  0 10.743800 10.743800 15.057200 0.658809 0.752310 0.000000 0.875000 0.306600 1 0 1.000000
  0 10.743800 10.743800 33.459000 0.752310 0.658809 0.000000 0.875000 0.688500 1 0 1.000000
barrelside04a
  0 10.743800 10.743800 15.057200 0.658809 0.752310 0.000000 0.875000 0.306600 1 0 1.000000
  0 5.814499 14.037400 33.459000 0.443009 0.896517 0.000000 0.937500 0.688500 1 0 1.000000
  0 10.743800 10.743800 33.459000 0.752310 0.658809 0.000000 0.875000 0.688500 1 0 1.000000
barrelside04a
  0 10.743800 10.743800 15.057200 0.658809 0.752310 0.000000 0.875000 0.306600 1 0 1.000000
  0 5.814499 14.037400 15.057200 0.320694 0.947183 0.000000 0.937500 0.306600 1 0 1.000000
  0 5.814499 14.037400 33.459000 0.443009 0.896517 0.000000 0.937500 0.688500 1 0 1.000000
barrelside04a
  0 5.814499 14.037400 15.057200 0.320694 0.947183 0.000000 0.937500 0.306600 1 0 1.000000
  0 -0.000001 15.194000 33.459000 0.066200 0.997806 0.000000 1.000000 0.688500 1 0 1.000000
  0 5.814499 14.037400 33.459000 0.443009 0.896517 0.000000 0.937500 0.688500 1 0 1.000000
barrelside04a
  0 5.814499 14.037400 15.057200 0.320694 0.947183 0.000000 0.937500 0.306600 1 0 1.000000
  0 -0.000001 15.194000 15.057200 -0.066200 0.997806 0.000000 1.000000 0.306600 1 0 1.000000
  0 -0.000001 15.194000 33.459000 0.066200 0.997806 0.000000 1.000000 0.688500 1 0 1.000000
barrelside04a
  0 -0.000001 15.194000 33.459000 -0.055698 0.840473 -0.538983 0.000000 0.688500 1 0 1.000000
  0 -6.117900 14.769800 34.695099 -0.270105 0.797816 -0.539011 0.062500 0.714100 1 0 1.000000
  0 -0.000001 15.986700 34.695099 0.055698 0.840473 -0.538983 0.000000 0.714100 1 0 1.000000
barrelside04a
  0 -0.000001 15.194000 33.459000 -0.055698 0.840473 -0.538983 0.000000 0.688500 1 0 1.000000
  0 -5.814500 14.037400 33.459000 -0.373090 0.755180 -0.538986 0.062500 0.688500 1 0 1.000000
  0 -6.117900 14.769800 34.695099 -0.270105 0.797816 -0.539011 0.062500 0.714100 1 0 1.000000
barrelside04a
  0 -5.814500 14.037400 33.459000 -0.373090 0.755180 -0.538986 0.062500 0.688500 1 0 1.000000
  0 -11.304301 11.304299 34.695099 -0.554897 0.633697 -0.538997 0.125000 0.714100 1 0 1.000000
  0 -6.117900 14.769800 34.695099 -0.270105 0.797816 -0.539011 0.062500 0.714100 1 0 1.000000
barrelside04a
  0 -5.814500 14.037400 33.459000 -0.373090 0.755180 -0.538986 0.062500 0.688500 1 0 1.000000
  0 -10.743800 10.743800 33.459000 -0.633697 0.554897 -0.538997 0.125000 0.688500 1 0 1.000000
  0 -11.304301 11.304299 34.695099 -0.554897 0.633697 -0.538997 0.125000 0.714100 1 0 1.000000
barrelside04a
  0 -10.743800 10.743800 33.459000 -0.633697 0.554897 -0.538997 0.125000 0.688500 1 0 1.000000
  0 -14.769800 6.117899 34.695099 -0.755180 0.373090 -0.538986 0.187500 0.714100 1 0 1.000000
  0 -11.304301 11.304299 34.695099 -0.554897 0.633697 -0.538997 0.125000 0.714100 1 0 1.000000
barrelside04a
  0 -10.743800 10.743800 33.459000 -0.633697 0.554897 -0.538997 0.125000 0.688500 1 0 1.000000
  0 -14.037400 5.814499 33.459000 -0.797816 0.270105 -0.539011 0.187500 0.688500 1 0 1.000000
  0 -14.769800 6.117899 34.695099 -0.755180 0.373090 -0.538986 0.187500 0.714100 1 0 1.000000
barrelside04a
  0 -14.037400 5.814499 33.459000 -0.797816 0.270105 -0.539011 0.187500 0.688500 1 0 1.000000
  0 -15.986700 -0.000001 34.695099 -0.840473 0.055698 -0.538983 0.250000 0.714100 1 0 1.000000
  0 -14.769800 6.117899 34.695099 -0.755180 0.373090 -0.538986 0.187500 0.714100 1 0 1.000000
barrelside04a
  0 -14.037400 5.814499 33.459000 -0.797816 0.270105 -0.539011 0.187500 0.688500 1 0 1.000000
  0 -15.194000 -0.000001 33.459000 -0.840473 -0.055698 -0.538983 0.250000 0.688500 1 0 1.000000
  0 -15.986700 -0.000001 34.695099 -0.840473 0.055698 -0.538983 0.250000 0.714100 1 0 1.000000
barrelside04a
  0 -15.194000 -0.000001 33.459000 -0.840473 -0.055698 -0.538983 0.250000 0.688500 1 0 1.000000
  0 -14.769800 -6.117900 34.695099 -0.797816 -0.270105 -0.539011 0.312500 0.714100 1 0 1.000000
  0 -15.986700 -0.000001 34.695099 -0.840473 0.055698 -0.538983 0.250000 0.714100 1 0 1.000000
barrelside04a
  0 -15.194000 -0.000001 33.459000 -0.840473 -0.055698 -0.538983 0.250000 0.688500 1 0 1.000000
  0 -14.037400 -5.814500 33.459000 -0.755180 -0.373090 -0.538986 0.312500 0.688500 1 0 1.000000
  0 -14.769800 -6.117900 34.695099 -0.797816 -0.270105 -0.539011 0.312500 0.714100 1 0 1.000000
barrelside04a
  0 -14.037400 -5.814500 33.459000 -0.755180 -0.373090 -0.538986 0.312500 0.688500 1 0 1.000000
  0 -11.304299 -11.304301 34.695099 -0.633697 -0.554897 -0.538997 0.375000 0.714100 1 0 1.000000
  0 -14.769800 -6.117900 34.695099 -0.797816 -0.270105 -0.539011 0.312500 0.714100 1 0 1.000000
barrelside04a
  0 -14.037400 -5.814500 33.459000 -0.755180 -0.373090 -0.538986 0.312500 0.688500 1 0 1.000000
  0 -10.743800 -10.743800 33.459000 -0.554897 -0.633697 -0.538997 0.375000 0.688500 1 0 1.000000
  0 -11.304299 -11.304301 34.695099 -0.633697 -0.554897 -0.538997 0.375000 0.714100 1 0 1.000000
barrelside04a
  0 -10.743800 -10.743800 33.459000 -0.554897 -0.633697 -0.538997 0.375000 0.688500 1 0 1.000000
  0 -6.117899 -14.769800 34.695099 -0.373090 -0.755180 -0.538986 0.437500 0.714100 1 0 1.000000
  0 -11.304299 -11.304301 34.695099 -0.633697 -0.554897 -0.538997 0.375000 0.714100 1 0 1.000000
barrelside04a
  0 -10.743800 -10.743800 33.459000 -0.554897 -0.633697 -0.538997 0.375000 0.688500 1 0 1.000000
  0 -5.814499 -14.037400 33.459000 -0.270105 -0.797816 -0.539011 0.437500 0.688500 1 0 1.000000
  0 -6.117899 -14.769800 34.695099 -0.373090 -0.755180 -0.538986 0.437500 0.714100 1 0 1.000000
barrelside04a
  0 -5.814499 -14.037400 33.459000 -0.270105 -0.797816 -0.539011 0.437500 0.688500 1 0 1.000000
  0 0.000001 -15.986700 34.695099 -0.055698 -0.840473 -0.538983 0.500000 0.714100 1 0 1.000000
  0 -6.117899 -14.769800 34.695099 -0.373090 -0.755180 -0.538986 0.437500 0.714100 1 0 1.000000
barrelside04a
  0 -5.814499 -14.037400 33.459000 -0.270105 -0.797816 -0.539011 0.437500 0.688500 1 0 1.000000
  0 0.000001 -15.194000 33.459000 0.055698 -0.840473 -0.538983 0.500000 0.688500 1 0 1.000000
  0 0.000001 -15.986700 34.695099 -0.055698 -0.840473 -0.538983 0.500000 0.714100 1 0 1.000000
barrelside04a
  0 0.000001 -15.194000 33.459000 0.055698 -0.840473 -0.538983 0.500000 0.688500 1 0 1.000000
  0 6.117900 -14.769800 34.695099 0.270105 -0.797816 -0.539011 0.562500 0.714100 1 0 1.000000
  0 0.000001 -15.986700 34.695099 -0.055698 -0.840473 -0.538983 0.500000 0.714100 1 0 1.000000
barrelside04a
  0 0.000001 -15.194000 33.459000 0.055698 -0.840473 -0.538983 0.500000 0.688500 1 0 1.000000
  0 5.814500 -14.037400 33.459000 0.373090 -0.755180 -0.538986 0.562500 0.688500 1 0 1.000000
  0 6.117900 -14.769800 34.695099 0.270105 -0.797816 -0.539011 0.562500 0.714100 1 0 1.000000
barrelside04a
  0 5.814500 -14.037400 33.459000 0.373090 -0.755180 -0.538986 0.562500 0.688500 1 0 1.000000
  0 11.304301 -11.304299 34.695099 0.554897 -0.633697 -0.538997 0.625000 0.714100 1 0 1.000000
  0 6.117900 -14.769800 34.695099 0.270105 -0.797816 -0.539011 0.562500 0.714100 1 0 1.000000
barrelside04a
  0 5.814500 -14.037400 33.459000 0.373090 -0.755180 -0.538986 0.562500 0.688500 1 0 1.000000
  0 10.743800 -10.743800 33.459000 0.633697 -0.554897 -0.538997 0.625000 0.688500 1 0 1.000000
  0 11.304301 -11.304299 34.695099 0.554897 -0.633697 -0.538997 0.625000 0.714100 1 0 1.000000
barrelside04a
  0 10.743800 -10.743800 33.459000 0.633697 -0.554897 -0.538997 0.625000 0.688500 1 0 1.000000
  0 14.769800 -6.117899 34.695099 0.755180 -0.373090 -0.538986 0.687500 0.714100 1 0 1.000000
  0 11.304301 -11.304299 34.695099 0.554897 -0.633697 -0.538997 0.625000 0.714100 1 0 1.000000
barrelside04a
  0 10.743800 -10.743800 33.459000 0.633697 -0.554897 -0.538997 0.625000 0.688500 1 0 1.000000
  0 14.037400 -5.814499 33.459000 0.797816 -0.270105 -0.539011 0.687500 0.688500 1 0 1.000000
  0 14.769800 -6.117899 34.695099 0.755180 -0.373090 -0.538986 0.687500 0.714100 1 0 1.000000
barrelside04a
  0 14.037400 -5.814499 33.459000 0.797816 -0.270105 -0.539011 0.687500 0.688500 1 0 1.000000
  0 15.986700 0.000001 34.695099 0.840473 -0.055698 -0.538983 0.750000 0.714100 1 0 1.000000
  0 14.769800 -6.117899 34.695099 0.755180 -0.373090 -0.538986 0.687500 0.714100 1 0 1.000000
barrelside04a
  0 14.037400 -5.814499 33.459000 0.797816 -0.270105 -0.539011 0.687500 0.688500 1 0 1.000000
  0 15.194000 0.000001 33.459000 0.840473 0.055698 -0.538983 0.750000 0.688500 1 0 1.000000
  0 15.986700 0.000001 34.695099 0.840473 -0.055698 -0.538983 0.750000 0.714100 1 0 1.000000
barrelside04a
  0 15.194000 0.000001 33.459000 0.840473 0.055698 -0.538983 0.750000 0.688500 1 0 1.000000
  0 14.769800 6.117900 34.695099 0.797816 0.270105 -0.539011 0.812500 0.714100 1 0 1.000000
  0 15.986700 0.000001 34.695099 0.840473 -0.055698 -0.538983 0.750000 0.714100 1 0 1.000000
barrelside04a
  0 15.194000 0.000001 33.459000 0.840473 0.055698 -0.538983 0.750000 0.688500 1 0 1.000000
  0 14.037400 5.814500 33.459000 0.755180 0.373090 -0.538986 0.812500 0.688500 1 0 1.000000
  0 14.769800 6.117900 34.695099 0.797816 0.270105 -0.539011 0.812500 0.714100 1 0 1.000000
barrelside04a
  0 14.037400 5.814500 33.459000 0.755180 0.373090 -0.538986 0.812500 0.688500 1 0 1.000000
  0 11.304299 11.304301 34.695099 0.633697 0.554897 -0.538997 0.875000 0.714100 1 0 1.000000
  0 14.769800 6.117900 34.695099 0.797816 0.270105 -0.539011 0.812500 0.714100 1 0 1.000000
barrelside04a
  0 14.037400 5.814500 33.459000 0.755180 0.373090 -0.538986 0.812500 0.688500 1 0 1.000000
  0 10.743800 10.743800 33.459000 0.554897 0.633697 -0.538997 0.875000 0.688500 1 0 1.000000
  0 11.304299 11.304301 34.695099 0.633697 0.554897 -0.538997 0.875000 0.714100 1 0 1.000000
barrelside04a
  0 10.743800 10.743800 33.459000 0.554897 0.633697 -0.538997 0.875000 0.688500 1 0 1.000000
  0 6.117899 14.769800 34.695099 0.373090 0.755180 -0.538986 0.937500 0.714100 1 0 1.000000
  0 11.304299 11.304301 34.695099 0.633697 0.554897 -0.538997 0.875000 0.714100 1 0 1.000000
barrelside04a
  0 10.743800 10.743800 33.459000 0.554897 0.633697 -0.538997 0.875000 0.688500 1 0 1.000000
  0 5.814499 14.037400 33.459000 0.270105 0.797816 -0.539011 0.937500 0.688500 1 0 1.000000
  0 6.117899 14.769800 34.695099 0.373090 0.755180 -0.538986 0.937500 0.714100 1 0 1.000000
barrelside04a
  0 5.814499 14.037400 33.459000 0.270105 0.797816 -0.539011 0.937500 0.688500 1 0 1.000000
  0 -0.000001 15.986700 34.695099 0.055698 0.840473 -0.538983 1.000000 0.714100 1 0 1.000000
  0 6.117899 14.769800 34.695099 0.373090 0.755180 -0.538986 0.937500 0.714100 1 0 1.000000
barrelside04a
  0 5.814499 14.037400 33.459000 0.270105 0.797816 -0.539011 0.937500 0.688500 1 0 1.000000
  0 -0.000001 15.194000 33.459000 -0.055698 0.840473 -0.538983 1.000000 0.688500 1 0 1.000000
  0 -0.000001 15.986700 34.695099 0.055698 0.840473 -0.538983 1.000000 0.714100 1 0 1.000000
barrelside04a
  0 -0.000001 15.986700 34.695099 -0.056501 0.852109 0.520305 0.000000 0.714100 1 0 1.000000
  0 -5.814500 14.037400 35.993500 -0.273893 0.808879 0.520286 0.062500 0.741100 1 0 1.000000
  0 -0.000001 15.194000 35.993500 0.056501 0.852109 0.520305 0.000000 0.741100 1 0 1.000000
barrelside04a
  0 -0.000001 15.986700 34.695099 -0.056501 0.852109 0.520305 0.000000 0.714100 1 0 1.000000
  0 -6.117900 14.769800 34.695099 -0.378306 0.765613 0.520309 0.062500 0.714100 1 0 1.000000
  0 -5.814500 14.037400 35.993500 -0.273893 0.808879 0.520286 0.062500 0.741100 1 0 1.000000
barrelside04a
  0 -6.117900 14.769800 34.695099 -0.378306 0.765613 0.520309 0.062500 0.714100 1 0 1.000000
  0 -10.743800 10.743800 35.993500 -0.562590 0.642488 0.520290 0.125000 0.741100 1 0 1.000000
  0 -5.814500 14.037400 35.993500 -0.273893 0.808879 0.520286 0.062500 0.741100 1 0 1.000000
barrelside04a
  0 -6.117900 14.769800 34.695099 -0.378306 0.765613 0.520309 0.062500 0.714100 1 0 1.000000
  0 -11.304301 11.304299 34.695099 -0.642488 0.562590 0.520290 0.125000 0.714100 1 0 1.000000
  0 -10.743800 10.743800 35.993500 -0.562590 0.642488 0.520290 0.125000 0.741100 1 0 1.000000
barrelside04a
  0 -11.304301 11.304299 34.695099 -0.642488 0.562590 0.520290 0.125000 0.714100 1 0 1.000000
  0 -14.037400 5.814499 35.993500 -0.765613 0.378306 0.520309 0.187500 0.741100 1 0 1.000000
  0 -10.743800 10.743800 35.993500 -0.562590 0.642488 0.520290 0.125000 0.741100 1 0 1.000000
barrelside04a
  0 -11.304301 11.304299 34.695099 -0.642488 0.562590 0.520290 0.125000 0.714100 1 0 1.000000
  0 -14.769800 6.117899 34.695099 -0.808879 0.273893 0.520286 0.187500 0.714100 1 0 1.000000
  0 -14.037400 5.814499 35.993500 -0.765613 0.378306 0.520309 0.187500 0.741100 1 0 1.000000
barrelside04a
  0 -14.769800 6.117899 34.695099 -0.808879 0.273893 0.520286 0.187500 0.714100 1 0 1.000000
  0 -15.194000 -0.000001 35.993500 -0.852109 0.056501 0.520305 0.250000 0.741100 1 0 1.000000
  0 -14.037400 5.814499 35.993500 -0.765613 0.378306 0.520309 0.187500 0.741100 1 0 1.000000
barrelside04a
  0 -14.769800 6.117899 34.695099 -0.808879 0.273893 0.520286 0.187500 0.714100 1 0 1.000000
  0 -15.986700 -0.000001 34.695099 -0.852109 -0.056501 0.520305 0.250000 0.714100 1 0 1.000000
  0 -15.194000 -0.000001 35.993500 -0.852109 0.056501 0.520305 0.250000 0.741100 1 0 1.000000
barrelside04a
  0 -15.986700 -0.000001 34.695099 -0.852109 -0.056501 0.520305 0.250000 0.714100 1 0 1.000000
  0 -14.037400 -5.814500 35.993500 -0.808879 -0.273893 0.520286 0.312500 0.741100 1 0 1.000000
  0 -15.194000 -0.000001 35.993500 -0.852109 0.056501 0.520305 0.250000 0.741100 1 0 1.000000
barrelside04a
  0 -15.986700 -0.000001 34.695099 -0.852109 -0.056501 0.520305 0.250000 0.714100 1 0 1.000000
  0 -14.769800 -6.117900 34.695099 -0.765613 -0.378306 0.520309 0.312500 0.714100 1 0 1.000000
  0 -14.037400 -5.814500 35.993500 -0.808879 -0.273893 0.520286 0.312500 0.741100 1 0 1.000000
barrelside04a
  0 -14.769800 -6.117900 34.695099 -0.765613 -0.378306 0.520309 0.312500 0.714100 1 0 1.000000
  0 -10.743800 -10.743800 35.993500 -0.642488 -0.562590 0.520290 0.375000 0.741100 1 0 1.000000
  0 -14.037400 -5.814500 35.993500 -0.808879 -0.273893 0.520286 0.312500 0.741100 1 0 1.000000
barrelside04a
  0 -14.769800 -6.117900 34.695099 -0.765613 -0.378306 0.520309 0.312500 0.714100 1 0 1.000000
  0 -11.304299 -11.304301 34.695099 -0.562590 -0.642488 0.520290 0.375000 0.714100 1 0 1.000000
  0 -10.743800 -10.743800 35.993500 -0.642488 -0.562590 0.520290 0.375000 0.741100 1 0 1.000000
barrelside04a
  0 -11.304299 -11.304301 34.695099 -0.562590 -0.642488 0.520290 0.375000 0.714100 1 0 1.000000
  0 -5.814499 -14.037400 35.993500 -0.378306 -0.765613 0.520309 0.437500 0.741100 1 0 1.000000
  0 -10.743800 -10.743800 35.993500 -0.642488 -0.562590 0.520290 0.375000 0.741100 1 0 1.000000
barrelside04a
  0 -11.304299 -11.304301 34.695099 -0.562590 -0.642488 0.520290 0.375000 0.714100 1 0 1.000000
  0 -6.117899 -14.769800 34.695099 -0.273893 -0.808879 0.520286 0.437500 0.714100 1 0 1.000000
  0 -5.814499 -14.037400 35.993500 -0.378306 -0.765613 0.520309 0.437500 0.741100 1 0 1.000000
barrelside04a
  0 -6.117899 -14.769800 34.695099 -0.273893 -0.808879 0.520286 0.437500 0.714100 1 0 1.000000
  0 0.000001 -15.194000 35.993500 -0.056501 -0.852109 0.520305 0.500000 0.741100 1 0 1.000000
  0 -5.814499 -14.037400 35.993500 -0.378306 -0.765613 0.520309 0.437500 0.741100 1 0 1.000000
barrelside04a
  0 -6.117899 -14.769800 34.695099 -0.273893 -0.808879 0.520286 0.437500 0.714100 1 0 1.000000
  0 0.000001 -15.986700 34.695099 0.056501 -0.852109 0.520305 0.500000 0.714100 1 0 1.000000
  0 0.000001 -15.194000 35.993500 -0.056501 -0.852109 0.520305 0.500000 0.741100 1 0 1.000000
barrelside04a
  0 0.000001 -15.986700 34.695099 0.056501 -0.852109 0.520305 0.500000 0.714100 1 0 1.000000
  0 5.814500 -14.037400 35.993500 0.273893 -0.808879 0.520286 0.562500 0.741100 1 0 1.000000
  0 0.000001 -15.194000 35.993500 -0.056501 -0.852109 0.520305 0.500000 0.741100 1 0 1.000000
barrelside04a
  0 0.000001 -15.986700 34.695099 0.056501 -0.852109 0.520305 0.500000 0.714100 1 0 1.000000
  0 6.117900 -14.769800 34.695099 0.378306 -0.765613 0.520309 0.562500 0.714100 1 0 1.000000
  0 5.814500 -14.037400 35.993500 0.273893 -0.808879 0.520286 0.562500 0.741100 1 0 1.000000
barrelside04a
  0 6.117900 -14.769800 34.695099 0.378306 -0.765613 0.520309 0.562500 0.714100 1 0 1.000000
  0 10.743800 -10.743800 35.993500 0.562590 -0.642488 0.520290 0.625000 0.741100 1 0 1.000000
  0 5.814500 -14.037400 35.993500 0.273893 -0.808879 0.520286 0.562500 0.741100 1 0 1.000000
barrelside04a
  0 6.117900 -14.769800 34.695099 0.378306 -0.765613 0.520309 0.562500 0.714100 1 0 1.000000
  0 11.304301 -11.304299 34.695099 0.642488 -0.562590 0.520290 0.625000 0.714100 1 0 1.000000
  0 10.743800 -10.743800 35.993500 0.562590 -0.642488 0.520290 0.625000 0.741100 1 0 1.000000
barrelside04a
  0 11.304301 -11.304299 34.695099 0.642488 -0.562590 0.520290 0.625000 0.714100 1 0 1.000000
  0 14.037400 -5.814499 35.993500 0.765613 -0.378306 0.520309 0.687500 0.741100 1 0 1.000000
  0 10.743800 -10.743800 35.993500 0.562590 -0.642488 0.520290 0.625000 0.741100 1 0 1.000000
barrelside04a
  0 11.304301 -11.304299 34.695099 0.642488 -0.562590 0.520290 0.625000 0.714100 1 0 1.000000
  0 14.769800 -6.117899 34.695099 0.808879 -0.273893 0.520286 0.687500 0.714100 1 0 1.000000
  0 14.037400 -5.814499 35.993500 0.765613 -0.378306 0.520309 0.687500 0.741100 1 0 1.000000
barrelside04a
  0 14.769800 -6.117899 34.695099 0.808879 -0.273893 0.520286 0.687500 0.714100 1 0 1.000000
  0 15.194000 0.000001 35.993500 0.852109 -0.056501 0.520305 0.750000 0.741100 1 0 1.000000
  0 14.037400 -5.814499 35.993500 0.765613 -0.378306 0.520309 0.687500 0.741100 1 0 1.000000
barrelside04a
  0 14.769800 -6.117899 34.695099 0.808879 -0.273893 0.520286 0.687500 0.714100 1 0 1.000000
  0 15.986700 0.000001 34.695099 0.852109 0.056501 0.520305 0.750000 0.714100 1 0 1.000000
  0 15.194000 0.000001 35.993500 0.852109 -0.056501 0.520305 0.750000 0.741100 1 0 1.000000
barrelside04a
  0 15.986700 0.000001 34.695099 0.852109 0.056501 0.520305 0.750000 0.714100 1 0 1.000000
  0 14.037400 5.814500 35.993500 0.808879 0.273893 0.520286 0.812500 0.741100 1 0 1.000000
  0 15.194000 0.000001 35.993500 0.852109 -0.056501 0.520305 0.750000 0.741100 1 0 1.000000
barrelside04a
  0 15.986700 0.000001 34.695099 0.852109 0.056501 0.520305 0.750000 0.714100 1 0 1.000000
  0 14.769800 6.117900 34.695099 0.765613 0.378306 0.520309 0.812500 0.714100 1 0 1.000000
  0 14.037400 5.814500 35.993500 0.808879 0.273893 0.520286 0.812500 0.741100 1 0 1.000000
barrelside04a
  0 14.769800 6.117900 34.695099 0.765613 0.378306 0.520309 0.812500 0.714100 1 0 1.000000
  0 10.743800 10.743800 35.993500 0.642488 0.562590 0.520290 0.875000 0.741100 1 0 1.000000
  0 14.037400 5.814500 35.993500 0.808879 0.273893 0.520286 0.812500 0.741100 1 0 1.000000
barrelside04a
  0 14.769800 6.117900 34.695099 0.765613 0.378306 0.520309 0.812500 0.714100 1 0 1.000000
  0 11.304299 11.304301 34.695099 0.562590 0.642488 0.520290 0.875000 0.714100 1 0 1.000000
  0 10.743800 10.743800 35.993500 0.642488 0.562590 0.520290 0.875000 0.741100 1 0 1.000000
barrelside04a
  0 11.304299 11.304301 34.695099 0.562590 0.642488 0.520290 0.875000 0.714100 1 0 1.000000
  0 5.814499 14.037400 35.993500 0.378306 0.765613 0.520309 0.937500 0.741100 1 0 1.000000
  0 10.743800 10.743800 35.993500 0.642488 0.562590 0.520290 0.875000 0.741100 1 0 1.000000
barrelside04a
  0 11.304299 11.304301 34.695099 0.562590 0.642488 0.520290 0.875000 0.714100 1 0 1.000000
  0 6.117899 14.769800 34.695099 0.273893 0.808879 0.520286 0.937500 0.714100 1 0 1.000000
  0 5.814499 14.037400 35.993500 0.378306 0.765613 0.520309 0.937500 0.741100 1 0 1.000000
barrelside04a
  0 6.117899 14.769800 34.695099 0.273893 0.808879 0.520286 0.937500 0.714100 1 0 1.000000
  0 -0.000001 15.194000 35.993500 0.056501 0.852109 0.520305 1.000000 0.741100 1 0 1.000000
  0 5.814499 14.037400 35.993500 0.378306 0.765613 0.520309 0.937500 0.741100 1 0 1.000000
barrelside04a
  0 6.117899 14.769800 34.695099 0.273893 0.808879 0.520286 0.937500 0.714100 1 0 1.000000
  0 -0.000001 15.986700 34.695099 -0.056501 0.852109 0.520305 1.000000 0.714100 1 0 1.000000
  0 -0.000001 15.194000 35.993500 0.056501 0.852109 0.520305 1.000000 0.741100 1 0 1.000000
barreltop04a
  0 -0.000001 15.194000 48.444401 0.000000 0.000000 1.000000 0.500000 0.999500 1 0 1.000000
  0 10.743800 10.743800 48.444401 0.000000 0.000000 1.000000 0.853200 0.853200 1 0 1.000000
  0 5.814499 14.037400 48.444401 0.000000 0.000000 1.000000 0.691200 0.961500 1 0 1.000000
barreltop04a
  0 -0.000001 15.194000 48.444401 0.000000 0.000000 1.000000 0.500000 0.999500 1 0 1.000000
  0 14.037400 5.814500 48.444401 0.000000 0.000000 1.000000 0.961500 0.691200 1 0 1.000000
  0 10.743800 10.743800 48.444401 0.000000 0.000000 1.000000 0.853200 0.853200 1 0 1.000000
barreltop04a
  0 -0.000001 15.194000 48.444401 0.000000 0.000000 1.000000 0.500000 0.999500 1 0 1.000000
  0 15.194000 0.000001 48.444401 0.000000 0.000000 1.000000 0.999500 0.500000 1 0 1.000000
  0 14.037400 5.814500 48.444401 0.000000 0.000000 1.000000 0.961500 0.691200 1 0 1.000000
barreltop04a
  0 -0.000001 15.194000 48.444401 0.000000 0.000000 1.000000 0.500000 0.999500 1 0 1.000000
  0 14.037400 -5.814499 48.444401 0.000000 0.000000 1.000000 0.961500 0.308800 1 0 1.000000
  0 15.194000 0.000001 48.444401 0.000000 0.000000 1.000000 0.999500 0.500000 1 0 1.000000
barreltop04a
  0 -0.000001 15.194000 48.444401 0.000000 0.000000 1.000000 0.500000 0.999500 1 0 1.000000
  0 10.743800 -10.743800 48.444401 0.000000 0.000000 1.000000 0.853200 0.146800 1 0 1.000000
  0 14.037400 -5.814499 48.444401 0.000000 0.000000 1.000000 0.961500 0.308800 1 0 1.000000
barreltop04a
  0 -0.000001 15.194000 48.444401 0.000000 0.000000 1.000000 0.500000 0.999500 1 0 1.000000
  0 5.814500 -14.037400 48.444401 0.000000 0.000000 1.000000 0.691200 0.038500 1 0 1.000000
  0 10.743800 -10.743800 48.444401 0.000000 0.000000 1.000000 0.853200 0.146800 1 0 1.000000
barreltop04a
  0 -0.000001 15.194000 48.444401 0.000000 0.000000 1.000000 0.500000 0.999500 1 0 1.000000
  0 0.000001 -15.194000 48.444401 0.000000 0.000000 1.000000 0.500000 0.000500 1 0 1.000000
  0 5.814500 -14.037400 48.444401 0.000000 0.000000 1.000000 0.691200 0.038500 1 0 1.000000
barreltop04a
  0 -0.000001 15.194000 48.444401 0.000000 0.000000 1.000000 0.500000 0.999500 1 0 1.000000
  0 -5.814499 -14.037400 48.444401 0.000000 0.000000 1.000000 0.308800 0.038500 1 0 1.000000
  0 0.000001 -15.194000 48.444401 0.000000 0.000000 1.000000 0.500000 0.000500 1 0 1.000000
barreltop04a
  0 -0.000001 15.194000 48.444401 0.000000 0.000000 1.000000 0.500000 0.999500 1 0 1.000000
  0 -10.743800 -10.743800 48.444401 0.000000 0.000000 1.000000 0.146800 0.146800 1 0 1.000000
  0 -5.814499 -14.037400 48.444401 0.000000 0.000000 1.000000 0.308800 0.038500 1 0 1.000000
barreltop04a
  0 -0.000001 15.194000 48.444401 0.000000 0.000000 1.000000 0.500000 0.999500 1 0 1.000000
  0 -14.037400 -5.814500 48.444401 0.000000 0.000000 1.000000 0.038500 0.308800 1 0 1.000000
  0 -10.743800 -10.743800 48.444401 0.000000 0.000000 1.000000 0.146800 0.146800 1 0 1.000000
barreltop04a
  0 -0.000001 15.194000 48.444401 0.000000 0.000000 1.000000 0.500000 0.999500 1 0 1.000000
  0 -15.194000 -0.000001 48.444401 0.000000 0.000000 1.000000 0.000500 0.500000 1 0 1.000000
  0 -14.037400 -5.814500 48.444401 0.000000 0.000000 1.000000 0.038500 0.308800 1 0 1.000000
barreltop04a
  0 -0.000001 15.194000 48.444401 0.000000 0.000000 1.000000 0.500000 0.999500 1 0 1.000000
  0 -14.037400 5.814499 48.444401 0.000000 0.000000 1.000000 0.038500 0.691200 1 0 1.000000
  0 -15.194000 -0.000001 48.444401 0.000000 0.000000 1.000000 0.000500 0.500000 1 0 1.000000
barreltop04a
  0 -0.000001 15.194000 48.444401 0.000000 0.000000 1.000000 0.500000 0.999500 1 0 1.000000
  0 -10.743800 10.743800 48.444401 0.000000 0.000000 1.000000 0.146800 0.853200 1 0 1.000000
  0 -14.037400 5.814499 48.444401 0.000000 0.000000 1.000000 0.038500 0.691200 1 0 1.000000
barreltop04a
  0 -0.000001 15.194000 48.444401 0.000000 0.000000 1.000000 0.500000 0.999500 1 0 1.000000
  0 -5.814500 14.037400 48.444401 0.000000 0.000000 1.000000 0.308800 0.961500 1 0 1.000000
  0 -10.743800 10.743800 48.444401 0.000000 0.000000 1.000000 0.146800 0.853200 1 0 1.000000
end
