version 1
nodes
0 "blender_implicit" -1
1 "houndeye_pelvis" -1
2 "houndeye_head" 1
3 "houndeye_spine1" 1
4 "houndeye_spine2" 3
5 "houndeye_spine3" 4
6 "houndeye_backthigh" 5
7 "houndeye_backcalf" 6
8 "houndeye_backshin" 7
9 "houndeye_backfoot" 8
10 "houndeye_backclaw" 9
11 "houndeye_shoulder.L" 1
12 "houndeye_thigh.L" 11
13 "houndeye_calf.L" 12
14 "houndeye_foot.L" 13
15 "houndeye_claws.L" 14
16 "houndeye_shoulder.R" 1
17 "houndeye_thigh.R" 16
18 "houndeye_calf.R" 17
19 "houndeye_foot.R" 18
20 "houndeye_claws.R" 19
end
skeleton
time 0
0  0 0 0  0 0 0
1  0.000001 -7.408483 15.585282  -1.399425 0.314890 -1.061218
2  -0.015780 0.000001 -0.030139  1.015525 2.039109 -0.003040
3  -0.000000 0.000000 -0.000000  -1.327824 2.053106 0.000023
4  0.000000 3.071946 -0.000000  0.350699 -0.000010 0.000000
5  0.000000 3.323216 -0.000000  0.298026 0.000002 0.000001
6  0.000000 3.034511 -0.000001  1.514414 -0.000003 0.000003
7  -0.000000 3.881468 0.000000  -1.045310 -0.000002 -0.000003
8  0.000000 2.680578 -0.000000  0.846764 -0.000001 0.000002
9  -0.000000 1.151307 0.000000  1.206807 -0.000002 0.000003
10  -0.000000 0.492525 0.000000  0.048992 -0.000000 0.000000
11  -0.000000 1.028945 0.000000  -1.376866 -2.704085 0.287397
12  -0.000000 2.585541 0.000000  1.835920 -0.325709 -1.541711
13  0.000000 4.107505 0.000000  0.645527 0.024465 -0.059872
14  -0.000000 3.386353 -0.000000  1.075756 -0.007766 0.017599
15  0.000000 0.453329 0.000000  0.246739 0.001548 -0.012484
16  -0.000000 1.028945 0.000000  -1.109367 0.492127 0.295618
17  0.000001 2.585542 0.000000  1.835920 0.325709 1.541711
18  0.000000 4.107505 -0.000000  0.645527 -0.024465 0.059872
19  -0.000000 3.386353 -0.000001  1.154180 0.004168 -0.015835
20  -0.000000 0.580581 0.000000  0.159684 -0.000650 0.008127
time 1
0  0 0 0  0 0 0
1  0.000001 -7.384103 15.579156  -1.403053 0.308702 -1.062331
2  -0.015780 -0.000000 -0.030139  1.017414 2.039106 -0.002983
3  0.000000 -0.000001 -0.000000  -1.327824 2.053106 0.000023
4  -0.000000 3.071945 -0.000001  0.345137 -0.000010 0.000000
5  0.000000 3.323216 -0.000000  0.302659 0.000002 0.000001
6  -0.000000 3.034511 -0.000000  1.520356 -0.000003 0.000003
7  -0.000000 3.881469 0.000000  -1.072774 -0.000002 -0.000003
8  0.000000 2.680578 0.000001  0.846764 -0.000001 0.000002
9  -0.000000 1.151307 0.000000  1.229654 -0.000002 0.000003
10  0.000000 0.492525 0.000000  0.048992 -0.000000 0.000000
11  -0.000000 1.028945 -0.000000  -1.383114 -2.704179 0.286969
12  0.000000 2.585542 -0.000001  1.845840 -0.319605 -1.542638
13  0.000000 4.107505 0.000000  0.652155 0.024862 -0.059709
14  0.000000 3.386353 -0.000000  1.075756 -0.007766 0.017599
15  -0.000000 0.453330 -0.000000  0.246739 0.001548 -0.012484
16  -0.000000 1.028945 -0.000000  -1.103976 0.491968 0.295940
17  0.000000 2.585542 0.000000  1.813062 0.324896 1.542975
18  0.000000 4.107505 0.000000  0.645673 -0.023761 0.060404
19  0.000000 3.386353 0.000000  1.197683 -0.006086 -0.011119
20  0.000000 0.580581 0.000000  0.165318 -0.000868 0.009980
time 2
0  0 0 0  0 0 0
1  0.000001 -7.311050 15.559855  -1.413206 0.291238 -1.065331
2  -0.015780 0.000001 -0.030139  1.022731 2.039099 -0.002822
3  0.000000 0.000000 -0.000000  -1.327824 2.053106 0.000023
4  -0.000000 3.071946 0.000000  0.329467 -0.000010 0.000000
5  0.000000 3.323216 -0.000001  0.315918 0.000002 0.000001
6  0.000000 3.034512 -0.000000  1.537099 -0.000003 0.000003
7  0.000000 3.881468 -0.000000  -1.150422 -0.000002 -0.000003
8  0.000000 2.680578 -0.000000  0.846764 -0.000001 0.000002
9  0.000000 1.151307 0.000000  1.252541 -0.000002 0.000003
10  -0.000000 0.492525 0.000000  0.048992 -0.000000 0.000000
11  -0.000000 1.028945 0.000000  -1.400405 -2.704502 0.285797
12  -0.000000 2.585542 0.000001  1.873219 -0.302636 -1.544869
13  0.000000 4.107506 0.000000  0.671326 0.026003 -0.059221
14  0.000000 3.386352 -0.000000  1.075756 -0.007766 0.017599
15  0.000000 0.453329 -0.000000  0.246739 0.001548 -0.012484
16  -0.000000 1.028945 0.000000  -1.089092 0.491465 0.296792
17  -0.000000 2.585541 -0.000000  1.748943 0.322765 1.546621
18  -0.000000 4.107506 -0.000000  0.646755 -0.021818 0.061876
19  -0.000000 3.386352 -0.000000  1.301864 -0.031438 -0.001655
20  0.000000 0.580580 -0.000000  0.180902 -0.001524 0.015102
time 3
0  0 0 0  0 0 0
1  0.000001 -7.189456 15.525990  -1.428740 0.264106 -1.069589
2  -0.015780 -0.000000 -0.030139  1.030950 2.039089 -0.002574
3  0.000000 -0.000001 0.000000  -1.327824 2.053106 0.000023
4  -0.000000 3.071946 0.000000  0.305203 -0.000010 0.000000
5  -0.000000 3.323216 0.000001  0.336852 0.000001 0.000001
6  -0.000000 3.034511 -0.000000  1.563032 -0.000003 0.000003
7  -0.000000 3.881468 -0.000000  -1.272273 -0.000002 -0.000003
8  0.000000 2.680578 -0.000000  0.846764 -0.000001 0.000002
9  -0.000000 1.151307 0.000000  1.275461 -0.000002 0.000003
10  -0.000000 0.492525 -0.000000  0.048992 -0.000000 0.000000
11  0.000000 1.028945 -0.000000  -1.426568 -2.705109 0.284042
12  0.000000 2.585542 0.000000  1.914453 -0.276775 -1.547310
13  0.000000 4.107505 -0.000000  0.701985 0.027807 -0.058397
14  0.000000 3.386353 0.000000  1.075756 -0.007766 0.017599
15  -0.000000 0.453329 -0.000000  0.246739 0.001548 -0.012484
16  0.000000 1.028945 -0.000000  -1.066648 0.490571 0.297995
17  -0.000000 2.585542 0.000000  1.649691 0.319911 1.552527
18  0.000000 4.107506 0.000000  0.649738 -0.018888 0.064114
19  0.000000 3.386353 -0.000000  1.426483 -0.062890 0.006144
20  -0.000000 0.580581 -0.000000  0.204469 -0.002668 0.022827
time 4
0  0 0 0  0 0 0
1  0.000001 -7.019448 15.476174  -1.448507 0.228913 -1.074414
2  -0.015781 0.000000 -0.030139  1.041544 2.039078 -0.002254
3  -0.000000 -0.000000 -0.000000  -1.327824 2.053106 0.000023
4  -0.000000 3.071947 -0.000000  0.273857 -0.000010 0.000000
5  0.000000 3.323216 -0.000000  0.364514 0.000001 0.000001
6  0.000000 3.034511 -0.000000  1.596546 -0.000003 0.000003
7  0.000000 3.881469 -0.000000  -1.431943 -0.000003 -0.000003
8  0.000000 2.680578 -0.000000  0.846764 -0.000001 0.000002
9  -0.000000 1.151307 0.000000  1.298408 -0.000002 0.000003
10  0.000000 0.492524 -0.000000  0.048992 -0.000000 0.000000
11  -0.000000 1.028946 -0.000000  -1.459416 -2.706053 0.281857
12  -0.000000 2.585541 0.000000  1.965942 -0.244072 -1.548795
13  0.000000 4.107506 -0.000000  0.743099 0.030186 -0.057204
14  0.000000 3.386353 0.000000  1.075756 -0.007766 0.017599
15  0.000000 0.453329 0.000000  0.246739 0.001548 -0.012484
16  -0.000000 1.028946 -0.000000  -1.038586 0.489244 0.299363
17  0.000000 2.585541 0.000001  1.521747 0.317074 1.560528
18  -0.000000 4.107505 -0.000000  0.655595 -0.015233 0.066952
19  0.000000 3.386353 -0.000000  1.530580 -0.089728 0.009621
20  0.000000 0.580581 -0.000000  0.234039 -0.004361 0.032483
time 5
0  0 0 0  0 0 0
1  0.000001 -6.801160 15.409019  -1.471401 0.187315 -1.079145
2  -0.015781 0.000001 -0.030139  1.053989 2.039066 -0.001877
3  -0.000000 0.000001 -0.000000  -1.327824 2.053106 0.000023
4  -0.000000 3.071946 -0.000000  0.236958 -0.000010 0.000000
5  -0.000000 3.323216 -0.000001  0.397954 0.000001 0.000001
6  0.000000 3.034511 0.000000  1.636010 -0.000003 0.000003
7  -0.000000 3.881468 0.000000  -1.620581 -0.000003 -0.000003
8  0.000000 2.680578 -0.000000  0.846764 -0.000001 0.000002
9  -0.000000 1.151307 0.000000  1.321377 -0.000002 0.000003
10  0.000000 0.492525 0.000000  0.048992 -0.000000 0.000000
11  -0.000000 1.028946 0.000000  -1.496742 -2.707392 0.279388
12  -0.000000 2.585542 -0.000002  2.024130 -0.206745 -1.548373
13  -0.000000 4.107505 -0.000000  0.793650 0.033039 -0.055606
14  0.000000 3.386353 -0.000000  1.075756 -0.007766 0.017599
15  -0.000000 0.453329 0.000000  0.246739 0.001548 -0.012484
16  -0.000000 1.028946 0.000000  -1.006852 0.487450 0.300704
17  0.000000 2.585541 -0.000000  1.372886 0.315023 1.570224
18  -0.000000 4.107505 0.000000  0.665306 -0.011116 0.070239
19  -0.000000 3.386353 -0.000000  1.574030 -0.100998 0.010241
20  0.000000 0.580581 0.000000  0.267614 -0.006631 0.043388
time 6
0  0 0 0  0 0 0
1  0.000001 -6.534718 15.323139  -1.496392 0.141043 -1.083231
2  -0.015781 -0.000000 -0.030139  1.067757 2.039056 -0.001461
3  0.000000 -0.000000 -0.000000  -1.327824 2.053106 0.000023
4  -0.000000 3.071946 0.000001  0.196065 -0.000010 0.000000
5  -0.000000 3.323216 -0.000000  0.436217 0.000001 0.000001
6  0.000000 3.034511 0.000000  1.679759 -0.000003 0.000003
7  -0.000000 3.881469 -0.000000  -1.825834 -0.000004 -0.000003
8  -0.000000 2.680578 0.000000  0.846764 -0.000001 0.000002
9  0.000000 1.151307 0.000000  1.344360 -0.000002 0.000003
10  -0.000000 0.492525 0.000000  0.048992 -0.000000 0.000000
11  -0.000000 1.028945 -0.000000  -1.536315 -2.709203 0.276777
12  0.000000 2.585541 0.000000  2.085526 -0.167183 -1.545519
13  -0.000000 4.107505 0.000000  0.852637 0.036261 -0.053562
14  0.000000 3.386353 -0.000000  1.075756 -0.007766 0.017599
15  -0.000000 0.453329 0.000000  0.246739 0.001548 -0.012484
16  -0.000000 1.028945 -0.000000  -0.973390 0.485169 0.301825
17  -0.000000 2.585542 0.000000  1.212604 0.314369 1.580894
18  -0.000000 4.107505 0.000000  0.679871 -0.006810 0.073831
19  -0.000000 3.386352 0.000000  1.552889 -0.099020 0.010693
20  -0.000000 0.580581 -0.000000  0.303180 -0.009435 0.054859
time 7
0  0 0 0  0 0 0
1  0.000001 -6.220255 15.217147  -1.522524 0.091907 -1.086269
2  -0.015781 0.000002 -0.030139  1.082318 2.039048 -0.001020
3  -0.000000 0.000001 0.000000  -1.327824 2.053106 0.000023
4  -0.000000 3.071946 -0.000001  0.152762 -0.000010 0.000000
5  0.000000 3.323216 0.000000  0.478343 0.000001 0.000001
6  0.000000 3.034511 0.000000  1.726096 -0.000004 0.000003
7  -0.000000 3.881469 0.000000  -2.032547 -0.000004 -0.000003
8  0.000000 2.680578 0.000000  0.846764 -0.000001 0.000002
9  0.000000 1.151307 -0.000001  1.367353 -0.000002 0.000003
10  -0.000000 0.492525 -0.000000  0.048992 -0.000000 0.000000
11  -0.000000 1.028946 -0.000000  -1.575891 -2.711580 0.274162
12  -0.000000 2.585541 0.000000  2.146698 -0.127853 -1.540236
13  0.000000 4.107505 -0.000000  0.919068 0.039738 -0.051037
14  0.000000 3.386353 -0.000000  1.075756 -0.007766 0.017599
15  -0.000000 0.453329 -0.000000  0.246739 0.001548 -0.012484
16  -0.000000 1.028946 -0.000000  -0.940131 0.482397 0.302540
17  0.000000 2.585542 -0.000000  1.051677 0.315349 1.591579
18  0.000000 4.107505 0.000000  0.700312 -0.002591 0.077593
19  0.000000 3.386353 0.000000  1.498250 -0.093051 0.011463
20  -0.000000 0.580581 0.000000  0.338712 -0.012644 0.066223
time 8
0  0 0 0  0 0 0
1  0.000001 -5.857901 15.089653  -1.548909 0.041778 -1.088032
2  -0.015780 0.000000 -0.030139  1.097145 2.039042 -0.000570
3  0.000000 0.000000 -0.000000  -1.327824 2.053106 0.000023
4  0.000000 3.071946 -0.000001  0.108652 -0.000010 0.000000
5  0.000000 3.323216 0.000000  0.523366 0.000001 0.000002
6  -0.000000 3.034512 -0.000000  1.773299 -0.000004 0.000003
7  -0.000000 3.881468 0.000000  -2.225083 -0.000005 -0.000002
8  0.000000 2.680578 -0.000000  0.846764 -0.000001 0.000002
9  -0.000000 1.151307 0.000000  1.390348 -0.000003 0.000003
10  0.000000 0.492524 0.000000  0.048992 -0.000000 0.000000
11  0.000000 1.028945 -0.000000  -1.613235 -2.714637 0.271684
12  0.000000 2.585542 -0.000001  2.204260 -0.091168 -1.533084
13  0.000000 4.107505 0.000001  0.991965 0.043349 -0.048009
14  0.000000 3.386352 0.000000  1.075756 -0.007766 0.017599
15  0.000000 0.453329 -0.000000  0.246739 0.001548 -0.012484
16  0.000000 1.028945 -0.000000  -0.908985 0.479142 0.302677
17  0.000000 2.585541 0.000000  0.901067 0.317730 1.601311
18  -0.000000 4.107504 -0.000000  0.727687 0.001255 0.081387
19  0.000000 3.386353 0.000000  1.423387 -0.083093 0.011483
20  0.000000 0.580581 0.000000  0.372196 -0.016040 0.076832
time 9
0  0 0 0  0 0 0
1  0.000001 -5.447785 14.939272  -1.574696 -0.007448 -1.088475
2  -0.015781 0.000002 -0.030139  1.111707 2.039040 -0.000129
3  -0.000000 0.000001 -0.000000  -1.327824 2.053106 0.000023
4  0.000000 3.071946 -0.000000  0.065348 -0.000010 0.000000
5  -0.000000 3.323216 -0.000000  0.570323 0.000001 0.000002
6  -0.000000 3.034511 0.000000  1.819636 -0.000004 0.000003
7  -0.000000 3.881468 -0.000000  -2.389896 -0.000005 -0.000002
8  -0.000000 2.680578 0.000000  0.846764 -0.000001 0.000002
9  0.000000 1.151307 0.000000  1.413341 -0.000003 0.000003
10  -0.000000 0.492525 -0.000000  0.048992 -0.000000 0.000000
11  0.000000 1.028946 0.000000  -1.646133 -2.718509 0.269488
12  0.000000 2.585542 -0.000000  2.254852 -0.059361 -1.525092
13  -0.000000 4.107504 -0.000000  1.070370 0.046975 -0.044467
14  -0.000000 3.386353 0.000001  1.075756 -0.007766 0.017599
15  -0.000001 0.453329 0.000001  0.246739 0.001548 -0.012484
16  0.000000 1.028946 0.000000  -0.881829 0.475414 0.302080
17  0.000000 2.585541 -0.000000  0.770755 0.320889 1.609348
18  0.000000 4.107504 -0.000000  0.763095 0.004441 0.085061
19  -0.000000 3.386353 0.000000  1.341845 -0.069325 0.009668
20  -0.000000 0.580581 0.000000  0.401636 -0.019321 0.086071
time 10
0  0 0 0  0 0 0
1  0.000001 -4.990038 14.764618  -1.599041 -0.053890 -1.087728
2  -0.015781 0.000001 -0.030139  1.125475 2.039041 0.000289
3  -0.000000 -0.000000 -0.000000  -1.327824 2.053106 0.000023
4  -0.000000 3.071946 0.000001  0.024455 -0.000010 -0.000000
5  0.000000 3.323216 -0.000000  0.618256 0.000001 0.000002
6  0.000000 3.034511 0.000000  1.863385 -0.000004 0.000003
7  -0.000000 3.881469 -0.000000  -2.516738 -0.000006 -0.000002
8  0.000000 2.680578 0.000000  0.846764 -0.000001 0.000002
9  -0.000000 1.151307 0.000000  1.436324 -0.000003 0.000003
10  0.000000 0.492525 -0.000000  0.048992 -0.000000 0.000000
11  -0.000000 1.028945 0.000000  -1.672405 -2.723347 0.267738
12  0.000000 2.585541 0.000000  2.295128 -0.034430 -1.517618
13  -0.000000 4.107506 -0.000000  1.153357 0.050497 -0.040422
14  -0.000000 3.386353 -0.000000  1.075756 -0.007766 0.017599
15  -0.000000 0.453330 -0.000000  0.246739 0.001548 -0.012484
16  -0.000000 1.028945 0.000000  -0.860517 0.471224 0.300614
17  -0.000000 2.585541 -0.000000  0.669136 0.324022 1.615277
18  -0.000000 4.107506 0.000000  0.807677 0.006679 0.088435
19  0.000000 3.386353 0.000000  1.267263 -0.052076 0.005212
20  0.000000 0.580581 0.000000  0.425068 -0.022128 0.093360
time 11
0  0 0 0  0 0 0
1  0.000001 -4.484789 14.564299  -1.621081 -0.095712 -1.086081
2  -0.015781 0.000001 -0.030139  1.137920 2.039043 0.000666
3  -0.000000 0.000001 0.000000  -1.327824 2.053106 0.000023
4  -0.000000 3.071946 0.000000  -0.012443 -0.000010 -0.000000
5  -0.000000 3.323216 -0.000000  0.666223 0.000001 0.000002
6  0.000000 3.034511 0.000000  1.902849 -0.000004 0.000003
7  -0.000000 3.881468 -0.000000  -2.598013 -0.000006 -0.000002
8  -0.000000 2.680578 -0.000000  0.846764 -0.000001 0.000002
9  -0.000000 1.151307 0.000000  1.459293 -0.000003 0.000003
10  0.000000 0.492525 -0.000000  0.048992 -0.000000 0.000000
11  -0.000000 1.028946 -0.000000  -1.689902 -2.729315 0.266629
12  -0.000000 2.585542 -0.000000  2.321750 -0.018178 -1.512151
13  -0.000000 4.107505 0.000001  1.240047 0.053805 -0.035900
14  -0.000000 3.386353 0.000000  1.075756 -0.007766 0.017599
15  -0.000000 0.453330 0.000000  0.246739 0.001548 -0.012484
16  -0.000000 1.028946 -0.000000  -0.846882 0.466565 0.298167
17  -0.000000 2.585541 0.000000  0.603253 0.326351 1.618929
18  0.000000 4.107505 0.000001  0.862616 0.007690 0.091283
19  -0.000000 3.386353 0.000000  1.213017 -0.031603 -0.002157
20  -0.000000 0.580581 -0.000000  0.440548 -0.024077 0.098143
time 12
0  0 0 0  0 0 0
1  0.000001 -3.932171 14.336931  -1.639912 -0.131151 -1.083949
2  -0.015781 -0.000001 -0.030138  1.148516 2.039047 0.000987
3  0.000000 -0.000001 0.000000  -1.327824 2.053106 0.000023
4  -0.000000 3.071946 0.000000  -0.043789 -0.000010 -0.000000
5  -0.000000 3.323217 -0.000000  0.713303 0.000001 0.000002
6  0.000000 3.034511 0.000000  1.936363 -0.000004 0.000003
7  0.000000 3.881468 0.000000  -2.626840 -0.000006 -0.000002
8  0.000000 2.680578 0.000000  0.846764 -0.000001 0.000002
9  -0.000000 1.151307 -0.000000  1.482240 -0.000003 0.000003
10  -0.000000 0.492525 0.000000  0.048992 -0.000000 0.000000
11  0.000000 1.028945 0.000000  -1.696493 -2.736579 0.266403
12  -0.000000 2.585541 0.000000  2.331371 -0.012353 -1.510074
13  -0.000000 4.107506 -0.000000  1.329629 0.056797 -0.030945
14  0.000000 3.386352 -0.000000  1.075756 -0.007766 0.017599
15  0.000000 0.453330 0.000000  0.246739 0.001548 -0.012484
16  0.000000 1.028945 0.000000  -0.842766 0.461401 0.294655
17  -0.000000 2.585542 -0.000001  0.579722 0.327236 1.620193
18  0.000000 4.107505 -0.000000  0.929109 0.007223 0.093311
19  -0.000000 3.386353 0.000000  1.192111 -0.007795 -0.012026
20  0.000000 0.580581 0.000000  0.446141 -0.024800 0.099864
time 13
0  0 0 0  0 0 0
1  0.000001 -3.334815 14.102435  -1.654584 -0.158510 -1.081831
2  -0.015781 0.000000 -0.030139  1.156736 2.039051 0.001236
3  0.000000 0.000000 -0.000000  -1.327824 2.053106 0.000023
4  -0.000000 3.071946 0.000000  -0.068054 -0.000010 -0.000000
5  0.000000 3.323216 -0.000000  0.758602 0.000001 0.000002
6  -0.000000 3.034511 -0.000000  1.962296 -0.000004 0.000003
7  -0.000000 3.881468 -0.000000  -2.609003 -0.000006 -0.000002
8  -0.000000 2.680578 0.000000  0.846764 -0.000001 0.000002
9  0.000000 1.151307 0.000000  1.505160 -0.000003 0.000003
10  0.000000 0.492525 -0.000000  0.048992 -0.000000 0.000000
11  -0.000000 1.028946 0.000000  1.446361 -0.388715 -2.874307
12  0.000000 2.585541 0.000000  2.324441 -0.080383 -1.524661
13  -0.000000 4.107506 -0.000001  1.422038 0.059407 -0.025575
14  0.000000 3.386354 -0.000000  1.075756 -0.007766 0.017599
15  -0.000000 0.453330 -0.000001  0.246739 0.001548 -0.012484
16  -0.000000 1.028946 0.000000  -0.881727 0.452375 0.258261
17  -0.000000 2.585541 -0.000001  0.586382 0.326651 1.599540
18  -0.000000 4.107504 -0.000000  1.287939 -0.024147 0.073268
19  0.000000 3.386353 -0.000000  1.200701 0.021385 -0.019397
20  -0.000000 0.580581 -0.000000  0.443607 -0.024471 0.099084
time 14
0  0 0 0  0 0 0
1  0.000001 -2.705368 13.965977  -1.664114 -0.176139 -1.080244
2  -0.015781 0.000001 -0.030139  1.162053 2.039054 0.001397
3  -0.000000 0.000000 0.000000  -1.327824 2.053106 0.000023
4  -0.000000 3.071946 0.000000  -0.083723 -0.000010 -0.000000
5  0.000000 3.323216 0.000000  0.801256 0.000001 0.000002
6  0.000000 3.034511 -0.000001  1.979039 -0.000004 0.000003
7  0.000000 3.881468 0.000000  -2.565700 -0.000006 -0.000002
8  -0.000000 2.680578 -0.000000  0.846764 -0.000001 0.000002
9  -0.000000 1.151307 0.000000  1.528047 -0.000003 0.000003
10  0.000000 0.492525 0.000000  0.048992 -0.000000 0.000000
11  -0.000000 1.028946 -0.000000  1.450087 -0.358986 -2.871672
12  0.000000 2.585541 0.000000  2.287351 -0.217473 -1.547233
13  0.000000 4.107506 0.000000  1.515536 0.061532 -0.019921
14  -0.000001 3.386353 0.000000  1.075756 -0.007766 0.017599
15  0.000000 0.453330 -0.000001  0.246739 0.001548 -0.012484
16  -0.000000 1.028946 -0.000000  -0.982085 0.431781 0.169605
17  0.000000 2.585541 0.000000  0.622578 0.325691 1.561783
18  -0.000000 4.107505 0.000000  1.894713 -0.058215 0.012367
19  -0.000000 3.386352 0.000000  1.224727 0.056770 -0.020031
20  0.000000 0.580581 0.000000  0.436391 -0.023547 0.096861
time 15
0  0 0 0  0 0 0
1  0.000001 -2.058982 14.054029  -1.667509 -0.182389 -1.079638
2  -0.015781 0.000001 -0.030138  1.163942 2.039056 0.001454
3  -0.000000 0.000000 0.000000  -1.327824 2.053106 0.000023
4  0.000000 3.071946 -0.000000  -0.089286 -0.000010 -0.000000
5  0.000000 3.323216 -0.000000  0.840424 0.000001 0.000002
6  -0.000000 3.034511 0.000000  1.984981 -0.000004 0.000003
7  -0.000000 3.881469 0.000000  -2.511773 -0.000005 -0.000002
8  -0.000000 2.680578 -0.000000  0.846764 -0.000001 0.000002
9  -0.000000 1.151307 -0.000000  1.550894 -0.000003 0.000003
10  -0.000000 0.492525 -0.000000  0.048992 -0.000000 0.000000
11  0.000000 1.028946 0.000000  1.454989 -0.320699 -2.866392
12  -0.000000 2.585541 0.000000  2.186206 -0.325709 -1.541711
13  0.000000 4.107506 -0.000000  1.606526 0.063085 -0.014251
14  0.000001 3.386353 0.000000  1.075756 -0.007766 0.017599
15  0.000000 0.453329 -0.000001  0.246739 0.001548 -0.012484
16  0.000000 1.028946 0.000000  -1.120488 0.391337 0.049743
17  0.000000 2.585541 0.000000  0.712981 0.325708 1.541711
18  -0.000000 4.107505 0.000000  2.193167 -0.060438 -0.023029
19  0.000000 3.386353 0.000000  1.261931 0.096846 -0.013953
20  0.000000 0.580581 -0.000000  0.425068 -0.022128 0.093360
time 16
0  0 0 0  0 0 0
1  0.000001 -1.417374 14.446180  -1.664115 -0.176139 -1.080244
2  -0.015781 0.000000 -0.030138  1.162053 2.039055 0.001397
3  -0.000000 -0.000000 0.000000  -1.327824 2.053106 0.000023
4  -0.000000 3.071946 -0.000000  -0.052968 -0.000010 -0.000000
5  -0.000000 3.323216 0.000000  0.875230 0.000001 0.000002
6  -0.000000 3.034511 -0.000000  1.923383 -0.000004 0.000003
7  -0.000000 3.881469 -0.000000  -2.457632 -0.000005 -0.000002
8  0.000000 2.680578 0.000000  0.846764 -0.000001 0.000002
9  0.000000 1.151307 -0.000000  1.528047 -0.000003 0.000003
10  -0.000000 0.492524 0.000000  0.048992 -0.000000 0.000000
11  -0.000000 1.028945 0.000000  1.459901 -0.278740 -2.857698
12  0.000000 2.585542 -0.000000  1.925935 -0.374216 -1.505448
13  0.000000 4.107506 -0.000000  1.691007 0.064061 -0.008881
14  -0.000001 3.386353 -0.000000  1.075756 -0.007766 0.017599
15  -0.000000 0.453330 0.000000  0.246739 0.001548 -0.012484
16  -0.000000 1.028945 0.000000  -1.270497 0.327957 -0.077311
17  -0.000000 2.585542 0.000000  0.882895 0.320986 1.575953
18  -0.000000 4.107505 -0.000000  2.096446 -0.048672 -0.007829
19  0.000000 3.386353 -0.000000  1.310135 0.139816 -0.001233
20  -0.000000 0.580581 -0.000000  0.410211 -0.020328 0.088745
time 17
0  0 0 0  0 0 0
1  0.000001 -0.835622 15.053493  -1.654584 -0.158510 -1.081831
2  -0.015781 -0.000001 -0.030139  1.156736 2.039051 0.001236
3  0.000000 -0.000000 0.000000  -1.327824 2.053106 0.000023
4  0.000000 3.071946 -0.000001  0.035285 -0.000010 -0.000000
5  0.000000 3.323216 0.000000  0.904553 0.000001 0.000002
6  -0.000000 3.034511 -0.000000  1.774351 -0.000004 0.000003
7  -0.000000 3.881469 0.000000  -2.400998 -0.000005 -0.000002
8  0.000000 2.680578 -0.000000  0.846764 -0.000001 0.000002
9  -0.000000 1.151307 0.000001  1.505160 -0.000003 0.000003
10  -0.000000 0.492525 0.000000  0.048992 -0.000000 0.000000
11  -0.000000 1.028945 0.000000  1.463728 -0.237967 -2.844959
12  0.000000 2.585541 0.000000  1.490016 -0.392969 -1.457607
13  0.000000 4.107505 0.000000  1.764668 0.064540 -0.004146
14  -0.000000 3.386353 -0.000000  1.075756 -0.007766 0.017599
15  -0.000000 0.453329 -0.000000  0.246739 0.001548 -0.012484
16  -0.000000 1.028945 0.000000  -1.407980 0.249079 -0.190280
17  0.000000 2.585542 0.000001  1.113021 0.296781 1.656048
18  -0.000000 4.107505 0.000000  1.854626 -0.013200 0.024706
19  0.000000 3.386353 0.000000  1.367081 0.183684 0.017820
20  -0.000000 0.580581 0.000000  0.392394 -0.018261 0.083180
time 18
0  0 0 0  0 0 0
1  0.000001 -0.378915 15.749656  -1.639912 -0.131151 -1.083949
2  -0.015781 -0.000001 -0.030139  1.148516 2.039047 0.000987
3  -0.000000 -0.000000 0.000000  -1.327824 2.053106 0.000023
4  0.000000 3.071946 -0.000000  0.143802 -0.000010 0.000000
5  -0.000000 3.323216 0.000000  0.927137 0.000000 0.000002
6  -0.000000 3.034511 0.000000  1.594458 -0.000003 0.000003
7  -0.000000 3.881469 0.000000  -2.336602 -0.000005 -0.000002
8  0.000000 2.680578 -0.000000  0.846764 -0.000001 0.000002
9  0.000000 1.151307 0.000000  1.482240 -0.000003 0.000003
10  -0.000000 0.492525 0.000000  0.048992 -0.000000 0.000000
11  -0.000000 1.028945 0.000000  1.465338 -0.203152 -2.827638
12  -0.000000 2.585541 -0.000000  1.008871 -0.380004 -1.417099
13  -0.000000 4.107505 -0.000000  1.823001 0.064671 -0.000379
14  0.000000 3.386353 -0.000000  1.075756 -0.007766 0.017599
15  0.000000 0.453329 -0.000000  0.246739 0.001548 -0.012484
16  -0.000000 1.028945 0.000000  -1.516544 0.170772 -0.276216
17  -0.000000 2.585541 0.000000  1.355388 0.247941 1.743573
18  -0.000000 4.107504 -0.000000  1.552285 0.040655 0.052059
19  0.000000 3.386353 -0.000000  1.430268 0.226398 0.042491
20  0.000000 0.580581 0.000000  0.372195 -0.016040 0.076832
time 19
0  0 0 0  0 0 0
1  0.000001 -0.112446 16.408352  -1.621081 -0.095712 -1.086081
2  -0.015781 0.000001 -0.030139  1.137920 2.039043 0.000666
3  -0.000000 -0.000000 -0.000000  -1.327824 2.053106 0.000023
4  0.000000 3.071946 -0.000000  0.239885 -0.000010 0.000000
5  0.000000 3.323216 0.000000  0.941669 0.000000 0.000003
6  0.000000 3.034511 -0.000000  1.444179 -0.000003 0.000003
7  0.000000 3.881469 0.000000  -2.259051 -0.000005 -0.000002
8  0.000000 2.680578 0.000000  0.846764 -0.000001 0.000002
9  0.000000 1.151307 0.000000  1.459293 -0.000003 0.000003
10  0.000000 0.492525 -0.000000  0.048992 -0.000000 0.000000
11  -0.000000 1.028945 0.000000  1.463423 -0.178953 -2.805193
12  -0.000000 2.585542 -0.000000  0.646723 -0.356628 -1.400391
13  -0.000000 4.107505 0.000000  1.861398 0.064638 0.002103
14  0.000000 3.386353 -0.000000  1.075756 -0.007766 0.017599
15  -0.000000 0.453329 0.000000  0.246739 0.001548 -0.012484
16  -0.000000 1.028945 0.000000  -1.586971 0.111710 -0.329921
17  0.000000 2.585541 -0.000000  1.560856 0.191395 1.804643
18  -0.000000 4.107505 -0.000000  1.295827 0.091082 0.061808
19  -0.000000 3.386352 -0.000000  1.496842 0.266030 0.071532
20  -0.000000 0.580581 0.000000  0.350200 -0.013769 0.069874
time 20
0  0 0 0  0 0 0
1  0.000001 -0.101404 16.903265  -1.599041 -0.053890 -1.087728
2  -0.015781 0.000001 -0.030139  1.125475 2.039041 0.000289
3  -0.000000 -0.000000 -0.000000  -1.327824 2.053106 0.000023
4  0.000000 3.071946 -0.000000  0.290996 -0.000010 0.000000
5  0.000000 3.323216 0.000000  0.946808 0.000000 0.000003
6  0.000000 3.034511 -0.000000  1.381942 -0.000003 0.000003
7  0.000000 3.881468 0.000000  -2.162751 -0.000005 -0.000002
8  0.000000 2.680578 0.000000  0.846764 -0.000001 0.000002
9  -0.000000 1.151307 -0.000000  1.436324 -0.000003 0.000003
10  -0.000000 0.492525 -0.000000  0.048992 -0.000000 0.000000
11  -0.000000 1.028946 0.000000  1.456320 -0.169919 -2.776923
12  0.000000 2.585542 -0.000001  0.509368 -0.345964 -1.398161
13  -0.000000 4.107505 0.000001  1.875223 0.064603 0.002995
14  0.000000 3.386353 0.000000  1.075756 -0.007766 0.017599
15  0.000000 0.453329 0.000000  0.246739 0.001548 -0.012484
16  -0.000000 1.028946 0.000000  -1.612361 0.088765 -0.348804
17  0.000000 2.585541 0.000000  1.691248 0.158647 1.821108
18  0.000000 4.107505 -0.000001  1.189360 0.112405 0.062004
19  0.000000 3.386353 0.000001  1.563542 0.300974 0.103133
20  0.000000 0.580582 0.000000  0.326996 -0.011541 0.062487
time 21
0  0 0 0  0 0 0
1  0.000001 -0.418108 17.166807  -1.574696 -0.007448 -1.088475
2  -0.015781 0.000002 -0.030139  1.111707 2.039040 -0.000129
3  0.000000 0.000001 0.000000  -1.327824 2.053106 0.000023
4  0.000000 3.071946 0.000000  0.307230 -0.000010 0.000000
5  0.000000 3.323215 -0.000000  0.928810 0.000001 0.000003
6  -0.000000 3.034511 -0.000000  1.385903 -0.000003 0.000003
7  0.000000 3.881469 -0.000000  -2.043866 -0.000004 -0.000003
8  0.000000 2.680578 -0.000000  0.846764 -0.000001 0.000002
9  -0.000000 1.151307 0.000000  1.413341 -0.000003 0.000003
10  -0.000000 0.492525 -0.000000  0.048992 -0.000000 0.000000
11  0.000000 1.028946 0.000000  1.410719 -0.220081 -2.744402
12  -0.000000 2.585542 0.000000  0.700447 -0.380820 -1.462454
13  0.000001 4.107505 0.000000  1.872719 0.059918 0.001955
14  0.000000 3.386353 0.000000  1.075756 -0.007766 0.017599
15  -0.000001 0.453329 0.000000  0.246739 0.001548 -0.012484
16  0.000000 1.028946 0.000000  -1.581837 0.162752 -0.254801
17  0.000000 2.585541 0.000001  1.758798 0.206445 1.789959
18  -0.000000 4.107505 -0.000000  1.273919 0.091454 0.042593
19  -0.000000 3.386353 -0.000000  1.626747 0.330102 0.134980
20  -0.000000 0.580581 -0.000000  0.303180 -0.009435 0.054859
time 22
0  0 0 0  0 0 0
1  0.000001 -1.038495 17.240973  -1.548909 0.041778 -1.088032
2  -0.015781 0.000001 -0.030139  1.097145 2.039042 -0.000570
3  -0.000000 0.000001 0.000000  -1.327824 2.053106 0.000023
4  0.000000 3.071946 -0.000000  0.320201 -0.000010 0.000000
5  -0.000000 3.323216 -0.000000  0.879750 0.000001 0.000002
6  -0.000000 3.034510 0.000000  1.396119 -0.000003 0.000003
7  0.000000 3.881469 -0.000000  -1.906413 -0.000004 -0.000003
8  -0.000000 2.680578 0.000000  0.846764 -0.000001 0.000002
9  0.000000 1.151307 -0.000000  1.390348 -0.000003 0.000003
10  0.000000 0.492524 0.000000  0.048992 -0.000000 0.000000
11  -0.000000 1.028946 0.000000  1.310616 -0.338625 -2.702785
12  -0.000000 2.585541 0.000000  1.252089 -0.408823 -1.668496
13  0.000000 4.107505 0.000001  1.856282 0.048861 -0.001137
14  -0.000001 3.386353 -0.000000  1.075756 -0.007766 0.017599
15  -0.000001 0.453329 0.000000  0.246739 0.001548 -0.012484
16  -0.000000 1.028946 0.000000  -1.466564 0.333478 -0.000368
17  0.000000 2.585541 -0.000000  1.796708 0.336892 1.731400
18  -0.000000 4.107504 -0.000000  1.477592 0.047620 -0.009953
19  0.000000 3.386353 -0.000000  1.682599 0.352815 0.164420
20  0.000000 0.580580 -0.000000  0.279348 -0.007510 0.047182
time 23
0  0 0 0  0 0 0
1  0.000001 -1.883185 17.163832  -1.522524 0.091907 -1.086269
2  -0.015781 0.000001 -0.030139  1.082318 2.039048 -0.001020
3  -0.000000 -0.000000 0.000000  -1.327824 2.053106 0.000023
4  0.000000 3.071946 -0.000001  0.330284 -0.000010 0.000000
5  0.000000 3.323216 -0.000001  0.806993 0.000001 0.000002
6  0.000000 3.034510 0.000000  1.411009 -0.000003 0.000003
7  -0.000000 3.881469 0.000000  -1.757417 -0.000004 -0.000003
8  -0.000000 2.680578 0.000000  0.846764 -0.000001 0.000002
9  -0.000000 1.151307 0.000000  1.367353 -0.000002 0.000003
10  0.000000 0.492525 0.000000  0.048992 -0.000000 0.000000
11  -0.000000 1.028945 0.000000  1.182039 -0.475984 -2.644717
12  0.000000 2.585541 -0.000000  1.971329 -0.283989 -1.906986
13  0.000000 4.107506 0.000000  1.812135 0.035718 -0.005988
14  0.000000 3.386353 -0.000000  1.075756 -0.007766 0.017599
15  0.000001 0.453329 0.000000  0.246739 0.001548 -0.012484
16  -0.000000 1.028945 0.000000  -1.240528 0.492516 0.367079
17  0.000000 2.585542 0.000000  1.804560 0.496338 1.662316
18  0.000000 4.107505 0.000000  1.719306 0.008921 -0.080533
19  -0.000001 3.386353 0.000001  1.727170 0.368968 0.188669
20  -0.000000 0.580581 -0.000000  0.256101 -0.005811 0.039657
time 24
0  0 0 0  0 0 0
1  0.000001 -2.872795 16.973459  -1.496392 0.141043 -1.083231
2  -0.015781 0.000001 -0.030139  1.067757 2.039056 -0.001461
3  0.000000 0.000000 0.000000  -1.327824 2.053106 0.000023
4  -0.000000 3.071946 0.000000  0.337851 -0.000010 0.000000
5  0.000000 3.323216 0.000000  0.718158 0.000001 0.000002
6  0.000000 3.034511 0.000000  1.429003 -0.000003 0.000003
7  -0.000000 3.881469 -0.000000  -1.604963 -0.000003 -0.000003
8  -0.000000 2.680578 -0.000000  0.846764 -0.000001 0.000002
9  0.000000 1.151307 0.000000  1.344360 -0.000002 0.000003
10  -0.000000 0.492525 0.000000  0.048992 -0.000000 0.000000
11  0.000000 1.028946 0.000000  1.062556 -0.584530 -2.581679
12  -0.000000 2.585541 -0.000000  2.482680 -0.098028 -1.990140
13  -0.000000 4.107505 -0.000001  1.725195 0.024484 -0.012188
14  0.000000 3.386352 0.000001  1.075756 -0.007766 0.017599
15  0.000000 0.453330 0.000000  0.246739 0.001548 -0.012484
16  0.000000 1.028946 0.000000  -0.982707 0.551289 0.711015
17  -0.000000 2.585542 -0.000001  1.790653 0.629007 1.599102
18  -0.000000 4.107505 0.000000  1.915499 -0.013294 -0.141441
19  -0.000000 3.386353 0.000000  1.756605 0.378664 0.205015
20  -0.000000 0.580581 -0.000000  0.234039 -0.004361 0.032483
time 25
0  0 0 0  0 0 0
1  0.000001 -3.927947 16.707922  -1.471401 0.187315 -1.079146
2  -0.015781 0.000000 -0.030139  1.053989 2.039066 -0.001877
3  0.000000 -0.000000 0.000000  -1.327824 2.053106 0.000023
4  -0.000000 3.071946 0.000000  0.343268 -0.000010 0.000000
5  -0.000000 3.323216 -0.000000  0.621261 0.000001 0.000002
6  0.000000 3.034511 -0.000000  1.448540 -0.000003 0.000003
7  0.000000 3.881468 -0.000000  -1.457559 -0.000003 -0.000003
8  -0.000000 2.680578 0.000000  0.846764 -0.000001 0.000002
9  -0.000000 1.151307 0.000000  1.321377 -0.000002 0.000003
10  0.000000 0.492525 -0.000000  0.048992 -0.000000 0.000000
11  0.000000 1.028946 0.000000  1.008595 -0.627556 -2.550593
12  -0.000001 2.585542 0.000001  2.650816 -0.019030 -1.983051
13  0.000000 4.107505 0.000000  1.578084 0.018980 -0.019888
14  0.000000 3.386353 0.000000  1.075756 -0.007766 0.017599
15  -0.000001 0.453329 0.000000  0.246739 0.001548 -0.012484
16  0.000000 1.028946 0.000000  -0.831532 0.541491 0.849240
17  0.000001 2.585541 0.000000  1.778927 0.683762 1.569864
18  0.000000 4.107505 -0.000000  1.995858 -0.027729 -0.164762
19  -0.000000 3.386353 -0.000000  1.767208 0.381947 0.210966
20  0.000000 0.580581 0.000000  0.213756 -0.003169 0.025865
time 26
0  0 0 0  0 0 0
1  0.000001 -4.969258 16.405294  -1.448507 0.228913 -1.074414
2  -0.015781 0.000001 -0.030139  1.041545 2.039078 -0.002254
3  -0.000000 0.000001 -0.000000  -1.327824 2.053106 0.000023
4  -0.000000 3.071946 0.000001  0.346896 -0.000010 0.000000
5  0.000000 3.323216 -0.000000  0.524570 0.000001 0.000002
6  -0.000000 3.034510 -0.000000  1.468051 -0.000003 0.000003
7  -0.000000 3.881468 -0.000000  -1.323325 -0.000002 -0.000003
8  -0.000000 2.680578 0.000000  0.846764 -0.000001 0.000002
9  0.000000 1.151307 -0.000000  1.298408 -0.000002 0.000003
10  0.000000 0.492525 -0.000000  0.048992 -0.000000 0.000000
11  0.000000 1.028946 0.000000  1.102634 -0.549361 -2.664553
12  -0.000001 2.585541 0.000000  2.594010 -0.018308 -1.832405
13  -0.000000 4.107506 -0.000000  1.358890 0.019563 -0.029452
14  0.000001 3.386353 -0.000000  1.075756 -0.007766 0.017599
15  -0.000000 0.453328 0.000000  0.246739 0.001548 -0.012484
16  0.000000 1.028946 0.000000  -0.845409 0.496994 0.700734
17  -0.000000 2.585541 -0.000000  1.608110 0.639950 1.553146
18  0.000001 4.107505 0.000000  1.863648 -0.050596 -0.141840
19  -0.000000 3.386353 -0.000000  1.697296 0.350568 0.175774
20  -0.000000 0.580581 -0.000000  0.195848 -0.002229 0.020004
time 27
0  0 0 0  0 0 0
1  0.000001 -5.917347 16.103647  -1.428740 0.264106 -1.069590
2  -0.015781 -0.000001 -0.030139  1.030949 2.039089 -0.002574
3  -0.000000 -0.000001 0.000000  -1.327824 2.053106 0.000023
4  -0.000000 3.071946 0.000000  0.349095 -0.000010 0.000000
5  -0.000000 3.323216 -0.000000  0.436288 0.000001 0.000001
6  -0.000000 3.034511 -0.000000  1.485969 -0.000003 0.000003
7  0.000000 3.881467 0.000000  -1.209376 -0.000002 -0.000003
8  0.000000 2.680578 0.000000  0.846764 -0.000001 0.000002
9  0.000000 1.151307 -0.000000  1.275461 -0.000002 0.000003
10  -0.000000 0.492525 0.000000  0.048992 -0.000000 0.000000
11  -0.000000 1.028945 0.000000  1.277936 -0.383776 -2.841151
12  -0.000001 2.585541 -0.000000  2.460499 -0.014249 -1.569289
13  0.000000 4.107505 0.000000  1.104837 0.021876 -0.039978
14  0.000000 3.386353 -0.000001  1.075756 -0.007766 0.017599
15  -0.000000 0.453329 -0.000000  0.246739 0.001548 -0.012484
16  -0.000000 1.028945 0.000000  -0.928964 0.421452 0.434048
17  -0.000000 2.585541 0.000001  1.301594 0.535654 1.547565
18  0.000000 4.107504 0.000000  1.526669 -0.072532 -0.083173
19  -0.000000 3.386353 -0.000000  1.535983 0.265911 0.102072
20  0.000000 0.580581 0.000000  0.180902 -0.001524 0.015102
time 28
0  0 0 0  0 0 0
1  0.000001 -6.692836 15.841046  -1.413206 0.291238 -1.065331
2  -0.015780 0.000000 -0.030139  1.022731 2.039099 -0.002822
3  0.000000 -0.000000 -0.000000  -1.327824 2.053106 0.000023
4  -0.000000 3.071946 -0.000001  0.350224 -0.000010 0.000000
5  0.000000 3.323216 -0.000001  0.364236 0.000002 0.000001
6  0.000000 3.034511 -0.000000  1.500719 -0.000003 0.000003
7  0.000000 3.881468 0.000000  -1.121659 -0.000002 -0.000003
8  0.000000 2.680578 0.000000  0.846764 -0.000001 0.000002
9  -0.000000 1.151307 0.000000  1.252541 -0.000002 0.000003
10  -0.000000 0.492525 -0.000000  0.048992 -0.000000 0.000000
11  -0.000000 1.028945 0.000000  1.463313 -0.282380 -2.909101
12  -0.000000 2.585541 0.000000  2.246128 -0.007969 -1.424389
13  -0.000000 4.107504 0.000000  0.872104 0.023612 -0.049895
14  -0.000000 3.386353 0.000000  1.075756 -0.007766 0.017599
15  -0.000000 0.453329 0.000000  0.246739 0.001548 -0.012484
16  -0.000000 1.028945 0.000000  -0.982002 0.388165 0.271975
17  -0.000000 2.585542 -0.000000  1.146698 0.427023 1.563995
18  -0.000000 4.107505 -0.000000  1.110732 -0.066990 -0.009641
19  0.000000 3.386353 0.000000  1.354574 0.151039 0.034670
20  0.000000 0.580581 -0.000000  0.169504 -0.001036 0.011357
time 29
0  0 0 0  0 0 0
1  0.000001 -7.216341 15.655568  -1.403053 0.308702 -1.062331
2  -0.015781 -0.000001 -0.030139  1.017414 2.039106 -0.002983
3  -0.000000 -0.000001 0.000000  -1.327824 2.053106 0.000023
4  0.000000 3.071946 -0.000001  0.350640 -0.000010 0.000000
5  0.000000 3.323216 -0.000000  0.315778 0.000002 0.000001
6  0.000000 3.034511 -0.000001  1.510727 -0.000003 0.000003
7  0.000000 3.881468 -0.000000  -1.065302 -0.000002 -0.000003
8  -0.000000 2.680578 0.000000  0.846764 -0.000001 0.000002
9  0.000000 1.151307 -0.000000  1.229654 -0.000002 0.000003
10  -0.000000 0.492525 -0.000000  0.048992 -0.000000 0.000000
11  -0.000000 1.028944 0.000000  -1.479689 -2.783807 0.267980
12  0.000000 2.585542 -0.000000  1.972840 -0.166902 -1.490472
13  -0.000000 4.107506 -0.000000  0.707516 0.024304 -0.057111
14  -0.000000 3.386353 -0.000000  1.075756 -0.007766 0.017599
15  -0.000000 0.453330 -0.000000  0.246739 0.001548 -0.012484
16  -0.000000 1.028944 0.000000  -1.051008 0.445851 0.273235
17  -0.000000 2.585541 0.000000  1.494668 0.350248 1.559642
18  0.000000 4.107505 -0.000000  0.776848 -0.039911 0.042543
19  0.000000 3.386353 0.000000  1.211787 0.048081 -0.004186
20  -0.000000 0.580581 0.000000  0.162237 -0.000748 0.008967
time 30
0  0 0 0  0 0 0
1  0.000001 -7.408483 15.585282  -1.399425 0.314890 -1.061218
2  -0.015780 0.000001 -0.030139  1.015525 2.039109 -0.003040
3  -0.000000 0.000000 -0.000000  -1.327824 2.053106 0.000023
4  0.000000 3.071946 -0.000000  0.350699 -0.000010 0.000000
5  0.000000 3.323216 -0.000000  0.298026 0.000002 0.000001
6  0.000000 3.034511 -0.000001  1.514414 -0.000003 0.000003
7  -0.000000 3.881468 0.000000  -1.045310 -0.000002 -0.000003
8  0.000000 2.680578 -0.000000  0.846764 -0.000001 0.000002
9  -0.000000 1.151307 0.000000  1.206807 -0.000002 0.000003
10  -0.000000 0.492525 0.000000  0.048992 -0.000000 0.000000
11  -0.000000 1.028945 0.000000  -1.376866 -2.704085 0.287397
12  -0.000000 2.585541 0.000000  1.835920 -0.325709 -1.541711
13  0.000000 4.107505 0.000000  0.645527 0.024465 -0.059872
14  -0.000000 3.386353 -0.000000  1.075756 -0.007766 0.017599
15  0.000000 0.453329 0.000000  0.246739 0.001548 -0.012484
16  -0.000000 1.028945 0.000000  -1.109367 0.492127 0.295618
17  0.000001 2.585542 0.000000  1.835920 0.325709 1.541711
18  0.000000 4.107505 -0.000000  0.645527 -0.024465 0.059872
19  -0.000000 3.386353 -0.000001  1.154180 0.004168 -0.015835
20  -0.000000 0.580581 0.000000  0.159684 -0.000650 0.008127
end
