// Created by Crowbar 0.68

$modelname "weapons/v_Pistol.mdl"

$bodygroup "studio"
{
	studio "Pistol_reference.smd"
}


$contents "solid"

$illumposition 0.681 -13.641 -16.421

$cdmaterials "models\Weapons\V_hand\"
$cdmaterials "models\Weapons\V_Pistol\"

$attachment "0" "ValveBiped.muzzle" 0 0 0 rotate 0 0 0
$attachment "1" "ValveBiped.eject" 0 0 0 rotate 0 0 0

$cbox 0 0 0 0 0 0

$bbox -5.433 -10.624 -28.781 32.715 11.986 -4.06

$definebone "ValveBiped.Bip01" "" -0.000005 -0.533615 38.566917 0 0 89.999982 0 0 0 0 0 0
$definebone "ValveBiped.Bip01_Spine" "ValveBiped.Bip01" 0.000005 3.345128 -2.981901 4.944225 89.999982 89.999982 0 0 0 0 0 0
$definebone "ValveBiped.Bip01_Spine1" "ValveBiped.Bip01_Spine" 4.018331 0 0 0 -1.675443 0 0 0 0 0 0 0
$definebone "ValveBiped.Bip01_Spine2" "ValveBiped.Bip01_Spine1" 3.518565 0 0 0 5.74883 0 0 0 0 0 0 0
$definebone "ValveBiped.Bip01_Spine4" "ValveBiped.Bip01_Spine2" 8.942642 0 0 0 11.120881 0 0 0 0 0 0 0
$definebone "ValveBiped.Bip01_L_Clavicle" "ValveBiped.Bip01_Spine4" 2.033346 1.000768 1.93766 -73.711859 168.619271 91.480542 0 0 0 0 0 0
$definebone "ValveBiped.Bip01_L_UpperArm" "ValveBiped.Bip01_L_Clavicle" 6.028142 0.000001 0 -23.385791 -73.476334 -90.452673 0 0 0 0 0 0
$definebone "ValveBiped.Bip01_L_Forearm" "ValveBiped.Bip01_L_UpperArm" 11.692552 -0.000001 0 0 -70.144472 0.000002 0 0 0 0 0 0
$definebone "ValveBiped.Bip01_L_Hand" "ValveBiped.Bip01_L_Forearm" 11.481672 -0.000001 -0.000032 -1.608522 2.542787 90.13606 0 0 0 0 0 0
$definebone "ValveBiped.Bip01_L_Finger4" "ValveBiped.Bip01_L_Hand" 3.859704 -0.142405 -1.191973 7.696598 -55.297464 -27.318344 0 0 0 0 0 0
$definebone "ValveBiped.Bip01_L_Finger41" "ValveBiped.Bip01_L_Finger4" 1.312562 -0.000001 -0.000002 -0.000003 -15.997949 0.000005 0 0 0 0 0 0
$definebone "ValveBiped.Bip01_L_Finger42" "ValveBiped.Bip01_L_Finger41" 0.729363 -0.000001 0.000002 -0.000003 -5.550868 0.000006 0 0 0 0 0 0
$definebone "ValveBiped.Bip01_L_Finger3" "ValveBiped.Bip01_L_Hand" 3.942325 0.046771 -0.431445 5.009655 -42.493633 -8.31213 0 0 0 0 0 0
$definebone "ValveBiped.Bip01_L_Finger31" "ValveBiped.Bip01_L_Finger3" 1.539093 0.000001 -0.000001 -0.000003 -17.723873 0.000002 0 0 0 0 0 0
$definebone "ValveBiped.Bip01_L_Finger32" "ValveBiped.Bip01_L_Finger31" 1.196322 0 0 -0.000001 -29.86434 0.000003 0 0 0 0 0 0
$definebone "ValveBiped.Bip01_L_Finger2" "ValveBiped.Bip01_L_Hand" 3.883689 -0.046771 0.431442 1.250766 -33.682292 4.92182 0 0 0 0 0 0
$definebone "ValveBiped.Bip01_L_Finger21" "ValveBiped.Bip01_L_Finger2" 1.719575 -0.000001 0 0.316043 -20.997692 -0.000002 0 0 0 0 0 0
$definebone "ValveBiped.Bip01_L_Finger22" "ValveBiped.Bip01_L_Finger21" 1.209183 0 0 0.176699 -12.398741 -0.000002 0 0 0 0 0 0
$definebone "ValveBiped.Bip01_L_Finger1" "ValveBiped.Bip01_L_Hand" 3.859859 -0.137948 1.332466 -2.449394 -30.465191 20.308432 0 0 0 0 0 0
$definebone "ValveBiped.Bip01_L_Finger11" "ValveBiped.Bip01_L_Finger1" 1.71943 0.000001 -0.000001 0.233424 -20.798875 -0.000005 0 0 0 0 0 0
$definebone "ValveBiped.Bip01_L_Finger12" "ValveBiped.Bip01_L_Finger11" 1.099666 -0.000001 0.000002 0.148741 -13.999072 -0.000004 0 0 0 0 0 0
$definebone "ValveBiped.Bip01_L_Finger0" "ValveBiped.Bip01_L_Hand" 0.806047 -0.348922 1.321258 -35.902848 -52.825042 -66.828879 0 0 0 0 0 0
$definebone "ValveBiped.Bip01_L_Finger01" "ValveBiped.Bip01_L_Finger0" 1.789783 0 0 -0.000003 10.835038 0.000007 0 0 0 0 0 0
$definebone "ValveBiped.Bip01_L_Finger02" "ValveBiped.Bip01_L_Finger01" 1.206998 0 0 -0.000006 17.533487 0.000005 0 0 0 0 0 0
$definebone "ValveBiped.Bip01_R_Clavicle" "ValveBiped.Bip01_Spine4" 2.033353 1.000771 -1.93761 73.712037 168.618779 -95.596496 0 0 0 0 0 0
$definebone "ValveBiped.Bip01_R_UpperArm" "ValveBiped.Bip01_R_Clavicle" 6.028143 0.000001 0 78.953585 -88.125723 91.732603 0 0 0 0 0 0
$definebone "ValveBiped.Bip01_R_Forearm" "ValveBiped.Bip01_R_UpperArm" 11.692553 0.000002 0 0.000001 -18.575695 0.000004 0 0 0 0 0 0
$definebone "ValveBiped.Bip01_R_Hand" "ValveBiped.Bip01_R_Forearm" 11.481699 -0.000002 0 0.483176 2.499183 -105.416163 0 0 0 0 0 0
$definebone "ValveBiped.Bip01_R_Finger1" "ValveBiped.Bip01_R_Hand" 3.85983 -0.148935 -1.331282 10.475158 -7.441114 17.876451 0 0 0 0 0 0
$definebone "ValveBiped.Bip01_R_Finger11" "ValveBiped.Bip01_R_Finger1" 1.719425 0 0 0 -21.900331 -20.249989 0 0 0 0 0 0
$definebone "ValveBiped.Bip01_R_Finger12" "ValveBiped.Bip01_R_Finger11" 1.099665 0 -0.000001 -0.000002 -75.390481 0.000002 0 0 0 0 0 0
$definebone "ValveBiped.Bip01_R_Finger0" "ValveBiped.Bip01_R_Hand" 0.806017 -0.359833 -1.318333 19.680811 -44.200937 77.331429 0 0 0 0 0 0
$definebone "ValveBiped.Bip01_R_Finger01" "ValveBiped.Bip01_R_Finger0" 1.789783 -0.000001 -0.000001 0.000003 22.775131 0.000002 0 0 0 0 0 0
$definebone "ValveBiped.Bip01_R_Finger02" "ValveBiped.Bip01_R_Finger01" 1.206999 0.000003 -0.000001 -0.000001 56.667528 0.000003 0 0 0 0 0 0
$definebone "ValveBiped.base" "ValveBiped.Bip01_R_Hand" 6.114873 -1.45 -1.922835 -0.669733 -90.60985 -89.621945 0 0 0 0 0 0
$definebone "ValveBiped.eject" "ValveBiped.base" 0.051129 3.122171 0.141701 -0.000002 89.999982 0.000001 0 0 0 0 0 0
$definebone "ValveBiped.muzzle" "ValveBiped.base" 0 1.537871 5.938449 -89.999982 0.000003 0 0 0 0 0 0 0
$definebone "ValveBiped.square" "ValveBiped.base" 0 1.607461 -0.020759 0.000001 -0.000003 0.000002 0 0 0 0 0 0
$definebone "ValveBiped.hammer" "ValveBiped.base" 0 1.225116 -3.954164 0.000001 -0.000003 0.000002 0 0 0 0 0 0
$definebone "ValveBiped.clip" "ValveBiped.Bip01_R_Hand" 3.820738 -1.409994 -0.589408 -0.669733 -90.60985 -89.621945 0 0 0 0 0 0

$sequence "idle01" {	
	"v_pistol_anims\idle01.smd"
	activity "ACT_VM_IDLE" 1
	fadein 0.2
	fadeout 0.2
	node "0"
	fps 30
	loop
}

$sequence "idle01empty" {
	"v_pistol_anims\idle01empty.smd"
	activity "ACT_VM_IDLE_EMPTY" 1
	fadein 0.2
	fadeout 0.2
	node "0"
	fps 30
	loop
}

$sequence "fire" {
	"v_pistol_anims\fire.smd"
	activity "ACT_VM_PRIMARYATTACK" 1
	{ event AE_MUZZLEFLASH 0 "PISTOL MUZZLE" }
	fadein 0.2
	fadeout 0.2
	node "2"
	snap
	fps 30
}

$sequence "fire1" {
	"v_pistol_anims\fire1.smd"
	activity "ACT_VM_RECOIL1" 1
	{ event AE_MUZZLEFLASH 0 "PISTOL MUZZLE" }
	fadein 0.2
	fadeout 0.2
	node "2"
	snap
	fps 30
}

$sequence "fire2" {
	"v_pistol_anims\fire2.smd"
	activity "ACT_VM_RECOIL2" 1
	{ event AE_MUZZLEFLASH 0 "PISTOL MUZZLE" }
	fadein 0.2
	fadeout 0.2
	node "2"
	snap
	fps 30
}

$sequence "fire3" {
	"v_pistol_anims\fire3.smd"
	activity "ACT_VM_RECOIL3" 1
	{ event AE_MUZZLEFLASH 0 "PISTOL MUZZLE" }
	fadein 0.2
	fadeout 0.2
	node "2"
	snap
	fps 30
}

$sequence "fireempty" {
	"v_pistol_anims\fireempty.smd"
	activity "ACT_VM_DRYFIRE" 1
	fadein 0.2
	fadeout 0.2
	node "2"
	fps 30
}

$sequence "draw" {
	"v_pistol_anims\draw.smd"
	activity "ACT_VM_DRAW" 1
	fadein 0.2
	fadeout 0.2
	node "0"
	snap
	fps 30
}

$sequence "drawempty" {
	"v_pistol_anims\drawempty.smd"
	fadein 0.2
	fadeout 0.2
	node "0"
	fps 30
}

$sequence "reload" {
	"v_pistol_anims\reload.smd"
	activity "ACT_VM_RELOAD" 1
	fadein 0.2
	fadeout 0.2
	node "0"
	fps 30
}

$sequence "holster" {
	"v_pistol_anims\holster.smd"
	activity "ACT_VM_HOLSTER" 1
	fadein 0.2
	fadeout 0.2
	node "0"
	fps 30
}

$sequence "holsterempty" {
	"v_pistol_anims\holsterempty.smd"
	activity "ACT_VM_HOLSTER" 1
	fadein 0.2
	fadeout 0.2
	node "0"
	fps 30
}

$sequence "idletolow" {
	"v_pistol_anims\idletolow.smd"
	activity "ACT_VM_LOWERED_TO_IDLE" 1
	fadein 0.2
	fadeout 0.2
	transition "0" "1"
	fps 30
}

$sequence "lowtoidle" {
	"v_pistol_anims\lowtoidle.smd"
	activity "ACT_VM_IDLE_TO_LOWERED" 1
	fadein 0.2
	fadeout 0.2
	transition "1" "0"
	fps 30
}

$sequence "lowidle" {
	"v_pistol_anims\lowidle.smd"
	activity "ACT_VM_IDLE_LOWERED" 1
	fadein 0.2
	fadeout 0.2
	node "1"
	fps 30
	loop
}
