// Created by Crowbar 0.68
version 1
nodes
  0 "ValveBiped.Bip01_Pelvis" -1
  1 "ValveBiped.Bip01_Spine" 0
  2 "ValveBiped.Bip01_Spine1" 1
  3 "ValveBiped.Bip01_Spine2" 2
  4 "ValveBiped.Bip01_Spine4" 3
  5 "ValveBiped.Bip01_Neck1" 4
  6 "ValveBiped.Bip01_Head1" 5
  7 "ValveBiped.forward" 6
  8 "ValveBiped.Bip01_R_Clavicle" 4
  9 "ValveBiped.Bip01_R_UpperArm" 8
  10 "ValveBiped.Bip01_R_Forearm" 9
  11 "ValveBiped.Bip01_R_Hand" 10
  12 "ValveBiped.Anim_Attachment_RH" 11
  13 "ValveBiped.Bip01_L_Clavicle" 4
  14 "ValveBiped.Bip01_L_UpperArm" 13
  15 "ValveBiped.Bip01_L_Forearm" 14
  16 "ValveBiped.Bip01_L_Hand" 15
  17 "ValveBiped.Anim_Attachment_LH" 16
  18 "ValveBiped.Bip01_R_Thigh" 0
  19 "ValveBiped.Bip01_R_Calf" 18
  20 "ValveBiped.Bip01_R_Foot" 19
  21 "ValveBiped.Bip01_L_Thigh" 0
  22 "ValveBiped.Bip01_L_Calf" 21
  23 "ValveBiped.Bip01_L_Foot" 22
  24 "ValveBiped.Bip01" -1
  25 "ValveBiped.Bip01_L_Toe0" 23
  26 "ValveBiped.Bip01_L_Shin" 22
  27 "ValveBiped.Bip01_L_Knee" 21
  28 "ValveBiped.Bip01_L_Quadricep" 21
  29 "ValveBiped.Bip01_R_Toe0" 20
  30 "ValveBiped.Bip01_R_Shin" 19
  31 "ValveBiped.Bip01_R_Quadricep" 18
  32 "ValveBiped.Bip01_R_Knee" 18
  33 "ValveBiped.Bip01_L_Finger3" 16
  34 "ValveBiped.Bip01_L_Finger31" 33
  35 "ValveBiped.Bip01_L_Finger32" 34
  36 "ValveBiped.Bip01_L_Finger2" 16
  37 "ValveBiped.Bip01_L_Finger21" 36
  38 "ValveBiped.Bip01_L_Finger22" 37
  39 "ValveBiped.Bip01_L_Finger1" 16
  40 "ValveBiped.Bip01_L_Finger11" 39
  41 "ValveBiped.Bip01_L_Finger12" 40
  42 "ValveBiped.Bip01_L_Finger0" 16
  43 "ValveBiped.Bip01_L_Finger01" 42
  44 "ValveBiped.Bip01_L_Finger02" 43
  45 "ValveBiped.Bip01_L_Finger4" 16
  46 "ValveBiped.Bip01_L_Finger41" 45
  47 "ValveBiped.Bip01_L_Finger42" 46
  48 "ValveBiped.Bip01_L_Ulna" 15
  49 "ValveBiped.Bip01_L_Wrist" 15
  50 "ValveBiped.Bip01_L_Elbow" 14
  51 "ValveBiped.Bip01_L_Shoulder" 14
  52 "ValveBiped.Bip01_L_Bicep" 14
  53 "ValveBiped.Bip01_L_Trapezius" 13
  54 "ValveBiped.Bip01_R_Finger3" 11
  55 "ValveBiped.Bip01_R_Finger31" 54
  56 "ValveBiped.Bip01_R_Finger32" 55
  57 "ValveBiped.Bip01_R_Finger2" 11
  58 "ValveBiped.Bip01_R_Finger21" 57
  59 "ValveBiped.Bip01_R_Finger22" 58
  60 "ValveBiped.Bip01_R_Finger1" 11
  61 "ValveBiped.Bip01_R_Finger11" 60
  62 "ValveBiped.Bip01_R_Finger12" 61
  63 "ValveBiped.Bip01_R_Finger0" 11
  64 "ValveBiped.Bip01_R_Finger01" 63
  65 "ValveBiped.Bip01_R_Finger02" 64
  66 "ValveBiped.Bip01_R_Finger4" 11
  67 "ValveBiped.Bip01_R_Finger41" 66
  68 "ValveBiped.Bip01_R_Finger42" 67
  69 "ValveBiped.Bip01_R_Ulna" 10
  70 "ValveBiped.Bip01_R_Wrist" 10
  71 "ValveBiped.Bip01_R_Shoulder" 9
  72 "ValveBiped.Bip01_R_Bicep" 9
  73 "ValveBiped.Bip01_R_Elbow" 9
  74 "ValveBiped.Bip01_R_Trapezius" 8
  75 "ValveBiped.Bip01_R_Pectoral" 3
  76 "ValveBiped.Bip01_L_Pectoral" 3
  77 "ValveBiped.Bip01_R_Latt" 3
  78 "ValveBiped.Bip01_L_Latt" 3
end
skeleton
  time 0
    0 0.000000 -0.533612 38.566914 1.570796 0.000000 0.000000
    1 0.000000 3.345132 -2.981898 1.570796 0.083193 1.570796
    2 3.995838 0.000000 0.000000 0.000000 0.000000 -0.028816
    3 3.520298 0.000000 0.000000 0.000000 0.000000 0.097307
    4 8.921476 0.000000 0.000000 0.000000 0.000000 0.186413
    5 3.306360 0.000002 0.000000 3.141590 0.000000 0.406109
    6 3.602000 -0.000002 0.000000 0.000000 -0.000001 0.405033
    7 2.000003 -3.000000 0.000000 -1.570796 0.000000 -1.326450
    8 2.059532 0.977924 -1.937661 -1.661569 1.286515 2.950147
    9 6.028141 0.000007 0.000000 1.633734 -0.011884 -0.586789
    10 11.692554 0.000000 -0.000001 0.000000 0.000000 -0.060372
    11 11.481691 0.000000 0.000000 -1.559993 0.038701 0.036022
    12 2.676087 -1.712443 0.000000 -1.570796 0.000000 -1.570795
    13 2.059529 0.977924 1.937661 1.589740 -1.286514 2.950147
    14 6.028141 0.000000 0.000000 -1.573855 0.051611 -0.584887
    15 11.692555 0.000000 -0.000006 0.000000 0.000000 -0.060372
    16 11.481671 0.000000 -0.000036 1.568292 -0.038709 0.036022
    17 2.676085 -1.712442 0.000000 1.570797 0.000000 1.570797
    18 -3.890447 0.000000 0.000000 -1.570796 0.051839 -1.576018
    19 17.848167 0.000000 0.000000 0.000000 0.000000 0.034200
    20 16.525238 0.000000 0.000000 0.038609 0.040781 -1.071639
    21 3.890447 0.000000 0.000000 -1.570796 0.051839 -1.565574
    22 17.848167 0.000000 0.000000 0.000000 0.000000 0.034200
    23 16.525238 0.000000 0.000000 -0.027915 -0.040781 -1.071638
    24 -0.000005 -0.533615 38.566917 1.570796 0.000000 0.000000
    25 6.879449 0.000002 0.000000 -0.007299 -0.002951 -0.584373
    26 7.766866 0.000000 0.000000 0.000000 0.000000 0.000000
    27 17.848169 0.000000 0.000000 0.000000 0.000000 0.016691
    28 7.139265 0.000000 0.000000 0.000000 0.000000 0.000000
    29 6.879451 0.000002 0.000000 -0.081334 -0.002951 -0.584373
    30 7.766869 0.000000 0.000001 0.000000 0.000000 0.000000
    31 7.139271 0.000000 0.000000 0.000000 0.000000 0.000000
    32 17.848167 0.000000 0.000000 0.000000 0.000000 0.016685
    33 3.942322 0.046777 -0.431443 -0.155014 0.073328 -0.810648
    34 1.539095 -0.000003 0.000000 0.000000 0.004460 -0.247797
    35 1.196324 0.000001 0.000000 0.000000 0.007361 -0.430802
    36 3.883687 -0.046764 0.431443 0.085902 0.021830 -0.587867
    37 1.719573 0.000001 0.000000 0.000000 0.005516 -0.366478
    38 1.209185 0.000002 0.000000 0.000000 0.003084 -0.216400
    39 3.859859 -0.137941 1.332466 0.354449 -0.042750 -0.531718
    40 1.719427 0.000005 0.000000 0.000000 0.004074 -0.363009
    41 1.099663 0.000000 0.000000 0.000000 0.002596 -0.244331
    42 0.806048 -0.348915 1.321258 -1.206854 -0.679488 -0.789308
    43 1.789784 -0.000002 0.000001 0.000000 0.007387 0.228523
    44 1.206999 -0.000002 0.000002 0.000000 0.011267 0.362860
    45 3.859704 -0.142400 -1.191974 -0.479144 0.152190 -0.879874
    46 1.312555 -0.000002 -0.000002 0.000000 0.009665 -0.439720
    47 0.729363 0.000001 0.000000 0.000000 0.004971 -0.244299
    48 5.740847 0.000000 0.000005 0.000688 0.000000 0.000000
    49 11.481695 0.000000 0.000009 0.001272 0.000000 0.000000
    50 11.692554 0.000000 0.000009 0.000000 0.000000 -0.029500
    51 1.499998 0.000000 0.000005 0.000000 0.000000 0.000000
    52 5.559999 0.000000 0.000006 0.000000 0.000000 0.000000
    53 5.166963 0.000002 0.000000 0.000000 0.000000 0.000000
    54 3.942297 0.050328 0.431043 0.154999 -0.079305 -0.810205
    55 1.539097 0.000002 0.000000 0.000000 -0.005854 -0.247771
    56 1.196325 0.000000 0.000000 0.000000 -0.009663 -0.430761
    57 3.883659 -0.050326 -0.431043 -0.085905 -0.026404 -0.587695
    58 1.719574 -0.000001 0.000000 0.000000 -0.007974 -0.366436
    59 1.209181 0.000000 0.000000 0.000000 -0.004461 -0.216376
    60 3.859833 -0.148934 -1.331282 -0.354419 0.038567 -0.532001
    61 1.719424 0.000001 0.000001 0.000000 -0.006613 -0.362970
    62 1.099666 0.000000 0.000001 0.000000 -0.004211 -0.244312
    63 0.806019 -0.359832 -1.318334 1.204200 0.673618 -0.793956
    64 1.789783 0.000001 0.000001 0.000000 -0.006301 0.228555
    65 1.206999 -0.000001 0.000000 0.000000 -0.009618 0.362905
    66 3.859675 -0.132568 1.193108 0.479140 -0.158545 -0.879041
    67 1.312563 0.000000 -0.000001 0.000000 -0.011932 -0.439672
    68 0.729363 -0.000004 0.000002 0.000000 -0.006134 -0.244271
    69 5.740848 0.000000 0.000003 0.000081 0.000000 0.000000
    70 11.481700 0.000000 0.000002 0.000150 0.000000 0.000000
    71 1.500002 0.000000 0.000005 0.000000 0.000000 0.000000
    72 5.560000 0.000000 0.000006 0.000000 0.000000 0.000000
    73 11.692548 0.000000 0.000006 0.000000 0.000000 -0.029500
    74 5.166965 0.000000 0.000000 0.000000 0.000000 0.000000
    75 1.025254 4.831669 -2.578000 0.000000 0.000000 0.000000
    76 1.025254 4.831550 2.578000 0.000000 0.000000 0.000000
    77 2.000000 1.400000 5.000000 0.000000 0.000000 0.000000
    78 2.000001 1.400000 -5.000000 0.000000 0.000000 0.000000
end
triangles
sandro_facemap
  3 -3.336300 -1.463600 67.504898 0.783927 0.154505 0.601321 0.250700 0.536700 1 3 1.000000
  3 -2.986200 0.020000 66.667198 0.783927 0.154505 0.601321 0.168200 0.475300 1 3 1.000000
  3 -3.770500 0.368200 67.600304 0.783927 0.154505 0.601321 0.167400 0.538600 1 3 1.000000
sandro_facemap
  3 1.978500 -1.465401 63.036400 0.916315 -0.213804 -0.338606 0.742500 0.276100 1 3 1.000000
  3 1.013800 -5.111501 62.712502 0.601869 -0.555671 -0.573570 0.541000 0.260400 1 3 1.000000
  3 0.047500 -3.271201 62.153198 -0.000900 -0.353511 -0.935430 0.500000 0.230600 1 3 1.000000
sandro_facemap
  3 2.002700 -3.927401 63.413399 0.855606 -0.328902 -0.399703 0.605700 0.300600 1 3 1.000000
  3 1.013800 -5.111501 62.712502 0.601869 -0.555671 -0.573570 0.541000 0.260400 1 3 1.000000
  3 1.978500 -1.465401 63.036400 0.916315 -0.213804 -0.338606 0.742500 0.276100 1 3 1.000000
sandro_facemap
  3 2.002700 -3.927401 63.413399 0.855606 -0.328902 -0.399703 0.605700 0.300600 1 3 1.000000
  3 1.379200 -5.003401 64.386299 0.594394 -0.770193 -0.231298 0.555900 0.359300 1 3 1.000000
  3 1.013800 -5.111501 62.712502 0.601869 -0.555671 -0.573570 0.541000 0.260400 1 3 1.000000
sandro_facemap
  3 0.047500 -3.271201 62.153198 -0.000900 -0.353511 -0.935430 0.500000 0.230600 1 3 1.000000
  3 -0.947300 -5.111501 62.712502 -0.595095 -0.515196 -0.616795 0.457900 0.260400 1 3 1.000000
  3 -1.991500 -1.465401 63.036400 -0.883375 -0.225794 -0.410688 0.254400 0.269200 1 3 1.000000
sandro_facemap
  3 0.484300 -5.479601 62.674599 0.293283 -0.724158 -0.624164 0.517100 0.258400 1 3 1.000000
  3 -0.947300 -5.111501 62.712502 -0.595095 -0.515196 -0.616795 0.457900 0.260400 1 3 1.000000
  3 0.047500 -3.271201 62.153198 -0.000900 -0.353511 -0.935430 0.500000 0.230600 1 3 1.000000
sandro_facemap
  3 0.047500 -3.271201 62.153198 -0.000900 -0.353511 -0.935430 0.500000 0.230600 1 3 1.000000
  3 1.013800 -5.111501 62.712502 0.601869 -0.555671 -0.573570 0.541000 0.260400 1 3 1.000000
  3 0.484300 -5.479601 62.674599 0.293283 -0.724158 -0.624164 0.517100 0.258400 1 3 1.000000
sandro_facemap
  3 1.013800 -5.111501 62.712502 0.601869 -0.555671 -0.573570 0.541000 0.260400 1 3 1.000000
  3 0.519100 -5.639801 63.253502 0.353285 -0.931060 0.091196 0.517900 0.288600 1 3 1.000000
  3 0.484300 -5.479601 62.674599 0.293283 -0.724158 -0.624164 0.517100 0.258400 1 3 1.000000
sandro_facemap
  3 1.013800 -5.111501 62.712502 0.601869 -0.555671 -0.573570 0.541000 0.260400 1 3 1.000000
  3 1.379200 -5.003401 64.386299 0.594394 -0.770193 -0.231298 0.555900 0.359300 1 3 1.000000
  3 0.519100 -5.639801 63.253502 0.353285 -0.931060 0.091196 0.517900 0.288600 1 3 1.000000
sandro_facemap
  3 0.519100 -5.639801 63.253502 0.353285 -0.931060 0.091196 0.517900 0.288600 1 3 1.000000
  3 1.379200 -5.003401 64.386299 0.594394 -0.770193 -0.231298 0.555900 0.359300 1 3 1.000000
  3 0.047500 -5.729001 64.452797 0.019600 -0.792003 0.610202 0.497600 0.353900 1 3 1.000000
sandro_facemap
  3 0.047500 -5.729001 64.452797 0.019600 -0.792003 0.610202 0.497600 0.353900 1 3 1.000000
  3 -0.960600 -5.287301 63.241299 -0.628822 -0.775727 0.053202 0.458600 0.288300 1 3 1.000000
  3 0.519100 -5.639801 63.253502 0.353285 -0.931060 0.091196 0.517900 0.288600 1 3 1.000000
sandro_facemap
  3 0.047500 -5.729001 64.452797 0.019600 -0.792003 0.610202 0.497600 0.353900 1 3 1.000000
  3 -1.293600 -5.003401 64.386299 -0.550496 -0.796495 -0.250098 0.440600 0.355300 1 3 1.000000
  3 -0.960600 -5.287301 63.241299 -0.628822 -0.775727 0.053202 0.458600 0.288300 1 3 1.000000
sandro_facemap
  3 -0.947300 -5.111501 62.712502 -0.595095 -0.515196 -0.616795 0.457900 0.260400 1 3 1.000000
  3 -0.960600 -5.287301 63.241299 -0.628822 -0.775727 0.053202 0.458600 0.288300 1 3 1.000000
  3 -1.293600 -5.003401 64.386299 -0.550496 -0.796495 -0.250098 0.440600 0.355300 1 3 1.000000
sandro_facemap
  3 0.484300 -5.479601 62.674599 0.293283 -0.724158 -0.624164 0.517100 0.258400 1 3 1.000000
  3 -0.960600 -5.287301 63.241299 -0.628822 -0.775727 0.053202 0.458600 0.288300 1 3 1.000000
  3 -0.947300 -5.111501 62.712502 -0.595095 -0.515196 -0.616795 0.457900 0.260400 1 3 1.000000
sandro_facemap
  3 0.519100 -5.639801 63.253502 0.353285 -0.931060 0.091196 0.517900 0.288600 1 3 1.000000
  3 -0.960600 -5.287301 63.241299 -0.628822 -0.775727 0.053202 0.458600 0.288300 1 3 1.000000
  3 0.484300 -5.479601 62.674599 0.293283 -0.724158 -0.624164 0.517100 0.258400 1 3 1.000000
sandro_facemap
  3 3.073900 1.639200 69.652901 0.897307 0.426803 0.112601 0.882100 0.695400 1 3 1.000000
  3 3.037800 -2.350500 69.629700 0.934721 -0.331607 0.127803 0.706300 0.693100 1 3 1.000000
  3 2.753700 0.020000 66.667198 0.362286 0.866666 -0.342986 0.833700 0.482200 1 3 1.000000
sandro_facemap
  3 3.073900 1.639200 69.652901 0.897307 0.426803 0.112601 0.882100 0.695400 1 3 1.000000
  3 2.753700 0.020000 66.667198 0.362286 0.866666 -0.342986 0.833700 0.482200 1 3 1.000000
  3 1.625000 1.960199 65.386200 0.753172 0.603877 -0.260890 0.929600 0.380800 1 3 1.000000
sandro_facemap
  3 1.625000 1.960199 65.386200 0.753172 0.603877 -0.260890 0.929600 0.380800 1 3 1.000000
  3 2.753700 0.020000 66.667198 0.362286 0.866666 -0.342986 0.833700 0.482200 1 3 1.000000
  3 2.142900 1.122799 64.226997 0.926638 0.370115 0.066003 0.885000 0.300500 1 3 1.000000
sandro_facemap
  3 2.142900 1.122799 64.226997 0.926638 0.370115 0.066003 0.885000 0.300500 1 3 1.000000
  3 2.753700 0.020000 66.667198 0.362286 0.866666 -0.342986 0.833700 0.482200 1 3 1.000000
  3 2.857800 -1.457901 65.536499 0.948331 0.010400 -0.317111 0.734800 0.403100 1 3 1.000000
sandro_facemap
  3 2.857800 -1.457901 65.536499 0.948331 0.010400 -0.317111 0.734800 0.403100 1 3 1.000000
  3 1.978500 -1.465401 63.036400 0.916315 -0.213804 -0.338606 0.742500 0.276100 1 3 1.000000
  3 2.142900 1.122799 64.226997 0.926638 0.370115 0.066003 0.885000 0.300500 1 3 1.000000
sandro_facemap
  3 2.768500 -3.514400 66.009003 0.963433 -0.240908 -0.117304 0.642400 0.445800 1 3 1.000000
  3 1.978500 -1.465401 63.036400 0.916315 -0.213804 -0.338606 0.742500 0.276100 1 3 1.000000
  3 2.857800 -1.457901 65.536499 0.948331 0.010400 -0.317111 0.734800 0.403100 1 3 1.000000
sandro_facemap
  3 2.768500 -3.514400 66.009003 0.963433 -0.240908 -0.117304 0.642400 0.445800 1 3 1.000000
  3 2.002700 -3.927401 63.413399 0.855606 -0.328902 -0.399703 0.605700 0.300600 1 3 1.000000
  3 1.978500 -1.465401 63.036400 0.916315 -0.213804 -0.338606 0.742500 0.276100 1 3 1.000000
sandro_facemap
  3 2.768500 -3.514400 66.009003 0.963433 -0.240908 -0.117304 0.642400 0.445800 1 3 1.000000
  3 2.218700 -4.673601 65.971901 0.681427 -0.731029 0.035401 0.588400 0.448800 1 3 1.000000
  3 2.002700 -3.927401 63.413399 0.855606 -0.328902 -0.399703 0.605700 0.300600 1 3 1.000000
sandro_facemap
  3 1.379200 -5.003401 64.386299 0.594394 -0.770193 -0.231298 0.555900 0.359300 1 3 1.000000
  3 2.002700 -3.927401 63.413399 0.855606 -0.328902 -0.399703 0.605700 0.300600 1 3 1.000000
  3 2.218700 -4.673601 65.971901 0.681427 -0.731029 0.035401 0.588400 0.448800 1 3 1.000000
sandro_facemap
  3 0.048100 -5.785300 65.617699 -0.060000 -0.804803 -0.590502 0.497300 0.426300 1 3 1.000000
  3 1.379200 -5.003401 64.386299 0.594394 -0.770193 -0.231298 0.555900 0.359300 1 3 1.000000
  3 2.218700 -4.673601 65.971901 0.681427 -0.731029 0.035401 0.588400 0.448800 1 3 1.000000
sandro_facemap
  3 0.048100 -5.785300 65.617699 -0.060000 -0.804803 -0.590502 0.497300 0.426300 1 3 1.000000
  3 0.369100 -5.895200 64.884697 0.224302 -0.969209 -0.101601 0.509500 0.379800 1 3 1.000000
  3 1.379200 -5.003401 64.386299 0.594394 -0.770193 -0.231298 0.555900 0.359300 1 3 1.000000
sandro_facemap
  3 0.369100 -5.895200 64.884697 0.224302 -0.969209 -0.101601 0.509500 0.379800 1 3 1.000000
  3 0.048100 -5.785300 65.617699 -0.060000 -0.804803 -0.590502 0.497300 0.426300 1 3 1.000000
  3 -0.848900 -5.048800 65.945702 -0.190410 -0.966748 0.170709 0.454300 0.448100 1 3 1.000000
sandro_facemap
  3 0.369100 -5.895200 64.884697 0.224302 -0.969209 -0.101601 0.509500 0.379800 1 3 1.000000
  3 -0.848900 -5.048800 65.945702 -0.190410 -0.966748 0.170709 0.454300 0.448100 1 3 1.000000
  3 -1.335300 -5.094700 65.241600 -0.475897 -0.878095 0.049700 0.438700 0.403000 1 3 1.000000
sandro_facemap
  3 -1.335300 -5.094700 65.241600 -0.475897 -0.878095 0.049700 0.438700 0.403000 1 3 1.000000
  3 -1.293600 -5.003401 64.386299 -0.550496 -0.796495 -0.250098 0.440600 0.355300 1 3 1.000000
  3 0.369100 -5.895200 64.884697 0.224302 -0.969209 -0.101601 0.509500 0.379800 1 3 1.000000
sandro_facemap
  3 -1.293600 -5.003401 64.386299 -0.550496 -0.796495 -0.250098 0.440600 0.355300 1 3 1.000000
  3 -1.335300 -5.094700 65.241600 -0.475897 -0.878095 0.049700 0.438700 0.403000 1 3 1.000000
  3 -2.591800 -4.231801 65.254097 -0.836635 -0.502421 -0.218209 0.390400 0.401800 1 3 1.000000
sandro_facemap
  3 -2.591800 -4.231801 65.254097 -0.836635 -0.502421 -0.218209 0.390400 0.401800 1 3 1.000000
  3 -2.867100 -2.493300 64.627800 -0.964951 -0.014801 -0.262014 0.318900 0.351500 1 3 1.000000
  3 -1.293600 -5.003401 64.386299 -0.550496 -0.796495 -0.250098 0.440600 0.355300 1 3 1.000000
sandro_facemap
  3 -1.293600 -5.003401 64.386299 -0.550496 -0.796495 -0.250098 0.440600 0.355300 1 3 1.000000
  3 -2.867100 -2.493300 64.627800 -0.964951 -0.014801 -0.262014 0.318900 0.351500 1 3 1.000000
  3 -0.947300 -5.111501 62.712502 -0.595095 -0.515196 -0.616795 0.457900 0.260400 1 3 1.000000
sandro_facemap
  3 -2.867100 -2.493300 64.627800 -0.964951 -0.014801 -0.262014 0.318900 0.351500 1 3 1.000000
  3 -1.991500 -1.465401 63.036400 -0.883375 -0.225794 -0.410688 0.254400 0.269200 1 3 1.000000
  3 -0.947300 -5.111501 62.712502 -0.595095 -0.515196 -0.616795 0.457900 0.260400 1 3 1.000000
sandro_facemap
  3 2.218700 -4.673601 65.971901 0.681427 -0.731029 0.035401 0.588400 0.448800 1 3 1.000000
  3 2.768500 -3.514400 66.009003 0.963433 -0.240908 -0.117304 0.642400 0.445800 1 3 1.000000
  3 2.622300 -3.887800 67.679802 0.902538 -0.405317 -0.145406 0.625600 0.562400 1 3 1.000000
sandro_facemap
  3 -0.386700 -6.304901 66.036797 -0.725237 -0.618332 -0.302815 0.483600 0.453600 1 3 1.000000
  3 -0.848900 -5.048800 65.945702 -0.190410 -0.966748 0.170709 0.454300 0.448100 1 3 1.000000
  3 0.048100 -5.785300 65.617699 -0.060000 -0.804803 -0.590502 0.497300 0.426300 1 3 1.000000
sandro_facemap
  3 2.857800 -1.457901 65.536499 0.948331 0.010400 -0.317111 0.734800 0.403100 1 3 1.000000
  3 3.213300 -0.926300 66.944901 0.927870 -0.095797 -0.360388 0.769700 0.500900 1 3 1.000000
  3 2.768500 -3.514400 66.009003 0.963433 -0.240908 -0.117304 0.642400 0.445800 1 3 1.000000
sandro_facemap
  3 3.213300 -0.926300 66.944901 0.927870 -0.095797 -0.360388 0.769700 0.500900 1 3 1.000000
  3 2.622300 -3.887800 67.679802 0.902538 -0.405317 -0.145406 0.625600 0.562400 1 3 1.000000
  3 2.768500 -3.514400 66.009003 0.963433 -0.240908 -0.117304 0.642400 0.445800 1 3 1.000000
sandro_facemap
  3 3.213300 -0.926300 66.944901 0.927870 -0.095797 -0.360388 0.769700 0.500900 1 3 1.000000
  3 1.795400 -4.997601 68.775398 0.616628 -0.744534 0.255812 0.572700 0.625700 1 3 1.000000
  3 2.622300 -3.887800 67.679802 0.902538 -0.405317 -0.145406 0.625600 0.562400 1 3 1.000000
sandro_facemap
  3 -0.386700 -6.304901 66.036797 -0.725237 -0.618332 -0.302815 0.483600 0.453600 1 3 1.000000
  3 0.303000 -5.313701 67.746399 0.583593 -0.809691 0.061799 0.509500 0.562400 1 3 1.000000
  3 -0.848900 -5.048800 65.945702 -0.190410 -0.966748 0.170709 0.454300 0.448100 1 3 1.000000
sandro_facemap
  3 -0.386700 -6.304901 66.036797 -0.725237 -0.618332 -0.302815 0.483600 0.453600 1 3 1.000000
  3 0.258200 -6.418200 66.020699 0.324804 -0.855810 -0.402605 0.503900 0.452500 1 3 1.000000
  3 0.303000 -5.313701 67.746399 0.583593 -0.809691 0.061799 0.509500 0.562400 1 3 1.000000
sandro_facemap
  3 0.048100 -5.785300 65.617699 -0.060000 -0.804803 -0.590502 0.497300 0.426300 1 3 1.000000
  3 0.258200 -6.418200 66.020699 0.324804 -0.855810 -0.402605 0.503900 0.452500 1 3 1.000000
  3 -0.386700 -6.304901 66.036797 -0.725237 -0.618332 -0.302815 0.483600 0.453600 1 3 1.000000
sandro_facemap
  3 0.998300 -5.048801 65.945702 0.695210 -0.689310 0.203803 0.540300 0.448100 1 3 1.000000
  3 0.258200 -6.418200 66.020699 0.324804 -0.855810 -0.402605 0.503900 0.452500 1 3 1.000000
  3 0.048100 -5.785300 65.617699 -0.060000 -0.804803 -0.590502 0.497300 0.426300 1 3 1.000000
sandro_facemap
  3 0.048100 -5.785300 65.617699 -0.060000 -0.804803 -0.590502 0.497300 0.426300 1 3 1.000000
  3 2.218700 -4.673601 65.971901 0.681427 -0.731029 0.035401 0.588400 0.448800 1 3 1.000000
  3 0.998300 -5.048801 65.945702 0.695210 -0.689310 0.203803 0.540300 0.448100 1 3 1.000000
sandro_facemap
  3 2.218700 -4.673601 65.971901 0.681427 -0.731029 0.035401 0.588400 0.448800 1 3 1.000000
  3 1.693500 -4.623100 67.325401 0.419804 -0.842008 0.338803 0.575300 0.542800 1 3 1.000000
  3 0.998300 -5.048801 65.945702 0.695210 -0.689310 0.203803 0.540300 0.448100 1 3 1.000000
sandro_facemap
  3 2.218700 -4.673601 65.971901 0.681427 -0.731029 0.035401 0.588400 0.448800 1 3 1.000000
  3 2.622300 -3.887800 67.679802 0.902538 -0.405317 -0.145406 0.625600 0.562400 1 3 1.000000
  3 1.693500 -4.623100 67.325401 0.419804 -0.842008 0.338803 0.575300 0.542800 1 3 1.000000
sandro_facemap
  3 1.693500 -4.623100 67.325401 0.419804 -0.842008 0.338803 0.575300 0.542800 1 3 1.000000
  3 2.622300 -3.887800 67.679802 0.902538 -0.405317 -0.145406 0.625600 0.562400 1 3 1.000000
  3 1.682900 -4.767601 67.690903 0.219903 -0.630709 -0.744210 0.573700 0.563200 1 3 1.000000
sandro_facemap
  3 1.428000 -5.272201 68.307800 0.395392 -0.882782 -0.253695 0.554800 0.592200 1 3 1.000000
  3 1.682900 -4.767601 67.690903 0.219903 -0.630709 -0.744210 0.573700 0.563200 1 3 1.000000
  3 2.622300 -3.887800 67.679802 0.902538 -0.405317 -0.145406 0.625600 0.562400 1 3 1.000000
sandro_facemap
  3 1.428000 -5.272201 68.307800 0.395392 -0.882782 -0.253695 0.554800 0.592200 1 3 1.000000
  3 2.622300 -3.887800 67.679802 0.902538 -0.405317 -0.145406 0.625600 0.562400 1 3 1.000000
  3 1.795400 -4.997601 68.775398 0.616628 -0.744534 0.255812 0.572700 0.625700 1 3 1.000000
sandro_facemap
  3 1.428000 -5.272201 68.307800 0.395392 -0.882782 -0.253695 0.554800 0.592200 1 3 1.000000
  3 1.795400 -4.997601 68.775398 0.616628 -0.744534 0.255812 0.572700 0.625700 1 3 1.000000
  3 1.674500 -4.158200 71.602600 0.658941 -0.624738 0.418926 0.585900 0.859300 1 3 1.000000
sandro_facemap
  3 1.674500 -4.158200 71.602600 0.658941 -0.624738 0.418926 0.585900 0.859300 1 3 1.000000
  3 1.795400 -4.997601 68.775398 0.616628 -0.744534 0.255812 0.572700 0.625700 1 3 1.000000
  3 3.037800 -2.350500 69.629700 0.934721 -0.331607 0.127803 0.706300 0.693100 1 3 1.000000
sandro_facemap
  3 3.213300 -0.926300 66.944901 0.927870 -0.095797 -0.360388 0.769700 0.500900 1 3 1.000000
  3 3.037800 -2.350500 69.629700 0.934721 -0.331607 0.127803 0.706300 0.693100 1 3 1.000000
  3 1.795400 -4.997601 68.775398 0.616628 -0.744534 0.255812 0.572700 0.625700 1 3 1.000000
sandro_facemap
  3 3.213300 -0.926300 66.944901 0.927870 -0.095797 -0.360388 0.769700 0.500900 1 3 1.000000
  3 2.753700 0.020000 66.667198 0.362286 0.866666 -0.342986 0.833700 0.482200 1 3 1.000000
  3 3.037800 -2.350500 69.629700 0.934721 -0.331607 0.127803 0.706300 0.693100 1 3 1.000000
sandro_facemap
  3 3.213300 -0.926300 66.944901 0.927870 -0.095797 -0.360388 0.769700 0.500900 1 3 1.000000
  3 3.572200 -0.730600 67.909897 0.708222 -0.392512 0.586818 0.782700 0.560400 1 3 1.000000
  3 2.753700 0.020000 66.667198 0.362286 0.866666 -0.342986 0.833700 0.482200 1 3 1.000000
sandro_facemap
  3 3.572200 -0.730600 67.909897 0.708222 -0.392512 0.586818 0.782700 0.560400 1 3 1.000000
  3 3.572800 0.368200 67.600304 0.636815 0.699817 0.323608 0.822000 0.539800 1 3 1.000000
  3 2.753700 0.020000 66.667198 0.362286 0.866666 -0.342986 0.833700 0.482200 1 3 1.000000
sandro_facemap
  3 3.213300 -0.926300 66.944901 0.927870 -0.095797 -0.360388 0.769700 0.500900 1 3 1.000000
  3 3.572800 0.368200 67.600304 0.636815 0.699817 0.323608 0.822000 0.539800 1 3 1.000000
  3 3.572200 -0.730600 67.909897 0.708222 -0.392512 0.586818 0.782700 0.560400 1 3 1.000000
sandro_facemap
  3 3.213300 -0.926300 66.944901 0.927870 -0.095797 -0.360388 0.769700 0.500900 1 3 1.000000
  3 3.307200 0.149500 66.262100 0.587910 0.606910 -0.534809 0.814700 0.451000 1 3 1.000000
  3 3.572800 0.368200 67.600304 0.636815 0.699817 0.323608 0.822000 0.539800 1 3 1.000000
sandro_facemap
  3 3.307200 0.149500 66.262100 0.587910 0.606910 -0.534809 0.814700 0.451000 1 3 1.000000
  3 3.213300 -0.926300 66.944901 0.927870 -0.095797 -0.360388 0.769700 0.500900 1 3 1.000000
  3 2.857800 -1.457901 65.536499 0.948331 0.010400 -0.317111 0.734800 0.403100 1 3 1.000000
sandro_facemap
  3 3.307200 0.149500 66.262100 0.587910 0.606910 -0.534809 0.814700 0.451000 1 3 1.000000
  3 2.857800 -1.457901 65.536499 0.948331 0.010400 -0.317111 0.734800 0.403100 1 3 1.000000
  3 2.753700 0.020000 66.667198 0.362286 0.866666 -0.342986 0.833700 0.482200 1 3 1.000000
sandro_facemap
  3 3.572800 0.368200 67.600304 0.636815 0.699817 0.323608 0.822000 0.539800 1 3 1.000000
  3 3.307200 0.149500 66.262100 0.587910 0.606910 -0.534809 0.814700 0.451000 1 3 1.000000
  3 2.753700 0.020000 66.667198 0.362286 0.866666 -0.342986 0.833700 0.482200 1 3 1.000000
sandro_facemap
  3 -0.471700 -5.498600 68.297997 -0.025500 -0.975884 -0.216796 0.479400 0.591000 1 3 1.000000
  3 0.303000 -5.313701 67.746399 0.583593 -0.809691 0.061799 0.509500 0.562400 1 3 1.000000
  3 1.428000 -5.272201 68.307800 0.395392 -0.882782 -0.253695 0.554800 0.592200 1 3 1.000000
sandro_facemap
  3 1.428000 -5.272201 68.307800 0.395392 -0.882782 -0.253695 0.554800 0.592200 1 3 1.000000
  3 0.303000 -5.313701 67.746399 0.583593 -0.809691 0.061799 0.509500 0.562400 1 3 1.000000
  3 1.682900 -4.767601 67.690903 0.219903 -0.630709 -0.744210 0.573700 0.563200 1 3 1.000000
sandro_facemap
  3 0.939400 -4.571200 67.543503 0.708804 -0.650604 -0.272601 0.537100 0.553900 1 3 1.000000
  3 1.682900 -4.767601 67.690903 0.219903 -0.630709 -0.744210 0.573700 0.563200 1 3 1.000000
  3 0.303000 -5.313701 67.746399 0.583593 -0.809691 0.061799 0.509500 0.562400 1 3 1.000000
sandro_facemap
  3 0.939400 -4.571200 67.543503 0.708804 -0.650604 -0.272601 0.537100 0.553900 1 3 1.000000
  3 0.303000 -5.313701 67.746399 0.583593 -0.809691 0.061799 0.509500 0.562400 1 3 1.000000
  3 1.693500 -4.623100 67.325401 0.419804 -0.842008 0.338803 0.575300 0.542800 1 3 1.000000
sandro_facemap
  3 1.693500 -4.623100 67.325401 0.419804 -0.842008 0.338803 0.575300 0.542800 1 3 1.000000
  3 0.303000 -5.313701 67.746399 0.583593 -0.809691 0.061799 0.509500 0.562400 1 3 1.000000
  3 0.998300 -5.048801 65.945702 0.695210 -0.689310 0.203803 0.540300 0.448100 1 3 1.000000
sandro_facemap
  3 0.998300 -5.048801 65.945702 0.695210 -0.689310 0.203803 0.540300 0.448100 1 3 1.000000
  3 0.303000 -5.313701 67.746399 0.583593 -0.809691 0.061799 0.509500 0.562400 1 3 1.000000
  3 0.258200 -6.418200 66.020699 0.324804 -0.855810 -0.402605 0.503900 0.452500 1 3 1.000000
sandro_facemap
  3 -3.187300 -1.123900 66.077103 -0.983347 -0.180509 -0.021101 0.236500 0.439800 1 3 1.000000
  3 -2.986200 0.020000 66.667198 -0.341201 0.885603 -0.315101 0.168200 0.475300 1 3 1.000000
  3 -2.867100 -2.493300 64.627800 -0.964951 -0.014801 -0.262014 0.318900 0.351500 1 3 1.000000
sandro_facemap
  3 -2.867100 -2.493300 64.627800 -0.964951 -0.014801 -0.262014 0.318900 0.351500 1 3 1.000000
  3 -2.591800 -4.231801 65.254097 -0.836635 -0.502421 -0.218209 0.390400 0.401800 1 3 1.000000
  3 -3.187300 -1.123900 66.077103 -0.983347 -0.180509 -0.021101 0.236500 0.439800 1 3 1.000000
sandro_facemap
  3 -2.808000 -3.887800 67.679802 -0.823808 -0.543405 -0.161402 0.368100 0.558600 1 3 1.000000
  3 -3.187300 -1.123900 66.077103 -0.983347 -0.180509 -0.021101 0.236500 0.439800 1 3 1.000000
  3 -2.591800 -4.231801 65.254097 -0.836635 -0.502421 -0.218209 0.390400 0.401800 1 3 1.000000
sandro_facemap
  3 -1.335300 -5.094700 65.241600 -0.475897 -0.878095 0.049700 0.438700 0.403000 1 3 1.000000
  3 -2.808000 -3.887800 67.679802 -0.823808 -0.543405 -0.161402 0.368100 0.558600 1 3 1.000000
  3 -2.591800 -4.231801 65.254097 -0.836635 -0.502421 -0.218209 0.390400 0.401800 1 3 1.000000
sandro_facemap
  3 -2.808000 -3.887800 67.679802 -0.823808 -0.543405 -0.161402 0.368100 0.558600 1 3 1.000000
  3 -1.335300 -5.094700 65.241600 -0.475897 -0.878095 0.049700 0.438700 0.403000 1 3 1.000000
  3 -1.309600 -4.684600 66.807602 -0.302608 -0.940525 0.154404 0.435200 0.506200 1 3 1.000000
sandro_facemap
  3 -0.848900 -5.048800 65.945702 -0.190410 -0.966748 0.170709 0.454300 0.448100 1 3 1.000000
  3 -1.309600 -4.684600 66.807602 -0.302608 -0.940525 0.154404 0.435200 0.506200 1 3 1.000000
  3 -1.335300 -5.094700 65.241600 -0.475897 -0.878095 0.049700 0.438700 0.403000 1 3 1.000000
sandro_facemap
  3 -0.848900 -5.048800 65.945702 -0.190410 -0.966748 0.170709 0.454300 0.448100 1 3 1.000000
  3 -0.844900 -4.570001 67.543503 -0.672975 -0.661076 -0.331788 0.454400 0.551400 1 3 1.000000
  3 -1.309600 -4.684600 66.807602 -0.302608 -0.940525 0.154404 0.435200 0.506200 1 3 1.000000
sandro_facemap
  3 0.303000 -5.313701 67.746399 0.583593 -0.809691 0.061799 0.509500 0.562400 1 3 1.000000
  3 -0.844900 -4.570001 67.543503 -0.672975 -0.661076 -0.331788 0.454400 0.551400 1 3 1.000000
  3 -0.848900 -5.048800 65.945702 -0.190410 -0.966748 0.170709 0.454300 0.448100 1 3 1.000000
sandro_facemap
  3 -0.844900 -4.570001 67.543503 -0.672975 -0.661076 -0.331788 0.454400 0.551400 1 3 1.000000
  3 0.303000 -5.313701 67.746399 0.583593 -0.809691 0.061799 0.509500 0.562400 1 3 1.000000
  3 -1.641000 -4.767601 67.683403 -0.116704 -0.700623 -0.703923 0.419800 0.562100 1 3 1.000000
sandro_facemap
  3 -1.641000 -4.767601 67.683403 -0.116704 -0.700623 -0.703923 0.419800 0.562100 1 3 1.000000
  3 0.303000 -5.313701 67.746399 0.583593 -0.809691 0.061799 0.509500 0.562400 1 3 1.000000
  3 -0.471700 -5.498600 68.297997 -0.025500 -0.975884 -0.216796 0.479400 0.591000 1 3 1.000000
sandro_facemap
  3 -1.641000 -4.767601 67.683403 -0.116704 -0.700623 -0.703923 0.419800 0.562100 1 3 1.000000
  3 -0.471700 -5.498600 68.297997 -0.025500 -0.975884 -0.216796 0.479400 0.591000 1 3 1.000000
  3 -1.381200 -5.272201 68.307800 -0.334503 -0.900209 -0.278803 0.441300 0.592400 1 3 1.000000
sandro_facemap
  3 -0.471700 -5.498600 68.297997 -0.025500 -0.975884 -0.216796 0.479400 0.591000 1 3 1.000000
  3 1.428000 -5.272201 68.307800 0.395392 -0.882782 -0.253695 0.554800 0.592200 1 3 1.000000
  3 -1.381200 -5.272201 68.307800 -0.334503 -0.900209 -0.278803 0.441300 0.592400 1 3 1.000000
sandro_facemap
  3 0.047500 -4.855600 71.457298 0.003200 -0.940063 0.340987 0.500000 0.850200 1 3 1.000000
  3 -1.381200 -5.272201 68.307800 -0.334503 -0.900209 -0.278803 0.441300 0.592400 1 3 1.000000
  3 1.428000 -5.272201 68.307800 0.395392 -0.882782 -0.253695 0.554800 0.592200 1 3 1.000000
sandro_facemap
  3 1.428000 -5.272201 68.307800 0.395392 -0.882782 -0.253695 0.554800 0.592200 1 3 1.000000
  3 1.674500 -4.158200 71.602600 0.658941 -0.624738 0.418926 0.585900 0.859300 1 3 1.000000
  3 0.047500 -4.855600 71.457298 0.003200 -0.940063 0.340987 0.500000 0.850200 1 3 1.000000
sandro_facemap
  3 1.590300 -2.891900 72.295303 0.414591 -0.230695 0.880281 0.644500 0.893900 1 3 1.000000
  3 0.047500 -4.855600 71.457298 0.003200 -0.940063 0.340987 0.500000 0.850200 1 3 1.000000
  3 1.674500 -4.158200 71.602600 0.658941 -0.624738 0.418926 0.585900 0.859300 1 3 1.000000
sandro_facemap
  3 1.674500 -4.158200 71.602600 0.658941 -0.624738 0.418926 0.585900 0.859300 1 3 1.000000
  3 3.097600 -1.051900 71.001099 0.927602 -0.161200 0.337001 0.770700 0.788400 1 3 1.000000
  3 1.590300 -2.891900 72.295303 0.414591 -0.230695 0.880281 0.644500 0.893900 1 3 1.000000
sandro_facemap
  3 3.037800 -2.350500 69.629700 0.934721 -0.331607 0.127803 0.706300 0.693100 1 3 1.000000
  3 3.097600 -1.051900 71.001099 0.927602 -0.161200 0.337001 0.770700 0.788400 1 3 1.000000
  3 1.674500 -4.158200 71.602600 0.658941 -0.624738 0.418926 0.585900 0.859300 1 3 1.000000
sandro_facemap
  3 3.037800 -2.350500 69.629700 0.934721 -0.331607 0.127803 0.706300 0.693100 1 3 1.000000
  3 3.073900 1.639200 69.652901 0.897307 0.426803 0.112601 0.882100 0.695400 1 3 1.000000
  3 3.097600 -1.051900 71.001099 0.927602 -0.161200 0.337001 0.770700 0.788400 1 3 1.000000
sandro_facemap
  3 0.047500 -1.347800 72.800201 -0.059499 -0.038399 0.997489 0.505000 0.993400 1 3 1.000000
  3 1.590300 -2.891900 72.295303 0.414591 -0.230695 0.880281 0.644500 0.893900 1 3 1.000000
  3 1.832900 1.702200 71.764000 0.505583 0.531182 0.679877 0.917900 0.877700 1 3 1.000000
sandro_facemap
  3 0.047500 -1.347800 72.800201 -0.059499 -0.038399 0.997489 0.505000 0.993400 1 3 1.000000
  3 0.047500 -4.855600 71.457298 0.003200 -0.940063 0.340987 0.500000 0.850200 1 3 1.000000
  3 1.590300 -2.891900 72.295303 0.414591 -0.230695 0.880281 0.644500 0.893900 1 3 1.000000
sandro_facemap
  3 0.047500 -4.855600 71.457298 0.003200 -0.940063 0.340987 0.500000 0.850200 1 3 1.000000
  3 -0.940800 -4.613300 71.445900 -0.404106 -0.831813 0.380506 0.451900 0.852700 1 3 1.000000
  3 -1.381200 -5.272201 68.307800 -0.334503 -0.900209 -0.278803 0.441300 0.592400 1 3 1.000000
sandro_facemap
  3 -1.381200 -5.272201 68.307800 -0.334503 -0.900209 -0.278803 0.441300 0.592400 1 3 1.000000
  3 -0.940800 -4.613300 71.445900 -0.404106 -0.831813 0.380506 0.451900 0.852700 1 3 1.000000
  3 -2.336800 -3.375000 71.379997 -0.732907 -0.466604 0.495104 0.316100 0.861400 1 3 1.000000
sandro_facemap
  3 -2.601900 0.813600 71.792000 -0.625479 0.344688 0.699976 0.127300 0.853600 1 3 1.000000
  3 -2.524500 2.605400 69.652901 -0.660085 0.716484 0.225695 0.078000 0.708900 1 3 1.000000
  3 -3.212800 1.639200 69.652901 -0.894923 0.431411 0.114003 0.115900 0.687800 1 3 1.000000
sandro_facemap
  3 -3.212800 1.639200 69.652901 -0.894923 0.431411 0.114003 0.115900 0.687800 1 3 1.000000
  3 -2.877800 -0.184800 71.746399 -0.732308 0.074301 0.676908 0.170200 0.850900 1 3 1.000000
  3 -2.601900 0.813600 71.792000 -0.625479 0.344688 0.699976 0.127300 0.853600 1 3 1.000000
sandro_facemap
  3 -2.877800 -0.184800 71.746399 -0.732308 0.074301 0.676908 0.170200 0.850900 1 3 1.000000
  3 -3.212800 1.639200 69.652901 -0.894923 0.431411 0.114003 0.115900 0.687800 1 3 1.000000
  3 -3.181300 -2.350500 69.629700 -0.942826 -0.324409 0.076402 0.275900 0.676700 1 3 1.000000
sandro_facemap
  3 -2.336800 -3.375000 71.379997 -0.732907 -0.466604 0.495104 0.316100 0.861400 1 3 1.000000
  3 -2.877800 -0.184800 71.746399 -0.732308 0.074301 0.676908 0.170200 0.850900 1 3 1.000000
  3 -3.181300 -2.350500 69.629700 -0.942826 -0.324409 0.076402 0.275900 0.676700 1 3 1.000000
sandro_facemap
  3 -2.808000 -3.887800 67.679802 -0.823808 -0.543405 -0.161402 0.368100 0.558600 1 3 1.000000
  3 -2.336800 -3.375000 71.379997 -0.732907 -0.466604 0.495104 0.316100 0.861400 1 3 1.000000
  3 -3.181300 -2.350500 69.629700 -0.942826 -0.324409 0.076402 0.275900 0.676700 1 3 1.000000
sandro_facemap
  3 -1.381200 -5.272201 68.307800 -0.334503 -0.900209 -0.278803 0.441300 0.592400 1 3 1.000000
  3 -2.336800 -3.375000 71.379997 -0.732907 -0.466604 0.495104 0.316100 0.861400 1 3 1.000000
  3 -2.808000 -3.887800 67.679802 -0.823808 -0.543405 -0.161402 0.368100 0.558600 1 3 1.000000
sandro_facemap
  3 -1.381200 -5.272201 68.307800 -0.334503 -0.900209 -0.278803 0.441300 0.592400 1 3 1.000000
  3 -2.808000 -3.887800 67.679802 -0.823808 -0.543405 -0.161402 0.368100 0.558600 1 3 1.000000
  3 -1.641000 -4.767601 67.683403 -0.116704 -0.700623 -0.703923 0.419800 0.562100 1 3 1.000000
sandro_facemap
  3 -1.641000 -4.767601 67.683403 -0.116704 -0.700623 -0.703923 0.419800 0.562100 1 3 1.000000
  3 -2.808000 -3.887800 67.679802 -0.823808 -0.543405 -0.161402 0.368100 0.558600 1 3 1.000000
  3 -1.309600 -4.684600 66.807602 -0.302608 -0.940525 0.154404 0.435200 0.506200 1 3 1.000000
sandro_facemap
  3 -1.641000 -4.767601 67.683403 -0.116704 -0.700623 -0.703923 0.419800 0.562100 1 3 1.000000
  3 -1.309600 -4.684600 66.807602 -0.302608 -0.940525 0.154404 0.435200 0.506200 1 3 1.000000
  3 -0.844900 -4.570001 67.543503 -0.672975 -0.661076 -0.331788 0.454400 0.551400 1 3 1.000000
sandro_facemap
  3 -2.336800 -3.375000 71.379997 -0.732907 -0.466604 0.495104 0.316100 0.861400 1 3 1.000000
  3 -0.940800 -4.613300 71.445900 -0.404106 -0.831813 0.380506 0.451900 0.852700 1 3 1.000000
  3 0.047500 -4.855600 71.457298 0.003200 -0.940063 0.340987 0.500000 0.850200 1 3 1.000000
sandro_facemap
  3 -2.336800 -3.375000 71.379997 -0.732907 -0.466604 0.495104 0.316100 0.861400 1 3 1.000000
  3 0.047500 -4.855600 71.457298 0.003200 -0.940063 0.340987 0.500000 0.850200 1 3 1.000000
  3 -2.877800 -0.184800 71.746399 -0.732308 0.074301 0.676908 0.170200 0.850900 1 3 1.000000
sandro_facemap
  3 0.047500 -4.855600 71.457298 0.003200 -0.940063 0.340987 0.500000 0.850200 1 3 1.000000
  3 0.047500 -1.347800 72.800201 -0.059499 -0.038399 0.997489 0.505000 0.993400 1 3 1.000000
  3 -2.877800 -0.184800 71.746399 -0.732308 0.074301 0.676908 0.170200 0.850900 1 3 1.000000
sandro_facemap
  3 -2.877800 -0.184800 71.746399 -0.732308 0.074301 0.676908 0.170200 0.850900 1 3 1.000000
  3 0.047500 -1.347800 72.800201 -0.059499 -0.038399 0.997489 0.505000 0.993400 1 3 1.000000
  3 -2.601900 0.813600 71.792000 -0.625479 0.344688 0.699976 0.127300 0.853600 1 3 1.000000
sandro_facemap
  3 -2.601900 0.813600 71.792000 -0.625479 0.344688 0.699976 0.127300 0.853600 1 3 1.000000
  3 0.047500 -1.347800 72.800201 -0.059499 -0.038399 0.997489 0.505000 0.993400 1 3 1.000000
  3 1.832900 1.702200 71.764000 0.439811 0.487412 0.754318 0.002800 0.994000 1 3 1.000000
sandro_facemap
  3 -1.162200 2.099900 71.699799 -0.263493 0.658783 0.704682 0.052400 0.899400 1 3 1.000000
  3 -2.601900 0.813600 71.792000 -0.625479 0.344688 0.699976 0.127300 0.853600 1 3 1.000000
  3 1.832900 1.702200 71.764000 0.439811 0.487412 0.754318 0.002800 0.994000 1 3 1.000000
sandro_facemap
  3 -2.601900 0.813600 71.792000 -0.625479 0.344688 0.699976 0.127300 0.853600 1 3 1.000000
  3 -1.162200 2.099900 71.699799 -0.263493 0.658783 0.704682 0.052400 0.899400 1 3 1.000000
  3 -2.524500 2.605400 69.652901 -0.660085 0.716484 0.225695 0.078000 0.708900 1 3 1.000000
sandro_facemap
  3 -2.524500 2.605400 69.652901 -0.660085 0.716484 0.225695 0.078000 0.708900 1 3 1.000000
  3 -1.162200 2.099900 71.699799 -0.263493 0.658783 0.704682 0.052400 0.899400 1 3 1.000000
  3 1.409300 3.238200 69.652901 0.315092 0.911577 0.264093 0.001900 0.725900 1 3 1.000000
sandro_facemap
  3 -1.301700 3.360900 67.303802 -0.358405 0.915812 -0.181202 0.039200 0.550400 1 3 1.000000
  3 -2.524500 2.605400 69.652901 -0.660085 0.716484 0.225695 0.078000 0.708900 1 3 1.000000
  3 1.409300 3.238200 69.652901 0.315092 0.911577 0.264093 0.001900 0.725900 1 3 1.000000
sandro_facemap
  3 -1.301700 3.360900 67.303802 -0.358405 0.915812 -0.181202 0.039200 0.550400 1 3 1.000000
  3 -2.342700 2.696600 67.318001 -0.728412 0.635110 -0.257004 0.062600 0.545900 1 3 1.000000
  3 -2.524500 2.605400 69.652901 -0.660085 0.716484 0.225695 0.078000 0.708900 1 3 1.000000
sandro_facemap
  3 -1.172300 2.170399 64.490402 -0.569430 0.820443 0.051203 0.051000 0.299300 1 3 1.000000
  3 -2.342700 2.696600 67.318001 -0.728412 0.635110 -0.257004 0.062600 0.545900 1 3 1.000000
  3 -1.301700 3.360900 67.303802 -0.358405 0.915812 -0.181202 0.039200 0.550400 1 3 1.000000
sandro_facemap
  3 -2.246600 0.972199 65.400597 -0.861764 0.457081 -0.220091 0.111400 0.377100 1 3 1.000000
  3 -2.342700 2.696600 67.318001 -0.728412 0.635110 -0.257004 0.062600 0.545900 1 3 1.000000
  3 -1.172300 2.170399 64.490402 -0.569430 0.820443 0.051203 0.051000 0.299300 1 3 1.000000
sandro_facemap
  3 -2.246600 0.972199 65.400597 -0.861764 0.457081 -0.220091 0.111400 0.377100 1 3 1.000000
  3 -1.172300 2.170399 64.490402 -0.569430 0.820443 0.051203 0.051000 0.299300 1 3 1.000000
  3 -2.093600 2.146300 62.098701 -0.874577 0.444388 0.193995 0.082800 0.207300 1 3 1.000000
sandro_facemap
  3 -1.937300 -0.439100 60.610500 -0.879476 -0.410889 -0.240193 0.174900 0.142300 1 3 1.000000
  3 -2.246600 0.972199 65.400597 -0.861764 0.457081 -0.220091 0.111400 0.377100 1 3 1.000000
  3 -2.093600 2.146300 62.098701 -0.874577 0.444388 0.193995 0.082800 0.207300 1 3 1.000000
sandro_facemap
  3 -1.937300 -0.439100 60.610500 -0.879476 -0.410889 -0.240193 0.174900 0.142300 1 3 1.000000
  3 -2.986200 0.020000 66.667198 -0.341201 0.885603 -0.315101 0.168200 0.475300 1 3 1.000000
  3 -2.246600 0.972199 65.400597 -0.861764 0.457081 -0.220091 0.111400 0.377100 1 3 1.000000
sandro_facemap
  3 -2.246600 0.972199 65.400597 -0.861764 0.457081 -0.220091 0.111400 0.377100 1 3 1.000000
  3 -2.986200 0.020000 66.667198 -0.341201 0.885603 -0.315101 0.168200 0.475300 1 3 1.000000
  3 -2.342700 2.696600 67.318001 -0.728412 0.635110 -0.257004 0.062600 0.545900 1 3 1.000000
sandro_facemap
  3 -2.986200 0.020000 66.667198 -0.341201 0.885603 -0.315101 0.168200 0.475300 1 3 1.000000
  3 -3.212800 1.639200 69.652901 -0.894923 0.431411 0.114003 0.115900 0.687800 1 3 1.000000
  3 -2.342700 2.696600 67.318001 -0.728412 0.635110 -0.257004 0.062600 0.545900 1 3 1.000000
sandro_facemap
  3 -2.342700 2.696600 67.318001 -0.728412 0.635110 -0.257004 0.062600 0.545900 1 3 1.000000
  3 -3.212800 1.639200 69.652901 -0.894923 0.431411 0.114003 0.115900 0.687800 1 3 1.000000
  3 -2.524500 2.605400 69.652901 -0.660085 0.716484 0.225695 0.078000 0.708900 1 3 1.000000
sandro_facemap
  3 -2.093600 2.146300 62.098701 -0.874577 0.444388 0.193995 0.082800 0.207300 1 3 1.000000
  3 -1.172300 2.170399 64.490402 -0.569430 0.820443 0.051203 0.051000 0.299300 1 3 1.000000
  3 1.194300 2.984100 62.637604 0.397102 0.900505 0.177201 0.001900 0.209700 2 3 0.906000 13 0.094000
sandro_facemap
  3 -3.336300 -1.463600 67.504898 -0.961996 -0.258799 -0.087100 0.250700 0.536700 1 3 1.000000
  3 -3.212800 1.639200 69.652901 -0.894923 0.431411 0.114003 0.115900 0.687800 1 3 1.000000
  3 -2.986200 0.020000 66.667198 -0.341201 0.885603 -0.315101 0.168200 0.475300 1 3 1.000000
sandro_facemap
  3 -3.336300 -1.463600 67.504898 -0.961996 -0.258799 -0.087100 0.250700 0.536700 1 3 1.000000
  3 -3.181300 -2.350500 69.629700 -0.942826 -0.324409 0.076402 0.275900 0.676700 1 3 1.000000
  3 -3.212800 1.639200 69.652901 -0.894923 0.431411 0.114003 0.115900 0.687800 1 3 1.000000
sandro_facemap
  3 -2.808000 -3.887800 67.679802 -0.823808 -0.543405 -0.161402 0.368100 0.558600 1 3 1.000000
  3 -3.181300 -2.350500 69.629700 -0.942826 -0.324409 0.076402 0.275900 0.676700 1 3 1.000000
  3 -3.336300 -1.463600 67.504898 -0.961996 -0.258799 -0.087100 0.250700 0.536700 1 3 1.000000
sandro_facemap
  3 -3.187300 -1.123900 66.077103 -0.983347 -0.180509 -0.021101 0.236500 0.439800 1 3 1.000000
  3 -2.808000 -3.887800 67.679802 -0.823808 -0.543405 -0.161402 0.368100 0.558600 1 3 1.000000
  3 -3.336300 -1.463600 67.504898 -0.961996 -0.258799 -0.087100 0.250700 0.536700 1 3 1.000000
sandro_facemap
  3 -3.336300 -1.463600 67.504898 -0.961996 -0.258799 -0.087100 0.250700 0.536700 1 3 1.000000
  3 -3.770500 0.368200 67.600304 -0.962325 -0.232906 -0.140304 0.167400 0.538600 1 3 1.000000
  3 -3.187300 -1.123900 66.077103 -0.983347 -0.180509 -0.021101 0.236500 0.439800 1 3 1.000000
sandro_facemap
  3 -3.770500 0.368200 67.600304 -0.962325 -0.232906 -0.140304 0.167400 0.538600 1 3 1.000000
  3 -3.539700 0.149500 66.262100 -0.566806 0.631907 -0.528606 0.176800 0.448500 1 3 1.000000
  3 -3.187300 -1.123900 66.077103 -0.983347 -0.180509 -0.021101 0.236500 0.439800 1 3 1.000000
sandro_facemap
  3 -3.187300 -1.123900 66.077103 -0.983347 -0.180509 -0.021101 0.236500 0.439800 1 3 1.000000
  3 -3.539700 0.149500 66.262100 -0.566806 0.631907 -0.528606 0.176800 0.448500 1 3 1.000000
  3 -2.986200 0.020000 66.667198 -0.341201 0.885603 -0.315101 0.168200 0.475300 1 3 1.000000
sandro_facemap
  3 -2.986200 0.020000 66.667198 -0.341201 0.885603 -0.315101 0.168200 0.475300 1 3 1.000000
  3 -3.539700 0.149500 66.262100 -0.566806 0.631907 -0.528606 0.176800 0.448500 1 3 1.000000
  3 -3.770500 0.368200 67.600304 0.297913 0.948943 -0.103705 0.167400 0.538600 1 3 1.000000
sandro_facemap
  3 3.097600 -1.051900 71.001099 0.927602 -0.161200 0.337001 0.770700 0.788400 1 3 1.000000
  3 1.832900 1.702200 71.764000 0.505583 0.531182 0.679877 0.917900 0.877700 1 3 1.000000
  3 1.590300 -2.891900 72.295303 0.414591 -0.230695 0.880281 0.644500 0.893900 1 3 1.000000
sandro_facemap
  3 3.073900 1.639200 69.652901 0.897307 0.426803 0.112601 0.882100 0.695400 1 3 1.000000
  3 1.832900 1.702200 71.764000 0.505583 0.531182 0.679877 0.917900 0.877700 1 3 1.000000
  3 3.097600 -1.051900 71.001099 0.927602 -0.161200 0.337001 0.770700 0.788400 1 3 1.000000
sandro_facemap
  3 1.409300 3.238200 69.652901 0.357102 0.902705 0.240001 0.955200 0.725900 1 3 1.000000
  3 1.832900 1.702200 71.764000 0.505583 0.531182 0.679877 0.917900 0.877700 1 3 1.000000
  3 3.073900 1.639200 69.652901 0.897307 0.426803 0.112601 0.882100 0.695400 1 3 1.000000
sandro_facemap
  3 1.409300 3.238200 69.652901 0.357102 0.902705 0.240001 0.955200 0.725900 1 3 1.000000
  3 3.073900 1.639200 69.652901 0.897307 0.426803 0.112601 0.882100 0.695400 1 3 1.000000
  3 1.337000 3.360900 67.303802 0.439915 0.876231 -0.196707 0.957700 0.551500 1 3 1.000000
sandro_facemap
  3 1.409300 3.238200 69.652901 0.357102 0.902705 0.240001 0.955200 0.725900 1 3 1.000000
  3 1.337000 3.360900 67.303802 0.439915 0.876231 -0.196707 0.957700 0.551500 1 3 1.000000
  3 -1.301700 3.360900 67.303802 -0.235094 0.958378 -0.161996 0.998000 0.556400 1 3 1.000000
sandro_facemap
  3 -1.301700 3.360900 67.303802 -0.235094 0.958378 -0.161996 0.998000 0.556400 1 3 1.000000
  3 1.337000 3.360900 67.303802 0.439915 0.876231 -0.196707 0.957700 0.551500 1 3 1.000000
  3 1.625000 1.960199 65.386200 0.753172 0.603877 -0.260890 0.929600 0.380800 1 3 1.000000
sandro_facemap
  3 -1.301700 3.360900 67.303802 -0.235094 0.958378 -0.161996 0.998000 0.556400 1 3 1.000000
  3 1.625000 1.960199 65.386200 0.753172 0.603877 -0.260890 0.929600 0.380800 1 3 1.000000
  3 -1.172300 2.170399 64.490402 -0.380922 0.924253 -0.025602 0.998100 0.309400 1 3 1.000000
sandro_facemap
  3 1.194300 2.984100 62.637604 0.496771 0.773254 0.394077 0.960300 0.202900 2 3 0.906000 13 0.094000
  3 -1.172300 2.170399 64.490402 -0.380922 0.924253 -0.025602 0.998100 0.309400 1 3 1.000000
  3 1.625000 1.960199 65.386200 0.753172 0.603877 -0.260890 0.929600 0.380800 1 3 1.000000
sandro_facemap
  3 2.350500 0.558200 62.042500 0.991670 -0.128796 -0.001300 0.858700 0.227500 1 3 1.000000
  3 1.194300 2.984100 62.637604 0.496771 0.773254 0.394077 0.960300 0.202900 2 3 0.906000 13 0.094000
  3 1.625000 1.960199 65.386200 0.753172 0.603877 -0.260890 0.929600 0.380800 1 3 1.000000
sandro_facemap
  3 2.350500 0.558200 62.042500 0.991670 -0.128796 -0.001300 0.858700 0.227500 1 3 1.000000
  3 1.625000 1.960199 65.386200 0.753172 0.603877 -0.260890 0.929600 0.380800 1 3 1.000000
  3 2.142900 1.122799 64.226997 0.926638 0.370115 0.066003 0.885000 0.300500 1 3 1.000000
sandro_facemap
  3 2.142900 1.122799 64.226997 0.926638 0.370115 0.066003 0.885000 0.300500 1 3 1.000000
  3 2.014900 -0.439100 60.610500 0.900810 -0.401805 -0.164602 0.825100 0.142300 1 3 1.000000
  3 2.350500 0.558200 62.042500 0.991670 -0.128796 -0.001300 0.858700 0.227500 1 3 1.000000
sandro_facemap
  3 1.978500 -1.465401 63.036400 0.916315 -0.213804 -0.338606 0.742500 0.276100 1 3 1.000000
  3 2.014900 -0.439100 60.610500 0.900810 -0.401805 -0.164602 0.825100 0.142300 1 3 1.000000
  3 2.142900 1.122799 64.226997 0.926638 0.370115 0.066003 0.885000 0.300500 1 3 1.000000
sandro_facemap
  3 2.014900 -0.439100 60.610500 0.900810 -0.401805 -0.164602 0.825100 0.142300 1 3 1.000000
  3 1.978500 -1.465401 63.036400 0.916315 -0.213804 -0.338606 0.742500 0.276100 1 3 1.000000
  3 0.047500 -2.110000 60.099499 -0.000700 -0.903111 -0.429405 0.500000 0.113100 1 3 1.000000
sandro_facemap
  3 0.047500 -3.271201 62.153198 -0.000900 -0.353511 -0.935430 0.500000 0.230600 1 3 1.000000
  3 0.047500 -2.110000 60.099499 -0.000700 -0.903111 -0.429405 0.500000 0.113100 1 3 1.000000
  3 1.978500 -1.465401 63.036400 0.916315 -0.213804 -0.338606 0.742500 0.276100 1 3 1.000000
sandro_facemap
  3 -1.937300 -0.439100 60.610500 -0.879476 -0.410889 -0.240193 0.174900 0.142300 1 3 1.000000
  3 0.047500 -2.110000 60.099499 -0.000700 -0.903111 -0.429405 0.500000 0.113100 1 3 1.000000
  3 0.047500 -3.271201 62.153198 -0.000900 -0.353511 -0.935430 0.500000 0.230600 1 3 1.000000
sandro_facemap
  3 -1.937300 -0.439100 60.610500 -0.879476 -0.410889 -0.240193 0.174900 0.142300 1 3 1.000000
  3 0.047500 -3.271201 62.153198 -0.000900 -0.353511 -0.935430 0.500000 0.230600 1 3 1.000000
  3 -1.991500 -1.465401 63.036400 -0.883375 -0.225794 -0.410688 0.254400 0.269200 1 3 1.000000
sandro_facemap
  3 -1.937300 -0.439100 60.610500 -0.879476 -0.410889 -0.240193 0.174900 0.142300 1 3 1.000000
  3 -1.991500 -1.465401 63.036400 -0.883375 -0.225794 -0.410688 0.254400 0.269200 1 3 1.000000
  3 -2.986200 0.020000 66.667198 -0.341201 0.885603 -0.315101 0.168200 0.475300 1 3 1.000000
sandro_facemap
  3 -1.991500 -1.465401 63.036400 -0.883375 -0.225794 -0.410688 0.254400 0.269200 1 3 1.000000
  3 -2.867100 -2.493300 64.627800 -0.964951 -0.014801 -0.262014 0.318900 0.351500 1 3 1.000000
  3 -2.986200 0.020000 66.667198 -0.341201 0.885603 -0.315101 0.168200 0.475300 1 3 1.000000
sandro_facemap
  3 3.073900 1.639200 69.652901 0.897307 0.426803 0.112601 0.882100 0.695400 1 3 1.000000
  3 1.625000 1.960199 65.386200 0.753172 0.603877 -0.260890 0.929600 0.380800 1 3 1.000000
  3 1.337000 3.360900 67.303802 0.439915 0.876231 -0.196707 0.957700 0.551500 1 3 1.000000
sandro_facemap
  3 1.409300 3.238200 69.652901 0.357102 0.902705 0.240001 0.955200 0.725900 1 3 1.000000
  3 -1.162200 2.099900 71.699799 -0.176400 0.606201 0.775502 0.998100 0.928800 1 3 1.000000
  3 1.832900 1.702200 71.764000 0.505583 0.531182 0.679877 0.917900 0.877700 1 3 1.000000
eyeball_l
  3 1.682900 -4.767601 67.690903 0.412008 -0.793716 -0.447509 0.421100 0.850800 1 3 1.000000
  3 0.939400 -4.571200 67.543503 -0.377311 -0.925626 -0.029201 0.038900 0.360800 1 3 1.000000
  3 1.693500 -4.623100 67.325401 0.431320 -0.901742 0.028701 0.744500 0.390400 1 3 1.000000
mouth
  3 1.379200 -5.003401 64.386299 -0.816901 0.563401 0.123500 0.992400 0.478800 1 3 1.000000
  3 0.369100 -5.895200 64.884697 -0.689211 0.474807 -0.547308 0.509500 0.453400 1 3 1.000000
  3 0.932200 -4.619501 65.282204 -0.477675 0.247487 -0.842957 0.805300 0.492400 1 3 1.000000
mouth
  3 -1.022800 -3.700701 65.114403 0.500107 -0.411006 -0.762211 0.158600 0.539500 1 3 1.000000
  3 -1.003100 -3.700701 63.810902 0.462199 -0.450199 0.763998 0.158700 0.539500 1 3 1.000000
  3 1.200600 -3.292100 64.514999 -0.609476 -0.792769 0.007500 0.943000 0.540600 1 3 1.000000
mouth
  3 -1.003100 -3.700701 63.810902 0.462199 -0.450199 0.763998 0.158700 0.539500 1 3 1.000000
  3 -1.022800 -3.700701 65.114403 0.500107 -0.411006 -0.762211 0.158600 0.539500 1 3 1.000000
  3 -1.293600 -5.003401 64.386299 0.794479 0.597484 0.108697 0.010200 0.478800 1 3 1.000000
mouth
  3 0.047500 -5.729001 64.452797 -0.020299 0.292092 0.956175 0.388900 0.456900 1 3 1.000000
  3 -1.003100 -3.700701 63.810902 0.462199 -0.450199 0.763998 0.158700 0.539500 1 3 1.000000
  3 -1.293600 -5.003401 64.386299 0.794479 0.597484 0.108697 0.010200 0.478800 1 3 1.000000
mouth
  3 -1.003100 -3.700701 63.810902 0.462199 -0.450199 0.763998 0.158700 0.539500 1 3 1.000000
  3 0.047500 -5.729001 64.452797 -0.020299 0.292092 0.956175 0.388900 0.456900 1 3 1.000000
  3 1.379200 -5.003401 64.386299 -0.816901 0.563401 0.123500 0.992400 0.478800 1 3 1.000000
mouth
  3 1.200600 -3.292100 64.514999 -0.609476 -0.792769 0.007500 0.943000 0.540600 1 3 1.000000
  3 -1.003100 -3.700701 63.810902 0.462199 -0.450199 0.763998 0.158700 0.539500 1 3 1.000000
  3 1.379200 -5.003401 64.386299 -0.816901 0.563401 0.123500 0.992400 0.478800 1 3 1.000000
mouth
  3 1.379200 -5.003401 64.386299 -0.816901 0.563401 0.123500 0.992400 0.478800 1 3 1.000000
  3 0.932200 -4.619501 65.282204 -0.477675 0.247487 -0.842957 0.805300 0.492400 1 3 1.000000
  3 1.200600 -3.292100 64.514999 -0.609476 -0.792769 0.007500 0.943000 0.540600 1 3 1.000000
mouth
  3 -1.022800 -3.700701 65.114403 0.500107 -0.411006 -0.762211 0.158600 0.539500 1 3 1.000000
  3 1.200600 -3.292100 64.514999 -0.609476 -0.792769 0.007500 0.943000 0.540600 1 3 1.000000
  3 0.932200 -4.619501 65.282204 -0.477675 0.247487 -0.842957 0.805300 0.492400 1 3 1.000000
mouth
  3 0.932200 -4.619501 65.282204 -0.477675 0.247487 -0.842957 0.805300 0.492400 1 3 1.000000
  3 -1.293600 -5.003401 64.386299 0.794479 0.597484 0.108697 0.010200 0.478800 1 3 1.000000
  3 -1.022800 -3.700701 65.114403 0.500107 -0.411006 -0.762211 0.158600 0.539500 1 3 1.000000
mouth
  3 -1.293600 -5.003401 64.386299 0.794479 0.597484 0.108697 0.010200 0.478800 1 3 1.000000
  3 0.932200 -4.619501 65.282204 -0.477675 0.247487 -0.842957 0.805300 0.492400 1 3 1.000000
  3 0.369100 -5.895200 64.884697 0.349991 0.134296 -0.927076 0.509500 0.453400 1 3 1.000000
end
