// Created by Crowbar 0.68
version 1
nodes
  0 "ValveBiped.Bip01_Pelvis" -1
  1 "ValveBiped.Bip01_Spine" 0
  2 "ValveBiped.Bip01_Spine1" 1
  3 "ValveBiped.Bip01_Spine2" 2
  4 "ValveBiped.Bip01_Spine4" 3
  5 "ValveBiped.Bip01_Neck1" 4
  6 "ValveBiped.Bip01_Head1" 5
  7 "ValveBiped.forward" 6
  8 "ValveBiped.Bip01_R_Clavicle" 4
  9 "ValveBiped.Bip01_R_UpperArm" 8
  10 "ValveBiped.Bip01_R_Forearm" 9
  11 "ValveBiped.Bip01_R_Hand" 10
  12 "ValveBiped.Anim_Attachment_RH" 11
  13 "ValveBiped.Bip01_L_Clavicle" 4
  14 "ValveBiped.Bip01_L_UpperArm" 13
  15 "ValveBiped.Bip01_L_Forearm" 14
  16 "ValveBiped.Bip01_L_Hand" 15
  17 "ValveBiped.Anim_Attachment_LH" 16
  18 "ValveBiped.Bip01_R_Thigh" 0
  19 "ValveBiped.Bip01_R_Calf" 18
  20 "ValveBiped.Bip01_R_Foot" 19
  21 "ValveBiped.Bip01_L_Thigh" 0
  22 "ValveBiped.Bip01_L_Calf" 21
  23 "ValveBiped.Bip01_L_Foot" 22
  24 "ValveBiped.Bip01" -1
  25 "ValveBiped.Bip01_L_Toe0" 23
  26 "ValveBiped.Bip01_L_Shin" 22
  27 "ValveBiped.Bip01_L_Knee" 21
  28 "ValveBiped.Bip01_L_Quadricep" 21
  29 "ValveBiped.Bip01_R_Toe0" 20
  30 "ValveBiped.Bip01_R_Shin" 19
  31 "ValveBiped.Bip01_R_Quadricep" 18
  32 "ValveBiped.Bip01_R_Knee" 18
  33 "ValveBiped.Bip01_L_Finger3" 16
  34 "ValveBiped.Bip01_L_Finger31" 33
  35 "ValveBiped.Bip01_L_Finger32" 34
  36 "ValveBiped.Bip01_L_Finger2" 16
  37 "ValveBiped.Bip01_L_Finger21" 36
  38 "ValveBiped.Bip01_L_Finger22" 37
  39 "ValveBiped.Bip01_L_Finger1" 16
  40 "ValveBiped.Bip01_L_Finger11" 39
  41 "ValveBiped.Bip01_L_Finger12" 40
  42 "ValveBiped.Bip01_L_Finger0" 16
  43 "ValveBiped.Bip01_L_Finger01" 42
  44 "ValveBiped.Bip01_L_Finger02" 43
  45 "ValveBiped.Bip01_L_Finger4" 16
  46 "ValveBiped.Bip01_L_Finger41" 45
  47 "ValveBiped.Bip01_L_Finger42" 46
  48 "ValveBiped.Bip01_L_Ulna" 15
  49 "ValveBiped.Bip01_L_Wrist" 15
  50 "ValveBiped.Bip01_L_Elbow" 14
  51 "ValveBiped.Bip01_L_Shoulder" 14
  52 "ValveBiped.Bip01_L_Bicep" 14
  53 "ValveBiped.Bip01_L_Trapezius" 13
  54 "ValveBiped.Bip01_R_Finger3" 11
  55 "ValveBiped.Bip01_R_Finger31" 54
  56 "ValveBiped.Bip01_R_Finger32" 55
  57 "ValveBiped.Bip01_R_Finger2" 11
  58 "ValveBiped.Bip01_R_Finger21" 57
  59 "ValveBiped.Bip01_R_Finger22" 58
  60 "ValveBiped.Bip01_R_Finger1" 11
  61 "ValveBiped.Bip01_R_Finger11" 60
  62 "ValveBiped.Bip01_R_Finger12" 61
  63 "ValveBiped.Bip01_R_Finger0" 11
  64 "ValveBiped.Bip01_R_Finger01" 63
  65 "ValveBiped.Bip01_R_Finger02" 64
  66 "ValveBiped.Bip01_R_Finger4" 11
  67 "ValveBiped.Bip01_R_Finger41" 66
  68 "ValveBiped.Bip01_R_Finger42" 67
  69 "ValveBiped.Bip01_R_Ulna" 10
  70 "ValveBiped.Bip01_R_Wrist" 10
  71 "ValveBiped.Bip01_R_Shoulder" 9
  72 "ValveBiped.Bip01_R_Bicep" 9
  73 "ValveBiped.Bip01_R_Elbow" 9
  74 "ValveBiped.Bip01_R_Trapezius" 8
  75 "ValveBiped.Bip01_R_Pectoral" 3
  76 "ValveBiped.Bip01_L_Pectoral" 3
  77 "ValveBiped.Bip01_R_Latt" 3
  78 "ValveBiped.Bip01_L_Latt" 3
end
skeleton
  time 0
    0 0.000000 -0.533612 38.566914 1.570796 0.000000 0.000000
    1 0.000000 3.345132 -2.981898 1.570796 0.083193 1.570796
    2 3.995838 0.000000 0.000000 0.000000 0.000000 -0.028816
    3 3.520298 0.000000 0.000000 0.000000 0.000000 0.097307
    4 8.921476 0.000000 0.000000 0.000000 0.000000 0.186413
    5 3.306360 0.000002 0.000000 3.141590 0.000000 0.406109
    6 3.602002 -0.000005 0.000000 0.000000 -0.000001 0.405033
    7 2.000004 -3.000000 0.000000 -1.570796 0.000000 -1.326450
    8 2.059532 0.977924 -1.937661 -1.661569 1.286515 2.950147
    9 6.028139 0.000006 0.000000 1.633734 -0.011884 -0.586789
    10 11.692554 0.000000 -0.000001 0.000000 0.000000 -0.060372
    11 11.481690 0.000000 -0.000006 -1.559993 0.038701 0.036022
    12 2.676088 -1.712441 0.000000 -1.570796 0.000000 -1.570795
    13 2.059529 0.977924 1.937661 1.589740 -1.286513 2.950147
    14 6.028142 0.000001 0.000000 -1.573855 0.051611 -0.584887
    15 11.692558 0.000000 -0.000008 0.000000 0.000000 -0.060372
    16 11.481676 0.000000 -0.000047 1.568292 -0.038709 0.036022
    17 2.676083 -1.712444 0.000000 1.570797 0.000001 1.570797
    18 -3.890447 0.000000 0.000000 -1.570796 0.051839 -1.576018
    19 17.848167 0.000000 0.000000 0.000000 0.000000 0.034200
    20 16.525234 0.000000 0.000000 0.038609 0.040781 -1.071639
    21 3.890447 0.000000 0.000000 -1.570796 0.051839 -1.565574
    22 17.848162 0.000000 0.000000 0.000000 0.000000 0.034200
    23 16.525232 0.000000 0.000000 -0.027915 -0.040781 -1.071638
    24 -0.000005 -0.533615 38.566917 1.570796 0.000000 0.000000
    25 6.879449 0.000002 0.000000 -0.007299 -0.002951 -0.584373
    26 7.766866 0.000000 0.000000 0.000000 0.000000 0.000000
    27 17.848169 0.000000 0.000000 0.000000 0.000000 0.016691
    28 7.139265 0.000000 0.000000 0.000000 0.000000 0.000000
    29 6.879452 0.000002 0.000000 -0.081334 -0.002951 -0.584373
    30 7.766869 0.000000 0.000001 0.000000 0.000000 0.000000
    31 7.139271 0.000000 0.000000 0.000000 0.000000 0.000000
    32 17.848167 0.000000 0.000000 0.000000 0.000000 0.016685
    33 3.942323 0.046777 -0.431443 -0.155014 0.073328 -0.810648
    34 1.539094 -0.000003 0.000000 0.000000 0.004460 -0.247797
    35 1.196320 0.000001 0.000000 0.000000 0.007361 -0.430802
    36 3.883687 -0.046765 0.431443 0.085902 0.021830 -0.587867
    37 1.719575 0.000000 0.000000 0.000000 0.005516 -0.366478
    38 1.209183 0.000001 0.000000 0.000000 0.003084 -0.216400
    39 3.859856 -0.137940 1.332466 0.354449 -0.042750 -0.531718
    40 1.719432 0.000004 0.000000 0.000000 0.004074 -0.363009
    41 1.099663 0.000000 0.000000 0.000000 0.002596 -0.244331
    42 0.806050 -0.348918 1.321258 -1.206854 -0.679488 -0.789308
    43 1.789785 -0.000002 0.000000 0.000000 0.007387 0.228523
    44 1.206998 -0.000002 0.000001 0.000000 0.011267 0.362860
    45 3.859701 -0.142399 -1.191974 -0.479144 0.152190 -0.879874
    46 1.312558 0.000000 -0.000001 0.000000 0.009665 -0.439720
    47 0.729363 0.000001 0.000000 0.000000 0.004971 -0.244299
    48 5.740848 0.000000 0.000003 0.000688 0.000000 0.000000
    49 11.481696 0.000000 0.000006 0.001272 0.000000 0.000000
    50 11.692555 0.000000 0.000012 0.000000 0.000000 -0.029500
    51 1.499998 0.000000 0.000007 0.000000 0.000000 0.000000
    52 5.560000 0.000000 0.000008 0.000000 0.000000 0.000000
    53 5.166963 0.000002 0.000000 0.000000 0.000000 0.000000
    54 3.942297 0.050329 0.431043 0.154999 -0.079305 -0.810205
    55 1.539097 0.000002 0.000000 0.000000 -0.005854 -0.247771
    56 1.196324 0.000001 0.000000 0.000000 -0.009663 -0.430761
    57 3.883660 -0.050324 -0.431043 -0.085905 -0.026404 -0.587695
    58 1.719574 0.000000 0.000000 0.000000 -0.007974 -0.366436
    59 1.209180 0.000001 0.000000 0.000000 -0.004461 -0.216376
    60 3.859833 -0.148932 -1.331282 -0.354419 0.038567 -0.532001
    61 1.719424 0.000000 0.000000 0.000000 -0.006613 -0.362970
    62 1.099666 0.000000 0.000000 0.000000 -0.004211 -0.244312
    63 0.806020 -0.359831 -1.318334 1.204200 0.673618 -0.793956
    64 1.789783 0.000001 0.000001 0.000000 -0.006301 0.228555
    65 1.206996 -0.000001 0.000000 0.000000 -0.009618 0.362905
    66 3.859676 -0.132567 1.193108 0.479140 -0.158545 -0.879041
    67 1.312563 0.000000 -0.000001 0.000000 -0.011932 -0.439672
    68 0.729362 -0.000004 0.000002 0.000000 -0.006134 -0.244271
    69 5.740848 0.000000 0.000003 0.000081 0.000000 0.000000
    70 11.481700 0.000000 0.000002 0.000150 0.000000 0.000000
    71 1.500001 0.000000 0.000007 0.000000 0.000000 0.000000
    72 5.559999 0.000000 0.000007 0.000000 0.000000 0.000000
    73 11.692547 0.000000 0.000007 0.000000 0.000000 -0.029500
    74 5.166965 0.000000 0.000000 0.000000 0.000000 0.000000
    75 1.025254 4.831669 -2.578000 0.000000 0.000000 0.000000
    76 1.025254 4.831550 2.578000 0.000000 0.000000 0.000000
    77 2.000000 1.400000 5.000000 0.000000 0.000000 0.000000
    78 2.000001 1.400000 -5.000000 0.000000 0.000000 0.000000
end
triangles
mouth
  3 0.598100 -4.537504 64.844902 0.035099 -0.066398 0.997176 0.499100 0.943200 1 3 1.000000
  3 -1.078000 -2.921603 65.011497 0.035099 -0.066398 0.997176 0.878600 0.611200 1 3 1.000000
  3 -0.603400 -4.551404 64.886299 0.035099 -0.066398 0.997176 0.619600 0.656500 1 3 1.000000
mouth
  3 -0.998700 -1.831100 63.779800 0.528327 -0.527827 0.665034 0.090000 0.547700 1 3 1.000000
  3 -0.998700 -3.549300 63.668800 0.617478 0.227492 0.752973 0.090000 0.495900 1 3 1.000000
  3 1.044200 -3.549300 63.668800 -0.622413 0.239905 0.745015 0.915900 0.495900 1 3 1.000000
mouth
  3 -1.126300 -4.463304 64.859200 0.220901 -0.963204 -0.153101 0.093500 0.467400 1 3 1.000000
  3 -0.998700 -3.549300 63.668800 0.617478 0.227492 0.752973 0.090000 0.495900 1 3 1.000000
  3 -0.998700 -1.831100 63.779800 0.528327 -0.527827 0.665034 0.090000 0.547700 1 3 1.000000
mouth
  3 -1.126300 -4.463304 64.859200 0.220901 -0.963204 -0.153101 0.093500 0.467400 1 3 1.000000
  3 0.007200 -5.059603 64.562599 -0.168609 -0.870745 0.461924 0.496500 0.454800 1 3 1.000000
  3 -0.998700 -3.549300 63.668800 0.617478 0.227492 0.752973 0.090000 0.495900 1 3 1.000000
mouth
  3 0.007200 -5.059603 64.562599 -0.168609 -0.870745 0.461924 0.496500 0.454800 1 3 1.000000
  3 1.132200 -4.455003 64.907600 -0.075199 -0.993691 -0.083199 0.892400 0.467600 1 3 1.000000
  3 -0.998700 -3.549300 63.668800 0.617478 0.227492 0.752973 0.090000 0.495900 1 3 1.000000
mouth
  3 -0.998700 -3.549300 63.668800 0.617478 0.227492 0.752973 0.090000 0.495900 1 3 1.000000
  3 1.132200 -4.455003 64.907600 -0.075199 -0.993691 -0.083199 0.892400 0.467600 1 3 1.000000
  3 1.044200 -3.549300 63.668800 -0.622413 0.239905 0.745015 0.915900 0.495900 1 3 1.000000
mouth
  3 1.044200 -3.549300 63.668800 -0.622413 0.239905 0.745015 0.915900 0.495900 1 3 1.000000
  3 1.132200 -4.455003 64.907600 -0.075199 -0.993691 -0.083199 0.892400 0.467600 1 3 1.000000
  3 1.044200 -1.831100 63.779800 -0.531686 -0.530786 0.659982 0.915900 0.547700 1 3 1.000000
mouth
  3 1.044200 -3.549300 63.668800 -0.622413 0.239905 0.745015 0.915900 0.495900 1 3 1.000000
  3 1.044200 -1.831100 63.779800 -0.531686 -0.530786 0.659982 0.915900 0.547700 1 3 1.000000
  3 -0.998700 -1.831100 63.779800 0.528327 -0.527827 0.665034 0.090000 0.547700 1 3 1.000000
mouth
  3 1.044200 -1.831100 63.779800 -0.531686 -0.530786 0.659982 0.915900 0.547700 1 3 1.000000
  3 -1.035600 -1.831100 65.794197 0.533985 -0.490487 -0.688681 0.075100 0.547700 1 3 1.000000
  3 -0.998700 -1.831100 63.779800 0.528327 -0.527827 0.665034 0.090000 0.547700 1 3 1.000000
mouth
  3 -0.998700 -1.831100 63.779800 0.528327 -0.527827 0.665034 0.090000 0.547700 1 3 1.000000
  3 -1.035600 -1.831100 65.794197 0.533985 -0.490487 -0.688681 0.075100 0.547700 1 3 1.000000
  3 -1.126300 -4.463304 64.859200 0.220901 -0.963204 -0.153101 0.093500 0.467400 1 3 1.000000
mouth
  3 -1.035600 -3.650300 65.664101 0.641430 0.252512 -0.724434 0.075100 0.492900 1 3 1.000000
  3 -1.126300 -4.463304 64.859200 0.220901 -0.963204 -0.153101 0.093500 0.467400 1 3 1.000000
  3 -1.035600 -1.831100 65.794197 0.533985 -0.490487 -0.688681 0.075100 0.547700 1 3 1.000000
mouth
  3 0.230900 -5.187304 65.177101 0.193006 -0.831126 -0.521516 0.355300 0.457600 1 3 1.000000
  3 -1.126300 -4.463304 64.859200 0.220901 -0.963204 -0.153101 0.093500 0.467400 1 3 1.000000
  3 -1.035600 -3.650300 65.664101 0.641430 0.252512 -0.724434 0.075100 0.492900 1 3 1.000000
mouth
  3 1.132200 -4.455003 64.907600 -0.075199 -0.993691 -0.083199 0.892400 0.467600 1 3 1.000000
  3 0.230900 -5.187304 65.177101 0.193006 -0.831126 -0.521516 0.355300 0.457600 1 3 1.000000
  3 -1.035600 -3.650300 65.664101 0.641430 0.252512 -0.724434 0.075100 0.492900 1 3 1.000000
mouth
  3 -1.035600 -1.831100 65.794197 0.533985 -0.490487 -0.688681 0.075100 0.547700 1 3 1.000000
  3 1.132200 -4.455003 64.907600 -0.075199 -0.993691 -0.083199 0.892400 0.467600 1 3 1.000000
  3 -1.035600 -3.650300 65.664101 0.641430 0.252512 -0.724434 0.075100 0.492900 1 3 1.000000
mouth
  3 -1.035600 -1.831100 65.794197 0.533985 -0.490487 -0.688681 0.075100 0.547700 1 3 1.000000
  3 1.044200 -1.831100 63.779800 -0.531686 -0.530786 0.659982 0.915900 0.547700 1 3 1.000000
  3 1.132200 -4.455003 64.907600 -0.075199 -0.993691 -0.083199 0.892400 0.467600 1 3 1.000000
eyeball_l
  3 2.272900 -3.424603 67.670799 0.824543 -0.506426 0.252313 0.877600 0.476200 1 3 1.000000
  3 1.885200 -4.081403 68.264099 0.622814 -0.752017 -0.215805 0.506700 0.761700 1 3 1.000000
  3 0.716100 -3.893199 67.794197 -0.336284 -0.940656 -0.045598 0.099200 0.401100 1 3 1.000000
eric_facemap
  3 -2.709900 0.174800 66.138802 -0.453787 0.605082 -0.654181 0.201600 0.466400 1 3 1.000000
  3 -3.581200 0.127597 67.881699 0.238003 -0.736308 0.633407 0.200900 0.595100 1 3 1.000000
  3 -3.008400 -0.578703 67.543602 0.794576 0.448386 0.409388 0.234200 0.592000 1 3 1.000000
eric_facemap
  3 -2.854900 -1.681100 67.014900 -0.983083 -0.182497 -0.015600 0.303300 0.556300 1 3 1.000000
  3 -2.195100 -0.786700 63.933701 -0.949879 -0.099698 -0.296293 0.232400 0.294500 1 3 1.000000
  3 -2.274800 -2.127800 64.017998 -0.906888 -0.173498 -0.383995 0.320500 0.316800 1 3 1.000000
eric_facemap
  3 -2.854900 -1.681100 67.014900 -0.983083 -0.182497 -0.015600 0.303300 0.556300 1 3 1.000000
  3 -2.842300 -0.727800 65.909698 -0.890079 -0.455789 0.003900 0.247000 0.444000 1 3 1.000000
  3 -2.195100 -0.786700 63.933701 -0.949879 -0.099698 -0.296293 0.232400 0.294500 1 3 1.000000
eric_facemap
  3 -3.010500 -0.620000 66.737999 -0.908765 -0.145594 -0.391085 0.234600 0.513700 1 3 1.000000
  3 -2.842300 -0.727800 65.909698 -0.890079 -0.455789 0.003900 0.247000 0.444000 1 3 1.000000
  3 -2.854900 -1.681100 67.014900 -0.983083 -0.182497 -0.015600 0.303300 0.556300 1 3 1.000000
eric_facemap
  3 -2.842300 -0.727800 65.909698 -0.890079 -0.455789 0.003900 0.247000 0.444000 1 3 1.000000
  3 -3.010500 -0.620000 66.737999 -0.908765 -0.145594 -0.391085 0.234600 0.513700 1 3 1.000000
  3 -3.126200 -0.091100 65.622597 -0.716961 0.113794 -0.687763 0.223300 0.433100 1 3 1.000000
eric_facemap
  3 -3.126200 -0.091100 65.622597 -0.716961 0.113794 -0.687763 0.223300 0.433100 1 3 1.000000
  3 -3.010500 -0.620000 66.737999 -0.908765 -0.145594 -0.391085 0.234600 0.513700 1 3 1.000000
  3 -3.389400 0.584101 67.055099 -0.783496 -0.588297 -0.200099 0.189800 0.525700 1 3 1.000000
eric_facemap
  3 -3.126200 -0.091100 65.622597 -0.716961 0.113794 -0.687763 0.223300 0.433100 1 3 1.000000
  3 -3.389400 0.584101 67.055099 -0.783496 -0.588297 -0.200099 0.189800 0.525700 1 3 1.000000
  3 -3.506300 0.611701 66.347397 -0.788605 0.421503 -0.447703 0.192900 0.474500 1 3 1.000000
eric_facemap
  3 -3.581200 0.127597 67.881699 0.238003 -0.736308 0.633407 0.200900 0.595100 1 3 1.000000
  3 -3.506300 0.611701 66.347397 -0.788605 0.421503 -0.447703 0.192900 0.474500 1 3 1.000000
  3 -3.389400 0.584101 67.055099 -0.783496 -0.588297 -0.200099 0.189800 0.525700 1 3 1.000000
eric_facemap
  3 -3.581200 0.127597 67.881699 0.238003 -0.736308 0.633407 0.200900 0.595100 1 3 1.000000
  3 -3.562500 0.789201 67.126198 -0.806135 0.591526 -0.015601 0.181600 0.534000 1 3 1.000000
  3 -3.506300 0.611701 66.347397 -0.788605 0.421503 -0.447703 0.192900 0.474500 1 3 1.000000
eric_facemap
  3 -3.581200 0.127597 67.881699 0.238003 -0.736308 0.633407 0.200900 0.595100 1 3 1.000000
  3 -2.709900 0.174800 66.138802 -0.453787 0.605082 -0.654181 0.201600 0.466400 1 3 1.000000
  3 -3.562500 0.789201 67.126198 -0.806135 0.591526 -0.015601 0.181600 0.534000 1 3 1.000000
eric_facemap
  3 -3.562500 0.789201 67.126198 -0.806135 0.591526 -0.015601 0.181600 0.534000 1 3 1.000000
  3 -2.709900 0.174800 66.138802 -0.453787 0.605082 -0.654181 0.201600 0.466400 1 3 1.000000
  3 -3.506300 0.611701 66.347397 -0.788605 0.421503 -0.447703 0.192900 0.474500 1 3 1.000000
eric_facemap
  3 -2.709900 0.174800 66.138802 -0.453787 0.605082 -0.654181 0.201600 0.466400 1 3 1.000000
  3 -3.126200 -0.091100 65.622597 -0.716961 0.113794 -0.687763 0.223300 0.433100 1 3 1.000000
  3 -3.506300 0.611701 66.347397 -0.788605 0.421503 -0.447703 0.192900 0.474500 1 3 1.000000
eric_facemap
  3 -2.842300 -0.727800 65.909698 -0.890079 -0.455789 0.003900 0.247000 0.444000 1 3 1.000000
  3 -3.126200 -0.091100 65.622597 -0.716961 0.113794 -0.687763 0.223300 0.433100 1 3 1.000000
  3 -2.709900 0.174800 66.138802 -0.453787 0.605082 -0.654181 0.201600 0.466400 1 3 1.000000
eric_facemap
  3 -2.709900 0.174800 66.138802 -0.453787 0.605082 -0.654181 0.201600 0.466400 1 3 1.000000
  3 -2.195100 -0.786700 63.933701 -0.949879 -0.099698 -0.296293 0.232400 0.294500 1 3 1.000000
  3 -2.842300 -0.727800 65.909698 -0.890079 -0.455789 0.003900 0.247000 0.444000 1 3 1.000000
eric_facemap
  3 -2.709900 0.174800 66.138802 -0.453787 0.605082 -0.654181 0.201600 0.466400 1 3 1.000000
  3 -2.045900 2.054200 61.527100 -0.789187 0.456093 0.411293 0.080300 0.100300 1 3 1.000000
  3 -2.195100 -0.786700 63.933701 -0.949879 -0.099698 -0.296293 0.232400 0.294500 1 3 1.000000
eric_facemap
  3 -2.045900 2.054200 61.527100 -0.789187 0.456093 0.411293 0.080300 0.100300 1 3 1.000000
  3 -2.429300 0.869000 61.150200 -0.995080 -0.038699 0.091198 0.132200 0.060900 1 3 1.000000
  3 -2.195100 -0.786700 63.933701 -0.949879 -0.099698 -0.296293 0.232400 0.294500 1 3 1.000000
eric_facemap
  3 -2.195100 -0.786700 63.933701 -0.949879 -0.099698 -0.296293 0.232400 0.294500 1 3 1.000000
  3 -2.429300 0.869000 61.150200 -0.995080 -0.038699 0.091198 0.132200 0.060900 1 3 1.000000
  3 -1.388300 -1.214700 60.342499 -0.699363 -0.710163 -0.080996 0.309900 0.012600 1 3 1.000000
eric_facemap
  3 0.000000 -1.755300 60.131001 -0.002100 -0.943489 -0.331396 0.500000 0.000400 1 3 1.000000
  3 -2.195100 -0.786700 63.933701 -0.949879 -0.099698 -0.296293 0.232400 0.294500 1 3 1.000000
  3 -1.388300 -1.214700 60.342499 -0.699363 -0.710163 -0.080996 0.309900 0.012600 1 3 1.000000
eric_facemap
  3 0.000000 -1.755300 60.131001 -0.002100 -0.943489 -0.331396 0.500000 0.000400 1 3 1.000000
  3 -0.414500 -2.172800 62.538799 -0.366805 -0.724710 -0.583308 0.457500 0.155100 1 3 1.000000
  3 -2.195100 -0.786700 63.933701 -0.949879 -0.099698 -0.296293 0.232400 0.294500 1 3 1.000000
eric_facemap
  3 -2.491000 -3.348400 66.648598 -0.907165 -0.420684 -0.008700 0.372900 0.513300 1 3 1.000000
  3 -2.854900 -1.681100 67.014900 -0.983083 -0.182497 -0.015600 0.303300 0.556300 1 3 1.000000
  3 -2.274800 -2.127800 64.017998 -0.906888 -0.173498 -0.383995 0.320500 0.316800 1 3 1.000000
eric_facemap
  3 -2.045900 2.054200 61.527100 -0.789187 0.456093 0.411293 0.080300 0.100300 1 3 1.000000
  3 -0.767700 2.214900 64.902603 -0.322707 0.927720 -0.187604 0.036600 0.407200 1 3 1.000000
  3 -0.959500 2.780700 61.742298 -0.281594 0.849482 0.446190 0.030900 0.119000 1 3 1.000000
eric_facemap
  3 -0.767700 2.214900 64.902603 -0.322707 0.927720 -0.187604 0.036600 0.407200 1 3 1.000000
  3 -2.045900 2.054200 61.527100 -0.789187 0.456093 0.411293 0.080300 0.100300 1 3 1.000000
  3 -2.709900 0.174800 66.138802 -0.453787 0.605082 -0.654181 0.201600 0.466400 1 3 1.000000
eric_facemap
  3 -3.389400 0.584101 67.055099 -0.783496 -0.588297 -0.200099 0.189800 0.525700 1 3 1.000000
  3 -3.008400 -0.578699 67.543602 -0.772756 -0.521538 0.361726 0.234200 0.592000 1 3 1.000000
  3 -3.581200 0.127597 67.881699 0.238003 -0.736308 0.633407 0.200900 0.595100 1 3 1.000000
eric_facemap
  3 -3.008400 -0.578699 67.543602 -0.772756 -0.521538 0.361726 0.234200 0.592000 1 3 1.000000
  3 -3.389400 0.584101 67.055099 -0.783496 -0.588297 -0.200099 0.189800 0.525700 1 3 1.000000
  3 -3.010500 -0.620000 66.737999 -0.908765 -0.145594 -0.391085 0.234600 0.513700 1 3 1.000000
eric_facemap
  3 -2.854900 -1.681100 67.014900 -0.983083 -0.182497 -0.015600 0.303300 0.556300 1 3 1.000000
  3 -3.008400 -0.578699 67.543602 -0.772756 -0.521538 0.361726 0.234200 0.592000 1 3 1.000000
  3 -3.010500 -0.620000 66.737999 -0.908765 -0.145594 -0.391085 0.234600 0.513700 1 3 1.000000
eric_facemap
  3 -3.008400 -0.578699 67.543602 -0.772756 -0.521538 0.361726 0.234200 0.592000 1 3 1.000000
  3 -2.854900 -1.681100 67.014900 -0.983083 -0.182497 -0.015600 0.303300 0.556300 1 3 1.000000
  3 -3.102200 1.173201 69.341103 -0.980929 0.178805 0.076202 0.154200 0.755100 1 3 1.000000
eric_facemap
  3 -2.709900 0.174800 66.138802 -0.453787 0.605082 -0.654181 0.201600 0.466400 1 3 1.000000
  3 -3.008400 -0.578699 67.543602 -0.772756 -0.521538 0.361726 0.234200 0.592000 1 3 1.000000
  3 -3.102200 1.173201 69.341103 -0.980929 0.178805 0.076202 0.154200 0.755100 1 3 1.000000
eric_facemap
  3 -1.146900 3.356700 67.403702 -0.342600 0.866100 -0.364000 0.043200 0.615300 1 3 1.000000
  3 -2.709900 0.174800 66.138802 -0.453787 0.605082 -0.654181 0.201600 0.466400 1 3 1.000000
  3 -3.102200 1.173201 69.341103 -0.980929 0.178805 0.076202 0.154200 0.755100 1 3 1.000000
eric_facemap
  3 -1.146900 3.356700 67.403702 -0.342600 0.866100 -0.364000 0.043200 0.615300 1 3 1.000000
  3 -0.767700 2.214900 64.902603 -0.322707 0.927720 -0.187604 0.036600 0.407200 1 3 1.000000
  3 -2.709900 0.174800 66.138802 -0.453787 0.605082 -0.654181 0.201600 0.466400 1 3 1.000000
eric_facemap
  3 -0.767700 2.214900 64.902603 -0.322707 0.927720 -0.187604 0.036600 0.407200 1 3 1.000000
  3 -1.146900 3.356700 67.403702 -0.342600 0.866100 -0.364000 0.043200 0.615300 1 3 1.000000
  3 1.102600 3.357697 67.416298 0.279596 0.911087 -0.302896 0.002700 0.615500 1 3 1.000000
eric_facemap
  3 0.000000 -1.755300 60.131001 -0.002100 -0.943489 -0.331396 0.500000 0.000400 1 3 1.000000
  3 0.435000 -2.172600 62.539299 0.325097 -0.728994 -0.602395 0.535300 0.155100 1 3 1.000000
  3 -0.414500 -2.172800 62.538799 -0.366805 -0.724710 -0.583308 0.457500 0.155100 1 3 1.000000
eric_facemap
  3 -0.636700 -4.872600 63.205601 -0.362207 -0.843416 -0.396807 0.474300 0.230600 1 3 1.000000
  3 -0.414500 -2.172800 62.538799 -0.366805 -0.724710 -0.583308 0.457500 0.155100 1 3 1.000000
  3 0.435000 -2.172600 62.539299 0.325097 -0.728994 -0.602395 0.535300 0.155100 1 3 1.000000
eric_facemap
  3 0.634400 -4.872600 63.205601 0.355694 -0.832486 -0.424793 0.525700 0.230600 1 3 1.000000
  3 -0.636700 -4.872600 63.205601 -0.362207 -0.843416 -0.396807 0.474300 0.230600 1 3 1.000000
  3 0.435000 -2.172600 62.539299 0.325097 -0.728994 -0.602395 0.535300 0.155100 1 3 1.000000
eric_facemap
  3 0.005300 -4.788499 64.099297 0.005400 -0.987457 0.157793 0.500200 0.323600 1 3 1.000000
  3 -0.636700 -4.872600 63.205601 -0.362207 -0.843416 -0.396807 0.474300 0.230600 1 3 1.000000
  3 0.634400 -4.872600 63.205601 0.355694 -0.832486 -0.424793 0.525700 0.230600 1 3 1.000000
eric_facemap
  3 0.634400 -4.872600 63.205601 0.355694 -0.832486 -0.424793 0.525700 0.230600 1 3 1.000000
  3 1.132200 -4.455000 64.907600 0.436314 -0.820826 -0.368612 0.552700 0.376100 1 3 1.000000
  3 0.005300 -4.788499 64.099297 0.005400 -0.987457 0.157793 0.500200 0.323600 1 3 1.000000
eric_facemap
  3 0.005300 -4.788499 64.099297 0.005400 -0.987457 0.157793 0.500200 0.323600 1 3 1.000000
  3 1.132200 -4.455000 64.907600 0.436314 -0.820826 -0.368612 0.552700 0.376100 1 3 1.000000
  3 0.007200 -5.059599 64.562599 0.000100 -0.948493 -0.316798 0.500300 0.368100 1 3 1.000000
eric_facemap
  3 -1.126300 -4.463300 64.859200 -0.552093 -0.807190 -0.208897 0.450600 0.376200 1 3 1.000000
  3 0.005300 -4.788499 64.099297 0.005400 -0.987457 0.157793 0.500200 0.323600 1 3 1.000000
  3 0.007200 -5.059599 64.562599 0.000100 -0.948493 -0.316798 0.500300 0.368100 1 3 1.000000
eric_facemap
  3 -0.636700 -4.872600 63.205601 -0.362207 -0.843416 -0.396807 0.474300 0.230600 1 3 1.000000
  3 0.005300 -4.788499 64.099297 0.005400 -0.987457 0.157793 0.500200 0.323600 1 3 1.000000
  3 -1.126300 -4.463300 64.859200 -0.552093 -0.807190 -0.208897 0.450600 0.376200 1 3 1.000000
eric_facemap
  3 -1.092400 -4.547200 63.249401 -0.698876 -0.568380 -0.434185 0.449400 0.237800 1 3 1.000000
  3 -0.636700 -4.872600 63.205601 -0.362207 -0.843416 -0.396807 0.474300 0.230600 1 3 1.000000
  3 -1.126300 -4.463300 64.859200 -0.552093 -0.807190 -0.208897 0.450600 0.376200 1 3 1.000000
eric_facemap
  3 -1.092400 -4.547200 63.249401 -0.698876 -0.568380 -0.434185 0.449400 0.237800 1 3 1.000000
  3 -0.414500 -2.172800 62.538799 -0.366805 -0.724710 -0.583308 0.457500 0.155100 1 3 1.000000
  3 -0.636700 -4.872600 63.205601 -0.362207 -0.843416 -0.396807 0.474300 0.230600 1 3 1.000000
eric_facemap
  3 -2.195100 -0.786700 63.933701 -0.949879 -0.099698 -0.296293 0.232400 0.294500 1 3 1.000000
  3 -0.414500 -2.172800 62.538799 -0.366805 -0.724710 -0.583308 0.457500 0.155100 1 3 1.000000
  3 -1.092400 -4.547200 63.249401 -0.698876 -0.568380 -0.434185 0.449400 0.237800 1 3 1.000000
eric_facemap
  3 -1.092400 -4.547200 63.249401 -0.698876 -0.568380 -0.434185 0.449400 0.237800 1 3 1.000000
  3 -2.274800 -2.127800 64.017998 -0.906888 -0.173498 -0.383995 0.320500 0.316800 1 3 1.000000
  3 -2.195100 -0.786700 63.933701 -0.949879 -0.099698 -0.296293 0.232400 0.294500 1 3 1.000000
eric_facemap
  3 -2.029500 -4.030300 66.525101 -0.612421 -0.790127 0.025301 0.407900 0.500000 1 3 1.000000
  3 -2.274800 -2.127800 64.017998 -0.906888 -0.173498 -0.383995 0.320500 0.316800 1 3 1.000000
  3 -1.092400 -4.547200 63.249401 -0.698876 -0.568380 -0.434185 0.449400 0.237800 1 3 1.000000
eric_facemap
  3 -2.029500 -4.030300 66.525101 -0.612421 -0.790127 0.025301 0.407900 0.500000 1 3 1.000000
  3 -2.491000 -3.348400 66.648598 -0.907165 -0.420684 -0.008700 0.372900 0.513300 1 3 1.000000
  3 -2.274800 -2.127800 64.017998 -0.906888 -0.173498 -0.383995 0.320500 0.316800 1 3 1.000000
eric_facemap
  3 -2.029500 -4.030300 66.525101 -0.612421 -0.790127 0.025301 0.407900 0.500000 1 3 1.000000
  3 -2.323700 -3.423399 67.709503 -0.810611 -0.584508 -0.035500 0.387600 0.593300 1 3 1.000000
  3 -2.491000 -3.348400 66.648598 -0.907165 -0.420684 -0.008700 0.372900 0.513300 1 3 1.000000
eric_facemap
  3 -2.323700 -3.423399 67.709503 -0.810611 -0.584508 -0.035500 0.387600 0.593300 1 3 1.000000
  3 -2.854900 -1.681100 67.014900 -0.983083 -0.182497 -0.015600 0.303300 0.556300 1 3 1.000000
  3 -2.491000 -3.348400 66.648598 -0.907165 -0.420684 -0.008700 0.372900 0.513300 1 3 1.000000
eric_facemap
  3 -2.323700 -3.423399 67.709503 -0.810611 -0.584508 -0.035500 0.387600 0.593300 1 3 1.000000
  3 -2.975100 -0.743999 70.108200 -0.968008 -0.106701 0.227102 0.261400 0.812400 1 3 1.000000
  3 -2.854900 -1.681100 67.014900 -0.983083 -0.182497 -0.015600 0.303300 0.556300 1 3 1.000000
eric_facemap
  3 -2.854900 -1.681100 67.014900 -0.983083 -0.182497 -0.015600 0.303300 0.556300 1 3 1.000000
  3 -2.975100 -0.743999 70.108200 -0.968008 -0.106701 0.227102 0.261400 0.812400 1 3 1.000000
  3 -3.102200 1.173201 69.341103 -0.980929 0.178805 0.076202 0.154200 0.755100 1 3 1.000000
eric_facemap
  3 0.230900 -5.187300 65.177101 0.173809 -0.984452 -0.025401 0.508400 0.402100 1 3 1.000000
  3 -0.222500 -5.187300 65.177101 -0.148798 -0.988286 -0.033899 0.491900 0.402200 1 3 1.000000
  3 -1.126300 -4.463300 64.859200 -0.552093 -0.807190 -0.208897 0.450600 0.376200 1 3 1.000000
eric_facemap
  3 -0.222500 -5.187300 65.177101 -0.148798 -0.988286 -0.033899 0.491900 0.402200 1 3 1.000000
  3 -2.029500 -4.030300 66.525101 -0.612421 -0.790127 0.025301 0.407900 0.500000 1 3 1.000000
  3 -1.126300 -4.463300 64.859200 -0.552093 -0.807190 -0.208897 0.450600 0.376200 1 3 1.000000
eric_facemap
  3 -2.029500 -4.030300 66.525101 -0.612421 -0.790127 0.025301 0.407900 0.500000 1 3 1.000000
  3 -1.092400 -4.547200 63.249401 -0.698876 -0.568380 -0.434185 0.449400 0.237800 1 3 1.000000
  3 -1.126300 -4.463300 64.859200 -0.552093 -0.807190 -0.208897 0.450600 0.376200 1 3 1.000000
eric_facemap
  3 1.659400 -1.169300 63.376202 0.808477 -0.328991 -0.487986 0.692500 0.229300 1 3 1.000000
  3 2.192800 -0.786700 63.933800 0.947692 -0.133999 -0.289697 0.732200 0.280100 1 3 1.000000
  3 1.590800 -3.783400 63.475601 0.831266 -0.338686 -0.440782 0.591200 0.265400 1 3 1.000000
eric_facemap
  3 1.590800 -3.783400 63.475601 0.831266 -0.338686 -0.440782 0.591200 0.265400 1 3 1.000000
  3 0.435000 -2.172600 62.539299 0.325097 -0.728994 -0.602395 0.535300 0.155100 1 3 1.000000
  3 1.659400 -1.169300 63.376202 0.808477 -0.328991 -0.487986 0.692500 0.229300 1 3 1.000000
eric_facemap
  3 0.435000 -2.172600 62.539299 0.325097 -0.728994 -0.602395 0.535300 0.155100 1 3 1.000000
  3 1.590800 -3.783400 63.475601 0.831266 -0.338686 -0.440782 0.591200 0.265400 1 3 1.000000
  3 0.634400 -4.872600 63.205601 0.355694 -0.832486 -0.424793 0.525700 0.230600 1 3 1.000000
eric_facemap
  3 1.590800 -3.783400 63.475601 0.831266 -0.338686 -0.440782 0.591200 0.265400 1 3 1.000000
  3 2.029500 -4.030300 66.525101 0.613372 -0.789763 0.007000 0.592900 0.497800 1 3 1.000000
  3 0.634400 -4.872600 63.205601 0.355694 -0.832486 -0.424793 0.525700 0.230600 1 3 1.000000
eric_facemap
  3 1.132200 -4.455000 64.907600 0.436314 -0.820826 -0.368612 0.552700 0.376100 1 3 1.000000
  3 0.634400 -4.872600 63.205601 0.355694 -0.832486 -0.424793 0.525700 0.230600 1 3 1.000000
  3 2.029500 -4.030300 66.525101 0.613372 -0.789763 0.007000 0.592900 0.497800 1 3 1.000000
eric_facemap
  3 1.132200 -4.455000 64.907600 0.436314 -0.820826 -0.368612 0.552700 0.376100 1 3 1.000000
  3 2.029500 -4.030300 66.525101 0.613372 -0.789763 0.007000 0.592900 0.497800 1 3 1.000000
  3 0.230900 -5.187300 65.177101 0.173809 -0.984452 -0.025401 0.508400 0.402100 1 3 1.000000
eric_facemap
  3 1.590800 -3.783400 63.475601 0.831266 -0.338686 -0.440782 0.591200 0.265400 1 3 1.000000
  3 2.491000 -3.348400 66.648598 0.918599 -0.395000 -0.012300 0.624900 0.510800 1 3 1.000000
  3 2.029500 -4.030300 66.525101 0.613372 -0.789763 0.007000 0.592900 0.497800 1 3 1.000000
eric_facemap
  3 2.491000 -3.348400 66.648598 0.918599 -0.395000 -0.012300 0.624900 0.510800 1 3 1.000000
  3 1.590800 -3.783400 63.475601 0.831266 -0.338686 -0.440782 0.591200 0.265400 1 3 1.000000
  3 2.832100 -0.727800 65.909698 0.859723 -0.510414 -0.018800 0.745300 0.448400 1 3 1.000000
eric_facemap
  3 2.832100 -0.727800 65.909698 0.859723 -0.510414 -0.018800 0.745300 0.448400 1 3 1.000000
  3 1.590800 -3.783400 63.475601 0.831266 -0.338686 -0.440782 0.591200 0.265400 1 3 1.000000
  3 2.192800 -0.786700 63.933800 0.947692 -0.133999 -0.289697 0.732200 0.280100 1 3 1.000000
eric_facemap
  3 2.832100 -0.727800 65.909698 0.859723 -0.510414 -0.018800 0.745300 0.448400 1 3 1.000000
  3 2.192800 -0.786700 63.933800 0.947692 -0.133999 -0.289697 0.732200 0.280100 1 3 1.000000
  3 2.702800 0.174800 66.138802 0.330701 0.811602 -0.481601 0.793200 0.472300 1 3 1.000000
eric_facemap
  3 2.192800 -0.786700 63.933800 0.947692 -0.133999 -0.289697 0.732200 0.280100 1 3 1.000000
  3 2.461100 0.869000 61.150200 0.997329 -0.026401 0.068102 0.838200 0.094900 1 3 1.000000
  3 2.702800 0.174800 66.138802 0.330701 0.811602 -0.481601 0.793200 0.472300 1 3 1.000000
eric_facemap
  3 1.659400 -1.169300 63.376202 0.808477 -0.328991 -0.487986 0.692500 0.229300 1 3 1.000000
  3 2.461100 0.869000 61.150200 0.997329 -0.026401 0.068102 0.838200 0.094900 1 3 1.000000
  3 2.192800 -0.786700 63.933800 0.947692 -0.133999 -0.289697 0.732200 0.280100 1 3 1.000000
eric_facemap
  3 1.659400 -1.169300 63.376202 0.808477 -0.328991 -0.487986 0.692500 0.229300 1 3 1.000000
  3 1.425000 -1.214700 60.342499 0.718419 -0.693519 -0.053901 0.692300 0.011000 1 3 1.000000
  3 2.461100 0.869000 61.150200 0.997329 -0.026401 0.068102 0.838200 0.094900 1 3 1.000000
eric_facemap
  3 1.425000 -1.214700 60.342499 0.718419 -0.693519 -0.053901 0.692300 0.011000 1 3 1.000000
  3 1.659400 -1.169300 63.376202 0.808477 -0.328991 -0.487986 0.692500 0.229300 1 3 1.000000
  3 0.435000 -2.172600 62.539299 0.325097 -0.728994 -0.602395 0.535300 0.155100 1 3 1.000000
eric_facemap
  3 1.425000 -1.214700 60.342499 0.718419 -0.693519 -0.053901 0.692300 0.011000 1 3 1.000000
  3 0.435000 -2.172600 62.539299 0.325097 -0.728994 -0.602395 0.535300 0.155100 1 3 1.000000
  3 0.000000 -1.755300 60.131001 -0.002100 -0.943489 -0.331396 0.500000 0.000400 1 3 1.000000
eric_facemap
  3 -0.686900 -4.532300 67.204597 -0.581491 -0.794288 0.175997 0.472400 0.551100 1 3 1.000000
  3 -0.653700 -3.978600 67.753899 -0.642984 -0.747182 0.168196 0.468900 0.596700 1 3 1.000000
  3 -2.323700 -3.423399 67.709503 -0.810611 -0.584508 -0.035500 0.387600 0.593300 1 3 1.000000
eric_facemap
  3 -2.029500 -4.030300 66.525101 -0.612421 -0.790127 0.025301 0.407900 0.500000 1 3 1.000000
  3 -0.686900 -4.532300 67.204597 -0.581491 -0.794288 0.175997 0.472400 0.551100 1 3 1.000000
  3 -2.323700 -3.423399 67.709503 -0.810611 -0.584508 -0.035500 0.387600 0.593300 1 3 1.000000
eric_facemap
  3 -2.029500 -4.030300 66.525101 -0.612421 -0.790127 0.025301 0.407900 0.500000 1 3 1.000000
  3 -0.661000 -4.590600 65.936401 -0.735903 -0.643403 -0.210901 0.469900 0.459300 1 3 1.000000
  3 -0.686900 -4.532300 67.204597 -0.581491 -0.794288 0.175997 0.472400 0.551100 1 3 1.000000
eric_facemap
  3 -2.029500 -4.030300 66.525101 -0.612421 -0.790127 0.025301 0.407900 0.500000 1 3 1.000000
  3 -0.222500 -5.187300 65.177101 -0.148798 -0.988286 -0.033899 0.491900 0.402200 1 3 1.000000
  3 -0.661000 -4.590600 65.936401 -0.735903 -0.643403 -0.210901 0.469900 0.459300 1 3 1.000000
eric_facemap
  3 -0.661000 -4.590600 65.936401 -0.735903 -0.643403 -0.210901 0.469900 0.459300 1 3 1.000000
  3 -0.222500 -5.187300 65.177101 -0.148798 -0.988286 -0.033899 0.491900 0.402200 1 3 1.000000
  3 0.135200 -4.929800 65.968102 0.610288 -0.709286 -0.352793 0.513400 0.468200 1 3 1.000000
eric_facemap
  3 0.135200 -4.929800 65.968102 0.610288 -0.709286 -0.352793 0.513400 0.468200 1 3 1.000000
  3 -0.222500 -5.187300 65.177101 -0.148798 -0.988286 -0.033899 0.491900 0.402200 1 3 1.000000
  3 0.230900 -5.187300 65.177101 0.173809 -0.984452 -0.025401 0.508400 0.402100 1 3 1.000000
eric_facemap
  3 0.230900 -5.187300 65.177101 0.173809 -0.984452 -0.025401 0.508400 0.402100 1 3 1.000000
  3 0.626600 -4.585599 65.959801 0.716995 -0.658495 -0.228698 0.528900 0.458300 1 3 1.000000
  3 0.135200 -4.929800 65.968102 0.610288 -0.709286 -0.352793 0.513400 0.468200 1 3 1.000000
eric_facemap
  3 0.626600 -4.585599 65.959801 0.716995 -0.658495 -0.228698 0.528900 0.458300 1 3 1.000000
  3 0.230900 -5.187300 65.177101 0.173809 -0.984452 -0.025401 0.508400 0.402100 1 3 1.000000
  3 2.029500 -4.030300 66.525101 0.613372 -0.789763 0.007000 0.592900 0.497800 1 3 1.000000
eric_facemap
  3 0.716100 -3.893199 67.794197 0.586276 -0.793668 0.162393 0.534400 0.600600 1 3 1.000000
  3 0.626600 -4.585599 65.959801 0.716995 -0.658495 -0.228698 0.528900 0.458300 1 3 1.000000
  3 2.029500 -4.030300 66.525101 0.613372 -0.789763 0.007000 0.592900 0.497800 1 3 1.000000
eric_facemap
  3 2.272900 -3.424599 67.670799 0.784497 -0.620098 0.006500 0.611700 0.593500 1 3 1.000000
  3 0.716100 -3.893199 67.794197 0.586276 -0.793668 0.162393 0.534400 0.600600 1 3 1.000000
  3 2.029500 -4.030300 66.525101 0.613372 -0.789763 0.007000 0.592900 0.497800 1 3 1.000000
eric_facemap
  3 2.491000 -3.348400 66.648598 0.918599 -0.395000 -0.012300 0.624900 0.510800 1 3 1.000000
  3 2.272900 -3.424599 67.670799 0.784497 -0.620098 0.006500 0.611700 0.593500 1 3 1.000000
  3 2.029500 -4.030300 66.525101 0.613372 -0.789763 0.007000 0.592900 0.497800 1 3 1.000000
eric_facemap
  3 2.272900 -3.424599 67.670799 0.784497 -0.620098 0.006500 0.611700 0.593500 1 3 1.000000
  3 2.491000 -3.348400 66.648598 0.918599 -0.395000 -0.012300 0.624900 0.510800 1 3 1.000000
  3 2.854900 -1.681100 67.014999 0.967010 -0.239602 -0.086501 0.691800 0.545000 1 3 1.000000
eric_facemap
  3 2.832100 -0.727800 65.909698 0.859723 -0.510414 -0.018800 0.745300 0.448400 1 3 1.000000
  3 2.854900 -1.681100 67.014999 0.967010 -0.239602 -0.086501 0.691800 0.545000 1 3 1.000000
  3 2.491000 -3.348400 66.648598 0.918599 -0.395000 -0.012300 0.624900 0.510800 1 3 1.000000
eric_facemap
  3 2.854900 -1.681100 67.014999 0.967010 -0.239602 -0.086501 0.691800 0.545000 1 3 1.000000
  3 2.832100 -0.727800 65.909698 0.859723 -0.510414 -0.018800 0.745300 0.448400 1 3 1.000000
  3 3.010500 -0.620000 66.737999 0.928402 -0.095100 -0.359201 0.753700 0.521100 1 3 1.000000
eric_facemap
  3 3.137300 0.117101 66.787102 0.916214 -0.372906 -0.146602 0.788500 0.520300 1 3 1.000000
  3 3.010500 -0.620000 66.737999 0.928402 -0.095100 -0.359201 0.753700 0.521100 1 3 1.000000
  3 2.832100 -0.727800 65.909698 0.859723 -0.510414 -0.018800 0.745300 0.448400 1 3 1.000000
eric_facemap
  3 3.137300 0.117101 66.787102 0.916214 -0.372906 -0.146602 0.788500 0.520300 1 3 1.000000
  3 3.041700 -0.578699 67.543602 0.748265 -0.543375 0.380582 0.751300 0.586900 1 3 1.000000
  3 3.010500 -0.620000 66.737999 0.928402 -0.095100 -0.359201 0.753700 0.521100 1 3 1.000000
eric_facemap
  3 3.389400 0.584097 67.055099 0.477318 0.874933 0.081603 0.802000 0.540400 1 3 1.000000
  3 3.041700 -0.578699 67.543602 0.748265 -0.543375 0.380582 0.751300 0.586900 1 3 1.000000
  3 3.137300 0.117101 66.787102 0.916214 -0.372906 -0.146602 0.788500 0.520300 1 3 1.000000
eric_facemap
  3 3.389400 0.584097 67.055099 0.477318 0.874933 0.081603 0.802000 0.540400 1 3 1.000000
  3 3.627600 0.509797 67.749100 0.854411 -0.396505 -0.335804 0.798400 0.595200 1 3 1.000000
  3 3.041700 -0.578699 67.543602 0.748265 -0.543375 0.380582 0.751300 0.586900 1 3 1.000000
eric_facemap
  3 1.885200 -4.081399 68.264099 0.470983 -0.711574 -0.521381 0.585300 0.628800 1 3 1.000000
  3 2.272900 -3.424599 67.670799 0.784497 -0.620098 0.006500 0.611700 0.593500 1 3 1.000000
  3 2.854900 -1.681100 67.014999 0.967010 -0.239602 -0.086501 0.691800 0.545000 1 3 1.000000
eric_facemap
  3 0.135200 -4.929800 65.968102 0.610288 -0.709286 -0.352793 0.513400 0.468200 1 3 1.000000
  3 0.626600 -4.585599 65.959801 0.716995 -0.658495 -0.228698 0.528900 0.458300 1 3 1.000000
  3 0.356900 -5.375999 66.231003 0.619987 -0.541089 -0.568188 0.520300 0.483500 1 3 1.000000
eric_facemap
  3 0.356900 -5.375999 66.231003 0.619987 -0.541089 -0.568188 0.520300 0.483500 1 3 1.000000
  3 -0.682000 -4.989200 66.220497 -0.788189 -0.508693 -0.346395 0.471100 0.480700 1 3 1.000000
  3 0.135200 -4.929800 65.968102 0.610288 -0.709286 -0.352793 0.513400 0.468200 1 3 1.000000
eric_facemap
  3 -0.682000 -4.989200 66.220497 -0.788189 -0.508693 -0.346395 0.471100 0.480700 1 3 1.000000
  3 -0.661000 -4.590600 65.936401 -0.735903 -0.643403 -0.210901 0.469900 0.459300 1 3 1.000000
  3 0.135200 -4.929800 65.968102 0.610288 -0.709286 -0.352793 0.513400 0.468200 1 3 1.000000
eric_facemap
  3 -0.661000 -4.590600 65.936401 -0.735903 -0.643403 -0.210901 0.469900 0.459300 1 3 1.000000
  3 -0.682000 -4.989200 66.220497 -0.788189 -0.508693 -0.346395 0.471100 0.480700 1 3 1.000000
  3 -0.686900 -4.532300 67.204597 -0.581491 -0.794288 0.175997 0.472400 0.551100 1 3 1.000000
eric_facemap
  3 -0.686900 -4.532300 67.204597 -0.581491 -0.794288 0.175997 0.472400 0.551100 1 3 1.000000
  3 -0.682000 -4.989200 66.220497 -0.788189 -0.508693 -0.346395 0.471100 0.480700 1 3 1.000000
  3 -0.218500 -4.709199 68.094803 -0.440685 -0.853271 0.278791 0.491000 0.616600 1 3 1.000000
eric_facemap
  3 -0.682000 -4.989200 66.220497 -0.788189 -0.508693 -0.346395 0.471100 0.480700 1 3 1.000000
  3 0.000000 -5.592800 66.890404 0.007000 -0.908734 0.417316 0.501000 0.515900 1 3 1.000000
  3 -0.218500 -4.709199 68.094803 -0.440685 -0.853271 0.278791 0.491000 0.616600 1 3 1.000000
eric_facemap
  3 -0.218500 -4.709199 68.094803 -0.440685 -0.853271 0.278791 0.491000 0.616600 1 3 1.000000
  3 0.000000 -5.592800 66.890404 0.007000 -0.908734 0.417316 0.501000 0.515900 1 3 1.000000
  3 0.271100 -4.664899 68.268898 0.194493 -0.977766 -0.078397 0.514300 0.628900 1 3 1.000000
eric_facemap
  3 0.356900 -5.375999 66.231003 0.619987 -0.541089 -0.568188 0.520300 0.483500 1 3 1.000000
  3 0.271100 -4.664899 68.268898 0.194493 -0.977766 -0.078397 0.514300 0.628900 1 3 1.000000
  3 0.000000 -5.592800 66.890404 0.007000 -0.908734 0.417316 0.501000 0.515900 1 3 1.000000
eric_facemap
  3 0.271100 -4.664899 68.268898 0.194493 -0.977766 -0.078397 0.514300 0.628900 1 3 1.000000
  3 0.356900 -5.375999 66.231003 0.619987 -0.541089 -0.568188 0.520300 0.483500 1 3 1.000000
  3 0.626600 -4.585599 65.959801 0.716995 -0.658495 -0.228698 0.528900 0.458300 1 3 1.000000
eric_facemap
  3 0.716100 -3.893199 67.794197 0.586276 -0.793668 0.162393 0.534400 0.600600 1 3 1.000000
  3 0.271100 -4.664899 68.268898 0.194493 -0.977766 -0.078397 0.514300 0.628900 1 3 1.000000
  3 0.626600 -4.585599 65.959801 0.716995 -0.658495 -0.228698 0.528900 0.458300 1 3 1.000000
eric_facemap
  3 0.271100 -4.664899 68.268898 0.194493 -0.977766 -0.078397 0.514300 0.628900 1 3 1.000000
  3 0.716100 -3.893199 67.794197 0.586276 -0.793668 0.162393 0.534400 0.600600 1 3 1.000000
  3 1.885200 -4.081399 68.264099 0.470983 -0.711574 -0.521381 0.585300 0.628800 1 3 1.000000
eric_facemap
  3 0.291500 -4.750799 69.089500 -0.093804 -0.984841 0.145906 0.514100 0.677200 1 3 1.000000
  3 0.271100 -4.664899 68.268898 0.194493 -0.977766 -0.078397 0.514300 0.628900 1 3 1.000000
  3 1.885200 -4.081399 68.264099 0.470983 -0.711574 -0.521381 0.585300 0.628800 1 3 1.000000
eric_facemap
  3 0.291500 -4.750799 69.089500 -0.093804 -0.984841 0.145906 0.514100 0.677200 1 3 1.000000
  3 1.885200 -4.081399 68.264099 0.470983 -0.711574 -0.521381 0.585300 0.628800 1 3 1.000000
  3 0.821900 -3.980899 70.912598 0.288790 -0.793772 0.535281 0.535800 0.861800 1 3 1.000000
eric_facemap
  3 2.123400 -2.727599 70.947098 0.783679 -0.420289 0.457388 0.624700 0.872000 1 3 1.000000
  3 0.821900 -3.980899 70.912598 0.288790 -0.793772 0.535281 0.535800 0.861800 1 3 1.000000
  3 1.885200 -4.081399 68.264099 0.470983 -0.711574 -0.521381 0.585300 0.628800 1 3 1.000000
eric_facemap
  3 1.885200 -4.081399 68.264099 0.470983 -0.711574 -0.521381 0.585300 0.628800 1 3 1.000000
  3 2.975100 -0.743999 70.108200 0.973454 -0.097895 0.206890 0.738600 0.812400 1 3 1.000000
  3 2.123400 -2.727599 70.947098 0.783679 -0.420289 0.457388 0.624700 0.872000 1 3 1.000000
eric_facemap
  3 1.885200 -4.081399 68.264099 0.470983 -0.711574 -0.521381 0.585300 0.628800 1 3 1.000000
  3 2.854900 -1.681100 67.014999 0.967010 -0.239602 -0.086501 0.691800 0.545000 1 3 1.000000
  3 2.975100 -0.743999 70.108200 0.973454 -0.097895 0.206890 0.738600 0.812400 1 3 1.000000
eric_facemap
  3 2.854900 -1.681100 67.014999 0.967010 -0.239602 -0.086501 0.691800 0.545000 1 3 1.000000
  3 3.041700 -0.578699 67.543602 0.748265 -0.543375 0.380582 0.751300 0.586900 1 3 1.000000
  3 2.975100 -0.743999 70.108200 0.973454 -0.097895 0.206890 0.738600 0.812400 1 3 1.000000
eric_facemap
  3 2.854900 -1.681100 67.014999 0.967010 -0.239602 -0.086501 0.691800 0.545000 1 3 1.000000
  3 3.010500 -0.620000 66.737999 0.928402 -0.095100 -0.359201 0.753700 0.521100 1 3 1.000000
  3 3.041700 -0.578699 67.543602 0.748265 -0.543375 0.380582 0.751300 0.586900 1 3 1.000000
eric_facemap
  3 -0.682000 -4.989200 66.220497 -0.788189 -0.508693 -0.346395 0.471100 0.480700 1 3 1.000000
  3 0.356900 -5.375999 66.231003 0.619987 -0.541089 -0.568188 0.520300 0.483500 1 3 1.000000
  3 0.000000 -5.592800 66.890404 0.007000 -0.908734 0.417316 0.501000 0.515900 1 3 1.000000
eric_facemap
  3 0.291500 -4.750799 69.089500 -0.093804 -0.984841 0.145906 0.514100 0.677200 1 3 1.000000
  3 -0.218500 -4.709199 68.094803 -0.440685 -0.853271 0.278791 0.491000 0.616600 1 3 1.000000
  3 0.271100 -4.664899 68.268898 0.194493 -0.977766 -0.078397 0.514300 0.628900 1 3 1.000000
eric_facemap
  3 -0.767700 2.214897 64.902603 -0.320090 0.939871 -0.119096 0.996400 0.408900 1 3 1.000000
  3 2.090100 2.054200 61.527100 0.816514 0.468108 0.337906 0.915600 0.112200 1 3 1.000000
  3 -0.959500 2.780700 61.742298 -0.201894 0.961873 0.184495 0.996400 0.123700 1 3 1.000000
eric_facemap
  3 -0.767700 2.214897 64.902603 -0.320090 0.939871 -0.119096 0.996400 0.408900 1 3 1.000000
  3 1.443900 1.812500 64.973701 0.677199 0.724599 -0.127900 0.932300 0.400100 1 3 1.000000
  3 2.090100 2.054200 61.527100 0.816514 0.468108 0.337906 0.915600 0.112200 1 3 1.000000
eric_facemap
  3 2.461100 0.869000 61.150200 0.997329 -0.026401 0.068102 0.838200 0.094900 1 3 1.000000
  3 2.090100 2.054200 61.527100 0.816514 0.468108 0.337906 0.915600 0.112200 1 3 1.000000
  3 1.443900 1.812500 64.973701 0.677199 0.724599 -0.127900 0.932300 0.400100 1 3 1.000000
eric_facemap
  3 2.702800 0.174800 66.138802 0.330701 0.811602 -0.481601 0.793200 0.472300 1 3 1.000000
  3 2.461100 0.869000 61.150200 0.997329 -0.026401 0.068102 0.838200 0.094900 1 3 1.000000
  3 1.443900 1.812500 64.973701 0.677199 0.724599 -0.127900 0.932300 0.400100 1 3 1.000000
eric_facemap
  3 2.171800 2.986401 68.419701 0.705700 0.691100 -0.156100 0.917200 0.692900 1 3 1.000000
  3 2.702800 0.174800 66.138802 0.330701 0.811602 -0.481601 0.793200 0.472300 1 3 1.000000
  3 1.443900 1.812500 64.973701 0.677199 0.724599 -0.127900 0.932300 0.400100 1 3 1.000000
eric_facemap
  3 2.171800 2.986401 68.419701 0.705700 0.691100 -0.156100 0.917200 0.692900 1 3 1.000000
  3 3.102200 1.173201 69.341103 0.982529 0.169205 0.077502 0.842800 0.755100 1 3 1.000000
  3 2.702800 0.174800 66.138802 0.330701 0.811602 -0.481601 0.793200 0.472300 1 3 1.000000
eric_facemap
  3 2.171800 2.986401 68.419701 0.705700 0.691100 -0.156100 0.917200 0.692900 1 3 1.000000
  3 2.445600 2.072701 70.653900 0.738292 0.461695 0.491694 0.891200 0.878500 1 3 1.000000
  3 3.102200 1.173201 69.341103 0.982529 0.169205 0.077502 0.842800 0.755100 1 3 1.000000
eric_facemap
  3 2.975100 -0.743999 70.108200 0.973454 -0.097895 0.206890 0.738600 0.812400 1 3 1.000000
  3 3.102200 1.173201 69.341103 0.982529 0.169205 0.077502 0.842800 0.755100 1 3 1.000000
  3 2.445600 2.072701 70.653900 0.738292 0.461695 0.491694 0.891200 0.878500 1 3 1.000000
eric_facemap
  3 1.492600 0.066901 72.186302 0.429898 0.048100 0.901595 0.810700 0.983700 1 3 1.000000
  3 2.975100 -0.743999 70.108200 0.973454 -0.097895 0.206890 0.738600 0.812400 1 3 1.000000
  3 2.445600 2.072701 70.653900 0.738292 0.461695 0.491694 0.891200 0.878500 1 3 1.000000
eric_facemap
  3 1.492600 0.066901 72.186302 0.429898 0.048100 0.901595 0.810700 0.983700 1 3 1.000000
  3 2.123400 -2.727599 70.947098 0.783679 -0.420289 0.457388 0.624700 0.872000 1 3 1.000000
  3 2.975100 -0.743999 70.108200 0.973454 -0.097895 0.206890 0.738600 0.812400 1 3 1.000000
eric_facemap
  3 1.492600 0.066901 72.186302 0.429898 0.048100 0.901595 0.810700 0.983700 1 3 1.000000
  3 1.060600 -2.386399 71.956497 0.320087 -0.333987 0.886565 0.576300 0.981300 1 3 1.000000
  3 2.123400 -2.727599 70.947098 0.783679 -0.420289 0.457388 0.624700 0.872000 1 3 1.000000
eric_facemap
  3 1.060600 -2.386399 71.956497 0.320087 -0.333987 0.886565 0.576300 0.981300 1 3 1.000000
  3 0.821900 -3.980899 70.912598 0.288790 -0.793772 0.535281 0.535800 0.861800 1 3 1.000000
  3 2.123400 -2.727599 70.947098 0.783679 -0.420289 0.457388 0.624700 0.872000 1 3 1.000000
eric_facemap
  3 -0.821900 -3.980899 70.912598 -0.277495 -0.786884 0.551189 0.464200 0.861800 1 3 1.000000
  3 0.821900 -3.980899 70.912598 0.288790 -0.793772 0.535281 0.535800 0.861800 1 3 1.000000
  3 1.060600 -2.386399 71.956497 0.320087 -0.333987 0.886565 0.576300 0.981300 1 3 1.000000
eric_facemap
  3 0.291500 -4.750799 69.089500 -0.093804 -0.984841 0.145906 0.514100 0.677200 1 3 1.000000
  3 0.821900 -3.980899 70.912598 0.288790 -0.793772 0.535281 0.535800 0.861800 1 3 1.000000
  3 -0.821900 -3.980899 70.912598 -0.277495 -0.786884 0.551189 0.464200 0.861800 1 3 1.000000
eric_facemap
  3 0.291500 -4.750799 69.089500 -0.093804 -0.984841 0.145906 0.514100 0.677200 1 3 1.000000
  3 -0.821900 -3.980899 70.912598 -0.277495 -0.786884 0.551189 0.464200 0.861800 1 3 1.000000
  3 -1.136000 -4.554100 68.465202 -0.277695 -0.806286 -0.522291 0.449000 0.634900 1 3 1.000000
eric_facemap
  3 0.291500 -4.750799 69.089500 -0.093804 -0.984841 0.145906 0.514100 0.677200 1 3 1.000000
  3 -1.136000 -4.554100 68.465202 -0.277695 -0.806286 -0.522291 0.449000 0.634900 1 3 1.000000
  3 -0.218500 -4.709199 68.094803 -0.440685 -0.853271 0.278791 0.491000 0.616600 1 3 1.000000
eric_facemap
  3 -1.136000 -4.554100 68.465202 -0.277695 -0.806286 -0.522291 0.449000 0.634900 1 3 1.000000
  3 -0.653700 -3.978600 67.753899 -0.642984 -0.747182 0.168196 0.468900 0.596700 1 3 1.000000
  3 -0.218500 -4.709199 68.094803 -0.440685 -0.853271 0.278791 0.491000 0.616600 1 3 1.000000
eric_facemap
  3 -0.653700 -3.978600 67.753899 -0.642984 -0.747182 0.168196 0.468900 0.596700 1 3 1.000000
  3 -0.686900 -4.532300 67.204597 -0.581491 -0.794288 0.175997 0.472400 0.551100 1 3 1.000000
  3 -0.218500 -4.709199 68.094803 -0.440685 -0.853271 0.278791 0.491000 0.616600 1 3 1.000000
eric_facemap
  3 -0.821900 -3.980899 70.912598 -0.277495 -0.786884 0.551189 0.464200 0.861800 1 3 1.000000
  3 1.060600 -2.386399 71.956497 0.320087 -0.333987 0.886565 0.576300 0.981300 1 3 1.000000
  3 -0.582400 -2.691399 71.954903 -0.136405 -0.385815 0.912436 0.462700 0.983200 1 3 1.000000
eric_facemap
  3 2.445600 2.072701 70.653900 0.738292 0.461695 0.491694 0.891200 0.878500 1 3 1.000000
  3 0.000000 1.636101 72.024597 -0.009100 0.460108 0.887816 0.933700 0.969800 1 3 1.000000
  3 1.492600 0.066901 72.186302 0.429898 0.048100 0.901595 0.810700 0.983700 1 3 1.000000
eric_facemap
  3 0.000000 2.988801 71.027702 -0.005500 0.770916 0.636913 0.996400 0.935700 1 3 1.000000
  3 0.000000 1.636101 72.024597 -0.009100 0.460108 0.887816 0.933700 0.969800 1 3 1.000000
  3 2.445600 2.072701 70.653900 0.738292 0.461695 0.491694 0.891200 0.878500 1 3 1.000000
eric_facemap
  3 1.280500 3.534801 69.257500 0.305101 0.944704 0.120200 0.955000 0.761400 1 3 1.000000
  3 0.000000 2.988801 71.027702 -0.005500 0.770916 0.636913 0.996400 0.935700 1 3 1.000000
  3 2.445600 2.072701 70.653900 0.738292 0.461695 0.491694 0.891200 0.878500 1 3 1.000000
eric_facemap
  3 1.280500 3.534801 69.257500 0.305101 0.944704 0.120200 0.955000 0.761400 1 3 1.000000
  3 2.445600 2.072701 70.653900 0.738292 0.461695 0.491694 0.891200 0.878500 1 3 1.000000
  3 2.171800 2.986401 68.419701 0.705700 0.691100 -0.156100 0.917200 0.692900 1 3 1.000000
eric_facemap
  3 1.102600 3.357701 67.416298 0.326094 0.869284 -0.371493 0.960800 0.616300 1 3 1.000000
  3 1.280500 3.534801 69.257500 0.305101 0.944704 0.120200 0.955000 0.761400 1 3 1.000000
  3 2.171800 2.986401 68.419701 0.705700 0.691100 -0.156100 0.917200 0.692900 1 3 1.000000
eric_facemap
  3 1.102600 3.357701 67.416298 0.326094 0.869284 -0.371493 0.960800 0.616300 1 3 1.000000
  3 2.171800 2.986401 68.419701 0.705700 0.691100 -0.156100 0.917200 0.692900 1 3 1.000000
  3 1.443900 1.812500 64.973701 0.677199 0.724599 -0.127900 0.932300 0.400100 1 3 1.000000
eric_facemap
  3 -0.767700 2.214897 64.902603 -0.320090 0.939871 -0.119096 0.996400 0.408900 1 3 1.000000
  3 1.102600 3.357701 67.416298 0.326094 0.869284 -0.371493 0.960800 0.616300 1 3 1.000000
  3 1.443900 1.812500 64.973701 0.677199 0.724599 -0.127900 0.932300 0.400100 1 3 1.000000
eric_facemap
  3 3.102200 1.173201 69.341103 0.982529 0.169205 0.077502 0.842800 0.755100 1 3 1.000000
  3 3.041700 -0.578699 67.543602 0.748265 -0.543375 0.380582 0.751300 0.586900 1 3 1.000000
  3 2.702800 0.174800 66.138802 0.330701 0.811602 -0.481601 0.793200 0.472300 1 3 1.000000
eric_facemap
  3 3.102200 1.173201 69.341103 0.982529 0.169205 0.077502 0.842800 0.755100 1 3 1.000000
  3 2.975100 -0.743999 70.108200 0.973454 -0.097895 0.206890 0.738600 0.812400 1 3 1.000000
  3 3.041700 -0.578699 67.543602 0.748265 -0.543375 0.380582 0.751300 0.586900 1 3 1.000000
eric_facemap
  3 2.702800 0.174800 66.138802 0.330701 0.811602 -0.481601 0.793200 0.472300 1 3 1.000000
  3 2.972700 -0.419700 65.470299 0.634079 -0.143295 -0.759875 0.761300 0.432300 1 3 1.000000
  3 2.832100 -0.727800 65.909698 0.859723 -0.510414 -0.018800 0.745300 0.448400 1 3 1.000000
eric_facemap
  3 2.972700 -0.419700 65.470299 0.634079 -0.143295 -0.759875 0.761300 0.432300 1 3 1.000000
  3 3.137300 0.117101 66.787102 0.916214 -0.372906 -0.146602 0.788500 0.520300 1 3 1.000000
  3 2.832100 -0.727800 65.909698 0.859723 -0.510414 -0.018800 0.745300 0.448400 1 3 1.000000
eric_facemap
  3 3.389400 0.584097 67.055099 0.477318 0.874933 0.081603 0.802000 0.540400 1 3 1.000000
  3 3.137300 0.117101 66.787102 0.916214 -0.372906 -0.146602 0.788500 0.520300 1 3 1.000000
  3 2.972700 -0.419700 65.470299 0.634079 -0.143295 -0.759875 0.761300 0.432300 1 3 1.000000
eric_facemap
  3 2.702800 0.174800 66.138802 0.330701 0.811602 -0.481601 0.793200 0.472300 1 3 1.000000
  3 3.389400 0.584097 67.055099 0.477318 0.874933 0.081603 0.802000 0.540400 1 3 1.000000
  3 2.972700 -0.419700 65.470299 0.634079 -0.143295 -0.759875 0.761300 0.432300 1 3 1.000000
eric_facemap
  3 3.389400 0.584097 67.055099 0.477318 0.874933 0.081603 0.802000 0.540400 1 3 1.000000
  3 2.702800 0.174800 66.138802 0.330701 0.811602 -0.481601 0.793200 0.472300 1 3 1.000000
  3 3.627600 0.509797 67.749100 -0.821301 0.422001 0.383900 0.798400 0.595200 1 3 1.000000
eric_facemap
  3 3.041700 -0.578703 67.543602 -0.835716 0.373907 0.402208 0.751300 0.586900 1 3 1.000000
  3 3.627600 0.509797 67.749100 -0.821301 0.422001 0.383900 0.798400 0.595200 1 3 1.000000
  3 2.702800 0.174800 66.138802 0.330701 0.811602 -0.481601 0.793200 0.472300 1 3 1.000000
eric_facemap
  3 -1.492600 0.066897 72.186302 -0.465208 0.032201 0.884615 0.811900 0.969800 1 3 1.000000
  3 1.492600 0.066901 72.186302 0.429898 0.048100 0.901595 0.821100 0.826200 1 3 1.000000
  3 0.000000 1.636101 72.024597 -0.009100 0.460108 0.887816 0.933700 0.969800 1 3 1.000000
eric_facemap
  3 -0.582400 -2.691403 71.954903 -0.264709 -0.390713 0.881630 0.631800 0.969800 1 3 1.000000
  3 1.492600 0.066901 72.186302 0.429898 0.048100 0.901595 0.821100 0.826200 1 3 1.000000
  3 -1.492600 0.066897 72.186302 -0.465208 0.032201 0.884615 0.811900 0.969800 1 3 1.000000
eric_facemap
  3 -0.582400 -2.691403 71.954903 -0.264709 -0.390713 0.881630 0.631800 0.969800 1 3 1.000000
  3 1.060600 -2.386399 71.956497 0.320087 -0.333987 0.886565 0.656700 0.863000 1 3 1.000000
  3 1.492600 0.066901 72.186302 0.429898 0.048100 0.901595 0.821100 0.826200 1 3 1.000000
eric_facemap
  3 -2.445600 2.072701 70.653900 -0.739388 0.469992 0.482092 0.108800 0.878500 1 3 1.000000
  3 -3.102200 1.173201 69.341103 -0.980929 0.178805 0.076202 0.154200 0.755100 1 3 1.000000
  3 -2.975100 -0.743999 70.108200 -0.968008 -0.106701 0.227102 0.261400 0.812400 1 3 1.000000
eric_facemap
  3 -2.445600 2.072701 70.653900 -0.739388 0.469992 0.482092 0.108800 0.878500 1 3 1.000000
  3 -1.146900 3.356700 67.403702 -0.342600 0.866100 -0.364000 0.043200 0.615300 1 3 1.000000
  3 -3.102200 1.173201 69.341103 -0.980929 0.178805 0.076202 0.154200 0.755100 1 3 1.000000
eric_facemap
  3 -1.146900 3.356700 67.403702 -0.342600 0.866100 -0.364000 0.043200 0.615300 1 3 1.000000
  3 -2.445600 2.072701 70.653900 -0.739388 0.469992 0.482092 0.108800 0.878500 1 3 1.000000
  3 -1.280500 3.534801 69.257500 -0.313895 0.942184 0.117298 0.047600 0.761400 1 3 1.000000
eric_facemap
  3 1.102600 3.357697 67.416298 0.279596 0.911087 -0.302896 0.002700 0.615500 1 3 1.000000
  3 -1.146900 3.356700 67.403702 -0.342600 0.866100 -0.364000 0.043200 0.615300 1 3 1.000000
  3 -1.280500 3.534801 69.257500 -0.313895 0.942184 0.117298 0.047600 0.761400 1 3 1.000000
eric_facemap
  3 1.102600 3.357697 67.416298 0.279596 0.911087 -0.302896 0.002700 0.615500 1 3 1.000000
  3 -1.280500 3.534801 69.257500 -0.313895 0.942184 0.117298 0.047600 0.761400 1 3 1.000000
  3 1.280500 3.534797 69.257500 0.314108 0.934024 0.170104 0.002700 0.763100 1 3 1.000000
eric_facemap
  3 -1.280500 3.534801 69.257500 -0.313895 0.942184 0.117298 0.047600 0.761400 1 3 1.000000
  3 0.000000 2.988801 71.027702 -0.005500 0.770916 0.636913 0.002700 0.937100 1 3 1.000000
  3 1.280500 3.534797 69.257500 0.314108 0.934024 0.170104 0.002700 0.763100 1 3 1.000000
eric_facemap
  3 -2.445600 2.072701 70.653900 -0.739388 0.469992 0.482092 0.108800 0.878500 1 3 1.000000
  3 0.000000 2.988801 71.027702 -0.005500 0.770916 0.636913 0.002700 0.937100 1 3 1.000000
  3 -1.280500 3.534801 69.257500 -0.313895 0.942184 0.117298 0.047600 0.761400 1 3 1.000000
eric_facemap
  3 -2.445600 2.072701 70.653900 -0.739388 0.469992 0.482092 0.108800 0.878500 1 3 1.000000
  3 0.000000 1.636101 72.024597 -0.009100 0.460108 0.887816 0.061200 0.992000 1 3 1.000000
  3 0.000000 2.988801 71.027702 -0.005500 0.770916 0.636913 0.002700 0.937100 1 3 1.000000
eric_facemap
  3 -1.492600 0.066901 72.186302 -0.411897 0.045500 0.910094 0.189300 0.992600 1 3 1.000000
  3 0.000000 1.636101 72.024597 -0.009100 0.460108 0.887816 0.061200 0.992000 1 3 1.000000
  3 -2.445600 2.072701 70.653900 -0.739388 0.469992 0.482092 0.108800 0.878500 1 3 1.000000
eric_facemap
  3 -2.445600 2.072701 70.653900 -0.739388 0.469992 0.482092 0.108800 0.878500 1 3 1.000000
  3 -2.975100 -0.743999 70.108200 -0.968008 -0.106701 0.227102 0.261400 0.812400 1 3 1.000000
  3 -1.492600 0.066901 72.186302 -0.411897 0.045500 0.910094 0.189300 0.992600 1 3 1.000000
eric_facemap
  3 -1.492600 0.066901 72.186302 -0.411897 0.045500 0.910094 0.189300 0.992600 1 3 1.000000
  3 -2.975100 -0.743999 70.108200 -0.968008 -0.106701 0.227102 0.261400 0.812400 1 3 1.000000
  3 -0.582400 -2.691399 71.954903 -0.136405 -0.385815 0.912436 0.462700 0.983200 1 3 1.000000
eric_facemap
  3 -2.975100 -0.743999 70.108200 -0.968008 -0.106701 0.227102 0.261400 0.812400 1 3 1.000000
  3 -2.132000 -3.125599 70.225601 -0.830002 -0.459401 0.316301 0.387700 0.807100 1 3 1.000000
  3 -0.582400 -2.691399 71.954903 -0.136405 -0.385815 0.912436 0.462700 0.983200 1 3 1.000000
eric_facemap
  3 -2.132000 -3.125599 70.225601 -0.830002 -0.459401 0.316301 0.387700 0.807100 1 3 1.000000
  3 -0.821900 -3.980899 70.912598 -0.277495 -0.786884 0.551189 0.464200 0.861800 1 3 1.000000
  3 -0.582400 -2.691399 71.954903 -0.136405 -0.385815 0.912436 0.462700 0.983200 1 3 1.000000
eric_facemap
  3 -1.988700 -4.139400 68.584297 -0.748213 -0.663311 -0.014000 0.414500 0.640600 1 3 1.000000
  3 -0.821900 -3.980899 70.912598 -0.277495 -0.786884 0.551189 0.464200 0.861800 1 3 1.000000
  3 -2.132000 -3.125599 70.225601 -0.830002 -0.459401 0.316301 0.387700 0.807100 1 3 1.000000
eric_facemap
  3 -1.136000 -4.554100 68.465202 -0.277695 -0.806286 -0.522291 0.449000 0.634900 1 3 1.000000
  3 -0.821900 -3.980899 70.912598 -0.277495 -0.786884 0.551189 0.464200 0.861800 1 3 1.000000
  3 -1.988700 -4.139400 68.584297 -0.748213 -0.663311 -0.014000 0.414500 0.640600 1 3 1.000000
eric_facemap
  3 -1.136000 -4.554100 68.465202 -0.277695 -0.806286 -0.522291 0.449000 0.634900 1 3 1.000000
  3 -1.988700 -4.139400 68.584297 -0.748213 -0.663311 -0.014000 0.414500 0.640600 1 3 1.000000
  3 -2.323700 -3.423399 67.709503 -0.810611 -0.584508 -0.035500 0.387600 0.593300 1 3 1.000000
eric_facemap
  3 -2.132000 -3.125599 70.225601 -0.830002 -0.459401 0.316301 0.387700 0.807100 1 3 1.000000
  3 -2.323700 -3.423399 67.709503 -0.810611 -0.584508 -0.035500 0.387600 0.593300 1 3 1.000000
  3 -1.988700 -4.139400 68.584297 -0.748213 -0.663311 -0.014000 0.414500 0.640600 1 3 1.000000
eric_facemap
  3 -2.132000 -3.125599 70.225601 -0.830002 -0.459401 0.316301 0.387700 0.807100 1 3 1.000000
  3 -2.975100 -0.743999 70.108200 -0.968008 -0.106701 0.227102 0.261400 0.812400 1 3 1.000000
  3 -2.323700 -3.423399 67.709503 -0.810611 -0.584508 -0.035500 0.387600 0.593300 1 3 1.000000
eyeball_r
  3 -0.653700 -3.978603 67.753899 -0.580300 -0.814399 0.002400 0.897200 0.399700 1 3 1.000000
  3 -1.136000 -4.554103 68.465202 -0.342486 -0.915062 -0.212991 0.482000 0.756900 1 3 1.000000
  3 -2.323700 -3.423403 67.709503 -0.837758 -0.543173 0.055897 0.121900 0.430200 1 3 1.000000
end
