// Created by Crowbar 0.68
version 1
nodes
  0 "ValveBiped.Bip01_Pelvis" -1
  1 "ValveBiped.Bip01_Spine" 0
  2 "ValveBiped.Bip01_Spine1" 1
  3 "ValveBiped.Bip01_Spine2" 2
  4 "ValveBiped.Bip01_Spine4" 3
  5 "ValveBiped.Bip01_Neck1" 4
  6 "ValveBiped.Bip01_Head1" 5
  7 "ValveBiped.forward" 6
  8 "ValveBiped.Bip01_R_Clavicle" 4
  9 "ValveBiped.Bip01_R_UpperArm" 8
  10 "ValveBiped.Bip01_R_Forearm" 9
  11 "ValveBiped.Bip01_R_Hand" 10
  12 "ValveBiped.Anim_Attachment_RH" 11
  13 "ValveBiped.Bip01_L_Clavicle" 4
  14 "ValveBiped.Bip01_L_UpperArm" 13
  15 "ValveBiped.Bip01_L_Forearm" 14
  16 "ValveBiped.Bip01_L_Hand" 15
  17 "ValveBiped.Anim_Attachment_LH" 16
  18 "ValveBiped.Bip01_R_Thigh" 0
  19 "ValveBiped.Bip01_R_Calf" 18
  20 "ValveBiped.Bip01_R_Foot" 19
  21 "ValveBiped.Bip01_L_Thigh" 0
  22 "ValveBiped.Bip01_L_Calf" 21
  23 "ValveBiped.Bip01_L_Foot" 22
  24 "ValveBiped.Bip01" -1
  25 "ValveBiped.Bip01_L_Toe0" 23
  26 "ValveBiped.Bip01_L_Shin" 22
  27 "ValveBiped.Bip01_L_Knee" 21
  28 "ValveBiped.Bip01_L_Quadricep" 21
  29 "ValveBiped.Bip01_R_Toe0" 20
  30 "ValveBiped.Bip01_R_Shin" 19
  31 "ValveBiped.Bip01_R_Quadricep" 18
  32 "ValveBiped.Bip01_R_Knee" 18
  33 "ValveBiped.Bip01_L_Finger3" 16
  34 "ValveBiped.Bip01_L_Finger31" 33
  35 "ValveBiped.Bip01_L_Finger32" 34
  36 "ValveBiped.Bip01_L_Finger2" 16
  37 "ValveBiped.Bip01_L_Finger21" 36
  38 "ValveBiped.Bip01_L_Finger22" 37
  39 "ValveBiped.Bip01_L_Finger1" 16
  40 "ValveBiped.Bip01_L_Finger11" 39
  41 "ValveBiped.Bip01_L_Finger12" 40
  42 "ValveBiped.Bip01_L_Finger0" 16
  43 "ValveBiped.Bip01_L_Finger01" 42
  44 "ValveBiped.Bip01_L_Finger02" 43
  45 "ValveBiped.Bip01_L_Finger4" 16
  46 "ValveBiped.Bip01_L_Finger41" 45
  47 "ValveBiped.Bip01_L_Finger42" 46
  48 "ValveBiped.Bip01_L_Ulna" 15
  49 "ValveBiped.Bip01_L_Wrist" 15
  50 "ValveBiped.Bip01_L_Elbow" 14
  51 "ValveBiped.Bip01_L_Shoulder" 14
  52 "ValveBiped.Bip01_L_Bicep" 14
  53 "ValveBiped.Bip01_L_Trapezius" 13
  54 "ValveBiped.Bip01_R_Finger3" 11
  55 "ValveBiped.Bip01_R_Finger31" 54
  56 "ValveBiped.Bip01_R_Finger32" 55
  57 "ValveBiped.Bip01_R_Finger2" 11
  58 "ValveBiped.Bip01_R_Finger21" 57
  59 "ValveBiped.Bip01_R_Finger22" 58
  60 "ValveBiped.Bip01_R_Finger1" 11
  61 "ValveBiped.Bip01_R_Finger11" 60
  62 "ValveBiped.Bip01_R_Finger12" 61
  63 "ValveBiped.Bip01_R_Finger0" 11
  64 "ValveBiped.Bip01_R_Finger01" 63
  65 "ValveBiped.Bip01_R_Finger02" 64
  66 "ValveBiped.Bip01_R_Finger4" 11
  67 "ValveBiped.Bip01_R_Finger41" 66
  68 "ValveBiped.Bip01_R_Finger42" 67
  69 "ValveBiped.Bip01_R_Ulna" 10
  70 "ValveBiped.Bip01_R_Wrist" 10
  71 "ValveBiped.Bip01_R_Shoulder" 9
  72 "ValveBiped.Bip01_R_Bicep" 9
  73 "ValveBiped.Bip01_R_Elbow" 9
  74 "ValveBiped.Bip01_R_Trapezius" 8
  75 "ValveBiped.Bip01_R_Pectoral" 3
  76 "ValveBiped.Bip01_L_Pectoral" 3
  77 "ValveBiped.Bip01_R_Latt" 3
  78 "ValveBiped.Bip01_L_Latt" 3
end
skeleton
  time 0
    0 -0.000005 -0.533615 38.566917 1.570796 0.000000 0.000000
    1 0.000005 3.345128 -2.981901 1.570796 0.086293 1.570796
    2 4.018331 0.000000 0.000000 0.000000 0.000000 -0.029242
    3 3.518561 0.000001 0.000000 0.000000 0.000000 0.100336
    4 8.942642 0.000000 0.000000 0.000000 0.000000 0.194096
    5 3.307271 0.000000 0.000000 3.141590 0.000000 0.400478
    6 3.593717 0.000000 0.000000 0.000000 -0.000001 0.406587
    7 1.999998 -3.000001 0.000000 -1.570796 0.000000 -1.326450
    8 2.033354 1.000771 -1.937610 -1.668474 1.286518 2.942954
    9 6.028141 0.000007 0.000001 1.639479 -0.008065 -0.586846
    10 11.692546 0.000000 -0.000003 0.000000 0.000000 -0.060372
    11 11.481694 0.000000 0.000002 -1.564937 0.106606 0.044193
    12 2.676083 -1.712440 0.000000 -1.570796 0.000000 -1.570796
    13 2.033346 1.000767 1.937660 1.596637 -1.286515 2.942961
    14 6.028141 0.000007 0.000000 -1.579613 0.047802 -0.585173
    15 11.692558 0.000000 0.000002 0.000000 0.000000 -0.060372
    16 11.481668 0.000001 -0.000029 1.573183 -0.106613 0.044193
    17 2.676088 -1.712442 0.000000 1.570797 0.000000 1.570796
    18 -3.890452 0.000004 0.000007 -1.570796 0.051845 -1.576021
    19 17.848167 0.000000 0.000001 0.000000 0.000000 0.034187
    20 16.525253 0.000000 0.000000 0.038611 0.040779 -1.071632
    21 3.890452 -0.000004 -0.000003 -1.570796 0.051839 -1.565574
    22 17.848167 0.000000 0.000000 0.000000 0.000000 0.034200
    23 16.525238 0.000000 0.000000 -0.027915 -0.040782 -1.071638
    24 -0.000005 -0.533615 38.566917 1.570796 0.000000 0.000000
    25 6.879449 0.000002 0.000000 -0.007299 -0.002951 -0.584373
    26 7.766866 0.000000 0.000000 0.000000 0.000000 0.000000
    27 17.848169 0.000000 0.000000 0.000000 0.000000 0.016691
    28 7.139265 0.000000 0.000000 0.000000 0.000000 0.000000
    29 6.879452 0.000002 0.000000 -0.081334 -0.002951 -0.584373
    30 7.766870 0.000000 0.000001 0.000000 0.000000 0.000000
    31 7.139272 0.000000 0.000000 0.000000 0.000000 0.000000
    32 17.848169 0.000000 0.000000 0.000000 0.000000 0.016685
    33 3.942322 0.046778 -0.431443 -0.155014 0.073328 -0.810648
    34 1.539094 -0.000004 0.000000 0.000000 0.004460 -0.247797
    35 1.196320 0.000002 0.000000 0.000000 0.007361 -0.430802
    36 3.883688 -0.046765 0.431443 0.085902 0.021830 -0.587867
    37 1.719576 0.000001 0.000000 0.000000 0.005516 -0.366478
    38 1.209181 0.000001 0.000000 0.000000 0.003084 -0.216400
    39 3.859860 -0.137941 1.332466 0.354449 -0.042750 -0.531718
    40 1.719429 0.000005 0.000000 0.000000 0.004074 -0.363009
    41 1.099666 -0.000001 0.000000 0.000000 0.002596 -0.244331
    42 0.806050 -0.348918 1.321258 -1.206854 -0.679488 -0.789308
    43 1.789786 -0.000001 0.000001 0.000000 0.007387 0.228523
    44 1.207001 -0.000002 0.000002 0.000000 0.011267 0.362860
    45 3.859705 -0.142399 -1.191974 -0.479144 0.152190 -0.879874
    46 1.312560 0.000000 -0.000001 0.000000 0.009665 -0.439720
    47 0.729364 0.000001 0.000000 0.000000 0.004971 -0.244299
    48 5.740848 0.000000 0.000001 0.000688 0.000000 0.000000
    49 11.481697 0.000000 0.000006 0.001272 0.000000 0.000000
    50 11.692556 0.000000 0.000012 0.000000 0.000000 -0.029500
    51 1.500000 0.000000 0.000006 0.000000 0.000000 0.000000
    52 5.560000 0.000000 0.000007 0.000000 0.000000 0.000000
    53 5.166964 -0.000001 0.000000 0.000000 0.000000 0.000000
    54 3.942299 0.050328 0.431043 0.154999 -0.079305 -0.810205
    55 1.539097 0.000003 0.000000 0.000000 -0.005854 -0.247771
    56 1.196323 -0.000001 0.000000 0.000000 -0.009663 -0.430761
    57 3.883662 -0.050326 -0.431043 -0.085905 -0.026404 -0.587695
    58 1.719576 -0.000001 0.000000 0.000000 -0.007974 -0.366436
    59 1.209182 0.000000 0.000000 0.000000 -0.004461 -0.216376
    60 3.859833 -0.148932 -1.331282 -0.354419 0.038567 -0.532001
    61 1.719426 0.000001 0.000001 0.000000 -0.006613 -0.362970
    62 1.099670 0.000001 0.000000 0.000000 -0.004211 -0.244312
    63 0.806019 -0.359830 -1.318334 1.204200 0.673618 -0.793956
    64 1.789783 0.000000 -0.000001 0.000000 -0.006301 0.228555
    65 1.206999 -0.000001 0.000001 0.000000 -0.009618 0.362905
    66 3.859679 -0.132568 1.193108 0.479140 -0.158545 -0.879041
    67 1.312562 0.000000 -0.000001 0.000000 -0.011932 -0.439672
    68 0.729367 -0.000002 0.000002 0.000000 -0.006134 -0.244271
    69 5.740849 0.000000 0.000005 0.000081 0.000000 0.000000
    70 11.481698 0.000000 0.000003 0.000150 0.000000 0.000000
    71 1.500002 0.000000 0.000007 0.000000 0.000000 0.000000
    72 5.560002 0.000000 0.000007 0.000000 0.000000 0.000000
    73 11.692552 0.000000 0.000008 0.000000 0.000000 -0.029500
    74 5.166965 -0.000001 0.000000 0.000000 0.000000 0.000000
    75 1.025255 4.831669 -2.578000 0.000000 0.000000 0.000000
    76 1.025255 4.831550 2.578000 0.000000 0.000000 0.000000
    77 2.000001 1.400000 5.000000 0.000000 0.000000 0.000000
    78 2.000002 1.400000 -5.000000 0.000000 0.000000 0.000000
end
triangles
dark_eyeball_r
  3 -1.585100 -4.437902 66.996498 -0.302309 -0.943529 0.135504 0.320200 -0.731600 1 3 1.000000
  3 -0.859400 -4.302402 67.395401 -0.253691 -0.967267 -0.005900 0.883600 -0.531600 1 3 1.000000
  3 -1.786100 -4.471202 67.758598 -0.359095 -0.814489 -0.455694 0.230900 -0.332000 1 3 1.000000
dark_eyeball_l
  3 1.255500 -4.564802 67.094704 0.468007 -0.873613 0.133302 0.425700 -0.739800 1 3 1.000000
  3 1.527000 -4.952902 68.108597 0.428497 -0.896993 -0.108599 0.773100 -0.345100 1 3 1.000000
  3 0.861200 -4.302702 67.404099 0.119496 -0.989468 0.081697 0.210700 -0.660500 1 3 1.000000
dark_eyeball_l
  3 1.255500 -4.564802 67.094704 0.468007 -0.873613 0.133302 0.425700 -0.739800 1 3 1.000000
  3 2.485000 -3.577202 67.223602 0.873598 -0.483599 -0.054400 0.884300 -0.548500 1 3 1.000000
  3 1.527000 -4.952902 68.108597 0.428497 -0.896993 -0.108599 0.773100 -0.345100 1 3 1.000000
van_facemap
  3 1.011700 3.048299 65.578903 0.331088 0.824170 -0.459483 0.959300 0.416900 1 3 1.000000
  3 0.009000 2.574898 64.897400 -0.026300 0.833696 -0.551597 0.999300 0.361900 1 3 1.000000
  3 0.069400 3.493598 65.935402 -0.061499 0.927791 -0.367996 0.997100 0.444900 1 3 1.000000
van_facemap
  3 1.011700 3.048299 65.578903 0.331088 0.824170 -0.459483 0.959300 0.416900 1 3 1.000000
  3 1.658200 2.329699 65.222397 0.348983 0.649268 -0.675767 0.929600 0.388900 1 3 1.000000
  3 0.009000 2.574898 64.897400 -0.026300 0.833696 -0.551597 0.999300 0.361900 1 3 1.000000
van_facemap
  3 1.658200 2.329699 65.222397 0.348983 0.649268 -0.675767 0.929600 0.388900 1 3 1.000000
  3 0.009000 2.574898 64.897400 -0.026300 0.833696 -0.551597 0.999300 0.361900 1 3 1.000000
  3 1.011700 3.048299 65.578903 0.348983 0.649268 -0.675767 0.959300 0.416900 1 3 1.000000
van_facemap
  3 -1.242400 -5.087003 64.506699 -0.673588 -0.671188 -0.309494 0.451500 0.351800 1 3 1.000000
  3 0.120200 -5.699603 63.119801 0.125194 -0.991852 -0.023599 0.504400 0.240600 1 3 1.000000
  3 -0.368700 -5.994302 64.133904 -0.301705 -0.865013 -0.400906 0.488100 0.320200 1 3 1.000000
van_facemap
  3 -1.242400 -5.087003 64.506699 -0.673588 -0.671188 -0.309494 0.451500 0.351800 1 3 1.000000
  3 -0.810900 -4.914703 62.573601 -0.733459 -0.383279 -0.561369 0.467000 0.193900 1 3 1.000000
  3 0.120200 -5.699603 63.119801 0.125194 -0.991852 -0.023599 0.504400 0.240600 1 3 1.000000
van_facemap
  3 0.101800 -5.425203 62.501801 0.074796 -0.646470 -0.759264 0.504000 0.189500 1 3 1.000000
  3 0.120200 -5.699603 63.119801 0.125194 -0.991852 -0.023599 0.504400 0.240600 1 3 1.000000
  3 -0.810900 -4.914703 62.573601 -0.733459 -0.383279 -0.561369 0.467000 0.193900 1 3 1.000000
van_facemap
  3 -0.274300 -3.478603 62.359600 -0.190699 -0.316298 -0.929295 0.482300 0.172400 1 3 1.000000
  3 0.101800 -5.425203 62.501801 0.074796 -0.646470 -0.759264 0.504000 0.189500 1 3 1.000000
  3 -0.810900 -4.914703 62.573601 -0.733459 -0.383279 -0.561369 0.467000 0.193900 1 3 1.000000
van_facemap
  3 -0.274300 -3.478603 62.359600 -0.190699 -0.316298 -0.929295 0.482300 0.172400 1 3 1.000000
  3 1.709500 -2.177001 62.481800 0.780615 -0.512110 -0.358307 0.660100 0.178600 1 3 1.000000
  3 0.101800 -5.425203 62.501801 0.074796 -0.646470 -0.759264 0.504000 0.189500 1 3 1.000000
van_facemap
  3 1.006000 -1.887500 60.075100 0.572409 -0.810213 -0.126102 0.637100 0.005700 1 3 1.000000
  3 1.709500 -2.177001 62.481800 0.780615 -0.512110 -0.358307 0.660100 0.178600 1 3 1.000000
  3 -0.274300 -3.478603 62.359600 -0.190699 -0.316298 -0.929295 0.482300 0.172400 1 3 1.000000
van_facemap
  3 1.709500 -2.177001 62.481800 0.780615 -0.512110 -0.358307 0.660100 0.178600 1 3 1.000000
  3 1.006000 -1.887500 60.075100 0.572409 -0.810213 -0.126102 0.637100 0.005700 1 3 1.000000
  3 2.269900 -1.406902 63.748795 0.974096 0.032400 -0.223799 0.730800 0.279600 1 3 1.000000
van_facemap
  3 2.269900 -1.406902 63.748795 0.974096 0.032400 -0.223799 0.730800 0.279600 1 3 1.000000
  3 1.006000 -1.887500 60.075100 0.572409 -0.810213 -0.126102 0.637100 0.005700 1 3 1.000000
  3 2.427500 0.141700 61.393398 0.992298 0.051200 0.112800 0.823900 0.083400 1 3 1.000000
van_facemap
  3 2.427500 0.141700 61.393398 0.992298 0.051200 0.112800 0.823900 0.083400 1 3 1.000000
  3 1.639300 1.907400 62.220200 0.704290 0.486193 0.517293 0.922900 0.128600 1 3 1.000000
  3 2.269900 -1.406902 63.748795 0.974096 0.032400 -0.223799 0.730800 0.279600 1 3 1.000000
van_facemap
  3 2.269900 -1.406902 63.748795 0.974096 0.032400 -0.223799 0.730800 0.279600 1 3 1.000000
  3 1.639300 1.907400 62.220200 0.704290 0.486193 0.517293 0.922900 0.128600 1 3 1.000000
  3 1.236100 1.991100 63.831001 0.508515 0.841424 -0.182805 0.939800 0.276600 1 3 1.000000
van_facemap
  3 1.639300 1.907400 62.220200 0.704290 0.486193 0.517293 0.922900 0.128600 1 3 1.000000
  3 0.001900 2.732300 62.206104 -0.005100 0.974343 0.225010 0.999500 0.142200 1 3 1.000000
  3 1.236100 1.991100 63.831001 0.508515 0.841424 -0.182805 0.939800 0.276600 1 3 1.000000
van_facemap
  3 1.236100 1.991100 63.831001 0.508515 0.841424 -0.182805 0.939800 0.276600 1 3 1.000000
  3 0.001900 2.732300 62.206104 -0.005100 0.974343 0.225010 0.999500 0.142200 1 3 1.000000
  3 0.009000 2.574898 64.897400 -0.026300 0.833696 -0.551597 0.999300 0.361900 1 3 1.000000
van_facemap
  3 1.798100 2.145499 64.769897 0.633661 0.694657 -0.340479 0.920700 0.352600 1 3 1.000000
  3 1.236100 1.991100 63.831001 0.508515 0.841424 -0.182805 0.939800 0.276600 1 3 1.000000
  3 0.009000 2.574898 64.897400 -0.026300 0.833696 -0.551597 0.999300 0.361900 1 3 1.000000
van_facemap
  3 1.658200 2.329699 65.222397 0.570316 0.725820 -0.384611 0.929600 0.388900 1 3 1.000000
  3 1.798100 2.145499 64.769897 0.633661 0.694657 -0.340479 0.920700 0.352600 1 3 1.000000
  3 0.009000 2.574898 64.897400 -0.026300 0.833696 -0.551597 0.999300 0.361900 1 3 1.000000
van_facemap
  3 1.658200 2.329699 65.222397 0.570316 0.725820 -0.384611 0.929600 0.388900 1 3 1.000000
  3 2.522400 1.918698 65.741798 0.845615 0.441308 -0.300305 0.896600 0.432400 1 3 1.000000
  3 1.798100 2.145499 64.769897 0.633661 0.694657 -0.340479 0.920700 0.352600 1 3 1.000000
van_facemap
  3 1.011700 3.048299 65.578903 0.331088 0.824170 -0.459483 0.959300 0.416900 1 3 1.000000
  3 2.522400 1.918698 65.741798 0.845615 0.441308 -0.300305 0.896600 0.432400 1 3 1.000000
  3 1.658200 2.329699 65.222397 0.570316 0.725820 -0.384611 0.929600 0.388900 1 3 1.000000
van_facemap
  3 2.522400 1.918698 65.741798 0.845615 0.441308 -0.300305 0.896600 0.432400 1 3 1.000000
  3 1.011700 3.048299 65.578903 0.331088 0.824170 -0.459483 0.959300 0.416900 1 3 1.000000
  3 1.036000 3.589499 68.938499 0.300495 0.939085 0.166797 0.966600 0.687900 1 3 1.000000
van_facemap
  3 1.036000 3.589499 68.938499 0.300495 0.939085 0.166797 0.966600 0.687900 1 3 1.000000
  3 1.011700 3.048299 65.578903 0.331088 0.824170 -0.459483 0.959300 0.416900 1 3 1.000000
  3 0.069400 3.493598 65.935402 -0.061499 0.927791 -0.367996 0.997100 0.444900 1 3 1.000000
van_facemap
  3 3.545900 0.125798 67.597504 0.669782 0.055499 0.740480 0.812000 0.584100 1 3 1.000000
  3 2.728200 0.448798 66.229401 0.534315 0.819923 -0.205506 0.841500 0.476300 1 3 1.000000
  3 2.522400 1.918698 65.741798 0.845615 0.441308 -0.300305 0.896600 0.432400 1 3 1.000000
van_facemap
  3 2.522400 1.918698 65.741798 0.845615 0.441308 -0.300305 0.896600 0.432400 1 3 1.000000
  3 2.728200 0.448798 66.229401 0.534315 0.819923 -0.205506 0.841500 0.476300 1 3 1.000000
  3 1.798100 2.145499 64.769897 0.633661 0.694657 -0.340479 0.920700 0.352600 1 3 1.000000
van_facemap
  3 1.236100 1.991100 63.831001 0.508515 0.841424 -0.182805 0.939800 0.276600 1 3 1.000000
  3 1.798100 2.145499 64.769897 0.633661 0.694657 -0.340479 0.920700 0.352600 1 3 1.000000
  3 2.728200 0.448798 66.229401 0.534315 0.819923 -0.205506 0.841500 0.476300 1 3 1.000000
van_facemap
  3 2.728200 0.448798 66.229401 0.534315 0.819923 -0.205506 0.841500 0.476300 1 3 1.000000
  3 2.269900 -1.406902 63.748795 0.974096 0.032400 -0.223799 0.730800 0.279600 1 3 1.000000
  3 1.236100 1.991100 63.831001 0.508515 0.841424 -0.182805 0.939800 0.276600 1 3 1.000000
van_facemap
  3 2.441700 -3.635702 64.554802 0.920386 -0.351395 -0.171497 0.623200 0.351500 1 3 1.000000
  3 2.269900 -1.406902 63.748795 0.974096 0.032400 -0.223799 0.730800 0.279600 1 3 1.000000
  3 2.628500 -1.078302 64.875504 0.930387 -0.251396 -0.266796 0.756200 0.370400 1 3 1.000000
van_facemap
  3 2.728200 0.448798 66.229401 0.534315 0.819923 -0.205506 0.841500 0.476300 1 3 1.000000
  3 2.628500 -1.078302 64.875504 0.930387 -0.251396 -0.266796 0.756200 0.370400 1 3 1.000000
  3 2.269900 -1.406902 63.748795 0.974096 0.032400 -0.223799 0.730800 0.279600 1 3 1.000000
van_facemap
  3 2.728200 0.448798 66.229401 0.534315 0.819923 -0.205506 0.841500 0.476300 1 3 1.000000
  3 3.143200 0.820998 65.985199 -0.094597 0.972573 -0.212494 0.845200 0.455300 1 3 1.000000
  3 2.628500 -1.078302 64.875504 0.930387 -0.251396 -0.266796 0.756200 0.370400 1 3 1.000000
van_facemap
  3 2.728200 0.448798 66.229401 0.534315 0.819923 -0.205506 0.841500 0.476300 1 3 1.000000
  3 3.545900 0.125798 67.597504 0.669782 0.055499 0.740480 0.812000 0.584100 1 3 1.000000
  3 3.143200 0.820998 65.985199 -0.094597 0.972573 -0.212494 0.845200 0.455300 1 3 1.000000
van_facemap
  3 3.545900 0.125798 67.597504 0.669782 0.055499 0.740480 0.812000 0.584100 1 3 1.000000
  3 2.779600 -0.412402 65.861603 0.899993 0.435297 -0.023000 0.796800 0.448800 1 3 1.000000
  3 3.143200 0.820998 65.985199 -0.094597 0.972573 -0.212494 0.845200 0.455300 1 3 1.000000
van_facemap
  3 2.779600 -0.412402 65.861603 0.899993 0.435297 -0.023000 0.796800 0.448800 1 3 1.000000
  3 3.545900 0.125798 67.597504 0.669782 0.055499 0.740480 0.812000 0.584100 1 3 1.000000
  3 2.628500 -1.078302 64.875504 0.930387 -0.251396 -0.266796 0.756200 0.370400 1 3 1.000000
van_facemap
  3 2.779600 -0.412402 65.861603 0.899993 0.435297 -0.023000 0.796800 0.448800 1 3 1.000000
  3 2.628500 -1.078302 64.875504 0.930387 -0.251396 -0.266796 0.756200 0.370400 1 3 1.000000
  3 3.143200 0.820998 65.985199 -0.094597 0.972573 -0.212494 0.845200 0.455300 1 3 1.000000
van_facemap
  3 2.441700 -3.635702 64.554802 0.920386 -0.351395 -0.171497 0.623200 0.351500 1 3 1.000000
  3 2.628500 -1.078302 64.875504 0.930387 -0.251396 -0.266796 0.756200 0.370400 1 3 1.000000
  3 3.545900 0.125798 67.597504 0.669782 0.055499 0.740480 0.812000 0.584100 1 3 1.000000
van_facemap
  3 1.075200 -4.997602 65.857697 0.405605 -0.905112 0.127502 0.544300 0.461500 1 3 1.000000
  3 1.244200 -5.086402 64.505898 0.494919 -0.633624 -0.594622 0.549200 0.351700 1 3 1.000000
  3 2.441700 -3.635702 64.554802 0.920386 -0.351395 -0.171497 0.623200 0.351500 1 3 1.000000
van_facemap
  3 1.947600 2.384499 70.617798 0.444619 0.708431 0.548124 0.923600 0.828000 1 3 1.000000
  3 1.318100 1.768599 71.553398 0.329909 0.579616 0.745121 0.937100 0.905900 1 3 1.000000
  3 2.753600 0.763498 71.214897 0.751281 0.208495 0.626184 0.855600 0.881200 1 3 1.000000
van_facemap
  3 1.947600 2.384499 70.617798 0.444619 0.708431 0.548124 0.923600 0.828000 1 3 1.000000
  3 1.036000 3.589499 68.938499 0.300495 0.939085 0.166797 0.966600 0.687900 1 3 1.000000
  3 1.318100 1.768599 71.553398 0.329909 0.579616 0.745121 0.937100 0.905900 1 3 1.000000
van_facemap
  3 2.522400 1.918698 65.741798 0.845615 0.441308 -0.300305 0.896600 0.432400 1 3 1.000000
  3 1.036000 3.589499 68.938499 0.300495 0.939085 0.166797 0.966600 0.687900 1 3 1.000000
  3 1.947600 2.384499 70.617798 0.444619 0.708431 0.548124 0.923600 0.828000 1 3 1.000000
van_facemap
  3 2.522400 1.918698 65.741798 0.845615 0.441308 -0.300305 0.896600 0.432400 1 3 1.000000
  3 1.947600 2.384499 70.617798 0.444619 0.708431 0.548124 0.923600 0.828000 1 3 1.000000
  3 3.379400 0.268398 69.354500 0.999668 -0.022199 0.013100 0.821100 0.731200 1 3 1.000000
van_facemap
  3 3.545900 0.125798 67.597504 0.669782 0.055499 0.740480 0.812000 0.584100 1 3 1.000000
  3 2.522400 1.918698 65.741798 0.845615 0.441308 -0.300305 0.896600 0.432400 1 3 1.000000
  3 3.379400 0.268398 69.354500 0.999668 -0.022199 0.013100 0.821100 0.731200 1 3 1.000000
van_facemap
  3 3.545900 0.125798 67.597504 0.669782 0.055499 0.740480 0.812000 0.584100 1 3 1.000000
  3 3.379400 0.268398 69.354500 0.999668 -0.022199 0.013100 0.821100 0.731200 1 3 1.000000
  3 2.485000 -3.577202 67.223602 0.898473 -0.427087 0.101697 0.641000 0.567500 1 3 1.000000
van_facemap
  3 3.545900 0.125798 67.597504 0.669782 0.055499 0.740480 0.812000 0.584100 1 3 1.000000
  3 2.485000 -3.577202 67.223602 0.898473 -0.427087 0.101697 0.641000 0.567500 1 3 1.000000
  3 2.441700 -3.635702 64.554802 0.920386 -0.351395 -0.171497 0.623200 0.351500 1 3 1.000000
van_facemap
  3 2.441700 -3.635702 64.554802 0.920386 -0.351395 -0.171497 0.623200 0.351500 1 3 1.000000
  3 2.485000 -3.577202 67.223602 0.898473 -0.427087 0.101697 0.641000 0.567500 1 3 1.000000
  3 1.255500 -4.564802 67.094704 0.148205 -0.971230 0.186406 0.558400 0.560900 1 3 1.000000
van_facemap
  3 1.075200 -4.997602 65.857697 0.405605 -0.905112 0.127502 0.544300 0.461500 1 3 1.000000
  3 2.441700 -3.635702 64.554802 0.920386 -0.351395 -0.171497 0.623200 0.351500 1 3 1.000000
  3 1.255500 -4.564802 67.094704 0.148205 -0.971230 0.186406 0.558400 0.560900 1 3 1.000000
van_facemap
  3 1.255500 -4.564802 67.094704 0.148205 -0.971230 0.186406 0.558400 0.560900 1 3 1.000000
  3 0.075800 -6.310503 66.451401 -0.019001 -0.931434 0.363413 0.502600 0.513600 1 3 1.000000
  3 1.075200 -4.997602 65.857697 0.405605 -0.905112 0.127502 0.544300 0.461500 1 3 1.000000
van_facemap
  3 0.203100 -5.660803 65.576202 0.324209 -0.923527 0.204906 0.507500 0.440500 1 3 1.000000
  3 1.075200 -4.997602 65.857697 0.405605 -0.905112 0.127502 0.544300 0.461500 1 3 1.000000
  3 0.075800 -6.310503 66.451401 -0.019001 -0.931434 0.363413 0.502600 0.513600 1 3 1.000000
van_facemap
  3 0.746300 -5.881002 64.720200 0.535682 -0.752775 -0.382587 0.525100 0.374500 1 3 1.000000
  3 1.075200 -4.997602 65.857697 0.405605 -0.905112 0.127502 0.544300 0.461500 1 3 1.000000
  3 0.203100 -5.660803 65.576202 0.324209 -0.923527 0.204906 0.507500 0.440500 1 3 1.000000
van_facemap
  3 1.075200 -4.997602 65.857697 0.405605 -0.905112 0.127502 0.544300 0.461500 1 3 1.000000
  3 0.746300 -5.881002 64.720200 0.535682 -0.752775 -0.382587 0.525100 0.374500 1 3 1.000000
  3 1.244200 -5.086402 64.505898 0.494919 -0.633624 -0.594622 0.549200 0.351700 1 3 1.000000
van_facemap
  3 1.244200 -5.086402 64.505898 0.494919 -0.633624 -0.594622 0.549200 0.351700 1 3 1.000000
  3 0.746300 -5.881002 64.720200 0.535682 -0.752775 -0.382587 0.525100 0.374500 1 3 1.000000
  3 0.497200 -5.963702 64.145897 0.411079 -0.841157 -0.351382 0.516600 0.321100 1 3 1.000000
van_facemap
  3 1.244200 -5.086402 64.505898 0.494919 -0.633624 -0.594622 0.549200 0.351700 1 3 1.000000
  3 0.497200 -5.963702 64.145897 0.411079 -0.841157 -0.351382 0.516600 0.321100 1 3 1.000000
  3 2.441700 -3.635702 64.554802 0.920386 -0.351395 -0.171497 0.623200 0.351500 1 3 1.000000
van_facemap
  3 0.101800 -5.425203 62.501801 0.074796 -0.646470 -0.759264 0.504000 0.189500 1 3 1.000000
  3 2.441700 -3.635702 64.554802 0.920386 -0.351395 -0.171497 0.623200 0.351500 1 3 1.000000
  3 0.497200 -5.963702 64.145897 0.411079 -0.841157 -0.351382 0.516600 0.321100 1 3 1.000000
van_facemap
  3 1.709500 -2.177001 62.481800 0.780615 -0.512110 -0.358307 0.660100 0.178600 1 3 1.000000
  3 2.441700 -3.635702 64.554802 0.920386 -0.351395 -0.171497 0.623200 0.351500 1 3 1.000000
  3 0.101800 -5.425203 62.501801 0.074796 -0.646470 -0.759264 0.504000 0.189500 1 3 1.000000
van_facemap
  3 2.269900 -1.406902 63.748795 0.974096 0.032400 -0.223799 0.730800 0.279600 1 3 1.000000
  3 2.441700 -3.635702 64.554802 0.920386 -0.351395 -0.171497 0.623200 0.351500 1 3 1.000000
  3 1.709500 -2.177001 62.481800 0.780615 -0.512110 -0.358307 0.660100 0.178600 1 3 1.000000
van_facemap
  3 0.075800 -6.310503 66.451401 -0.019001 -0.931434 0.363413 0.502600 0.513600 1 3 1.000000
  3 1.255500 -4.564802 67.094704 0.148205 -0.971230 0.186406 0.558400 0.560900 1 3 1.000000
  3 0.861200 -4.302702 67.404099 0.223395 -0.974578 -0.017100 0.544300 0.585400 1 3 1.000000
van_facemap
  3 3.379400 0.268398 69.354500 0.999668 -0.022199 0.013100 0.821100 0.731200 1 3 1.000000
  3 1.947600 2.384499 70.617798 0.444619 0.708431 0.548124 0.923600 0.828000 1 3 1.000000
  3 2.753600 0.763498 71.214897 0.751281 0.208495 0.626184 0.855600 0.881200 1 3 1.000000
van_facemap
  3 3.379400 0.268398 69.354500 0.999668 -0.022199 0.013100 0.821100 0.731200 1 3 1.000000
  3 2.753600 0.763498 71.214897 0.751281 0.208495 0.626184 0.855600 0.881200 1 3 1.000000
  3 2.781100 -2.416902 69.971001 0.914290 -0.374396 0.154598 0.690300 0.789000 1 3 1.000000
van_facemap
  3 2.781100 -2.416902 69.971001 0.914290 -0.374396 0.154598 0.690300 0.789000 1 3 1.000000
  3 2.485000 -3.577202 67.223602 0.898473 -0.427087 0.101697 0.641000 0.567500 1 3 1.000000
  3 3.379400 0.268398 69.354500 0.999668 -0.022199 0.013100 0.821100 0.731200 1 3 1.000000
van_facemap
  3 2.485000 -3.577202 67.223602 0.898473 -0.427087 0.101697 0.641000 0.567500 1 3 1.000000
  3 2.781100 -2.416902 69.971001 0.914290 -0.374396 0.154598 0.690300 0.789000 1 3 1.000000
  3 2.091500 -4.541102 68.063103 0.739316 -0.638614 -0.213505 0.592300 0.639100 1 3 1.000000
van_facemap
  3 1.527000 -4.952902 68.108597 0.495915 -0.797324 -0.344010 0.565100 0.644300 1 3 1.000000
  3 2.091500 -4.541102 68.063103 0.739316 -0.638614 -0.213505 0.592300 0.639100 1 3 1.000000
  3 2.781100 -2.416902 69.971001 0.914290 -0.374396 0.154598 0.690300 0.789000 1 3 1.000000
van_facemap
  3 2.091500 -4.541102 68.063103 0.739316 -0.638614 -0.213505 0.592300 0.639100 1 3 1.000000
  3 1.527000 -4.952902 68.108597 0.495915 -0.797324 -0.344010 0.565100 0.644300 1 3 1.000000
  3 2.485000 -3.577202 67.223602 0.898473 -0.427087 0.101697 0.641000 0.567500 1 3 1.000000
van_facemap
  3 1.036000 3.589499 68.938499 0.300495 0.939085 0.166797 0.966600 0.687900 1 3 1.000000
  3 0.069400 3.493598 65.935402 -0.061499 0.927791 -0.367996 0.997100 0.444900 1 3 1.000000
  3 -1.033800 3.495999 69.186996 -0.219199 0.948498 0.228699 0.999500 0.682400 1 3 1.000000
van_facemap
  3 1.318100 1.768599 71.553398 0.329909 0.579616 0.745121 0.937100 0.905900 1 3 1.000000
  3 1.036000 3.589499 68.938499 0.300495 0.939085 0.166797 0.966600 0.687900 1 3 1.000000
  3 -1.033800 3.495999 69.186996 -0.219199 0.948498 0.228699 0.999500 0.682400 1 3 1.000000
van_facemap
  3 1.318100 1.768599 71.553398 0.329909 0.579616 0.745121 0.937100 0.905900 1 3 1.000000
  3 -1.033800 3.495999 69.186996 -0.219199 0.948498 0.228699 0.999500 0.682400 1 3 1.000000
  3 0.005600 1.652098 71.964302 -0.035502 0.397421 0.916949 0.999300 0.939700 1 3 1.000000
van_facemap
  3 0.012500 -1.751002 72.267601 -0.014601 0.017001 0.999749 0.509800 0.974100 1 3 1.000000
  3 1.318100 1.768599 71.553398 0.329909 0.579616 0.745121 0.937100 0.905900 1 3 1.000000
  3 0.005600 1.652098 71.964302 -0.035502 0.397421 0.916949 0.999300 0.939700 1 3 1.000000
van_facemap
  3 1.318100 1.768599 71.553398 0.329909 0.579616 0.745121 0.937100 0.905900 1 3 1.000000
  3 0.012500 -1.751002 72.267601 -0.014601 0.017001 0.999749 0.509800 0.974100 1 3 1.000000
  3 2.753600 0.763498 71.214897 0.751281 0.208495 0.626184 0.855600 0.881200 1 3 1.000000
van_facemap
  3 1.234000 -3.799602 71.446999 0.472317 -0.681724 0.558720 0.579800 0.912700 1 3 1.000000
  3 2.753600 0.763498 71.214897 0.751281 0.208495 0.626184 0.855600 0.881200 1 3 1.000000
  3 0.012500 -1.751002 72.267601 -0.014601 0.017001 0.999749 0.509800 0.974100 1 3 1.000000
van_facemap
  3 2.781100 -2.416902 69.971001 0.914290 -0.374396 0.154598 0.690300 0.789000 1 3 1.000000
  3 2.753600 0.763498 71.214897 0.751281 0.208495 0.626184 0.855600 0.881200 1 3 1.000000
  3 1.234000 -3.799602 71.446999 0.472317 -0.681724 0.558720 0.579800 0.912700 1 3 1.000000
van_facemap
  3 1.234000 -3.799602 71.446999 0.472317 -0.681724 0.558720 0.579800 0.912700 1 3 1.000000
  3 0.178000 -4.257902 71.421600 0.094399 -0.818088 0.567292 0.511000 0.911900 1 3 1.000000
  3 2.781100 -2.416902 69.971001 0.914290 -0.374396 0.154598 0.690300 0.789000 1 3 1.000000
van_facemap
  3 1.527000 -4.952902 68.108597 0.495915 -0.797324 -0.344010 0.565100 0.644300 1 3 1.000000
  3 2.781100 -2.416902 69.971001 0.914290 -0.374396 0.154598 0.690300 0.789000 1 3 1.000000
  3 0.178000 -4.257902 71.421600 0.094399 -0.818088 0.567292 0.511000 0.911900 1 3 1.000000
van_facemap
  3 0.604600 -5.274003 68.328102 0.133998 -0.980287 -0.145198 0.528500 0.663500 1 3 1.000000
  3 1.527000 -4.952902 68.108597 0.495915 -0.797324 -0.344010 0.565100 0.644300 1 3 1.000000
  3 0.178000 -4.257902 71.421600 0.094399 -0.818088 0.567292 0.511000 0.911900 1 3 1.000000
van_facemap
  3 1.527000 -4.952902 68.108597 0.495915 -0.797324 -0.344010 0.565100 0.644300 1 3 1.000000
  3 0.604600 -5.274003 68.328102 0.133998 -0.980287 -0.145198 0.528500 0.663500 1 3 1.000000
  3 0.861200 -4.302702 67.404099 0.223395 -0.974578 -0.017100 0.544300 0.585400 1 3 1.000000
van_facemap
  3 0.861200 -4.302702 67.404099 0.223395 -0.974578 -0.017100 0.544300 0.585400 1 3 1.000000
  3 0.604600 -5.274003 68.328102 0.133998 -0.980287 -0.145198 0.528500 0.663500 1 3 1.000000
  3 -0.207900 -5.074802 67.665001 -0.534090 -0.832585 0.146797 0.491600 0.608800 1 3 1.000000
van_facemap
  3 0.075800 -6.310503 66.451401 -0.019001 -0.931434 0.363413 0.502600 0.513600 1 3 1.000000
  3 0.861200 -4.302702 67.404099 0.223395 -0.974578 -0.017100 0.544300 0.585400 1 3 1.000000
  3 -0.207900 -5.074802 67.665001 -0.534090 -0.832585 0.146797 0.491600 0.608800 1 3 1.000000
van_facemap
  3 -0.855100 -5.095702 65.771301 -0.582914 -0.801920 0.130903 0.465800 0.454700 1 3 1.000000
  3 0.075800 -6.310503 66.451401 -0.019001 -0.931434 0.363413 0.502600 0.513600 1 3 1.000000
  3 -0.207900 -5.074802 67.665001 -0.534090 -0.832585 0.146797 0.491600 0.608800 1 3 1.000000
van_facemap
  3 0.203100 -5.660803 65.576202 0.324209 -0.923527 0.204906 0.507500 0.440500 1 3 1.000000
  3 0.075800 -6.310503 66.451401 -0.019001 -0.931434 0.363413 0.502600 0.513600 1 3 1.000000
  3 -0.855100 -5.095702 65.771301 -0.582914 -0.801920 0.130903 0.465800 0.454700 1 3 1.000000
van_facemap
  3 0.203100 -5.660803 65.576202 0.324209 -0.923527 0.204906 0.507500 0.440500 1 3 1.000000
  3 -0.855100 -5.095702 65.771301 -0.582914 -0.801920 0.130903 0.465800 0.454700 1 3 1.000000
  3 -0.494100 -6.009502 65.026901 -0.397916 -0.827834 0.395416 0.484100 0.398300 1 3 1.000000
van_facemap
  3 0.746300 -5.881002 64.720200 0.535682 -0.752775 -0.382587 0.525100 0.374500 1 3 1.000000
  3 0.203100 -5.660803 65.576202 0.324209 -0.923527 0.204906 0.507500 0.440500 1 3 1.000000
  3 -0.494100 -6.009502 65.026901 -0.397916 -0.827834 0.395416 0.484100 0.398300 1 3 1.000000
van_facemap
  3 -0.039200 -6.131202 64.730400 -0.097501 -0.920614 -0.378106 0.498900 0.372600 1 3 1.000000
  3 0.746300 -5.881002 64.720200 0.535682 -0.752775 -0.382587 0.525100 0.374500 1 3 1.000000
  3 -0.494100 -6.009502 65.026901 -0.397916 -0.827834 0.395416 0.484100 0.398300 1 3 1.000000
van_facemap
  3 0.178000 -4.257902 71.421600 0.094399 -0.818088 0.567292 0.511000 0.911900 1 3 1.000000
  3 1.234000 -3.799602 71.446999 0.472317 -0.681724 0.558720 0.579800 0.912700 1 3 1.000000
  3 0.012500 -1.751002 72.267601 -0.014601 0.017001 0.999749 0.509800 0.974100 1 3 1.000000
van_facemap
  3 -1.786100 -4.471202 67.758598 -0.567609 -0.723712 -0.392506 0.419100 0.614700 1 3 1.000000
  3 -0.207900 -5.074802 67.665001 -0.534090 -0.832585 0.146797 0.491600 0.608800 1 3 1.000000
  3 0.604600 -5.274003 68.328102 0.133998 -0.980287 -0.145198 0.528500 0.663500 1 3 1.000000
van_facemap
  3 -0.207900 -5.074802 67.665001 -0.534090 -0.832585 0.146797 0.491600 0.608800 1 3 1.000000
  3 -1.786100 -4.471202 67.758598 -0.567609 -0.723712 -0.392506 0.419100 0.614700 1 3 1.000000
  3 -0.859400 -4.302402 67.395401 -0.253691 -0.967267 -0.005900 0.456500 0.584700 1 3 1.000000
van_facemap
  3 -0.855100 -5.095702 65.771301 -0.582914 -0.801920 0.130903 0.465800 0.454700 1 3 1.000000
  3 -0.207900 -5.074802 67.665001 -0.534090 -0.832585 0.146797 0.491600 0.608800 1 3 1.000000
  3 -0.859400 -4.302402 67.395401 -0.253691 -0.967267 -0.005900 0.456500 0.584700 1 3 1.000000
van_facemap
  3 -1.585100 -4.437902 66.996498 -0.440280 -0.896259 0.053598 0.426800 0.552600 1 3 1.000000
  3 -0.855100 -5.095702 65.771301 -0.582914 -0.801920 0.130903 0.465800 0.454700 1 3 1.000000
  3 -0.859400 -4.302402 67.395401 -0.253691 -0.967267 -0.005900 0.456500 0.584700 1 3 1.000000
van_facemap
  3 -1.016300 -5.185403 64.502998 0.890167 0.386686 0.240991 0.460900 0.351700 1 3 1.000000
  3 -0.039200 -6.131202 64.730400 -0.097501 -0.920614 -0.378106 0.498900 0.372600 1 3 1.000000
  3 -0.494100 -6.009502 65.026901 -0.397916 -0.827834 0.395416 0.484100 0.398300 1 3 1.000000
van_facemap
  3 -0.039200 -6.131202 64.730400 -0.097501 -0.920614 -0.378106 0.498900 0.372600 1 3 1.000000
  3 -1.016300 -5.185403 64.502998 0.890167 0.386686 0.240991 0.460900 0.351700 1 3 1.000000
  3 -1.242400 -5.087003 64.506699 -0.673588 -0.671188 -0.309494 0.451500 0.351800 1 3 1.000000
van_facemap
  3 -1.016300 -5.185403 64.502998 0.890167 0.386686 0.240991 0.460900 0.351700 1 3 1.000000
  3 -0.494100 -6.009502 65.026901 -0.397916 -0.827834 0.395416 0.484100 0.398300 1 3 1.000000
  3 -1.242400 -5.087003 64.506699 -0.673588 -0.671188 -0.309494 0.451500 0.351800 1 3 1.000000
van_facemap
  3 -0.855100 -5.095702 65.771301 -0.582914 -0.801920 0.130903 0.465800 0.454700 1 3 1.000000
  3 -1.242400 -5.087003 64.506699 -0.673588 -0.671188 -0.309494 0.451500 0.351800 1 3 1.000000
  3 -0.494100 -6.009502 65.026901 -0.397916 -0.827834 0.395416 0.484100 0.398300 1 3 1.000000
van_facemap
  3 -0.855100 -5.095702 65.771301 -0.582914 -0.801920 0.130903 0.465800 0.454700 1 3 1.000000
  3 -2.371400 -3.978302 66.741203 -0.754002 -0.591002 0.286701 0.377700 0.529700 1 3 1.000000
  3 -1.242400 -5.087003 64.506699 -0.673588 -0.671188 -0.309494 0.451500 0.351800 1 3 1.000000
van_facemap
  3 -2.371400 -3.978302 66.741203 -0.754002 -0.591002 0.286701 0.377700 0.529700 1 3 1.000000
  3 -0.855100 -5.095702 65.771301 -0.582914 -0.801920 0.130903 0.465800 0.454700 1 3 1.000000
  3 -1.585100 -4.437902 66.996498 -0.440280 -0.896259 0.053598 0.426800 0.552600 1 3 1.000000
van_facemap
  3 -2.371400 -3.978302 66.741203 -0.754002 -0.591002 0.286701 0.377700 0.529700 1 3 1.000000
  3 -1.585100 -4.437902 66.996498 -0.440280 -0.896259 0.053598 0.426800 0.552600 1 3 1.000000
  3 -2.458300 -3.916302 67.699303 -0.796748 -0.562063 -0.221985 0.377800 0.607500 1 3 1.000000
van_facemap
  3 -1.786100 -4.471202 67.758598 -0.567609 -0.723712 -0.392506 0.419100 0.614700 1 3 1.000000
  3 -2.458300 -3.916302 67.699303 -0.796748 -0.562063 -0.221985 0.377800 0.607500 1 3 1.000000
  3 -1.585100 -4.437902 66.996498 -0.440280 -0.896259 0.053598 0.426800 0.552600 1 3 1.000000
van_facemap
  3 -1.797300 -4.854902 68.192596 -0.582486 -0.795480 -0.167096 0.421200 0.650500 1 3 1.000000
  3 -2.458300 -3.916302 67.699303 -0.796748 -0.562063 -0.221985 0.377800 0.607500 1 3 1.000000
  3 -1.786100 -4.471202 67.758598 -0.567609 -0.723712 -0.392506 0.419100 0.614700 1 3 1.000000
van_facemap
  3 0.604600 -5.274003 68.328102 0.133998 -0.980287 -0.145198 0.528500 0.663500 1 3 1.000000
  3 -1.797300 -4.854902 68.192596 -0.582486 -0.795480 -0.167096 0.421200 0.650500 1 3 1.000000
  3 -1.786100 -4.471202 67.758598 -0.567609 -0.723712 -0.392506 0.419100 0.614700 1 3 1.000000
van_facemap
  3 0.604600 -5.274003 68.328102 0.133998 -0.980287 -0.145198 0.528500 0.663500 1 3 1.000000
  3 -0.709200 -4.337002 70.428902 -0.310899 -0.868398 0.386299 0.462900 0.831800 1 3 1.000000
  3 -1.797300 -4.854902 68.192596 -0.582486 -0.795480 -0.167096 0.421200 0.650500 1 3 1.000000
van_facemap
  3 0.604600 -5.274003 68.328102 0.133998 -0.980287 -0.145198 0.528500 0.663500 1 3 1.000000
  3 0.178000 -4.257902 71.421600 0.094399 -0.818088 0.567292 0.511000 0.911900 1 3 1.000000
  3 -0.709200 -4.337002 70.428902 -0.310899 -0.868398 0.386299 0.462900 0.831800 1 3 1.000000
van_facemap
  3 -0.709200 -4.337002 70.428902 -0.310899 -0.868398 0.386299 0.462900 0.831800 1 3 1.000000
  3 0.178000 -4.257902 71.421600 0.094399 -0.818088 0.567292 0.511000 0.911900 1 3 1.000000
  3 -1.235600 -3.799602 71.446999 -0.585706 -0.692607 0.421004 0.420700 0.912700 1 3 1.000000
van_facemap
  3 0.178000 -4.257902 71.421600 0.094399 -0.818088 0.567292 0.511000 0.911900 1 3 1.000000
  3 0.012500 -1.751002 72.267601 -0.014601 0.017001 0.999749 0.509800 0.974100 1 3 1.000000
  3 -1.235600 -3.799602 71.446999 -0.585706 -0.692607 0.421004 0.420700 0.912700 1 3 1.000000
van_facemap
  3 -1.235600 -3.799602 71.446999 -0.585706 -0.692607 0.421004 0.420700 0.912700 1 3 1.000000
  3 0.012500 -1.751002 72.267601 -0.014601 0.017001 0.999749 0.509800 0.974100 1 3 1.000000
  3 -2.760500 0.763498 71.214897 -0.767614 0.160803 0.620412 0.183400 0.881200 1 3 1.000000
van_facemap
  3 0.012500 -1.751002 72.267601 -0.014601 0.017001 0.999749 0.509800 0.974100 1 3 1.000000
  3 0.005600 1.652098 71.964302 -0.035502 0.397421 0.916949 0.001300 0.939700 1 3 1.000000
  3 -2.760500 0.763498 71.214897 -0.767614 0.160803 0.620412 0.183400 0.881200 1 3 1.000000
van_facemap
  3 0.005600 1.652098 71.964302 -0.035502 0.397421 0.916949 0.001300 0.939700 1 3 1.000000
  3 -1.937600 2.194698 70.894302 -0.419496 0.659094 0.624194 0.102300 0.851800 1 3 1.000000
  3 -2.760500 0.763498 71.214897 -0.767614 0.160803 0.620412 0.183400 0.881200 1 3 1.000000
van_facemap
  3 0.005600 1.652098 71.964302 -0.035502 0.397421 0.916949 0.001300 0.939700 1 3 1.000000
  3 -1.033800 3.495999 69.186996 -0.306800 0.921200 0.239300 0.043600 0.708400 1 3 1.000000
  3 -1.937600 2.194698 70.894302 -0.419496 0.659094 0.624194 0.102300 0.851800 1 3 1.000000
van_facemap
  3 -0.709200 -4.337002 70.428902 -0.310899 -0.868398 0.386299 0.462900 0.831800 1 3 1.000000
  3 -1.235600 -3.799602 71.446999 -0.585706 -0.692607 0.421004 0.420700 0.912700 1 3 1.000000
  3 -1.797300 -4.854902 68.192596 -0.582486 -0.795480 -0.167096 0.421200 0.650500 1 3 1.000000
van_facemap
  3 -2.458300 -3.916302 67.699303 -0.796748 -0.562063 -0.221985 0.377800 0.607500 1 3 1.000000
  3 -1.797300 -4.854902 68.192596 -0.582486 -0.795480 -0.167096 0.421200 0.650500 1 3 1.000000
  3 -1.235600 -3.799602 71.446999 -0.585706 -0.692607 0.421004 0.420700 0.912700 1 3 1.000000
van_facemap
  3 -1.937600 2.194698 70.894302 -0.419496 0.659094 0.624194 0.102300 0.851800 1 3 1.000000
  3 -1.970600 3.043899 69.202499 -0.550465 0.818048 0.166689 0.090800 0.719800 1 3 1.000000
  3 -2.760500 0.763498 71.214897 -0.767614 0.160803 0.620412 0.183400 0.881200 1 3 1.000000
van_facemap
  3 -2.593700 -0.796702 64.715897 -0.960634 0.088303 -0.263409 0.226300 0.356600 1 3 1.000000
  3 -2.101600 -1.089201 63.072102 -0.962230 -0.242508 -0.123704 0.232000 0.223600 1 3 1.000000
  3 -0.810900 -4.914703 62.573601 -0.733459 -0.383279 -0.561369 0.467000 0.193900 1 3 1.000000
van_facemap
  3 -0.810900 -4.914703 62.573601 -0.733459 -0.383279 -0.561369 0.467000 0.193900 1 3 1.000000
  3 -2.371400 -3.978302 66.741203 -0.754002 -0.591002 0.286701 0.377700 0.529700 1 3 1.000000
  3 -2.593700 -0.796702 64.715897 -0.960634 0.088303 -0.263409 0.226300 0.356600 1 3 1.000000
van_facemap
  3 -0.810900 -4.914703 62.573601 -0.733459 -0.383279 -0.561369 0.467000 0.193900 1 3 1.000000
  3 -1.242400 -5.087003 64.506699 -0.673588 -0.671188 -0.309494 0.451500 0.351800 1 3 1.000000
  3 -2.371400 -3.978302 66.741203 -0.754002 -0.591002 0.286701 0.377700 0.529700 1 3 1.000000
van_facemap
  3 -3.526000 0.081598 67.593597 -0.755352 -0.128192 0.642659 0.193500 0.586500 1 3 1.000000
  3 -2.371400 -3.978302 66.741203 -0.754002 -0.591002 0.286701 0.377700 0.529700 1 3 1.000000
  3 -2.458300 -3.916302 67.699303 -0.796748 -0.562063 -0.221985 0.377800 0.607500 1 3 1.000000
van_facemap
  3 -2.593700 -0.796702 64.715897 -0.960634 0.088303 -0.263409 0.226300 0.356600 1 3 1.000000
  3 -2.371400 -3.978302 66.741203 -0.754002 -0.591002 0.286701 0.377700 0.529700 1 3 1.000000
  3 -3.526000 0.081598 67.593597 -0.755352 -0.128192 0.642659 0.193500 0.586500 1 3 1.000000
van_facemap
  3 -3.526000 0.081598 67.593597 -0.755352 -0.128192 0.642659 0.193500 0.586500 1 3 1.000000
  3 -2.597200 -0.216102 65.942001 -0.998604 -0.042900 0.030800 0.188300 0.454800 1 3 1.000000
  3 -2.593700 -0.796702 64.715897 -0.960634 0.088303 -0.263409 0.226300 0.356600 1 3 1.000000
van_facemap
  3 -1.033800 3.495999 69.186996 -0.306800 0.921200 0.239300 0.043600 0.708400 1 3 1.000000
  3 -1.970600 3.043899 69.202499 -0.550465 0.818048 0.166689 0.090800 0.719800 1 3 1.000000
  3 -1.937600 2.194698 70.894302 -0.419496 0.659094 0.624194 0.102300 0.851800 1 3 1.000000
van_facemap
  3 0.069400 3.493598 65.935402 -0.061499 0.927791 -0.367996 0.002700 0.444900 1 3 1.000000
  3 -1.970600 3.043899 69.202499 -0.550465 0.818048 0.166689 0.090800 0.719800 1 3 1.000000
  3 -1.033800 3.495999 69.186996 -0.306800 0.921200 0.239300 0.043600 0.708400 1 3 1.000000
van_facemap
  3 0.069400 3.493598 65.935402 -0.061499 0.927791 -0.367996 0.002700 0.444900 1 3 1.000000
  3 -1.687800 3.209098 66.753502 -0.422212 0.875424 -0.235307 0.077300 0.518700 1 3 1.000000
  3 -1.970600 3.043899 69.202499 -0.550465 0.818048 0.166689 0.090800 0.719800 1 3 1.000000
van_facemap
  3 0.069400 3.493598 65.935402 -0.061499 0.927791 -0.367996 0.002700 0.444900 1 3 1.000000
  3 -1.426000 2.002398 64.450401 -0.566017 0.692420 -0.447413 0.061700 0.327000 1 3 1.000000
  3 -1.687800 3.209098 66.753502 -0.422212 0.875424 -0.235307 0.077300 0.518700 1 3 1.000000
van_facemap
  3 -1.687800 3.209098 66.753502 -0.422212 0.875424 -0.235307 0.077300 0.518700 1 3 1.000000
  3 -1.426000 2.002398 64.450401 -0.566017 0.692420 -0.447413 0.061700 0.327000 1 3 1.000000
  3 -2.606600 1.918698 65.741798 -0.847680 0.410790 -0.335692 0.104900 0.454700 1 3 1.000000
van_facemap
  3 -2.606600 1.918698 65.741798 -0.847680 0.410790 -0.335692 0.104900 0.454700 1 3 1.000000
  3 -1.426000 2.002398 64.450401 -0.566017 0.692420 -0.447413 0.061700 0.327000 1 3 1.000000
  3 -2.101600 -1.089201 63.072102 -0.962230 -0.242508 -0.123704 0.232000 0.223600 1 3 1.000000
van_facemap
  3 -2.646900 0.226898 65.681900 -0.243912 0.729834 -0.638630 0.159100 0.419500 1 3 1.000000
  3 -2.606600 1.918698 65.741798 -0.847680 0.410790 -0.335692 0.104900 0.454700 1 3 1.000000
  3 -2.101600 -1.089201 63.072102 -0.962230 -0.242508 -0.123704 0.232000 0.223600 1 3 1.000000
van_facemap
  3 -2.593700 -0.796702 64.715897 -0.960634 0.088303 -0.263409 0.226300 0.356600 1 3 1.000000
  3 -2.646900 0.226898 65.681900 -0.243912 0.729834 -0.638630 0.159100 0.419500 1 3 1.000000
  3 -2.101600 -1.089201 63.072102 -0.962230 -0.242508 -0.123704 0.232000 0.223600 1 3 1.000000
van_facemap
  3 -2.646900 0.226898 65.681900 -0.243912 0.729834 -0.638630 0.159100 0.419500 1 3 1.000000
  3 -2.593700 -0.796702 64.715897 -0.960634 0.088303 -0.263409 0.226300 0.356600 1 3 1.000000
  3 -2.980300 -0.050702 65.041801 -0.932287 -0.041799 -0.359295 0.190300 0.381000 1 3 1.000000
van_facemap
  3 -2.593700 -0.796702 64.715897 -0.960634 0.088303 -0.263409 0.226300 0.356600 1 3 1.000000
  3 -2.597200 -0.216102 65.942001 -0.998604 -0.042900 0.030800 0.188300 0.454800 1 3 1.000000
  3 -2.980300 -0.050702 65.041801 -0.932287 -0.041799 -0.359295 0.190300 0.381000 1 3 1.000000
van_facemap
  3 -2.980300 -0.050702 65.041801 -0.932287 -0.041799 -0.359295 0.190300 0.381000 1 3 1.000000
  3 -2.597200 -0.216102 65.942001 -0.998604 -0.042900 0.030800 0.188300 0.454800 1 3 1.000000
  3 -3.355600 0.842698 66.940903 -0.951371 0.163795 -0.260892 0.163300 0.534000 1 3 1.000000
van_facemap
  3 -2.597200 -0.216102 65.942001 -0.998604 -0.042900 0.030800 0.188300 0.454800 1 3 1.000000
  3 -3.526000 0.081598 67.593597 -0.755352 -0.128192 0.642659 0.193500 0.586500 1 3 1.000000
  3 -3.355600 0.842698 66.940903 -0.951371 0.163795 -0.260892 0.163300 0.534000 1 3 1.000000
van_facemap
  3 -3.355600 0.842698 66.940903 -0.951371 0.163795 -0.260892 0.163300 0.534000 1 3 1.000000
  3 -3.526000 0.081598 67.593597 -0.755352 -0.128192 0.642659 0.193500 0.586500 1 3 1.000000
  3 -3.301100 1.306298 68.816101 -0.965438 0.257010 -0.043302 0.170100 0.684400 1 3 1.000000
van_facemap
  3 -3.526000 0.081598 67.593597 -0.755352 -0.128192 0.642659 0.193500 0.586500 1 3 1.000000
  3 -2.458300 -3.916302 67.699303 -0.796748 -0.562063 -0.221985 0.377800 0.607500 1 3 1.000000
  3 -3.301100 1.306298 68.816101 -0.965438 0.257010 -0.043302 0.170100 0.684400 1 3 1.000000
van_facemap
  3 -2.458300 -3.916302 67.699303 -0.796748 -0.562063 -0.221985 0.377800 0.607500 1 3 1.000000
  3 -2.325900 -2.543402 71.208702 -0.798313 -0.397407 0.452508 0.326100 0.886500 1 3 1.000000
  3 -3.301100 1.306298 68.816101 -0.965438 0.257010 -0.043302 0.170100 0.684400 1 3 1.000000
van_facemap
  3 -2.458300 -3.916302 67.699303 -0.796748 -0.562063 -0.221985 0.377800 0.607500 1 3 1.000000
  3 -1.235600 -3.799602 71.446999 -0.585706 -0.692607 0.421004 0.420700 0.912700 1 3 1.000000
  3 -2.325900 -2.543402 71.208702 -0.798313 -0.397407 0.452508 0.326100 0.886500 1 3 1.000000
van_facemap
  3 -1.235600 -3.799602 71.446999 -0.585706 -0.692607 0.421004 0.420700 0.912700 1 3 1.000000
  3 -2.760500 0.763498 71.214897 -0.767614 0.160803 0.620412 0.183400 0.881200 1 3 1.000000
  3 -2.325900 -2.543402 71.208702 -0.798313 -0.397407 0.452508 0.326100 0.886500 1 3 1.000000
van_facemap
  3 -2.325900 -2.543402 71.208702 -0.798313 -0.397407 0.452508 0.326100 0.886500 1 3 1.000000
  3 -2.760500 0.763498 71.214897 -0.767614 0.160803 0.620412 0.183400 0.881200 1 3 1.000000
  3 -3.301100 1.306298 68.816101 -0.965438 0.257010 -0.043302 0.170100 0.684400 1 3 1.000000
van_facemap
  3 -1.970600 3.043899 69.202499 -0.550465 0.818048 0.166689 0.090800 0.719800 1 3 1.000000
  3 -3.301100 1.306298 68.816101 -0.965438 0.257010 -0.043302 0.170100 0.684400 1 3 1.000000
  3 -2.760500 0.763498 71.214897 -0.767614 0.160803 0.620412 0.183400 0.881200 1 3 1.000000
van_facemap
  3 -1.970600 3.043899 69.202499 -0.550465 0.818048 0.166689 0.090800 0.719800 1 3 1.000000
  3 -2.606600 1.918698 65.741798 -0.847680 0.410790 -0.335692 0.104900 0.454700 1 3 1.000000
  3 -3.301100 1.306298 68.816101 -0.965438 0.257010 -0.043302 0.170100 0.684400 1 3 1.000000
van_facemap
  3 -1.687800 3.209098 66.753502 -0.422212 0.875424 -0.235307 0.077300 0.518700 1 3 1.000000
  3 -2.606600 1.918698 65.741798 -0.847680 0.410790 -0.335692 0.104900 0.454700 1 3 1.000000
  3 -1.970600 3.043899 69.202499 -0.550465 0.818048 0.166689 0.090800 0.719800 1 3 1.000000
van_facemap
  3 -3.301100 1.306298 68.816101 -0.965438 0.257010 -0.043302 0.170100 0.684400 1 3 1.000000
  3 -2.606600 1.918698 65.741798 -0.847680 0.410790 -0.335692 0.104900 0.454700 1 3 1.000000
  3 -3.355600 0.842698 66.940903 -0.951371 0.163795 -0.260892 0.163300 0.534000 1 3 1.000000
van_facemap
  3 -2.606600 1.918698 65.741798 -0.847680 0.410790 -0.335692 0.104900 0.454700 1 3 1.000000
  3 -2.646900 0.226898 65.681900 -0.243912 0.729834 -0.638630 0.159100 0.419500 1 3 1.000000
  3 -3.355600 0.842698 66.940903 -0.951371 0.163795 -0.260892 0.163300 0.534000 1 3 1.000000
van_facemap
  3 -2.980300 -0.050702 65.041801 -0.932287 -0.041799 -0.359295 0.190300 0.381000 1 3 1.000000
  3 -3.355600 0.842698 66.940903 -0.951371 0.163795 -0.260892 0.163300 0.534000 1 3 1.000000
  3 -2.646900 0.226898 65.681900 -0.243912 0.729834 -0.638630 0.159100 0.419500 1 3 1.000000
van_facemap
  3 0.069400 3.493598 65.935402 -0.061499 0.927791 -0.367996 0.002700 0.444900 1 3 1.000000
  3 0.009000 2.574898 64.897400 -0.026300 0.833696 -0.551597 0.000800 0.361900 1 3 1.000000
  3 -1.426000 2.002398 64.450401 -0.566017 0.692420 -0.447413 0.061700 0.327000 1 3 1.000000
van_facemap
  3 0.009000 2.574898 64.897400 -0.026300 0.833696 -0.551597 0.000800 0.361900 1 3 1.000000
  3 0.001900 2.732300 62.206104 -0.005100 0.974343 0.225010 -0.000500 0.142200 1 3 1.000000
  3 -1.127900 2.161800 62.464600 -0.602330 0.709335 0.366118 0.052800 0.164900 1 3 1.000000
van_facemap
  3 -1.426000 2.002398 64.450401 -0.566017 0.692420 -0.447413 0.061700 0.327000 1 3 1.000000
  3 0.009000 2.574898 64.897400 -0.026300 0.833696 -0.551597 0.000800 0.361900 1 3 1.000000
  3 -1.127900 2.161800 62.464600 -0.602330 0.709335 0.366118 0.052800 0.164900 1 3 1.000000
van_facemap
  3 -1.426000 2.002398 64.450401 -0.566017 0.692420 -0.447413 0.061700 0.327000 1 3 1.000000
  3 -1.127900 2.161800 62.464600 -0.602330 0.709335 0.366118 0.052800 0.164900 1 3 1.000000
  3 -2.024600 1.399700 62.061798 -0.926366 0.280890 0.250891 0.096200 0.125000 1 3 1.000000
van_facemap
  3 -2.101600 -1.089201 63.072102 -0.962230 -0.242508 -0.123704 0.232000 0.223600 1 3 1.000000
  3 -1.426000 2.002398 64.450401 -0.566017 0.692420 -0.447413 0.061700 0.327000 1 3 1.000000
  3 -2.024600 1.399700 62.061798 -0.926366 0.280890 0.250891 0.096200 0.125000 1 3 1.000000
van_facemap
  3 -2.101600 -1.089201 63.072102 -0.962230 -0.242508 -0.123704 0.232000 0.223600 1 3 1.000000
  3 -2.024600 1.399700 62.061798 -0.926366 0.280890 0.250891 0.096200 0.125000 1 3 1.000000
  3 -1.891600 -0.994400 60.755299 -0.841831 -0.530620 -0.098804 0.247000 0.034700 1 3 1.000000
van_facemap
  3 -0.810900 -4.914703 62.573601 -0.733459 -0.383279 -0.561369 0.467000 0.193900 1 3 1.000000
  3 -2.101600 -1.089201 63.072102 -0.962230 -0.242508 -0.123704 0.232000 0.223600 1 3 1.000000
  3 -1.891600 -0.994400 60.755299 -0.841831 -0.530620 -0.098804 0.247000 0.034700 1 3 1.000000
van_facemap
  3 -0.810900 -4.914703 62.573601 -0.733459 -0.383279 -0.561369 0.467000 0.193900 1 3 1.000000
  3 -1.891600 -0.994400 60.755299 -0.841831 -0.530620 -0.098804 0.247000 0.034700 1 3 1.000000
  3 -0.274300 -3.478603 62.359600 -0.190699 -0.316298 -0.929295 0.482300 0.172400 1 3 1.000000
van_facemap
  3 -0.274300 -3.478603 62.359600 -0.190699 -0.316298 -0.929295 0.482300 0.172400 1 3 1.000000
  3 -1.891600 -0.994400 60.755299 -0.841831 -0.530620 -0.098804 0.247000 0.034700 1 3 1.000000
  3 -0.030300 -2.808801 61.402603 -0.025399 -0.955870 -0.292691 0.497900 0.092600 1 3 1.000000
van_facemap
  3 -0.030300 -2.808801 61.402603 -0.025399 -0.955870 -0.292691 0.497900 0.092600 1 3 1.000000
  3 1.006000 -1.887500 60.075100 0.572409 -0.810213 -0.126102 0.637100 0.005700 1 3 1.000000
  3 -0.274300 -3.478603 62.359600 -0.190699 -0.316298 -0.929295 0.482300 0.172400 1 3 1.000000
van_facemap
  3 -0.330400 -2.282800 59.817299 -0.287988 -0.953961 -0.083797 0.460600 0.004800 1 3 1.000000
  3 1.006000 -1.887500 60.075100 0.572409 -0.810213 -0.126102 0.637100 0.005700 1 3 1.000000
  3 -0.030300 -2.808801 61.402603 -0.025399 -0.955870 -0.292691 0.497900 0.092600 1 3 1.000000
van_facemap
  3 -0.330400 -2.282800 59.817299 -0.287988 -0.953961 -0.083797 0.460600 0.004800 1 3 1.000000
  3 -0.030300 -2.808801 61.402603 -0.025399 -0.955870 -0.292691 0.497900 0.092600 1 3 1.000000
  3 -1.891600 -0.994400 60.755299 -0.841831 -0.530620 -0.098804 0.247000 0.034700 1 3 1.000000
van_facemap
  3 0.120200 -5.699603 63.119801 0.125194 -0.991852 -0.023599 0.504400 0.240600 1 3 1.000000
  3 0.101800 -5.425203 62.501801 0.074796 -0.646470 -0.759264 0.504000 0.189500 1 3 1.000000
  3 0.497200 -5.963702 64.145897 0.411079 -0.841157 -0.351382 0.516600 0.321100 1 3 1.000000
van_facemap
  3 -0.368700 -5.994302 64.133904 -0.301705 -0.865013 -0.400906 0.488100 0.320200 1 3 1.000000
  3 0.120200 -5.699603 63.119801 0.125194 -0.991852 -0.023599 0.504400 0.240600 1 3 1.000000
  3 0.497200 -5.963702 64.145897 0.411079 -0.841157 -0.351382 0.516600 0.321100 1 3 1.000000
van_facemap
  3 0.497200 -5.963702 64.145897 0.411079 -0.841157 -0.351382 0.516600 0.321100 1 3 1.000000
  3 -0.039200 -6.131202 64.730400 -0.097501 -0.920614 -0.378106 0.498900 0.372600 1 3 1.000000
  3 -0.368700 -5.994302 64.133904 -0.301705 -0.865013 -0.400906 0.488100 0.320200 1 3 1.000000
van_facemap
  3 -0.039200 -6.131202 64.730400 -0.097501 -0.920614 -0.378106 0.498900 0.372600 1 3 1.000000
  3 -1.242400 -5.087003 64.506699 -0.673588 -0.671188 -0.309494 0.451500 0.351800 1 3 1.000000
  3 -0.368700 -5.994302 64.133904 -0.301705 -0.865013 -0.400906 0.488100 0.320200 1 3 1.000000
mouth
  3 0.938200 -4.604403 63.728001 -0.671300 0.090000 0.735701 0.915200 -0.529000 1 3 1.000000
  3 0.746300 -5.881002 64.720200 0.379091 -0.768882 -0.514888 0.511100 -0.545100 1 3 1.000000
  3 1.244200 -5.086402 64.505898 0.194291 -0.960257 0.200391 0.517000 -0.545100 1 3 1.000000
mouth
  3 0.938200 -4.604403 63.728001 -0.671300 0.090000 0.735701 0.915200 -0.529000 1 3 1.000000
  3 0.497200 -5.963702 64.145897 0.569509 -0.719312 0.397806 0.478100 -0.545000 1 3 1.000000
  3 0.746300 -5.881002 64.720200 0.379091 -0.768882 -0.514888 0.511100 -0.545100 1 3 1.000000
mouth
  3 0.938200 -4.604403 63.728001 -0.671300 0.090000 0.735701 0.915200 -0.529000 1 3 1.000000
  3 -0.988600 -4.603502 63.724400 0.652786 0.110198 0.749484 0.052100 -0.528900 1 3 1.000000
  3 0.497200 -5.963702 64.145897 0.569509 -0.719312 0.397806 0.478100 -0.545000 1 3 1.000000
mouth
  3 -0.988600 -4.603502 63.724400 0.652786 0.110198 0.749484 0.052100 -0.528900 1 3 1.000000
  3 -0.039200 -6.131202 64.730400 0.327514 -0.938641 0.108105 0.448100 -0.544900 1 3 1.000000
  3 0.497200 -5.963702 64.145897 0.569509 -0.719312 0.397806 0.478100 -0.545000 1 3 1.000000
mouth
  3 -0.988600 -4.603502 63.724400 0.652786 0.110198 0.749484 0.052100 -0.528900 1 3 1.000000
  3 -1.016300 -5.185403 64.502998 0.796807 0.603006 0.038500 0.439600 -0.544900 1 3 1.000000
  3 -0.039200 -6.131202 64.730400 0.327514 -0.938641 0.108105 0.448100 -0.544900 1 3 1.000000
mouth
  3 -0.988600 -4.603502 63.724400 0.652786 0.110198 0.749484 0.052100 -0.528900 1 3 1.000000
  3 -0.988600 -4.841902 65.268402 0.621510 0.249504 -0.742612 0.044100 -0.542500 1 3 1.000000
  3 -1.016300 -5.185403 64.502998 0.796807 0.603006 0.038500 0.439600 -0.544900 1 3 1.000000
mouth
  3 -0.039200 -6.131202 64.730400 0.327514 -0.938641 0.108105 0.455900 -0.545000 1 3 1.000000
  3 -1.016300 -5.185403 64.502998 0.796807 0.603006 0.038500 0.439600 -0.544900 1 3 1.000000
  3 -0.988600 -4.841902 65.268402 0.621510 0.249504 -0.742612 0.044100 -0.542500 1 3 1.000000
mouth
  3 -0.039200 -6.131202 64.730400 0.327514 -0.938641 0.108105 0.455900 -0.545000 1 3 1.000000
  3 -0.988600 -4.841902 65.268402 0.621510 0.249504 -0.742612 0.044100 -0.542500 1 3 1.000000
  3 0.938900 -4.842902 65.271896 -0.645176 0.206592 -0.735573 0.915500 -0.542600 1 3 1.000000
mouth
  3 0.746300 -5.881002 64.720200 0.379091 -0.768882 -0.514888 0.497100 -0.545000 1 3 1.000000
  3 -0.039200 -6.131202 64.730400 0.327514 -0.938641 0.108105 0.455900 -0.545000 1 3 1.000000
  3 0.938900 -4.842902 65.271896 -0.645176 0.206592 -0.735573 0.915500 -0.542600 1 3 1.000000
mouth
  3 0.746300 -5.881002 64.720200 0.379091 -0.768882 -0.514888 0.497100 -0.545000 1 3 1.000000
  3 0.938900 -4.842902 65.271896 -0.645176 0.206592 -0.735573 0.915500 -0.542600 1 3 1.000000
  3 1.244200 -5.086402 64.505898 0.194291 -0.960257 0.200391 0.517000 -0.545100 1 3 1.000000
mouth
  3 1.244200 -5.086402 64.505898 0.194291 -0.960257 0.200391 0.517000 -0.545100 1 3 1.000000
  3 0.938900 -4.842902 65.271896 -0.645176 0.206592 -0.735573 0.915500 -0.542600 1 3 1.000000
  3 0.998100 -3.492203 64.519997 -0.536995 -0.842892 -0.034200 0.942300 -0.440300 1 3 1.000000
mouth
  3 0.938200 -4.604403 63.728001 -0.671300 0.090000 0.735701 0.915200 -0.529000 1 3 1.000000
  3 1.244200 -5.086402 64.505898 0.194291 -0.960257 0.200391 0.517000 -0.545100 1 3 1.000000
  3 0.998100 -3.492203 64.519997 -0.536995 -0.842892 -0.034200 0.942300 -0.440300 1 3 1.000000
mouth
  3 -0.988600 -4.603502 63.724400 0.652786 0.110198 0.749484 0.052100 -0.528900 1 3 1.000000
  3 0.938200 -4.604403 63.728001 -0.671300 0.090000 0.735701 0.915200 -0.529000 1 3 1.000000
  3 0.998100 -3.492203 64.519997 -0.536995 -0.842892 -0.034200 0.942300 -0.440300 1 3 1.000000
mouth
  3 0.998100 -3.492203 64.519997 -0.536995 -0.842892 -0.034200 0.942300 -0.440300 1 3 1.000000
  3 -1.020100 -3.491602 64.518997 0.497432 -0.866856 -0.033502 0.102500 -0.440200 1 3 1.000000
  3 -0.988600 -4.603502 63.724400 0.652786 0.110198 0.749484 0.052100 -0.528900 1 3 1.000000
mouth
  3 -0.988600 -4.603502 63.724400 0.652786 0.110198 0.749484 0.052100 -0.528900 1 3 1.000000
  3 -1.020100 -3.491602 64.518997 0.497432 -0.866856 -0.033502 0.102500 -0.440200 1 3 1.000000
  3 -0.988600 -4.841902 65.268402 0.621510 0.249504 -0.742612 0.044100 -0.542500 1 3 1.000000
mouth
  3 0.938900 -4.842902 65.271896 -0.645176 0.206592 -0.735573 0.915500 -0.542600 1 3 1.000000
  3 -0.988600 -4.841902 65.268402 0.621510 0.249504 -0.742612 0.044100 -0.542500 1 3 1.000000
  3 -1.020100 -3.491602 64.518997 0.497432 -0.866856 -0.033502 0.102500 -0.440200 1 3 1.000000
mouth
  3 -1.020100 -3.491602 64.518997 0.497432 -0.866856 -0.033502 0.102500 -0.440200 1 3 1.000000
  3 0.998100 -3.492203 64.519997 -0.536995 -0.842892 -0.034200 0.942300 -0.440300 1 3 1.000000
  3 0.938900 -4.842902 65.271896 -0.645176 0.206592 -0.735573 0.915500 -0.542600 1 3 1.000000
end
