versioninfo
{
	"editorversion" "400"
	"editorbuild" "8157"
	"mapversion" "11"
	"formatversion" "100"
	"prefab" "0"
}
visgroups
{
}
viewsettings
{
	"bSnapToGrid" "1"
	"bShowGrid" "1"
	"bShowLogicalGrid" "0"
	"nGridSpacing" "64"
	"bShow3DGrid" "1"
}
world
{
	"id" "1"
	"mapversion" "11"
	"classname" "worldspawn"
	"chaptertitlenomessage" "1"
	"detailmaterial" "detail/detailsprites"
	"detailvbsp" "detail.vbsp"
	"maxpropscreenwidth" "-1"
	"skyname" "sky_day01_01"
	"vscriptlanguage_client" "-2"
	solid
	{
		"id" "34"
		side
		{
			"id" "96"
			"plane" "(-128 256 256) (-128 224 256) (-384 224 256)"
			"material" "DEV/DEV_MEASUREWALL01A"
			"uaxis" "[1 0 0 0] 0.25"
			"vaxis" "[0 -1 0 0] 0.25"
			"rotation" "0"
			"lightmapscale" "16"
			"smoothing_groups" "0"
		}
		side
		{
			"id" "95"
			"plane" "(-128 224 0) (-128 256 0) (-384 256 0)"
			"material" "DEV/DEV_MEASUREWALL01A"
			"uaxis" "[1 0 0 0] 0.25"
			"vaxis" "[0 -1 0 0] 0.25"
			"rotation" "0"
			"lightmapscale" "16"
			"smoothing_groups" "0"
		}
		side
		{
			"id" "94"
			"plane" "(-128 224 0) (-128 224 256) (-128 256 256)"
			"material" "DEV/DEV_MEASUREWALL01A"
			"uaxis" "[0 1 0 0] 0.25"
			"vaxis" "[0 0 -1 0] 0.25"
			"rotation" "0"
			"lightmapscale" "16"
			"smoothing_groups" "0"
		}
		side
		{
			"id" "93"
			"plane" "(-128 256 0) (-128 256 256) (-384 256 256)"
			"material" "DEV/DEV_MEASUREWALL01A"
			"uaxis" "[1 0 0 0] 0.25"
			"vaxis" "[0 0 -1 0] 0.25"
			"rotation" "0"
			"lightmapscale" "16"
			"smoothing_groups" "0"
		}
		side
		{
			"id" "92"
			"plane" "(-384 224 0) (-384 224 256) (-128 224 256)"
			"material" "DEV/DEV_MEASUREWALL01A"
			"uaxis" "[1 0 0 0] 0.25"
			"vaxis" "[0 0 -1 0] 0.25"
			"rotation" "0"
			"lightmapscale" "16"
			"smoothing_groups" "0"
		}
		side
		{
			"id" "91"
			"plane" "(-384 256 0) (-384 256 256) (-384 224 256)"
			"material" "DEV/DEV_MEASUREWALL01A"
			"uaxis" "[0 1 0 0] 0.25"
			"vaxis" "[0 0 -1 0] 0.25"
			"rotation" "0"
			"lightmapscale" "16"
			"smoothing_groups" "0"
		}
		editor
		{
			"color" "0 227 176"
			"visgroupshown" "1"
			"visgroupautoshown" "1"
		}
	}
	solid
	{
		"id" "254"
		side
		{
			"id" "222"
			"plane" "(-576 256 168) (-640 256 168) (-640 576 168)"
			"material" "DEV/DEV_MEASUREWALL01A"
			"uaxis" "[1 0 0 0] 0.25"
			"vaxis" "[0 -1 0 0] 0.25"
			"rotation" "0"
			"lightmapscale" "16"
			"smoothing_groups" "0"
		}
		side
		{
			"id" "221"
			"plane" "(-576 576 160) (-640 576 160) (-640 256 160)"
			"material" "WOOD/WOODWALL028A"
			"uaxis" "[1 0 0 0] 0.25"
			"vaxis" "[0 -1 0 0] 0.25"
			"rotation" "0"
			"lightmapscale" "16"
			"smoothing_groups" "0"
		}
		side
		{
			"id" "220"
			"plane" "(-640 256 160) (-640 576 160) (-640 576 168)"
			"material" "DEV/DEV_MEASUREWALL01A"
			"uaxis" "[0 1 0 0] 0.25"
			"vaxis" "[0 0 -1 0] 0.25"
			"rotation" "0"
			"lightmapscale" "16"
			"smoothing_groups" "0"
		}
		side
		{
			"id" "219"
			"plane" "(-640 576 160) (-576 576 160) (-576 576 168)"
			"material" "DEV/DEV_MEASUREWALL01A"
			"uaxis" "[1 0 0 0] 0.25"
			"vaxis" "[0 0 -1 0] 0.25"
			"rotation" "0"
			"lightmapscale" "16"
			"smoothing_groups" "0"
		}
		side
		{
			"id" "218"
			"plane" "(-576 256 160) (-640 256 160) (-640 256 168)"
			"material" "DEV/DEV_MEASUREWALL01A"
			"uaxis" "[1 0 0 0] 0.25"
			"vaxis" "[0 0 -1 0] 0.25"
			"rotation" "0"
			"lightmapscale" "16"
			"smoothing_groups" "0"
		}
		side
		{
			"id" "217"
			"plane" "(-576 576 160) (-576 256 160) (-576 256 168)"
			"material" "DEV/DEV_MEASUREWALL01A"
			"uaxis" "[0 1 0 0] 0.25"
			"vaxis" "[0 0 -1 0] 0.25"
			"rotation" "0"
			"lightmapscale" "16"
			"smoothing_groups" "0"
		}
		editor
		{
			"color" "0 173 142"
			"visgroupshown" "1"
			"visgroupautoshown" "1"
		}
	}
	solid
	{
		"id" "264"
		side
		{
			"id" "252"
			"plane" "(-576 256 168) (-576 400 168) (-512 400 168)"
			"material" "DEV/DEV_MEASUREWALL01A"
			"uaxis" "[1 0 0 0] 0.25"
			"vaxis" "[0 -1 0 0] 0.25"
			"rotation" "0"
			"lightmapscale" "16"
			"smoothing_groups" "0"
		}
		side
		{
			"id" "251"
			"plane" "(-576 256 160) (-512 256 160) (-512 400 160)"
			"material" "WOOD/WOODWALL028A"
			"uaxis" "[1 0 0 0] 0.25"
			"vaxis" "[0 -1 0 0] 0.25"
			"rotation" "0"
			"lightmapscale" "16"
			"smoothing_groups" "0"
		}
		side
		{
			"id" "250"
			"plane" "(-576 256 160) (-576 256 168) (-512 256 168)"
			"material" "DEV/DEV_MEASUREWALL01A"
			"uaxis" "[1 0 0 0] 0.25"
			"vaxis" "[0 0 -1 0] 0.25"
			"rotation" "0"
			"lightmapscale" "16"
			"smoothing_groups" "0"
		}
		side
		{
			"id" "249"
			"plane" "(-576 400 160) (-576 400 168) (-576 256 168)"
			"material" "DEV/DEV_MEASUREWALL01A"
			"uaxis" "[0 1 0 0] 0.25"
			"vaxis" "[0 0 -1 0] 0.25"
			"rotation" "0"
			"lightmapscale" "16"
			"smoothing_groups" "0"
		}
		side
		{
			"id" "248"
			"plane" "(-512 256 160) (-512 256 168) (-512 400 168)"
			"material" "DEV/DEV_MEASUREWALL01A"
			"uaxis" "[0 1 0 0] 0.25"
			"vaxis" "[0 0 -1 0] 0.25"
			"rotation" "0"
			"lightmapscale" "16"
			"smoothing_groups" "0"
		}
		side
		{
			"id" "247"
			"plane" "(-512 400 160) (-512 400 168) (-576 400 168)"
			"material" "DEV/DEV_MEASUREWALL01A"
			"uaxis" "[1 0 0 0] 0.25"
			"vaxis" "[0 0 -1 0] 0.25"
			"rotation" "0"
			"lightmapscale" "16"
			"smoothing_groups" "0"
		}
		editor
		{
			"color" "0 173 142"
			"visgroupshown" "1"
			"visgroupautoshown" "1"
		}
	}
	solid
	{
		"id" "266"
		side
		{
			"id" "264"
			"plane" "(-576 576 168) (-512 576 168) (-512 496 168)"
			"material" "DEV/DEV_MEASUREWALL01A"
			"uaxis" "[1 0 0 0] 0.25"
			"vaxis" "[0 -1 0 0] 0.25"
			"rotation" "0"
			"lightmapscale" "16"
			"smoothing_groups" "0"
		}
		side
		{
			"id" "263"
			"plane" "(-576 576 160) (-576 496 160) (-512 496 160)"
			"material" "WOOD/WOODWALL028A"
			"uaxis" "[1 0 0 0] 0.25"
			"vaxis" "[0 -1 0 0] 0.25"
			"rotation" "0"
			"lightmapscale" "16"
			"smoothing_groups" "0"
		}
		side
		{
			"id" "262"
			"plane" "(-512 576 160) (-512 576 168) (-576 576 168)"
			"material" "DEV/DEV_MEASUREWALL01A"
			"uaxis" "[1 0 0 0] 0.25"
			"vaxis" "[0 0 -1 0] 0.25"
			"rotation" "0"
			"lightmapscale" "16"
			"smoothing_groups" "0"
		}
		side
		{
			"id" "261"
			"plane" "(-576 576 160) (-576 576 168) (-576 496 168)"
			"material" "DEV/DEV_MEASUREWALL01A"
			"uaxis" "[0 1 0 0] 0.25"
			"vaxis" "[0 0 -1 0] 0.25"
			"rotation" "0"
			"lightmapscale" "16"
			"smoothing_groups" "0"
		}
		side
		{
			"id" "260"
			"plane" "(-512 496 160) (-512 496 168) (-512 576 168)"
			"material" "DEV/DEV_MEASUREWALL01A"
			"uaxis" "[0 1 0 0] 0.25"
			"vaxis" "[0 0 -1 0] 0.25"
			"rotation" "0"
			"lightmapscale" "16"
			"smoothing_groups" "0"
		}
		side
		{
			"id" "259"
			"plane" "(-576 496 160) (-576 496 168) (-512 496 168)"
			"material" "DEV/DEV_MEASUREWALL01A"
			"uaxis" "[1 0 0 0] 0.25"
			"vaxis" "[0 0 -1 0] 0.25"
			"rotation" "0"
			"lightmapscale" "16"
			"smoothing_groups" "0"
		}
		editor
		{
			"color" "0 173 142"
			"visgroupshown" "1"
			"visgroupautoshown" "1"
		}
	}
	solid
	{
		"id" "256"
		side
		{
			"id" "270"
			"plane" "(-384 576 168) (-384 256 168) (-512 256 168)"
			"material" "DEV/DEV_MEASUREWALL01A"
			"uaxis" "[1 0 0 0] 0.25"
			"vaxis" "[0 -1 0 0] 0.25"
			"rotation" "0"
			"lightmapscale" "16"
			"smoothing_groups" "0"
		}
		side
		{
			"id" "269"
			"plane" "(-384 256 160) (-384 576 160) (-512 576 160)"
			"material" "WOOD/WOODWALL028A"
			"uaxis" "[1 0 0 0] 0.25"
			"vaxis" "[0 -1 0 0] 0.25"
			"rotation" "0"
			"lightmapscale" "16"
			"smoothing_groups" "0"
		}
		side
		{
			"id" "268"
			"plane" "(-384 256 160) (-384 256 168) (-384 576 168)"
			"material" "DEV/DEV_MEASUREWALL01A"
			"uaxis" "[0 1 0 0] 0.25"
			"vaxis" "[0 0 -1 0] 0.25"
			"rotation" "0"
			"lightmapscale" "16"
			"smoothing_groups" "0"
		}
		side
		{
			"id" "267"
			"plane" "(-384 576 160) (-384 576 168) (-512 576 168)"
			"material" "DEV/DEV_MEASUREWALL01A"
			"uaxis" "[1 0 0 0] 0.25"
			"vaxis" "[0 0 -1 0] 0.25"
			"rotation" "0"
			"lightmapscale" "16"
			"smoothing_groups" "0"
		}
		side
		{
			"id" "266"
			"plane" "(-512 256 160) (-512 256 168) (-384 256 168)"
			"material" "DEV/DEV_MEASUREWALL01A"
			"uaxis" "[1 0 0 0] 0.25"
			"vaxis" "[0 0 -1 0] 0.25"
			"rotation" "0"
			"lightmapscale" "16"
			"smoothing_groups" "0"
		}
		side
		{
			"id" "265"
			"plane" "(-512 576 160) (-512 576 168) (-512 256 168)"
			"material" "DEV/DEV_MEASUREWALL01A"
			"uaxis" "[0 1 0 0] 0.25"
			"vaxis" "[0 0 -1 0] 0.25"
			"rotation" "0"
			"lightmapscale" "16"
			"smoothing_groups" "0"
		}
		editor
		{
			"color" "0 173 142"
			"visgroupshown" "1"
			"visgroupautoshown" "1"
		}
	}
	solid
	{
		"id" "386"
		side
		{
			"id" "282"
			"plane" "(-640 576 256) (-256 576 256) (-256 256 256)"
			"material" "DEV/DEV_MEASUREWALL01A"
			"uaxis" "[1 0 0 0] 0.25"
			"vaxis" "[0 -1 0 0] 0.25"
			"rotation" "0"
			"lightmapscale" "16"
			"smoothing_groups" "0"
		}
		side
		{
			"id" "281"
			"plane" "(-640 256 224) (-256 256 224) (-256 576 224)"
			"material" "NATURE/ROCKWALL015A"
			"uaxis" "[1 0 0 0] 0.25"
			"vaxis" "[0 -1 0 0] 0.25"
			"rotation" "0"
			"lightmapscale" "16"
			"smoothing_groups" "0"
		}
		side
		{
			"id" "280"
			"plane" "(-640 576 256) (-640 256 256) (-640 256 224)"
			"material" "DEV/DEV_MEASUREWALL01A"
			"uaxis" "[0 1 0 0] 0.25"
			"vaxis" "[0 0 -1 0] 0.25"
			"rotation" "0"
			"lightmapscale" "16"
			"smoothing_groups" "0"
		}
		side
		{
			"id" "279"
			"plane" "(-256 576 224) (-256 256 224) (-256 256 256)"
			"material" "DEV/DEV_MEASUREWALL01A"
			"uaxis" "[0 1 0 0] 0.25"
			"vaxis" "[0 0 -1 0] 0.25"
			"rotation" "0"
			"lightmapscale" "16"
			"smoothing_groups" "0"
		}
		side
		{
			"id" "278"
			"plane" "(-256 576 256) (-640 576 256) (-640 576 224)"
			"material" "DEV/DEV_MEASUREWALL01A"
			"uaxis" "[1 0 0 0] 0.25"
			"vaxis" "[0 0 -1 0] 0.25"
			"rotation" "0"
			"lightmapscale" "16"
			"smoothing_groups" "0"
		}
		side
		{
			"id" "277"
			"plane" "(-256 256 224) (-640 256 224) (-640 256 256)"
			"material" "DEV/DEV_MEASUREWALL01A"
			"uaxis" "[1 0 0 0] 0.25"
			"vaxis" "[0 0 -1 0] 0.25"
			"rotation" "0"
			"lightmapscale" "16"
			"smoothing_groups" "0"
		}
		editor
		{
			"color" "0 173 142"
			"visgroupshown" "1"
			"visgroupautoshown" "1"
		}
	}
	solid
	{
		"id" "434"
		side
		{
			"id" "300"
			"plane" "(-384 576 0) (-256 576 0) (-256 256 0)"
			"material" "NATURE/DIRTFLOOR003A"
			"uaxis" "[1 0 0 0] 0.25"
			"vaxis" "[0 -1 0 0] 0.25"
			"rotation" "0"
			"lightmapscale" "16"
			"smoothing_groups" "0"
		}
		side
		{
			"id" "299"
			"plane" "(-384 256 -32) (-256 256 -32) (-256 576 -32)"
			"material" "DEV/DEV_MEASUREWALL01A"
			"uaxis" "[1 0 0 0] 0.25"
			"vaxis" "[0 -1 0 0] 0.25"
			"rotation" "0"
			"lightmapscale" "16"
			"smoothing_groups" "0"
		}
		side
		{
			"id" "298"
			"plane" "(-256 576 -32) (-256 256 -32) (-256 256 0)"
			"material" "DEV/DEV_MEASUREWALL01A"
			"uaxis" "[0 1 0 0] 0.25"
			"vaxis" "[0 0 -1 0] 0.25"
			"rotation" "0"
			"lightmapscale" "16"
			"smoothing_groups" "0"
		}
		side
		{
			"id" "297"
			"plane" "(-384 576 -32) (-256 576 -32) (-256 576 0)"
			"material" "DEV/DEV_MEASUREWALL01A"
			"uaxis" "[1 0 0 0] 0.25"
			"vaxis" "[0 0 -1 0] 0.25"
			"rotation" "0"
			"lightmapscale" "16"
			"smoothing_groups" "0"
		}
		side
		{
			"id" "296"
			"plane" "(-256 256 -32) (-384 256 -32) (-384 256 0)"
			"material" "DEV/DEV_MEASUREWALL01A"
			"uaxis" "[1 0 0 0] 0.25"
			"vaxis" "[0 0 -1 0] 0.25"
			"rotation" "0"
			"lightmapscale" "16"
			"smoothing_groups" "0"
		}
		side
		{
			"id" "295"
			"plane" "(-384 256 -32) (-384 576 -32) (-384 576 0)"
			"material" "DEV/DEV_MEASUREWALL01A"
			"uaxis" "[0 1 0 0] 0.25"
			"vaxis" "[0 0 -1 0] 0.25"
			"rotation" "0"
			"lightmapscale" "16"
			"smoothing_groups" "0"
		}
		editor
		{
			"color" "0 173 142"
			"visgroupshown" "1"
			"visgroupautoshown" "1"
		}
	}
	solid
	{
		"id" "436"
		side
		{
			"id" "312"
			"plane" "(-640 256 0) (-640 576 0) (-512 576 0)"
			"material" "NATURE/DIRTFLOOR003A"
			"uaxis" "[1 0 0 0] 0.25"
			"vaxis" "[0 -1 0 0] 0.25"
			"rotation" "0"
			"lightmapscale" "16"
			"smoothing_groups" "0"
		}
		side
		{
			"id" "311"
			"plane" "(-640 576 -32) (-640 256 -32) (-512 256 -32)"
			"material" "DEV/DEV_MEASUREWALL01A"
			"uaxis" "[1 0 0 0] 0.25"
			"vaxis" "[0 -1 0 0] 0.25"
			"rotation" "0"
			"lightmapscale" "16"
			"smoothing_groups" "0"
		}
		side
		{
			"id" "310"
			"plane" "(-640 256 -32) (-640 576 -32) (-640 576 0)"
			"material" "DEV/DEV_MEASUREWALL01A"
			"uaxis" "[0 1 0 0] 0.25"
			"vaxis" "[0 0 -1 0] 0.25"
			"rotation" "0"
			"lightmapscale" "16"
			"smoothing_groups" "0"
		}
		side
		{
			"id" "309"
			"plane" "(-640 576 -32) (-512 576 -32) (-512 576 0)"
			"material" "DEV/DEV_MEASUREWALL01A"
			"uaxis" "[1 0 0 0] 0.25"
			"vaxis" "[0 0 -1 0] 0.25"
			"rotation" "0"
			"lightmapscale" "16"
			"smoothing_groups" "0"
		}
		side
		{
			"id" "308"
			"plane" "(-512 256 -32) (-640 256 -32) (-640 256 0)"
			"material" "DEV/DEV_MEASUREWALL01A"
			"uaxis" "[1 0 0 0] 0.25"
			"vaxis" "[0 0 -1 0] 0.25"
			"rotation" "0"
			"lightmapscale" "16"
			"smoothing_groups" "0"
		}
		side
		{
			"id" "307"
			"plane" "(-512 576 -32) (-512 256 -32) (-512 256 0)"
			"material" "DEV/DEV_MEASUREWALL01A"
			"uaxis" "[0 1 0 0] 0.25"
			"vaxis" "[0 0 -1 0] 0.25"
			"rotation" "0"
			"lightmapscale" "16"
			"smoothing_groups" "0"
		}
		editor
		{
			"color" "0 173 142"
			"visgroupshown" "1"
			"visgroupautoshown" "1"
		}
	}
	solid
	{
		"id" "440"
		side
		{
			"id" "324"
			"plane" "(-512 512 0) (-512 576 0) (-384 576 0)"
			"material" "NATURE/DIRTFLOOR003A"
			"uaxis" "[1 0 0 0] 0.25"
			"vaxis" "[0 -1 0 0] 0.25"
			"rotation" "0"
			"lightmapscale" "16"
			"smoothing_groups" "0"
		}
		side
		{
			"id" "323"
			"plane" "(-384 576 -32) (-512 576 -32) (-512 512 -32)"
			"material" "DEV/DEV_MEASUREWALL01A"
			"uaxis" "[1 0 0 0] 0.25"
			"vaxis" "[0 -1 0 0] 0.25"
			"rotation" "0"
			"lightmapscale" "16"
			"smoothing_groups" "0"
		}
		side
		{
			"id" "322"
			"plane" "(-512 576 -32) (-384 576 -32) (-384 576 0)"
			"material" "DEV/DEV_MEASUREWALL01A"
			"uaxis" "[1 0 0 0] 0.25"
			"vaxis" "[0 0 -1 0] 0.25"
			"rotation" "0"
			"lightmapscale" "16"
			"smoothing_groups" "0"
		}
		side
		{
			"id" "321"
			"plane" "(-512 512 -32) (-512 576 -32) (-512 576 0)"
			"material" "DEV/DEV_MEASUREWALL01A"
			"uaxis" "[0 1 0 0] 0.25"
			"vaxis" "[0 0 -1 0] 0.25"
			"rotation" "0"
			"lightmapscale" "16"
			"smoothing_groups" "0"
		}
		side
		{
			"id" "320"
			"plane" "(-384 576 -32) (-384 512 -32) (-384 512 0)"
			"material" "DEV/DEV_MEASUREWALL01A"
			"uaxis" "[0 1 0 0] 0.25"
			"vaxis" "[0 0 -1 0] 0.25"
			"rotation" "0"
			"lightmapscale" "16"
			"smoothing_groups" "0"
		}
		side
		{
			"id" "319"
			"plane" "(-384 512 -32) (-512 512 -32) (-512 512 0)"
			"material" "DEV/DEV_MEASUREWALL01A"
			"uaxis" "[1 0 0 0] 0.25"
			"vaxis" "[0 0 -1 0] 0.25"
			"rotation" "0"
			"lightmapscale" "16"
			"smoothing_groups" "0"
		}
		editor
		{
			"color" "0 173 142"
			"visgroupshown" "1"
			"visgroupautoshown" "1"
		}
	}
	solid
	{
		"id" "562"
		side
		{
			"id" "325"
			"plane" "(-480 512 12) (-476 512 12) (-476 -256 12)"
			"material" "NATURE/GRAVELFLOOR004B"
			"uaxis" "[1 0 0 0] 0.25"
			"vaxis" "[0 -1 0 0] 0.25"
			"rotation" "0"
			"lightmapscale" "16"
			"smoothing_groups" "0"
		}
		side
		{
			"id" "326"
			"plane" "(-480 -256 8) (-476 -256 8) (-476 512 8)"
			"material" "DEV/DEV_MEASUREWALL01A"
			"uaxis" "[1 0 0 0] 0.25"
			"vaxis" "[0 -1 0 0] 0.25"
			"rotation" "0"
			"lightmapscale" "16"
			"smoothing_groups" "0"
		}
		side
		{
			"id" "327"
			"plane" "(-480 512 8) (-480 512 12) (-480 -256 12)"
			"material" "METAL/METALWALL030A"
			"uaxis" "[0 1 0 0] 0.25"
			"vaxis" "[0 0 -1 0] 0.25"
			"rotation" "0"
			"lightmapscale" "16"
			"smoothing_groups" "0"
		}
		side
		{
			"id" "328"
			"plane" "(-476 -256 8) (-476 -256 12) (-476 512 12)"
			"material" "METAL/METALWALL030A"
			"uaxis" "[0 1 0 0] 0.25"
			"vaxis" "[0 0 -1 0] 0.25"
			"rotation" "0"
			"lightmapscale" "16"
			"smoothing_groups" "0"
		}
		side
		{
			"id" "329"
			"plane" "(-476 512 8) (-476 512 12) (-480 512 12)"
			"material" "DEV/DEV_MEASUREWALL01A"
			"uaxis" "[1 0 0 0] 0.25"
			"vaxis" "[0 0 -1 0] 0.25"
			"rotation" "0"
			"lightmapscale" "16"
			"smoothing_groups" "0"
		}
		side
		{
			"id" "330"
			"plane" "(-480 -256 8) (-480 -256 12) (-476 -256 12)"
			"material" "DEV/DEV_MEASUREWALL01A"
			"uaxis" "[1 0 0 0] 0.25"
			"vaxis" "[0 0 -1 0] 0.25"
			"rotation" "0"
			"lightmapscale" "16"
			"smoothing_groups" "0"
		}
		editor
		{
			"color" "0 143 224"
			"visgroupshown" "1"
			"visgroupautoshown" "1"
		}
	}
	solid
	{
		"id" "576"
		side
		{
			"id" "342"
			"plane" "(-420 512 12) (-416 512 12) (-416 -256 12)"
			"material" "NATURE/GRAVELFLOOR004B"
			"uaxis" "[1 0 0 0] 0.25"
			"vaxis" "[0 -1 0 0] 0.25"
			"rotation" "0"
			"lightmapscale" "16"
			"smoothing_groups" "0"
		}
		side
		{
			"id" "341"
			"plane" "(-420 -256 8) (-416 -256 8) (-416 512 8)"
			"material" "DEV/DEV_MEASUREWALL01A"
			"uaxis" "[1 0 0 0] 0.25"
			"vaxis" "[0 -1 0 0] 0.25"
			"rotation" "0"
			"lightmapscale" "16"
			"smoothing_groups" "0"
		}
		side
		{
			"id" "340"
			"plane" "(-420 512 8) (-420 512 12) (-420 -256 12)"
			"material" "METAL/METALWALL030A"
			"uaxis" "[0 1 0 0] 0.25"
			"vaxis" "[0 0 -1 0] 0.25"
			"rotation" "0"
			"lightmapscale" "16"
			"smoothing_groups" "0"
		}
		side
		{
			"id" "339"
			"plane" "(-416 -256 8) (-416 -256 12) (-416 512 12)"
			"material" "METAL/METALWALL030A"
			"uaxis" "[0 1 0 0] 0.25"
			"vaxis" "[0 0 -1 0] 0.25"
			"rotation" "0"
			"lightmapscale" "16"
			"smoothing_groups" "0"
		}
		side
		{
			"id" "338"
			"plane" "(-416 512 8) (-416 512 12) (-420 512 12)"
			"material" "DEV/DEV_MEASUREWALL01A"
			"uaxis" "[1 0 0 0] 0.25"
			"vaxis" "[0 0 -1 0] 0.25"
			"rotation" "0"
			"lightmapscale" "16"
			"smoothing_groups" "0"
		}
		side
		{
			"id" "337"
			"plane" "(-420 -256 8) (-420 -256 12) (-416 -256 12)"
			"material" "DEV/DEV_MEASUREWALL01A"
			"uaxis" "[1 0 0 0] 0.25"
			"vaxis" "[0 0 -1 0] 0.25"
			"rotation" "0"
			"lightmapscale" "16"
			"smoothing_groups" "0"
		}
		editor
		{
			"color" "0 143 224"
			"visgroupshown" "1"
			"visgroupautoshown" "1"
		}
	}
	solid
	{
		"id" "635"
		side
		{
			"id" "354"
			"plane" "(-640 576 224) (-640 608 224) (-256 608 224)"
			"material" "DEV/DEV_MEASUREWALL01A"
			"uaxis" "[1 0 0 0] 0.25"
			"vaxis" "[0 -1 0 128] 0.25"
			"rotation" "0"
			"lightmapscale" "16"
			"smoothing_groups" "0"
		}
		side
		{
			"id" "353"
			"plane" "(-640 608 128) (-640 608 224) (-640 576 224)"
			"material" "DEV/DEV_MEASUREWALL01A"
			"uaxis" "[0 1 0 -128] 0.25"
			"vaxis" "[0 0 -1 0] 0.25"
			"rotation" "0"
			"lightmapscale" "16"
			"smoothing_groups" "0"
		}
		side
		{
			"id" "352"
			"plane" "(-256 576 128) (-256 576 224) (-256 608 224)"
			"material" "DEV/DEV_MEASUREWALL01A"
			"uaxis" "[0 1 0 -128] 0.25"
			"vaxis" "[0 0 -1 0] 0.25"
			"rotation" "0"
			"lightmapscale" "16"
			"smoothing_groups" "0"
		}
		side
		{
			"id" "351"
			"plane" "(-256 608 128) (-256 608 224) (-640 608 224)"
			"material" "DEV/DEV_MEASUREWALL01A"
			"uaxis" "[1 0 0 0] 0.25"
			"vaxis" "[0 0 -1 0] 0.25"
			"rotation" "0"
			"lightmapscale" "16"
			"smoothing_groups" "0"
		}
		side
		{
			"id" "350"
			"plane" "(-640 576 128) (-640 576 224) (-256 576 224)"
			"material" "DEV/DEV_MEASUREWALL01A"
			"uaxis" "[1 0 0 0] 0.25"
			"vaxis" "[0 0 -1 0] 0.25"
			"rotation" "0"
			"lightmapscale" "16"
			"smoothing_groups" "0"
		}
		side
		{
			"id" "349"
			"plane" "(-640 608 128) (-640 576 128) (-256 576 128)"
			"material" "DEV/DEV_MEASUREWALL01A"
			"uaxis" "[1 0 0 0] 0.25"
			"vaxis" "[0 -1 0 0] 0.25"
			"rotation" "0"
			"lightmapscale" "16"
			"smoothing_groups" "0"
		}
		editor
		{
			"color" "0 227 176"
			"visgroupshown" "1"
			"visgroupautoshown" "1"
		}
	}
	solid
	{
		"id" "741"
		side
		{
			"id" "504"
			"plane" "(-640 608 0) (-640 576 0) (-512 576 0)"
			"material" "DEV/DEV_MEASUREWALL01A"
			"uaxis" "[1 0 0 0] 0.25"
			"vaxis" "[0 -1 0 128] 0.25"
			"rotation" "0"
			"lightmapscale" "16"
			"smoothing_groups" "0"
		}
		side
		{
			"id" "503"
			"plane" "(-640 576 128) (-640 576 0) (-640 608 0)"
			"material" "DEV/DEV_MEASUREWALL01A"
			"uaxis" "[0 1 0 -128] 0.25"
			"vaxis" "[0 0 -1 0] 0.25"
			"rotation" "0"
			"lightmapscale" "16"
			"smoothing_groups" "0"
		}
		side
		{
			"id" "502"
			"plane" "(-640 608 128) (-640 608 0) (-512 608 0)"
			"material" "DEV/DEV_MEASUREWALL01A"
			"uaxis" "[1 0 0 0] 0.25"
			"vaxis" "[0 0 -1 0] 0.25"
			"rotation" "0"
			"lightmapscale" "16"
			"smoothing_groups" "0"
		}
		side
		{
			"id" "501"
			"plane" "(-512 576 0) (-640 576 0) (-640 576 128)"
			"material" "DEV/DEV_MEASUREWALL01A"
			"uaxis" "[1 0 0 0] 0.25"
			"vaxis" "[0 0 -1 0] 0.25"
			"rotation" "0"
			"lightmapscale" "16"
			"smoothing_groups" "0"
		}
		side
		{
			"id" "500"
			"plane" "(-640 576 128) (-640 608 128) (-512 608 128)"
			"material" "DEV/DEV_MEASUREWALL01A"
			"uaxis" "[1 0 0 0] 0.25"
			"vaxis" "[0 -1 0 0] 0.25"
			"rotation" "0"
			"lightmapscale" "16"
			"smoothing_groups" "0"
		}
		side
		{
			"id" "499"
			"plane" "(-512 608 128) (-512 608 0) (-512 576 0)"
			"material" "DEV/DEV_MEASUREWALL01A"
			"uaxis" "[0 1 0 0] 0.25"
			"vaxis" "[0 0 -1 0] 0.25"
			"rotation" "0"
			"lightmapscale" "16"
			"smoothing_groups" "0"
		}
		editor
		{
			"color" "0 227 176"
			"visgroupshown" "1"
			"visgroupautoshown" "1"
		}
	}
	solid
	{
		"id" "742"
		side
		{
			"id" "510"
			"plane" "(-512 576 0) (-384 576 0) (-384 608 0)"
			"material" "DEV/DEV_MEASUREWALL01A"
			"uaxis" "[1 0 0 0] 0.25"
			"vaxis" "[0 -1 0 128] 0.25"
			"rotation" "0"
			"lightmapscale" "16"
			"smoothing_groups" "0"
		}
		side
		{
			"id" "509"
			"plane" "(-512 608 0) (-384 608 0) (-384 608 128)"
			"material" "DEV/DEV_MEASUREWALL01A"
			"uaxis" "[1 0 0 0] 0.25"
			"vaxis" "[0 0 -1 0] 0.25"
			"rotation" "0"
			"lightmapscale" "16"
			"smoothing_groups" "0"
		}
		side
		{
			"id" "508"
			"plane" "(-384 576 0) (-512 576 0) (-512 576 128)"
			"material" "DEV/DEV_MEASUREWALL01A"
			"uaxis" "[1 0 0 0] 0.25"
			"vaxis" "[0 0 -1 0] 0.25"
			"rotation" "0"
			"lightmapscale" "16"
			"smoothing_groups" "0"
		}
		side
		{
			"id" "507"
			"plane" "(-512 608 128) (-384 608 128) (-384 576 128)"
			"material" "DEV/DEV_MEASUREWALL01A"
			"uaxis" "[1 0 0 0] 0.25"
			"vaxis" "[0 -1 0 0] 0.25"
			"rotation" "0"
			"lightmapscale" "16"
			"smoothing_groups" "0"
		}
		side
		{
			"id" "506"
			"plane" "(-512 576 128) (-512 576 0) (-512 608 0)"
			"material" "DEV/DEV_MEASUREWALL01A"
			"uaxis" "[0 1 0 0] 0.25"
			"vaxis" "[0 0 -1 0] 0.25"
			"rotation" "0"
			"lightmapscale" "16"
			"smoothing_groups" "0"
		}
		side
		{
			"id" "505"
			"plane" "(-384 608 128) (-384 608 0) (-384 576 0)"
			"material" "DEV/DEV_MEASUREWALL01A"
			"uaxis" "[0 1 0 0] 0.25"
			"vaxis" "[0 0 -1 0] 0.25"
			"rotation" "0"
			"lightmapscale" "16"
			"smoothing_groups" "0"
		}
		editor
		{
			"color" "0 227 176"
			"visgroupshown" "1"
			"visgroupautoshown" "1"
		}
	}
	solid
	{
		"id" "743"
		side
		{
			"id" "516"
			"plane" "(-384 576 0) (-256 576 0) (-256 608 0)"
			"material" "DEV/DEV_MEASUREWALL01A"
			"uaxis" "[1 0 0 0] 0.25"
			"vaxis" "[0 -1 0 128] 0.25"
			"rotation" "0"
			"lightmapscale" "16"
			"smoothing_groups" "0"
		}
		side
		{
			"id" "515"
			"plane" "(-256 608 128) (-256 608 0) (-256 576 0)"
			"material" "DEV/DEV_MEASUREWALL01A"
			"uaxis" "[0 1 0 -128] 0.25"
			"vaxis" "[0 0 -1 0] 0.25"
			"rotation" "0"
			"lightmapscale" "16"
			"smoothing_groups" "0"
		}
		side
		{
			"id" "514"
			"plane" "(-384 608 0) (-256 608 0) (-256 608 128)"
			"material" "DEV/DEV_MEASUREWALL01A"
			"uaxis" "[1 0 0 0] 0.25"
			"vaxis" "[0 0 -1 0] 0.25"
			"rotation" "0"
			"lightmapscale" "16"
			"smoothing_groups" "0"
		}
		side
		{
			"id" "513"
			"plane" "(-256 576 128) (-256 576 0) (-384 576 0)"
			"material" "DEV/DEV_MEASUREWALL01A"
			"uaxis" "[1 0 0 0] 0.25"
			"vaxis" "[0 0 -1 0] 0.25"
			"rotation" "0"
			"lightmapscale" "16"
			"smoothing_groups" "0"
		}
		side
		{
			"id" "512"
			"plane" "(-384 608 128) (-256 608 128) (-256 576 128)"
			"material" "DEV/DEV_MEASUREWALL01A"
			"uaxis" "[1 0 0 0] 0.25"
			"vaxis" "[0 -1 0 0] 0.25"
			"rotation" "0"
			"lightmapscale" "16"
			"smoothing_groups" "0"
		}
		side
		{
			"id" "511"
			"plane" "(-384 576 128) (-384 576 0) (-384 608 0)"
			"material" "DEV/DEV_MEASUREWALL01A"
			"uaxis" "[0 1 0 0] 0.25"
			"vaxis" "[0 0 -1 0] 0.25"
			"rotation" "0"
			"lightmapscale" "16"
			"smoothing_groups" "0"
		}
		editor
		{
			"color" "0 227 176"
			"visgroupshown" "1"
			"visgroupautoshown" "1"
		}
	}
	solid
	{
		"id" "802"
		side
		{
			"id" "672"
			"plane" "(-320 576 168) (-320 416 168) (-384 416 168)"
			"material" "DEV/DEV_MEASUREWALL01A"
			"uaxis" "[1 0 0 0] 0.25"
			"vaxis" "[0 -1 0 0] 0.25"
			"rotation" "0"
			"lightmapscale" "16"
			"smoothing_groups" "0"
		}
		side
		{
			"id" "671"
			"plane" "(-320 576 160) (-384 576 160) (-384 416 160)"
			"material" "WOOD/WOODWALL028A"
			"uaxis" "[1 0 0 0] 0.25"
			"vaxis" "[0 -1 0 0] 0.25"
			"rotation" "0"
			"lightmapscale" "16"
			"smoothing_groups" "0"
		}
		side
		{
			"id" "670"
			"plane" "(-320 576 160) (-320 576 168) (-384 576 168)"
			"material" "DEV/DEV_MEASUREWALL01A"
			"uaxis" "[1 0 0 0] 0.25"
			"vaxis" "[0 0 -1 0] 0.25"
			"rotation" "0"
			"lightmapscale" "16"
			"smoothing_groups" "0"
		}
		side
		{
			"id" "669"
			"plane" "(-320 416 160) (-320 416 168) (-320 576 168)"
			"material" "DEV/DEV_MEASUREWALL01A"
			"uaxis" "[0 1 0 0] 0.25"
			"vaxis" "[0 0 -1 0] 0.25"
			"rotation" "0"
			"lightmapscale" "16"
			"smoothing_groups" "0"
		}
		side
		{
			"id" "668"
			"plane" "(-384 576 160) (-384 576 168) (-384 416 168)"
			"material" "DEV/DEV_MEASUREWALL01A"
			"uaxis" "[0 1 0 0] 0.25"
			"vaxis" "[0 0 -1 0] 0.25"
			"rotation" "0"
			"lightmapscale" "16"
			"smoothing_groups" "0"
		}
		side
		{
			"id" "667"
			"plane" "(-384 416 160) (-384 416 168) (-320 416 168)"
			"material" "DEV/DEV_MEASUREWALL01A"
			"uaxis" "[1 0 0 0] 0.25"
			"vaxis" "[0 0 -1 0] 0.25"
			"rotation" "0"
			"lightmapscale" "16"
			"smoothing_groups" "0"
		}
		editor
		{
			"color" "0 173 142"
			"visgroupshown" "1"
			"visgroupautoshown" "1"
		}
	}
	solid
	{
		"id" "803"
		side
		{
			"id" "678"
			"plane" "(-320 576 168) (-256 576 168) (-256 256 168)"
			"material" "DEV/DEV_MEASUREWALL01A"
			"uaxis" "[1 0 0 0] 0.25"
			"vaxis" "[0 -1 0 0] 0.25"
			"rotation" "0"
			"lightmapscale" "16"
			"smoothing_groups" "0"
		}
		side
		{
			"id" "677"
			"plane" "(-320 256 160) (-256 256 160) (-256 576 160)"
			"material" "WOOD/WOODWALL028A"
			"uaxis" "[1 0 0 0] 0.25"
			"vaxis" "[0 -1 0 0] 0.25"
			"rotation" "0"
			"lightmapscale" "16"
			"smoothing_groups" "0"
		}
		side
		{
			"id" "676"
			"plane" "(-256 576 160) (-256 256 160) (-256 256 168)"
			"material" "DEV/DEV_MEASUREWALL01A"
			"uaxis" "[0 1 0 0] 0.25"
			"vaxis" "[0 0 -1 0] 0.25"
			"rotation" "0"
			"lightmapscale" "16"
			"smoothing_groups" "0"
		}
		side
		{
			"id" "675"
			"plane" "(-256 256 160) (-320 256 160) (-320 256 168)"
			"material" "DEV/DEV_MEASUREWALL01A"
			"uaxis" "[1 0 0 0] 0.25"
			"vaxis" "[0 0 -1 0] 0.25"
			"rotation" "0"
			"lightmapscale" "16"
			"smoothing_groups" "0"
		}
		side
		{
			"id" "674"
			"plane" "(-320 576 160) (-256 576 160) (-256 576 168)"
			"material" "DEV/DEV_MEASUREWALL01A"
			"uaxis" "[1 0 0 0] 0.25"
			"vaxis" "[0 0 -1 0] 0.25"
			"rotation" "0"
			"lightmapscale" "16"
			"smoothing_groups" "0"
		}
		side
		{
			"id" "673"
			"plane" "(-320 256 160) (-320 576 160) (-320 576 168)"
			"material" "DEV/DEV_MEASUREWALL01A"
			"uaxis" "[0 1 0 0] 0.25"
			"vaxis" "[0 0 -1 0] 0.25"
			"rotation" "0"
			"lightmapscale" "16"
			"smoothing_groups" "0"
		}
		editor
		{
			"color" "0 173 142"
			"visgroupshown" "1"
			"visgroupautoshown" "1"
		}
	}
	solid
	{
		"id" "804"
		side
		{
			"id" "684"
			"plane" "(-320 256 168) (-384 256 168) (-384 320 168)"
			"material" "DEV/DEV_MEASUREWALL01A"
			"uaxis" "[1 0 0 0] 0.25"
			"vaxis" "[0 -1 0 0] 0.25"
			"rotation" "0"
			"lightmapscale" "16"
			"smoothing_groups" "0"
		}
		side
		{
			"id" "683"
			"plane" "(-320 256 160) (-320 320 160) (-384 320 160)"
			"material" "WOOD/WOODWALL028A"
			"uaxis" "[1 0 0 0] 0.25"
			"vaxis" "[0 -1 0 0] 0.25"
			"rotation" "0"
			"lightmapscale" "16"
			"smoothing_groups" "0"
		}
		side
		{
			"id" "682"
			"plane" "(-384 256 160) (-384 256 168) (-320 256 168)"
			"material" "DEV/DEV_MEASUREWALL01A"
			"uaxis" "[1 0 0 0] 0.25"
			"vaxis" "[0 0 -1 0] 0.25"
			"rotation" "0"
			"lightmapscale" "16"
			"smoothing_groups" "0"
		}
		side
		{
			"id" "681"
			"plane" "(-320 256 160) (-320 256 168) (-320 320 168)"
			"material" "DEV/DEV_MEASUREWALL01A"
			"uaxis" "[0 1 0 0] 0.25"
			"vaxis" "[0 0 -1 0] 0.25"
			"rotation" "0"
			"lightmapscale" "16"
			"smoothing_groups" "0"
		}
		side
		{
			"id" "680"
			"plane" "(-384 320 160) (-384 320 168) (-384 256 168)"
			"material" "DEV/DEV_MEASUREWALL01A"
			"uaxis" "[0 1 0 0] 0.25"
			"vaxis" "[0 0 -1 0] 0.25"
			"rotation" "0"
			"lightmapscale" "16"
			"smoothing_groups" "0"
		}
		side
		{
			"id" "679"
			"plane" "(-320 320 160) (-320 320 168) (-384 320 168)"
			"material" "DEV/DEV_MEASUREWALL01A"
			"uaxis" "[1 0 0 0] 0.25"
			"vaxis" "[0 0 -1 0] 0.25"
			"rotation" "0"
			"lightmapscale" "16"
			"smoothing_groups" "0"
		}
		editor
		{
			"color" "0 173 142"
			"visgroupshown" "1"
			"visgroupautoshown" "1"
		}
	}
	solid
	{
		"id" "1408"
		side
		{
			"id" "793"
			"plane" "(-512 256 0) (-512 -256 0) (-768 -256 0)"
			"material" "NATURE/DIRTFLOOR003A"
			"uaxis" "[1 0 0 0] 0.25"
			"vaxis" "[0 -1 0 0] 0.25"
			"rotation" "0"
			"lightmapscale" "16"
			"smoothing_groups" "0"
		}
		side
		{
			"id" "794"
			"plane" "(-512 -256 -32) (-512 256 -32) (-768 256 -32)"
			"material" "DEV/DEV_MEASUREWALL01A"
			"uaxis" "[1 0 0 0] 0.25"
			"vaxis" "[0 -1 0 0] 0.25"
			"rotation" "0"
			"lightmapscale" "16"
			"smoothing_groups" "0"
		}
		side
		{
			"id" "795"
			"plane" "(-768 -256 0) (-768 -256 -32) (-768 256 -32)"
			"material" "DEV/DEV_MEASUREWALL01A"
			"uaxis" "[0 1 0 0] 0.25"
			"vaxis" "[0 0 -1 0] 0.25"
			"rotation" "0"
			"lightmapscale" "16"
			"smoothing_groups" "0"
		}
		side
		{
			"id" "796"
			"plane" "(-512 -256 -32) (-512 -256 0) (-512 256 0)"
			"material" "DEV/DEV_MEASUREWALL01A"
			"uaxis" "[0 1 0 0] 0.25"
			"vaxis" "[0 0 -1 0] 0.25"
			"rotation" "0"
			"lightmapscale" "16"
			"smoothing_groups" "0"
		}
		side
		{
			"id" "797"
			"plane" "(-768 256 0) (-768 256 -32) (-512 256 -32)"
			"material" "DEV/DEV_MEASUREWALL01A"
			"uaxis" "[1 0 0 0] 0.25"
			"vaxis" "[0 0 -1 0] 0.25"
			"rotation" "0"
			"lightmapscale" "16"
			"smoothing_groups" "0"
		}
		side
		{
			"id" "798"
			"plane" "(-768 -256 -32) (-768 -256 0) (-512 -256 0)"
			"material" "DEV/DEV_MEASUREWALL01A"
			"uaxis" "[1 0 0 0] 0.25"
			"vaxis" "[0 0 -1 0] 0.25"
			"rotation" "0"
			"lightmapscale" "16"
			"smoothing_groups" "0"
		}
		editor
		{
			"color" "0 203 140"
			"visgroupshown" "1"
			"visgroupautoshown" "1"
		}
	}
	solid
	{
		"id" "1409"
		side
		{
			"id" "799"
			"plane" "(-128 256 0) (-128 -256 0) (-384 -256 0)"
			"material" "NATURE/DIRTFLOOR003A"
			"uaxis" "[1 0 0 0] 0.25"
			"vaxis" "[0 -1 0 0] 0.25"
			"rotation" "0"
			"lightmapscale" "16"
			"smoothing_groups" "0"
		}
		side
		{
			"id" "800"
			"plane" "(-128 -256 -32) (-128 256 -32) (-384 256 -32)"
			"material" "DEV/DEV_MEASUREWALL01A"
			"uaxis" "[1 0 0 0] 0.25"
			"vaxis" "[0 -1 0 0] 0.25"
			"rotation" "0"
			"lightmapscale" "16"
			"smoothing_groups" "0"
		}
		side
		{
			"id" "801"
			"plane" "(-384 -256 0) (-384 -256 -32) (-384 256 -32)"
			"material" "DEV/DEV_MEASUREWALL01A"
			"uaxis" "[0 1 0 0] 0.25"
			"vaxis" "[0 0 -1 0] 0.25"
			"rotation" "0"
			"lightmapscale" "16"
			"smoothing_groups" "0"
		}
		side
		{
			"id" "802"
			"plane" "(-128 -256 -32) (-128 -256 0) (-128 256 0)"
			"material" "DEV/DEV_MEASUREWALL01A"
			"uaxis" "[0 1 0 0] 0.25"
			"vaxis" "[0 0 -1 0] 0.25"
			"rotation" "0"
			"lightmapscale" "16"
			"smoothing_groups" "0"
		}
		side
		{
			"id" "803"
			"plane" "(-384 256 0) (-384 256 -32) (-128 256 -32)"
			"material" "DEV/DEV_MEASUREWALL01A"
			"uaxis" "[1 0 0 0] 0.25"
			"vaxis" "[0 0 -1 0] 0.25"
			"rotation" "0"
			"lightmapscale" "16"
			"smoothing_groups" "0"
		}
		side
		{
			"id" "804"
			"plane" "(-384 -256 -32) (-384 -256 0) (-128 -256 0)"
			"material" "DEV/DEV_MEASUREWALL01A"
			"uaxis" "[1 0 0 0] 0.25"
			"vaxis" "[0 0 -1 0] 0.25"
			"rotation" "0"
			"lightmapscale" "16"
			"smoothing_groups" "0"
		}
		editor
		{
			"color" "0 229 198"
			"visgroupshown" "1"
			"visgroupautoshown" "1"
		}
	}
	solid
	{
		"id" "1420"
		side
		{
			"id" "805"
			"plane" "(-256 576 224) (-224 576 224) (-224 256 224)"
			"material" "DEV/DEV_MEASUREWALL01A"
			"uaxis" "[1 0 0 0] 0.25"
			"vaxis" "[0 -1 0 0] 0.25"
			"rotation" "0"
			"lightmapscale" "16"
			"smoothing_groups" "0"
		}
		side
		{
			"id" "806"
			"plane" "(-256 256 0) (-224 256 0) (-224 576 0)"
			"material" "DEV/DEV_MEASUREWALL01A"
			"uaxis" "[1 0 0 0] 0.25"
			"vaxis" "[0 -1 0 0] 0.25"
			"rotation" "0"
			"lightmapscale" "16"
			"smoothing_groups" "0"
		}
		side
		{
			"id" "807"
			"plane" "(-256 576 224) (-256 256 224) (-256 256 0)"
			"material" "DEV/DEV_MEASUREWALL01A"
			"uaxis" "[0 1 0 0] 0.25"
			"vaxis" "[0 0 -1 0] 0.25"
			"rotation" "0"
			"lightmapscale" "16"
			"smoothing_groups" "0"
		}
		side
		{
			"id" "808"
			"plane" "(-224 576 0) (-224 256 0) (-224 256 224)"
			"material" "DEV/DEV_MEASUREWALL01A"
			"uaxis" "[0 1 0 0] 0.25"
			"vaxis" "[0 0 -1 0] 0.25"
			"rotation" "0"
			"lightmapscale" "16"
			"smoothing_groups" "0"
		}
		side
		{
			"id" "809"
			"plane" "(-224 576 224) (-256 576 224) (-256 576 0)"
			"material" "DEV/DEV_MEASUREWALL01A"
			"uaxis" "[1 0 0 0] 0.25"
			"vaxis" "[0 0 -1 0] 0.25"
			"rotation" "0"
			"lightmapscale" "16"
			"smoothing_groups" "0"
		}
		side
		{
			"id" "810"
			"plane" "(-224 256 0) (-256 256 0) (-256 256 224)"
			"material" "DEV/DEV_MEASUREWALL01A"
			"uaxis" "[1 0 0 0] 0.25"
			"vaxis" "[0 0 -1 0] 0.25"
			"rotation" "0"
			"lightmapscale" "16"
			"smoothing_groups" "0"
		}
		editor
		{
			"color" "0 255 188"
			"visgroupshown" "1"
			"visgroupautoshown" "1"
		}
	}
	solid
	{
		"id" "1422"
		side
		{
			"id" "822"
			"plane" "(-640 256 224) (-672 256 224) (-672 576 224)"
			"material" "DEV/DEV_MEASUREWALL01A"
			"uaxis" "[1 0 0 0] 0.25"
			"vaxis" "[0 -1 0 0] 0.25"
			"rotation" "0"
			"lightmapscale" "16"
			"smoothing_groups" "0"
		}
		side
		{
			"id" "821"
			"plane" "(-640 576 0) (-672 576 0) (-672 256 0)"
			"material" "DEV/DEV_MEASUREWALL01A"
			"uaxis" "[1 0 0 0] 0.25"
			"vaxis" "[0 -1 0 0] 0.25"
			"rotation" "0"
			"lightmapscale" "16"
			"smoothing_groups" "0"
		}
		side
		{
			"id" "820"
			"plane" "(-640 576 0) (-640 256 0) (-640 256 224)"
			"material" "DEV/DEV_MEASUREWALL01A"
			"uaxis" "[0 1 0 0] 0.25"
			"vaxis" "[0 0 -1 0] 0.25"
			"rotation" "0"
			"lightmapscale" "16"
			"smoothing_groups" "0"
		}
		side
		{
			"id" "819"
			"plane" "(-672 576 224) (-672 256 224) (-672 256 0)"
			"material" "DEV/DEV_MEASUREWALL01A"
			"uaxis" "[0 1 0 0] 0.25"
			"vaxis" "[0 0 -1 0] 0.25"
			"rotation" "0"
			"lightmapscale" "16"
			"smoothing_groups" "0"
		}
		side
		{
			"id" "818"
			"plane" "(-672 576 0) (-640 576 0) (-640 576 224)"
			"material" "DEV/DEV_MEASUREWALL01A"
			"uaxis" "[1 0 0 0] 0.25"
			"vaxis" "[0 0 -1 0] 0.25"
			"rotation" "0"
			"lightmapscale" "16"
			"smoothing_groups" "0"
		}
		side
		{
			"id" "817"
			"plane" "(-672 256 224) (-640 256 224) (-640 256 0)"
			"material" "DEV/DEV_MEASUREWALL01A"
			"uaxis" "[1 0 0 0] 0.25"
			"vaxis" "[0 0 -1 0] 0.25"
			"rotation" "0"
			"lightmapscale" "16"
			"smoothing_groups" "0"
		}
		editor
		{
			"color" "0 255 188"
			"visgroupshown" "1"
			"visgroupautoshown" "1"
		}
	}
	solid
	{
		"id" "1432"
		side
		{
			"id" "823"
			"plane" "(-384 256 256) (-384 224 256) (-512 224 256)"
			"material" "DEV/DEV_MEASUREWALL01A"
			"uaxis" "[1 0 0 0] 0.25"
			"vaxis" "[0 -1 0 0] 0.25"
			"rotation" "0"
			"lightmapscale" "16"
			"smoothing_groups" "0"
		}
		side
		{
			"id" "824"
			"plane" "(-384 224 128) (-384 256 128) (-512 256 128)"
			"material" "DEV/DEV_MEASUREWALL01A"
			"uaxis" "[1 0 0 0] 0.25"
			"vaxis" "[0 -1 0 0] 0.25"
			"rotation" "0"
			"lightmapscale" "16"
			"smoothing_groups" "0"
		}
		side
		{
			"id" "825"
			"plane" "(-512 224 256) (-512 224 128) (-512 256 128)"
			"material" "DEV/DEV_MEASUREWALL01A"
			"uaxis" "[0 1 0 0] 0.25"
			"vaxis" "[0 0 -1 0] 0.25"
			"rotation" "0"
			"lightmapscale" "16"
			"smoothing_groups" "0"
		}
		side
		{
			"id" "826"
			"plane" "(-384 224 128) (-384 224 256) (-384 256 256)"
			"material" "DEV/DEV_MEASUREWALL01A"
			"uaxis" "[0 1 0 0] 0.25"
			"vaxis" "[0 0 -1 0] 0.25"
			"rotation" "0"
			"lightmapscale" "16"
			"smoothing_groups" "0"
		}
		side
		{
			"id" "827"
			"plane" "(-512 256 256) (-512 256 128) (-384 256 128)"
			"material" "DEV/DEV_MEASUREWALL01A"
			"uaxis" "[1 0 0 0] 0.25"
			"vaxis" "[0 0 -1 0] 0.25"
			"rotation" "0"
			"lightmapscale" "16"
			"smoothing_groups" "0"
		}
		side
		{
			"id" "828"
			"plane" "(-512 224 128) (-512 224 256) (-384 224 256)"
			"material" "DEV/DEV_MEASUREWALL01A"
			"uaxis" "[1 0 0 0] 0.25"
			"vaxis" "[0 0 -1 0] 0.25"
			"rotation" "0"
			"lightmapscale" "16"
			"smoothing_groups" "0"
		}
		editor
		{
			"color" "0 183 108"
			"visgroupshown" "1"
			"visgroupautoshown" "1"
		}
	}
	solid
	{
		"id" "1752"
		side
		{
			"id" "876"
			"plane" "(-512 -256 0) (-512 512 0) (-480 512 8)"
			"material" "NATURE/GRAVELFLOOR004B"
			"uaxis" "[1 0 0 0] 0.25"
			"vaxis" "[0 -1 0 0] 0.25"
			"rotation" "0"
			"lightmapscale" "16"
			"smoothing_groups" "0"
		}
		side
		{
			"id" "875"
			"plane" "(-512 512 -32) (-512 -256 -32) (-480 -256 -32)"
			"material" "DEV/DEV_MEASUREWALL01A"
			"uaxis" "[1 0 0 0] 0.25"
			"vaxis" "[0 -1 0 0] 0.25"
			"rotation" "0"
			"lightmapscale" "16"
			"smoothing_groups" "0"
		}
		side
		{
			"id" "874"
			"plane" "(-512 512 -32) (-512 512 0) (-512 -256 0)"
			"material" "DEV/DEV_MEASUREWALL01A"
			"uaxis" "[0 1 0 0] 0.25"
			"vaxis" "[0 0 -1 0] 0.25"
			"rotation" "0"
			"lightmapscale" "16"
			"smoothing_groups" "0"
		}
		side
		{
			"id" "873"
			"plane" "(-480 512 -32) (-480 512 8) (-512 512 0)"
			"material" "DEV/DEV_MEASUREWALL01A"
			"uaxis" "[1 0 0 0] 0.25"
			"vaxis" "[0 0 -1 0] 0.25"
			"rotation" "0"
			"lightmapscale" "16"
			"smoothing_groups" "0"
		}
		side
		{
			"id" "872"
			"plane" "(-512 -256 -32) (-512 -256 0) (-480 -256 8)"
			"material" "DEV/DEV_MEASUREWALL01A"
			"uaxis" "[1 0 0 0] 0.25"
			"vaxis" "[0 0 -1 0] 0.25"
			"rotation" "0"
			"lightmapscale" "16"
			"smoothing_groups" "0"
		}
		side
		{
			"id" "871"
			"plane" "(-480 -256 -32) (-480 -256 8) (-480 512 8)"
			"material" "NATURE/GRAVELFLOOR004B"
			"uaxis" "[0 1 0 0] 0.25"
			"vaxis" "[0 0 -1 0] 0.25"
			"rotation" "0"
			"lightmapscale" "16"
			"smoothing_groups" "0"
		}
		editor
		{
			"color" "0 173 142"
			"visgroupshown" "1"
			"visgroupautoshown" "1"
		}
	}
	solid
	{
		"id" "1753"
		side
		{
			"id" "882"
			"plane" "(-416 512 8) (-416 -256 8) (-480 -256 8)"
			"material" "NATURE/GRAVELFLOOR004B"
			"uaxis" "[1 0 0 0] 0.25"
			"vaxis" "[0 -1 0 0] 0.25"
			"rotation" "0"
			"lightmapscale" "16"
			"smoothing_groups" "0"
		}
		side
		{
			"id" "881"
			"plane" "(-416 -256 -32) (-416 512 -32) (-480 512 -32)"
			"material" "DEV/DEV_MEASUREWALL01A"
			"uaxis" "[1 0 0 0] 0.25"
			"vaxis" "[0 -1 0 0] 0.25"
			"rotation" "0"
			"lightmapscale" "16"
			"smoothing_groups" "0"
		}
		side
		{
			"id" "880"
			"plane" "(-416 512 -32) (-416 512 8) (-480 512 8)"
			"material" "DEV/DEV_MEASUREWALL01A"
			"uaxis" "[1 0 0 0] 0.25"
			"vaxis" "[0 0 -1 0] 0.25"
			"rotation" "0"
			"lightmapscale" "16"
			"smoothing_groups" "0"
		}
		side
		{
			"id" "879"
			"plane" "(-480 -256 -32) (-480 -256 8) (-416 -256 8)"
			"material" "DEV/DEV_MEASUREWALL01A"
			"uaxis" "[1 0 0 0] 0.25"
			"vaxis" "[0 0 -1 0] 0.25"
			"rotation" "0"
			"lightmapscale" "16"
			"smoothing_groups" "0"
		}
		side
		{
			"id" "878"
			"plane" "(-480 512 -32) (-480 512 8) (-480 -256 8)"
			"material" "NATURE/GRAVELFLOOR004B"
			"uaxis" "[0 1 0 0] 0.25"
			"vaxis" "[0 0 -1 0] 0.25"
			"rotation" "0"
			"lightmapscale" "16"
			"smoothing_groups" "0"
		}
		side
		{
			"id" "877"
			"plane" "(-416 -256 -32) (-416 -256 8) (-416 512 8)"
			"material" "NATURE/GRAVELFLOOR004B"
			"uaxis" "[0 1 0 0] 0.25"
			"vaxis" "[0 0 -1 0] 0.25"
			"rotation" "0"
			"lightmapscale" "16"
			"smoothing_groups" "0"
		}
		editor
		{
			"color" "0 173 142"
			"visgroupshown" "1"
			"visgroupautoshown" "1"
		}
	}
	solid
	{
		"id" "1754"
		side
		{
			"id" "888"
			"plane" "(-384 512 0) (-384 -256 0) (-416 -256 8)"
			"material" "NATURE/GRAVELFLOOR004B"
			"uaxis" "[1 0 0 0] 0.25"
			"vaxis" "[0 -1 0 0] 0.25"
			"rotation" "0"
			"lightmapscale" "16"
			"smoothing_groups" "0"
		}
		side
		{
			"id" "887"
			"plane" "(-384 -256 -32) (-384 512 -32) (-416 512 -32)"
			"material" "DEV/DEV_MEASUREWALL01A"
			"uaxis" "[1 0 0 0] 0.25"
			"vaxis" "[0 -1 0 0] 0.25"
			"rotation" "0"
			"lightmapscale" "16"
			"smoothing_groups" "0"
		}
		side
		{
			"id" "886"
			"plane" "(-384 -256 -32) (-384 -256 0) (-384 512 0)"
			"material" "DEV/DEV_MEASUREWALL01A"
			"uaxis" "[0 1 0 0] 0.25"
			"vaxis" "[0 0 -1 0] 0.25"
			"rotation" "0"
			"lightmapscale" "16"
			"smoothing_groups" "0"
		}
		side
		{
			"id" "885"
			"plane" "(-384 512 -32) (-384 512 0) (-416 512 8)"
			"material" "DEV/DEV_MEASUREWALL01A"
			"uaxis" "[1 0 0 0] 0.25"
			"vaxis" "[0 0 -1 0] 0.25"
			"rotation" "0"
			"lightmapscale" "16"
			"smoothing_groups" "0"
		}
		side
		{
			"id" "884"
			"plane" "(-416 -256 -32) (-416 -256 8) (-384 -256 0)"
			"material" "DEV/DEV_MEASUREWALL01A"
			"uaxis" "[1 0 0 0] 0.25"
			"vaxis" "[0 0 -1 0] 0.25"
			"rotation" "0"
			"lightmapscale" "16"
			"smoothing_groups" "0"
		}
		side
		{
			"id" "883"
			"plane" "(-416 512 -32) (-416 512 8) (-416 -256 8)"
			"material" "NATURE/GRAVELFLOOR004B"
			"uaxis" "[0 1 0 0] 0.25"
			"vaxis" "[0 0 -1 0] 0.25"
			"rotation" "0"
			"lightmapscale" "16"
			"smoothing_groups" "0"
		}
		editor
		{
			"color" "0 173 142"
			"visgroupshown" "1"
			"visgroupautoshown" "1"
		}
	}
	solid
	{
		"id" "1865"
		side
		{
			"id" "969"
			"plane" "(-476 -187 120) (-488 -212 120) (-476 -237 120)"
			"material" "DEV/DEV_MEASUREWALL01A"
			"uaxis" "[1 0 0 0] 0.25"
			"vaxis" "[0 -1 0 0] 0.25"
			"rotation" "0"
			"lightmapscale" "16"
			"smoothing_groups" "0"
		}
		side
		{
			"id" "970"
			"plane" "(-448 -176 152) (-420 -187 152) (-408 -212 152)"
			"material" "DEV/DEV_MEASUREWALL01A"
			"uaxis" "[1 0 0 0] 0.25"
			"vaxis" "[0 -1 0 0] 0.25"
			"rotation" "0"
			"lightmapscale" "16"
			"smoothing_groups" "0"
		}
		side
		{
			"id" "971"
			"plane" "(-448 -176 120) (-420 -187 120) (-420 -187 152)"
			"material" "DEV/DEV_MEASUREWALL01A"
			"uaxis" "[1 0 0 0] 0.25"
			"vaxis" "[0 0 -1 0] 0.25"
			"rotation" "0"
			"lightmapscale" "16"
			"smoothing_groups" "0"
		}
		side
		{
			"id" "972"
			"plane" "(-420 -187 120) (-408 -212 120) (-408 -212 152)"
			"material" "DEV/DEV_MEASUREWALL01A"
			"uaxis" "[0 1 0 0] 0.25"
			"vaxis" "[0 0 -1 0] 0.25"
			"rotation" "0"
			"lightmapscale" "16"
			"smoothing_groups" "0"
		}
		side
		{
			"id" "973"
			"plane" "(-408 -212 120) (-420 -237 120) (-420 -237 152)"
			"material" "DEV/DEV_MEASUREWALL01A"
			"uaxis" "[0 1 0 0] 0.25"
			"vaxis" "[0 0 -1 0] 0.25"
			"rotation" "0"
			"lightmapscale" "16"
			"smoothing_groups" "0"
		}
		side
		{
			"id" "974"
			"plane" "(-420 -237 120) (-448 -248 120) (-448 -248 152)"
			"material" "DEV/DEV_MEASUREWALL01A"
			"uaxis" "[1 0 0 0] 0.25"
			"vaxis" "[0 0 -1 0] 0.25"
			"rotation" "0"
			"lightmapscale" "16"
			"smoothing_groups" "0"
		}
		side
		{
			"id" "975"
			"plane" "(-448 -248 120) (-476 -237 120) (-476 -237 152)"
			"material" "DEV/DEV_MEASUREWALL01A"
			"uaxis" "[1 0 0 0] 0.25"
			"vaxis" "[0 0 -1 0] 0.25"
			"rotation" "0"
			"lightmapscale" "16"
			"smoothing_groups" "0"
		}
		side
		{
			"id" "976"
			"plane" "(-476 -237 120) (-488 -212 120) (-488 -212 152)"
			"material" "DEV/DEV_MEASUREWALL01A"
			"uaxis" "[0 1 0 0] 0.25"
			"vaxis" "[0 0 -1 0] 0.25"
			"rotation" "0"
			"lightmapscale" "16"
			"smoothing_groups" "0"
		}
		side
		{
			"id" "977"
			"plane" "(-488 -212 120) (-476 -187 120) (-476 -187 152)"
			"material" "DEV/DEV_MEASUREWALL01A"
			"uaxis" "[0 1 0 0] 0.25"
			"vaxis" "[0 0 -1 0] 0.25"
			"rotation" "0"
			"lightmapscale" "16"
			"smoothing_groups" "0"
		}
		side
		{
			"id" "978"
			"plane" "(-476 -187 120) (-448 -176 120) (-448 -176 152)"
			"material" "DEV/DEV_MEASUREWALL01A"
			"uaxis" "[1 0 0 0] 0.25"
			"vaxis" "[0 0 -1 0] 0.25"
			"rotation" "0"
			"lightmapscale" "16"
			"smoothing_groups" "0"
		}
		editor
		{
			"color" "0 117 126"
			"visgroupshown" "1"
			"visgroupautoshown" "1"
		}
	}
	solid
	{
		"id" "1872"
		side
		{
			"id" "1018"
			"plane" "(-476 -187 224) (-488 -212 224) (-476 -237 224)"
			"material" "DEV/DEV_MEASUREWALL01A"
			"uaxis" "[1 0 0 0] 0.25"
			"vaxis" "[0 -1 0 0] 0.25"
			"rotation" "0"
			"lightmapscale" "16"
			"smoothing_groups" "0"
		}
		side
		{
			"id" "1017"
			"plane" "(-448 -176 256) (-420 -187 256) (-408 -212 256)"
			"material" "DEV/DEV_MEASUREWALL01A"
			"uaxis" "[1 0 0 0] 0.25"
			"vaxis" "[0 -1 0 0] 0.25"
			"rotation" "0"
			"lightmapscale" "16"
			"smoothing_groups" "0"
		}
		side
		{
			"id" "1016"
			"plane" "(-448 -176 224) (-420 -187 224) (-420 -187 256)"
			"material" "DEV/DEV_MEASUREWALL01A"
			"uaxis" "[1 0 0 0] 0.25"
			"vaxis" "[0 0 -1 0] 0.25"
			"rotation" "0"
			"lightmapscale" "16"
			"smoothing_groups" "0"
		}
		side
		{
			"id" "1015"
			"plane" "(-420 -187 224) (-408 -212 224) (-408 -212 256)"
			"material" "DEV/DEV_MEASUREWALL01A"
			"uaxis" "[0 1 0 0] 0.25"
			"vaxis" "[0 0 -1 0] 0.25"
			"rotation" "0"
			"lightmapscale" "16"
			"smoothing_groups" "0"
		}
		side
		{
			"id" "1014"
			"plane" "(-408 -212 224) (-420 -237 224) (-420 -237 256)"
			"material" "DEV/DEV_MEASUREWALL01A"
			"uaxis" "[0 1 0 0] 0.25"
			"vaxis" "[0 0 -1 0] 0.25"
			"rotation" "0"
			"lightmapscale" "16"
			"smoothing_groups" "0"
		}
		side
		{
			"id" "1013"
			"plane" "(-420 -237 224) (-448 -248 224) (-448 -248 256)"
			"material" "DEV/DEV_MEASUREWALL01A"
			"uaxis" "[1 0 0 0] 0.25"
			"vaxis" "[0 0 -1 0] 0.25"
			"rotation" "0"
			"lightmapscale" "16"
			"smoothing_groups" "0"
		}
		side
		{
			"id" "1012"
			"plane" "(-448 -248 224) (-476 -237 224) (-476 -237 256)"
			"material" "DEV/DEV_MEASUREWALL01A"
			"uaxis" "[1 0 0 0] 0.25"
			"vaxis" "[0 0 -1 0] 0.25"
			"rotation" "0"
			"lightmapscale" "16"
			"smoothing_groups" "0"
		}
		side
		{
			"id" "1011"
			"plane" "(-476 -237 224) (-488 -212 224) (-488 -212 256)"
			"material" "DEV/DEV_MEASUREWALL01A"
			"uaxis" "[0 1 0 0] 0.25"
			"vaxis" "[0 0 -1 0] 0.25"
			"rotation" "0"
			"lightmapscale" "16"
			"smoothing_groups" "0"
		}
		side
		{
			"id" "1010"
			"plane" "(-488 -212 224) (-476 -187 224) (-476 -187 256)"
			"material" "DEV/DEV_MEASUREWALL01A"
			"uaxis" "[0 1 0 0] 0.25"
			"vaxis" "[0 0 -1 0] 0.25"
			"rotation" "0"
			"lightmapscale" "16"
			"smoothing_groups" "0"
		}
		side
		{
			"id" "1009"
			"plane" "(-476 -187 224) (-448 -176 224) (-448 -176 256)"
			"material" "DEV/DEV_MEASUREWALL01A"
			"uaxis" "[1 0 0 0] 0.25"
			"vaxis" "[0 0 -1 0] 0.25"
			"rotation" "0"
			"lightmapscale" "16"
			"smoothing_groups" "0"
		}
		editor
		{
			"color" "0 117 126"
			"visgroupshown" "1"
			"visgroupautoshown" "1"
		}
	}
	solid
	{
		"id" "1896"
		side
		{
			"id" "1102"
			"plane" "(-472 -185.431 152) (-476 -187 152) (-488 -212 152)"
			"material" "DEV/DEV_MEASUREWALL01A"
			"uaxis" "[1 0 0 0] 0.25"
			"vaxis" "[0 -1 0 0] 0.25"
			"rotation" "0"
			"lightmapscale" "16"
			"smoothing_groups" "0"
		}
		side
		{
			"id" "1101"
			"plane" "(-472 -238.57 224) (-476 -237 224) (-488 -212 224)"
			"material" "DEV/DEV_MEASUREWALL01A"
			"uaxis" "[1 0 0 0] 0.25"
			"vaxis" "[0 -1 0 0] 0.25"
			"rotation" "0"
			"lightmapscale" "16"
			"smoothing_groups" "0"
		}
		side
		{
			"id" "1100"
			"plane" "(-472 -238.571 152) (-476 -237 152) (-476 -237 224)"
			"material" "DEV/DEV_MEASUREWALL01A"
			"uaxis" "[1 0 0 0] 0.25"
			"vaxis" "[0 0 -1 0] 0.25"
			"rotation" "0"
			"lightmapscale" "16"
			"smoothing_groups" "0"
		}
		side
		{
			"id" "1099"
			"plane" "(-476 -237 152) (-488 -212 152) (-488 -212 224)"
			"material" "DEV/DEV_MEASUREWALL01A"
			"uaxis" "[0 1 0 0] 0.25"
			"vaxis" "[0 0 -1 0] 0.25"
			"rotation" "0"
			"lightmapscale" "16"
			"smoothing_groups" "0"
		}
		side
		{
			"id" "1098"
			"plane" "(-488 -212 152) (-476 -187 152) (-476 -187 224)"
			"material" "DEV/DEV_MEASUREWALL01A"
			"uaxis" "[0 1 0 0] 0.25"
			"vaxis" "[0 0 -1 0] 0.25"
			"rotation" "0"
			"lightmapscale" "16"
			"smoothing_groups" "0"
		}
		side
		{
			"id" "1097"
			"plane" "(-476 -187 152) (-472 -185.428 152) (-472 -185.429 224)"
			"material" "DEV/DEV_MEASUREWALL01A"
			"uaxis" "[1 0 0 0] 0.25"
			"vaxis" "[0 0 -1 0] 0.25"
			"rotation" "0"
			"lightmapscale" "16"
			"smoothing_groups" "0"
		}
		side
		{
			"id" "1096"
			"plane" "(-472 -185.429 152) (-472 -238.572 152) (-472 -238.572 224)"
			"material" "DEV/DEV_MEASUREWALL01A"
			"uaxis" "[0 1 0 0] 0.25"
			"vaxis" "[0 0 -1 0] 0.25"
			"rotation" "0"
			"lightmapscale" "16"
			"smoothing_groups" "0"
		}
		editor
		{
			"color" "0 117 126"
			"visgroupshown" "1"
			"visgroupautoshown" "1"
		}
	}
	solid
	{
		"id" "1898"
		side
		{
			"id" "1117"
			"plane" "(-420 -187 152) (-424 -185.429 152) (-424 -238.573 152)"
			"material" "DEV/DEV_MEASUREWALL01A"
			"uaxis" "[1 0 0 0] 0.25"
			"vaxis" "[0 -1 0 0] 0.25"
			"rotation" "0"
			"lightmapscale" "16"
			"smoothing_groups" "0"
		}
		side
		{
			"id" "1116"
			"plane" "(-424 -185.429 224) (-420 -187 224) (-408 -212 224)"
			"material" "DEV/DEV_MEASUREWALL01A"
			"uaxis" "[1 0 0 0] 0.25"
			"vaxis" "[0 -1 0 0] 0.25"
			"rotation" "0"
			"lightmapscale" "16"
			"smoothing_groups" "0"
		}
		side
		{
			"id" "1115"
			"plane" "(-424 -185.429 152) (-420 -187 152) (-420 -187 224)"
			"material" "DEV/DEV_MEASUREWALL01A"
			"uaxis" "[1 0 0 0] 0.25"
			"vaxis" "[0 0 -1 0] 0.25"
			"rotation" "0"
			"lightmapscale" "16"
			"smoothing_groups" "0"
		}
		side
		{
			"id" "1114"
			"plane" "(-420 -187 152) (-408 -212 152) (-408 -212 224)"
			"material" "DEV/DEV_MEASUREWALL01A"
			"uaxis" "[0 1 0 0] 0.25"
			"vaxis" "[0 0 -1 0] 0.25"
			"rotation" "0"
			"lightmapscale" "16"
			"smoothing_groups" "0"
		}
		side
		{
			"id" "1113"
			"plane" "(-408 -212 152) (-420 -237 152) (-420 -237 224)"
			"material" "DEV/DEV_MEASUREWALL01A"
			"uaxis" "[0 1 0 0] 0.25"
			"vaxis" "[0 0 -1 0] 0.25"
			"rotation" "0"
			"lightmapscale" "16"
			"smoothing_groups" "0"
		}
		side
		{
			"id" "1112"
			"plane" "(-420 -237 152) (-424 -238.571 152) (-424 -238.57 224)"
			"material" "DEV/DEV_MEASUREWALL01A"
			"uaxis" "[1 0 0 0] 0.25"
			"vaxis" "[0 0 -1 0] 0.25"
			"rotation" "0"
			"lightmapscale" "16"
			"smoothing_groups" "0"
		}
		side
		{
			"id" "1111"
			"plane" "(-424 -238.571 152) (-424 -185.43 152) (-424 -185.43 224)"
			"material" "DEV/DEV_MEASUREWALL01A"
			"uaxis" "[0 1 0 0] 0.25"
			"vaxis" "[0 0 -1 0] 0.25"
			"rotation" "0"
			"lightmapscale" "16"
			"smoothing_groups" "0"
		}
		editor
		{
			"color" "0 117 126"
			"visgroupshown" "1"
			"visgroupautoshown" "1"
		}
	}
	solid
	{
		"id" "1905"
		side
		{
			"id" "1124"
			"plane" "(-472 -232 152) (-472 -238.571 152) (-448 -248 152)"
			"material" "DEV/DEV_MEASUREWALL01A"
			"uaxis" "[1 0 0 0] 0.25"
			"vaxis" "[0 -1 0 0] 0.25"
			"rotation" "0"
			"lightmapscale" "16"
			"smoothing_groups" "0"
		}
		side
		{
			"id" "1123"
			"plane" "(-424 -232 224) (-424 -238.572 224) (-448 -248 224)"
			"material" "DEV/DEV_MEASUREWALL01A"
			"uaxis" "[1 0 0 0] 0.25"
			"vaxis" "[0 -1 0 0] 0.25"
			"rotation" "0"
			"lightmapscale" "16"
			"smoothing_groups" "0"
		}
		side
		{
			"id" "1122"
			"plane" "(-424 -238.57 152) (-448 -248 152) (-448 -248 224)"
			"material" "DEV/DEV_MEASUREWALL01A"
			"uaxis" "[1 0 0 0] 0.25"
			"vaxis" "[0 0 -1 0] 0.25"
			"rotation" "0"
			"lightmapscale" "16"
			"smoothing_groups" "0"
		}
		side
		{
			"id" "1121"
			"plane" "(-448 -248 152) (-472 -238.572 152) (-472 -238.572 224)"
			"material" "DEV/DEV_MEASUREWALL01A"
			"uaxis" "[1 0 0 0] 0.25"
			"vaxis" "[0 0 -1 0] 0.25"
			"rotation" "0"
			"lightmapscale" "16"
			"smoothing_groups" "0"
		}
		side
		{
			"id" "1120"
			"plane" "(-472 -238.572 152) (-472 -232 152) (-472 -232 224)"
			"material" "DEV/DEV_MEASUREWALL01A"
			"uaxis" "[0 1 0 0] 0.25"
			"vaxis" "[0 0 -1 0] 0.25"
			"rotation" "0"
			"lightmapscale" "16"
			"smoothing_groups" "0"
		}
		side
		{
			"id" "1119"
			"plane" "(-424 -232 152) (-424 -238.571 152) (-424 -238.571 224)"
			"material" "DEV/DEV_MEASUREWALL01A"
			"uaxis" "[0 1 0 0] 0.25"
			"vaxis" "[0 0 -1 0] 0.25"
			"rotation" "0"
			"lightmapscale" "16"
			"smoothing_groups" "0"
		}
		side
		{
			"id" "1118"
			"plane" "(-472 -232 152) (-424 -232 152) (-424 -232 224)"
			"material" "DEV/DEV_MEASUREWALL01A"
			"uaxis" "[1 0 0 0] 0.25"
			"vaxis" "[0 0 -1 0] 0.25"
			"rotation" "0"
			"lightmapscale" "16"
			"smoothing_groups" "0"
		}
		editor
		{
			"color" "0 117 126"
			"visgroupshown" "1"
			"visgroupautoshown" "1"
		}
	}
	solid
	{
		"id" "1921"
		side
		{
			"id" "1148"
			"plane" "(-512 -256 256) (-768 -256 256) (-768 -224 256)"
			"material" "DEV/DEV_MEASUREWALL01A"
			"uaxis" "[1 0 0 0] 0.25"
			"vaxis" "[0 -1 0 0] 0.25"
			"rotation" "0"
			"lightmapscale" "16"
			"smoothing_groups" "0"
		}
		side
		{
			"id" "1147"
			"plane" "(-512 -224 0) (-768 -224 0) (-768 -256 0)"
			"material" "DEV/DEV_MEASUREWALL01A"
			"uaxis" "[1 0 0 0] 0.25"
			"vaxis" "[0 -1 0 0] 0.25"
			"rotation" "0"
			"lightmapscale" "16"
			"smoothing_groups" "0"
		}
		side
		{
			"id" "1146"
			"plane" "(-768 -256 0) (-768 -224 0) (-768 -224 256)"
			"material" "DEV/DEV_MEASUREWALL01A"
			"uaxis" "[0 1 0 0] 0.25"
			"vaxis" "[0 0 -1 0] 0.25"
			"rotation" "0"
			"lightmapscale" "16"
			"smoothing_groups" "0"
		}
		side
		{
			"id" "1145"
			"plane" "(-768 -224 0) (-512 -224 0) (-512 -224 256)"
			"material" "DEV/DEV_MEASUREWALL01A"
			"uaxis" "[1 0 0 0] 0.25"
			"vaxis" "[0 0 -1 0] 0.25"
			"rotation" "0"
			"lightmapscale" "16"
			"smoothing_groups" "0"
		}
		side
		{
			"id" "1144"
			"plane" "(-512 -256 0) (-768 -256 0) (-768 -256 256)"
			"material" "DEV/DEV_MEASUREWALL01A"
			"uaxis" "[1 0 0 0] 0.25"
			"vaxis" "[0 0 -1 0] 0.25"
			"rotation" "0"
			"lightmapscale" "16"
			"smoothing_groups" "0"
		}
		side
		{
			"id" "1143"
			"plane" "(-512 -224 0) (-512 -256 0) (-512 -256 256)"
			"material" "DEV/DEV_MEASUREWALL01A"
			"uaxis" "[0 1 0 0] 0.25"
			"vaxis" "[0 0 -1 0] 0.25"
			"rotation" "0"
			"lightmapscale" "16"
			"smoothing_groups" "0"
		}
		editor
		{
			"color" "0 227 176"
			"visgroupshown" "1"
			"visgroupautoshown" "1"
		}
	}
	solid
	{
		"id" "1922"
		side
		{
			"id" "1154"
			"plane" "(-512 -256 256) (-512 -224 256) (-384 -224 256)"
			"material" "DEV/DEV_MEASUREWALL01A"
			"uaxis" "[1 0 0 0] 0.25"
			"vaxis" "[0 -1 0 0] 0.25"
			"rotation" "0"
			"lightmapscale" "16"
			"smoothing_groups" "0"
		}
		side
		{
			"id" "1153"
			"plane" "(-512 -224 128) (-512 -256 128) (-384 -256 128)"
			"material" "DEV/DEV_MEASUREWALL01A"
			"uaxis" "[1 0 0 0] 0.25"
			"vaxis" "[0 -1 0 0] 0.25"
			"rotation" "0"
			"lightmapscale" "16"
			"smoothing_groups" "0"
		}
		side
		{
			"id" "1152"
			"plane" "(-512 -256 128) (-512 -224 128) (-512 -224 256)"
			"material" "DEV/DEV_MEASUREWALL01A"
			"uaxis" "[0 1 0 0] 0.25"
			"vaxis" "[0 0 -1 0] 0.25"
			"rotation" "0"
			"lightmapscale" "16"
			"smoothing_groups" "0"
		}
		side
		{
			"id" "1151"
			"plane" "(-384 -224 128) (-384 -256 128) (-384 -256 256)"
			"material" "DEV/DEV_MEASUREWALL01A"
			"uaxis" "[0 1 0 0] 0.25"
			"vaxis" "[0 0 -1 0] 0.25"
			"rotation" "0"
			"lightmapscale" "16"
			"smoothing_groups" "0"
		}
		side
		{
			"id" "1150"
			"plane" "(-512 -224 128) (-384 -224 128) (-384 -224 256)"
			"material" "DEV/DEV_MEASUREWALL01A"
			"uaxis" "[1 0 0 0] 0.25"
			"vaxis" "[0 0 -1 0] 0.25"
			"rotation" "0"
			"lightmapscale" "16"
			"smoothing_groups" "0"
		}
		side
		{
			"id" "1149"
			"plane" "(-384 -256 128) (-512 -256 128) (-512 -256 256)"
			"material" "DEV/DEV_MEASUREWALL01A"
			"uaxis" "[1 0 0 0] 0.25"
			"vaxis" "[0 0 -1 0] 0.25"
			"rotation" "0"
			"lightmapscale" "16"
			"smoothing_groups" "0"
		}
		editor
		{
			"color" "0 183 108"
			"visgroupshown" "1"
			"visgroupautoshown" "1"
		}
	}
	solid
	{
		"id" "1923"
		side
		{
			"id" "1160"
			"plane" "(-384 -224 256) (-128 -224 256) (-128 -256 256)"
			"material" "DEV/DEV_MEASUREWALL01A"
			"uaxis" "[1 0 0 0] 0.25"
			"vaxis" "[0 -1 0 0] 0.25"
			"rotation" "0"
			"lightmapscale" "16"
			"smoothing_groups" "0"
		}
		side
		{
			"id" "1159"
			"plane" "(-384 -256 0) (-128 -256 0) (-128 -224 0)"
			"material" "DEV/DEV_MEASUREWALL01A"
			"uaxis" "[1 0 0 0] 0.25"
			"vaxis" "[0 -1 0 0] 0.25"
			"rotation" "0"
			"lightmapscale" "16"
			"smoothing_groups" "0"
		}
		side
		{
			"id" "1158"
			"plane" "(-128 -224 0) (-128 -256 0) (-128 -256 256)"
			"material" "DEV/DEV_MEASUREWALL01A"
			"uaxis" "[0 1 0 0] 0.25"
			"vaxis" "[0 0 -1 0] 0.25"
			"rotation" "0"
			"lightmapscale" "16"
			"smoothing_groups" "0"
		}
		side
		{
			"id" "1157"
			"plane" "(-384 -224 0) (-128 -224 0) (-128 -224 256)"
			"material" "DEV/DEV_MEASUREWALL01A"
			"uaxis" "[1 0 0 0] 0.25"
			"vaxis" "[0 0 -1 0] 0.25"
			"rotation" "0"
			"lightmapscale" "16"
			"smoothing_groups" "0"
		}
		side
		{
			"id" "1156"
			"plane" "(-128 -256 0) (-384 -256 0) (-384 -256 256)"
			"material" "DEV/DEV_MEASUREWALL01A"
			"uaxis" "[1 0 0 0] 0.25"
			"vaxis" "[0 0 -1 0] 0.25"
			"rotation" "0"
			"lightmapscale" "16"
			"smoothing_groups" "0"
		}
		side
		{
			"id" "1155"
			"plane" "(-384 -256 0) (-384 -224 0) (-384 -224 256)"
			"material" "DEV/DEV_MEASUREWALL01A"
			"uaxis" "[0 1 0 0] 0.25"
			"vaxis" "[0 0 -1 0] 0.25"
			"rotation" "0"
			"lightmapscale" "16"
			"smoothing_groups" "0"
		}
		editor
		{
			"color" "0 227 176"
			"visgroupshown" "1"
			"visgroupautoshown" "1"
		}
	}
	solid
	{
		"id" "11"
		side
		{
			"id" "1166"
			"plane" "(-768 256 256) (-512 256 256) (-512 224 256)"
			"material" "DEV/DEV_MEASUREWALL01A"
			"uaxis" "[1 0 0 0] 0.25"
			"vaxis" "[0 -1 0 0] 0.25"
			"rotation" "0"
			"lightmapscale" "16"
			"smoothing_groups" "0"
		}
		side
		{
			"id" "1165"
			"plane" "(-768 224 0) (-512 224 0) (-512 256 0)"
			"material" "DEV/DEV_MEASUREWALL01A"
			"uaxis" "[1 0 0 0] 0.25"
			"vaxis" "[0 -1 0 0] 0.25"
			"rotation" "0"
			"lightmapscale" "16"
			"smoothing_groups" "0"
		}
		side
		{
			"id" "1164"
			"plane" "(-768 256 0) (-768 256 256) (-768 224 256)"
			"material" "DEV/DEV_MEASUREWALL01A"
			"uaxis" "[0 1 0 0] 0.25"
			"vaxis" "[0 0 -1 0] 0.25"
			"rotation" "0"
			"lightmapscale" "16"
			"smoothing_groups" "0"
		}
		side
		{
			"id" "1163"
			"plane" "(-512 256 0) (-512 256 256) (-768 256 256)"
			"material" "DEV/DEV_MEASUREWALL01A"
			"uaxis" "[1 0 0 0] 0.25"
			"vaxis" "[0 0 -1 0] 0.25"
			"rotation" "0"
			"lightmapscale" "16"
			"smoothing_groups" "0"
		}
		side
		{
			"id" "1162"
			"plane" "(-768 224 0) (-768 224 256) (-512 224 256)"
			"material" "DEV/DEV_MEASUREWALL01A"
			"uaxis" "[1 0 0 0] 0.25"
			"vaxis" "[0 0 -1 0] 0.25"
			"rotation" "0"
			"lightmapscale" "16"
			"smoothing_groups" "0"
		}
		side
		{
			"id" "1161"
			"plane" "(-512 224 0) (-512 224 256) (-512 256 256)"
			"material" "DEV/DEV_MEASUREWALL01A"
			"uaxis" "[0 1 0 0] 0.25"
			"vaxis" "[0 0 -1 0] 0.25"
			"rotation" "0"
			"lightmapscale" "16"
			"smoothing_groups" "0"
		}
		editor
		{
			"color" "0 227 176"
			"visgroupshown" "1"
			"visgroupautoshown" "1"
		}
	}
}
entity
{
	"id" "41"
	"classname" "info_player_start"
	"angles" "0 180 0"
	"origin" "-340.692 320 0"
	editor
	{
		"color" "0 255 0"
		"visgroupshown" "1"
		"visgroupautoshown" "1"
		"logicalpos" "[0 6000]"
	}
}
entity
{
	"id" "387"
	"classname" "npc_barnacle"
	"angles" "0 0 0"
	"BaseSpeedModifier" "1.0"
	"disablereceiveshadows" "0"
	"disableshadows" "0"
	"EFlags" "0"
	"fademaxdist" "0"
	"fademindist" "-1"
	"fadescale" "1"
	"FriendlyFireOverride" "2"
	"hintlimiting" "0"
	"ignoreunseenenemies" "0"
	"physdamagescale" "1.0"
	"renderamt" "255"
	"rendercolor" "255 255 255"
	"renderfx" "0"
	"rendermode" "0"
	"RestDist" "16"
	"SetDynamicInteractions" "2"
	"SetForceServerRagdoll" "0"
	"SetProficiencyOverride" "-1"
	"sleepstate" "0"
	"spawnflags" "131588"
	"SpawnWithStartScripting" "0"
	"targetname" "barnacle2"
	"viewhideflags" "0"
	"wakeradius" "0"
	"wakesquad" "0"
	"origin" "-560 432 224"
	editor
	{
		"color" "0 200 200"
		"visgroupshown" "1"
		"visgroupautoshown" "1"
		"logicalpos" "[0 -12768]"
	}
}
entity
{
	"id" "410"
	"classname" "npc_barnacle"
	"angles" "0 0 0"
	"BaseSpeedModifier" "1.0"
	"disablereceiveshadows" "0"
	"disableshadows" "0"
	"EFlags" "0"
	"fademaxdist" "0"
	"fademindist" "-1"
	"fadescale" "1"
	"FriendlyFireOverride" "2"
	"hintlimiting" "0"
	"ignoreunseenenemies" "0"
	"physdamagescale" "1.0"
	"renderamt" "255"
	"rendercolor" "255 255 255"
	"renderfx" "0"
	"rendermode" "0"
	"RestDist" "16"
	"SetDynamicInteractions" "2"
	"SetForceServerRagdoll" "0"
	"SetProficiencyOverride" "-1"
	"sleepstate" "0"
	"spawnflags" "131588"
	"SpawnWithStartScripting" "0"
	"targetname" "barnacle3"
	"viewhideflags" "0"
	"wakeradius" "0"
	"wakesquad" "0"
	"origin" "-528 416 224"
	editor
	{
		"color" "0 200 200"
		"visgroupshown" "1"
		"visgroupautoshown" "1"
		"logicalpos" "[0 -12768]"
	}
}
entity
{
	"id" "444"
	"classname" "prop_static"
	"angles" "0 0 0"
	"disableselfshadowing" "0"
	"disableshadows" "0"
	"disablevertexlighting" "0"
	"fademaxdist" "0"
	"fademindist" "-1"
	"fadescale" "1"
	"ignorenormals" "0"
	"maxdxlevel" "0"
	"mindxlevel" "0"
	"model" "models/props_trainstation/trackends01.mdl"
	"screenspacefade" "0"
	"skin" "0"
	"solid" "6"
	"origin" "-448 508 11"
	editor
	{
		"color" "255 255 0"
		"visgroupshown" "1"
		"visgroupautoshown" "1"
		"logicalpos" "[0 -8768]"
	}
}
entity
{
	"id" "850"
	"classname" "prop_physics"
	"angles" "89.9999 0 0"
	"damagetoenablemotion" "0"
	"Damagetype" "0"
	"disablereceiveshadows" "0"
	"disableshadows" "0"
	"EFlags" "0"
	"ExplodeDamage" "0"
	"ExplodeRadius" "0"
	"fademaxdist" "0"
	"fademindist" "-1"
	"fadescale" "1"
	"forcetoenablemotion" "0"
	"inertiaScale" "1.0"
	"massScale" "0"
	"minhealthdmg" "0"
	"model" "models/props_debris/wood_board04a.mdl"
	"modelscale" "1.0"
	"nodamageforces" "0"
	"PerformanceMode" "0"
	"physdamagescale" "0.1"
	"pressuredelay" "0"
	"renderamt" "255"
	"rendercolor" "255 255 255"
	"renderfx" "0"
	"rendermode" "0"
	"SetBodyGroup" "0"
	"shadowcastdist" "0"
	"skin" "0"
	"spawnflags" "257"
	"viewhideflags" "0"
	"origin" "-544 456 156"
	editor
	{
		"color" "220 30 220"
		"visgroupshown" "1"
		"visgroupautoshown" "1"
		"logicalpos" "[0 1500]"
	}
}
entity
{
	"id" "858"
	"classname" "prop_physics"
	"angles" "-89.9999 87.5 0"
	"damagetoenablemotion" "0"
	"Damagetype" "0"
	"disablereceiveshadows" "0"
	"disableshadows" "0"
	"EFlags" "0"
	"ExplodeDamage" "0"
	"ExplodeRadius" "0"
	"fademaxdist" "0"
	"fademindist" "-1"
	"fadescale" "1"
	"forcetoenablemotion" "0"
	"inertiaScale" "1.0"
	"massScale" "0"
	"minhealthdmg" "0"
	"model" "models/props_debris/wood_board05a.mdl"
	"modelscale" "1.0"
	"nodamageforces" "0"
	"PerformanceMode" "0"
	"physdamagescale" "0.1"
	"pressuredelay" "0"
	"renderamt" "255"
	"rendercolor" "255 255 255"
	"renderfx" "0"
	"rendermode" "0"
	"SetBodyGroup" "0"
	"shadowcastdist" "0"
	"skin" "0"
	"spawnflags" "257"
	"viewhideflags" "0"
	connections
	{
		"OnPhysGunPickup" "barnacle3,DropTongue,,0,-1"
	}
	"origin" "-528 448 158"
	editor
	{
		"color" "220 30 220"
		"visgroupshown" "1"
		"visgroupautoshown" "1"
		"logicalpos" "[0 500]"
	}
}
entity
{
	"id" "862"
	"classname" "prop_physics"
	"angles" "89.9999 129 0"
	"damagetoenablemotion" "0"
	"Damagetype" "0"
	"disablereceiveshadows" "0"
	"disableshadows" "0"
	"EFlags" "0"
	"ExplodeDamage" "0"
	"ExplodeRadius" "0"
	"fademaxdist" "0"
	"fademindist" "-1"
	"fadescale" "1"
	"forcetoenablemotion" "0"
	"inertiaScale" "1.0"
	"massScale" "0"
	"minhealthdmg" "0"
	"model" "models/props_debris/wood_board03a.mdl"
	"modelscale" "1.0"
	"nodamageforces" "0"
	"PerformanceMode" "0"
	"physdamagescale" "0.1"
	"pressuredelay" "0"
	"renderamt" "255"
	"rendercolor" "255 255 255"
	"renderfx" "0"
	"rendermode" "0"
	"SetBodyGroup" "0"
	"shadowcastdist" "0"
	"skin" "0"
	"spawnflags" "257"
	"viewhideflags" "0"
	connections
	{
		"OnPhysGunPickup" "barnacle2,DropTongue,,0,-1"
	}
	"origin" "-560 432 160"
	editor
	{
		"color" "220 30 220"
		"visgroupshown" "1"
		"visgroupautoshown" "1"
		"logicalpos" "[0 3500]"
	}
}
entity
{
	"id" "846"
	"classname" "prop_physics"
	"angles" "89.9999 105 0"
	"damagetoenablemotion" "0"
	"Damagetype" "0"
	"disablereceiveshadows" "0"
	"disableshadows" "0"
	"EFlags" "0"
	"ExplodeDamage" "0"
	"ExplodeRadius" "0"
	"fademaxdist" "0"
	"fademindist" "-1"
	"fadescale" "1"
	"forcetoenablemotion" "0"
	"inertiaScale" "1.0"
	"massScale" "0"
	"minhealthdmg" "0"
	"model" "models/props_debris/wood_board05a.mdl"
	"modelscale" "1.0"
	"nodamageforces" "0"
	"PerformanceMode" "0"
	"physdamagescale" "0.1"
	"pressuredelay" "0"
	"renderamt" "255"
	"rendercolor" "255 255 255"
	"renderfx" "0"
	"rendermode" "0"
	"SetBodyGroup" "0"
	"shadowcastdist" "0"
	"skin" "0"
	"spawnflags" "257"
	"viewhideflags" "0"
	"origin" "-573 448 158"
	editor
	{
		"color" "220 30 220"
		"visgroupshown" "1"
		"visgroupautoshown" "1"
		"logicalpos" "[0 0]"
	}
}
entity
{
	"id" "1136"
	"classname" "prop_physics"
	"angles" "89.9999 341.5 0"
	"damagetoenablemotion" "0"
	"Damagetype" "0"
	"disablereceiveshadows" "0"
	"disableshadows" "0"
	"EFlags" "0"
	"ExplodeDamage" "0"
	"ExplodeRadius" "0"
	"fademaxdist" "0"
	"fademindist" "-1"
	"fadescale" "1"
	"forcetoenablemotion" "0"
	"inertiaScale" "1.0"
	"massScale" "0"
	"minhealthdmg" "0"
	"model" "models/props_debris/wood_board04a.mdl"
	"modelscale" "1.0"
	"nodamageforces" "0"
	"PerformanceMode" "0"
	"physdamagescale" "0.1"
	"pressuredelay" "0"
	"renderamt" "255"
	"rendercolor" "255 255 255"
	"renderfx" "0"
	"rendermode" "0"
	"SetBodyGroup" "0"
	"shadowcastdist" "0"
	"skin" "0"
	"spawnflags" "257"
	"viewhideflags" "0"
	"origin" "-560 480 156"
	editor
	{
		"color" "220 30 220"
		"visgroupshown" "1"
		"visgroupautoshown" "1"
		"logicalpos" "[0 1500]"
	}
}
entity
{
	"id" "1156"
	"classname" "prop_physics"
	"angles" "-89.9999 269.5 0"
	"damagetoenablemotion" "0"
	"Damagetype" "0"
	"disablereceiveshadows" "0"
	"disableshadows" "0"
	"EFlags" "0"
	"ExplodeDamage" "0"
	"ExplodeRadius" "0"
	"fademaxdist" "0"
	"fademindist" "-1"
	"fadescale" "1"
	"forcetoenablemotion" "0"
	"inertiaScale" "1.0"
	"massScale" "0"
	"minhealthdmg" "0"
	"model" "models/props_debris/wood_board05a.mdl"
	"modelscale" "1.0"
	"nodamageforces" "0"
	"PerformanceMode" "0"
	"physdamagescale" "0.1"
	"pressuredelay" "0"
	"renderamt" "255"
	"rendercolor" "255 255 255"
	"renderfx" "0"
	"rendermode" "0"
	"SetBodyGroup" "0"
	"shadowcastdist" "0"
	"skin" "0"
	"spawnflags" "1281"
	"viewhideflags" "0"
	"origin" "-372 368 158"
	editor
	{
		"color" "220 30 220"
		"visgroupshown" "1"
		"visgroupautoshown" "1"
		"logicalpos" "[0 500]"
	}
}
entity
{
	"id" "1160"
	"classname" "prop_physics"
	"angles" "89.9999 277 0"
	"damagetoenablemotion" "0"
	"Damagetype" "0"
	"disablereceiveshadows" "0"
	"disableshadows" "0"
	"EFlags" "0"
	"ExplodeDamage" "0"
	"ExplodeRadius" "0"
	"fademaxdist" "0"
	"fademindist" "-1"
	"fadescale" "1"
	"forcetoenablemotion" "0"
	"inertiaScale" "1.0"
	"massScale" "0"
	"minhealthdmg" "0"
	"model" "models/props_debris/wood_board05a.mdl"
	"modelscale" "1.0"
	"nodamageforces" "0"
	"PerformanceMode" "0"
	"physdamagescale" "0.1"
	"pressuredelay" "0"
	"renderamt" "255"
	"rendercolor" "255 255 255"
	"renderfx" "0"
	"rendermode" "0"
	"SetBodyGroup" "0"
	"shadowcastdist" "0"
	"skin" "0"
	"spawnflags" "1281"
	"viewhideflags" "0"
	"origin" "-344 376 158"
	editor
	{
		"color" "220 30 220"
		"visgroupshown" "1"
		"visgroupautoshown" "1"
		"logicalpos" "[0 0]"
	}
}
entity
{
	"id" "1168"
	"classname" "prop_physics"
	"angles" "89.9999 170.5 0"
	"damagetoenablemotion" "0"
	"Damagetype" "0"
	"disablereceiveshadows" "0"
	"disableshadows" "0"
	"EFlags" "0"
	"ExplodeDamage" "0"
	"ExplodeRadius" "0"
	"fademaxdist" "0"
	"fademindist" "-1"
	"fadescale" "1"
	"forcetoenablemotion" "0"
	"inertiaScale" "1.0"
	"massScale" "0"
	"minhealthdmg" "0"
	"model" "models/props_debris/wood_board04a.mdl"
	"modelscale" "1.0"
	"nodamageforces" "0"
	"PerformanceMode" "0"
	"physdamagescale" "0.1"
	"pressuredelay" "0"
	"renderamt" "255"
	"rendercolor" "255 255 255"
	"renderfx" "0"
	"rendermode" "0"
	"SetBodyGroup" "0"
	"shadowcastdist" "0"
	"skin" "0"
	"spawnflags" "1281"
	"viewhideflags" "0"
	"origin" "-360 320 156"
	editor
	{
		"color" "220 30 220"
		"visgroupshown" "1"
		"visgroupautoshown" "1"
		"logicalpos" "[0 1500]"
	}
}
entity
{
	"id" "1172"
	"classname" "prop_physics"
	"angles" "89.9999 67 0"
	"damagetoenablemotion" "0"
	"Damagetype" "0"
	"disablereceiveshadows" "0"
	"disableshadows" "0"
	"EFlags" "0"
	"ExplodeDamage" "0"
	"ExplodeRadius" "0"
	"fademaxdist" "0"
	"fademindist" "-1"
	"fadescale" "1"
	"forcetoenablemotion" "0"
	"inertiaScale" "1.0"
	"massScale" "0"
	"minhealthdmg" "0"
	"model" "models/props_debris/wood_board03a.mdl"
	"modelscale" "1.0"
	"nodamageforces" "0"
	"PerformanceMode" "0"
	"physdamagescale" "0.1"
	"pressuredelay" "0"
	"renderamt" "255"
	"rendercolor" "255 255 255"
	"renderfx" "0"
	"rendermode" "0"
	"SetBodyGroup" "0"
	"shadowcastdist" "0"
	"skin" "0"
	"spawnflags" "1281"
	"viewhideflags" "0"
	connections
	{
		"OnPhysGunPickup" "barnacle1,DropTongue,,0,1"
	}
	"origin" "-352 372 160"
	editor
	{
		"color" "220 30 220"
		"visgroupshown" "1"
		"visgroupautoshown" "1"
		"logicalpos" "[0 3500]"
	}
}
entity
{
	"id" "1176"
	"classname" "npc_barnacle"
	"angles" "0 0 0"
	"BaseSpeedModifier" "1.0"
	"disablereceiveshadows" "0"
	"disableshadows" "0"
	"EFlags" "0"
	"fademaxdist" "0"
	"fademindist" "-1"
	"fadescale" "1"
	"FriendlyFireOverride" "2"
	"hintlimiting" "0"
	"ignoreunseenenemies" "0"
	"physdamagescale" "1.0"
	"renderamt" "255"
	"rendercolor" "255 255 255"
	"renderfx" "0"
	"rendermode" "0"
	"RestDist" "16"
	"SetDynamicInteractions" "2"
	"SetForceServerRagdoll" "0"
	"SetProficiencyOverride" "-1"
	"sleepstate" "0"
	"spawnflags" "131588"
	"SpawnWithStartScripting" "0"
	"squadname" "headcrab_eaters1"
	"targetname" "barnacle1"
	"viewhideflags" "0"
	"wakeradius" "0"
	"wakesquad" "0"
	"origin" "-376 384 224"
	editor
	{
		"color" "0 200 200"
		"visgroupshown" "1"
		"visgroupautoshown" "1"
		"logicalpos" "[0 -12768]"
	}
}
entity
{
	"id" "1180"
	"classname" "npc_barnacle"
	"angles" "0 0 0"
	"BaseSpeedModifier" "1.0"
	"disablereceiveshadows" "0"
	"disableshadows" "0"
	"EFlags" "0"
	"fademaxdist" "0"
	"fademindist" "-1"
	"fadescale" "1"
	"FriendlyFireOverride" "2"
	"hintlimiting" "0"
	"ignoreunseenenemies" "0"
	"physdamagescale" "1.0"
	"renderamt" "255"
	"rendercolor" "255 255 255"
	"renderfx" "0"
	"rendermode" "0"
	"RestDist" "16"
	"SetDynamicInteractions" "2"
	"SetForceServerRagdoll" "0"
	"SetProficiencyOverride" "-1"
	"sleepstate" "0"
	"spawnflags" "131588"
	"SpawnWithStartScripting" "0"
	"squadname" "headcrab_eaters1"
	"targetname" "barnacle1"
	"viewhideflags" "0"
	"wakeradius" "0"
	"wakesquad" "0"
	"origin" "-344 400 224"
	editor
	{
		"color" "0 200 200"
		"visgroupshown" "1"
		"visgroupautoshown" "1"
		"logicalpos" "[0 -12768]"
	}
}
entity
{
	"id" "1645"
	"classname" "item_suit"
	"angles" "0 180 0"
	"disableshadows" "0"
	"fademaxdist" "0"
	"fademindist" "-1"
	"fadescale" "1"
	"origin" "-344 320 0"
	editor
	{
		"color" "0 0 200"
		"visgroupshown" "1"
		"visgroupautoshown" "1"
		"logicalpos" "[0 6000]"
	}
}
entity
{
	"id" "1652"
	"classname" "weapon_physcannon"
	"angles" "0 180 0"
	"disablereceiveshadows" "0"
	"EFlags" "0"
	"fademaxdist" "0"
	"fademindist" "-1"
	"fadescale" "1"
	"renderamt" "255"
	"rendercolor" "255 255 255"
	"renderfx" "0"
	"rendermode" "0"
	"SetAmmo1" "0"
	"SetAmmo2" "0"
	"viewhideflags" "0"
	"origin" "-352 320 16"
	editor
	{
		"color" "0 0 200"
		"visgroupshown" "1"
		"visgroupautoshown" "1"
		"logicalpos" "[0 6000]"
	}
}
entity
{
	"id" "1164"
	"classname" "prop_physics"
	"angles" "89.9999 172 0"
	"damagetoenablemotion" "0"
	"Damagetype" "0"
	"disablereceiveshadows" "0"
	"disableshadows" "0"
	"EFlags" "0"
	"ExplodeDamage" "0"
	"ExplodeRadius" "0"
	"fademaxdist" "0"
	"fademindist" "-1"
	"fadescale" "1"
	"forcetoenablemotion" "0"
	"inertiaScale" "1.0"
	"massScale" "0"
	"minhealthdmg" "0"
	"model" "models/props_debris/wood_board04a.mdl"
	"modelscale" "1.0"
	"nodamageforces" "0"
	"PerformanceMode" "0"
	"physdamagescale" "0.1"
	"pressuredelay" "0"
	"renderamt" "255"
	"rendercolor" "255 255 255"
	"renderfx" "0"
	"rendermode" "0"
	"SetBodyGroup" "0"
	"shadowcastdist" "0"
	"skin" "0"
	"spawnflags" "1281"
	"viewhideflags" "0"
	"origin" "-360.644 360.045 156"
	editor
	{
		"color" "220 30 220"
		"visgroupshown" "1"
		"visgroupautoshown" "1"
		"logicalpos" "[0 1500]"
	}
}
entity
{
	"id" "1710"
	"classname" "prop_dynamic"
	"angles" "-13.5 90 0"
	"DisableBoneFollowers" "0"
	"disablereceiveshadows" "0"
	"disableshadows" "0"
	"EFlags" "0"
	"ExplodeDamage" "0"
	"ExplodeRadius" "0"
	"fademaxdist" "0"
	"fademindist" "-1"
	"fadescale" "1"
	"MaxAnimTime" "10"
	"maxdxlevel" "0"
	"MinAnimTime" "5"
	"mindxlevel" "0"
	"model" "models/combine_bmpod.mdl"
	"modelscale" "1.0"
	"PerformanceMode" "0"
	"pressuredelay" "0"
	"RandomAnimation" "0"
	"renderamt" "255"
	"rendercolor" "255 255 255"
	"renderfx" "0"
	"rendermode" "0"
	"SetBodyGroup" "0"
	"skin" "0"
	"solid" "6"
	"StartDisabled" "0"
	"viewhideflags" "0"
	"origin" "-448 -192 1"
	editor
	{
		"color" "220 30 220"
		"visgroupshown" "1"
		"visgroupautoshown" "1"
		"logicalpos" "[0 0]"
	}
}
cameras
{
	"activecamera" "-1"
}
cordon
{
	"mins" "(-1024 -1024 -1024)"
	"maxs" "(1024 1024 1024)"
	"active" "0"
}
