// Created by Crowbar 0.68
version 1
nodes
  0 "ValveBiped.Bip01" -1
  1 "ValveBiped.Bip01_Pelvis" 0
  2 "ValveBiped.Bip01_L_Thigh" 1
  3 "ValveBiped.Bip01_L_Calf" 2
  4 "ValveBiped.Bip01_L_Foot" 3
  5 "ValveBiped.Bip01_L_Toe0" 4
  6 "ValveBiped.Bip01_R_Thigh" 1
  7 "ValveBiped.Bip01_R_Calf" 6
  8 "ValveBiped.Bip01_R_Foot" 7
  9 "ValveBiped.Bip01_R_Toe0" 8
  10 "ValveBiped.Bip01_Spine" 0
  11 "ValveBiped.Bip01_Spine1" 10
  12 "ValveBiped.Bip01_Spine2" 11
  13 "ValveBiped.Bip01_Spine4" 12
  14 "ValveBiped.Bip01_Neck1" 13
  15 "ValveBiped.Bip01_Head1" 14
  16 "ValveBiped.Bip01_L_Clavicle" 13
  17 "ValveBiped.Bip01_L_UpperArm" 16
  18 "ValveBiped.Bip01_L_Forearm" 17
  19 "ValveBiped.Bip01_L_Hand" 18
  20 "ValveBiped.Bip01_L_Finger4" 19
  21 "ValveBiped.Bip01_L_Finger41" 20
  22 "ValveBiped.Bip01_L_Finger3" 19
  23 "ValveBiped.Bip01_L_Finger2" 19
  24 "ValveBiped.Bip01_L_Finger1" 19
  25 "ValveBiped.Bip01_L_Finger0" 19
  26 "ValveBiped.Bip01_L_Finger01" 25
  27 "ValveBiped.Bip01_R_Clavicle" 13
  28 "ValveBiped.Bip01_R_UpperArm" 27
  29 "ValveBiped.Bip01_R_Forearm" 28
  30 "ValveBiped.Bip01_R_Hand" 29
  31 "ValveBiped.Bip01_R_Finger4" 30
  32 "ValveBiped.Bip01_R_Finger41" 31
  33 "ValveBiped.Bip01_R_Finger3" 30
  34 "ValveBiped.Bip01_R_Finger2" 30
  35 "ValveBiped.Bip01_R_Finger1" 30
  36 "ValveBiped.Bip01_R_Finger0" 30
  37 "ValveBiped.Bip01_R_Finger01" 36
  38 "ValveBiped.Bip01_L_Finger11" 24
  39 "ValveBiped.Bip01_L_Finger12" 38
  40 "ValveBiped.Bip01_L_Finger02" 26
  41 "ValveBiped.Bip01_R_Finger21" 34
  42 "ValveBiped.Bip01_R_Finger22" 41
  43 "ValveBiped.Bip01_R_Finger11" 35
  44 "ValveBiped.Bip01_R_Finger12" 43
  45 "ValveBiped.Bip01_R_Finger02" 37
end
skeleton
  time 0
    0 -0.207331 -1.112096 -0.486671 0.241582 -0.156686 -1.720271
    1 0.000000 0.000000 0.000000 0.000000 0.000000 0.000000
    2 -0.000001 0.000000 0.000000 0.212154 0.005126 -0.183780
    3 -0.000002 0.000000 0.000000 0.000000 0.000000 0.113852
    4 -0.000002 0.000000 0.000000 -0.243756 -0.010552 -0.144950
    5 -0.000003 0.000000 0.000000 0.000000 0.000000 0.000000
    6 0.000001 0.000001 0.000000 0.072604 -0.249443 -0.123564
    7 -0.000005 0.000001 -0.000001 0.000000 0.000000 0.001846
    8 -0.000008 -0.000001 0.000001 0.010857 -0.049750 0.006326
    9 -0.000001 0.000000 0.000000 0.000000 0.000000 0.000000
    10 -0.000001 0.000000 0.000000 0.000000 0.000000 0.000000
    11 -0.000002 0.000000 0.000000 -0.124166 0.108033 -0.201262
    12 0.000002 0.000000 0.000000 -0.134319 0.141215 -0.225274
    13 -0.000001 0.000000 0.000000 -0.126865 -0.013967 0.000887
    14 -0.000001 0.000000 0.000000 -0.000003 -0.000001 0.232490
    15 0.000004 0.000000 0.000000 -0.390077 -0.034662 0.492149
    16 0.000001 -0.000002 -0.000001 0.000000 0.157079 0.422152
    17 -0.000002 -0.000002 0.000000 -0.500435 -0.111528 -0.487685
    18 -0.000002 0.000000 0.000001 0.000000 0.000000 -0.078799
    19 -0.000002 0.000000 0.000000 0.157057 0.040583 0.004412
    20 -0.000001 0.000000 0.000002 0.000000 0.000000 0.000000
    21 0.000001 0.000003 0.000001 0.000000 0.000000 0.000000
    22 0.000001 0.000002 -0.000001 0.000000 0.000000 0.000000
    23 0.000001 0.000003 0.000000 0.000000 0.000000 0.000000
    24 -0.000001 0.000000 -0.000002 0.000000 0.000000 0.000000
    25 0.000000 0.000001 -0.000001 0.000000 0.000000 0.000000
    26 -0.000002 0.000001 -0.000001 0.000000 0.000000 0.000000
    27 0.000000 -0.000002 0.000000 -0.071791 -0.158486 0.236241
    28 0.000000 0.000004 0.000001 0.435994 0.666837 -0.583028
    29 -0.000002 -0.000002 0.000000 0.000000 0.000000 0.108468
    30 -0.000001 -0.000002 -0.000002 -0.203964 0.163679 -0.004534
    31 -0.000004 -0.000002 0.000001 0.000000 0.000000 0.000000
    32 -0.000003 0.000003 0.000002 0.000000 0.000000 0.000000
    33 -0.000006 -0.000001 -0.000001 0.000000 0.000000 0.000000
    34 -0.000003 -0.000001 -0.000001 0.000000 0.000000 0.000000
    35 -0.000003 0.000001 0.000001 0.000000 0.000000 0.000000
    36 -0.000007 0.000000 0.000004 0.000000 0.000000 0.000000
    37 0.000003 -0.000001 -0.000004 0.000000 0.000000 0.000000
    38 0.000000 0.000001 0.000000 0.000000 0.000000 0.000000
    39 -0.000002 0.000000 0.000000 0.000000 0.000000 0.000000
    40 -0.000004 0.000001 0.000000 0.000000 0.000000 0.000000
    41 -0.000003 -0.000002 0.000000 0.000000 0.000000 0.000000
    42 0.000003 0.000002 -0.000002 0.000000 0.000000 0.000000
    43 -0.000002 -0.000003 0.000000 0.000000 0.000000 0.000000
    44 -0.000003 0.000002 -0.000002 0.000000 0.000000 0.000000
    45 0.000000 -0.000005 -0.000002 0.000000 0.000000 0.000000
end
