// Created by Crowbar 0.68
version 1
nodes
  0 "ValveBiped.Bip01" -1
  1 "ValveBiped.Bip01_Pelvis" 0
  2 "ValveBiped.Bip01_L_Thigh" 1
  3 "ValveBiped.Bip01_L_Calf" 2
  4 "ValveBiped.Bip01_L_Foot" 3
  5 "ValveBiped.Bip01_L_Toe0" 4
  6 "ValveBiped.Bip01_R_Thigh" 1
  7 "ValveBiped.Bip01_R_Calf" 6
  8 "ValveBiped.Bip01_R_Foot" 7
  9 "ValveBiped.Bip01_R_Toe0" 8
  10 "ValveBiped.Bip01_Spine" 0
  11 "ValveBiped.Bip01_Spine1" 10
  12 "ValveBiped.Bip01_Spine2" 11
  13 "ValveBiped.Bip01_Spine4" 12
  14 "ValveBiped.Bip01_Neck1" 13
  15 "ValveBiped.Bip01_Head1" 14
  16 "ValveBiped.Bip01_L_Clavicle" 13
  17 "ValveBiped.Bip01_L_UpperArm" 16
  18 "ValveBiped.Bip01_L_Forearm" 17
  19 "ValveBiped.Bip01_L_Hand" 18
  20 "ValveBiped.Bip01_L_Finger4" 19
  21 "ValveBiped.Bip01_L_Finger41" 20
  22 "ValveBiped.Bip01_L_Finger3" 19
  23 "ValveBiped.Bip01_L_Finger2" 19
  24 "ValveBiped.Bip01_L_Finger1" 19
  25 "ValveBiped.Bip01_L_Finger0" 19
  26 "ValveBiped.Bip01_L_Finger01" 25
  27 "ValveBiped.Bip01_R_Clavicle" 13
  28 "ValveBiped.Bip01_R_UpperArm" 27
  29 "ValveBiped.Bip01_R_Forearm" 28
  30 "ValveBiped.Bip01_R_Hand" 29
  31 "ValveBiped.Bip01_R_Finger4" 30
  32 "ValveBiped.Bip01_R_Finger41" 31
  33 "ValveBiped.Bip01_R_Finger3" 30
  34 "ValveBiped.Bip01_R_Finger2" 30
  35 "ValveBiped.Bip01_R_Finger1" 30
  36 "ValveBiped.Bip01_R_Finger0" 30
  37 "ValveBiped.Bip01_R_Finger01" 36
  38 "ValveBiped.Bip01_L_Finger11" 24
  39 "ValveBiped.Bip01_L_Finger12" 38
  40 "ValveBiped.Bip01_L_Finger02" 26
  41 "ValveBiped.Bip01_R_Finger21" 34
  42 "ValveBiped.Bip01_R_Finger22" 41
  43 "ValveBiped.Bip01_R_Finger11" 35
  44 "ValveBiped.Bip01_R_Finger12" 43
  45 "ValveBiped.Bip01_R_Finger02" 37
end
skeleton
  time 0
    0 0.032044 -1.648483 15.993659 1.285891 -0.017783 -0.432205
    1 0.000000 0.000000 0.000000 0.000000 0.000000 0.000000
    2 3.984024 0.000005 0.000007 -2.311402 -1.329618 -0.789479
    3 19.319893 0.000003 0.000005 0.000000 0.000000 2.265655
    4 16.701588 -0.000003 -0.000001 0.130823 -0.009958 -1.233999
    5 6.534994 0.000003 0.000000 -0.005401 -0.004871 -1.089339
    6 -3.984010 0.000007 0.000008 -0.699542 -0.296847 -2.436374
    7 19.319881 0.000001 -0.000002 0.000000 0.000000 2.612170
    8 16.701582 0.000000 0.000003 -0.038571 0.077639 -1.826303
    9 6.534990 -0.000001 -0.000001 -0.077798 -0.004517 -1.352407
    10 0.000008 4.212784 -1.689684 1.490550 -0.137538 1.618973
    11 3.620123 0.000000 0.000000 -0.171042 -0.063771 0.172844
    12 3.445708 0.000000 0.000000 -0.171559 -0.062356 0.261884
    13 7.391220 -0.000004 -0.000004 0.000000 0.000001 0.155687
    14 3.178821 0.000002 0.000000 3.141590 -0.000002 0.364773
    15 3.706906 0.000007 0.000000 0.761218 0.199831 0.295660
    16 2.023580 0.907751 0.852527 4.162498 -1.282498 0.389110
    17 4.983664 -0.000002 -0.000003 -2.213679 -0.376982 -0.101548
    18 10.904952 -0.000001 -0.000002 -0.000002 0.000001 -0.455643
    19 10.565869 0.000001 -0.000035 0.370313 -0.008272 0.249370
    20 3.464125 0.088921 -0.780289 -0.266522 0.272889 -0.114263
    21 1.149894 0.000002 -0.000006 0.000000 -0.053881 0.012281
    22 3.616506 0.088098 -0.193362 -0.074871 0.173485 -0.083578
    23 3.507635 -0.030216 0.336392 0.087874 -0.039626 -0.002228
    24 3.709202 0.065919 0.920439 0.315356 -0.197665 -0.104771
    25 0.820749 -0.193686 0.888225 -1.372855 -0.498548 -0.474342
    26 1.123137 0.000000 0.000000 0.000000 -0.012010 0.116354
    27 2.023587 0.907750 -0.852533 -3.823907 1.140740 0.819765
    28 4.983665 -0.000004 -0.000003 3.959621 1.281484 1.690110
    29 10.904951 0.000008 0.000004 0.000002 0.000000 -0.411225
    30 10.565887 -0.000005 0.000007 -0.489644 -0.091763 0.072290
    31 3.464089 0.095513 0.779504 0.265534 -0.273843 -0.111899
    32 1.149899 -0.000004 -0.000001 0.000000 0.053975 0.011863
    33 3.616475 0.089729 0.192608 0.074650 -0.174185 -0.082089
    34 3.507605 -0.033056 -0.336130 -0.087881 0.039606 -0.002554
    35 3.709167 0.058126 -0.920966 -0.315627 0.196774 -0.106443
    36 0.820726 -0.201210 -0.886554 1.300502 0.122960 -0.720452
    37 1.123136 0.000000 0.000001 -0.000006 0.012724 0.116279
    38 1.321860 -0.000001 0.000000 0.000000 0.046519 -0.073857
    39 0.977461 0.000001 0.000005 0.000000 0.011737 -0.061857
    40 0.860970 0.000001 0.000000 0.000000 -0.000207 -0.180622
    41 1.575062 0.000002 -0.000004 0.000000 -0.055713 -0.133233
    42 1.060835 -0.000003 0.000000 0.000000 0.054561 -0.056841
    43 1.321865 -0.000004 -0.000002 0.000000 -0.047130 -0.073469
    44 0.977458 0.000000 0.000009 0.000000 -0.012250 -0.061757
    45 0.860970 -0.000002 -0.000004 0.000000 -0.000893 -0.180620
  time 1
    0 0.878873 -1.339880 15.353015 1.302049 -0.015984 -0.426168
    1 0.000000 0.000000 0.000000 0.000000 0.000000 0.000000
    2 3.984024 0.000005 0.000007 -2.505398 -1.378590 -0.584185
    3 19.319893 0.000003 0.000005 0.000000 0.000000 2.282483
    4 16.701588 -0.000003 -0.000001 0.125820 -0.003420 -1.201737
    5 6.534994 0.000003 0.000000 -0.005401 -0.004871 -1.089339
    6 -3.984010 0.000007 0.000008 -0.665963 -0.310647 -2.431494
    7 19.319881 0.000001 -0.000002 0.000000 0.000000 2.651353
    8 16.701582 0.000000 0.000003 -0.044372 0.099670 -1.874375
    9 6.534990 -0.000001 -0.000001 -0.077834 -0.004529 -1.346290
    10 0.000008 4.212784 -1.689684 1.504691 -0.125411 1.619260
    11 3.620123 0.000000 0.000000 -0.150278 -0.083522 0.181419
    12 3.445708 0.000000 0.000000 -0.156579 -0.081004 0.274072
    13 7.391220 -0.000004 -0.000004 0.000000 0.000001 0.145177
    14 3.178821 0.000002 0.000000 3.141590 -0.000002 0.364773
    15 3.706906 0.000007 0.000000 0.719520 0.273999 0.474906
    16 2.023580 0.907751 0.852527 4.162498 -1.282498 0.389110
    17 4.983664 -0.000002 -0.000003 -2.302017 -0.407511 -0.197753
    18 10.904952 -0.000001 -0.000002 -0.000002 0.000001 -0.629145
    19 10.565869 0.000001 -0.000035 0.370359 -0.008272 0.249370
    20 3.464125 0.088921 -0.780289 -0.266522 0.272889 -0.114263
    21 1.149894 0.000002 -0.000006 0.000000 -0.053881 0.012281
    22 3.616506 0.088098 -0.193362 -0.074871 0.173485 -0.083578
    23 3.507635 -0.030216 0.336392 0.087874 -0.039626 -0.002228
    24 3.709202 0.065919 0.920439 0.315356 -0.197665 -0.104771
    25 0.820749 -0.193686 0.888225 -1.372855 -0.498548 -0.474342
    26 1.123137 0.000000 0.000000 0.000000 -0.012010 0.116354
    27 2.023587 0.907750 -0.852533 -3.823907 1.140740 0.819765
    28 4.983665 -0.000004 -0.000003 4.240724 1.258083 1.686468
    29 10.904951 0.000008 0.000004 0.000002 0.000000 -0.382202
    30 10.565887 -0.000005 0.000007 -0.489644 -0.091763 0.072290
    31 3.464089 0.095513 0.779504 0.265534 -0.273843 -0.111899
    32 1.149899 -0.000004 -0.000001 0.000000 0.053975 0.011863
    33 3.616475 0.089729 0.192608 0.074650 -0.174185 -0.082089
    34 3.507605 -0.033056 -0.336130 -0.087881 0.039606 -0.002554
    35 3.709167 0.058126 -0.920966 -0.315627 0.196774 -0.106443
    36 0.820726 -0.201210 -0.886554 1.300502 0.122960 -0.720452
    37 1.123136 0.000000 0.000001 -0.000006 0.012724 0.116279
    38 1.321860 -0.000001 0.000000 0.000000 0.046519 -0.073857
    39 0.977461 0.000001 0.000005 0.000000 0.011737 -0.061857
    40 0.860970 0.000001 0.000000 0.000000 -0.000207 -0.180622
    41 1.575062 0.000002 -0.000004 0.000000 -0.055713 -0.133233
    42 1.060835 -0.000003 0.000000 0.000000 0.054561 -0.056841
    43 1.321865 -0.000004 -0.000002 0.000000 -0.047130 -0.073469
    44 0.977458 0.000000 0.000009 0.000000 -0.012250 -0.061757
    45 0.860970 -0.000002 -0.000004 0.000000 -0.000893 -0.180620
  time 2
    0 3.324003 -0.832052 13.876407 1.340681 -0.010799 -0.423056
    1 0.000000 0.000000 0.000000 0.000000 0.000000 0.000000
    2 3.984024 0.000005 0.000007 -3.386839 -1.407865 0.283269
    3 19.319893 0.000003 0.000005 0.000000 0.000000 2.320179
    4 16.701588 -0.000003 -0.000001 0.140517 -0.022620 -1.127742
    5 6.534994 0.000003 0.000000 -0.005401 -0.004871 -1.089339
    6 -3.984010 0.000007 0.000008 -0.597576 -0.364797 -2.454295
    7 19.319881 0.000001 -0.000002 0.000000 0.000000 2.739139
    8 16.701582 0.000000 0.000003 -0.054488 0.131646 -1.948847
    9 6.534990 -0.000001 -0.000001 -0.077930 -0.004553 -1.329468
    10 0.000008 4.212784 -1.689684 1.527269 -0.104834 1.619835
    11 3.620123 0.000000 0.000000 -0.105685 -0.130753 0.195603
    12 3.445708 0.000000 0.000000 -0.122423 -0.126294 0.297280
    13 7.391220 -0.000004 -0.000004 0.000000 0.000001 0.121207
    14 3.178821 0.000002 0.000000 3.141590 -0.000002 0.364773
    15 3.706906 0.000007 0.000000 0.685190 0.332996 0.617039
    16 2.023580 0.907751 0.852527 4.162593 -1.282498 0.389110
    17 4.983664 -0.000002 -0.000003 -2.296211 -0.490321 -0.376314
    18 10.904952 -0.000001 -0.000002 -0.000002 0.000001 -0.885820
    19 10.565869 0.000001 -0.000035 0.370359 -0.008272 0.249370
    20 3.464125 0.088921 -0.780289 -0.266522 0.272889 -0.114263
    21 1.149894 0.000002 -0.000006 0.000000 -0.053881 0.012281
    22 3.616506 0.088098 -0.193362 -0.074871 0.173485 -0.083578
    23 3.507635 -0.030216 0.336392 0.087874 -0.039626 -0.002228
    24 3.709202 0.065919 0.920439 0.315356 -0.197665 -0.104771
    25 0.820749 -0.193686 0.888225 -1.372855 -0.498548 -0.474342
    26 1.123137 0.000000 0.000000 0.000000 -0.012010 0.116354
    27 2.023587 0.907750 -0.852533 -3.823907 1.140740 0.819765
    28 4.983665 -0.000004 -0.000003 4.140781 1.297084 1.296481
    29 10.904951 0.000008 0.000004 0.000002 0.000000 -0.604938
    30 10.565887 -0.000005 0.000007 -0.489644 -0.091763 0.072290
    31 3.464089 0.095513 0.779504 0.265534 -0.273843 -0.111899
    32 1.149899 -0.000004 -0.000001 0.000000 0.053975 0.011863
    33 3.616475 0.089729 0.192608 0.074650 -0.174185 -0.082089
    34 3.507605 -0.033056 -0.336130 -0.087881 0.039606 -0.002554
    35 3.709167 0.058126 -0.920966 -0.315627 0.196774 -0.106443
    36 0.820726 -0.201210 -0.886554 1.300502 0.122960 -0.720452
    37 1.123136 0.000000 0.000001 -0.000006 0.012724 0.116279
    38 1.321860 -0.000001 0.000000 0.000000 0.046519 -0.073857
    39 0.977461 0.000001 0.000005 0.000000 0.011737 -0.061857
    40 0.860970 0.000001 0.000000 0.000000 -0.000207 -0.180622
    41 1.575062 0.000002 -0.000004 0.000000 -0.055713 -0.133233
    42 1.060835 -0.000003 0.000000 0.000000 0.054561 -0.056841
    43 1.321865 -0.000004 -0.000002 0.000000 -0.047130 -0.073469
    44 0.977458 0.000000 0.000009 0.000000 -0.012250 -0.061757
    45 0.860970 -0.000002 -0.000004 0.000000 -0.000893 -0.180620
  time 3
    0 7.218992 -0.746112 12.352923 1.385905 0.005399 -0.442958
    1 0.000000 0.000000 0.000000 0.000000 0.000000 0.000000
    2 3.984024 0.000005 0.000007 -4.008409 -1.283324 0.813072
    3 19.319893 0.000003 0.000005 0.000000 0.000000 2.365952
    4 16.701588 -0.000003 -0.000001 0.251194 -0.086288 -1.054585
    5 6.534994 0.000003 0.000000 -0.005401 -0.004871 -1.089339
    6 -3.984010 0.000007 0.000008 -0.532405 -0.478819 -2.609106
    7 19.319881 0.000001 -0.000002 0.000000 0.000000 2.815754
    8 16.701582 0.000000 0.000003 -0.048618 0.095370 -1.884638
    9 6.534990 -0.000001 -0.000001 -0.078086 -0.004577 -1.304368
    10 0.000008 4.212784 -1.689684 1.548409 -0.083291 1.620411
    11 3.620123 0.000000 0.000000 -0.063544 -0.187440 0.198127
    12 3.445708 0.000000 0.000000 -0.085390 -0.182274 0.311481
    13 7.391220 -0.000004 -0.000004 0.000000 0.000001 0.095225
    14 3.178821 0.000002 0.000000 3.141590 -0.000134 0.364773
    15 3.706906 0.000007 0.000000 0.681569 0.342475 0.633819
    16 2.023580 0.907751 0.852527 4.162593 -1.282498 0.389110
    17 4.983664 -0.000002 -0.000003 -2.119438 -0.550245 -0.573734
    18 10.904952 -0.000001 -0.000002 -0.000002 0.000001 -1.039667
    19 10.565869 0.000001 -0.000035 0.370267 -0.007472 0.251109
    20 3.464125 0.088921 -0.780289 -0.266522 0.272889 -0.114263
    21 1.149894 0.000002 -0.000006 0.000000 -0.053881 0.012281
    22 3.616506 0.088098 -0.193362 -0.074871 0.173485 -0.083578
    23 3.507635 -0.030216 0.336392 0.087874 -0.039626 -0.002228
    24 3.709202 0.065919 0.920439 0.315356 -0.197665 -0.104771
    25 0.820749 -0.193686 0.888225 -1.372855 -0.498548 -0.474342
    26 1.123137 0.000000 0.000000 0.000000 -0.012010 0.116354
    27 2.023587 0.907750 -0.852533 -3.823907 1.140740 0.819765
    28 4.983665 -0.000004 -0.000003 2.793933 1.361706 -0.254540
    29 10.904951 0.000008 0.000004 0.000002 0.000000 -1.190114
    30 10.565887 -0.000005 0.000007 -0.489644 -0.091763 0.072290
    31 3.464089 0.095513 0.779504 0.265534 -0.273843 -0.111899
    32 1.149899 -0.000004 -0.000001 0.000000 0.053975 0.011863
    33 3.616475 0.089729 0.192608 0.074650 -0.174185 -0.082089
    34 3.507605 -0.033056 -0.336130 -0.087881 0.039606 -0.002554
    35 3.709167 0.058126 -0.920966 -0.315627 0.196774 -0.106443
    36 0.820726 -0.201210 -0.886554 1.300502 0.122960 -0.720452
    37 1.123136 0.000000 0.000001 -0.000006 0.012724 0.116279
    38 1.321860 -0.000001 0.000000 0.000000 0.046519 -0.073857
    39 0.977461 0.000001 0.000005 0.000000 0.011737 -0.061857
    40 0.860970 0.000001 0.000000 0.000000 -0.000207 -0.180622
    41 1.575062 0.000002 -0.000004 0.000000 -0.055713 -0.133233
    42 1.060835 -0.000003 0.000000 0.000000 0.054561 -0.056841
    43 1.321865 -0.000004 -0.000002 0.000000 -0.047130 -0.073469
    44 0.977458 0.000000 0.000009 0.000000 -0.012250 -0.061757
    45 0.860970 -0.000002 -0.000004 0.000000 -0.000893 -0.180620
  time 4
    0 12.419304 -1.140655 13.821718 1.435215 0.052151 -0.483706
    1 0.000000 0.000000 0.000000 0.000000 0.000000 0.000000
    2 3.984024 0.000005 0.000007 1.562103 -1.380814 -4.665751
    3 19.319893 0.000003 0.000005 0.000000 0.000000 2.320179
    4 16.701588 -0.000003 -0.000001 0.152725 -0.030225 -1.052908
    5 6.534994 0.000003 0.000000 -0.005401 -0.004871 -1.089339
    6 -3.984010 0.000007 0.000008 -0.428641 -0.604063 -2.811382
    7 19.319881 0.000001 -0.000002 0.000000 0.000000 2.679114
    8 16.701582 0.000000 0.000003 -0.045425 0.031639 -1.565956
    9 6.534990 -0.000001 -0.000001 -0.078302 -0.004625 -1.273317
    10 0.000008 4.212784 -1.689684 1.562071 -0.064527 1.620650
    11 3.620123 0.000000 0.000000 -0.050365 -0.235558 0.171629
    12 3.445708 0.000000 0.000000 -0.061793 -0.232968 0.296667
    13 7.391220 -0.000004 -0.000004 0.000000 0.000001 0.078638
    14 3.178821 0.000002 0.000000 3.140535 -0.002171 0.364773
    15 3.706906 0.000007 0.000000 0.707764 0.349325 0.560502
    16 2.023580 0.907751 0.852527 4.162498 -1.282498 0.389110
    17 4.983664 -0.000002 -0.000003 -1.989310 -0.636260 -0.902524
    18 10.904952 -0.000001 -0.000002 -0.000002 0.000001 -0.800523
    19 10.565869 0.000001 -0.000035 0.369809 0.003048 0.274226
    20 3.464125 0.088921 -0.780289 -0.266522 0.272889 -0.114263
    21 1.149894 0.000002 -0.000006 0.000000 -0.053881 0.012281
    22 3.616506 0.088098 -0.193362 -0.074871 0.173485 -0.083578
    23 3.507635 -0.030216 0.336392 0.087874 -0.039626 -0.002228
    24 3.709202 0.065919 0.920439 0.315356 -0.197665 -0.104771
    25 0.820749 -0.193686 0.888225 -1.372855 -0.498548 -0.474342
    26 1.123137 0.000000 0.000000 0.000000 -0.012010 0.116354
    27 2.023587 0.907750 -0.852533 -3.823907 1.140740 0.819765
    28 4.983665 -0.000004 -0.000003 1.852687 0.933045 -1.449629
    29 10.904951 0.000008 0.000004 0.000002 0.000000 -1.887260
    30 10.565887 -0.000005 0.000007 -0.489644 -0.091763 0.072290
    31 3.464089 0.095513 0.779504 0.265534 -0.273843 -0.111899
    32 1.149899 -0.000004 -0.000001 0.000000 0.053975 0.011863
    33 3.616475 0.089729 0.192608 0.074650 -0.174185 -0.082089
    34 3.507605 -0.033056 -0.336130 -0.087881 0.039606 -0.002554
    35 3.709167 0.058126 -0.920966 -0.315627 0.196774 -0.106443
    36 0.820726 -0.201210 -0.886554 1.300502 0.122960 -0.720452
    37 1.123136 0.000000 0.000001 -0.000006 0.012724 0.116279
    38 1.321860 -0.000001 0.000000 0.000000 0.046519 -0.073857
    39 0.977461 0.000001 0.000005 0.000000 0.011737 -0.061857
    40 0.860970 0.000001 0.000000 0.000000 -0.000207 -0.180622
    41 1.575062 0.000002 -0.000004 0.000000 -0.055713 -0.133233
    42 1.060835 -0.000003 0.000000 0.000000 0.054561 -0.056841
    43 1.321865 -0.000004 -0.000002 0.000000 -0.047130 -0.073469
    44 0.977458 0.000000 0.000009 0.000000 -0.012250 -0.061757
    45 0.860970 -0.000002 -0.000004 0.000000 -0.000893 -0.180620
  time 5
    0 18.784310 -1.585981 19.204695 1.461217 0.112057 -0.549356
    1 0.000000 0.000000 0.000000 0.000000 0.000000 0.000000
    2 3.984024 0.000005 0.000007 -0.112053 -1.303339 -2.870860
    3 19.319893 0.000003 0.000005 0.000000 0.000000 2.052774
    4 16.701588 -0.000003 -0.000001 -0.027961 -0.043056 -1.021337
    5 6.534994 0.000003 0.000000 -0.005401 -0.004871 -1.089339
    6 -3.984010 0.000007 0.000008 -0.391562 -0.645156 -2.768443
    7 19.319881 0.000001 -0.000002 0.000000 0.000000 2.278364
    8 16.701582 0.000000 0.000003 -0.077585 0.030127 -1.197108
    9 6.534990 -0.000001 -0.000001 -0.078541 -0.004661 -1.238742
    10 0.000008 4.212784 -1.689684 1.554929 -0.040108 1.614946
    11 3.620123 0.000000 0.000000 -0.161490 -0.254122 0.031238
    12 3.445708 0.000000 0.000000 -0.095997 -0.268251 0.167709
    13 7.391220 -0.000004 -0.000004 0.000000 0.000001 0.102128
    14 3.178821 0.000002 0.000000 3.137563 -0.007385 0.364773
    15 3.706906 0.000007 0.000000 0.745459 0.359021 0.455165
    16 2.023580 0.907751 0.852527 4.162498 -1.282498 0.389110
    17 4.983664 -0.000002 -0.000003 -2.725529 -0.478089 -1.299094
    18 10.904952 -0.000001 -0.000002 -0.000002 0.000001 -0.749975
    19 10.565869 0.000001 -0.000035 0.370405 0.028240 0.330646
    20 3.464125 0.088921 -0.780289 -0.266522 0.272889 -0.114263
    21 1.149894 0.000002 -0.000006 0.000000 -0.053881 0.012281
    22 3.616506 0.088098 -0.193362 -0.074871 0.173485 -0.083578
    23 3.507635 -0.030216 0.336392 0.087874 -0.039626 -0.002228
    24 3.709202 0.065919 0.920439 0.315356 -0.197665 -0.104771
    25 0.820749 -0.193686 0.888225 -1.372855 -0.498548 -0.474342
    26 1.123137 0.000000 0.000000 0.000000 -0.012010 0.116354
    27 2.023587 0.907750 -0.852533 -3.823907 1.140740 0.819765
    28 4.983665 -0.000004 -0.000003 1.520943 0.207533 -1.811024
    29 10.904951 0.000008 0.000004 0.000002 0.000000 -2.262580
    30 10.565887 -0.000005 0.000007 -0.489644 -0.091763 0.072290
    31 3.464089 0.095513 0.779504 0.265534 -0.273843 -0.111899
    32 1.149899 -0.000004 -0.000001 0.000000 0.053975 0.011863
    33 3.616475 0.089729 0.192608 0.074650 -0.174185 -0.082089
    34 3.507605 -0.033056 -0.336130 -0.087881 0.039606 -0.002554
    35 3.709167 0.058126 -0.920966 -0.315627 0.196774 -0.106443
    36 0.820726 -0.201210 -0.886554 1.300502 0.122960 -0.720452
    37 1.123136 0.000000 0.000001 -0.000006 0.012724 0.116279
    38 1.321860 -0.000001 0.000000 0.000000 0.046519 -0.073857
    39 0.977461 0.000001 0.000005 0.000000 0.011737 -0.061857
    40 0.860970 0.000001 0.000000 0.000000 -0.000207 -0.180622
    41 1.575062 0.000002 -0.000004 0.000000 -0.055713 -0.133233
    42 1.060835 -0.000003 0.000000 0.000000 0.054561 -0.056841
    43 1.321865 -0.000004 -0.000002 0.000000 -0.047130 -0.073469
    44 0.977458 0.000000 0.000009 0.000000 -0.012250 -0.061757
    45 0.860970 -0.000002 -0.000004 0.000000 -0.000893 -0.180620
  time 6
    0 26.161661 -1.699266 26.458823 1.420915 0.184434 -0.658584
    1 0.000000 0.000000 0.000000 0.000000 0.000000 0.000000
    2 3.984024 0.000005 0.000007 -1.186343 -1.132277 -1.916952
    3 19.319893 0.000003 0.000005 0.000000 0.000000 1.471688
    4 16.701588 -0.000003 -0.000001 0.206897 -0.135027 -0.739415
    5 6.534994 0.000003 0.000000 -0.005401 -0.004871 -1.089339
    6 -3.984010 0.000007 0.000008 -0.525973 -0.623016 -2.482240
    7 19.319881 0.000001 -0.000002 0.000000 0.000000 1.592747
    8 16.701582 0.000000 0.000003 -0.127855 0.042281 -0.698762
    9 6.534990 -0.000001 -0.000001 -0.078793 -0.004721 -1.202970
    10 0.000008 4.212784 -1.689684 1.491748 0.049350 1.570413
    11 3.620123 0.000000 0.000000 -0.361162 -0.233089 -0.208135
    12 3.445708 0.000000 0.000000 -0.172267 -0.273908 -0.062074
    13 7.391220 -0.000004 -0.000004 0.000000 0.000001 0.155363
    14 3.178821 0.000002 0.000000 3.132482 -0.016864 0.364835
    15 3.706906 0.000007 0.000000 0.730466 0.351134 0.464838
    16 2.023580 0.907751 0.852527 4.162498 -1.282498 0.389110
    17 4.983664 -0.000002 -0.000003 -3.075075 -0.179650 -1.852908
    18 10.904952 -0.000001 -0.000002 -0.000002 0.000001 -2.176820
    19 10.565869 0.000001 -0.000035 0.376869 0.067027 0.421675
    20 3.464125 0.088921 -0.780289 -0.266522 0.272889 -0.114263
    21 1.149894 0.000002 -0.000006 0.000000 -0.053881 0.012281
    22 3.616506 0.088098 -0.193362 -0.074871 0.173485 -0.083578
    23 3.507635 -0.030216 0.336392 0.087874 -0.039626 -0.002228
    24 3.709202 0.065919 0.920439 0.315356 -0.197665 -0.104771
    25 0.820749 -0.193686 0.888225 -1.372855 -0.498548 -0.474342
    26 1.123137 0.000000 0.000000 0.000000 -0.012010 0.116354
    27 2.023587 0.907750 -0.852533 -3.823907 1.140740 0.819765
    28 4.983665 -0.000004 -0.000003 1.122794 -0.087934 -1.685915
    29 10.904951 0.000008 0.000004 0.000002 0.000000 -2.268161
    30 10.565887 -0.000005 0.000007 -0.489644 -0.091763 0.072290
    31 3.464089 0.095513 0.779504 0.265534 -0.273843 -0.111899
    32 1.149899 -0.000004 -0.000001 0.000000 0.053975 0.011863
    33 3.616475 0.089729 0.192608 0.074650 -0.174185 -0.082089
    34 3.507605 -0.033056 -0.336130 -0.087881 0.039606 -0.002554
    35 3.709167 0.058126 -0.920966 -0.315627 0.196774 -0.106443
    36 0.820726 -0.201210 -0.886554 1.300502 0.122960 -0.720452
    37 1.123136 0.000000 0.000001 -0.000006 0.012724 0.116279
    38 1.321860 -0.000001 0.000000 0.000000 0.046519 -0.073857
    39 0.977461 0.000001 0.000005 0.000000 0.011737 -0.061857
    40 0.860970 0.000001 0.000000 0.000000 -0.000207 -0.180622
    41 1.575062 0.000002 -0.000004 0.000000 -0.055713 -0.133233
    42 1.060835 -0.000003 0.000000 0.000000 0.054561 -0.056841
    43 1.321865 -0.000004 -0.000002 0.000000 -0.047130 -0.073469
    44 0.977458 0.000000 0.000009 0.000000 -0.012250 -0.061757
    45 0.860970 -0.000002 -0.000004 0.000000 -0.000893 -0.180620
  time 7
    0 34.410729 -1.648483 32.529320 1.241595 0.279265 -0.836291
    1 0.000000 0.000000 0.000000 0.000000 0.000000 0.000000
    2 3.984024 0.000005 0.000007 -1.528823 -0.414441 -1.618070
    3 19.319893 0.000003 0.000005 0.000000 0.000000 0.118343
    4 16.701588 -0.000003 -0.000001 0.352695 -0.189535 0.042370
    5 6.534994 0.000003 0.000000 -0.005401 -0.004871 -1.089339
    6 -3.984010 0.000007 0.000008 -0.882003 -0.210599 -1.820143
    7 19.319881 0.000001 -0.000002 0.000000 0.000000 0.089790
    8 16.701582 0.000000 0.000003 -0.181733 0.046990 0.205836
    9 6.534990 -0.000001 -0.000001 -0.050342 -0.004350 -0.985681
    10 0.000008 4.212784 -1.689684 1.497069 0.063317 1.567488
    11 3.620123 0.000000 0.000000 -0.334447 -0.192306 -0.271787
    12 3.445708 0.000000 0.000000 -0.156135 -0.230811 -0.125010
    13 7.391220 -0.000004 -0.000004 0.000000 0.000001 0.144517
    14 3.178821 0.000002 0.000000 3.124908 -0.030683 0.365006
    15 3.706906 0.000007 0.000000 0.649029 0.309359 0.534405
    16 2.023580 0.907751 0.852527 4.206023 -1.261335 0.347116
    17 4.983664 -0.000002 -0.000003 -2.397210 -0.685680 -0.773067
    18 10.904952 -0.000001 -0.000002 -0.000002 0.000001 -2.277839
    19 10.565869 0.000001 -0.000035 0.390945 0.105199 0.519511
    20 3.464125 0.088921 -0.780289 -0.266522 0.272889 -0.114263
    21 1.149894 0.000002 -0.000006 0.000000 -0.053881 0.012281
    22 3.616506 0.088098 -0.193362 -0.074871 0.173485 -0.083578
    23 3.507635 -0.030216 0.336392 0.087874 -0.039626 -0.002228
    24 3.709202 0.065919 0.920439 0.315356 -0.197665 -0.104771
    25 0.820749 -0.193686 0.888225 -1.372855 -0.498548 -0.474342
    26 1.123137 0.000000 0.000000 0.000000 -0.012010 0.116354
    27 2.023587 0.907750 -0.852533 -3.869727 1.125480 0.777513
    28 4.983665 -0.000004 -0.000003 1.007849 -0.042959 -1.569912
    29 10.904951 0.000008 0.000004 0.000002 0.000000 -2.328267
    30 10.565887 -0.000005 0.000007 -0.489644 -0.091763 0.072290
    31 3.464089 0.095513 0.779504 0.265534 -0.273843 -0.111899
    32 1.149899 -0.000004 -0.000001 0.000000 0.053975 0.011863
    33 3.616475 0.089729 0.192608 0.074650 -0.174185 -0.082089
    34 3.507605 -0.033056 -0.336130 -0.087881 0.039606 -0.002554
    35 3.709167 0.058126 -0.920966 -0.315627 0.196774 -0.106443
    36 0.820726 -0.201210 -0.886554 1.300502 0.122960 -0.720452
    37 1.123136 0.000000 0.000001 -0.000006 0.012724 0.116279
    38 1.321860 -0.000001 0.000000 0.000000 0.046519 -0.073857
    39 0.977461 0.000001 0.000005 0.000000 0.011737 -0.061857
    40 0.860970 0.000001 0.000000 0.000000 -0.000207 -0.180622
    41 1.575062 0.000002 -0.000004 0.000000 -0.055713 -0.133233
    42 1.060835 -0.000003 0.000000 0.000000 0.054561 -0.056841
    43 1.321865 -0.000004 -0.000002 0.000000 -0.047130 -0.073469
    44 0.977458 0.000000 0.000009 0.000000 -0.012250 -0.061757
    45 0.860970 -0.000002 -0.000004 0.000000 -0.000893 -0.180620
  time 8
    0 43.386978 -1.652389 36.826326 0.889736 0.335315 -1.092288
    1 0.000000 0.000000 0.000000 0.000000 0.000000 0.000000
    2 3.984024 0.000005 0.000007 -1.598141 -0.134541 -1.510213
    3 19.319893 0.000003 0.000005 0.000000 0.000000 0.089819
    4 16.701588 -0.000003 -0.000001 0.251479 -0.170055 0.056527
    5 6.534994 0.000003 0.000000 0.001394 -0.002977 -0.965468
    6 -3.984010 0.000007 0.000008 -1.021237 -0.402528 -1.853501
    7 19.319881 0.000001 -0.000002 0.000000 0.000000 0.518051
    8 16.701582 0.000000 0.000003 -0.230863 0.017309 -0.016431
    9 6.534990 -0.000001 -0.000001 -0.079309 -0.004817 -1.137312
    10 0.000008 4.212784 -1.689684 1.513272 0.074328 1.569502
    11 3.620123 0.000000 0.000000 -0.265591 -0.142438 -0.315344
    12 3.445708 0.000000 0.000000 -0.122746 -0.173249 -0.171465
    13 7.391220 -0.000004 -0.000004 0.000000 0.000001 0.119901
    14 3.178821 0.000002 0.000000 3.116566 -0.045879 0.365333
    15 3.706906 0.000007 0.000000 0.492543 0.224433 0.675551
    16 2.023580 0.907751 0.852527 4.328312 -1.177233 0.230795
    17 4.983664 -0.000002 -0.000003 -2.776932 -0.576582 -0.494201
    18 10.904952 -0.000001 -0.000002 -0.000002 0.000001 -2.317382
    19 10.565869 0.000001 -0.000035 0.402773 0.126208 0.578993
    20 3.464125 0.088921 -0.780289 -0.266522 0.272889 -0.114263
    21 1.149894 0.000002 -0.000006 0.000000 -0.053881 0.012281
    22 3.616506 0.088098 -0.193362 -0.074871 0.173485 -0.083578
    23 3.507635 -0.030216 0.336392 0.087874 -0.039626 -0.002228
    24 3.709202 0.065919 0.920439 0.315356 -0.197665 -0.104771
    25 0.820749 -0.193686 0.888225 -1.372855 -0.498548 -0.474342
    26 1.123137 0.000000 0.000000 0.000000 -0.012010 0.116354
    27 2.023587 0.907750 -0.852533 -4.018619 1.060979 0.642155
    28 4.983665 -0.000004 -0.000003 4.373727 -0.183954 -0.916960
    29 10.904951 0.000008 0.000004 0.000002 0.000000 -2.916706
    30 10.565887 -0.000005 0.000007 -0.489644 -0.091763 0.072290
    31 3.464089 0.095513 0.779504 0.265534 -0.273843 -0.111899
    32 1.149899 -0.000004 -0.000001 0.000000 0.053975 0.011863
    33 3.616475 0.089729 0.192608 0.074650 -0.174185 -0.082089
    34 3.507605 -0.033056 -0.336130 -0.087881 0.039606 -0.002554
    35 3.709167 0.058126 -0.920966 -0.315627 0.196774 -0.106443
    36 0.820726 -0.201210 -0.886554 1.300502 0.122960 -0.720452
    37 1.123136 0.000000 0.000001 -0.000006 0.012724 0.116279
    38 1.321860 -0.000001 0.000000 0.000000 0.046519 -0.073857
    39 0.977461 0.000001 0.000005 0.000000 0.011737 -0.061857
    40 0.860970 0.000001 0.000000 0.000000 -0.000207 -0.180622
    41 1.575062 0.000002 -0.000004 0.000000 -0.055713 -0.133233
    42 1.060835 -0.000003 0.000000 0.000000 0.054561 -0.056841
    43 1.321865 -0.000004 -0.000002 0.000000 -0.047130 -0.073469
    44 0.977458 0.000000 0.000009 0.000000 -0.012250 -0.061757
    45 0.860970 -0.000002 -0.000004 0.000000 -0.000893 -0.180620
  time 9
    0 52.945871 -1.660202 40.342059 0.446499 0.278279 -1.358283
    1 0.000000 0.000000 0.000000 0.000000 0.000000 0.000000
    2 3.984024 0.000005 0.000007 -1.624052 0.073738 -1.456520
    3 19.319893 0.000003 0.000005 0.000000 0.000000 0.371190
    4 16.701588 -0.000003 -0.000001 0.069186 -0.170598 -0.083225
    5 6.534994 0.000003 0.000000 -0.005401 -0.004871 -1.089339
    6 -3.984010 0.000007 0.000008 -1.261870 -0.211691 -1.636941
    7 19.319881 0.000001 -0.000002 0.000000 0.000000 0.089790
    8 16.701582 0.000000 0.000003 -0.247608 -0.066378 0.048723
    9 6.534990 -0.000001 -0.000001 -0.029357 -0.001174 -0.775606
    10 0.000008 4.212784 -1.689684 1.534508 0.081059 1.572761
    11 3.620123 0.000000 0.000000 -0.176482 -0.090413 -0.340464
    12 3.445708 0.000000 0.000000 -0.081315 -0.110905 -0.200077
    13 7.391220 -0.000004 -0.000004 0.000000 0.000001 0.090311
    14 3.178821 0.000002 0.000000 3.109471 -0.058882 0.365706
    15 3.706906 0.000007 0.000000 0.314633 0.121683 0.847255
    16 2.023580 0.907751 0.852527 4.441744 -1.040111 0.126527
    17 4.983664 -0.000002 -0.000003 -3.596730 -0.182214 0.005771
    18 10.904952 -0.000001 -0.000002 -0.000002 0.000001 -2.086728
    19 10.565869 0.000001 -0.000035 0.401719 0.124455 0.573827
    20 3.464125 0.088921 -0.780289 -0.266522 0.272889 -0.114263
    21 1.149894 0.000002 -0.000006 0.000000 -0.053881 0.012281
    22 3.616506 0.088098 -0.193362 -0.074871 0.173485 -0.083578
    23 3.507635 -0.030216 0.336392 0.087874 -0.039626 -0.002228
    24 3.709202 0.065919 0.920439 0.315356 -0.197665 -0.104771
    25 0.820749 -0.193686 0.888225 -1.372855 -0.498548 -0.474342
    26 1.123137 0.000000 0.000000 0.000000 -0.012010 0.116354
    27 2.023587 0.907750 -0.852533 -4.188182 0.946553 0.493987
    28 4.983665 -0.000004 -0.000003 4.057080 -0.027902 0.018442
    29 10.904951 0.000008 0.000004 0.000002 0.000000 -1.763355
    30 10.565887 -0.000005 0.000007 -0.489644 -0.091763 0.072290
    31 3.464089 0.095513 0.779504 0.265534 -0.273843 -0.111899
    32 1.149899 -0.000004 -0.000001 0.000000 0.053975 0.011863
    33 3.616475 0.089729 0.192608 0.074650 -0.174185 -0.082089
    34 3.507605 -0.033056 -0.336130 -0.087881 0.039606 -0.002554
    35 3.709167 0.058126 -0.920966 -0.315627 0.196774 -0.106443
    36 0.820726 -0.201210 -0.886554 1.300502 0.122960 -0.720452
    37 1.123136 0.000000 0.000001 -0.000006 0.012724 0.116279
    38 1.321860 -0.000001 0.000000 0.000000 0.046519 -0.073857
    39 0.977461 0.000001 0.000005 0.000000 0.011737 -0.061857
    40 0.860970 0.000001 0.000000 0.000000 -0.000207 -0.180622
    41 1.575062 0.000002 -0.000004 0.000000 -0.055713 -0.133233
    42 1.060835 -0.000003 0.000000 0.000000 0.054561 -0.056841
    43 1.321865 -0.000004 -0.000002 0.000000 -0.047130 -0.073469
    44 0.977458 0.000000 0.000009 0.000000 -0.012250 -0.061757
    45 0.860970 -0.000002 -0.000004 0.000000 -0.000893 -0.180620
  time 10
    0 62.942874 -1.664108 42.334307 0.008741 0.136740 -1.523917
    1 0.000000 0.000000 0.000000 0.000000 0.000000 0.000000
    2 3.984024 0.000005 0.000007 -1.682757 0.448088 -1.472384
    3 19.319893 0.000003 0.000005 0.000000 0.000000 0.335093
    4 16.701588 -0.000003 -0.000001 -0.075731 -0.164042 -0.108383
    5 6.534994 0.000003 0.000000 -0.005401 -0.004871 -1.089339
    6 -3.984010 0.000007 0.000008 -1.405739 -0.542620 -1.567032
    7 19.319881 0.000001 -0.000002 0.000000 0.000000 0.614507
    8 16.701582 0.000000 0.000003 -0.194386 -0.128901 -0.176853
    9 6.534990 -0.000001 -0.000001 -0.079656 -0.004877 -1.095423
    10 0.000008 4.212784 -1.689684 1.554018 0.083185 1.574391
    11 3.620123 0.000000 0.000000 -0.086683 -0.043169 -0.346866
    12 3.445708 0.000000 0.000000 -0.040112 -0.053212 -0.207341
    13 7.391220 -0.000004 -0.000004 0.000000 0.000001 0.063897
    14 3.178821 0.000002 0.000000 3.104006 -0.068662 0.366048
    15 3.706906 0.000007 0.000000 0.196992 0.051205 0.966568
    16 2.023580 0.907751 0.852527 4.501556 -0.922786 0.074872
    17 4.983664 -0.000002 -0.000003 -3.537330 0.073415 0.270060
    18 10.904952 -0.000001 -0.000002 -0.000002 0.000001 -1.473224
    19 10.565869 0.000001 -0.000035 0.373660 0.052724 0.387363
    20 3.464125 0.088921 -0.780289 -0.266522 0.272889 -0.114263
    21 1.149894 0.000002 -0.000006 0.000000 -0.053881 0.012281
    22 3.616506 0.088098 -0.193362 -0.074871 0.173485 -0.083578
    23 3.507635 -0.030216 0.336392 0.087874 -0.039626 -0.002228
    24 3.709202 0.065919 0.920439 0.315356 -0.197665 -0.104771
    25 0.820749 -0.193686 0.888225 -1.372855 -0.498548 -0.474342
    26 1.123137 0.000000 0.000000 0.000000 -0.012010 0.116354
    27 2.023587 0.907750 -0.852533 -4.291158 0.843060 0.409580
    28 4.983665 -0.000004 -0.000003 3.804260 -0.295230 0.264926
    29 10.904951 0.000008 0.000004 0.000002 0.000000 -1.126917
    30 10.565887 -0.000005 0.000007 -0.489644 -0.091763 0.072290
    31 3.464089 0.095513 0.779504 0.265534 -0.273843 -0.111899
    32 1.149899 -0.000004 -0.000001 0.000000 0.053975 0.011863
    33 3.616475 0.089729 0.192608 0.074650 -0.174185 -0.082089
    34 3.507605 -0.033056 -0.336130 -0.087881 0.039606 -0.002554
    35 3.709167 0.058126 -0.920966 -0.315627 0.196774 -0.106443
    36 0.820726 -0.201210 -0.886554 1.300502 0.122960 -0.720452
    37 1.123136 0.000000 0.000001 -0.000006 0.012724 0.116279
    38 1.321860 -0.000001 0.000000 0.000000 0.046519 -0.073857
    39 0.977461 0.000001 0.000005 0.000000 0.011737 -0.061857
    40 0.860970 0.000001 0.000000 0.000000 -0.000207 -0.180622
    41 1.575062 0.000002 -0.000004 0.000000 -0.055713 -0.133233
    42 1.060835 -0.000003 0.000000 0.000000 0.054561 -0.056841
    43 1.321865 -0.000004 -0.000002 0.000000 -0.047130 -0.073469
    44 0.977458 0.000000 0.000009 0.000000 -0.012250 -0.061757
    45 0.860970 -0.000002 -0.000004 0.000000 -0.000893 -0.180620
  time 11
    0 73.227627 -1.656296 41.709288 -0.392893 0.017741 -1.570702
    1 0.000000 0.000000 0.000000 0.000000 0.000000 0.000000
    2 3.984024 0.000005 0.000007 -1.745000 0.453806 -1.502704
    3 19.319893 0.000003 0.000005 0.000000 0.000000 0.853242
    4 16.701588 -0.000003 -0.000001 -0.132366 -0.208435 -0.427007
    5 6.534994 0.000003 0.000000 -0.005401 -0.004871 -1.089339
    6 -3.984010 0.000007 0.000008 -1.530123 -0.290428 -1.479646
    7 19.319881 0.000001 -0.000002 0.000000 0.000000 0.089790
    8 16.701582 0.000000 0.000003 -0.154716 -0.094818 0.132242
    9 6.534990 -0.000001 -0.000001 0.003217 0.004207 -0.443355
    10 0.000008 4.212784 -1.689684 1.567920 0.081304 1.572330
    11 3.620123 0.000000 0.000000 -0.015682 -0.007743 -0.334318
    12 3.445708 0.000000 0.000000 -0.007383 -0.009540 -0.189729
    13 7.391220 -0.000004 -0.000004 0.000000 0.000001 0.048808
    14 3.178821 0.000002 0.000000 3.100171 -0.075697 0.366328
    15 3.706906 0.000007 0.000000 0.151673 0.023709 1.013670
    16 2.023580 0.907751 0.852527 4.521747 -0.872042 0.058323
    17 4.983664 -0.000002 -0.000003 -3.634331 0.000420 0.613153
    18 10.904952 -0.000001 -0.000002 -0.000002 0.000001 -0.750446
    19 10.565869 0.000001 -0.000035 0.370130 -0.004458 0.257733
    20 3.464125 0.088921 -0.780289 -0.266522 0.272889 -0.114263
    21 1.149894 0.000002 -0.000006 0.000000 -0.053881 0.012281
    22 3.616506 0.088098 -0.193362 -0.074871 0.173485 -0.083578
    23 3.507635 -0.030216 0.336392 0.087874 -0.039626 -0.002228
    24 3.709202 0.065919 0.920439 0.315356 -0.197665 -0.104771
    25 0.820749 -0.193686 0.888225 -1.372855 -0.498548 -0.474342
    26 1.123137 0.000000 0.000000 0.000000 -0.012010 0.116354
    27 2.023587 0.907750 -0.852533 -4.328023 0.797235 0.380902
    28 4.983665 -0.000004 -0.000003 3.566918 -0.316655 0.611661
    29 10.904951 0.000008 0.000004 0.000002 0.000000 -0.540110
    30 10.565887 -0.000005 0.000007 -0.489644 -0.091763 0.072290
    31 3.464089 0.095513 0.779504 0.265534 -0.273843 -0.111899
    32 1.149899 -0.000004 -0.000001 0.000000 0.053975 0.011863
    33 3.616475 0.089729 0.192608 0.074650 -0.174185 -0.082089
    34 3.507605 -0.033056 -0.336130 -0.087881 0.039606 -0.002554
    35 3.709167 0.058126 -0.920966 -0.315627 0.196774 -0.106443
    36 0.820726 -0.201210 -0.886554 1.300502 0.122960 -0.720452
    37 1.123136 0.000000 0.000001 -0.000006 0.012724 0.116279
    38 1.321860 -0.000001 0.000000 0.000000 0.046519 -0.073857
    39 0.977461 0.000001 0.000005 0.000000 0.011737 -0.061857
    40 0.860970 0.000001 0.000000 0.000000 -0.000207 -0.180622
    41 1.575062 0.000002 -0.000004 0.000000 -0.055713 -0.133233
    42 1.060835 -0.000003 0.000000 0.000000 0.054561 -0.056841
    43 1.321865 -0.000004 -0.000002 0.000000 -0.047130 -0.073469
    44 0.977458 0.000000 0.000009 0.000000 -0.012250 -0.061757
    45 0.860970 -0.000002 -0.000004 0.000000 -0.000893 -0.180620
  time 12
    0 83.653644 -1.621138 38.873264 -0.784591 0.034624 -1.582870
    1 0.000000 0.000000 0.000000 0.000000 0.000000 0.000000
    2 3.984024 0.000005 0.000007 -1.722914 0.107778 -1.521853
    3 19.319893 0.000003 0.000005 0.000000 0.000000 1.417921
    4 16.701588 -0.000003 -0.000001 -0.014302 -0.342440 -0.708238
    5 6.534994 0.000003 0.000000 -0.005401 -0.004871 -1.089339
    6 -3.984010 0.000007 0.000008 -1.521326 -0.478819 -1.554878
    7 19.319881 0.000001 -0.000002 0.000000 0.000000 0.089790
    8 16.701582 0.000000 0.000003 -0.049930 -0.091163 0.174305
    9 6.534990 -0.000001 -0.000001 0.009306 0.004255 -0.340894
    10 0.000008 4.212784 -1.689684 1.561976 0.069804 1.564372
    11 3.620123 0.000000 0.000000 0.006896 0.003439 -0.280059
    12 3.445708 0.000000 0.000000 -0.002744 0.005597 -0.117785
    13 7.391220 -0.000004 -0.000004 -0.012236 -0.003726 0.055795
    14 3.178821 0.000002 0.000000 3.097774 -0.080287 0.366515
    15 3.706906 0.000007 0.000000 0.149202 0.022165 1.016275
    16 2.023580 0.907751 0.852527 4.522699 -0.869175 0.057462
    17 4.983664 -0.000002 -0.000003 -3.666506 -0.237601 0.462378
    18 10.904952 -0.000001 -0.000002 -0.000002 0.000001 -1.087622
    19 10.565869 0.000001 -0.000035 0.370313 -0.008272 0.249370
    20 3.464125 0.088921 -0.780289 -0.266522 0.272889 -0.114263
    21 1.149894 0.000002 -0.000006 0.000000 -0.053881 0.012281
    22 3.616506 0.088098 -0.193362 -0.074871 0.173485 -0.083578
    23 3.507635 -0.030216 0.336392 0.087874 -0.039626 -0.002228
    24 3.709202 0.065919 0.920439 0.315356 -0.197665 -0.104771
    25 0.820749 -0.193686 0.888225 -1.372855 -0.498548 -0.474342
    26 1.123137 0.000000 0.000000 0.000000 -0.012010 0.116354
    27 2.023587 0.907750 -0.852533 -4.329929 0.794638 0.379468
    28 4.983665 -0.000004 -0.000003 3.579817 -0.043453 0.378016
    29 10.904951 0.000008 0.000004 0.000002 0.000000 -1.131382
    30 10.565887 -0.000005 0.000007 -0.489644 -0.091763 0.072290
    31 3.464089 0.095513 0.779504 0.265534 -0.273843 -0.111899
    32 1.149899 -0.000004 -0.000001 0.000000 0.053975 0.011863
    33 3.616475 0.089729 0.192608 0.074650 -0.174185 -0.082089
    34 3.507605 -0.033056 -0.336130 -0.087881 0.039606 -0.002554
    35 3.709167 0.058126 -0.920966 -0.315627 0.196774 -0.106443
    36 0.820726 -0.201210 -0.886554 1.300502 0.122960 -0.720452
    37 1.123136 0.000000 0.000001 -0.000006 0.012724 0.116279
    38 1.321860 -0.000001 0.000000 0.000000 0.046519 -0.073857
    39 0.977461 0.000001 0.000005 0.000000 0.011737 -0.061857
    40 0.860970 0.000001 0.000000 0.000000 -0.000207 -0.180622
    41 1.575062 0.000002 -0.000004 0.000000 -0.055713 -0.133233
    42 1.060835 -0.000003 0.000000 0.000000 0.054561 -0.056841
    43 1.321865 -0.000004 -0.000002 0.000000 -0.047130 -0.073469
    44 0.977458 0.000000 0.000009 0.000000 -0.012250 -0.061757
    45 0.860970 -0.000002 -0.000004 0.000000 -0.000893 -0.180620
  time 13
    0 94.084202 -1.558636 37.713072 -1.246957 0.153881 -1.727658
    1 0.000000 0.000000 0.000000 0.000000 0.000000 0.000000
    2 3.984024 0.000005 0.000007 -1.546319 -0.109942 -1.648109
    3 19.319893 0.000003 0.000005 0.000000 0.000000 1.302562
    4 16.701588 -0.000003 -0.000001 0.241422 -0.272253 -0.683918
    5 6.534994 0.000003 0.000000 -0.005401 -0.004871 -1.089339
    6 -3.984010 0.000007 0.000008 -1.290625 -0.525065 -1.748104
    7 19.319881 0.000001 -0.000002 0.000000 0.000000 0.089790
    8 16.701582 0.000000 0.000003 0.060949 -0.078958 0.058175
    9 6.534990 -0.000001 -0.000001 -0.002991 0.002362 -0.367191
    10 0.000008 4.212784 -1.689684 1.513463 0.033516 1.549800
    11 3.620123 0.000000 0.000000 -0.038438 -0.017463 -0.144553
    12 3.445708 0.000000 0.000000 -0.048562 -0.014873 0.052626
    13 7.391220 -0.000004 -0.000004 -0.060942 -0.017125 0.088370
    14 3.178821 0.000002 0.000000 3.096624 -0.082096 0.366592
    15 3.706906 0.000007 0.000000 0.149202 0.022165 1.016275
    16 2.023580 0.907751 0.852527 4.522699 -0.869175 0.057366
    17 4.983664 -0.000002 -0.000003 -3.698300 -0.351729 0.238083
    18 10.904952 -0.000001 -0.000002 -0.000002 0.000001 -1.735559
    19 10.565869 0.000001 -0.000035 0.370313 -0.008272 0.249370
    20 3.464125 0.088921 -0.780289 -0.266522 0.272889 -0.114263
    21 1.149894 0.000002 -0.000006 0.000000 -0.053881 0.012281
    22 3.616506 0.088098 -0.193362 -0.074871 0.173485 -0.083578
    23 3.507635 -0.030216 0.336392 0.087874 -0.039626 -0.002228
    24 3.709202 0.065919 0.920439 0.315356 -0.197665 -0.104771
    25 0.820749 -0.193686 0.888225 -1.372855 -0.498548 -0.474342
    26 1.123137 0.000000 0.000000 0.000000 -0.012010 0.116354
    27 2.023587 0.907750 -0.852533 -4.329929 0.794638 0.379468
    28 4.983665 -0.000004 -0.000003 3.757632 0.107317 0.163127
    29 10.904951 0.000008 0.000004 0.000002 0.000000 -1.754940
    30 10.565887 -0.000005 0.000007 -0.489644 -0.091763 0.072290
    31 3.464089 0.095513 0.779504 0.265534 -0.273843 -0.111899
    32 1.149899 -0.000004 -0.000001 0.000000 0.053975 0.011863
    33 3.616475 0.089729 0.192608 0.074650 -0.174185 -0.082089
    34 3.507605 -0.033056 -0.336130 -0.087881 0.039606 -0.002554
    35 3.709167 0.058126 -0.920966 -0.315627 0.196774 -0.106443
    36 0.820726 -0.201210 -0.886554 1.300502 0.122960 -0.720452
    37 1.123136 0.000000 0.000001 -0.000006 0.012724 0.116279
    38 1.321860 -0.000001 0.000000 0.000000 0.046519 -0.073857
    39 0.977461 0.000001 0.000005 0.000000 0.011737 -0.061857
    40 0.860970 0.000001 0.000000 0.000000 -0.000207 -0.180622
    41 1.575062 0.000002 -0.000004 0.000000 -0.055713 -0.133233
    42 1.060835 -0.000003 0.000000 0.000000 0.054561 -0.056841
    43 1.321865 -0.000004 -0.000002 0.000000 -0.047130 -0.073469
    44 0.977458 0.000000 0.000009 0.000000 -0.012250 -0.061757
    45 0.860970 -0.000002 -0.000004 0.000000 -0.000893 -0.180620
  time 14
    0 104.366954 -1.488322 38.506065 4.553289 0.128255 -2.001199
    1 0.000000 0.000000 0.000000 0.000000 0.000000 0.000000
    2 3.984024 0.000005 0.000007 -1.277365 0.146175 -1.725551
    3 19.319893 0.000003 0.000005 0.000000 0.000000 0.704478
    4 16.701588 -0.000003 -0.000001 0.212988 -0.084246 -0.441214
    5 6.534994 0.000003 0.000000 -0.005401 -0.004871 -1.089339
    6 -3.984010 0.000007 0.000008 -1.044222 -0.453315 -1.943282
    7 19.319881 0.000001 -0.000002 0.000000 0.000000 0.089790
    8 16.701582 0.000000 0.000003 0.193339 0.011240 -0.140528
    9 6.534990 -0.000001 -0.000001 -0.021663 -0.000826 -0.253360
    10 0.000008 4.212784 -1.689684 1.454213 -0.018851 1.538295
    11 3.620123 0.000000 0.000000 -0.106859 -0.044955 0.011283
    12 3.445708 0.000000 0.000000 -0.110402 -0.043336 0.245977
    13 7.391220 -0.000004 -0.000004 -0.119163 -0.028906 0.128674
    14 3.178821 0.000002 0.000000 3.096816 -0.081893 0.366592
    15 3.706906 0.000007 0.000000 0.149202 0.022165 1.016275
    16 2.023580 0.907751 0.852527 4.522699 -0.869175 0.057366
    17 4.983664 -0.000002 -0.000003 -3.898585 -0.202830 0.463471
    18 10.904952 -0.000001 -0.000002 -0.000002 0.000001 -1.584306
    19 10.565869 0.000001 -0.000035 0.370359 -0.008272 0.249370
    20 3.464125 0.088921 -0.780289 -0.266522 0.272889 -0.114263
    21 1.149894 0.000002 -0.000006 0.000000 -0.053881 0.012281
    22 3.616506 0.088098 -0.193362 -0.074871 0.173485 -0.083578
    23 3.507635 -0.030216 0.336392 0.087874 -0.039626 -0.002228
    24 3.709202 0.065919 0.920439 0.315356 -0.197665 -0.104771
    25 0.820749 -0.193686 0.888225 -1.372855 -0.498548 -0.474342
    26 1.123137 0.000000 0.000000 0.000000 -0.012010 0.116354
    27 2.023587 0.907750 -0.852533 -4.329929 0.794638 0.379468
    28 4.983665 -0.000004 -0.000003 3.944811 -0.087144 0.270298
    29 10.904951 0.000008 0.000004 0.000002 0.000000 -1.554272
    30 10.565887 -0.000005 0.000007 -0.489644 -0.091763 0.072290
    31 3.464089 0.095513 0.779504 0.265534 -0.273843 -0.111899
    32 1.149899 -0.000004 -0.000001 0.000000 0.053975 0.011863
    33 3.616475 0.089729 0.192608 0.074650 -0.174185 -0.082089
    34 3.507605 -0.033056 -0.336130 -0.087881 0.039606 -0.002554
    35 3.709167 0.058126 -0.920966 -0.315627 0.196774 -0.106443
    36 0.820726 -0.201210 -0.886554 1.300502 0.122960 -0.720452
    37 1.123136 0.000000 0.000001 -0.000006 0.012724 0.116279
    38 1.321860 -0.000001 0.000000 0.000000 0.046519 -0.073857
    39 0.977461 0.000001 0.000005 0.000000 0.011737 -0.061857
    40 0.860970 0.000001 0.000000 0.000000 -0.000207 -0.180622
    41 1.575062 0.000002 -0.000004 0.000000 -0.055713 -0.133233
    42 1.060835 -0.000003 0.000000 0.000000 0.054561 -0.056841
    43 1.321865 -0.000004 -0.000002 0.000000 -0.047130 -0.073469
    44 0.977458 0.000000 0.000009 0.000000 -0.012250 -0.061757
    45 0.860970 -0.000002 -0.000004 0.000000 -0.000893 -0.180620
  time 15
    0 114.361269 -1.445352 40.892857 4.172456 -0.079276 -2.167682
    1 0.000000 0.000000 0.000000 0.000000 0.000000 0.000000
    2 3.984024 0.000005 0.000007 -1.090636 0.387769 -1.639472
    3 19.319893 0.000003 0.000005 0.000000 0.000000 0.089819
    4 16.701588 -0.000003 -0.000001 0.107314 -0.004132 -0.241575
    5 6.534994 0.000003 0.000000 -0.000272 -0.001695 -0.586109
    6 -3.984010 0.000007 0.000008 -0.873490 -0.376238 -2.032000
    7 19.319881 0.000001 -0.000002 0.000000 0.000000 0.089790
    8 16.701582 0.000000 0.000003 0.069754 0.192095 -0.629084
    9 6.534990 -0.000001 -0.000001 -0.068175 -0.005668 -1.039305
    10 0.000008 4.212784 -1.689684 1.416679 -0.078821 1.540692
    11 3.620123 0.000000 0.000000 -0.150890 -0.051271 0.121319
    12 3.445708 0.000000 0.000000 -0.151305 -0.050731 0.379343
    13 7.391220 -0.000004 -0.000004 -0.156854 -0.026006 0.158911
    14 3.178821 0.000002 0.000000 3.097583 -0.080514 0.366530
    15 3.706906 0.000007 0.000000 0.149202 0.022165 1.016275
    16 2.023580 0.907751 0.852527 4.522699 -0.869175 0.057462
    17 4.983664 -0.000002 -0.000003 -3.955986 -0.054079 0.731040
    18 10.904952 -0.000001 -0.000002 -0.000002 0.000001 -1.100750
    19 10.565869 0.000001 -0.000035 0.370359 -0.008272 0.249370
    20 3.464125 0.088921 -0.780289 -0.266522 0.272889 -0.114263
    21 1.149894 0.000002 -0.000006 0.000000 -0.053881 0.012281
    22 3.616506 0.088098 -0.193362 -0.074871 0.173485 -0.083578
    23 3.507635 -0.030216 0.336392 0.087874 -0.039626 -0.002228
    24 3.709202 0.065919 0.920439 0.315356 -0.197665 -0.104771
    25 0.820749 -0.193686 0.888225 -1.372855 -0.498548 -0.474342
    26 1.123137 0.000000 0.000000 0.000000 -0.012010 0.116354
    27 2.023587 0.907750 -0.852533 -4.329929 0.794638 0.379468
    28 4.983665 -0.000004 -0.000003 3.941563 -0.272915 0.386028
    29 10.904951 0.000008 0.000004 0.000002 0.000000 -1.008508
    30 10.565887 -0.000005 0.000007 -0.489644 -0.091763 0.072290
    31 3.464089 0.095513 0.779504 0.265534 -0.273843 -0.111899
    32 1.149899 -0.000004 -0.000001 0.000000 0.053975 0.011863
    33 3.616475 0.089729 0.192608 0.074650 -0.174185 -0.082089
    34 3.507605 -0.033056 -0.336130 -0.087881 0.039606 -0.002554
    35 3.709167 0.058126 -0.920966 -0.315627 0.196774 -0.106443
    36 0.820726 -0.201210 -0.886554 1.300502 0.122960 -0.720452
    37 1.123136 0.000000 0.000001 -0.000006 0.012724 0.116279
    38 1.321860 -0.000001 0.000000 0.000000 0.046519 -0.073857
    39 0.977461 0.000001 0.000005 0.000000 0.011737 -0.061857
    40 0.860970 0.000001 0.000000 0.000000 -0.000207 -0.180622
    41 1.575062 0.000002 -0.000004 0.000000 -0.055713 -0.133233
    42 1.060835 -0.000003 0.000000 0.000000 0.054561 -0.056841
    43 1.321865 -0.000004 -0.000002 0.000000 -0.047130 -0.073469
    44 0.977458 0.000000 0.000009 0.000000 -0.012250 -0.061757
    45 0.860970 -0.000002 -0.000004 0.000000 -0.000893 -0.180620
  time 16
    0 123.914801 -1.437539 42.318682 3.860993 -0.326187 -2.191452
    1 0.000000 0.000000 0.000000 0.000000 0.000000 0.000000
    2 3.984024 0.000005 0.000007 -0.977240 0.263500 -1.688191
    3 19.319893 0.000003 0.000005 0.000000 0.000000 0.089819
    4 16.701588 -0.000003 -0.000001 0.040544 -0.023332 -0.687914
    5 6.534994 0.000003 0.000000 -0.000523 -0.003025 -0.927502
    6 -3.984010 0.000007 0.000008 -0.562767 -0.792061 -2.581781
    7 19.319881 0.000001 -0.000002 0.000000 0.000000 0.089790
    8 16.701582 0.000000 0.000003 -0.118274 0.197348 -0.369142
    9 6.534990 -0.000001 -0.000001 -0.064639 -0.008892 -0.913639
    10 0.000008 4.212784 -1.689684 1.399757 -0.171727 1.573145
    11 3.620123 0.000000 0.000000 -0.169484 -0.016324 0.174246
    12 3.445708 0.000000 0.000000 -0.169306 -0.030513 0.416388
    13 7.391220 -0.000004 -0.000004 -0.162427 0.012645 0.182820
    14 3.178821 0.000002 0.000000 3.098541 -0.078813 0.366452
    15 3.706906 0.000007 0.000000 0.149202 0.022165 1.016275
    16 2.023580 0.907751 0.852527 4.522699 -0.869175 0.057366
    17 4.983664 -0.000002 -0.000003 -3.959603 0.051911 0.965811
    18 10.904952 -0.000001 -0.000002 -0.000002 0.000001 -0.343697
    19 10.565869 0.000001 -0.000035 0.370313 -0.008272 0.249370
    20 3.464125 0.088921 -0.780289 -0.266522 0.272889 -0.114263
    21 1.149894 0.000002 -0.000006 0.000000 -0.053881 0.012281
    22 3.616506 0.088098 -0.193362 -0.074871 0.173485 -0.083578
    23 3.507635 -0.030216 0.336392 0.087874 -0.039626 -0.002228
    24 3.709202 0.065919 0.920439 0.315356 -0.197665 -0.104771
    25 0.820749 -0.193686 0.888225 -1.372855 -0.498548 -0.474342
    26 1.123137 0.000000 0.000000 0.000000 -0.012010 0.116354
    27 2.023587 0.907750 -0.852533 -4.329929 0.794638 0.379468
    28 4.983665 -0.000004 -0.000003 3.755339 -0.339710 0.685779
    29 10.904951 0.000008 0.000004 0.000002 0.000000 -0.182306
    30 10.565887 -0.000005 0.000007 -0.489644 -0.091763 0.072290
    31 3.464089 0.095513 0.779504 0.265534 -0.273843 -0.111899
    32 1.149899 -0.000004 -0.000001 0.000000 0.053975 0.011863
    33 3.616475 0.089729 0.192608 0.074650 -0.174185 -0.082089
    34 3.507605 -0.033056 -0.336130 -0.087881 0.039606 -0.002554
    35 3.709167 0.058126 -0.920966 -0.315627 0.196774 -0.106443
    36 0.820726 -0.201210 -0.886554 1.300502 0.122960 -0.720452
    37 1.123136 0.000000 0.000001 -0.000006 0.012724 0.116279
    38 1.321860 -0.000001 0.000000 0.000000 0.046519 -0.073857
    39 0.977461 0.000001 0.000005 0.000000 0.011737 -0.061857
    40 0.860970 0.000001 0.000000 0.000000 -0.000207 -0.180622
    41 1.575062 0.000002 -0.000004 0.000000 -0.055713 -0.133233
    42 1.060835 -0.000003 0.000000 0.000000 0.054561 -0.056841
    43 1.321865 -0.000004 -0.000002 0.000000 -0.047130 -0.073469
    44 0.977458 0.000000 0.000009 0.000000 -0.012250 -0.061757
    45 0.860970 -0.000002 -0.000004 0.000000 -0.000893 -0.180620
  time 17
    0 132.890825 -1.449258 42.135082 3.540985 -0.566886 -2.109955
    1 0.000000 0.000000 0.000000 0.000000 0.000000 0.000000
    2 3.984024 0.000005 0.000007 -0.836692 -0.218643 -2.054003
    3 19.319893 0.000003 0.000005 0.000000 0.000000 0.396938
    4 16.701588 -0.000003 -0.000001 -0.001601 -0.017338 -0.851493
    5 6.534994 0.000003 0.000000 -0.005401 -0.004871 -1.089339
    6 -3.984010 0.000007 0.000008 -0.369145 -0.904642 -3.066356
    7 19.319881 0.000001 -0.000002 0.000000 0.000000 0.089790
    8 16.701582 0.000000 0.000003 -0.043474 0.073968 -0.524567
    9 6.534990 -0.000001 -0.000001 -0.048065 -0.007633 -0.743192
    10 0.000008 4.212784 -1.689684 1.391991 -0.261036 1.611974
    11 3.620123 0.000000 0.000000 -0.172191 0.021080 0.188406
    12 3.445708 0.000000 0.000000 -0.171691 0.006963 0.425357
    13 7.391220 -0.000004 -0.000004 -0.159059 0.050025 0.195260
    14 3.178821 0.000002 0.000000 3.099213 -0.077626 0.366406
    15 3.706906 0.000007 0.000000 0.149245 0.022165 1.016275
    16 2.023580 0.907751 0.852527 4.522699 -0.869175 0.057462
    17 4.983664 -0.000002 -0.000003 -4.023763 -0.065423 1.000521
    18 10.904952 -0.000001 -0.000002 -0.000002 0.000001 -0.089538
    19 10.565869 0.000001 -0.000035 0.370313 -0.008272 0.294810
    20 3.464125 0.088921 -0.780289 -0.266522 0.272889 -0.114263
    21 1.149894 0.000002 -0.000006 0.000000 -0.053881 0.012281
    22 3.616506 0.088098 -0.193362 -0.074871 0.173485 -0.083578
    23 3.507635 -0.030216 0.336392 0.087874 -0.039626 -0.002228
    24 3.709202 0.065919 0.920439 0.315356 -0.197665 -0.104771
    25 0.820749 -0.193686 0.888225 -1.372855 -0.498548 -0.474342
    26 1.123137 0.000000 0.000000 0.000000 -0.012010 0.116354
    27 2.023587 0.907750 -0.852533 -4.329929 0.794638 0.379468
    28 4.983665 -0.000004 -0.000003 3.657307 -0.119973 0.685142
    29 10.904951 0.000008 0.000004 0.000002 0.000000 -0.089485
    30 10.565887 -0.000005 0.000007 -0.489644 -0.091763 0.117735
    31 3.464089 0.095513 0.779504 0.265534 -0.273843 -0.111899
    32 1.149899 -0.000004 -0.000001 0.000000 0.053975 0.011863
    33 3.616475 0.089729 0.192608 0.074650 -0.174185 -0.082089
    34 3.507605 -0.033056 -0.336130 -0.087881 0.039606 -0.002554
    35 3.709167 0.058126 -0.920966 -0.315627 0.196774 -0.106443
    36 0.820726 -0.201210 -0.886554 1.300502 0.122960 -0.720452
    37 1.123136 0.000000 0.000001 -0.000006 0.012724 0.116279
    38 1.321860 -0.000001 0.000000 0.000000 0.046519 -0.073857
    39 0.977461 0.000001 0.000005 0.000000 0.011737 -0.061857
    40 0.860970 0.000001 0.000000 0.000000 -0.000207 -0.180622
    41 1.575062 0.000002 -0.000004 0.000000 -0.055713 -0.133233
    42 1.060835 -0.000003 0.000000 0.000000 0.054561 -0.056841
    43 1.321865 -0.000004 -0.000002 0.000000 -0.047130 -0.073469
    44 0.977458 0.000000 0.000009 0.000000 -0.012250 -0.061757
    45 0.860970 -0.000002 -0.000004 0.000000 -0.000893 -0.180620
  time 18
    0 141.140900 -1.449258 39.689695 3.146409 -0.767218 -1.895556
    1 0.000000 0.000000 0.000000 0.000000 0.000000 0.000000
    2 3.984024 0.000005 0.000007 -0.490291 -0.544928 -2.397286
    3 19.319893 0.000003 0.000005 0.000000 0.000000 0.221922
    4 16.701588 -0.000003 -0.000001 -0.386145 0.015311 -0.460354
    5 6.534994 0.000003 0.000000 -0.005401 -0.004871 -1.089339
    6 -3.984010 0.000007 0.000008 -0.142038 -0.899576 -3.386004
    7 19.319881 0.000001 -0.000002 0.000000 0.000000 0.976074
    8 16.701582 0.000000 0.000003 -0.051484 0.069990 -1.210071
    9 6.534990 -0.000001 -0.000001 -0.079704 -0.004877 -1.089339
    10 0.000008 4.212784 -1.689684 1.410351 -0.282170 1.616001
    11 3.620123 0.000000 0.000000 -0.155054 0.005356 0.157234
    12 3.445708 0.000000 0.000000 -0.156087 0.059791 0.483981
    13 7.391220 -0.000004 -0.000004 -0.174520 0.025840 0.171770
    14 3.178821 0.000002 0.000000 3.099308 -0.077494 0.366390
    15 3.706906 0.000007 0.000000 0.149202 0.022165 0.993060
    16 2.023580 0.907751 0.852527 4.522699 -0.869175 0.057462
    17 4.983664 -0.000002 -0.000003 -4.118670 -0.334319 0.997971
    18 10.904952 -0.000001 -0.000002 -0.000002 0.000001 -0.089538
    19 10.565869 0.000001 -0.000035 0.370313 -0.008272 0.294810
    20 3.464125 0.088921 -0.780289 -0.266522 0.272889 -0.114263
    21 1.149894 0.000002 -0.000006 0.000000 -0.053881 0.012281
    22 3.616506 0.088098 -0.193362 -0.074871 0.173485 -0.083578
    23 3.507635 -0.030216 0.336392 0.087874 -0.039626 -0.002228
    24 3.709202 0.065919 0.920439 0.315356 -0.197665 -0.104771
    25 0.820749 -0.193686 0.888225 -1.372855 -0.498548 -0.474342
    26 1.123137 0.000000 0.000000 0.000000 -0.012010 0.116354
    27 2.023587 0.907750 -0.852533 -4.329929 0.794638 0.379468
    28 4.983665 -0.000004 -0.000003 3.598831 0.101837 0.531898
    29 10.904951 0.000008 0.000004 0.000002 0.000000 -0.089485
    30 10.565887 -0.000005 0.000007 -0.489644 -0.091763 0.117735
    31 3.464089 0.095513 0.779504 0.265534 -0.273843 -0.111899
    32 1.149899 -0.000004 -0.000001 0.000000 0.053975 0.011863
    33 3.616475 0.089729 0.192608 0.074650 -0.174185 -0.082089
    34 3.507605 -0.033056 -0.336130 -0.087881 0.039606 -0.002554
    35 3.709167 0.058126 -0.920966 -0.315627 0.196774 -0.106443
    36 0.820726 -0.201210 -0.886554 1.300502 0.122960 -0.720452
    37 1.123136 0.000000 0.000001 -0.000006 0.012724 0.116279
    38 1.321860 -0.000001 0.000000 0.000000 0.046519 -0.073857
    39 0.977461 0.000001 0.000005 0.000000 0.011737 -0.061857
    40 0.860970 0.000001 0.000000 0.000000 -0.000207 -0.180622
    41 1.575062 0.000002 -0.000004 0.000000 -0.055713 -0.133233
    42 1.060835 -0.000003 0.000000 0.000000 0.054561 -0.056841
    43 1.321865 -0.000004 -0.000002 0.000000 -0.047130 -0.073469
    44 0.977458 0.000000 0.000009 0.000000 -0.012250 -0.061757
    45 0.860970 -0.000002 -0.000004 0.000000 -0.000893 -0.180620
  time 19
    0 148.520490 -1.449258 35.525506 2.659619 -0.874218 -1.541650
    1 0.000000 0.000000 0.000000 0.000000 0.000000 0.000000
    2 3.984024 0.000005 0.000007 -1.670710 -0.713948 -2.207011
    3 19.319893 0.000003 0.000005 0.000000 0.000000 0.497320
    4 16.701588 -0.000003 -0.000001 0.540768 0.087483 -0.181540
    5 6.534994 0.000003 0.000000 -0.005401 -0.004871 -1.089339
    6 -3.984010 0.000007 0.000008 -0.240599 -0.884248 -3.342267
    7 19.319881 0.000001 -0.000002 0.000000 0.000000 1.483368
    8 16.701582 0.000000 0.000003 -0.031804 0.112505 -1.532535
    9 6.534990 -0.000001 -0.000001 -0.079704 -0.004877 -1.089339
    10 0.000008 4.212784 -1.689684 1.459726 -0.241154 1.587190
    11 3.620123 0.000000 0.000000 -0.118455 -0.061398 0.069280
    12 3.445708 0.000000 0.000000 -0.122842 0.132586 0.582717
    13 7.391220 -0.000004 -0.000004 -0.207441 -0.058268 0.107557
    14 3.178821 0.000002 0.000000 3.099308 -0.077494 0.366390
    15 3.706906 0.000007 0.000000 0.149202 0.022165 0.845400
    16 2.023580 0.907751 0.852527 4.522699 -0.869175 0.057366
    17 4.983664 -0.000002 -0.000003 -4.124762 -0.754778 0.906139
    18 10.904952 -0.000001 -0.000002 -0.000002 0.000001 -0.330962
    19 10.565869 0.000001 -0.000035 0.370313 -0.008272 0.249370
    20 3.464125 0.088921 -0.780289 -0.266522 0.272889 -0.114263
    21 1.149894 0.000002 -0.000006 0.000000 -0.053881 0.012281
    22 3.616506 0.088098 -0.193362 -0.074871 0.173485 -0.083578
    23 3.507635 -0.030216 0.336392 0.087874 -0.039626 -0.002228
    24 3.709202 0.065919 0.920439 0.315356 -0.197665 -0.104771
    25 0.820749 -0.193686 0.888225 -1.372855 -0.498548 -0.474342
    26 1.123137 0.000000 0.000000 0.000000 -0.012010 0.116354
    27 2.023587 0.907750 -0.852533 -4.329929 0.794638 0.379468
    28 4.983665 -0.000004 -0.000003 3.440508 0.368819 0.045394
    29 10.904951 0.000008 0.000004 0.000002 0.000000 -0.596695
    30 10.565887 -0.000005 0.000007 -0.489644 -0.091763 0.072290
    31 3.464089 0.095513 0.779504 0.265534 -0.273843 -0.111899
    32 1.149899 -0.000004 -0.000001 0.000000 0.053975 0.011863
    33 3.616475 0.089729 0.192608 0.074650 -0.174185 -0.082089
    34 3.507605 -0.033056 -0.336130 -0.087881 0.039606 -0.002554
    35 3.709167 0.058126 -0.920966 -0.315627 0.196774 -0.106443
    36 0.820726 -0.201210 -0.886554 1.300502 0.122960 -0.720452
    37 1.123136 0.000000 0.000001 -0.000006 0.012724 0.116279
    38 1.321860 -0.000001 0.000000 0.000000 0.046519 -0.073857
    39 0.977461 0.000001 0.000005 0.000000 0.011737 -0.061857
    40 0.860970 0.000001 0.000000 0.000000 -0.000207 -0.180622
    41 1.575062 0.000002 -0.000004 0.000000 -0.055713 -0.133233
    42 1.060835 -0.000003 0.000000 0.000000 0.054561 -0.056841
    43 1.321865 -0.000004 -0.000002 0.000000 -0.047130 -0.073469
    44 0.977458 0.000000 0.000009 0.000000 -0.012250 -0.061757
    45 0.860970 -0.000002 -0.000004 0.000000 -0.000893 -0.180620
  time 20
    0 154.885059 -1.449258 27.892460 2.110054 -0.836552 -1.095023
    1 0.000000 0.000000 0.000000 0.000000 0.000000 0.000000
    2 3.984024 0.000005 0.000007 -2.089201 -0.918369 -1.767042
    3 19.319893 0.000003 0.000005 0.000000 0.000000 1.344380
    4 16.701588 -0.000003 -0.000001 0.612333 0.102412 -0.940238
    5 6.534994 0.000003 0.000000 -0.005401 -0.004871 -1.089339
    6 -3.984010 0.000007 0.000008 -0.523324 -0.948879 -3.134224
    7 19.319881 0.000001 -0.000002 0.000000 0.000000 1.951979
    8 16.701582 0.000000 0.000003 0.072999 0.243926 -1.856348
    9 6.534990 -0.000001 -0.000001 -0.079704 -0.004877 -1.089339
    10 0.000008 4.212784 -1.689684 1.499034 -0.223208 1.587334
    11 3.620123 0.000000 0.000000 -0.068192 -0.081736 0.026495
    12 3.445708 0.000000 0.000000 -0.074484 0.193539 0.636301
    13 7.391220 -0.000004 -0.000004 -0.211157 -0.091513 0.093259
    14 3.178821 0.000002 0.000000 3.099308 -0.077494 0.366390
    15 3.706906 0.000007 0.000000 0.149202 0.022165 0.619724
    16 2.023580 0.907751 0.852527 4.522699 -0.869175 0.057366
    17 4.983664 -0.000002 -0.000003 -4.054891 -1.138345 0.838359
    18 10.904952 -0.000001 -0.000002 -0.000002 0.000001 -0.625686
    19 10.565869 0.000001 -0.000035 0.370313 -0.008272 0.249370
    20 3.464125 0.088921 -0.780289 -0.266522 0.272889 -0.114263
    21 1.149894 0.000002 -0.000006 0.000000 -0.053881 0.012281
    22 3.616506 0.088098 -0.193362 -0.074871 0.173485 -0.083578
    23 3.507635 -0.030216 0.336392 0.087874 -0.039626 -0.002228
    24 3.709202 0.065919 0.920439 0.315356 -0.197665 -0.104771
    25 0.820749 -0.193686 0.888225 -1.372855 -0.498548 -0.474342
    26 1.123137 0.000000 0.000000 0.000000 -0.012010 0.116354
    27 2.023587 0.907750 -0.852533 -4.329929 0.794638 0.379468
    28 4.983665 -0.000004 -0.000003 3.196191 0.426530 -0.368904
    29 10.904951 0.000008 0.000004 0.000002 0.000000 -0.847681
    30 10.565887 -0.000005 0.000007 -0.489644 -0.091763 0.072290
    31 3.464089 0.095513 0.779504 0.265534 -0.273843 -0.111899
    32 1.149899 -0.000004 -0.000001 0.000000 0.053975 0.011863
    33 3.616475 0.089729 0.192608 0.074650 -0.174185 -0.082089
    34 3.507605 -0.033056 -0.336130 -0.087881 0.039606 -0.002554
    35 3.709167 0.058126 -0.920966 -0.315627 0.196774 -0.106443
    36 0.820726 -0.201210 -0.886554 1.300502 0.122960 -0.720452
    37 1.123136 0.000000 0.000001 -0.000006 0.012724 0.116279
    38 1.321860 -0.000001 0.000000 0.000000 0.046519 -0.073857
    39 0.977461 0.000001 0.000005 0.000000 0.011737 -0.061857
    40 0.860970 0.000001 0.000000 0.000000 -0.000207 -0.180622
    41 1.575062 0.000002 -0.000004 0.000000 -0.055713 -0.133233
    42 1.060835 -0.000003 0.000000 0.000000 0.054561 -0.056841
    43 1.321865 -0.000004 -0.000002 0.000000 -0.047130 -0.073469
    44 0.977458 0.000000 0.000009 0.000000 -0.012250 -0.061757
    45 0.860970 -0.000002 -0.000004 0.000000 -0.000893 -0.180620
  time 21
    0 160.086166 -1.449258 20.001594 1.696162 -0.558830 -0.710085
    1 0.000000 0.000000 0.000000 0.000000 0.000000 0.000000
    2 3.984024 0.000005 0.000007 -1.948365 -1.012637 -1.525139
    3 19.319893 0.000003 0.000005 0.000000 0.000000 1.959713
    4 16.701588 -0.000003 -0.000001 0.512179 0.145382 -1.754087
    5 6.534994 0.000003 0.000000 -0.005401 -0.004871 -1.089339
    6 -3.984010 0.000007 0.000008 -0.630398 -0.855382 -2.855829
    7 19.319881 0.000001 -0.000002 0.000000 0.000000 2.286618
    8 16.701582 0.000000 0.000003 0.078143 0.255944 -2.114805
    9 6.534990 -0.000001 -0.000001 -0.079704 -0.004877 -1.089339
    10 0.000008 4.212784 -1.689684 1.632251 -0.179276 1.618685
    11 3.620123 0.000000 0.000000 0.031210 0.104049 0.083090
    12 3.445708 0.000000 0.000000 0.048382 0.364739 0.393122
    13 7.391220 -0.000004 -0.000004 -0.226209 -0.099855 0.212818
    14 3.178821 0.000002 0.000000 3.099308 -0.077494 0.366390
    15 3.706906 0.000007 0.000000 0.149202 0.022165 0.449085
    16 2.023580 0.907751 0.852527 4.522699 -0.869175 0.057366
    17 4.983664 -0.000002 -0.000003 0.901209 -1.251289 2.179755
    18 10.904952 -0.000001 -0.000002 -0.000002 0.000001 -0.741877
    19 10.565869 0.000001 -0.000035 0.370313 -0.008272 0.249370
    20 3.464125 0.088921 -0.780289 -0.266522 0.272889 -0.114263
    21 1.149894 0.000002 -0.000006 0.000000 -0.053881 0.012281
    22 3.616506 0.088098 -0.193362 -0.074871 0.173485 -0.083578
    23 3.507635 -0.030216 0.336392 0.087874 -0.039626 -0.002228
    24 3.709202 0.065919 0.920439 0.315356 -0.197665 -0.104771
    25 0.820749 -0.193686 0.888225 -1.372855 -0.498548 -0.474342
    26 1.123137 0.000000 0.000000 0.000000 -0.012010 0.116354
    27 2.023587 0.907750 -0.852533 -4.329929 0.794638 0.379468
    28 4.983665 -0.000004 -0.000003 2.896360 0.145429 -0.752334
    29 10.904951 0.000008 0.000004 0.000002 0.000000 -0.948230
    30 10.565887 -0.000005 0.000007 -0.489644 -0.091763 0.072290
    31 3.464089 0.095513 0.779504 0.265534 -0.273843 -0.111899
    32 1.149899 -0.000004 -0.000001 0.000000 0.053975 0.011863
    33 3.616475 0.089729 0.192608 0.074650 -0.174185 -0.082089
    34 3.507605 -0.033056 -0.336130 -0.087881 0.039606 -0.002554
    35 3.709167 0.058126 -0.920966 -0.315627 0.196774 -0.106443
    36 0.820726 -0.201210 -0.886554 1.300502 0.122960 -0.720452
    37 1.123136 0.000000 0.000001 -0.000006 0.012724 0.116279
    38 1.321860 -0.000001 0.000000 0.000000 0.046519 -0.073857
    39 0.977461 0.000001 0.000005 0.000000 0.011737 -0.061857
    40 0.860970 0.000001 0.000000 0.000000 -0.000207 -0.180622
    41 1.575062 0.000002 -0.000004 0.000000 -0.055713 -0.133233
    42 1.060835 -0.000003 0.000000 0.000000 0.054561 -0.056841
    43 1.321865 -0.000004 -0.000002 0.000000 -0.047130 -0.073469
    44 0.977458 0.000000 0.000009 0.000000 -0.012250 -0.061757
    45 0.860970 -0.000002 -0.000004 0.000000 -0.000893 -0.180620
  time 22
    0 163.983181 -1.449258 14.645962 1.531236 -0.268938 -0.562656
    1 0.000000 0.000000 0.000000 0.000000 0.000000 0.000000
    2 3.984024 0.000005 0.000007 -1.793571 -1.164047 -1.348475
    3 19.319893 0.000003 0.000005 0.000000 0.000000 2.359641
    4 16.701588 -0.000003 -0.000001 0.391678 0.093514 -2.154894
    5 6.534994 0.000003 0.000000 -0.005401 -0.004871 -1.089339
    6 -3.984010 0.000007 0.000008 -0.678165 -0.709613 -2.612921
    7 19.319881 0.000001 -0.000002 0.000000 0.000000 2.511461
    8 16.701582 0.000000 0.000003 0.040389 0.208296 -2.367725
    9 6.534990 -0.000001 -0.000001 -0.079704 -0.004877 -1.089339
    10 0.000008 4.212784 -1.689684 1.681291 -0.114864 1.642701
    11 3.620123 0.000000 0.000000 0.038591 0.190638 0.174012
    12 3.445708 0.000000 0.000000 0.066359 0.391585 0.253547
    13 7.391220 -0.000004 -0.000004 -0.197698 -0.092196 0.275113
    14 3.178821 0.000002 0.000000 3.099884 -0.076464 0.366359
    15 3.706906 0.000007 0.000000 0.157210 0.024770 0.405498
    16 2.023580 0.907751 0.852527 4.520699 -0.874909 0.059184
    17 4.983664 -0.000002 -0.000003 -0.074704 -1.280980 -2.982399
    18 10.904952 -0.000001 -0.000002 -0.000002 0.000001 -1.036287
    19 10.565869 0.000001 -0.000035 0.370313 -0.008272 0.249370
    20 3.464125 0.088921 -0.780289 -0.266522 0.272889 -0.114263
    21 1.149894 0.000002 -0.000006 0.000000 -0.053881 0.012281
    22 3.616506 0.088098 -0.193362 -0.074871 0.173485 -0.083578
    23 3.507635 -0.030216 0.336392 0.087874 -0.039626 -0.002228
    24 3.709202 0.065919 0.920439 0.315356 -0.197665 -0.104771
    25 0.820749 -0.193686 0.888225 -1.372855 -0.498548 -0.474342
    26 1.123137 0.000000 0.000000 0.000000 -0.012010 0.116354
    27 2.023587 0.907750 -0.852533 -4.326023 0.799831 0.382432
    28 4.983665 -0.000004 -0.000003 2.796895 0.147058 -1.068020
    29 10.904951 0.000008 0.000004 0.000002 0.000000 -1.222314
    30 10.565887 -0.000005 0.000007 -0.489644 -0.091763 0.072290
    31 3.464089 0.095513 0.779504 0.265534 -0.273843 -0.111899
    32 1.149899 -0.000004 -0.000001 0.000000 0.053975 0.011863
    33 3.616475 0.089729 0.192608 0.074650 -0.174185 -0.082089
    34 3.507605 -0.033056 -0.336130 -0.087881 0.039606 -0.002554
    35 3.709167 0.058126 -0.920966 -0.315627 0.196774 -0.106443
    36 0.820726 -0.201210 -0.886554 1.300502 0.122960 -0.720452
    37 1.123136 0.000000 0.000001 -0.000006 0.012724 0.116279
    38 1.321860 -0.000001 0.000000 0.000000 0.046519 -0.073857
    39 0.977461 0.000001 0.000005 0.000000 0.011737 -0.061857
    40 0.860970 0.000001 0.000000 0.000000 -0.000207 -0.180622
    41 1.575062 0.000002 -0.000004 0.000000 -0.055713 -0.133233
    42 1.060835 -0.000003 0.000000 0.000000 0.054561 -0.056841
    43 1.321865 -0.000004 -0.000002 0.000000 -0.047130 -0.073469
    44 0.977458 0.000000 0.000009 0.000000 -0.012250 -0.061757
    45 0.860970 -0.000002 -0.000004 0.000000 -0.000893 -0.180620
  time 23
    0 166.427662 -1.453164 12.559961 1.414693 -0.124441 -0.492007
    1 0.000000 0.000000 0.000000 0.000000 0.000000 0.000000
    2 3.984024 0.000005 0.000007 -1.954485 -1.340965 -1.062359
    3 19.319893 0.000003 0.000005 0.000000 0.000000 2.508826
    4 16.701588 -0.000003 -0.000001 0.225170 0.030146 -1.931083
    5 6.534994 0.000003 0.000000 -0.005401 -0.004871 -1.089339
    6 -3.984010 0.000007 0.000008 -0.748539 -0.423271 -2.371699
    7 19.319881 0.000001 -0.000002 0.000000 0.000000 2.654521
    8 16.701582 0.000000 0.000003 -0.019064 0.128569 -2.590127
    9 6.534990 -0.000001 -0.000001 -0.079704 -0.004877 -1.089339
    10 0.000008 4.212784 -1.689684 1.592416 -0.072962 1.677551
    11 3.620123 0.000000 0.000000 -0.055039 0.127982 0.303326
    12 3.445708 0.000000 0.000000 -0.040532 0.221463 0.334153
    13 7.391220 -0.000004 -0.000004 -0.095146 -0.030763 0.263968
    14 3.178821 0.000002 0.000000 3.118100 -0.043039 0.365255
    15 3.706906 0.000007 0.000000 0.418304 0.106222 0.346907
    16 2.023580 0.907751 0.852527 4.430125 -1.058497 0.137050
    17 4.983664 -0.000002 -0.000003 -1.631672 -1.068753 -1.489408
    18 10.904952 -0.000001 -0.000002 -0.000002 0.000001 -1.330382
    19 10.565869 0.000001 -0.000035 0.370359 -0.008272 0.249370
    20 3.464125 0.088921 -0.780289 -0.266522 0.272889 -0.114263
    21 1.149894 0.000002 -0.000006 0.000000 -0.053881 0.012281
    22 3.616506 0.088098 -0.193362 -0.074871 0.173485 -0.083578
    23 3.507635 -0.030216 0.336392 0.087874 -0.039626 -0.002228
    24 3.709202 0.065919 0.920439 0.315356 -0.197665 -0.104771
    25 0.820749 -0.193686 0.888225 -1.372855 -0.498548 -0.474342
    26 1.123137 0.000000 0.000000 0.000000 -0.012010 0.116354
    27 2.023587 0.907750 -0.852533 -4.169130 0.962405 0.510142
    28 4.983665 -0.000004 -0.000003 2.494198 0.457237 -0.982155
    29 10.904951 0.000008 0.000004 0.000002 0.000000 -1.505843
    30 10.565887 -0.000005 0.000007 -0.489644 -0.091763 0.072290
    31 3.464089 0.095513 0.779504 0.265534 -0.273843 -0.111899
    32 1.149899 -0.000004 -0.000001 0.000000 0.053975 0.011863
    33 3.616475 0.089729 0.192608 0.074650 -0.174185 -0.082089
    34 3.507605 -0.033056 -0.336130 -0.087881 0.039606 -0.002554
    35 3.709167 0.058126 -0.920966 -0.315627 0.196774 -0.106443
    36 0.820726 -0.201210 -0.886554 1.300502 0.122960 -0.720452
    37 1.123136 0.000000 0.000001 -0.000006 0.012724 0.116279
    38 1.321860 -0.000001 0.000000 0.000000 0.046519 -0.073857
    39 0.977461 0.000001 0.000005 0.000000 0.011737 -0.061857
    40 0.860970 0.000001 0.000000 0.000000 -0.000207 -0.180622
    41 1.575062 0.000002 -0.000004 0.000000 -0.055713 -0.133233
    42 1.060835 -0.000003 0.000000 0.000000 0.054561 -0.056841
    43 1.321865 -0.000004 -0.000002 0.000000 -0.047130 -0.073469
    44 0.977458 0.000000 0.000009 0.000000 -0.012250 -0.061757
    45 0.860970 -0.000002 -0.000004 0.000000 -0.000893 -0.180620
  time 24
    0 167.275073 -1.460977 13.321703 1.327123 -0.041995 -0.443618
    1 0.000000 0.000000 0.000000 0.000000 0.000000 0.000000
    2 3.984024 0.000005 0.000007 -2.535515 -1.384082 -0.515754
    3 19.319893 0.000003 0.000005 0.000000 0.000000 2.458509
    4 16.701588 -0.000003 -0.000001 0.139713 0.023590 -1.447747
    5 6.534994 0.000003 0.000000 -0.005401 -0.004871 -1.089339
    6 -3.984010 0.000007 0.000008 -0.738323 -0.143392 -2.221411
    7 19.319881 0.000001 -0.000002 0.000000 0.000000 2.654020
    8 16.701582 0.000000 0.000003 -0.061358 0.059858 -2.588642
    9 6.534990 -0.000001 -0.000001 -0.079704 -0.004877 -1.089339
    10 0.000008 4.212784 -1.689684 1.513751 -0.029316 1.693323
    11 3.620123 0.000000 0.000000 -0.149256 0.048680 0.393290
    12 3.445708 0.000000 0.000000 -0.147303 0.060091 0.407936
    13 7.391220 -0.000004 -0.000004 -0.011877 0.006197 0.231466
    14 3.178821 0.000002 0.000000 3.139960 -0.003130 0.364773
    15 3.706906 0.000007 0.000000 0.735918 0.193608 0.298542
    16 2.023580 0.907751 0.852527 4.194689 -1.267252 0.358117
    17 4.983664 -0.000002 -0.000003 -2.448614 -0.823136 -0.937143
    18 10.904952 -0.000001 -0.000002 -0.000002 0.000001 -1.365837
    19 10.565869 0.000001 -0.000035 0.370359 -0.008272 0.249370
    20 3.464125 0.088921 -0.780289 -0.266522 0.272889 -0.114263
    21 1.149894 0.000002 -0.000006 0.000000 -0.053881 0.012281
    22 3.616506 0.088098 -0.193362 -0.074871 0.173485 -0.083578
    23 3.507635 -0.030216 0.336392 0.087874 -0.039626 -0.002228
    24 3.709202 0.065919 0.920439 0.315356 -0.197665 -0.104771
    25 0.820749 -0.193686 0.888225 -1.372855 -0.498548 -0.474342
    26 1.123137 0.000000 0.000000 0.000000 -0.012010 0.116354
    27 2.023587 0.907750 -0.852533 -3.857439 1.129762 0.788889
    28 4.983665 -0.000004 -0.000003 1.988748 0.560613 0.099662
    29 10.904951 0.000008 0.000004 0.000002 0.000000 -1.503783
    30 10.565887 -0.000005 0.000007 -0.489644 -0.091763 0.072290
    31 3.464089 0.095513 0.779504 0.265534 -0.273843 -0.111899
    32 1.149899 -0.000004 -0.000001 0.000000 0.053975 0.011863
    33 3.616475 0.089729 0.192608 0.074650 -0.174185 -0.082089
    34 3.507605 -0.033056 -0.336130 -0.087881 0.039606 -0.002554
    35 3.709167 0.058126 -0.920966 -0.315627 0.196774 -0.106443
    36 0.820726 -0.201210 -0.886554 1.300502 0.122960 -0.720452
    37 1.123136 0.000000 0.000001 -0.000006 0.012724 0.116279
    38 1.321860 -0.000001 0.000000 0.000000 0.046519 -0.073857
    39 0.977461 0.000001 0.000005 0.000000 0.011737 -0.061857
    40 0.860970 0.000001 0.000000 0.000000 -0.000207 -0.180622
    41 1.575062 0.000002 -0.000004 0.000000 -0.055713 -0.133233
    42 1.060835 -0.000003 0.000000 0.000000 0.054561 -0.056841
    43 1.321865 -0.000004 -0.000002 0.000000 -0.047130 -0.073469
    44 0.977458 0.000000 0.000009 0.000000 -0.012250 -0.061757
    45 0.860970 -0.000002 -0.000004 0.000000 -0.000893 -0.180620
  time 25
    0 167.275438 -1.511760 15.005348 1.287098 0.004071 -0.423810
    1 0.000000 0.000000 0.000000 0.000000 0.000000 0.000000
    2 3.984024 0.000005 0.000007 -2.363319 -1.367743 -0.702367
    3 19.319893 0.000003 0.000005 0.000000 0.000000 2.357117
    4 16.701588 -0.000003 -0.000001 0.075251 0.012089 -1.253386
    5 6.534994 0.000003 0.000000 -0.005401 -0.004871 -1.089339
    6 -3.984010 0.000007 0.000008 -0.731702 -0.096796 -2.196038
    7 19.319881 0.000001 -0.000002 0.000000 0.000000 2.597830
    8 16.701582 0.000000 0.000003 -0.060771 0.060487 -2.422616
    9 6.534990 -0.000001 -0.000001 -0.079704 -0.004877 -1.089339
    10 0.000008 4.212784 -1.689684 1.499801 -0.011860 1.664561
    11 3.620123 0.000000 0.000000 -0.190299 -0.008402 0.355715
    12 3.445708 0.000000 0.000000 -0.190351 -0.006819 0.374322
    13 7.391220 -0.000004 -0.000004 0.002133 -0.014920 0.188105
    14 3.178821 0.000002 0.000000 3.141590 -0.000002 0.364773
    15 3.706906 0.000007 0.000000 0.761218 0.199831 0.295660
    16 2.023580 0.907751 0.852527 4.162593 -1.282498 0.389110
    17 4.983664 -0.000002 -0.000003 -2.461274 -0.396217 -0.428789
    18 10.904952 -0.000001 -0.000002 -0.000002 0.000001 -1.056962
    19 10.565869 0.000001 -0.000035 0.370313 -0.008272 0.249370
    20 3.464125 0.088921 -0.780289 -0.266522 0.272889 -0.114263
    21 1.149894 0.000002 -0.000006 0.000000 -0.053881 0.012281
    22 3.616506 0.088098 -0.193362 -0.074871 0.173485 -0.083578
    23 3.507635 -0.030216 0.336392 0.087874 -0.039626 -0.002228
    24 3.709202 0.065919 0.920439 0.315356 -0.197665 -0.104771
    25 0.820749 -0.193686 0.888225 -1.372855 -0.498548 -0.474342
    26 1.123137 0.000000 0.000000 0.000000 -0.012010 0.116354
    27 2.023587 0.907750 -0.852533 -3.823907 1.140740 0.819765
    28 4.983665 -0.000004 -0.000003 2.453016 1.113534 0.324658
    29 10.904951 0.000008 0.000004 0.000002 0.000000 -1.126745
    30 10.565887 -0.000005 0.000007 -0.489644 -0.091763 0.072290
    31 3.464089 0.095513 0.779504 0.265534 -0.273843 -0.111899
    32 1.149899 -0.000004 -0.000001 0.000000 0.053975 0.011863
    33 3.616475 0.089729 0.192608 0.074650 -0.174185 -0.082089
    34 3.507605 -0.033056 -0.336130 -0.087881 0.039606 -0.002554
    35 3.709167 0.058126 -0.920966 -0.315627 0.196774 -0.106443
    36 0.820726 -0.201210 -0.886554 1.300502 0.122960 -0.720452
    37 1.123136 0.000000 0.000001 -0.000006 0.012724 0.116279
    38 1.321860 -0.000001 0.000000 0.000000 0.046519 -0.073857
    39 0.977461 0.000001 0.000005 0.000000 0.011737 -0.061857
    40 0.860970 0.000001 0.000000 0.000000 -0.000207 -0.180622
    41 1.575062 0.000002 -0.000004 0.000000 -0.055713 -0.133233
    42 1.060835 -0.000003 0.000000 0.000000 0.054561 -0.056841
    43 1.321865 -0.000004 -0.000002 0.000000 -0.047130 -0.073469
    44 0.977458 0.000000 0.000009 0.000000 -0.012250 -0.061757
    45 0.860970 -0.000002 -0.000004 0.000000 -0.000893 -0.180620
  time 26
    0 167.272531 -1.601606 15.829592 1.281898 -0.003342 -0.426640
    1 0.000000 0.000000 0.000000 0.000000 0.000000 0.000000
    2 3.984024 0.000005 0.000007 -2.306621 -1.342916 -0.779716
    3 19.319893 0.000003 0.000005 0.000000 0.000000 2.288709
    4 16.701588 -0.000003 -0.000001 0.099201 -0.002540 -1.220433
    5 6.534994 0.000003 0.000000 -0.005401 -0.004871 -1.089339
    6 -3.984010 0.000007 0.000008 -0.734445 -0.150597 -2.269141
    7 19.319881 0.000001 -0.000002 0.000000 0.000000 2.572070
    8 16.701582 0.000000 0.000003 -0.054798 0.058277 -2.265908
    9 6.534990 -0.000001 -0.000001 -0.079704 -0.004877 -1.089339
    10 0.000008 4.212784 -1.689684 1.492084 -0.094764 1.630382
    11 3.620123 0.000000 0.000000 -0.180696 -0.050947 0.227383
    12 3.445708 0.000000 0.000000 -0.181135 -0.049448 0.293869
    13 7.391220 -0.000004 -0.000004 0.001127 -0.007849 0.161859
    14 3.178821 0.000002 0.000000 3.141590 -0.000002 0.364773
    15 3.706906 0.000007 0.000000 0.761218 0.199831 0.295660
    16 2.023580 0.907751 0.852527 4.162593 -1.282498 0.389110
    17 4.983664 -0.000002 -0.000003 -2.264416 -0.329979 -0.181263
    18 10.904952 -0.000001 -0.000002 -0.000002 0.000001 -0.656502
    19 10.565869 0.000001 -0.000035 0.370313 -0.008272 0.249370
    20 3.464125 0.088921 -0.780289 -0.266522 0.272889 -0.114263
    21 1.149894 0.000002 -0.000006 0.000000 -0.053881 0.012281
    22 3.616506 0.088098 -0.193362 -0.074871 0.173485 -0.083578
    23 3.507635 -0.030216 0.336392 0.087874 -0.039626 -0.002228
    24 3.709202 0.065919 0.920439 0.315356 -0.197665 -0.104771
    25 0.820749 -0.193686 0.888225 -1.372855 -0.498548 -0.474342
    26 1.123137 0.000000 0.000000 0.000000 -0.012010 0.116354
    27 2.023587 0.907750 -0.852533 -3.823907 1.140740 0.819765
    28 4.983665 -0.000004 -0.000003 3.443661 1.330703 1.196868
    29 10.904951 0.000008 0.000004 0.000002 0.000000 -0.658776
    30 10.565887 -0.000005 0.000007 -0.489644 -0.091763 0.072290
    31 3.464089 0.095513 0.779504 0.265534 -0.273843 -0.111899
    32 1.149899 -0.000004 -0.000001 0.000000 0.053975 0.011863
    33 3.616475 0.089729 0.192608 0.074650 -0.174185 -0.082089
    34 3.507605 -0.033056 -0.336130 -0.087881 0.039606 -0.002554
    35 3.709167 0.058126 -0.920966 -0.315627 0.196774 -0.106443
    36 0.820726 -0.201210 -0.886554 1.300502 0.122960 -0.720452
    37 1.123136 0.000000 0.000001 -0.000006 0.012724 0.116279
    38 1.321860 -0.000001 0.000000 0.000000 0.046519 -0.073857
    39 0.977461 0.000001 0.000005 0.000000 0.011737 -0.061857
    40 0.860970 0.000001 0.000000 0.000000 -0.000207 -0.180622
    41 1.575062 0.000002 -0.000004 0.000000 -0.055713 -0.133233
    42 1.060835 -0.000003 0.000000 0.000000 0.054561 -0.056841
    43 1.321865 -0.000004 -0.000002 0.000000 -0.047130 -0.073469
    44 0.977458 0.000000 0.000009 0.000000 -0.012250 -0.061757
    45 0.860970 -0.000002 -0.000004 0.000000 -0.000893 -0.180620
  time 27
    0 167.278073 -1.648483 15.993659 1.285891 -0.017783 -0.432205
    1 0.000000 0.000000 0.000000 0.000000 0.000000 0.000000
    2 3.984024 0.000005 0.000007 -2.311402 -1.329618 -0.789479
    3 19.319893 0.000003 0.000005 0.000000 0.000000 2.265655
    4 16.701588 -0.000003 -0.000001 0.130823 -0.009958 -1.233999
    5 6.534994 0.000003 0.000000 -0.005401 -0.004871 -1.089339
    6 -3.984010 0.000007 0.000008 -0.734918 -0.192040 -2.321041
    7 19.319881 0.000001 -0.000002 0.000000 0.000000 2.566317
    8 16.701582 0.000000 0.000003 -0.051984 0.055506 -2.196771
    9 6.534990 -0.000001 -0.000001 -0.079704 -0.004877 -1.089339
    10 0.000008 4.212784 -1.689684 1.490550 -0.137538 1.618973
    11 3.620123 0.000000 0.000000 -0.171042 -0.063771 0.172844
    12 3.445708 0.000000 0.000000 -0.171559 -0.062356 0.261884
    13 7.391220 -0.000004 -0.000004 0.000000 0.000001 0.155687
    14 3.178821 0.000002 0.000000 3.141590 -0.000002 0.364773
    15 3.706906 0.000007 0.000000 0.761218 0.199831 0.295660
    16 2.023580 0.907751 0.852527 4.162498 -1.282498 0.389110
    17 4.983664 -0.000002 -0.000003 -2.213774 -0.377080 -0.101457
    18 10.904952 -0.000001 -0.000002 -0.000002 0.000001 -0.455643
    19 10.565869 0.000001 -0.000035 0.370313 -0.008272 0.249370
    20 3.464125 0.088921 -0.780289 -0.266522 0.272889 -0.114263
    21 1.149894 0.000002 -0.000006 0.000000 -0.053881 0.012281
    22 3.616506 0.088098 -0.193362 -0.074871 0.173485 -0.083578
    23 3.507635 -0.030216 0.336392 0.087874 -0.039626 -0.002228
    24 3.709202 0.065919 0.920439 0.315356 -0.197665 -0.104771
    25 0.820749 -0.193686 0.888225 -1.372855 -0.498548 -0.474342
    26 1.123137 0.000000 0.000000 0.000000 -0.012010 0.116354
    27 2.023587 0.907750 -0.852533 -3.823907 1.140740 0.819765
    28 4.983665 -0.000004 -0.000003 3.959621 1.281484 1.690110
    29 10.904951 0.000008 0.000004 0.000002 0.000000 -0.411225
    30 10.565887 -0.000005 0.000007 -0.489644 -0.091763 0.072290
    31 3.464089 0.095513 0.779504 0.265534 -0.273843 -0.111899
    32 1.149899 -0.000004 -0.000001 0.000000 0.053975 0.011863
    33 3.616475 0.089729 0.192608 0.074650 -0.174185 -0.082089
    34 3.507605 -0.033056 -0.336130 -0.087881 0.039606 -0.002554
    35 3.709167 0.058126 -0.920966 -0.315627 0.196774 -0.106443
    36 0.820726 -0.201210 -0.886554 1.300502 0.122960 -0.720452
    37 1.123136 0.000000 0.000001 -0.000006 0.012724 0.116279
    38 1.321860 -0.000001 0.000000 0.000000 0.046519 -0.073857
    39 0.977461 0.000001 0.000005 0.000000 0.011737 -0.061857
    40 0.860970 0.000001 0.000000 0.000000 -0.000207 -0.180622
    41 1.575062 0.000002 -0.000004 0.000000 -0.055713 -0.133233
    42 1.060835 -0.000003 0.000000 0.000000 0.054561 -0.056841
    43 1.321865 -0.000004 -0.000002 0.000000 -0.047130 -0.073469
    44 0.977458 0.000000 0.000009 0.000000 -0.012250 -0.061757
    45 0.860970 -0.000002 -0.000004 0.000000 -0.000893 -0.180620
end
