// Created by Crowbar 0.68
version 1
nodes
  0 "ValveBiped.Bip01" -1
  1 "ValveBiped.Bip01_Pelvis" 0
  2 "ValveBiped.Bip01_L_Thigh" 1
  3 "ValveBiped.Bip01_L_Calf" 2
  4 "ValveBiped.Bip01_L_Foot" 3
  5 "ValveBiped.Bip01_L_Toe0" 4
  6 "ValveBiped.Bip01_R_Thigh" 1
  7 "ValveBiped.Bip01_R_Calf" 6
  8 "ValveBiped.Bip01_R_Foot" 7
  9 "ValveBiped.Bip01_R_Toe0" 8
  10 "ValveBiped.Bip01_Spine" 0
  11 "ValveBiped.Bip01_Spine1" 10
  12 "ValveBiped.Bip01_Spine2" 11
  13 "ValveBiped.Bip01_Spine4" 12
  14 "ValveBiped.Bip01_Neck1" 13
  15 "ValveBiped.Bip01_Head1" 14
  16 "ValveBiped.Bip01_L_Clavicle" 13
  17 "ValveBiped.Bip01_L_UpperArm" 16
  18 "ValveBiped.Bip01_L_Forearm" 17
  19 "ValveBiped.Bip01_L_Hand" 18
  20 "ValveBiped.Bip01_L_Finger4" 19
  21 "ValveBiped.Bip01_L_Finger41" 20
  22 "ValveBiped.Bip01_L_Finger3" 19
  23 "ValveBiped.Bip01_L_Finger2" 19
  24 "ValveBiped.Bip01_L_Finger1" 19
  25 "ValveBiped.Bip01_L_Finger0" 19
  26 "ValveBiped.Bip01_L_Finger01" 25
  27 "ValveBiped.Bip01_R_Clavicle" 13
  28 "ValveBiped.Bip01_R_UpperArm" 27
  29 "ValveBiped.Bip01_R_Forearm" 28
  30 "ValveBiped.Bip01_R_Hand" 29
  31 "ValveBiped.Bip01_R_Finger4" 30
  32 "ValveBiped.Bip01_R_Finger41" 31
  33 "ValveBiped.Bip01_R_Finger3" 30
  34 "ValveBiped.Bip01_R_Finger2" 30
  35 "ValveBiped.Bip01_R_Finger1" 30
  36 "ValveBiped.Bip01_R_Finger0" 30
  37 "ValveBiped.Bip01_R_Finger01" 36
  38 "ValveBiped.Bip01_L_Finger11" 24
  39 "ValveBiped.Bip01_L_Finger12" 38
  40 "ValveBiped.Bip01_L_Finger02" 26
  41 "ValveBiped.Bip01_R_Finger21" 34
  42 "ValveBiped.Bip01_R_Finger22" 41
  43 "ValveBiped.Bip01_R_Finger11" 35
  44 "ValveBiped.Bip01_R_Finger12" 43
  45 "ValveBiped.Bip01_R_Finger02" 37
end
skeleton
  time 0
    0 -3.483688 -1.277378 15.993659 1.285891 -0.017783 -0.432205
    1 0.000000 0.000000 0.000000 0.000000 0.000000 0.000000
    2 3.984023 0.000006 0.000006 -2.232809 -1.366608 -0.866452
    3 19.319893 -0.000001 0.000000 0.000000 0.000000 2.261952
    4 16.959404 0.136750 0.265632 0.098164 -0.026497 -1.200948
    5 6.534989 0.000000 0.000000 -0.005401 -0.004871 -1.089339
    6 -3.984016 0.000004 0.000007 -0.709663 -0.161733 -2.325654
    7 19.319885 -0.000001 0.000000 0.000000 0.000000 2.561899
    8 15.033564 0.886773 0.058595 -0.071889 0.019791 -2.319517
    9 6.534989 0.000000 0.000000 -0.077798 -0.004517 -1.352407
    10 0.000005 4.212782 -1.689684 1.490550 -0.137538 1.618973
    11 3.620124 0.000000 0.000000 -0.171042 -0.063771 0.172844
    12 3.445709 0.000000 0.000000 -0.171559 -0.062356 0.261884
    13 7.391222 0.000000 0.000000 0.000000 0.000001 0.155687
    14 3.178824 -0.000002 0.000000 3.141590 0.000000 0.364769
    15 3.706905 0.000001 -0.000001 0.761218 0.199831 0.295660
    16 2.023582 0.907751 0.852529 4.162498 -1.282498 0.389110
    17 4.983667 -0.000001 0.000000 -2.139905 -0.083474 -0.999913
    18 10.904946 0.000002 0.000001 -0.000002 0.000001 -1.553725
    19 10.565867 -0.000004 -0.000032 0.370313 -0.008272 0.249370
    20 3.464122 0.088919 -0.780278 -0.266522 0.272889 -0.114263
    21 1.149898 0.000002 -0.000002 0.000000 -0.053881 0.012281
    22 3.616506 0.088100 -0.193358 -0.074871 0.173485 -0.083578
    23 3.507636 -0.030215 0.336398 0.087874 -0.039626 -0.002228
    24 3.709196 0.065913 0.920441 0.315356 -0.197665 -0.104771
    25 0.820751 -0.193686 0.888224 -1.372855 -0.498548 -0.474342
    26 1.123144 0.000000 0.000002 0.000000 -0.012010 0.116354
    27 2.023584 0.907750 -0.852531 -3.823907 1.140740 0.819765
    28 4.983665 0.000000 -0.000001 1.124800 0.876913 -1.448627
    29 10.904953 0.000001 0.000001 0.000002 0.000000 -1.600639
    30 10.565885 0.000003 0.000002 -0.489644 -0.091763 0.072290
    31 3.464092 0.095510 0.779500 0.265534 -0.273843 -0.111899
    32 1.149896 0.000002 -0.000002 0.000000 0.053975 0.011863
    33 3.616477 0.089731 0.192609 0.074650 -0.174185 -0.082089
    34 3.507607 -0.033064 -0.336129 -0.087881 0.039606 -0.002554
    35 3.709168 0.058128 -0.920965 -0.315627 0.196774 -0.106443
    36 0.820728 -0.201215 -0.886555 1.300502 0.122960 -0.720452
    37 1.123139 0.000002 0.000000 -0.000006 0.012724 0.116279
    38 1.321864 0.000001 -0.000001 0.000000 0.046519 -0.073857
    39 0.977462 0.000000 0.000000 0.000000 0.011737 -0.061857
    40 0.860969 -0.000002 -0.000003 0.000000 -0.000207 -0.180622
    41 1.575054 -0.000001 -0.000001 0.000000 -0.055713 -0.133233
    42 1.060834 0.000000 0.000000 0.000000 0.054561 -0.056841
    43 1.321865 -0.000001 0.000003 0.000000 -0.047130 -0.073469
    44 0.977460 0.000004 -0.000002 0.000000 -0.012250 -0.061757
    45 0.860970 0.000000 0.000002 0.000000 -0.000893 -0.180620
  time 1
    0 -3.186804 -2.062558 18.032784 1.288677 -0.003642 -0.488328
    1 0.000000 0.000000 0.000000 0.000000 0.000000 0.000000
    2 3.984023 0.000006 0.000006 -1.991104 -1.233897 -1.087235
    3 19.319893 -0.000001 0.000000 0.000000 0.000000 2.190011
    4 16.701584 0.000027 -0.000001 0.124084 0.011171 -1.284069
    5 6.534989 0.000000 0.000000 -0.005401 -0.004871 -1.089339
    6 -3.984016 0.000004 0.000007 -0.781172 -0.332962 -2.417743
    7 19.319885 -0.000001 0.000000 0.000000 0.000000 2.436180
    8 16.701584 0.000027 0.000000 -0.038433 0.050373 -1.696602
    9 6.534989 0.000000 0.000000 -0.078086 -0.004577 -1.304201
    10 0.000005 4.212782 -1.689684 1.486906 -0.134377 1.616001
    11 3.620124 0.000000 0.000000 -0.166189 -0.062740 0.201515
    12 3.445709 0.000000 0.000000 -0.166694 -0.061361 0.290592
    13 7.391222 0.000000 0.000000 -0.010115 0.001367 0.155687
    14 3.178824 -0.000002 0.000000 3.141590 0.000000 0.364769
    15 3.706905 0.000001 -0.000001 0.848874 0.221732 0.320494
    16 2.023582 0.907751 0.852529 4.162498 -1.282498 0.389110
    17 4.983667 -0.000001 0.000000 -2.137334 -0.015757 -1.086278
    18 10.904946 0.000002 0.000001 -0.000002 0.000001 -1.737682
    19 10.565867 -0.000004 -0.000032 0.370313 -0.008272 0.249370
    20 3.464122 0.088919 -0.780278 -0.266522 0.272889 -0.114263
    21 1.149898 0.000002 -0.000002 0.000000 -0.053881 0.012281
    22 3.616506 0.088100 -0.193358 -0.074871 0.173485 -0.083578
    23 3.507636 -0.030215 0.336398 0.087874 -0.039626 -0.002228
    24 3.709196 0.065913 0.920441 0.315356 -0.197665 -0.104771
    25 0.820751 -0.193686 0.888224 -1.372855 -0.498548 -0.474342
    26 1.123144 0.000000 0.000002 0.000000 -0.012010 0.116354
    27 2.023584 0.907750 -0.852531 -3.823907 1.140740 0.819765
    28 4.983665 0.000000 -0.000001 1.162828 0.536373 -1.484412
    29 10.904953 0.000001 0.000001 0.000002 0.000000 -1.794439
    30 10.565885 0.000003 0.000002 -0.489644 -0.091763 0.072290
    31 3.464092 0.095510 0.779500 0.265534 -0.273843 -0.111899
    32 1.149896 0.000002 -0.000002 0.000000 0.053975 0.011863
    33 3.616477 0.089731 0.192609 0.074650 -0.174185 -0.082089
    34 3.507607 -0.033064 -0.336129 -0.087881 0.039606 -0.002554
    35 3.709168 0.058128 -0.920965 -0.315627 0.196774 -0.106443
    36 0.820728 -0.201215 -0.886555 1.300502 0.122960 -0.720452
    37 1.123139 0.000002 0.000000 -0.000006 0.012724 0.116279
    38 1.321864 0.000001 -0.000001 0.000000 0.046519 -0.073857
    39 0.977462 0.000000 0.000000 0.000000 0.011737 -0.061857
    40 0.860969 -0.000002 -0.000003 0.000000 -0.000207 -0.180622
    41 1.575054 -0.000001 -0.000001 0.000000 -0.055713 -0.133233
    42 1.060834 0.000000 0.000000 0.000000 0.054561 -0.056841
    43 1.321865 -0.000001 0.000003 0.000000 -0.047130 -0.073469
    44 0.977460 0.000004 -0.000002 0.000000 -0.012250 -0.061757
    45 0.860970 0.000000 0.000002 0.000000 -0.000893 -0.180620
  time 2
    0 -2.495377 -4.070432 23.029030 1.297963 0.022197 -0.642643
    1 0.000000 0.000000 0.000000 0.000000 0.000000 0.000000
    2 3.984023 0.000006 0.000006 -1.729989 -0.975103 -1.320314
    3 19.319893 -0.000001 0.000000 0.000000 0.000000 1.956768
    4 16.701584 0.000027 -0.000001 0.123125 0.040861 -1.325161
    5 6.534989 0.000000 0.000000 -0.005401 -0.004871 -1.089339
    6 -3.984016 0.000004 0.000007 -0.980091 -0.333486 -2.246696
    7 19.319885 -0.000001 0.000000 0.000000 0.000000 1.982992
    8 16.701584 0.000027 0.000000 -0.044613 0.035787 -1.554478
    9 6.534989 0.000000 0.000000 -0.079309 -0.004817 -1.137511
    10 0.000005 4.212782 -1.689684 1.476936 -0.128000 1.609002
    11 3.620124 0.000000 0.000000 -0.155871 -0.058186 0.254816
    12 3.445709 0.000000 0.000000 -0.156375 -0.056903 0.343869
    13 7.391222 0.000000 0.000000 -0.036169 0.004915 0.155603
    14 3.178824 -0.000002 0.000000 3.141590 0.000000 0.364769
    15 3.706905 0.000001 -0.000001 1.049486 0.263820 0.379400
    16 2.023582 0.907751 0.852529 4.162593 -1.282498 0.389110
    17 4.983667 -0.000001 0.000000 -2.003399 0.125251 -1.264657
    18 10.904946 0.000002 0.000001 -0.000002 0.000001 -2.043255
    19 10.565867 -0.000004 -0.000032 0.370359 -0.008272 0.249370
    20 3.464122 0.088919 -0.780278 -0.266522 0.272889 -0.114263
    21 1.149898 0.000002 -0.000002 0.000000 -0.053881 0.012281
    22 3.616506 0.088100 -0.193358 -0.074871 0.173485 -0.083578
    23 3.507636 -0.030215 0.336398 0.087874 -0.039626 -0.002228
    24 3.709196 0.065913 0.920441 0.315356 -0.197665 -0.104771
    25 0.820751 -0.193686 0.888224 -1.372855 -0.498548 -0.474342
    26 1.123144 0.000000 0.000002 0.000000 -0.012010 0.116354
    27 2.023584 0.907750 -0.852531 -3.823907 1.140740 0.819765
    28 4.983665 0.000000 -0.000001 1.616874 -0.061621 -1.852909
    29 10.904953 0.000001 0.000001 0.000002 0.000000 -1.750046
    30 10.565885 0.000003 0.000002 -0.489644 -0.091763 0.072290
    31 3.464092 0.095510 0.779500 0.265534 -0.273843 -0.111899
    32 1.149896 0.000002 -0.000002 0.000000 0.053975 0.011863
    33 3.616477 0.089731 0.192609 0.074650 -0.174185 -0.082089
    34 3.507607 -0.033064 -0.336129 -0.087881 0.039606 -0.002554
    35 3.709168 0.058128 -0.920965 -0.315627 0.196774 -0.106443
    36 0.820728 -0.201215 -0.886555 1.300502 0.122960 -0.720452
    37 1.123139 0.000002 0.000000 -0.000006 0.012724 0.116279
    38 1.321864 0.000001 -0.000001 0.000000 0.046519 -0.073857
    39 0.977462 0.000000 0.000000 0.000000 0.011737 -0.061857
    40 0.860969 -0.000002 -0.000003 0.000000 -0.000207 -0.180622
    41 1.575054 -0.000001 -0.000001 0.000000 -0.055713 -0.133233
    42 1.060834 0.000000 0.000000 0.000000 0.054561 -0.056841
    43 1.321865 -0.000001 0.000003 0.000000 -0.047130 -0.073469
    44 0.977460 0.000004 -0.000002 0.000000 -0.012250 -0.061757
    45 0.860970 0.000000 0.000002 0.000000 -0.000893 -0.180620
  time 3
    0 -1.721916 -6.758014 29.314378 1.320343 0.035396 -0.873172
    1 0.000000 0.000000 0.000000 0.000000 0.000000 0.000000
    2 3.984023 0.000006 0.000006 -1.657420 -0.673190 -1.403859
    3 19.319893 -0.000001 0.000000 0.000000 0.000000 1.570555
    4 16.701584 0.000027 -0.000001 0.138365 0.061053 -1.244753
    5 6.534989 0.000000 0.000000 -0.005401 -0.004871 -1.089339
    6 -3.984016 0.000004 0.000007 -1.230183 -0.277807 -2.031379
    7 19.319885 -0.000001 0.000000 0.000000 0.000000 1.379992
    8 16.701584 0.000027 0.000000 -0.049222 0.043114 -1.229449
    9 6.534989 0.000000 0.000000 -0.079704 -0.004877 -1.089339
    10 0.000005 4.212782 -1.689684 1.461788 -0.123121 1.600181
    11 3.620124 0.000000 0.000000 -0.146600 -0.047879 0.283487
    12 3.445709 0.000000 0.000000 -0.147027 -0.046656 0.372559
    13 7.391222 0.000000 0.000000 -0.071788 0.009756 0.155339
    14 3.178824 -0.000002 0.000000 3.141590 0.000000 0.364769
    15 3.706905 0.000001 -0.000001 1.266325 0.294863 0.442847
    16 2.023582 0.907751 0.852529 4.162593 -1.282498 0.389110
    17 4.983667 -0.000001 0.000000 -1.491358 0.130084 -1.199792
    18 10.904946 0.000002 0.000001 -0.000002 0.000001 -2.105910
    19 10.565867 -0.000004 -0.000032 0.370313 -0.008241 0.249370
    20 3.464122 0.088919 -0.780278 -0.266522 0.272889 -0.114263
    21 1.149898 0.000002 -0.000002 0.000000 -0.053881 0.012281
    22 3.616506 0.088100 -0.193358 -0.074871 0.173485 -0.083578
    23 3.507636 -0.030215 0.336398 0.087874 -0.039626 -0.002228
    24 3.709196 0.065913 0.920441 0.315356 -0.197665 -0.104771
    25 0.820751 -0.193686 0.888224 -1.372855 -0.498548 -0.474342
    26 1.123144 0.000000 0.000002 0.000000 -0.012010 0.116354
    27 2.023584 0.907750 -0.852531 -3.823907 1.140740 0.819765
    28 4.983665 0.000000 -0.000001 1.588018 -0.172254 -1.587303
    29 10.904953 0.000001 0.000001 0.000002 0.000000 -1.253999
    30 10.565885 0.000003 0.000002 -0.489644 -0.091763 0.072290
    31 3.464092 0.095510 0.779500 0.265534 -0.273843 -0.111899
    32 1.149896 0.000002 -0.000002 0.000000 0.053975 0.011863
    33 3.616477 0.089731 0.192609 0.074650 -0.174185 -0.082089
    34 3.507607 -0.033064 -0.336129 -0.087881 0.039606 -0.002554
    35 3.709168 0.058128 -0.920965 -0.315627 0.196774 -0.106443
    36 0.820728 -0.201215 -0.886555 1.300502 0.122960 -0.720452
    37 1.123139 0.000002 0.000000 -0.000006 0.012724 0.116279
    38 1.321864 0.000001 -0.000001 0.000000 0.046519 -0.073857
    39 0.977462 0.000000 0.000000 0.000000 0.011737 -0.061857
    40 0.860969 -0.000002 -0.000003 0.000000 -0.000207 -0.180622
    41 1.575054 -0.000001 -0.000001 0.000000 -0.055713 -0.133233
    42 1.060834 0.000000 0.000000 0.000000 0.054561 -0.056841
    43 1.321865 -0.000001 0.000003 0.000000 -0.047130 -0.073469
    44 0.977460 0.000004 -0.000002 0.000000 -0.012250 -0.061757
    45 0.860970 0.000000 0.000002 0.000000 -0.000893 -0.180620
  time 4
    0 -1.182837 -9.570600 35.201277 1.380240 0.022583 -1.157089
    1 0.000000 0.000000 0.000000 0.000000 0.000000 0.000000
    2 3.984023 0.000006 0.000006 -1.689259 -0.402595 -1.451732
    3 19.319893 -0.000001 0.000000 0.000000 0.000000 1.068562
    4 16.701584 0.000027 -0.000001 0.169858 0.085685 -1.047284
    5 6.534989 0.000000 0.000000 -0.005401 -0.004871 -1.089339
    6 -3.984016 0.000004 0.000007 -1.485004 -0.155532 -1.887479
    7 19.319885 -0.000001 0.000000 0.000000 0.000000 0.706295
    8 16.701584 0.000027 0.000000 -0.030958 0.009914 -0.841899
    9 6.534989 0.000000 0.000000 -0.079704 -0.004877 -1.089339
    10 0.000005 4.212782 -1.689684 1.442996 -0.124457 1.592128
    11 3.620124 0.000000 0.000000 -0.139040 -0.034385 0.227266
    12 3.445709 0.000000 0.000000 -0.139357 -0.033221 0.316330
    13 7.391222 0.000000 0.000000 -0.110510 0.015018 0.154860
    14 3.178824 -0.000002 0.000000 3.141590 0.000000 0.364769
    15 3.706905 0.000001 -0.000001 1.395637 0.299084 0.470405
    16 2.023582 0.907751 0.852529 4.162593 -1.282498 0.389110
    17 4.983667 -0.000001 0.000000 -1.156376 -0.165248 -1.196968
    18 10.904946 0.000002 0.000001 -0.000002 0.000001 -1.839644
    19 10.565867 -0.000004 -0.000032 0.370313 -0.008272 0.249370
    20 3.464122 0.088919 -0.780278 -0.266522 0.272889 -0.114263
    21 1.149898 0.000002 -0.000002 0.000000 -0.053881 0.012281
    22 3.616506 0.088100 -0.193358 -0.074871 0.173485 -0.083578
    23 3.507636 -0.030215 0.336398 0.087874 -0.039626 -0.002228
    24 3.709196 0.065913 0.920441 0.315356 -0.197665 -0.104771
    25 0.820751 -0.193686 0.888224 -1.372855 -0.498548 -0.474342
    26 1.123144 0.000000 0.000002 0.000000 -0.012010 0.116354
    27 2.023584 0.907750 -0.852531 -3.823907 1.140740 0.819765
    28 4.983665 0.000000 -0.000001 1.377239 -0.179363 -1.375328
    29 10.904953 0.000001 0.000001 0.000002 0.000000 -0.830336
    30 10.565885 0.000003 0.000002 -0.489644 -0.091763 0.072290
    31 3.464092 0.095510 0.779500 0.265534 -0.273843 -0.111899
    32 1.149896 0.000002 -0.000002 0.000000 0.053975 0.011863
    33 3.616477 0.089731 0.192609 0.074650 -0.174185 -0.082089
    34 3.507607 -0.033064 -0.336129 -0.087881 0.039606 -0.002554
    35 3.709168 0.058128 -0.920965 -0.315627 0.196774 -0.106443
    36 0.820728 -0.201215 -0.886555 1.300502 0.122960 -0.720452
    37 1.123139 0.000002 0.000000 -0.000006 0.012724 0.116279
    38 1.321864 0.000001 -0.000001 0.000000 0.046519 -0.073857
    39 0.977462 0.000000 0.000000 0.000000 0.011737 -0.061857
    40 0.860969 -0.000002 -0.000003 0.000000 -0.000207 -0.180622
    41 1.575054 -0.000001 -0.000001 0.000000 -0.055713 -0.133233
    42 1.060834 0.000000 0.000000 0.000000 0.054561 -0.056841
    43 1.321865 -0.000001 0.000003 0.000000 -0.047130 -0.073469
    44 0.977460 0.000004 -0.000002 0.000000 -0.012250 -0.061757
    45 0.860970 0.000000 0.000002 0.000000 -0.000893 -0.180620
  time 5
    0 -1.178930 -11.976923 39.025612 1.513406 0.000943 -1.472793
    1 0.000000 0.000000 0.000000 0.000000 0.000000 0.000000
    2 3.984023 0.000006 0.000006 -1.793571 -0.224815 -1.508524
    3 19.319893 -0.000001 0.000000 0.000000 0.000000 0.534679
    4 16.701584 0.000027 -0.000001 0.204072 0.112377 -0.806504
    5 6.534989 0.000000 0.000000 -0.005401 -0.004871 -1.089339
    6 -3.984016 0.000004 0.000007 -1.692248 -0.240557 -1.844806
    7 19.319885 -0.000001 0.000000 0.000000 0.000000 0.461527
    8 16.701584 0.000027 0.000000 0.034917 -0.106938 -0.689107
    9 6.534989 0.000000 0.000000 -0.079704 -0.004877 -1.089339
    10 0.000005 4.212782 -1.689684 1.422240 -0.136707 1.587142
    11 3.620124 0.000000 0.000000 -0.147162 -0.004172 0.172774
    12 3.445709 0.000000 0.000000 -0.147231 -0.002948 0.261845
    13 7.391222 0.000000 0.000000 -0.145912 0.019800 0.154249
    14 3.178824 -0.000002 0.000000 3.141590 0.000000 0.364769
    15 3.706905 0.000001 -0.000001 1.332515 0.269947 0.420224
    16 2.023582 0.907751 0.852529 4.162498 -1.282498 0.389110
    17 4.983667 -0.000001 0.000000 -1.263372 -0.376045 -1.182027
    18 10.904946 0.000002 0.000001 -0.000002 0.000001 -1.531398
    19 10.565867 -0.000004 -0.000032 0.370313 -0.008241 0.249370
    20 3.464122 0.088919 -0.780278 -0.266522 0.272889 -0.114263
    21 1.149898 0.000002 -0.000002 0.000000 -0.053881 0.012281
    22 3.616506 0.088100 -0.193358 -0.074871 0.173485 -0.083578
    23 3.507636 -0.030215 0.336398 0.087874 -0.039626 -0.002228
    24 3.709196 0.065913 0.920441 0.315356 -0.197665 -0.104771
    25 0.820751 -0.193686 0.888224 -1.372855 -0.498548 -0.474342
    26 1.123144 0.000000 0.000002 0.000000 -0.012010 0.116354
    27 2.023584 0.907750 -0.852531 -3.823907 1.140740 0.819765
    28 4.983665 0.000000 -0.000001 1.282646 -0.283381 -1.258414
    29 10.904953 0.000001 0.000001 0.000002 0.000000 -1.182043
    30 10.565885 0.000003 0.000002 -0.489644 -0.091763 0.072290
    31 3.464092 0.095510 0.779500 0.265534 -0.273843 -0.111899
    32 1.149896 0.000002 -0.000002 0.000000 0.053975 0.011863
    33 3.616477 0.089731 0.192609 0.074650 -0.174185 -0.082089
    34 3.507607 -0.033064 -0.336129 -0.087881 0.039606 -0.002554
    35 3.709168 0.058128 -0.920965 -0.315627 0.196774 -0.106443
    36 0.820728 -0.201215 -0.886555 1.300502 0.122960 -0.720452
    37 1.123139 0.000002 0.000000 -0.000006 0.012724 0.116279
    38 1.321864 0.000001 -0.000001 0.000000 0.046519 -0.073857
    39 0.977462 0.000000 0.000000 0.000000 0.011737 -0.061857
    40 0.860969 -0.000002 -0.000003 0.000000 -0.000207 -0.180622
    41 1.575054 -0.000001 -0.000001 0.000000 -0.055713 -0.133233
    42 1.060834 0.000000 0.000000 0.000000 0.054561 -0.056841
    43 1.321865 -0.000001 0.000003 0.000000 -0.047130 -0.073469
    44 0.977460 0.000004 -0.000002 0.000000 -0.012250 -0.061757
    45 0.860970 0.000000 0.000002 0.000000 -0.000893 -0.180620
  time 6
    0 -2.557879 -14.121520 41.006142 1.806855 0.056136 -1.949132
    1 0.000000 0.000000 0.000000 0.000000 0.000000 0.000000
    2 3.984023 0.000006 0.000006 -1.983550 -0.251412 -1.544100
    3 19.319893 -0.000001 0.000000 0.000000 0.000000 0.089819
    4 16.701584 0.000027 -0.000001 0.151533 0.057344 -0.618457
    5 6.534989 0.000000 0.000000 -0.003016 -0.004044 -0.994558
    6 -3.984016 0.000004 0.000007 -1.933921 -0.811363 -1.661871
    7 19.319885 -0.000001 0.000000 0.000000 0.000000 1.234931
    8 16.701584 0.000027 0.000000 0.291099 -0.294049 -1.174827
    9 6.534989 0.000000 0.000000 -0.079704 -0.004877 -1.089339
    10 0.000005 4.212782 -1.689684 1.381781 -0.185422 1.586951
    11 3.620124 0.000000 0.000000 -0.195688 0.057621 0.207544
    12 3.445709 0.000000 0.000000 -0.195241 0.059971 0.296552
    13 7.391222 0.000000 0.000000 -0.192425 0.026044 0.153182
    14 3.178824 -0.000002 0.000000 3.141590 0.000000 0.364769
    15 3.706905 0.000001 -0.000001 0.782046 0.125783 0.181756
    16 2.023582 0.907751 0.852529 4.162593 -1.282498 0.389110
    17 4.983667 -0.000001 0.000000 -1.747997 -0.110058 -0.842760
    18 10.904946 0.000002 0.000001 -0.000002 0.000001 -1.435096
    19 10.565867 -0.000004 -0.000032 0.370313 -0.008241 0.249370
    20 3.464122 0.088919 -0.780278 -0.266522 0.272889 -0.114263
    21 1.149898 0.000002 -0.000002 0.000000 -0.053881 0.012281
    22 3.616506 0.088100 -0.193358 -0.074871 0.173485 -0.083578
    23 3.507636 -0.030215 0.336398 0.087874 -0.039626 -0.002228
    24 3.709196 0.065913 0.920441 0.315356 -0.197665 -0.104771
    25 0.820751 -0.193686 0.888224 -1.372855 -0.498548 -0.474342
    26 1.123144 0.000000 0.000002 0.000000 -0.012010 0.116354
    27 2.023584 0.907750 -0.852531 -3.808475 1.122337 0.838788
    28 4.983665 0.000000 -0.000001 1.434090 -0.021632 -1.346373
    29 10.904953 0.000001 0.000001 0.000002 0.000000 -1.561141
    30 10.565885 0.000003 0.000002 -0.489644 -0.091763 0.072290
    31 3.464092 0.095510 0.779500 0.265534 -0.273843 -0.111899
    32 1.149896 0.000002 -0.000002 0.000000 0.053975 0.011863
    33 3.616477 0.089731 0.192609 0.074650 -0.174185 -0.082089
    34 3.507607 -0.033064 -0.336129 -0.087881 0.039606 -0.002554
    35 3.709168 0.058128 -0.920965 -0.315627 0.196774 -0.106443
    36 0.820728 -0.201215 -0.886555 1.300502 0.122960 -0.720452
    37 1.123139 0.000002 0.000000 -0.000006 0.012724 0.116279
    38 1.321864 0.000001 -0.000001 0.000000 0.046519 -0.073857
    39 0.977462 0.000000 0.000000 0.000000 0.011737 -0.061857
    40 0.860969 -0.000002 -0.000003 0.000000 -0.000207 -0.180622
    41 1.575054 -0.000001 -0.000001 0.000000 -0.055713 -0.133233
    42 1.060834 0.000000 0.000000 0.000000 0.054561 -0.056841
    43 1.321865 -0.000001 0.000003 0.000000 -0.047130 -0.073469
    44 0.977460 0.000004 -0.000002 0.000000 -0.012250 -0.061757
    45 0.860970 0.000000 0.000002 0.000000 -0.000893 -0.180620
  time 7
    0 -4.854824 -16.133300 42.498375 2.099746 0.335701 -2.524323
    1 0.000000 0.000000 0.000000 0.000000 0.000000 0.000000
    2 3.984023 0.000006 0.000006 -2.286447 -0.517242 -1.308487
    3 19.319893 -0.000001 0.000000 0.000000 0.000000 0.089819
    4 16.701584 0.000027 -0.000001 0.029399 -0.091739 -0.636364
    5 6.534989 0.000000 0.000000 0.005445 -0.001216 -0.895421
    6 -3.984016 0.000004 0.000007 -1.955582 -1.200766 -1.681211
    7 19.319885 -0.000001 0.000000 0.000000 0.000000 1.720466
    8 16.701584 0.000027 0.000000 0.412802 -0.223128 -1.526863
    9 6.534989 0.000000 0.000000 -0.079704 -0.004877 -1.089339
    10 0.000005 4.212782 -1.689684 1.332358 -0.255571 1.590977
    11 3.620124 0.000000 0.000000 -0.255094 0.130775 0.268416
    12 3.445709 0.000000 0.000000 -0.254049 0.134323 0.357361
    13 7.391222 0.000000 0.000000 -0.241633 0.032599 0.151732
    14 3.178824 -0.000002 0.000000 3.141590 0.000000 0.364769
    15 3.706905 0.000001 -0.000001 -0.048854 -0.195998 -0.074636
    16 2.023582 0.907751 0.852529 4.162593 -1.282498 0.389110
    17 4.983667 -0.000001 0.000000 -1.991595 0.318785 -0.954817
    18 10.904946 0.000002 0.000001 -0.000002 0.000001 -1.113093
    19 10.565867 -0.000004 -0.000032 0.370359 -0.008241 0.249370
    20 3.464122 0.088919 -0.780278 -0.266522 0.272889 -0.114263
    21 1.149898 0.000002 -0.000002 0.000000 -0.053881 0.012281
    22 3.616506 0.088100 -0.193358 -0.074871 0.173485 -0.083578
    23 3.507636 -0.030215 0.336398 0.087874 -0.039626 -0.002228
    24 3.709196 0.065913 0.920441 0.315356 -0.197665 -0.104771
    25 0.820751 -0.193686 0.888224 -1.372855 -0.498548 -0.474342
    26 1.123144 0.000000 0.000002 0.000000 -0.012010 0.116354
    27 2.023584 0.907750 -0.852531 -3.794377 1.103843 0.856568
    28 4.983665 0.000000 -0.000001 1.264970 0.377409 -1.506629
    29 10.904953 0.000001 0.000001 0.000002 0.000000 -1.735363
    30 10.565885 0.000003 0.000002 -0.489644 -0.091763 0.072290
    31 3.464092 0.095510 0.779500 0.265534 -0.273843 -0.111899
    32 1.149896 0.000002 -0.000002 0.000000 0.053975 0.011863
    33 3.616477 0.089731 0.192609 0.074650 -0.174185 -0.082089
    34 3.507607 -0.033064 -0.336129 -0.087881 0.039606 -0.002554
    35 3.709168 0.058128 -0.920965 -0.315627 0.196774 -0.106443
    36 0.820728 -0.201215 -0.886555 1.300502 0.122960 -0.720452
    37 1.123139 0.000002 0.000000 -0.000006 0.012724 0.116279
    38 1.321864 0.000001 -0.000001 0.000000 0.046519 -0.073857
    39 0.977462 0.000000 0.000000 0.000000 0.011737 -0.061857
    40 0.860969 -0.000002 -0.000003 0.000000 -0.000207 -0.180622
    41 1.575054 -0.000001 -0.000001 0.000000 -0.055713 -0.133233
    42 1.060834 0.000000 0.000000 0.000000 0.054561 -0.056841
    43 1.321865 -0.000001 0.000003 0.000000 -0.047130 -0.073469
    44 0.977460 0.000004 -0.000002 0.000000 -0.012250 -0.061757
    45 0.860970 0.000000 0.000002 0.000000 -0.000893 -0.180620
  time 8
    0 -6.444716 -17.480997 43.592158 2.182116 0.633392 -3.005472
    1 0.000000 0.000000 0.000000 0.000000 0.000000 0.000000
    2 3.984023 0.000006 0.000006 -2.591830 -0.578196 -0.965204
    3 19.319893 -0.000001 0.000000 0.000000 0.000000 0.089819
    4 16.701584 0.000027 -0.000001 -0.034001 -0.207873 -0.596505
    5 6.534989 0.000000 0.000000 0.013654 0.001169 -0.879829
    6 -3.984016 0.000004 0.000007 -0.636168 -1.257143 -3.012327
    7 19.319885 -0.000001 0.000000 0.000000 0.000000 1.818674
    8 16.701584 0.000027 0.000000 0.166478 -0.217722 -1.706459
    9 6.534989 0.000000 0.000000 -0.079704 -0.004877 -1.089339
    10 0.000005 4.212782 -1.689684 1.318792 -0.291586 1.598935
    11 3.620124 0.000000 0.000000 -0.270418 0.188792 0.300592
    12 3.445709 0.000000 0.000000 -0.268874 0.190998 0.389596
    13 7.391222 0.000000 0.000000 -0.253007 0.034097 0.151349
    14 3.178824 -0.000002 0.000000 3.141590 0.000000 0.364769
    15 3.706905 0.000001 -0.000001 -0.639403 -0.464643 -0.166391
    16 2.023582 0.907751 0.852529 4.162593 -1.282498 0.389110
    17 4.983667 -0.000001 0.000000 -2.172460 0.052503 -1.089922
    18 10.904946 0.000002 0.000001 -0.000002 0.000001 -0.396133
    19 10.565867 -0.000004 -0.000032 0.370359 -0.008272 0.249370
    20 3.464122 0.088919 -0.780278 -0.266522 0.272889 -0.114263
    21 1.149898 0.000002 -0.000002 0.000000 -0.053881 0.012281
    22 3.616506 0.088100 -0.193358 -0.074871 0.173485 -0.083578
    23 3.507636 -0.030215 0.336398 0.087874 -0.039626 -0.002228
    24 3.709196 0.065913 0.920441 0.315356 -0.197665 -0.104771
    25 0.820751 -0.193686 0.888224 -1.372855 -0.498548 -0.474342
    26 1.123144 0.000000 0.000002 0.000000 -0.012010 0.116354
    27 2.023584 0.907750 -0.852531 -3.823907 1.140740 0.819765
    28 4.983665 0.000000 -0.000001 1.025430 0.600453 -1.430872
    29 10.904953 0.000001 0.000001 0.000002 0.000000 -1.807147
    30 10.565885 0.000003 0.000002 -0.489644 -0.091763 0.072290
    31 3.464092 0.095510 0.779500 0.265534 -0.273843 -0.111899
    32 1.149896 0.000002 -0.000002 0.000000 0.053975 0.011863
    33 3.616477 0.089731 0.192609 0.074650 -0.174185 -0.082089
    34 3.507607 -0.033064 -0.336129 -0.087881 0.039606 -0.002554
    35 3.709168 0.058128 -0.920965 -0.315627 0.196774 -0.106443
    36 0.820728 -0.201215 -0.886555 1.300502 0.122960 -0.720452
    37 1.123139 0.000002 0.000000 -0.000006 0.012724 0.116279
    38 1.321864 0.000001 -0.000001 0.000000 0.046519 -0.073857
    39 0.977462 0.000000 0.000000 0.000000 0.011737 -0.061857
    40 0.860969 -0.000002 -0.000003 0.000000 -0.000207 -0.180622
    41 1.575054 -0.000001 -0.000001 0.000000 -0.055713 -0.133233
    42 1.060834 0.000000 0.000000 0.000000 0.054561 -0.056841
    43 1.321865 -0.000001 0.000003 0.000000 -0.047130 -0.073469
    44 0.977460 0.000004 -0.000002 0.000000 -0.012250 -0.061757
    45 0.860970 0.000000 0.000002 0.000000 -0.000893 -0.180620
  time 9
    0 -6.554094 -18.188050 44.334368 2.261792 0.791257 -3.280805
    1 0.000000 0.000000 0.000000 0.000000 0.000000 0.000000
    2 3.984023 0.000006 0.000006 -2.532456 -0.607834 -0.720109
    3 19.319893 -0.000001 0.000000 0.000000 0.000000 0.089819
    4 16.701584 0.000027 -0.000001 -0.155927 -0.269144 -0.468050
    5 6.534989 0.000000 0.000000 0.016135 0.001948 -0.846252
    6 -3.984016 0.000004 0.000007 -0.777672 -0.794376 -3.029627
    7 19.319885 -0.000001 0.000000 0.000000 0.000000 1.513214
    8 16.701584 0.000027 0.000000 -0.131722 0.092718 -1.223372
    9 6.534989 0.000000 0.000000 -0.079704 -0.004877 -1.089339
    10 0.000005 4.212782 -1.689684 1.380295 -0.252274 1.615138
    11 3.620124 0.000000 0.000000 -0.195586 0.223536 0.266803
    12 3.445709 0.000000 0.000000 -0.193575 0.218611 0.356039
    13 7.391222 0.000000 0.000000 -0.188661 0.025540 0.153278
    14 3.178824 -0.000002 0.000000 3.141590 0.000000 0.364769
    15 3.706905 0.000001 -0.000001 -0.678631 -0.589318 -0.201845
    16 2.023582 0.907751 0.852529 4.162593 -1.282498 0.389110
    17 4.983667 -0.000001 0.000000 -1.868511 0.036720 -1.111605
    18 10.904946 0.000002 0.000001 -0.000002 0.000001 -0.422704
    19 10.565867 -0.000004 -0.000032 0.370313 -0.008241 0.249370
    20 3.464122 0.088919 -0.780278 -0.266522 0.272889 -0.114263
    21 1.149898 0.000002 -0.000002 0.000000 -0.053881 0.012281
    22 3.616506 0.088100 -0.193358 -0.074871 0.173485 -0.083578
    23 3.507636 -0.030215 0.336398 0.087874 -0.039626 -0.002228
    24 3.709196 0.065913 0.920441 0.315356 -0.197665 -0.104771
    25 0.820751 -0.193686 0.888224 -1.372855 -0.498548 -0.474342
    26 1.123144 0.000000 0.000002 0.000000 -0.012010 0.116354
    27 2.023584 0.907750 -0.852531 -4.018714 1.278352 0.601720
    28 4.983665 0.000000 -0.000001 1.021130 0.534201 -1.294017
    29 10.904953 0.000001 0.000001 0.000002 0.000000 -1.956038
    30 10.565885 0.000003 0.000002 -0.489644 -0.091763 0.072290
    31 3.464092 0.095510 0.779500 0.265534 -0.273843 -0.111899
    32 1.149896 0.000002 -0.000002 0.000000 0.053975 0.011863
    33 3.616477 0.089731 0.192609 0.074650 -0.174185 -0.082089
    34 3.507607 -0.033064 -0.336129 -0.087881 0.039606 -0.002554
    35 3.709168 0.058128 -0.920965 -0.315627 0.196774 -0.106443
    36 0.820728 -0.201215 -0.886555 1.300502 0.122960 -0.720452
    37 1.123139 0.000002 0.000000 -0.000006 0.012724 0.116279
    38 1.321864 0.000001 -0.000001 0.000000 0.046519 -0.073857
    39 0.977462 0.000000 0.000000 0.000000 0.011737 -0.061857
    40 0.860969 -0.000002 -0.000003 0.000000 -0.000207 -0.180622
    41 1.575054 -0.000001 -0.000001 0.000000 -0.055713 -0.133233
    42 1.060834 0.000000 0.000000 0.000000 0.054561 -0.056841
    43 1.321865 -0.000001 0.000003 0.000000 -0.047130 -0.073469
    44 0.977460 0.000004 -0.000002 0.000000 -0.012250 -0.061757
    45 0.860970 0.000000 0.000002 0.000000 -0.000893 -0.180620
  time 10
    0 -5.952513 -18.645095 44.783601 2.432290 0.916899 -3.411916
    1 0.000000 0.000000 0.000000 0.000000 0.000000 0.000000
    2 3.984023 0.000006 0.000006 -2.080022 -0.642963 -0.472667
    3 19.319893 -0.000001 0.000000 0.000000 0.000000 0.089819
    4 16.701584 0.000027 -0.000001 -0.573622 -0.318332 -0.302201
    5 6.534989 0.000000 0.000000 0.007351 -0.000640 -0.857688
    6 -3.984016 0.000004 0.000007 -1.166241 -0.059066 -2.607509
    7 19.319885 -0.000001 0.000000 0.000000 0.000000 0.089790
    8 16.701584 0.000027 0.000000 0.034416 -0.002563 -0.311550
    9 6.534989 0.000000 0.000000 -0.031754 -0.002912 -0.691762
    10 0.000005 4.212782 -1.689684 1.481250 -0.178104 1.634264
    11 3.620124 0.000000 0.000000 -0.076646 0.243202 0.204763
    12 3.445709 0.000000 0.000000 -0.074280 0.228546 0.294233
    13 7.391222 0.000000 0.000000 -0.086541 0.011770 0.155184
    14 3.178824 -0.000002 0.000000 3.141590 0.000000 0.364769
    15 3.706905 0.000001 -0.000001 -0.431550 -0.661991 -0.247683
    16 2.023582 0.907751 0.852529 4.162498 -1.282498 0.389110
    17 4.983667 -0.000001 0.000000 -0.730961 0.057534 -0.794203
    18 10.904946 0.000002 0.000001 -0.000002 0.000001 -0.697618
    19 10.565867 -0.000004 -0.000032 0.370313 -0.008241 0.249370
    20 3.464122 0.088919 -0.780278 -0.266522 0.272889 -0.114263
    21 1.149898 0.000002 -0.000002 0.000000 -0.053881 0.012281
    22 3.616506 0.088100 -0.193358 -0.074871 0.173485 -0.083578
    23 3.507636 -0.030215 0.336398 0.087874 -0.039626 -0.002228
    24 3.709196 0.065913 0.920441 0.315356 -0.197665 -0.104771
    25 0.820751 -0.193686 0.888224 -1.372855 -0.498548 -0.474342
    26 1.123144 0.000000 0.000002 0.000000 -0.012010 0.116354
    27 2.023584 0.907750 -0.852531 -4.831377 1.404849 -0.232130
    28 4.983665 0.000000 -0.000001 1.029539 0.257543 -1.192855
    29 10.904953 0.000001 0.000001 0.000002 0.000000 -2.150696
    30 10.565885 0.000003 0.000002 -0.489644 -0.091763 0.072290
    31 3.464092 0.095510 0.779500 0.265534 -0.273843 -0.111899
    32 1.149896 0.000002 -0.000002 0.000000 0.053975 0.011863
    33 3.616477 0.089731 0.192609 0.074650 -0.174185 -0.082089
    34 3.507607 -0.033064 -0.336129 -0.087881 0.039606 -0.002554
    35 3.709168 0.058128 -0.920965 -0.315627 0.196774 -0.106443
    36 0.820728 -0.201215 -0.886555 1.300502 0.122960 -0.720452
    37 1.123139 0.000002 0.000000 -0.000006 0.012724 0.116279
    38 1.321864 0.000001 -0.000001 0.000000 0.046519 -0.073857
    39 0.977462 0.000000 0.000000 0.000000 0.011737 -0.061857
    40 0.860969 -0.000002 -0.000003 0.000000 -0.000207 -0.180622
    41 1.575054 -0.000001 -0.000001 0.000000 -0.055713 -0.133233
    42 1.060834 0.000000 0.000000 0.000000 0.054561 -0.056841
    43 1.321865 -0.000001 0.000003 0.000000 -0.047130 -0.073469
    44 0.977460 0.000004 -0.000002 0.000000 -0.012250 -0.061757
    45 0.860970 0.000000 0.000002 0.000000 -0.000893 -0.180620
  time 11
    0 -5.296243 -18.863852 45.010170 2.596936 1.077721 -3.515202
    1 0.000000 0.000000 0.000000 0.000000 0.000000 0.000000
    2 3.984023 0.000006 0.000006 -1.984411 -0.552825 -0.219969
    3 19.319893 -0.000001 0.000000 0.000000 0.000000 0.089819
    4 16.701584 0.000027 -0.000001 -0.666259 -0.273021 -0.335598
    5 6.534989 0.000000 0.000000 -0.003004 -0.003852 -0.939404
    6 -3.984016 0.000004 0.000007 -0.719784 0.203040 -2.479490
    7 19.319885 -0.000001 0.000000 0.000000 0.000000 0.089790
    8 16.701584 0.000027 0.000000 -0.431596 -0.192869 -0.394461
    9 6.534989 0.000000 0.000000 -0.032904 -0.002876 -0.775839
    10 0.000005 4.212782 -1.689684 1.549176 -0.137824 1.641886
    11 3.620124 0.000000 0.000000 0.002631 0.245611 0.171582
    12 3.445709 0.000000 0.000000 0.005153 0.225934 0.261098
    13 7.391222 0.000000 0.000000 -0.019439 0.002638 0.155663
    14 3.178824 -0.000002 0.000000 3.141590 0.000000 0.364769
    15 3.706905 0.000001 -0.000001 -0.206703 -0.745566 -0.341294
    16 2.023582 0.907751 0.852529 4.162593 -1.282498 0.389110
    17 4.983667 -0.000001 0.000000 -0.383128 -0.050528 -0.783908
    18 10.904946 0.000002 0.000001 -0.000002 0.000001 -0.551553
    19 10.565867 -0.000004 -0.000032 0.370313 -0.008272 0.249370
    20 3.464122 0.088919 -0.780278 -0.266522 0.272889 -0.114263
    21 1.149898 0.000002 -0.000002 0.000000 -0.053881 0.012281
    22 3.616506 0.088100 -0.193358 -0.074871 0.173485 -0.083578
    23 3.507636 -0.030215 0.336398 0.087874 -0.039626 -0.002228
    24 3.709196 0.065913 0.920441 0.315356 -0.197665 -0.104771
    25 0.820751 -0.193686 0.888224 -1.372855 -0.498548 -0.474342
    26 1.123144 0.000000 0.000002 0.000000 -0.012010 0.116354
    27 2.023584 0.907750 -0.852531 0.580250 1.352692 5.171880
    28 4.983665 0.000000 -0.000001 1.089734 0.066341 -1.139862
    29 10.904953 0.000001 0.000001 0.000002 0.000000 -2.148893
    30 10.565885 0.000003 0.000002 -0.489644 -0.091763 0.072290
    31 3.464092 0.095510 0.779500 0.265534 -0.273843 -0.111899
    32 1.149896 0.000002 -0.000002 0.000000 0.053975 0.011863
    33 3.616477 0.089731 0.192609 0.074650 -0.174185 -0.082089
    34 3.507607 -0.033064 -0.336129 -0.087881 0.039606 -0.002554
    35 3.709168 0.058128 -0.920965 -0.315627 0.196774 -0.106443
    36 0.820728 -0.201215 -0.886555 1.300502 0.122960 -0.720452
    37 1.123139 0.000002 0.000000 -0.000006 0.012724 0.116279
    38 1.321864 0.000001 -0.000001 0.000000 0.046519 -0.073857
    39 0.977462 0.000000 0.000000 0.000000 0.011737 -0.061857
    40 0.860969 -0.000002 -0.000003 0.000000 -0.000207 -0.180622
    41 1.575054 -0.000001 -0.000001 0.000000 -0.055713 -0.133233
    42 1.060834 0.000000 0.000000 0.000000 0.054561 -0.056841
    43 1.321865 -0.000001 0.000003 0.000000 -0.047130 -0.073469
    44 0.977460 0.000004 -0.000002 0.000000 -0.012250 -0.061757
    45 0.860970 0.000000 0.000002 0.000000 -0.000893 -0.180620
  time 12
    0 -4.690756 -18.867758 45.072672 2.589507 1.269226 -3.778556
    1 0.000000 0.000000 0.000000 0.000000 0.000000 0.000000
    2 3.984023 0.000006 0.000006 -2.223344 -0.315589 -0.072030
    3 19.319893 -0.000001 0.000000 0.000000 0.000000 0.089819
    4 16.701584 0.000027 -0.000001 -0.573363 -0.206431 -0.428092
    5 6.534989 0.000000 0.000000 -0.006408 -0.004979 -1.034485
    6 -3.984016 0.000004 0.000007 -1.059357 0.376146 -2.279699
    7 19.319885 -0.000001 0.000000 0.000000 0.000000 0.089790
    8 16.701584 0.000027 0.000000 0.078074 -0.017505 -1.014609
    9 6.534989 0.000000 0.000000 -0.039028 -0.001989 -1.022184
    10 0.000005 4.212782 -1.689684 1.573001 -0.138397 1.637476
    11 3.620124 0.000000 0.000000 0.032487 0.242064 0.177260
    12 3.445709 0.000000 0.000000 0.034947 0.223309 0.263857
    13 7.391222 0.000000 0.000000 0.002828 -0.000383 0.158396
    14 3.178824 -0.000002 0.000000 3.141590 0.000000 0.364769
    15 3.706905 0.000001 -0.000001 -0.188388 -0.790356 -0.380656
    16 2.023582 0.907751 0.852529 4.162593 -1.282498 0.389110
    17 4.983667 -0.000001 0.000000 -0.604450 -0.054523 -0.990985
    18 10.904946 0.000002 0.000001 -0.000002 0.000001 -0.229942
    19 10.565867 -0.000004 -0.000032 0.370359 -0.008272 0.249370
    20 3.464122 0.088919 -0.780278 -0.266522 0.272889 -0.114263
    21 1.149898 0.000002 -0.000002 0.000000 -0.053881 0.012281
    22 3.616506 0.088100 -0.193358 -0.074871 0.173485 -0.083578
    23 3.507636 -0.030215 0.336398 0.087874 -0.039626 -0.002228
    24 3.709196 0.065913 0.920441 0.315356 -0.197665 -0.104771
    25 0.820751 -0.193686 0.888224 -1.372855 -0.498548 -0.474342
    26 1.123144 0.000000 0.000002 0.000000 -0.012010 0.116354
    27 2.023584 0.907750 -0.852531 0.494040 1.333925 5.084987
    28 4.983665 0.000000 -0.000001 1.300513 0.172235 -1.172459
    29 10.904953 0.000001 0.000001 0.000002 0.000000 -2.006957
    30 10.565885 0.000003 0.000002 -0.489644 -0.091763 0.072290
    31 3.464092 0.095510 0.779500 0.265534 -0.273843 -0.111899
    32 1.149896 0.000002 -0.000002 0.000000 0.053975 0.011863
    33 3.616477 0.089731 0.192609 0.074650 -0.174185 -0.082089
    34 3.507607 -0.033064 -0.336129 -0.087881 0.039606 -0.002554
    35 3.709168 0.058128 -0.920965 -0.315627 0.196774 -0.106443
    36 0.820728 -0.201215 -0.886555 1.300502 0.122960 -0.720452
    37 1.123139 0.000002 0.000000 -0.000006 0.012724 0.116279
    38 1.321864 0.000001 -0.000001 0.000000 0.046519 -0.073857
    39 0.977462 0.000000 0.000000 0.000000 0.011737 -0.061857
    40 0.860969 -0.000002 -0.000003 0.000000 -0.000207 -0.180622
    41 1.575054 -0.000001 -0.000001 0.000000 -0.055713 -0.133233
    42 1.060834 0.000000 0.000000 0.000000 0.054561 -0.056841
    43 1.321865 -0.000001 0.000003 0.000000 -0.047130 -0.073469
    44 0.977460 0.000004 -0.000002 0.000000 -0.012250 -0.061757
    45 0.860970 0.000000 0.000002 0.000000 -0.000893 -0.180620
  time 13
    0 -4.128239 -18.672440 45.037515 1.971409 1.404123 -4.661622
    1 0.000000 0.000000 0.000000 0.000000 0.000000 0.000000
    2 3.984023 0.000006 0.000006 -2.415332 -0.051211 -0.069401
    3 19.319893 -0.000001 0.000000 0.000000 0.000000 0.089819
    4 16.701584 0.000027 -0.000001 -0.488113 -0.145685 -0.497746
    5 6.534989 0.000000 0.000000 -0.006240 -0.005003 -1.072883
    6 -3.984016 0.000004 0.000007 -1.456249 0.439467 -2.113797
    7 19.319885 -0.000001 0.000000 0.000000 0.000000 0.089790
    8 16.701584 0.000027 0.000000 0.350759 0.301196 -1.078142
    9 6.534989 0.000000 0.000000 -0.076684 -0.004673 -1.087211
    10 0.000005 4.212782 -1.689684 1.592943 -0.140018 1.630861
    11 3.620124 0.000000 0.000000 0.057542 0.242495 0.191678
    12 3.445709 0.000000 0.000000 0.059935 0.226497 0.270968
    13 7.391222 0.000000 0.000000 0.019715 -0.002684 0.165454
    14 3.178824 -0.000002 0.000000 3.141590 0.000000 0.364769
    15 3.706905 0.000001 -0.000001 -0.206703 -0.745566 -0.341294
    16 2.023582 0.907751 0.852529 4.162498 -1.282498 0.389110
    17 4.983667 -0.000001 0.000000 -0.844240 0.057829 -1.043551
    18 10.904946 0.000002 0.000001 -0.000002 0.000001 -0.551553
    19 10.565867 -0.000004 -0.000032 0.370359 -0.008272 0.249370
    20 3.464122 0.088919 -0.780278 -0.266522 0.272889 -0.114263
    21 1.149898 0.000002 -0.000002 0.000000 -0.053881 0.012281
    22 3.616506 0.088100 -0.193358 -0.074871 0.173485 -0.083578
    23 3.507636 -0.030215 0.336398 0.087874 -0.039626 -0.002228
    24 3.709196 0.065913 0.920441 0.315356 -0.197665 -0.104771
    25 0.820751 -0.193686 0.888224 -1.372855 -0.498548 -0.474342
    26 1.123144 0.000000 0.000002 0.000000 -0.012010 0.116354
    27 2.023584 0.907750 -0.852531 0.580250 1.352692 5.171880
    28 4.983665 0.000000 -0.000001 1.417082 0.321178 -1.237745
    29 10.904953 0.000001 0.000001 0.000002 0.000000 -1.955781
    30 10.565885 0.000003 0.000002 -0.489644 -0.091763 0.072290
    31 3.464092 0.095510 0.779500 0.265534 -0.273843 -0.111899
    32 1.149896 0.000002 -0.000002 0.000000 0.053975 0.011863
    33 3.616477 0.089731 0.192609 0.074650 -0.174185 -0.082089
    34 3.507607 -0.033064 -0.336129 -0.087881 0.039606 -0.002554
    35 3.709168 0.058128 -0.920965 -0.315627 0.196774 -0.106443
    36 0.820728 -0.201215 -0.886555 1.300502 0.122960 -0.720452
    37 1.123139 0.000002 0.000000 -0.000006 0.012724 0.116279
    38 1.321864 0.000001 -0.000001 0.000000 0.046519 -0.073857
    39 0.977462 0.000000 0.000000 0.000000 0.011737 -0.061857
    40 0.860969 -0.000002 -0.000003 0.000000 -0.000207 -0.180622
    41 1.575054 -0.000001 -0.000001 0.000000 -0.055713 -0.133233
    42 1.060834 0.000000 0.000000 0.000000 0.054561 -0.056841
    43 1.321865 -0.000001 0.000003 0.000000 -0.047130 -0.073469
    44 0.977460 0.000004 -0.000002 0.000000 -0.012250 -0.061757
    45 0.860970 0.000000 0.000002 0.000000 -0.000893 -0.180620
  time 14
    0 -3.764947 -18.223207 44.357806 1.163590 1.295922 0.546883
    1 0.000000 0.000000 0.000000 0.000000 0.000000 0.000000
    2 3.984023 0.000006 0.000006 -2.252888 0.044782 -0.127225
    3 19.319893 -0.000001 0.000000 0.000000 0.000000 0.350491
    4 16.701584 0.000027 -0.000001 -0.535469 -0.196185 -0.675631
    5 6.534989 0.000000 0.000000 -0.005401 -0.004871 -1.089339
    6 -3.984016 0.000004 0.000007 -1.032777 -0.113347 -2.120628
    7 19.319885 -0.000001 0.000000 0.000000 0.000000 1.102543
    8 16.701584 0.000027 0.000000 0.111633 0.051495 -1.000025
    9 6.534989 0.000000 0.000000 -0.079704 -0.004877 -1.089339
    10 0.000005 4.212782 -1.689684 1.608139 -0.142703 1.623047
    11 3.620124 0.000000 0.000000 0.075930 0.242627 0.210979
    12 3.445709 0.000000 0.000000 0.078235 0.230536 0.280780
    13 7.391222 0.000000 0.000000 0.031939 -0.004349 0.175234
    14 3.178824 -0.000002 0.000000 3.141590 0.000000 0.364769
    15 3.706905 0.000001 -0.000001 -0.163514 -0.648363 -0.270701
    16 2.023582 0.907751 0.852529 4.162593 -1.282498 0.389110
    17 4.983667 -0.000001 0.000000 -0.998166 0.095658 -1.185033
    18 10.904946 0.000002 0.000001 -0.000002 0.000001 -1.003505
    19 10.565867 -0.000004 -0.000032 0.370313 -0.008241 0.249370
    20 3.464122 0.088919 -0.780278 -0.266522 0.272889 -0.114263
    21 1.149898 0.000002 -0.000002 0.000000 -0.053881 0.012281
    22 3.616506 0.088100 -0.193358 -0.074871 0.173485 -0.083578
    23 3.507636 -0.030215 0.336398 0.087874 -0.039626 -0.002228
    24 3.709196 0.065913 0.920441 0.315356 -0.197665 -0.104771
    25 0.820751 -0.193686 0.888224 -1.372855 -0.498548 -0.474342
    26 1.123144 0.000000 0.000002 0.000000 -0.012010 0.116354
    27 2.023584 0.907750 -0.852531 0.542623 1.345039 5.133930
    28 4.983665 0.000000 -0.000001 1.345994 0.360920 -1.232282
    29 10.904953 0.000001 0.000001 0.000002 0.000000 -1.952947
    30 10.565885 0.000003 0.000002 -0.489644 -0.091763 0.072290
    31 3.464092 0.095510 0.779500 0.265534 -0.273843 -0.111899
    32 1.149896 0.000002 -0.000002 0.000000 0.053975 0.011863
    33 3.616477 0.089731 0.192609 0.074650 -0.174185 -0.082089
    34 3.507607 -0.033064 -0.336129 -0.087881 0.039606 -0.002554
    35 3.709168 0.058128 -0.920965 -0.315627 0.196774 -0.106443
    36 0.820728 -0.201215 -0.886555 1.300502 0.122960 -0.720452
    37 1.123139 0.000002 0.000000 -0.000006 0.012724 0.116279
    38 1.321864 0.000001 -0.000001 0.000000 0.046519 -0.073857
    39 0.977462 0.000000 0.000000 0.000000 0.011737 -0.061857
    40 0.860969 -0.000002 -0.000003 0.000000 -0.000207 -0.180622
    41 1.575054 -0.000001 -0.000001 0.000000 -0.055713 -0.133233
    42 1.060834 0.000000 0.000000 0.000000 0.054561 -0.056841
    43 1.321865 -0.000001 0.000003 0.000000 -0.047130 -0.073469
    44 0.977460 0.000004 -0.000002 0.000000 -0.012250 -0.061757
    45 0.860970 0.000000 0.000002 0.000000 -0.000893 -0.180620
  time 15
    0 -3.440718 -17.434121 42.717131 1.100350 1.079907 0.222501
    1 0.000000 0.000000 0.000000 0.000000 0.000000 0.000000
    2 3.984023 0.000006 0.000006 -1.787451 -0.028155 -0.391000
    3 19.319893 -0.000001 0.000000 0.000000 0.000000 0.658284
    4 16.701584 0.000027 -0.000001 -0.838988 -0.395712 -0.749823
    5 6.534989 0.000000 0.000000 -0.005401 -0.004871 -1.089339
    6 -3.984016 0.000004 0.000007 -0.819007 -0.444407 -2.167116
    7 19.319885 -0.000001 0.000000 0.000000 0.000000 1.780324
    8 16.701584 0.000027 0.000000 0.180029 -0.021500 -0.914413
    9 6.534989 0.000000 0.000000 -0.079704 -0.004877 -1.089339
    10 0.000005 4.212782 -1.689684 1.617918 -0.146477 1.615329
    11 3.620124 0.000000 0.000000 0.085814 0.238181 0.231402
    12 3.445709 0.000000 0.000000 0.088015 0.230428 0.291704
    13 7.391222 0.000000 0.000000 0.040280 -0.005488 0.186104
    14 3.178824 -0.000002 0.000000 3.141590 0.000000 0.364769
    15 3.706905 0.000001 -0.000001 -0.115000 -0.505599 -0.126633
    16 2.023582 0.907751 0.852529 4.162498 -1.282498 0.389110
    17 4.983667 -0.000001 0.000000 -1.109732 -0.046138 -1.364688
    18 10.904946 0.000002 0.000001 -0.000002 0.000001 -1.340130
    19 10.565867 -0.000004 -0.000032 0.370313 -0.008241 0.249370
    20 3.464122 0.088919 -0.780278 -0.266522 0.272889 -0.114263
    21 1.149898 0.000002 -0.000002 0.000000 -0.053881 0.012281
    22 3.616506 0.088100 -0.193358 -0.074871 0.173485 -0.083578
    23 3.507636 -0.030215 0.336398 0.087874 -0.039626 -0.002228
    24 3.709196 0.065913 0.920441 0.315356 -0.197665 -0.104771
    25 0.820751 -0.193686 0.888224 -1.372855 -0.498548 -0.474342
    26 1.123144 0.000000 0.000002 0.000000 -0.012010 0.116354
    27 2.023584 0.907750 -0.852531 0.485276 1.331693 5.076193
    28 4.983665 0.000000 -0.000001 1.337491 0.330114 -1.210702
    29 10.904953 0.000001 0.000001 0.000002 0.000000 -1.912333
    30 10.565885 0.000003 0.000002 -0.489644 -0.091763 0.072290
    31 3.464092 0.095510 0.779500 0.265534 -0.273843 -0.111899
    32 1.149896 0.000002 -0.000002 0.000000 0.053975 0.011863
    33 3.616477 0.089731 0.192609 0.074650 -0.174185 -0.082089
    34 3.507607 -0.033064 -0.336129 -0.087881 0.039606 -0.002554
    35 3.709168 0.058128 -0.920965 -0.315627 0.196774 -0.106443
    36 0.820728 -0.201215 -0.886555 1.300502 0.122960 -0.720452
    37 1.123139 0.000002 0.000000 -0.000006 0.012724 0.116279
    38 1.321864 0.000001 -0.000001 0.000000 0.046519 -0.073857
    39 0.977462 0.000000 0.000000 0.000000 0.011737 -0.061857
    40 0.860969 -0.000002 -0.000003 0.000000 -0.000207 -0.180622
    41 1.575054 -0.000001 -0.000001 0.000000 -0.055713 -0.133233
    42 1.060834 0.000000 0.000000 0.000000 0.054561 -0.056841
    43 1.321865 -0.000001 0.000003 0.000000 -0.047130 -0.073469
    44 0.977460 0.000004 -0.000002 0.000000 -0.012250 -0.061757
    45 0.860970 0.000000 0.000002 0.000000 -0.000893 -0.180620
  time 16
    0 -3.190710 -16.324712 40.533471 1.210022 0.854121 0.084599
    1 0.000000 0.000000 0.000000 0.000000 0.000000 0.000000
    2 3.984023 0.000006 0.000006 -1.601678 -0.162726 -0.709595
    3 19.319893 -0.000001 0.000000 0.000000 0.000000 0.907850
    4 16.701584 0.000027 -0.000001 -0.881237 -0.456720 -0.820070
    5 6.534989 0.000000 0.000000 -0.005401 -0.004871 -1.089339
    6 -3.984016 0.000004 0.000007 -0.637492 -0.441350 -2.006804
    7 19.319885 -0.000001 0.000000 0.000000 0.000000 2.028844
    8 16.701584 0.000027 0.000000 0.101604 -0.031666 -0.911374
    9 6.534989 0.000000 0.000000 -0.079704 -0.004877 -1.089339
    10 0.000005 4.212782 -1.689684 1.621609 -0.151369 1.608906
    11 3.620124 0.000000 0.000000 0.085406 0.224902 0.249114
    12 3.445709 0.000000 0.000000 0.087392 0.221212 0.302110
    13 7.391222 0.000000 0.000000 0.045589 -0.006207 0.196435
    14 3.178824 -0.000002 0.000000 3.141590 0.000000 0.364769
    15 3.706905 0.000001 -0.000001 -0.048130 -0.351329 0.025686
    16 2.023582 0.907751 0.852529 4.162498 -1.282498 0.389110
    17 4.983667 -0.000001 0.000000 -1.220155 -0.329782 -1.489134
    18 10.904946 0.000002 0.000001 -0.000002 0.000001 -1.538867
    19 10.565867 -0.000004 -0.000032 0.370313 -0.008272 0.249370
    20 3.464122 0.088919 -0.780278 -0.266522 0.272889 -0.114263
    21 1.149898 0.000002 -0.000002 0.000000 -0.053881 0.012281
    22 3.616506 0.088100 -0.193358 -0.074871 0.173485 -0.083578
    23 3.507636 -0.030215 0.336398 0.087874 -0.039626 -0.002228
    24 3.709196 0.065913 0.920441 0.315356 -0.197665 -0.104771
    25 0.820751 -0.193686 0.888224 -1.372855 -0.498548 -0.474342
    26 1.123144 0.000000 0.000002 0.000000 -0.012010 0.116354
    27 2.023584 0.907750 -0.852531 0.474607 1.328914 5.065486
    28 4.983665 0.000000 -0.000001 1.453008 0.358945 -1.163536
    29 10.904953 0.000001 0.000001 0.000002 0.000000 -1.802596
    30 10.565885 0.000003 0.000002 -0.489644 -0.091763 0.072290
    31 3.464092 0.095510 0.779500 0.265534 -0.273843 -0.111899
    32 1.149896 0.000002 -0.000002 0.000000 0.053975 0.011863
    33 3.616477 0.089731 0.192609 0.074650 -0.174185 -0.082089
    34 3.507607 -0.033064 -0.336129 -0.087881 0.039606 -0.002554
    35 3.709168 0.058128 -0.920965 -0.315627 0.196774 -0.106443
    36 0.820728 -0.201215 -0.886555 1.300502 0.122960 -0.720452
    37 1.123139 0.000002 0.000000 -0.000006 0.012724 0.116279
    38 1.321864 0.000001 -0.000001 0.000000 0.046519 -0.073857
    39 0.977462 0.000000 0.000000 0.000000 0.011737 -0.061857
    40 0.860969 -0.000002 -0.000003 0.000000 -0.000207 -0.180622
    41 1.575054 -0.000001 -0.000001 0.000000 -0.055713 -0.133233
    42 1.060834 0.000000 0.000000 0.000000 0.054561 -0.056841
    43 1.321865 -0.000001 0.000003 0.000000 -0.047130 -0.073469
    44 0.977460 0.000004 -0.000002 0.000000 -0.012250 -0.061757
    45 0.860970 0.000000 0.000002 0.000000 -0.000893 -0.180620
  time 17
    0 -3.057894 -14.894981 38.216994 1.346810 0.640505 -0.003878
    1 0.000000 0.000000 0.000000 0.000000 0.000000 0.000000
    2 3.984023 0.000006 0.000006 -1.647668 -0.343955 -0.931316
    3 19.319893 -0.000001 0.000000 0.000000 0.000000 1.097675
    4 16.701584 0.000027 -0.000001 -0.679608 -0.426206 -0.956467
    5 6.534989 0.000000 0.000000 -0.005401 -0.004871 -1.089339
    6 -3.984016 0.000004 0.000007 -0.742202 -0.376850 -1.723618
    7 19.319885 -0.000001 0.000000 0.000000 0.000000 1.906710
    8 16.701584 0.000027 0.000000 0.189524 0.040938 -0.802536
    9 6.534989 0.000000 0.000000 -0.079704 -0.004877 -1.089339
    10 0.000005 4.212782 -1.689684 1.618541 -0.157392 1.604735
    11 3.620124 0.000000 0.000000 0.072815 0.198500 0.260354
    12 3.445709 0.000000 0.000000 0.074496 0.197890 0.310370
    13 7.391222 0.000000 0.000000 0.048621 -0.006626 0.204596
    14 3.178824 -0.000002 0.000000 3.141590 0.000000 0.364769
    15 3.706905 0.000001 -0.000001 0.044680 -0.220503 0.129286
    16 2.023582 0.907751 0.852529 4.162593 -1.282498 0.389110
    17 4.983667 -0.000001 0.000000 -1.382744 -0.626150 -1.509268
    18 10.904946 0.000002 0.000001 -0.000002 0.000001 -1.613864
    19 10.565867 -0.000004 -0.000032 0.370313 -0.008241 0.249370
    20 3.464122 0.088919 -0.780278 -0.266522 0.272889 -0.114263
    21 1.149898 0.000002 -0.000002 0.000000 -0.053881 0.012281
    22 3.616506 0.088100 -0.193358 -0.074871 0.173485 -0.083578
    23 3.507636 -0.030215 0.336398 0.087874 -0.039626 -0.002228
    24 3.709196 0.065913 0.920441 0.315356 -0.197665 -0.104771
    25 0.820751 -0.193686 0.888224 -1.372855 -0.498548 -0.474342
    26 1.123144 0.000000 0.000002 0.000000 -0.012010 0.116354
    27 2.023584 0.907750 -0.852531 0.580250 1.352692 5.171880
    28 4.983665 0.000000 -0.000001 1.622702 0.489918 -1.064651
    29 10.904953 0.000001 0.000001 0.000002 0.000000 -1.694834
    30 10.565885 0.000003 0.000002 -0.489644 -0.091763 0.072290
    31 3.464092 0.095510 0.779500 0.265534 -0.273843 -0.111899
    32 1.149896 0.000002 -0.000002 0.000000 0.053975 0.011863
    33 3.616477 0.089731 0.192609 0.074650 -0.174185 -0.082089
    34 3.507607 -0.033064 -0.336129 -0.087881 0.039606 -0.002554
    35 3.709168 0.058128 -0.920965 -0.315627 0.196774 -0.106443
    36 0.820728 -0.201215 -0.886555 1.300502 0.122960 -0.720452
    37 1.123139 0.000002 0.000000 -0.000006 0.012724 0.116279
    38 1.321864 0.000001 -0.000001 0.000000 0.046519 -0.073857
    39 0.977462 0.000000 0.000000 0.000000 0.011737 -0.061857
    40 0.860969 -0.000002 -0.000003 0.000000 -0.000207 -0.180622
    41 1.575054 -0.000001 -0.000001 0.000000 -0.055713 -0.133233
    42 1.060834 0.000000 0.000000 0.000000 0.054561 -0.056841
    43 1.321865 -0.000001 0.000003 0.000000 -0.047130 -0.073469
    44 0.977460 0.000004 -0.000002 0.000000 -0.012250 -0.061757
    45 0.860970 0.000000 0.000002 0.000000 -0.000893 -0.180620
  time 18
    0 -3.171179 -12.703508 35.603633 1.383769 0.455343 -0.134328
    1 0.000000 0.000000 0.000000 0.000000 0.000000 0.000000
    2 3.984023 0.000006 0.000006 -1.707233 -0.471719 -1.086578
    3 19.319893 -0.000001 0.000000 0.000000 0.000000 1.269578
    4 16.701584 0.000027 -0.000001 -0.315411 -0.328803 -1.147573
    5 6.534989 0.000000 0.000000 -0.005401 -0.004871 -1.089339
    6 -3.984016 0.000004 0.000007 -0.751850 -0.159812 -1.718561
    7 19.319885 -0.000001 0.000000 0.000000 0.000000 1.677198
    8 16.701584 0.000027 0.000000 0.503709 0.109513 -0.676414
    9 6.534989 0.000000 0.000000 -0.079704 -0.004877 -1.089339
    10 0.000005 4.212782 -1.689684 1.585800 -0.171209 1.606940
    11 3.620124 0.000000 0.000000 0.008786 0.123536 0.258695
    12 3.445709 0.000000 0.000000 0.009803 0.124424 0.317576
    13 7.391222 0.000000 0.000000 0.038518 -0.005248 0.211667
    14 3.178824 -0.000002 0.000000 3.141590 0.000000 0.364769
    15 3.706905 0.000001 -0.000001 0.251766 -0.063243 0.198378
    16 2.023582 0.907751 0.852529 4.162498 -1.282498 0.389110
    17 4.983667 -0.000001 0.000000 -1.793785 -0.706641 -1.205349
    18 10.904946 0.000002 0.000001 -0.000002 0.000001 -1.622198
    19 10.565867 -0.000004 -0.000032 0.370313 -0.008241 0.249370
    20 3.464122 0.088919 -0.780278 -0.266522 0.272889 -0.114263
    21 1.149898 0.000002 -0.000002 0.000000 -0.053881 0.012281
    22 3.616506 0.088100 -0.193358 -0.074871 0.173485 -0.083578
    23 3.507636 -0.030215 0.336398 0.087874 -0.039626 -0.002228
    24 3.709196 0.065913 0.920441 0.315356 -0.197665 -0.104771
    25 0.820751 -0.193686 0.888224 -1.372855 -0.498548 -0.474342
    26 1.123144 0.000000 0.000002 0.000000 -0.012010 0.116354
    27 2.023584 0.907750 -0.852531 1.295368 1.406808 5.893027
    28 4.983665 0.000000 -0.000001 1.663692 0.686600 -1.082315
    29 10.904953 0.000001 0.000001 0.000002 0.000000 -1.644689
    30 10.565885 0.000003 0.000002 -0.489644 -0.091763 0.072290
    31 3.464092 0.095510 0.779500 0.265534 -0.273843 -0.111899
    32 1.149896 0.000002 -0.000002 0.000000 0.053975 0.011863
    33 3.616477 0.089731 0.192609 0.074650 -0.174185 -0.082089
    34 3.507607 -0.033064 -0.336129 -0.087881 0.039606 -0.002554
    35 3.709168 0.058128 -0.920965 -0.315627 0.196774 -0.106443
    36 0.820728 -0.201215 -0.886555 1.300502 0.122960 -0.720452
    37 1.123139 0.000002 0.000000 -0.000006 0.012724 0.116279
    38 1.321864 0.000001 -0.000001 0.000000 0.046519 -0.073857
    39 0.977462 0.000000 0.000000 0.000000 0.011737 -0.061857
    40 0.860969 -0.000002 -0.000003 0.000000 -0.000207 -0.180622
    41 1.575054 -0.000001 -0.000001 0.000000 -0.055713 -0.133233
    42 1.060834 0.000000 0.000000 0.000000 0.054561 -0.056841
    43 1.321865 -0.000001 0.000003 0.000000 -0.047130 -0.073469
    44 0.977460 0.000004 -0.000002 0.000000 -0.012250 -0.061757
    45 0.860970 0.000000 0.000002 0.000000 -0.000893 -0.180620
  time 19
    0 -3.468063 -9.941705 32.509789 1.337616 0.303562 -0.297132
    1 0.000000 0.000000 0.000000 0.000000 0.000000 0.000000
    2 3.984023 0.000006 0.000006 -1.639254 -0.529678 -1.276007
    3 19.319893 -0.000001 0.000000 0.000000 0.000000 1.446950
    4 16.701584 0.000027 -0.000001 0.119159 -0.122496 -1.338480
    5 6.534989 0.000000 0.000000 -0.005401 -0.004871 -1.089339
    6 -3.984016 0.000004 0.000007 -0.681381 0.097534 -1.894310
    7 19.319885 -0.000001 0.000000 0.000000 0.000000 1.537640
    8 16.701584 0.000027 0.000000 0.193908 -0.180120 -1.277859
    9 6.534989 0.000000 0.000000 -0.079704 -0.004877 -1.089339
    10 0.000005 4.212782 -1.689684 1.528420 -0.189183 1.614179
    11 3.620124 0.000000 0.000000 -0.096567 0.013206 0.246193
    12 3.445709 0.000000 0.000000 -0.096488 0.014489 0.322654
    13 7.391222 0.000000 0.000000 0.016155 -0.002192 0.216581
    14 3.178824 -0.000002 0.000000 3.141590 0.000000 0.364769
    15 3.706905 0.000001 -0.000001 0.656653 0.154992 0.277025
    16 2.023582 0.907751 0.852529 4.162593 -1.282498 0.389110
    17 4.983667 -0.000001 0.000000 -2.166463 -0.364849 -0.753389
    18 10.904946 0.000002 0.000001 -0.000002 0.000001 -1.570312
    19 10.565867 -0.000004 -0.000032 0.370313 -0.008241 0.249370
    20 3.464122 0.088919 -0.780278 -0.266522 0.272889 -0.114263
    21 1.149898 0.000002 -0.000002 0.000000 -0.053881 0.012281
    22 3.616506 0.088100 -0.193358 -0.074871 0.173485 -0.083578
    23 3.507636 -0.030215 0.336398 0.087874 -0.039626 -0.002228
    24 3.709196 0.065913 0.920441 0.315356 -0.197665 -0.104771
    25 0.820751 -0.193686 0.888224 -1.372855 -0.498548 -0.474342
    26 1.123144 0.000000 0.000002 0.000000 -0.012010 0.116354
    27 2.023584 0.907750 -0.852531 -3.907069 1.215354 0.723504
    28 4.983665 0.000000 -0.000001 1.519701 0.998161 -1.318146
    29 10.904953 0.000001 0.000001 0.000002 0.000000 -1.618757
    30 10.565885 0.000003 0.000002 -0.489644 -0.091763 0.072290
    31 3.464092 0.095510 0.779500 0.265534 -0.273843 -0.111899
    32 1.149896 0.000002 -0.000002 0.000000 0.053975 0.011863
    33 3.616477 0.089731 0.192609 0.074650 -0.174185 -0.082089
    34 3.507607 -0.033064 -0.336129 -0.087881 0.039606 -0.002554
    35 3.709168 0.058128 -0.920965 -0.315627 0.196774 -0.106443
    36 0.820728 -0.201215 -0.886555 1.300502 0.122960 -0.720452
    37 1.123139 0.000002 0.000000 -0.000006 0.012724 0.116279
    38 1.321864 0.000001 -0.000001 0.000000 0.046519 -0.073857
    39 0.977462 0.000000 0.000000 0.000000 0.011737 -0.061857
    40 0.860969 -0.000002 -0.000003 0.000000 -0.000207 -0.180622
    41 1.575054 -0.000001 -0.000001 0.000000 -0.055713 -0.133233
    42 1.060834 0.000000 0.000000 0.000000 0.054561 -0.056841
    43 1.321865 -0.000001 0.000003 0.000000 -0.047130 -0.073469
    44 0.977460 0.000004 -0.000002 0.000000 -0.012250 -0.061757
    45 0.860970 0.000000 0.000002 0.000000 -0.000893 -0.180620
  time 20
    0 -3.663381 -7.519756 29.279221 1.316815 0.192147 -0.403719
    1 0.000000 0.000000 0.000000 0.000000 0.000000 0.000000
    2 3.984023 0.000006 0.000006 -1.698820 -0.660482 -1.314776
    3 19.319893 -0.000001 0.000000 0.000000 0.000000 1.645105
    4 16.701584 0.000027 -0.000001 0.173227 -0.065253 -1.388698
    5 6.534989 0.000000 0.000000 -0.005401 -0.004871 -1.089339
    6 -3.984016 0.000004 0.000007 -0.768970 0.121377 -2.011772
    7 19.319885 -0.000001 0.000000 0.000000 0.000000 1.555565
    8 16.701584 0.000027 0.000000 0.029963 -0.097810 -1.472174
    9 6.534989 0.000000 0.000000 -0.079704 -0.004877 -1.089339
    10 0.000005 4.212782 -1.689684 1.487626 -0.196378 1.619452
    11 3.620124 0.000000 0.000000 -0.171042 -0.063771 0.231752
    12 3.445709 0.000000 0.000000 -0.171559 -0.062356 0.320795
    13 7.391222 0.000000 0.000000 0.000000 0.000001 0.214579
    14 3.178824 -0.000002 0.000000 3.141590 0.000000 0.364769
    15 3.706905 0.000001 -0.000001 0.761218 0.199855 0.295660
    16 2.023582 0.907751 0.852529 4.162593 -1.282498 0.389110
    17 4.983667 -0.000001 0.000000 -2.283264 -0.110847 -0.712392
    18 10.904946 0.000002 0.000001 -0.000002 0.000001 -1.553725
    19 10.565867 -0.000004 -0.000032 0.370313 -0.008272 0.249370
    20 3.464122 0.088919 -0.780278 -0.266522 0.272889 -0.114263
    21 1.149898 0.000002 -0.000002 0.000000 -0.053881 0.012281
    22 3.616506 0.088100 -0.193358 -0.074871 0.173485 -0.083578
    23 3.507636 -0.030215 0.336398 0.087874 -0.039626 -0.002228
    24 3.709196 0.065913 0.920441 0.315356 -0.197665 -0.104771
    25 0.820751 -0.193686 0.888224 -1.372855 -0.498548 -0.474342
    26 1.123144 0.000000 0.000002 0.000000 -0.012010 0.116354
    27 2.023584 0.907750 -0.852531 -3.823907 1.140740 0.819765
    28 4.983665 0.000000 -0.000001 1.102729 1.133380 -1.641116
    29 10.904953 0.000001 0.000001 0.000002 0.000000 -1.600639
    30 10.565885 0.000003 0.000002 -0.489644 -0.091763 0.072290
    31 3.464092 0.095510 0.779500 0.265534 -0.273843 -0.111899
    32 1.149896 0.000002 -0.000002 0.000000 0.053975 0.011863
    33 3.616477 0.089731 0.192609 0.074650 -0.174185 -0.082089
    34 3.507607 -0.033064 -0.336129 -0.087881 0.039606 -0.002554
    35 3.709168 0.058128 -0.920965 -0.315627 0.196774 -0.106443
    36 0.820728 -0.201215 -0.886555 1.300502 0.122960 -0.720452
    37 1.123139 0.000002 0.000000 -0.000006 0.012724 0.116279
    38 1.321864 0.000001 -0.000001 0.000000 0.046519 -0.073857
    39 0.977462 0.000000 0.000000 0.000000 0.011737 -0.061857
    40 0.860969 -0.000002 -0.000003 0.000000 -0.000207 -0.180622
    41 1.575054 -0.000001 -0.000001 0.000000 -0.055713 -0.133233
    42 1.060834 0.000000 0.000000 0.000000 0.054561 -0.056841
    43 1.321865 -0.000001 0.000003 0.000000 -0.047130 -0.073469
    44 0.977460 0.000004 -0.000002 0.000000 -0.012250 -0.061757
    45 0.860970 0.000000 0.000002 0.000000 -0.000893 -0.180620
  time 21
    0 -3.671194 -5.449380 25.419728 1.325544 0.111629 -0.430224
    1 0.000000 0.000000 0.000000 0.000000 0.000000 0.000000
    2 3.984023 0.000006 0.000006 -1.792614 -0.861772 -1.279856
    3 19.319893 -0.000001 0.000000 0.000000 0.000000 1.867914
    4 16.701584 0.000027 -0.000001 0.162963 -0.051916 -1.405224
    5 6.534989 0.000000 0.000000 -0.005401 -0.004871 -1.089339
    6 -3.984016 0.000004 0.000007 -0.806427 0.038143 -2.135533
    7 19.319885 -0.000001 0.000000 0.000000 0.000000 1.789578
    8 16.701584 0.000027 0.000000 0.029721 -0.097334 -1.635836
    9 6.534989 0.000000 0.000000 -0.079704 -0.004877 -1.089339
    10 0.000005 4.212782 -1.689684 1.477751 -0.185504 1.620507
    11 3.620124 0.000000 0.000000 -0.190631 -0.084840 0.215489
    12 3.445709 0.000000 0.000000 -0.191346 -0.083269 0.307687
    13 7.391222 0.000000 0.000000 -0.003895 0.000516 0.201420
    14 3.178824 -0.000002 0.000000 3.141590 0.000000 0.364769
    15 3.706905 0.000001 -0.000001 0.761218 0.199831 0.295660
    16 2.023582 0.907751 0.852529 4.162593 -1.282498 0.389110
    17 4.983667 -0.000001 0.000000 -2.301161 -0.074153 -0.769696
    18 10.904946 0.000002 0.000001 -0.000002 0.000001 -1.553725
    19 10.565867 -0.000004 -0.000032 0.370313 -0.008241 0.249370
    20 3.464122 0.088919 -0.780278 -0.266522 0.272889 -0.114263
    21 1.149898 0.000002 -0.000002 0.000000 -0.053881 0.012281
    22 3.616506 0.088100 -0.193358 -0.074871 0.173485 -0.083578
    23 3.507636 -0.030215 0.336398 0.087874 -0.039626 -0.002228
    24 3.709196 0.065913 0.920441 0.315356 -0.197665 -0.104771
    25 0.820751 -0.193686 0.888224 -1.372855 -0.498548 -0.474342
    26 1.123144 0.000000 0.000002 0.000000 -0.012010 0.116354
    27 2.023584 0.907750 -0.852531 -3.823907 1.140740 0.819765
    28 4.983665 0.000000 -0.000001 1.013582 1.110374 -1.665519
    29 10.904953 0.000001 0.000001 0.000002 0.000000 -1.600639
    30 10.565885 0.000003 0.000002 -0.489644 -0.091763 0.072290
    31 3.464092 0.095510 0.779500 0.265534 -0.273843 -0.111899
    32 1.149896 0.000002 -0.000002 0.000000 0.053975 0.011863
    33 3.616477 0.089731 0.192609 0.074650 -0.174185 -0.082089
    34 3.507607 -0.033064 -0.336129 -0.087881 0.039606 -0.002554
    35 3.709168 0.058128 -0.920965 -0.315627 0.196774 -0.106443
    36 0.820728 -0.201215 -0.886555 1.300502 0.122960 -0.720452
    37 1.123139 0.000002 0.000000 -0.000006 0.012724 0.116279
    38 1.321864 0.000001 -0.000001 0.000000 0.046519 -0.073857
    39 0.977462 0.000000 0.000000 0.000000 0.011737 -0.061857
    40 0.860969 -0.000002 -0.000003 0.000000 -0.000207 -0.180622
    41 1.575054 -0.000001 -0.000001 0.000000 -0.055713 -0.133233
    42 1.060834 0.000000 0.000000 0.000000 0.054561 -0.056841
    43 1.321865 -0.000001 0.000003 0.000000 -0.047130 -0.073469
    44 0.977460 0.000004 -0.000002 0.000000 -0.012250 -0.061757
    45 0.860970 0.000000 0.000002 0.000000 -0.000893 -0.180620
  time 22
    0 -3.600879 -3.425881 21.056314 1.317650 0.049451 -0.424471
    1 0.000000 0.000000 0.000000 0.000000 0.000000 0.000000
    2 3.984023 0.000006 0.000006 -1.893963 -1.088705 -1.202226
    3 19.319893 -0.000001 0.000000 0.000000 0.000000 2.080710
    4 16.701584 0.000027 -0.000001 0.151247 -0.036669 -1.369213
    5 6.534989 0.000000 0.000000 -0.005401 -0.004871 -1.089339
    6 -3.984016 0.000004 0.000007 -0.795360 -0.062734 -2.258052
    7 19.319885 -0.000001 0.000000 0.000000 0.000000 2.138056
    8 16.701584 0.000027 0.000000 0.012872 -0.065953 -1.867218
    9 6.534989 0.000000 0.000000 -0.079704 -0.004877 -1.089339
    10 0.000005 4.212782 -1.689684 1.479956 -0.165473 1.620123
    11 3.620124 0.000000 0.000000 -0.188460 -0.082503 0.196024
    12 3.445709 0.000000 0.000000 -0.189165 -0.080944 0.287871
    13 7.391222 0.000000 0.000000 -0.003464 0.000456 0.181610
    14 3.178824 -0.000002 0.000000 3.141590 0.000000 0.364769
    15 3.706905 0.000001 -0.000001 0.761218 0.199831 0.295660
    16 2.023582 0.907751 0.852529 4.162498 -1.282498 0.389110
    17 4.983667 -0.000001 0.000000 -2.240428 -0.080614 -0.856152
    18 10.904946 0.000002 0.000001 -0.000002 0.000001 -1.553725
    19 10.565867 -0.000004 -0.000032 0.370313 -0.008241 0.249370
    20 3.464122 0.088919 -0.780278 -0.266522 0.272889 -0.114263
    21 1.149898 0.000002 -0.000002 0.000000 -0.053881 0.012281
    22 3.616506 0.088100 -0.193358 -0.074871 0.173485 -0.083578
    23 3.507636 -0.030215 0.336398 0.087874 -0.039626 -0.002228
    24 3.709196 0.065913 0.920441 0.315356 -0.197665 -0.104771
    25 0.820751 -0.193686 0.888224 -1.372855 -0.498548 -0.474342
    26 1.123144 0.000000 0.000002 0.000000 -0.012010 0.116354
    27 2.023584 0.907750 -0.852531 -3.823907 1.140740 0.819765
    28 4.983665 0.000000 -0.000001 1.069478 1.023339 -1.570731
    29 10.904953 0.000001 0.000001 0.000002 0.000000 -1.600639
    30 10.565885 0.000003 0.000002 -0.489644 -0.091763 0.072290
    31 3.464092 0.095510 0.779500 0.265534 -0.273843 -0.111899
    32 1.149896 0.000002 -0.000002 0.000000 0.053975 0.011863
    33 3.616477 0.089731 0.192609 0.074650 -0.174185 -0.082089
    34 3.507607 -0.033064 -0.336129 -0.087881 0.039606 -0.002554
    35 3.709168 0.058128 -0.920965 -0.315627 0.196774 -0.106443
    36 0.820728 -0.201215 -0.886555 1.300502 0.122960 -0.720452
    37 1.123139 0.000002 0.000000 -0.000006 0.012724 0.116279
    38 1.321864 0.000001 -0.000001 0.000000 0.046519 -0.073857
    39 0.977462 0.000000 0.000000 0.000000 0.011737 -0.061857
    40 0.860969 -0.000002 -0.000003 0.000000 -0.000207 -0.180622
    41 1.575054 -0.000001 -0.000001 0.000000 -0.055713 -0.133233
    42 1.060834 0.000000 0.000000 0.000000 0.054561 -0.056841
    43 1.321865 -0.000001 0.000003 0.000000 -0.047130 -0.073469
    44 0.977460 0.000004 -0.000002 0.000000 -0.012250 -0.061757
    45 0.860970 0.000000 0.000002 0.000000 -0.000893 -0.180620
  time 23
    0 -3.522752 -1.890678 17.474173 1.301957 0.008228 -0.406360
    1 0.000000 0.000000 0.000000 0.000000 0.000000 0.000000
    2 3.984023 0.000006 0.000006 -2.066350 -1.284821 -1.034480
    3 19.319893 -0.000001 0.000000 0.000000 0.000000 2.217273
    4 16.701584 0.000027 -0.000001 0.138650 -0.020222 -1.279185
    5 6.534989 0.000000 0.000000 -0.005401 -0.004871 -1.089339
    6 -3.984016 0.000004 0.000007 -0.747499 -0.134483 -2.321218
    7 19.319885 -0.000001 0.000000 0.000000 0.000000 2.436263
    8 16.701584 0.000027 0.000000 -0.020963 -0.002597 -2.088878
    9 6.534989 0.000000 0.000000 -0.079704 -0.004877 -1.089339
    10 0.000005 4.212782 -1.689684 1.486667 -0.146177 1.619356
    11 3.620124 0.000000 0.000000 -0.177580 -0.070794 0.179690
    12 3.445709 0.000000 0.000000 -0.178163 -0.069331 0.269798
    13 7.391222 0.000000 0.000000 -0.001282 0.000157 0.163561
    14 3.178824 -0.000002 0.000000 3.141590 0.000000 0.364769
    15 3.706905 0.000001 -0.000001 0.761218 0.199855 0.295660
    16 2.023582 0.907751 0.852529 4.162593 -1.282498 0.389110
    17 4.983667 -0.000001 0.000000 -2.157610 -0.095854 -0.940787
    18 10.904946 0.000002 0.000001 -0.000002 0.000001 -1.553725
    19 10.565867 -0.000004 -0.000032 0.370313 -0.008272 0.249370
    20 3.464122 0.088919 -0.780278 -0.266522 0.272889 -0.114263
    21 1.149898 0.000002 -0.000002 0.000000 -0.053881 0.012281
    22 3.616506 0.088100 -0.193358 -0.074871 0.173485 -0.083578
    23 3.507636 -0.030215 0.336398 0.087874 -0.039626 -0.002228
    24 3.709196 0.065913 0.920441 0.315356 -0.197665 -0.104771
    25 0.820751 -0.193686 0.888224 -1.372855 -0.498548 -0.474342
    26 1.123144 0.000000 0.000002 0.000000 -0.012010 0.116354
    27 2.023584 0.907750 -0.852531 -3.823907 1.140740 0.819765
    28 4.983665 0.000000 -0.000001 1.139228 0.922233 -1.477856
    29 10.904953 0.000001 0.000001 0.000002 0.000000 -1.600639
    30 10.565885 0.000003 0.000002 -0.489644 -0.091763 0.072290
    31 3.464092 0.095510 0.779500 0.265534 -0.273843 -0.111899
    32 1.149896 0.000002 -0.000002 0.000000 0.053975 0.011863
    33 3.616477 0.089731 0.192609 0.074650 -0.174185 -0.082089
    34 3.507607 -0.033064 -0.336129 -0.087881 0.039606 -0.002554
    35 3.709168 0.058128 -0.920965 -0.315627 0.196774 -0.106443
    36 0.820728 -0.201215 -0.886555 1.300502 0.122960 -0.720452
    37 1.123139 0.000002 0.000000 -0.000006 0.012724 0.116279
    38 1.321864 0.000001 -0.000001 0.000000 0.046519 -0.073857
    39 0.977462 0.000000 0.000000 0.000000 0.011737 -0.061857
    40 0.860969 -0.000002 -0.000003 0.000000 -0.000207 -0.180622
    41 1.575054 -0.000001 -0.000001 0.000000 -0.055713 -0.133233
    42 1.060834 0.000000 0.000000 0.000000 0.054561 -0.056841
    43 1.321865 -0.000001 0.000003 0.000000 -0.047130 -0.073469
    44 0.977460 0.000004 -0.000002 0.000000 -0.012250 -0.061757
    45 0.860970 0.000000 0.000002 0.000000 -0.000893 -0.180620
  time 24
    0 -3.483688 -1.277378 15.993659 1.293042 -0.006771 -0.395796
    1 0.000000 0.000000 0.000000 0.000000 0.000000 0.000000
    2 3.984023 0.000006 0.000006 -2.232809 -1.366608 -0.866452
    3 19.319893 -0.000001 0.000000 0.000000 0.000000 2.261952
    4 16.701584 0.000027 -0.000001 0.131937 -0.011419 -1.222604
    5 6.534989 0.000000 0.000000 -0.005401 -0.004871 -1.089339
    6 -3.984016 0.000004 0.000007 -0.709663 -0.161733 -2.325654
    7 19.319885 -0.000001 0.000000 0.000000 0.000000 2.561899
    8 16.701584 0.000027 0.000000 -0.046978 0.046089 -2.199269
    9 6.534989 0.000000 0.000000 -0.079704 -0.004877 -1.089339
    10 0.000005 4.212782 -1.689684 1.490550 -0.137538 1.618973
    11 3.620124 0.000000 0.000000 -0.171042 -0.063771 0.172844
    12 3.445709 0.000000 0.000000 -0.171559 -0.062356 0.261884
    13 7.391222 0.000000 0.000000 0.000000 0.000001 0.155687
    14 3.178824 -0.000002 0.000000 3.141590 0.000000 0.364769
    15 3.706905 0.000001 -0.000001 0.761218 0.199855 0.295660
    16 2.023582 0.907751 0.852529 4.162593 -1.282498 0.389110
    17 4.983667 -0.000001 0.000000 -2.115250 -0.103055 -0.979779
    18 10.904946 0.000002 0.000001 -0.000002 0.000001 -1.553725
    19 10.565867 -0.000004 -0.000032 0.370313 -0.008272 0.249370
    20 3.464122 0.088919 -0.780278 -0.266522 0.272889 -0.114263
    21 1.149898 0.000002 -0.000002 0.000000 -0.053881 0.012281
    22 3.616506 0.088100 -0.193358 -0.074871 0.173485 -0.083578
    23 3.507636 -0.030215 0.336398 0.087874 -0.039626 -0.002228
    24 3.709196 0.065913 0.920441 0.315356 -0.197665 -0.104771
    25 0.820751 -0.193686 0.888224 -1.372855 -0.498548 -0.474342
    26 1.123144 0.000000 0.000002 0.000000 -0.012010 0.116354
    27 2.023584 0.907750 -0.852531 -3.823907 1.140740 0.819765
    28 4.983665 0.000000 -0.000001 1.169421 0.872421 -1.439886
    29 10.904953 0.000001 0.000001 0.000002 0.000000 -1.600639
    30 10.565885 0.000003 0.000002 -0.489644 -0.091763 0.072290
    31 3.464092 0.095510 0.779500 0.265534 -0.273843 -0.111899
    32 1.149896 0.000002 -0.000002 0.000000 0.053975 0.011863
    33 3.616477 0.089731 0.192609 0.074650 -0.174185 -0.082089
    34 3.507607 -0.033064 -0.336129 -0.087881 0.039606 -0.002554
    35 3.709168 0.058128 -0.920965 -0.315627 0.196774 -0.106443
    36 0.820728 -0.201215 -0.886555 1.300502 0.122960 -0.720452
    37 1.123139 0.000002 0.000000 -0.000006 0.012724 0.116279
    38 1.321864 0.000001 -0.000001 0.000000 0.046519 -0.073857
    39 0.977462 0.000000 0.000000 0.000000 0.011737 -0.061857
    40 0.860969 -0.000002 -0.000003 0.000000 -0.000207 -0.180622
    41 1.575054 -0.000001 -0.000001 0.000000 -0.055713 -0.133233
    42 1.060834 0.000000 0.000000 0.000000 0.054561 -0.056841
    43 1.321865 -0.000001 0.000003 0.000000 -0.047130 -0.073469
    44 0.977460 0.000004 -0.000002 0.000000 -0.012250 -0.061757
    45 0.860970 0.000000 0.000002 0.000000 -0.000893 -0.180620
  time 25
    0 -3.483688 -1.277378 15.993659 1.293042 -0.006771 -0.395796
    1 0.000000 0.000000 0.000000 0.000000 0.000000 0.000000
    2 3.984023 0.000006 0.000006 -2.232809 -1.366608 -0.866452
    3 19.319893 -0.000001 0.000000 0.000000 0.000000 2.261952
    4 16.701584 0.000027 -0.000001 0.131937 -0.011419 -1.222604
    5 6.534989 0.000000 0.000000 -0.005401 -0.004871 -1.089339
    6 -3.984016 0.000004 0.000007 -0.709663 -0.161733 -2.325654
    7 19.319885 -0.000001 0.000000 0.000000 0.000000 2.561899
    8 16.701584 0.000027 0.000000 -0.046978 0.046089 -2.199269
    9 6.534989 0.000000 0.000000 -0.079704 -0.004877 -1.089339
    10 0.000005 4.212782 -1.689684 1.490550 -0.137538 1.618973
    11 3.620124 0.000000 0.000000 -0.171042 -0.063771 0.172844
    12 3.445709 0.000000 0.000000 -0.171559 -0.062356 0.261884
    13 7.391222 0.000000 0.000000 0.000000 0.000001 0.155687
    14 3.178824 -0.000002 0.000000 3.141590 0.000000 0.364769
    15 3.706905 0.000001 -0.000001 0.761218 0.199855 0.295660
    16 2.023582 0.907751 0.852529 4.162593 -1.282498 0.389110
    17 4.983667 -0.000001 0.000000 -2.115250 -0.103055 -0.979779
    18 10.904946 0.000002 0.000001 -0.000002 0.000001 -1.553725
    19 10.565867 -0.000004 -0.000032 0.370313 -0.008272 0.249370
    20 3.464122 0.088919 -0.780278 -0.266522 0.272889 -0.114263
    21 1.149898 0.000002 -0.000002 0.000000 -0.053881 0.012281
    22 3.616506 0.088100 -0.193358 -0.074871 0.173485 -0.083578
    23 3.507636 -0.030215 0.336398 0.087874 -0.039626 -0.002228
    24 3.709196 0.065913 0.920441 0.315356 -0.197665 -0.104771
    25 0.820751 -0.193686 0.888224 -1.372855 -0.498548 -0.474342
    26 1.123144 0.000000 0.000002 0.000000 -0.012010 0.116354
    27 2.023584 0.907750 -0.852531 -3.823907 1.140740 0.819765
    28 4.983665 0.000000 -0.000001 1.169421 0.872421 -1.439886
    29 10.904953 0.000001 0.000001 0.000002 0.000000 -1.600639
    30 10.565885 0.000003 0.000002 -0.489644 -0.091763 0.072290
    31 3.464092 0.095510 0.779500 0.265534 -0.273843 -0.111899
    32 1.149896 0.000002 -0.000002 0.000000 0.053975 0.011863
    33 3.616477 0.089731 0.192609 0.074650 -0.174185 -0.082089
    34 3.507607 -0.033064 -0.336129 -0.087881 0.039606 -0.002554
    35 3.709168 0.058128 -0.920965 -0.315627 0.196774 -0.106443
    36 0.820728 -0.201215 -0.886555 1.300502 0.122960 -0.720452
    37 1.123139 0.000002 0.000000 -0.000006 0.012724 0.116279
    38 1.321864 0.000001 -0.000001 0.000000 0.046519 -0.073857
    39 0.977462 0.000000 0.000000 0.000000 0.011737 -0.061857
    40 0.860969 -0.000002 -0.000003 0.000000 -0.000207 -0.180622
    41 1.575054 -0.000001 -0.000001 0.000000 -0.055713 -0.133233
    42 1.060834 0.000000 0.000000 0.000000 0.054561 -0.056841
    43 1.321865 -0.000001 0.000003 0.000000 -0.047130 -0.073469
    44 0.977460 0.000004 -0.000002 0.000000 -0.012250 -0.061757
    45 0.860970 0.000000 0.000002 0.000000 -0.000893 -0.180620
  time 26
    0 -3.483688 -1.277378 15.993659 1.293042 -0.006771 -0.395796
    1 0.000000 0.000000 0.000000 0.000000 0.000000 0.000000
    2 3.984023 0.000006 0.000006 -2.232809 -1.366608 -0.866452
    3 19.319893 -0.000001 0.000000 0.000000 0.000000 2.261952
    4 16.701584 0.000027 -0.000001 0.131937 -0.011419 -1.222604
    5 6.534989 0.000000 0.000000 -0.005401 -0.004871 -1.089339
    6 -3.984016 0.000004 0.000007 -0.709663 -0.161733 -2.325654
    7 19.319885 -0.000001 0.000000 0.000000 0.000000 2.561899
    8 16.701584 0.000027 0.000000 -0.046978 0.046089 -2.199269
    9 6.534989 0.000000 0.000000 -0.079704 -0.004877 -1.089339
    10 0.000005 4.212782 -1.689684 1.490550 -0.137538 1.618973
    11 3.620124 0.000000 0.000000 -0.171042 -0.063771 0.172844
    12 3.445709 0.000000 0.000000 -0.171559 -0.062356 0.261884
    13 7.391222 0.000000 0.000000 0.000000 0.000001 0.155687
    14 3.178824 -0.000002 0.000000 3.141590 0.000000 0.364769
    15 3.706905 0.000001 -0.000001 0.761218 0.199855 0.295660
    16 2.023582 0.907751 0.852529 4.162593 -1.282498 0.389110
    17 4.983667 -0.000001 0.000000 -2.115250 -0.103055 -0.979779
    18 10.904946 0.000002 0.000001 -0.000002 0.000001 -1.553725
    19 10.565867 -0.000004 -0.000032 0.370313 -0.008272 0.249370
    20 3.464122 0.088919 -0.780278 -0.266522 0.272889 -0.114263
    21 1.149898 0.000002 -0.000002 0.000000 -0.053881 0.012281
    22 3.616506 0.088100 -0.193358 -0.074871 0.173485 -0.083578
    23 3.507636 -0.030215 0.336398 0.087874 -0.039626 -0.002228
    24 3.709196 0.065913 0.920441 0.315356 -0.197665 -0.104771
    25 0.820751 -0.193686 0.888224 -1.372855 -0.498548 -0.474342
    26 1.123144 0.000000 0.000002 0.000000 -0.012010 0.116354
    27 2.023584 0.907750 -0.852531 -3.823907 1.140740 0.819765
    28 4.983665 0.000000 -0.000001 1.169421 0.872421 -1.439886
    29 10.904953 0.000001 0.000001 0.000002 0.000000 -1.600639
    30 10.565885 0.000003 0.000002 -0.489644 -0.091763 0.072290
    31 3.464092 0.095510 0.779500 0.265534 -0.273843 -0.111899
    32 1.149896 0.000002 -0.000002 0.000000 0.053975 0.011863
    33 3.616477 0.089731 0.192609 0.074650 -0.174185 -0.082089
    34 3.507607 -0.033064 -0.336129 -0.087881 0.039606 -0.002554
    35 3.709168 0.058128 -0.920965 -0.315627 0.196774 -0.106443
    36 0.820728 -0.201215 -0.886555 1.300502 0.122960 -0.720452
    37 1.123139 0.000002 0.000000 -0.000006 0.012724 0.116279
    38 1.321864 0.000001 -0.000001 0.000000 0.046519 -0.073857
    39 0.977462 0.000000 0.000000 0.000000 0.011737 -0.061857
    40 0.860969 -0.000002 -0.000003 0.000000 -0.000207 -0.180622
    41 1.575054 -0.000001 -0.000001 0.000000 -0.055713 -0.133233
    42 1.060834 0.000000 0.000000 0.000000 0.054561 -0.056841
    43 1.321865 -0.000001 0.000003 0.000000 -0.047130 -0.073469
    44 0.977460 0.000004 -0.000002 0.000000 -0.012250 -0.061757
    45 0.860970 0.000000 0.000002 0.000000 -0.000893 -0.180620
  time 27
    0 -3.483688 -1.277378 15.993659 1.293042 -0.006771 -0.395796
    1 0.000000 0.000000 0.000000 0.000000 0.000000 0.000000
    2 3.984023 0.000006 0.000006 -2.232809 -1.366608 -0.866452
    3 19.319893 -0.000001 0.000000 0.000000 0.000000 2.261952
    4 16.701584 0.000027 -0.000001 0.131937 -0.011419 -1.222604
    5 6.534989 0.000000 0.000000 -0.005401 -0.004871 -1.089339
    6 -3.984016 0.000004 0.000007 -0.709663 -0.161733 -2.325654
    7 19.319885 -0.000001 0.000000 0.000000 0.000000 2.561899
    8 16.701584 0.000027 0.000000 -0.046978 0.046089 -2.199269
    9 6.534989 0.000000 0.000000 -0.079704 -0.004877 -1.089339
    10 0.000005 4.212782 -1.689684 1.490550 -0.137538 1.618973
    11 3.620124 0.000000 0.000000 -0.171042 -0.063771 0.172844
    12 3.445709 0.000000 0.000000 -0.171559 -0.062356 0.261884
    13 7.391222 0.000000 0.000000 0.000000 0.000001 0.155687
    14 3.178824 -0.000002 0.000000 3.141590 0.000000 0.364769
    15 3.706905 0.000001 -0.000001 0.761218 0.199855 0.295660
    16 2.023582 0.907751 0.852529 4.162593 -1.282498 0.389110
    17 4.983667 -0.000001 0.000000 -2.115250 -0.103055 -0.979779
    18 10.904946 0.000002 0.000001 -0.000002 0.000001 -1.553725
    19 10.565867 -0.000004 -0.000032 0.370313 -0.008272 0.249370
    20 3.464122 0.088919 -0.780278 -0.266522 0.272889 -0.114263
    21 1.149898 0.000002 -0.000002 0.000000 -0.053881 0.012281
    22 3.616506 0.088100 -0.193358 -0.074871 0.173485 -0.083578
    23 3.507636 -0.030215 0.336398 0.087874 -0.039626 -0.002228
    24 3.709196 0.065913 0.920441 0.315356 -0.197665 -0.104771
    25 0.820751 -0.193686 0.888224 -1.372855 -0.498548 -0.474342
    26 1.123144 0.000000 0.000002 0.000000 -0.012010 0.116354
    27 2.023584 0.907750 -0.852531 -3.823907 1.140740 0.819765
    28 4.983665 0.000000 -0.000001 1.169421 0.872421 -1.439886
    29 10.904953 0.000001 0.000001 0.000002 0.000000 -1.600639
    30 10.565885 0.000003 0.000002 -0.489644 -0.091763 0.072290
    31 3.464092 0.095510 0.779500 0.265534 -0.273843 -0.111899
    32 1.149896 0.000002 -0.000002 0.000000 0.053975 0.011863
    33 3.616477 0.089731 0.192609 0.074650 -0.174185 -0.082089
    34 3.507607 -0.033064 -0.336129 -0.087881 0.039606 -0.002554
    35 3.709168 0.058128 -0.920965 -0.315627 0.196774 -0.106443
    36 0.820728 -0.201215 -0.886555 1.300502 0.122960 -0.720452
    37 1.123139 0.000002 0.000000 -0.000006 0.012724 0.116279
    38 1.321864 0.000001 -0.000001 0.000000 0.046519 -0.073857
    39 0.977462 0.000000 0.000000 0.000000 0.011737 -0.061857
    40 0.860969 -0.000002 -0.000003 0.000000 -0.000207 -0.180622
    41 1.575054 -0.000001 -0.000001 0.000000 -0.055713 -0.133233
    42 1.060834 0.000000 0.000000 0.000000 0.054561 -0.056841
    43 1.321865 -0.000001 0.000003 0.000000 -0.047130 -0.073469
    44 0.977460 0.000004 -0.000002 0.000000 -0.012250 -0.061757
    45 0.860970 0.000000 0.000002 0.000000 -0.000893 -0.180620
  time 28
    0 -3.483688 -1.277378 15.993659 1.293042 -0.006771 -0.395796
    1 0.000000 0.000000 0.000000 0.000000 0.000000 0.000000
    2 3.984023 0.000006 0.000006 -2.232809 -1.366608 -0.866452
    3 19.319893 -0.000001 0.000000 0.000000 0.000000 2.261952
    4 16.701584 0.000027 -0.000001 0.131937 -0.011419 -1.222604
    5 6.534989 0.000000 0.000000 -0.005401 -0.004871 -1.089339
    6 -3.984016 0.000004 0.000007 -0.709663 -0.161733 -2.325654
    7 19.319885 -0.000001 0.000000 0.000000 0.000000 2.561899
    8 16.701584 0.000027 0.000000 -0.046978 0.046089 -2.199269
    9 6.534989 0.000000 0.000000 -0.079704 -0.004877 -1.089339
    10 0.000005 4.212782 -1.689684 1.490550 -0.137538 1.618973
    11 3.620124 0.000000 0.000000 -0.171042 -0.063771 0.172844
    12 3.445709 0.000000 0.000000 -0.171559 -0.062356 0.261884
    13 7.391222 0.000000 0.000000 0.000000 0.000001 0.155687
    14 3.178824 -0.000002 0.000000 3.141590 0.000000 0.364769
    15 3.706905 0.000001 -0.000001 0.761218 0.199855 0.295660
    16 2.023582 0.907751 0.852529 4.162593 -1.282498 0.389110
    17 4.983667 -0.000001 0.000000 -2.115250 -0.103055 -0.979779
    18 10.904946 0.000002 0.000001 -0.000002 0.000001 -1.553725
    19 10.565867 -0.000004 -0.000032 0.370313 -0.008272 0.249370
    20 3.464122 0.088919 -0.780278 -0.266522 0.272889 -0.114263
    21 1.149898 0.000002 -0.000002 0.000000 -0.053881 0.012281
    22 3.616506 0.088100 -0.193358 -0.074871 0.173485 -0.083578
    23 3.507636 -0.030215 0.336398 0.087874 -0.039626 -0.002228
    24 3.709196 0.065913 0.920441 0.315356 -0.197665 -0.104771
    25 0.820751 -0.193686 0.888224 -1.372855 -0.498548 -0.474342
    26 1.123144 0.000000 0.000002 0.000000 -0.012010 0.116354
    27 2.023584 0.907750 -0.852531 -3.823907 1.140740 0.819765
    28 4.983665 0.000000 -0.000001 1.169421 0.872421 -1.439886
    29 10.904953 0.000001 0.000001 0.000002 0.000000 -1.600639
    30 10.565885 0.000003 0.000002 -0.489644 -0.091763 0.072290
    31 3.464092 0.095510 0.779500 0.265534 -0.273843 -0.111899
    32 1.149896 0.000002 -0.000002 0.000000 0.053975 0.011863
    33 3.616477 0.089731 0.192609 0.074650 -0.174185 -0.082089
    34 3.507607 -0.033064 -0.336129 -0.087881 0.039606 -0.002554
    35 3.709168 0.058128 -0.920965 -0.315627 0.196774 -0.106443
    36 0.820728 -0.201215 -0.886555 1.300502 0.122960 -0.720452
    37 1.123139 0.000002 0.000000 -0.000006 0.012724 0.116279
    38 1.321864 0.000001 -0.000001 0.000000 0.046519 -0.073857
    39 0.977462 0.000000 0.000000 0.000000 0.011737 -0.061857
    40 0.860969 -0.000002 -0.000003 0.000000 -0.000207 -0.180622
    41 1.575054 -0.000001 -0.000001 0.000000 -0.055713 -0.133233
    42 1.060834 0.000000 0.000000 0.000000 0.054561 -0.056841
    43 1.321865 -0.000001 0.000003 0.000000 -0.047130 -0.073469
    44 0.977460 0.000004 -0.000002 0.000000 -0.012250 -0.061757
    45 0.860970 0.000000 0.000002 0.000000 -0.000893 -0.180620
  time 29
    0 -3.483688 -1.277378 15.993659 1.293042 -0.006771 -0.395796
    1 0.000000 0.000000 0.000000 0.000000 0.000000 0.000000
    2 3.984023 0.000006 0.000006 -2.232809 -1.366608 -0.866452
    3 19.319893 -0.000001 0.000000 0.000000 0.000000 2.261952
    4 16.701584 0.000027 -0.000001 0.131937 -0.011419 -1.222604
    5 6.534989 0.000000 0.000000 -0.005401 -0.004871 -1.089339
    6 -3.984016 0.000004 0.000007 -0.709663 -0.161733 -2.325654
    7 19.319885 -0.000001 0.000000 0.000000 0.000000 2.561899
    8 16.701584 0.000027 0.000000 -0.046978 0.046089 -2.199269
    9 6.534989 0.000000 0.000000 -0.079704 -0.004877 -1.089339
    10 0.000005 4.212782 -1.689684 1.490550 -0.137538 1.618973
    11 3.620124 0.000000 0.000000 -0.171042 -0.063771 0.172844
    12 3.445709 0.000000 0.000000 -0.171559 -0.062356 0.261884
    13 7.391222 0.000000 0.000000 0.000000 0.000001 0.155687
    14 3.178824 -0.000002 0.000000 3.141590 0.000000 0.364769
    15 3.706905 0.000001 -0.000001 0.761218 0.199855 0.295660
    16 2.023582 0.907751 0.852529 4.162593 -1.282498 0.389110
    17 4.983667 -0.000001 0.000000 -2.115250 -0.103055 -0.979779
    18 10.904946 0.000002 0.000001 -0.000002 0.000001 -1.553725
    19 10.565867 -0.000004 -0.000032 0.370313 -0.008272 0.249370
    20 3.464122 0.088919 -0.780278 -0.266522 0.272889 -0.114263
    21 1.149898 0.000002 -0.000002 0.000000 -0.053881 0.012281
    22 3.616506 0.088100 -0.193358 -0.074871 0.173485 -0.083578
    23 3.507636 -0.030215 0.336398 0.087874 -0.039626 -0.002228
    24 3.709196 0.065913 0.920441 0.315356 -0.197665 -0.104771
    25 0.820751 -0.193686 0.888224 -1.372855 -0.498548 -0.474342
    26 1.123144 0.000000 0.000002 0.000000 -0.012010 0.116354
    27 2.023584 0.907750 -0.852531 -3.823907 1.140740 0.819765
    28 4.983665 0.000000 -0.000001 1.169421 0.872421 -1.439886
    29 10.904953 0.000001 0.000001 0.000002 0.000000 -1.600639
    30 10.565885 0.000003 0.000002 -0.489644 -0.091763 0.072290
    31 3.464092 0.095510 0.779500 0.265534 -0.273843 -0.111899
    32 1.149896 0.000002 -0.000002 0.000000 0.053975 0.011863
    33 3.616477 0.089731 0.192609 0.074650 -0.174185 -0.082089
    34 3.507607 -0.033064 -0.336129 -0.087881 0.039606 -0.002554
    35 3.709168 0.058128 -0.920965 -0.315627 0.196774 -0.106443
    36 0.820728 -0.201215 -0.886555 1.300502 0.122960 -0.720452
    37 1.123139 0.000002 0.000000 -0.000006 0.012724 0.116279
    38 1.321864 0.000001 -0.000001 0.000000 0.046519 -0.073857
    39 0.977462 0.000000 0.000000 0.000000 0.011737 -0.061857
    40 0.860969 -0.000002 -0.000003 0.000000 -0.000207 -0.180622
    41 1.575054 -0.000001 -0.000001 0.000000 -0.055713 -0.133233
    42 1.060834 0.000000 0.000000 0.000000 0.054561 -0.056841
    43 1.321865 -0.000001 0.000003 0.000000 -0.047130 -0.073469
    44 0.977460 0.000004 -0.000002 0.000000 -0.012250 -0.061757
    45 0.860970 0.000000 0.000002 0.000000 -0.000893 -0.180620
  time 30
    0 -3.483688 -1.277378 15.993659 1.293042 -0.006771 -0.395796
    1 0.000000 0.000000 0.000000 0.000000 0.000000 0.000000
    2 3.984023 0.000006 0.000006 -2.232809 -1.366608 -0.866452
    3 19.319893 -0.000001 0.000000 0.000000 0.000000 2.261952
    4 16.701584 0.000027 -0.000001 0.131937 -0.011419 -1.222604
    5 6.534989 0.000000 0.000000 -0.005401 -0.004871 -1.089339
    6 -3.984016 0.000004 0.000007 -0.709663 -0.161733 -2.325654
    7 19.319885 -0.000001 0.000000 0.000000 0.000000 2.561899
    8 16.701584 0.000027 0.000000 -0.046978 0.046089 -2.199269
    9 6.534989 0.000000 0.000000 -0.079704 -0.004877 -1.089339
    10 0.000005 4.212782 -1.689684 1.490550 -0.137538 1.618973
    11 3.620124 0.000000 0.000000 -0.171042 -0.063771 0.172844
    12 3.445709 0.000000 0.000000 -0.171559 -0.062356 0.261884
    13 7.391222 0.000000 0.000000 0.000000 0.000001 0.155687
    14 3.178824 -0.000002 0.000000 3.141590 0.000000 0.364769
    15 3.706905 0.000001 -0.000001 0.761218 0.199855 0.295660
    16 2.023582 0.907751 0.852529 4.162593 -1.282498 0.389110
    17 4.983667 -0.000001 0.000000 -2.115250 -0.103055 -0.979779
    18 10.904946 0.000002 0.000001 -0.000002 0.000001 -1.553725
    19 10.565867 -0.000004 -0.000032 0.370313 -0.008272 0.249370
    20 3.464122 0.088919 -0.780278 -0.266522 0.272889 -0.114263
    21 1.149898 0.000002 -0.000002 0.000000 -0.053881 0.012281
    22 3.616506 0.088100 -0.193358 -0.074871 0.173485 -0.083578
    23 3.507636 -0.030215 0.336398 0.087874 -0.039626 -0.002228
    24 3.709196 0.065913 0.920441 0.315356 -0.197665 -0.104771
    25 0.820751 -0.193686 0.888224 -1.372855 -0.498548 -0.474342
    26 1.123144 0.000000 0.000002 0.000000 -0.012010 0.116354
    27 2.023584 0.907750 -0.852531 -3.823907 1.140740 0.819765
    28 4.983665 0.000000 -0.000001 1.169421 0.872421 -1.439886
    29 10.904953 0.000001 0.000001 0.000002 0.000000 -1.600639
    30 10.565885 0.000003 0.000002 -0.489644 -0.091763 0.072290
    31 3.464092 0.095510 0.779500 0.265534 -0.273843 -0.111899
    32 1.149896 0.000002 -0.000002 0.000000 0.053975 0.011863
    33 3.616477 0.089731 0.192609 0.074650 -0.174185 -0.082089
    34 3.507607 -0.033064 -0.336129 -0.087881 0.039606 -0.002554
    35 3.709168 0.058128 -0.920965 -0.315627 0.196774 -0.106443
    36 0.820728 -0.201215 -0.886555 1.300502 0.122960 -0.720452
    37 1.123139 0.000002 0.000000 -0.000006 0.012724 0.116279
    38 1.321864 0.000001 -0.000001 0.000000 0.046519 -0.073857
    39 0.977462 0.000000 0.000000 0.000000 0.011737 -0.061857
    40 0.860969 -0.000002 -0.000003 0.000000 -0.000207 -0.180622
    41 1.575054 -0.000001 -0.000001 0.000000 -0.055713 -0.133233
    42 1.060834 0.000000 0.000000 0.000000 0.054561 -0.056841
    43 1.321865 -0.000001 0.000003 0.000000 -0.047130 -0.073469
    44 0.977460 0.000004 -0.000002 0.000000 -0.012250 -0.061757
    45 0.860970 0.000000 0.000002 0.000000 -0.000893 -0.180620
end
