// Created by Crowbar 0.68
version 1
nodes
  0 "ValveBiped.Bip01" -1
  1 "ValveBiped.Bip01_Pelvis" 0
  2 "ValveBiped.Bip01_L_Thigh" 1
  3 "ValveBiped.Bip01_L_Calf" 2
  4 "ValveBiped.Bip01_L_Foot" 3
  5 "ValveBiped.Bip01_L_Toe0" 4
  6 "ValveBiped.Bip01_R_Thigh" 1
  7 "ValveBiped.Bip01_R_Calf" 6
  8 "ValveBiped.Bip01_R_Foot" 7
  9 "ValveBiped.Bip01_R_Toe0" 8
  10 "ValveBiped.Bip01_Spine" 0
  11 "ValveBiped.Bip01_Spine1" 10
  12 "ValveBiped.Bip01_Spine2" 11
  13 "ValveBiped.Bip01_Spine4" 12
  14 "ValveBiped.Bip01_Neck1" 13
  15 "ValveBiped.Bip01_Head1" 14
  16 "ValveBiped.Bip01_L_Clavicle" 13
  17 "ValveBiped.Bip01_L_UpperArm" 16
  18 "ValveBiped.Bip01_L_Forearm" 17
  19 "ValveBiped.Bip01_L_Hand" 18
  20 "ValveBiped.Bip01_L_Finger4" 19
  21 "ValveBiped.Bip01_L_Finger41" 20
  22 "ValveBiped.Bip01_L_Finger3" 19
  23 "ValveBiped.Bip01_L_Finger2" 19
  24 "ValveBiped.Bip01_L_Finger1" 19
  25 "ValveBiped.Bip01_L_Finger0" 19
  26 "ValveBiped.Bip01_L_Finger01" 25
  27 "ValveBiped.Bip01_R_Clavicle" 13
  28 "ValveBiped.Bip01_R_UpperArm" 27
  29 "ValveBiped.Bip01_R_Forearm" 28
  30 "ValveBiped.Bip01_R_Hand" 29
  31 "ValveBiped.Bip01_R_Finger4" 30
  32 "ValveBiped.Bip01_R_Finger41" 31
  33 "ValveBiped.Bip01_R_Finger3" 30
  34 "ValveBiped.Bip01_R_Finger2" 30
  35 "ValveBiped.Bip01_R_Finger1" 30
  36 "ValveBiped.Bip01_R_Finger0" 30
  37 "ValveBiped.Bip01_R_Finger01" 36
  38 "ValveBiped.Bip01_L_Finger11" 24
  39 "ValveBiped.Bip01_L_Finger12" 38
  40 "ValveBiped.Bip01_L_Finger02" 26
  41 "ValveBiped.Bip01_R_Finger21" 34
  42 "ValveBiped.Bip01_R_Finger22" 41
  43 "ValveBiped.Bip01_R_Finger11" 35
  44 "ValveBiped.Bip01_R_Finger12" 43
  45 "ValveBiped.Bip01_R_Finger02" 37
end
skeleton
  time 0
    0 -4.124333 7.496328 17.860904 1.285891 -0.017783 -0.432205
    1 0.000000 0.000001 0.000000 0.000000 0.000000 0.000000
    2 3.984023 0.000014 0.000008 -2.260919 -1.341963 -0.839512
    3 19.319881 0.000007 0.000002 0.000000 0.000000 2.281894
    4 16.721116 -0.261700 0.117190 0.112679 -0.046877 -1.308438
    5 6.534991 -0.000007 0.000001 -0.005401 -0.004871 -1.089339
    6 -3.984016 0.000009 0.000009 -0.699542 -0.296847 -2.436374
    7 19.319883 0.000006 -0.000003 0.000000 0.000000 2.612170
    8 16.701590 0.000005 0.000001 -0.038571 0.077639 -1.826303
    9 6.534990 0.000001 -0.000004 -0.077798 -0.004517 -1.352407
    10 0.000005 4.212782 -1.689685 1.490550 -0.137538 1.618973
    11 3.620123 -0.000001 0.000000 -0.171042 -0.063771 0.172844
    12 3.445713 -0.000002 0.000001 -0.171559 -0.062356 0.261884
    13 7.391215 0.000002 0.000001 0.000000 0.000001 0.155687
    14 3.178820 -0.000007 -0.000001 3.141590 0.000000 0.364769
    15 3.706908 0.000011 0.000002 0.761218 0.199831 0.295660
    16 2.023576 0.907751 0.852530 4.162498 -1.282498 0.389110
    17 4.983666 -0.000007 -0.000001 -2.139905 -0.083474 -0.999913
    18 10.904945 -0.000010 0.000005 -0.000002 0.000001 -1.553725
    19 10.565873 0.000007 -0.000039 0.370313 -0.008241 0.249370
    20 3.464128 0.088918 -0.780277 -0.266522 0.272889 -0.114263
    21 1.149900 0.000003 -0.000004 0.000000 -0.053881 0.012281
    22 3.616511 0.088098 -0.193359 -0.074871 0.173485 -0.083578
    23 3.507639 -0.030214 0.336394 0.087874 -0.039626 -0.002228
    24 3.709199 0.065914 0.920438 0.315356 -0.197665 -0.104771
    25 0.820752 -0.193685 0.888225 -1.372855 -0.498548 -0.474342
    26 1.123152 -0.000001 0.000007 0.000000 -0.012010 0.116354
    27 2.023577 0.907747 -0.852531 -3.823907 1.140740 0.819765
    28 4.983664 -0.000003 -0.000002 1.124800 0.876913 -1.448536
    29 10.904955 -0.000001 -0.000006 0.000002 0.000000 -1.600639
    30 10.565878 0.000005 0.000008 -0.489644 -0.091763 0.072290
    31 3.464089 0.095510 0.779503 0.265534 -0.273843 -0.111899
    32 1.149893 -0.000003 -0.000006 0.000000 0.053975 0.011863
    33 3.616475 0.089731 0.192608 0.074650 -0.174185 -0.082089
    34 3.507608 -0.033062 -0.336132 -0.087881 0.039606 -0.002554
    35 3.709165 0.058125 -0.920976 -0.315627 0.196774 -0.106443
    36 0.820727 -0.201217 -0.886563 1.300502 0.122960 -0.720452
    37 1.123138 -0.000003 0.000006 -0.000006 0.012724 0.116279
    38 1.321866 0.000002 0.000005 0.000000 0.046519 -0.073857
    39 0.977462 0.000001 0.000002 0.000000 0.011737 -0.061857
    40 0.860968 -0.000003 -0.000002 0.000000 -0.000207 -0.180622
    41 1.575051 -0.000005 0.000008 0.000000 -0.055713 -0.133233
    42 1.060835 -0.000005 -0.000002 0.000000 0.054561 -0.056841
    43 1.321869 -0.000001 0.000007 0.000000 -0.047130 -0.073469
    44 0.977462 0.000000 -0.000007 0.000000 -0.012250 -0.061757
    45 0.860973 0.000000 0.000000 0.000000 -0.000893 -0.180620
  time 1
    0 -4.304026 7.496328 18.199728 1.300564 0.009942 -0.386552
    1 0.000000 0.000001 0.000000 0.000000 0.000000 0.000000
    2 3.984023 0.000014 0.000008 -2.261015 -1.341963 -0.839512
    3 19.319881 0.000007 0.000002 0.000000 0.000000 2.281894
    4 16.701584 0.000027 -0.000001 0.127764 -0.039066 -1.294675
    5 6.534991 -0.000007 0.000001 -0.005401 -0.004871 -1.089339
    6 -3.984016 0.000009 0.000009 -0.787793 -0.337940 -2.385095
    7 19.319883 0.000006 -0.000003 0.000000 0.000000 2.602582
    8 16.701590 0.000005 0.000001 -0.020290 0.053772 -1.771884
    9 6.534990 0.000001 -0.000004 -0.078086 -0.004577 -1.304201
    10 0.000005 4.212782 -1.689685 1.517298 -0.184250 1.597641
    11 3.620123 -0.000001 0.000000 -0.167798 -0.058714 0.241917
    12 3.445713 -0.000002 0.000001 -0.159743 -0.061457 0.327139
    13 7.391215 0.000002 0.000001 0.001570 0.005682 0.140622
    14 3.178820 -0.000007 -0.000001 3.141590 0.000000 0.364769
    15 3.706908 0.000011 0.000002 0.671092 0.104196 0.461956
    16 2.023576 0.907751 0.852530 4.104877 -1.305935 0.445070
    17 4.983666 -0.000007 -0.000001 -2.078220 0.018225 -1.159616
    18 10.904945 -0.000010 0.000005 -0.000002 0.000001 -1.830997
    19 10.565873 0.000007 -0.000039 0.370726 -0.008918 0.241007
    20 3.464128 0.088918 -0.780277 -0.266522 0.272889 -0.114263
    21 1.149900 0.000003 -0.000004 0.000000 -0.053881 0.012281
    22 3.616511 0.088098 -0.193359 -0.074871 0.173485 -0.083578
    23 3.507639 -0.030214 0.336394 0.087874 -0.039626 -0.002228
    24 3.709199 0.065914 0.920438 0.315356 -0.197665 -0.104771
    25 0.820752 -0.193685 0.888225 -1.372855 -0.498548 -0.474342
    26 1.123152 -0.000001 0.000007 0.000000 -0.012010 0.116354
    27 2.023577 0.907747 -0.852531 -3.728552 1.167251 0.908570
    28 4.983664 -0.000003 -0.000002 1.371028 0.657226 -1.196133
    29 10.904955 -0.000001 -0.000006 0.000002 0.000000 -1.835826
    30 10.565878 0.000005 0.000008 -0.489644 -0.091763 0.072290
    31 3.464089 0.095510 0.779503 0.265534 -0.273843 -0.111899
    32 1.149893 -0.000003 -0.000006 0.000000 0.053975 0.011863
    33 3.616475 0.089731 0.192608 0.074650 -0.174185 -0.082089
    34 3.507608 -0.033062 -0.336132 -0.087881 0.039606 -0.002554
    35 3.709165 0.058125 -0.920976 -0.315627 0.196774 -0.106443
    36 0.820727 -0.201217 -0.886563 1.300502 0.122960 -0.720452
    37 1.123138 -0.000003 0.000006 -0.000006 0.012724 0.116279
    38 1.321866 0.000002 0.000005 0.000000 0.046519 -0.073857
    39 0.977462 0.000001 0.000002 0.000000 0.011737 -0.061857
    40 0.860968 -0.000003 -0.000002 0.000000 -0.000207 -0.180622
    41 1.575051 -0.000005 0.000008 0.000000 -0.055713 -0.133233
    42 1.060835 -0.000005 -0.000002 0.000000 0.054561 -0.056841
    43 1.321869 -0.000001 0.000007 0.000000 -0.047130 -0.073469
    44 0.977462 0.000000 -0.000007 0.000000 -0.012250 -0.061757
    45 0.860973 0.000000 0.000000 0.000000 -0.000893 -0.180620
  time 2
    0 -4.671224 7.496328 18.498558 1.337523 0.068349 -0.296001
    1 0.000000 0.000001 0.000000 0.000000 0.000000 0.000000
    2 3.984023 0.000014 0.000008 -2.093121 -1.349543 -0.995899
    3 19.319881 0.000007 0.000002 0.000000 0.000000 2.308904
    4 16.701584 0.000027 -0.000001 0.121129 -0.091439 -1.434674
    5 6.534991 -0.000007 0.000001 -0.005401 -0.004871 -1.089339
    6 -3.984016 0.000009 0.000009 -0.977632 -0.319817 -2.245010
    7 19.319883 0.000006 -0.000003 0.000000 0.000000 2.558314
    8 16.701590 0.000005 0.000001 -0.013039 -0.117699 -1.841359
    9 6.534990 0.000001 -0.000004 -0.079309 -0.004817 -1.137511
    10 0.000005 4.212782 -1.689685 1.577939 -0.271910 1.556271
    11 3.620123 -0.000001 0.000000 -0.150431 -0.045698 0.369292
    12 3.445713 -0.000002 0.000001 -0.125742 -0.056567 0.448201
    13 7.391215 0.000002 0.000001 0.006484 0.019728 0.110301
    14 3.178820 -0.000007 -0.000001 3.141590 0.000000 0.364769
    15 3.706908 0.000011 0.000002 0.490072 -0.079765 0.774649
    16 2.023576 0.907751 0.852530 4.135449 -1.294103 0.415320
    17 4.983666 -0.000007 -0.000001 -2.033955 0.131120 -1.539241
    18 10.904945 -0.000010 0.000005 -0.000002 0.000001 -1.826987
    19 10.565873 0.000007 -0.000039 0.371688 -0.010609 0.219364
    20 3.464128 0.088918 -0.780277 -0.266522 0.272889 -0.114263
    21 1.149900 0.000003 -0.000004 0.000000 -0.053881 0.012281
    22 3.616511 0.088098 -0.193359 -0.074871 0.173485 -0.083578
    23 3.507639 -0.030214 0.336394 0.087874 -0.039626 -0.002228
    24 3.709199 0.065914 0.920438 0.315356 -0.197665 -0.104771
    25 0.820752 -0.193685 0.888225 -1.372855 -0.498548 -0.474342
    26 1.123152 -0.000001 0.000007 0.000000 -0.012010 0.116354
    27 2.023577 0.907747 -0.852531 -3.760940 1.158961 0.878267
    28 4.983664 -0.000003 -0.000002 1.597955 0.269688 -1.233739
    29 10.904955 -0.000001 -0.000006 0.000002 0.000000 -1.931051
    30 10.565878 0.000005 0.000008 -0.489644 -0.091763 0.072290
    31 3.464089 0.095510 0.779503 0.265534 -0.273843 -0.111899
    32 1.149893 -0.000003 -0.000006 0.000000 0.053975 0.011863
    33 3.616475 0.089731 0.192608 0.074650 -0.174185 -0.082089
    34 3.507608 -0.033062 -0.336132 -0.087881 0.039606 -0.002554
    35 3.709165 0.058125 -0.920976 -0.315627 0.196774 -0.106443
    36 0.820727 -0.201217 -0.886563 1.300502 0.122960 -0.720452
    37 1.123138 -0.000003 0.000006 -0.000006 0.012724 0.116279
    38 1.321866 0.000002 0.000005 0.000000 0.046519 -0.073857
    39 0.977462 0.000001 0.000002 0.000000 0.011737 -0.061857
    40 0.860968 -0.000003 -0.000002 0.000000 -0.000207 -0.180622
    41 1.575051 -0.000005 0.000008 0.000000 -0.055713 -0.133233
    42 1.060835 -0.000005 -0.000002 0.000000 0.054561 -0.056841
    43 1.321869 -0.000001 0.000007 0.000000 -0.047130 -0.073469
    44 0.977462 0.000000 -0.000007 0.000000 -0.012250 -0.061757
    45 0.860973 0.000000 0.000000 0.000000 -0.000893 -0.180620
  time 3
    0 -4.870449 7.496328 19.714453 1.372440 0.113986 -0.228464
    1 0.000000 0.000001 0.000000 0.000000 0.000000 0.000000
    2 3.984023 0.000014 0.000008 -1.887365 -1.301977 -1.184766
    3 19.319881 0.000007 0.000002 0.000000 0.000000 2.311680
    4 16.701584 0.000027 -0.000001 0.114623 -0.125605 -1.579655
    5 6.534991 -0.000007 0.000001 -0.005401 -0.004871 -1.089339
    6 -3.984016 0.000009 0.000009 -1.080734 -0.273527 -2.177851
    7 19.319883 0.000006 -0.000003 0.000000 0.000000 2.481032
    8 16.701590 0.000005 0.000001 -0.026073 -0.303399 -1.826910
    9 6.534990 0.000001 -0.000004 -0.079704 -0.004877 -1.089339
    10 0.000005 4.212782 -1.689685 1.630286 -0.322069 1.530577
    11 3.620123 -0.000001 0.000000 -0.107575 -0.027985 0.435257
    12 3.445713 -0.000002 0.000001 -0.071908 -0.044475 0.513054
    13 7.391215 0.000002 0.000001 0.015029 0.037573 0.087063
    14 3.178820 -0.000007 -0.000001 3.141590 0.000000 0.364769
    15 3.706908 0.000011 0.000002 0.334907 -0.191150 0.952750
    16 2.023576 0.907751 0.852530 4.213737 -1.257240 0.339750
    17 4.983666 -0.000007 -0.000001 -1.972556 0.035783 -1.590349
    18 10.904945 -0.000010 0.000005 -0.000002 0.000001 -1.420317
    19 10.565873 0.000007 -0.000039 0.373110 -0.013009 0.188579
    20 3.464128 0.088918 -0.780277 -0.266522 0.272889 -0.114263
    21 1.149900 0.000003 -0.000004 0.000000 -0.053881 0.012281
    22 3.616511 0.088098 -0.193359 -0.074871 0.173485 -0.083578
    23 3.507639 -0.030214 0.336394 0.087874 -0.039626 -0.002228
    24 3.709199 0.065914 0.920438 0.315356 -0.197665 -0.104771
    25 0.820752 -0.193685 0.888225 -1.372855 -0.498548 -0.474342
    26 1.123152 -0.000001 0.000007 0.000000 -0.012010 0.116354
    27 2.023577 0.907747 -0.852531 -3.878205 1.122474 0.769771
    28 4.983664 -0.000003 -0.000002 1.699523 0.205559 -1.420673
    29 10.904955 -0.000001 -0.000006 0.000002 0.000000 -1.761896
    30 10.565878 0.000005 0.000008 -0.489644 -0.091763 0.072290
    31 3.464089 0.095510 0.779503 0.265534 -0.273843 -0.111899
    32 1.149893 -0.000003 -0.000006 0.000000 0.053975 0.011863
    33 3.616475 0.089731 0.192608 0.074650 -0.174185 -0.082089
    34 3.507608 -0.033062 -0.336132 -0.087881 0.039606 -0.002554
    35 3.709165 0.058125 -0.920976 -0.315627 0.196774 -0.106443
    36 0.820727 -0.201217 -0.886563 1.300502 0.122960 -0.720452
    37 1.123138 -0.000003 0.000006 -0.000006 0.012724 0.116279
    38 1.321866 0.000002 0.000005 0.000000 0.046519 -0.073857
    39 0.977462 0.000001 0.000002 0.000000 0.011737 -0.061857
    40 0.860968 -0.000003 -0.000002 0.000000 -0.000207 -0.180622
    41 1.575051 -0.000005 0.000008 0.000000 -0.055713 -0.133233
    42 1.060835 -0.000005 -0.000002 0.000000 0.054561 -0.056841
    43 1.321869 -0.000001 0.000007 0.000000 -0.047130 -0.073469
    44 0.977462 0.000000 -0.000007 0.000000 -0.012250 -0.061757
    45 0.860973 0.000000 0.000000 0.000000 -0.000893 -0.180620
  time 4
    0 -4.827479 7.496328 20.984107 1.400670 0.134212 -0.212712
    1 0.000000 0.000001 0.000000 0.000000 0.000000 0.000000
    2 3.984023 0.000014 0.000008 -1.793857 -1.228860 -1.271596
    3 19.319881 0.000007 0.000002 0.000000 0.000000 2.300910
    4 16.701584 0.000027 -0.000001 0.118174 -0.134390 -1.714277
    5 6.534991 -0.000007 0.000001 -0.005401 -0.004871 -1.089339
    6 -3.984016 0.000009 0.000009 -1.075058 -0.176188 -2.149107
    7 19.319883 0.000006 -0.000003 0.000000 0.000000 2.382824
    8 16.701590 0.000005 0.000001 0.003878 -0.300101 -1.865193
    9 6.534990 0.000001 -0.000004 -0.079704 -0.004877 -1.089339
    10 0.000005 4.212782 -1.689685 1.623670 -0.340260 1.534556
    11 3.620123 -0.000001 0.000000 -0.028171 -0.015629 0.388686
    12 3.445713 -0.000002 0.000001 0.001702 -0.037560 0.483406
    13 7.391215 0.000002 0.000001 0.004698 0.043349 0.165622
    14 3.178820 -0.000007 -0.000001 3.141590 0.000000 0.364769
    15 3.706908 0.000011 0.000002 0.237582 -0.132828 0.866680
    16 2.023576 0.907751 0.852530 4.328503 -1.177005 0.230508
    17 4.983666 -0.000007 -0.000001 -1.810919 -0.109022 -1.566572
    18 10.904945 -0.000010 0.000005 -0.000002 0.000001 -1.209317
    19 10.565873 0.000007 -0.000039 0.374898 -0.015777 0.151866
    20 3.464128 0.088918 -0.780277 -0.266522 0.272889 -0.114263
    21 1.149900 0.000003 -0.000004 0.000000 -0.053881 0.012281
    22 3.616511 0.088098 -0.193359 -0.074871 0.173485 -0.083578
    23 3.507639 -0.030214 0.336394 0.087874 -0.039626 -0.002228
    24 3.709199 0.065914 0.920438 0.315356 -0.197665 -0.104771
    25 0.820752 -0.193685 0.888225 -1.372855 -0.498548 -0.474342
    26 1.123152 -0.000001 0.000007 0.000000 -0.012010 0.116354
    27 2.023577 0.907747 -0.852531 -4.075870 1.028318 0.591205
    28 4.983664 -0.000003 -0.000002 1.722932 0.495299 -1.501803
    29 10.904955 -0.000001 -0.000006 0.000002 0.000000 -1.685303
    30 10.565878 0.000005 0.000008 -0.489644 -0.091763 0.072290
    31 3.464089 0.095510 0.779503 0.265534 -0.273843 -0.111899
    32 1.149893 -0.000003 -0.000006 0.000000 0.053975 0.011863
    33 3.616475 0.089731 0.192608 0.074650 -0.174185 -0.082089
    34 3.507608 -0.033062 -0.336132 -0.087881 0.039606 -0.002554
    35 3.709165 0.058125 -0.920976 -0.315627 0.196774 -0.106443
    36 0.820727 -0.201217 -0.886563 1.300502 0.122960 -0.720452
    37 1.123138 -0.000003 0.000006 -0.000006 0.012724 0.116279
    38 1.321866 0.000002 0.000005 0.000000 0.046519 -0.073857
    39 0.977462 0.000001 0.000002 0.000000 0.011737 -0.061857
    40 0.860968 -0.000003 -0.000002 0.000000 -0.000207 -0.180622
    41 1.575051 -0.000005 0.000008 0.000000 -0.055713 -0.133233
    42 1.060835 -0.000005 -0.000002 0.000000 0.054561 -0.056841
    43 1.321869 -0.000001 0.000007 0.000000 -0.047130 -0.073469
    44 0.977462 0.000000 -0.000007 0.000000 -0.012250 -0.061757
    45 0.860973 0.000000 0.000000 0.000000 -0.000893 -0.180620
  time 5
    0 -4.612629 7.496328 21.037948 1.416086 0.139054 -0.219409
    1 0.000000 0.000001 0.000000 0.000000 0.000000 0.000000
    2 3.984023 0.000014 0.000008 -1.740602 -1.108676 -1.333738
    3 19.319881 0.000007 0.000002 0.000000 0.000000 2.253538
    4 16.701584 0.000027 -0.000001 0.127660 -0.135420 -1.830055
    5 6.534991 -0.000007 0.000001 -0.005401 -0.004871 -1.089339
    6 -3.984016 0.000009 0.000009 -1.046020 -0.067363 -2.128613
    7 19.319883 0.000006 -0.000003 0.000000 0.000000 2.242683
    8 16.701590 0.000005 0.000001 0.067371 -0.224369 -1.886056
    9 6.534990 0.000001 -0.000004 -0.079704 -0.004877 -1.089339
    10 0.000005 4.212782 -1.689685 1.583931 -0.356599 1.541555
    11 3.620123 -0.000001 0.000000 0.072815 -0.017510 0.284819
    12 3.445713 -0.000002 0.000001 0.086709 -0.046620 0.409412
    13 7.391215 0.000002 0.000001 -0.022375 0.029363 0.326527
    14 3.178820 -0.000007 -0.000001 3.141590 0.000000 0.364769
    15 3.706908 0.000011 0.000002 0.158062 0.001639 0.639780
    16 2.023576 0.907751 0.852530 4.423077 -1.068782 0.143267
    17 4.983666 -0.000007 -0.000001 -1.555328 -0.280510 -1.452420
    18 10.904945 -0.000010 0.000005 -0.000002 0.000001 -1.042733
    19 10.565873 0.000007 -0.000039 0.376915 -0.018730 0.112122
    20 3.464128 0.088918 -0.780277 -0.266522 0.272889 -0.114263
    21 1.149900 0.000003 -0.000004 0.000000 -0.053881 0.012281
    22 3.616511 0.088098 -0.193359 -0.074871 0.173485 -0.083578
    23 3.507639 -0.030214 0.336394 0.087874 -0.039626 -0.002228
    24 3.709199 0.065914 0.920438 0.315356 -0.197665 -0.104771
    25 0.820752 -0.193685 0.888225 -1.372855 -0.498548 -0.474342
    26 1.123152 -0.000001 0.000007 0.000000 -0.012010 0.116354
    27 2.023577 0.907747 -0.852531 -4.251149 0.887290 0.441699
    28 4.983664 -0.000003 -0.000002 1.880300 1.008627 -1.403464
    29 10.904955 -0.000001 -0.000006 0.000002 0.000000 -1.457758
    30 10.565878 0.000005 0.000008 -0.489644 -0.091763 0.072290
    31 3.464089 0.095510 0.779503 0.265534 -0.273843 -0.111899
    32 1.149893 -0.000003 -0.000006 0.000000 0.053975 0.011863
    33 3.616475 0.089731 0.192608 0.074650 -0.174185 -0.082089
    34 3.507608 -0.033062 -0.336132 -0.087881 0.039606 -0.002554
    35 3.709165 0.058125 -0.920976 -0.315627 0.196774 -0.106443
    36 0.820727 -0.201217 -0.886563 1.300502 0.122960 -0.720452
    37 1.123138 -0.000003 0.000006 -0.000006 0.012724 0.116279
    38 1.321866 0.000002 0.000005 0.000000 0.046519 -0.073857
    39 0.977462 0.000001 0.000002 0.000000 0.011737 -0.061857
    40 0.860968 -0.000003 -0.000002 0.000000 -0.000207 -0.180622
    41 1.575051 -0.000005 0.000008 0.000000 -0.055713 -0.133233
    42 1.060835 -0.000005 -0.000002 0.000000 0.054561 -0.056841
    43 1.321869 -0.000001 0.000007 0.000000 -0.047130 -0.073469
    44 0.977462 0.000000 -0.000007 0.000000 -0.012250 -0.061757
    45 0.860973 0.000000 0.000000 0.000000 -0.000893 -0.180620
  time 6
    0 -4.124333 7.496328 22.762784 1.372440 0.113986 -0.228464
    1 0.000000 0.000001 0.000000 0.000000 0.000000 0.000000
    2 3.984023 0.000014 0.000008 -1.701210 -0.846567 -1.410993
    3 19.319881 0.000007 0.000002 0.000000 0.000000 2.062367
    4 16.701584 0.000027 -0.000001 0.127738 -0.138830 -1.797596
    5 6.534991 -0.000007 0.000001 -0.005401 -0.004871 -1.089339
    6 -3.984016 0.000009 0.000009 -1.072315 -0.010461 -2.104127
    7 19.319883 0.000006 -0.000003 0.000000 0.000000 2.024176
    8 16.701590 0.000005 0.000001 0.069995 -0.155182 -1.645356
    9 6.534990 0.000001 -0.000004 -0.079704 -0.004877 -1.089339
    10 0.000005 4.212782 -1.689685 1.569789 -0.332139 1.530721
    11 3.620123 -0.000001 0.000000 0.167926 -0.034493 0.164992
    12 3.445713 -0.000002 0.000001 0.168228 -0.065352 0.312919
    13 7.391215 0.000002 0.000001 -0.029170 0.003956 0.420678
    14 3.178820 -0.000007 -0.000001 3.141590 0.000000 0.364769
    15 3.706908 0.000011 0.000002 0.086123 0.093680 0.378255
    16 2.023576 0.907751 0.852530 4.458507 -1.011530 0.111700
    17 4.983666 -0.000007 -0.000001 -1.296023 -0.288796 -1.333622
    18 10.904945 -0.000010 0.000005 -0.000002 0.000001 -0.985738
    19 10.565873 0.000007 -0.000039 0.379116 -0.021590 0.072263
    20 3.464128 0.088918 -0.780277 -0.266522 0.272889 -0.114263
    21 1.149900 0.000003 -0.000004 0.000000 -0.053881 0.012281
    22 3.616511 0.088098 -0.193359 -0.074871 0.173485 -0.083578
    23 3.507639 -0.030214 0.336394 0.087874 -0.039626 -0.002228
    24 3.709199 0.065914 0.920438 0.315356 -0.197665 -0.104771
    25 0.820752 -0.193685 0.888225 -1.372855 -0.498548 -0.474342
    26 1.123152 -0.000001 0.000007 0.000000 -0.012010 0.116354
    27 2.023577 0.907747 -0.852531 -4.316687 0.811948 0.389601
    28 4.983664 -0.000003 -0.000002 2.091844 1.220465 -1.241296
    29 10.904955 -0.000001 -0.000006 0.000002 0.000000 -1.352058
    30 10.565878 0.000005 0.000008 -0.489644 -0.091763 0.072290
    31 3.464089 0.095510 0.779503 0.265534 -0.273843 -0.111899
    32 1.149893 -0.000003 -0.000006 0.000000 0.053975 0.011863
    33 3.616475 0.089731 0.192608 0.074650 -0.174185 -0.082089
    34 3.507608 -0.033062 -0.336132 -0.087881 0.039606 -0.002554
    35 3.709165 0.058125 -0.920976 -0.315627 0.196774 -0.106443
    36 0.820727 -0.201217 -0.886563 1.300502 0.122960 -0.720452
    37 1.123138 -0.000003 0.000006 -0.000006 0.012724 0.116279
    38 1.321866 0.000002 0.000005 0.000000 0.046519 -0.073857
    39 0.977462 0.000001 0.000002 0.000000 0.011737 -0.061857
    40 0.860968 -0.000003 -0.000002 0.000000 -0.000207 -0.180622
    41 1.575051 -0.000005 0.000008 0.000000 -0.055713 -0.133233
    42 1.060835 -0.000005 -0.000002 0.000000 0.054561 -0.056841
    43 1.321869 -0.000001 0.000007 0.000000 -0.047130 -0.073469
    44 0.977462 0.000000 -0.000007 0.000000 -0.012250 -0.061757
    45 0.860973 0.000000 0.000000 0.000000 -0.000893 -0.180620
  time 7
    0 -3.700624 7.498301 33.902064 1.245031 0.011227 -0.243650
    1 0.000000 0.000001 0.000000 0.000000 0.000000 0.000000
    2 3.984023 0.000014 0.000008 -1.694422 -0.305467 -1.544945
    3 19.319881 0.000007 0.000002 0.000000 0.000000 1.448044
    4 16.701584 0.000027 -0.000001 0.110942 -0.165016 -1.371729
    5 6.534991 -0.000007 0.000001 -0.005401 -0.004871 -1.089339
    6 -3.984016 0.000009 0.000009 -1.240966 0.126705 -2.089666
    7 19.319883 0.000006 -0.000003 0.000000 0.000000 1.405836
    8 16.701590 0.000005 0.000001 -0.212909 -0.145136 -0.532737
    9 6.534990 0.000001 -0.000004 -0.079704 -0.004877 -1.089339
    10 0.000005 4.212782 -1.689685 1.588629 -0.210536 1.518784
    11 3.620123 -0.000001 0.000000 0.220053 -0.044668 0.018270
    12 3.445713 -0.000002 0.000001 0.217460 -0.075347 0.171082
    13 7.391215 0.000002 0.000001 -0.006795 -0.009419 0.320919
    14 3.178820 -0.000007 -0.000001 3.141590 0.000000 0.364769
    15 3.706908 0.000011 0.000002 0.009328 0.084828 0.071801
    16 2.023576 0.907751 0.852530 4.423839 -1.067781 0.142502
    17 4.983666 -0.000007 -0.000001 -1.708302 0.245544 -1.638361
    18 10.904945 -0.000010 0.000005 -0.000002 0.000001 -1.103030
    19 10.565873 0.000007 -0.000039 0.381133 -0.024113 0.035765
    20 3.464128 0.088918 -0.780277 -0.266522 0.272889 -0.114263
    21 1.149900 0.000003 -0.000004 0.000000 -0.053881 0.012281
    22 3.616511 0.088098 -0.193359 -0.074871 0.173485 -0.083578
    23 3.507639 -0.030214 0.336394 0.087874 -0.039626 -0.002228
    24 3.709199 0.065914 0.920438 0.315356 -0.197665 -0.104771
    25 0.820752 -0.193685 0.888225 -1.372855 -0.498548 -0.474342
    26 1.123152 -0.000001 0.000007 0.000000 -0.012010 0.116354
    27 2.023577 0.907747 -0.852531 -4.241432 0.897175 0.449633
    28 4.983664 -0.000003 -0.000002 2.222267 1.018501 -0.320281
    29 10.904955 -0.000001 -0.000006 0.000002 0.000000 -1.847332
    30 10.565878 0.000005 0.000008 -0.489644 -0.091763 0.072290
    31 3.464089 0.095510 0.779503 0.265534 -0.273843 -0.111899
    32 1.149893 -0.000003 -0.000006 0.000000 0.053975 0.011863
    33 3.616475 0.089731 0.192608 0.074650 -0.174185 -0.082089
    34 3.507608 -0.033062 -0.336132 -0.087881 0.039606 -0.002554
    35 3.709165 0.058125 -0.920976 -0.315627 0.196774 -0.106443
    36 0.820727 -0.201217 -0.886563 1.300502 0.122960 -0.720452
    37 1.123138 -0.000003 0.000006 -0.000006 0.012724 0.116279
    38 1.321866 0.000002 0.000005 0.000000 0.046519 -0.073857
    39 0.977462 0.000001 0.000002 0.000000 0.011737 -0.061857
    40 0.860968 -0.000003 -0.000002 0.000000 -0.000207 -0.180622
    41 1.575051 -0.000005 0.000008 0.000000 -0.055713 -0.133233
    42 1.060835 -0.000005 -0.000002 0.000000 0.054561 -0.056841
    43 1.321869 -0.000001 0.000007 0.000000 -0.047130 -0.073469
    44 0.977462 0.000000 -0.000007 0.000000 -0.012250 -0.061757
    45 0.860973 0.000000 0.000000 0.000000 -0.000893 -0.180620
  time 8
    0 -3.021583 7.486643 43.419357 1.063948 -0.119942 -0.265345
    1 0.000000 0.000001 0.000000 0.000000 0.000000 0.000000
    2 3.984023 0.000014 0.000008 -1.807912 0.570314 -1.785722
    3 19.319881 0.000007 0.000002 0.000000 0.000000 0.089819
    4 16.701584 0.000027 -0.000001 0.028673 -0.153534 -0.326127
    5 6.534991 -0.000007 0.000001 0.023374 0.004189 -0.660711
    6 -3.984016 0.000009 0.000009 -1.535325 0.244133 -2.078488
    7 19.319883 0.000006 -0.000003 0.000000 0.000000 1.007004
    8 16.701590 0.000005 0.000001 -0.381154 -0.094376 0.049060
    9 6.534990 0.000001 -0.000004 -0.079704 -0.004877 -1.089339
    10 0.000005 4.212782 -1.689685 1.588676 -0.067252 1.529522
    11 3.620123 -0.000001 0.000000 0.197348 -0.033666 -0.099922
    12 3.445713 -0.000002 0.000001 0.197662 -0.064765 0.047950
    13 7.391215 0.000002 0.000001 0.000000 0.000001 0.155687
    14 3.178820 -0.000007 -0.000001 3.141590 0.000000 0.364769
    15 3.706908 0.000011 0.000002 -0.059247 0.033622 -0.264265
    16 2.023576 0.907751 0.852530 4.330693 -1.175003 0.228499
    17 4.983666 -0.000007 -0.000001 -1.960943 1.019829 -1.733927
    18 10.904945 -0.000010 0.000005 -0.000002 0.000001 -1.409075
    19 10.565873 0.000007 -0.000039 0.382875 -0.026051 0.007332
    20 3.464128 0.088918 -0.780277 -0.266522 0.272889 -0.114263
    21 1.149900 0.000003 -0.000004 0.000000 -0.053881 0.012281
    22 3.616511 0.088098 -0.193359 -0.074871 0.173485 -0.083578
    23 3.507639 -0.030214 0.336394 0.087874 -0.039626 -0.002228
    24 3.709199 0.065914 0.920438 0.315356 -0.197665 -0.104771
    25 0.820752 -0.193685 0.888225 -1.372855 -0.498548 -0.474342
    26 1.123152 -0.000001 0.000007 0.000000 -0.012010 0.116354
    27 2.023577 0.907747 -0.852531 -4.046054 1.045947 0.617588
    28 4.983664 -0.000003 -0.000002 2.747018 0.931959 0.492926
    29 10.904955 -0.000001 -0.000006 0.000002 0.000000 -1.549206
    30 10.565878 0.000005 0.000008 -0.489644 -0.091763 0.072290
    31 3.464089 0.095510 0.779503 0.265534 -0.273843 -0.111899
    32 1.149893 -0.000003 -0.000006 0.000000 0.053975 0.011863
    33 3.616475 0.089731 0.192608 0.074650 -0.174185 -0.082089
    34 3.507608 -0.033062 -0.336132 -0.087881 0.039606 -0.002554
    35 3.709165 0.058125 -0.920976 -0.315627 0.196774 -0.106443
    36 0.820727 -0.201217 -0.886563 1.300502 0.122960 -0.720452
    37 1.123138 -0.000003 0.000006 -0.000006 0.012724 0.116279
    38 1.321866 0.000002 0.000005 0.000000 0.046519 -0.073857
    39 0.977462 0.000001 0.000002 0.000000 0.011737 -0.061857
    40 0.860968 -0.000003 -0.000002 0.000000 -0.000207 -0.180622
    41 1.575051 -0.000005 0.000008 0.000000 -0.055713 -0.133233
    42 1.060835 -0.000005 -0.000002 0.000000 0.054561 -0.056841
    43 1.321869 -0.000001 0.000007 0.000000 -0.047130 -0.073469
    44 0.977462 0.000000 -0.000007 0.000000 -0.012250 -0.061757
    45 0.860973 0.000000 0.000000 0.000000 -0.000893 -0.180620
  time 9
    0 -2.118460 7.461354 44.560552 0.849805 -0.151867 -0.258365
    1 0.000000 0.000001 0.000000 0.000000 0.000000 0.000000
    2 3.984023 0.000014 0.000008 -1.970930 0.799789 -1.881470
    3 19.319881 0.000007 0.000002 0.000000 0.000000 0.089819
    4 16.701584 0.000027 -0.000001 -0.009325 -0.073195 -0.118989
    5 6.534991 -0.000007 0.000001 0.041627 0.004093 -0.246080
    6 -3.984016 0.000009 0.000009 -1.852007 -0.292524 -1.609705
    7 19.319883 0.000006 -0.000003 0.000000 0.000000 1.810587
    8 16.701590 0.000005 0.000001 0.046708 -0.090228 -0.716452
    9 6.534990 0.000001 -0.000004 -0.079704 -0.004877 -1.089339
    10 0.000005 4.212782 -1.689685 1.534076 -0.052754 1.554450
    11 3.620123 -0.000001 0.000000 0.103412 -0.017499 -0.072792
    12 3.445713 -0.000002 0.000001 0.103751 -0.041059 0.075202
    13 7.391215 0.000002 0.000001 -0.048885 0.016552 0.173005
    14 3.178820 -0.000007 -0.000001 3.141590 0.000000 0.364769
    15 3.706908 0.000011 0.000002 -0.091319 -0.003402 -0.475096
    16 2.023576 0.907751 0.852530 4.257167 -1.231344 0.298043
    17 4.983666 -0.000007 -0.000001 -2.902301 1.082269 -2.158466
    18 10.904945 -0.000010 0.000005 -0.000002 0.000001 -2.296313
    19 10.565873 0.000007 -0.000039 0.383655 -0.026881 -0.005055
    20 3.464128 0.088918 -0.780277 -0.266522 0.272889 -0.114263
    21 1.149900 0.000003 -0.000004 0.000000 -0.053881 0.012281
    22 3.616511 0.088098 -0.193359 -0.074871 0.173485 -0.083578
    23 3.507639 -0.030214 0.336394 0.087874 -0.039626 -0.002228
    24 3.709199 0.065914 0.920438 0.315356 -0.197665 -0.104771
    25 0.820752 -0.193685 0.888225 -1.372855 -0.498548 -0.474342
    26 1.123152 -0.000001 0.000007 0.000000 -0.012010 0.116354
    27 2.023577 0.907747 -0.852531 -3.895352 1.116097 0.753998
    28 4.983664 -0.000003 -0.000002 2.559553 1.059278 0.109587
    29 10.904955 -0.000001 -0.000006 0.000002 0.000000 -1.611544
    30 10.565878 0.000005 0.000008 -0.489644 -0.091763 0.072290
    31 3.464089 0.095510 0.779503 0.265534 -0.273843 -0.111899
    32 1.149893 -0.000003 -0.000006 0.000000 0.053975 0.011863
    33 3.616475 0.089731 0.192608 0.074650 -0.174185 -0.082089
    34 3.507608 -0.033062 -0.336132 -0.087881 0.039606 -0.002554
    35 3.709165 0.058125 -0.920976 -0.315627 0.196774 -0.106443
    36 0.820727 -0.201217 -0.886563 1.300502 0.122960 -0.720452
    37 1.123138 -0.000003 0.000006 -0.000006 0.012724 0.116279
    38 1.321866 0.000002 0.000005 0.000000 0.046519 -0.073857
    39 0.977462 0.000001 0.000002 0.000000 0.011737 -0.061857
    40 0.860968 -0.000003 -0.000002 0.000000 -0.000207 -0.180622
    41 1.575051 -0.000005 0.000008 0.000000 -0.055713 -0.133233
    42 1.060835 -0.000005 -0.000002 0.000000 0.054561 -0.056841
    43 1.321869 -0.000001 0.000007 0.000000 -0.047130 -0.073469
    44 0.977462 0.000000 -0.000007 0.000000 -0.012250 -0.061757
    45 0.860973 0.000000 0.000000 0.000000 -0.000893 -0.180620
  time 10
    0 -1.006881 7.426339 47.075947 0.615232 -0.025325 -0.195828
    1 0.000000 0.000001 0.000000 0.000000 0.000000 0.000000
    2 3.984023 0.000014 0.000008 -2.070557 1.058675 -1.749770
    3 19.319881 0.000007 0.000002 0.000000 0.000000 0.089819
    4 16.701584 0.000027 -0.000001 0.153269 -0.021496 -0.028024
    5 6.534991 -0.000007 0.000001 -0.002225 -0.002306 -0.598310
    6 -3.984016 0.000009 0.000009 -2.276709 -0.983334 -0.797409
    7 19.319883 0.000006 -0.000003 0.000000 0.000000 1.768319
    8 16.701590 0.000005 0.000001 0.147178 0.159763 -0.577974
    9 6.534990 0.000001 -0.000004 -0.079704 -0.004877 -1.089339
    10 0.000005 4.212782 -1.689685 1.459678 -0.066544 1.587430
    11 3.620123 -0.000001 0.000000 -0.021837 0.003738 -0.003368
    12 3.445713 -0.000002 0.000001 -0.021524 -0.009959 0.144692
    13 7.391215 0.000002 0.000001 -0.116275 0.038915 0.230051
    14 3.178820 -0.000007 -0.000001 3.141590 0.000000 0.364769
    15 3.706908 0.000011 0.000002 -0.075943 -0.006851 -0.502694
    16 2.023576 0.907751 0.852530 4.292406 -1.239491 0.260641
    17 4.983666 -0.000007 -0.000001 -2.199305 0.455798 -0.768329
    18 10.904945 -0.000010 0.000005 -0.000002 0.000001 -2.170295
    19 10.565873 0.000007 -0.000039 0.383517 -0.026789 -0.003664
    20 3.464128 0.088918 -0.780277 -0.266522 0.272889 -0.114263
    21 1.149900 0.000003 -0.000004 0.000000 -0.053881 0.012281
    22 3.616511 0.088098 -0.193359 -0.074871 0.173485 -0.083578
    23 3.507639 -0.030214 0.336394 0.087874 -0.039626 -0.002228
    24 3.709199 0.065914 0.920438 0.315356 -0.197665 -0.104771
    25 0.820752 -0.193685 0.888225 -1.372855 -0.498548 -0.474342
    26 1.123152 -0.000001 0.000007 0.000000 -0.012010 0.116354
    27 2.023577 0.907747 -0.852531 -3.829623 1.185654 0.805809
    28 4.983664 -0.000003 -0.000002 2.080283 0.773882 -0.367538
    29 10.904955 -0.000001 -0.000006 0.000002 0.000000 -1.754168
    30 10.565878 0.000005 0.000008 -0.489644 -0.091763 0.072290
    31 3.464089 0.095510 0.779503 0.265534 -0.273843 -0.111899
    32 1.149893 -0.000003 -0.000006 0.000000 0.053975 0.011863
    33 3.616475 0.089731 0.192608 0.074650 -0.174185 -0.082089
    34 3.507608 -0.033062 -0.336132 -0.087881 0.039606 -0.002554
    35 3.709165 0.058125 -0.920976 -0.315627 0.196774 -0.106443
    36 0.820727 -0.201217 -0.886563 1.300502 0.122960 -0.720452
    37 1.123138 -0.000003 0.000006 -0.000006 0.012724 0.116279
    38 1.321866 0.000002 0.000005 0.000000 0.046519 -0.073857
    39 0.977462 0.000001 0.000002 0.000000 0.011737 -0.061857
    40 0.860968 -0.000003 -0.000002 0.000000 -0.000207 -0.180622
    41 1.575051 -0.000005 0.000008 0.000000 -0.055713 -0.133233
    42 1.060835 -0.000005 -0.000002 0.000000 0.054561 -0.056841
    43 1.321869 -0.000001 0.000007 0.000000 -0.047130 -0.073469
    44 0.977462 0.000000 -0.000007 0.000000 -0.012250 -0.061757
    45 0.860973 0.000000 0.000000 0.000000 -0.000893 -0.180620
  time 11
    0 0.277997 7.369880 51.418680 0.391060 0.188162 -0.109710
    1 0.000000 0.000001 0.000000 0.000000 0.000000 0.000000
    2 3.984023 0.000014 0.000008 -1.680367 0.617244 -1.064049
    3 19.319881 0.000007 0.000002 0.000000 0.000000 1.401850
    4 16.701584 0.000027 -0.000001 0.326309 0.036927 -0.416598
    5 6.534991 -0.000007 0.000001 -0.005401 -0.004871 -1.089339
    6 -3.984016 0.000009 0.000009 -1.971378 -0.900973 -1.110670
    7 19.319883 0.000006 -0.000003 0.000000 0.000000 0.543811
    8 16.701590 0.000005 0.000001 -0.008534 0.112114 -0.391761
    9 6.534990 0.000001 -0.000004 -0.079704 -0.004877 -1.089339
    10 0.000005 4.212782 -1.689685 1.385089 -0.096931 1.618254
    11 3.620123 -0.000001 0.000000 -0.146038 0.022842 0.079305
    12 3.445713 -0.000002 0.000001 -0.145733 0.018528 0.227292
    13 7.391215 0.000002 0.000001 -0.182621 0.059409 0.295523
    14 3.178820 -0.000007 -0.000001 3.141590 0.000000 0.364769
    15 3.706908 0.000011 0.000002 -0.033733 0.000168 -0.437273
    16 2.023576 0.907751 0.852530 4.391743 -1.260152 0.155129
    17 4.983666 -0.000007 -0.000001 -1.745046 -0.206431 -0.491377
    18 10.904945 -0.000010 0.000005 -0.000002 0.000001 -1.842789
    19 10.565873 0.000007 -0.000039 0.383242 -0.026512 0.000327
    20 3.464128 0.088918 -0.780277 -0.266522 0.272889 -0.114263
    21 1.149900 0.000003 -0.000004 0.000000 -0.053881 0.012281
    22 3.616511 0.088098 -0.193359 -0.074871 0.173485 -0.083578
    23 3.507639 -0.030214 0.336394 0.087874 -0.039626 -0.002228
    24 3.709199 0.065914 0.920438 0.315356 -0.197665 -0.104771
    25 0.820752 -0.193685 0.888225 -1.372855 -0.498548 -0.474342
    26 1.123152 -0.000001 0.000007 0.000000 -0.012010 0.116354
    27 2.023577 0.907747 -0.852531 -3.477828 1.357247 1.133307
    28 4.983664 -0.000003 -0.000002 1.712518 0.029858 -0.647712
    29 10.904955 -0.000001 -0.000006 0.000002 0.000000 -1.608453
    30 10.565878 0.000005 0.000008 -0.489644 -0.091763 0.072290
    31 3.464089 0.095510 0.779503 0.265534 -0.273843 -0.111899
    32 1.149893 -0.000003 -0.000006 0.000000 0.053975 0.011863
    33 3.616475 0.089731 0.192608 0.074650 -0.174185 -0.082089
    34 3.507608 -0.033062 -0.336132 -0.087881 0.039606 -0.002554
    35 3.709165 0.058125 -0.920976 -0.315627 0.196774 -0.106443
    36 0.820727 -0.201217 -0.886563 1.300502 0.122960 -0.720452
    37 1.123138 -0.000003 0.000006 -0.000006 0.012724 0.116279
    38 1.321866 0.000002 0.000005 0.000000 0.046519 -0.073857
    39 0.977462 0.000001 0.000002 0.000000 0.011737 -0.061857
    40 0.860968 -0.000003 -0.000002 0.000000 -0.000207 -0.180622
    41 1.575051 -0.000005 0.000008 0.000000 -0.055713 -0.133233
    42 1.060835 -0.000005 -0.000002 0.000000 0.054561 -0.056841
    43 1.321869 -0.000001 0.000007 0.000000 -0.047130 -0.073469
    44 0.977462 0.000000 -0.000007 0.000000 -0.012250 -0.061757
    45 0.860973 0.000000 0.000000 0.000000 -0.000893 -0.180620
  time 12
    0 1.720548 7.295883 54.877731 0.189175 0.410263 -0.032364
    1 0.000000 0.000001 0.000000 0.000000 0.000000 0.000000
    2 3.984023 0.000014 0.000008 -1.556646 0.396165 -0.952062
    3 19.319881 0.000007 0.000002 0.000000 0.000000 1.707370
    4 16.701584 0.000027 -0.000001 0.278487 0.001113 -0.228700
    5 6.534991 -0.000007 0.000001 -0.005401 -0.004871 -1.089339
    6 -3.984016 0.000009 0.000009 -1.576377 -1.001632 -1.370346
    7 19.319883 0.000006 -0.000003 0.000000 0.000000 0.089790
    8 16.701590 0.000005 0.000001 -0.130220 -0.107550 -0.860534
    9 6.534990 0.000001 -0.000004 -0.050258 -0.004961 -0.987343
    10 0.000005 4.212782 -1.689685 1.332166 -0.132823 1.636278
    11 3.620123 -0.000001 0.000000 -0.236603 0.032585 0.145761
    12 3.445713 -0.000002 0.000001 -0.236324 0.034540 0.293582
    13 7.391215 0.000002 0.000001 -0.228354 0.070446 0.338764
    14 3.178820 -0.000007 -0.000001 3.141590 0.000000 0.364769
    15 3.706908 0.000011 0.000002 0.016441 0.010009 -0.346545
    16 2.023576 0.907751 0.852530 4.518509 -1.283681 0.021590
    17 4.983666 -0.000007 -0.000001 -1.715251 -0.834924 -0.325570
    18 10.904945 -0.000010 0.000005 -0.000002 0.000001 -1.283450
    19 10.565873 0.000007 -0.000039 0.382875 -0.026081 0.006653
    20 3.464128 0.088918 -0.780277 -0.266522 0.272889 -0.114263
    21 1.149900 0.000003 -0.000004 0.000000 -0.053881 0.012281
    22 3.616511 0.088098 -0.193359 -0.074871 0.173485 -0.083578
    23 3.507639 -0.030214 0.336394 0.087874 -0.039626 -0.002228
    24 3.709199 0.065914 0.920438 0.315356 -0.197665 -0.104771
    25 0.820752 -0.193685 0.888225 -1.372855 -0.498548 -0.474342
    26 1.123152 -0.000001 0.000007 0.000000 -0.012010 0.116354
    27 2.023577 0.907747 -0.852531 -2.158666 1.414779 2.446455
    28 4.983664 -0.000003 -0.000002 1.082855 0.114376 -0.836833
    29 10.904955 -0.000001 -0.000006 0.000002 0.000000 -0.636451
    30 10.565878 0.000005 0.000008 -0.489644 -0.091763 0.072290
    31 3.464089 0.095510 0.779503 0.265534 -0.273843 -0.111899
    32 1.149893 -0.000003 -0.000006 0.000000 0.053975 0.011863
    33 3.616475 0.089731 0.192608 0.074650 -0.174185 -0.082089
    34 3.507608 -0.033062 -0.336132 -0.087881 0.039606 -0.002554
    35 3.709165 0.058125 -0.920976 -0.315627 0.196774 -0.106443
    36 0.820727 -0.201217 -0.886563 1.300502 0.122960 -0.720452
    37 1.123138 -0.000003 0.000006 -0.000006 0.012724 0.116279
    38 1.321866 0.000002 0.000005 0.000000 0.046519 -0.073857
    39 0.977462 0.000001 0.000002 0.000000 0.011737 -0.061857
    40 0.860968 -0.000003 -0.000002 0.000000 -0.000207 -0.180622
    41 1.575051 -0.000005 0.000008 0.000000 -0.055713 -0.133233
    42 1.060835 -0.000005 -0.000002 0.000000 0.054561 -0.056841
    43 1.321869 -0.000001 0.000007 0.000000 -0.047130 -0.073469
    44 0.977462 0.000000 -0.000007 0.000000 -0.012250 -0.061757
    45 0.860973 0.000000 0.000000 0.000000 -0.000893 -0.180620
  time 13
    0 3.293428 7.208254 57.867175 -0.030633 0.559515 -0.000010
    1 0.000000 0.000001 0.000000 0.000000 0.000000 0.000000
    2 3.984023 0.000014 0.000008 -1.491247 0.259688 -1.031851
    3 19.319881 0.000007 0.000002 0.000000 0.000000 1.869344
    4 16.701584 0.000027 -0.000001 0.131652 0.026213 -0.136353
    5 6.534991 -0.000007 0.000001 -0.005401 -0.004871 -1.089339
    6 -3.984016 0.000009 0.000009 -1.249763 -1.279589 -1.679437
    7 19.319883 0.000006 -0.000003 0.000000 0.000000 0.089790
    8 16.701590 0.000005 0.000001 -0.062135 -0.200451 -1.095157
    9 6.534990 0.000001 -0.000004 -0.025462 -0.000419 -1.098382
    10 0.000005 4.212782 -1.689685 1.301774 -0.178227 1.640448
    11 3.620123 -0.000001 0.000000 -0.293072 0.034802 0.192799
    12 3.445713 -0.000002 0.000001 -0.292843 0.039297 0.340516
    13 7.391215 0.000002 0.000001 -0.253918 0.071813 0.355147
    14 3.178820 -0.000007 -0.000001 3.141590 0.000000 0.364769
    15 3.706908 0.000011 0.000002 0.056009 0.014809 -0.299009
    16 2.023576 0.907751 0.852530 4.580225 -1.303933 -0.042980
    17 4.983666 -0.000007 -0.000001 -2.007587 -0.958867 -0.096082
    18 10.904945 -0.000010 0.000005 -0.000002 0.000001 -1.170403
    19 10.565873 0.000007 -0.000039 0.382371 -0.025528 0.015098
    20 3.464128 0.088918 -0.780277 -0.266522 0.272889 -0.114263
    21 1.149900 0.000003 -0.000004 0.000000 -0.053881 0.012281
    22 3.616511 0.088098 -0.193359 -0.074871 0.173485 -0.083578
    23 3.507639 -0.030214 0.336394 0.087874 -0.039626 -0.002228
    24 3.709199 0.065914 0.920438 0.315356 -0.197665 -0.104771
    25 0.820752 -0.193685 0.888225 -1.372855 -0.498548 -0.474342
    26 1.123152 -0.000001 0.000007 0.000000 -0.012010 0.116354
    27 2.023577 0.907747 -0.852531 -1.709992 1.334153 2.900231
    28 4.983664 -0.000003 -0.000002 0.814173 0.177123 -0.968679
    29 10.904955 -0.000001 -0.000006 0.000002 0.000000 -0.089485
    30 10.565878 0.000005 0.000008 -0.489644 -0.091763 0.117735
    31 3.464089 0.095510 0.779503 0.265534 -0.273843 -0.111899
    32 1.149893 -0.000003 -0.000006 0.000000 0.053975 0.011863
    33 3.616475 0.089731 0.192608 0.074650 -0.174185 -0.082089
    34 3.507608 -0.033062 -0.336132 -0.087881 0.039606 -0.002554
    35 3.709165 0.058125 -0.920976 -0.315627 0.196774 -0.106443
    36 0.820727 -0.201217 -0.886563 1.300502 0.122960 -0.720452
    37 1.123138 -0.000003 0.000006 -0.000006 0.012724 0.116279
    38 1.321866 0.000002 0.000005 0.000000 0.046519 -0.073857
    39 0.977462 0.000001 0.000002 0.000000 0.011737 -0.061857
    40 0.860968 -0.000003 -0.000002 0.000000 -0.000207 -0.180622
    41 1.575051 -0.000005 0.000008 0.000000 -0.055713 -0.133233
    42 1.060835 -0.000005 -0.000002 0.000000 0.054561 -0.056841
    43 1.321869 -0.000001 0.000007 0.000000 -0.047130 -0.073469
    44 0.977462 0.000000 -0.000007 0.000000 -0.012250 -0.061757
    45 0.860973 0.000000 0.000000 0.000000 -0.000893 -0.180620
  time 14
    0 4.977105 7.110900 60.480765 -0.318974 0.610509 -0.057548
    1 0.000000 0.000001 0.000000 0.000000 0.000000 0.000000
    2 3.984023 0.000014 0.000008 -1.619845 -0.231260 -1.250569
    3 19.319881 0.000007 0.000002 0.000000 0.000000 2.169816
    4 16.701584 0.000027 -0.000001 0.001328 -0.091402 -0.406929
    5 6.534991 -0.000007 0.000001 -0.005401 -0.004871 -1.089339
    6 -3.984016 0.000009 0.000009 -0.882287 -1.425795 -2.068906
    7 19.319883 0.000006 -0.000003 0.000000 0.000000 0.089790
    8 16.701590 0.000005 0.000001 -0.064811 -0.117512 -0.719152
    9 6.534990 0.000001 -0.000004 -0.011032 0.001427 -0.694488
    10 0.000005 4.212782 -1.689685 1.280586 -0.237148 1.637956
    11 3.620123 -0.000001 0.000000 -0.335826 0.034371 0.236286
    12 3.445713 -0.000002 0.000001 -0.335616 0.039465 0.383885
    13 7.391215 0.000002 0.000001 -0.271655 0.068553 0.362241
    14 3.178820 -0.000007 -0.000001 3.141590 0.000000 0.364769
    15 3.706908 0.000011 0.000002 0.081906 0.011890 -0.345439
    16 2.023576 0.907751 0.852530 4.560986 -1.323775 -0.023657
    17 4.983666 -0.000007 -0.000001 -2.236049 -0.920545 -0.034861
    18 10.904945 -0.000010 0.000005 -0.000002 0.000001 -1.183452
    19 10.565873 0.000007 -0.000039 0.381775 -0.024820 0.025448
    20 3.464128 0.088918 -0.780277 -0.266522 0.272889 -0.114263
    21 1.149900 0.000003 -0.000004 0.000000 -0.053881 0.012281
    22 3.616511 0.088098 -0.193359 -0.074871 0.173485 -0.083578
    23 3.507639 -0.030214 0.336394 0.087874 -0.039626 -0.002228
    24 3.709199 0.065914 0.920438 0.315356 -0.197665 -0.104771
    25 0.820752 -0.193685 0.888225 -1.372855 -0.498548 -0.474342
    26 1.123152 -0.000001 0.000007 0.000000 -0.012010 0.116354
    27 2.023577 0.907747 -0.852531 -1.724852 1.322537 2.884840
    28 4.983664 -0.000003 -0.000002 0.564888 -0.010525 -0.967951
    29 10.904955 -0.000001 -0.000006 0.000002 0.000000 -0.114043
    30 10.565878 0.000005 0.000008 -0.489644 -0.091763 0.072290
    31 3.464089 0.095510 0.779503 0.265534 -0.273843 -0.111899
    32 1.149893 -0.000003 -0.000006 0.000000 0.053975 0.011863
    33 3.616475 0.089731 0.192608 0.074650 -0.174185 -0.082089
    34 3.507608 -0.033062 -0.336132 -0.087881 0.039606 -0.002554
    35 3.709165 0.058125 -0.920976 -0.315627 0.196774 -0.106443
    36 0.820727 -0.201217 -0.886563 1.300502 0.122960 -0.720452
    37 1.123138 -0.000003 0.000006 -0.000006 0.012724 0.116279
    38 1.321866 0.000002 0.000005 0.000000 0.046519 -0.073857
    39 0.977462 0.000001 0.000002 0.000000 0.011737 -0.061857
    40 0.860968 -0.000003 -0.000002 0.000000 -0.000207 -0.180622
    41 1.575051 -0.000005 0.000008 0.000000 -0.055713 -0.133233
    42 1.060835 -0.000005 -0.000002 0.000000 0.054561 -0.056841
    43 1.321869 -0.000001 0.000007 0.000000 -0.047130 -0.073469
    44 0.977462 0.000000 -0.000007 0.000000 -0.012250 -0.061757
    45 0.860973 0.000000 0.000000 0.000000 -0.000893 -0.180620
  time 15
    0 6.740328 7.011634 62.499745 -0.658854 0.601467 -0.175265
    1 0.000000 0.000001 0.000000 0.000000 0.000000 0.000000
    2 3.984023 0.000014 0.000008 -1.681514 -0.639196 -1.454548
    3 19.319881 0.000007 0.000002 0.000000 0.000000 2.091312
    4 16.701584 0.000027 -0.000001 0.001613 -0.191409 -0.675532
    5 6.534991 -0.000007 0.000001 -0.005401 -0.004871 -1.089339
    6 -3.984016 0.000009 0.000009 -0.676179 -1.480863 -2.273932
    7 19.319883 0.000006 -0.000003 0.000000 0.000000 0.089790
    8 16.701590 0.000005 0.000001 -0.066934 0.025622 -0.184482
    9 6.534990 0.000001 -0.000004 -0.038597 -0.004565 -0.507950
    10 0.000005 4.212782 -1.689685 1.271526 -0.298849 1.629854
    11 3.620123 -0.000001 0.000000 -0.363639 0.028546 0.275028
    12 3.445713 -0.000002 0.000001 -0.363445 0.033077 0.422540
    13 7.391215 0.000002 0.000001 -0.279672 0.061039 0.363020
    14 3.178820 -0.000007 -0.000001 3.141590 0.000000 0.364769
    15 3.706908 0.000011 0.000002 0.103458 0.005619 -0.438576
    16 2.023576 0.907751 0.852530 4.519651 -1.345984 0.018146
    17 4.983666 -0.000007 -0.000001 -2.419390 -0.913788 -0.183176
    18 10.904945 -0.000010 0.000005 -0.000002 0.000001 -1.244536
    19 10.565873 0.000007 -0.000039 0.381087 -0.023990 0.037470
    20 3.464128 0.088918 -0.780277 -0.266522 0.272889 -0.114263
    21 1.149900 0.000003 -0.000004 0.000000 -0.053881 0.012281
    22 3.616511 0.088098 -0.193359 -0.074871 0.173485 -0.083578
    23 3.507639 -0.030214 0.336394 0.087874 -0.039626 -0.002228
    24 3.709199 0.065914 0.920438 0.315356 -0.197665 -0.104771
    25 0.820752 -0.193685 0.888225 -1.372855 -0.498548 -0.474342
    26 1.123152 -0.000001 0.000007 0.000000 -0.012010 0.116354
    27 2.023577 0.907747 -0.852531 -1.785723 1.321808 2.822036
    28 4.983664 -0.000003 -0.000002 0.157279 -0.181831 -0.787936
    29 10.904955 -0.000001 -0.000006 0.000002 0.000000 -0.529806
    30 10.565878 0.000005 0.000008 -0.489644 -0.091763 0.072290
    31 3.464089 0.095510 0.779503 0.265534 -0.273843 -0.111899
    32 1.149893 -0.000003 -0.000006 0.000000 0.053975 0.011863
    33 3.616475 0.089731 0.192608 0.074650 -0.174185 -0.082089
    34 3.507608 -0.033062 -0.336132 -0.087881 0.039606 -0.002554
    35 3.709165 0.058125 -0.920976 -0.315627 0.196774 -0.106443
    36 0.820727 -0.201217 -0.886563 1.300502 0.122960 -0.720452
    37 1.123138 -0.000003 0.000006 -0.000006 0.012724 0.116279
    38 1.321866 0.000002 0.000005 0.000000 0.046519 -0.073857
    39 0.977462 0.000001 0.000002 0.000000 0.011737 -0.061857
    40 0.860968 -0.000003 -0.000002 0.000000 -0.000207 -0.180622
    41 1.575051 -0.000005 0.000008 0.000000 -0.055713 -0.133233
    42 1.060835 -0.000005 -0.000002 0.000000 0.054561 -0.056841
    43 1.321869 -0.000001 0.000007 0.000000 -0.047130 -0.073469
    44 0.977462 0.000000 -0.000007 0.000000 -0.012250 -0.061757
    45 0.860973 0.000000 0.000000 0.000000 -0.000893 -0.180620
  time 16
    0 8.567471 6.914361 63.888957 -1.012292 0.556815 -0.293265
    1 0.000000 0.000001 0.000000 0.000000 0.000000 0.000000
    2 3.984023 0.000014 0.000008 -1.155842 -1.160825 -1.988012
    3 19.319881 0.000007 0.000002 0.000000 0.000000 2.117901
    4 16.701584 0.000027 -0.000001 -0.105383 -0.128134 -0.622453
    5 6.534991 -0.000007 0.000001 -0.005401 -0.004871 -1.089339
    6 -3.984016 0.000009 0.000009 -0.321851 -1.469290 -2.704832
    7 19.319883 0.000006 -0.000003 0.000000 0.000000 0.089790
    8 16.701590 0.000005 0.000001 0.102070 0.053993 -0.103326
    9 6.534990 0.000001 -0.000004 -0.041881 -0.005308 -0.621349
    10 0.000005 4.212782 -1.689685 1.277183 -0.352552 1.617439
    11 3.620123 -0.000001 0.000000 -0.375209 0.014560 0.307813
    12 3.445713 -0.000002 0.000001 -0.375106 0.018145 0.455292
    13 7.391215 0.000002 0.000001 -0.276149 0.049701 0.360396
    14 3.178820 -0.000007 -0.000001 3.141590 0.000000 0.364769
    15 3.706908 0.000011 0.000002 0.120325 -0.001207 -0.500838
    16 2.023576 0.907751 0.852530 4.450125 -1.369513 0.088551
    17 4.983666 -0.000007 -0.000001 -2.627004 -1.034180 -0.424325
    18 10.904945 -0.000010 0.000005 -0.000002 0.000001 -1.288481
    19 10.565873 0.000007 -0.000039 0.380262 -0.023067 0.051083
    20 3.464128 0.088918 -0.780277 -0.266522 0.272889 -0.114263
    21 1.149900 0.000003 -0.000004 0.000000 -0.053881 0.012281
    22 3.616511 0.088098 -0.193359 -0.074871 0.173485 -0.083578
    23 3.507639 -0.030214 0.336394 0.087874 -0.039626 -0.002228
    24 3.709199 0.065914 0.920438 0.315356 -0.197665 -0.104771
    25 0.820752 -0.193685 0.888225 -1.372855 -0.498548 -0.474342
    26 1.123152 -0.000001 0.000007 0.000000 -0.012010 0.116354
    27 2.023577 0.907747 -0.852531 -1.892891 1.328595 2.712105
    28 4.983664 -0.000003 -0.000002 0.322768 -0.189089 -0.891738
    29 10.904955 -0.000001 -0.000006 0.000002 0.000000 -0.708664
    30 10.565878 0.000005 0.000008 -0.489644 -0.091763 0.072290
    31 3.464089 0.095510 0.779503 0.265534 -0.273843 -0.111899
    32 1.149893 -0.000003 -0.000006 0.000000 0.053975 0.011863
    33 3.616475 0.089731 0.192608 0.074650 -0.174185 -0.082089
    34 3.507608 -0.033062 -0.336132 -0.087881 0.039606 -0.002554
    35 3.709165 0.058125 -0.920976 -0.315627 0.196774 -0.106443
    36 0.820727 -0.201217 -0.886563 1.300502 0.122960 -0.720452
    37 1.123138 -0.000003 0.000006 -0.000006 0.012724 0.116279
    38 1.321866 0.000002 0.000005 0.000000 0.046519 -0.073857
    39 0.977462 0.000001 0.000002 0.000000 0.011737 -0.061857
    40 0.860968 -0.000003 -0.000002 0.000000 -0.000207 -0.180622
    41 1.575051 -0.000005 0.000008 0.000000 -0.055713 -0.133233
    42 1.060835 -0.000005 -0.000002 0.000000 0.054561 -0.056841
    43 1.321869 -0.000001 0.000007 0.000000 -0.047130 -0.073469
    44 0.977462 0.000000 -0.000007 0.000000 -0.012250 -0.061757
    45 0.860973 0.000000 0.000000 0.000000 -0.000893 -0.180620
  time 17
    0 10.427284 6.815176 64.605430 -1.358951 0.510836 -0.362122
    1 0.000000 0.000001 0.000000 0.000000 0.000000 0.000000
    2 3.984023 0.000014 0.000008 -0.358443 -1.279556 -2.815759
    3 19.319881 0.000007 0.000002 0.000000 0.000000 1.657306
    4 16.701584 0.000027 -0.000001 -0.096052 -0.090802 -0.361842
    5 6.534991 -0.000007 0.000001 -0.005401 -0.004871 -1.089339
    6 -3.984016 0.000009 0.000009 -0.408210 -1.407542 -2.813511
    7 19.319883 0.000006 -0.000003 0.000000 0.000000 0.089790
    8 16.701590 0.000005 0.000001 0.355973 0.138463 -0.334438
    9 6.534990 0.000001 -0.000004 -0.035517 -0.004206 -0.509347
    10 0.000005 4.212782 -1.689685 1.299186 -0.387299 1.601715
    11 3.620123 -0.000001 0.000000 -0.369309 -0.010296 0.333446
    12 3.445713 -0.000002 0.000001 -0.369413 -0.007287 0.480934
    13 7.391215 0.000002 0.000001 -0.259203 0.034912 0.357280
    14 3.178820 -0.000007 -0.000001 3.141590 0.000000 0.364769
    15 3.706908 0.000011 0.000002 0.132421 -0.005838 -0.454408
    16 2.023576 0.907751 0.852530 4.344027 -1.392769 0.195306
    17 4.983666 -0.000007 -0.000001 -2.730574 -1.108210 -0.527272
    18 10.904945 -0.000010 0.000005 -0.000002 0.000001 -1.278811
    19 10.565873 0.000007 -0.000039 0.379437 -0.022021 0.066053
    20 3.464128 0.088918 -0.780277 -0.266522 0.272889 -0.114263
    21 1.149900 0.000003 -0.000004 0.000000 -0.053881 0.012281
    22 3.616511 0.088098 -0.193359 -0.074871 0.173485 -0.083578
    23 3.507639 -0.030214 0.336394 0.087874 -0.039626 -0.002228
    24 3.709199 0.065914 0.920438 0.315356 -0.197665 -0.104771
    25 0.820752 -0.193685 0.888225 -1.372855 -0.498548 -0.474342
    26 1.123152 -0.000001 0.000007 0.000000 -0.012010 0.116354
    27 2.023577 0.907747 -0.852531 -2.050927 1.337933 2.551128
    28 4.983664 -0.000003 -0.000002 0.597661 -0.062410 -1.150424
    29 10.904955 -0.000001 -0.000006 0.000002 0.000000 -0.589397
    30 10.565878 0.000005 0.000008 -0.489644 -0.091763 0.072290
    31 3.464089 0.095510 0.779503 0.265534 -0.273843 -0.111899
    32 1.149893 -0.000003 -0.000006 0.000000 0.053975 0.011863
    33 3.616475 0.089731 0.192608 0.074650 -0.174185 -0.082089
    34 3.507608 -0.033062 -0.336132 -0.087881 0.039606 -0.002554
    35 3.709165 0.058125 -0.920976 -0.315627 0.196774 -0.106443
    36 0.820727 -0.201217 -0.886563 1.300502 0.122960 -0.720452
    37 1.123138 -0.000003 0.000006 -0.000006 0.012724 0.116279
    38 1.321866 0.000002 0.000005 0.000000 0.046519 -0.073857
    39 0.977462 0.000001 0.000002 0.000000 0.011737 -0.061857
    40 0.860968 -0.000003 -0.000002 0.000000 -0.000207 -0.180622
    41 1.575051 -0.000005 0.000008 0.000000 -0.055713 -0.133233
    42 1.060835 -0.000005 -0.000002 0.000000 0.054561 -0.056841
    43 1.321869 -0.000001 0.000007 0.000000 -0.047130 -0.073469
    44 0.977462 0.000000 -0.000007 0.000000 -0.012250 -0.061757
    45 0.860973 0.000000 0.000000 0.000000 -0.000893 -0.180620
  time 18
    0 12.300235 6.729704 64.867923 4.575948 0.471840 -0.376459
    1 0.000000 0.000001 0.000000 0.000000 0.000000 0.000000
    2 3.984023 0.000014 0.000008 -1.149245 -0.897628 -2.106476
    3 19.319881 0.000007 0.000002 0.000000 0.000000 0.089819
    4 16.701584 0.000027 -0.000001 0.028025 -0.087206 0.090516
    5 6.534991 -0.000007 0.000001 0.003875 -0.001455 -0.766364
    6 -3.984016 0.000009 0.000009 -1.030885 -1.379593 -2.369569
    7 19.319883 0.000006 -0.000003 0.000000 0.000000 0.089790
    8 16.701590 0.000005 0.000001 0.356853 0.269068 -0.371978
    9 6.534990 0.000001 -0.000004 -0.055567 -0.009623 -0.692394
    10 0.000005 4.212782 -1.689685 1.355464 -0.387763 1.574967
    11 3.620123 -0.000001 0.000000 -0.328879 -0.065365 0.347070
    12 3.445713 -0.000002 0.000001 -0.329396 -0.062667 0.502322
    13 7.391215 0.000002 0.000001 -0.213601 0.009061 0.349777
    14 3.178820 -0.000007 -0.000001 3.141590 0.000000 0.364769
    15 3.706908 0.000011 0.000002 0.137788 -0.007285 -0.244801
    16 2.023576 0.907751 0.852530 4.192213 -1.413521 0.347594
    17 4.983666 -0.000007 -0.000001 -2.514582 -1.084142 -0.692350
    18 10.904945 -0.000010 0.000005 -0.000002 0.000001 -1.206565
    19 10.565873 0.000007 -0.000039 0.378566 -0.020883 0.082232
    20 3.464128 0.088918 -0.780277 -0.266522 0.272889 -0.114263
    21 1.149900 0.000003 -0.000004 0.000000 -0.053881 0.012281
    22 3.616511 0.088098 -0.193359 -0.074871 0.173485 -0.083578
    23 3.507639 -0.030214 0.336394 0.087874 -0.039626 -0.002228
    24 3.709199 0.065914 0.920438 0.315356 -0.197665 -0.104771
    25 0.820752 -0.193685 0.888225 -1.372855 -0.498548 -0.474342
    26 1.123152 -0.000001 0.000007 0.000000 -0.012010 0.116354
    27 2.023577 0.907747 -0.852531 -2.258785 1.343718 2.340539
    28 4.983664 -0.000003 -0.000002 0.649925 0.126027 -1.236106
    29 10.904955 -0.000001 -0.000006 0.000002 0.000000 -0.575572
    30 10.565878 0.000005 0.000008 -0.489644 -0.091763 0.072290
    31 3.464089 0.095510 0.779503 0.265534 -0.273843 -0.111899
    32 1.149893 -0.000003 -0.000006 0.000000 0.053975 0.011863
    33 3.616475 0.089731 0.192608 0.074650 -0.174185 -0.082089
    34 3.507608 -0.033062 -0.336132 -0.087881 0.039606 -0.002554
    35 3.709165 0.058125 -0.920976 -0.315627 0.196774 -0.106443
    36 0.820727 -0.201217 -0.886563 1.300502 0.122960 -0.720452
    37 1.123138 -0.000003 0.000006 -0.000006 0.012724 0.116279
    38 1.321866 0.000002 0.000005 0.000000 0.046519 -0.073857
    39 0.977462 0.000001 0.000002 0.000000 0.011737 -0.061857
    40 0.860968 -0.000003 -0.000002 0.000000 -0.000207 -0.180622
    41 1.575051 -0.000005 0.000008 0.000000 -0.055713 -0.133233
    42 1.060835 -0.000005 -0.000002 0.000000 0.054561 -0.056841
    43 1.321869 -0.000001 0.000007 0.000000 -0.047130 -0.073469
    44 0.977462 0.000000 -0.000007 0.000000 -0.012250 -0.061757
    45 0.860973 0.000000 0.000000 0.000000 -0.000893 -0.180620
  time 19
    0 14.158978 6.654039 64.613932 4.217216 0.424575 -0.362122
    1 0.000000 0.000001 0.000000 0.000000 0.000000 0.000000
    2 3.984023 0.000014 0.000008 -1.439330 -0.890638 -2.010729
    3 19.319881 0.000007 0.000002 0.000000 0.000000 0.089819
    4 16.701584 0.000027 -0.000001 0.133285 0.037133 -0.236642
    5 6.534991 -0.000007 0.000001 -0.016367 -0.001983 -0.205787
    6 -3.984016 0.000009 0.000009 -1.535325 -1.318674 -1.975664
    7 19.319883 0.000006 -0.000003 0.000000 0.000000 0.089790
    8 16.701590 0.000005 0.000001 0.240570 0.291014 -0.365091
    9 6.534990 0.000001 -0.000004 -0.064436 -0.011732 -0.751071
    10 0.000005 4.212782 -1.689685 1.441846 -0.361150 1.538295
    11 3.620123 -0.000001 0.000000 -0.254047 -0.145746 0.348682
    12 3.445713 -0.000002 0.000001 -0.255260 -0.143647 0.516887
    13 7.391215 0.000002 0.000001 -0.141214 -0.027036 0.335839
    14 3.178820 -0.000007 -0.000001 3.141590 0.000000 0.364769
    15 3.706908 0.000011 0.000002 0.137149 -0.007116 0.075275
    16 2.023576 0.907751 0.852530 3.990397 -1.428995 0.549529
    17 4.983666 -0.000007 -0.000001 -2.117630 -0.960544 -0.935594
    18 10.904945 -0.000010 0.000005 -0.000002 0.000001 -1.087779
    19 10.565873 0.000007 -0.000039 0.377557 -0.019653 0.099470
    20 3.464128 0.088918 -0.780277 -0.266522 0.272889 -0.114263
    21 1.149900 0.000003 -0.000004 0.000000 -0.053881 0.012281
    22 3.616511 0.088098 -0.193359 -0.074871 0.173485 -0.083578
    23 3.507639 -0.030214 0.336394 0.087874 -0.039626 -0.002228
    24 3.709199 0.065914 0.920438 0.315356 -0.197665 -0.104771
    25 0.820752 -0.193685 0.888225 -1.372855 -0.498548 -0.474342
    26 1.123152 -0.000001 0.000007 0.000000 -0.012010 0.116354
    27 2.023577 0.907747 -0.852531 -2.498078 1.339847 2.100030
    28 4.983664 -0.000003 -0.000002 0.736397 0.161078 -1.143777
    29 10.904955 -0.000001 -0.000006 0.000002 0.000000 -0.823209
    30 10.565878 0.000005 0.000008 -0.489644 -0.091763 0.072290
    31 3.464089 0.095510 0.779503 0.265534 -0.273843 -0.111899
    32 1.149893 -0.000003 -0.000006 0.000000 0.053975 0.011863
    33 3.616475 0.089731 0.192608 0.074650 -0.174185 -0.082089
    34 3.507608 -0.033062 -0.336132 -0.087881 0.039606 -0.002554
    35 3.709165 0.058125 -0.920976 -0.315627 0.196774 -0.106443
    36 0.820727 -0.201217 -0.886563 1.300502 0.122960 -0.720452
    37 1.123138 -0.000003 0.000006 -0.000006 0.012724 0.116279
    38 1.321866 0.000002 0.000005 0.000000 0.046519 -0.073857
    39 0.977462 0.000001 0.000002 0.000000 0.011737 -0.061857
    40 0.860968 -0.000003 -0.000002 0.000000 -0.000207 -0.180622
    41 1.575051 -0.000005 0.000008 0.000000 -0.055713 -0.133233
    42 1.060835 -0.000005 -0.000002 0.000000 0.054561 -0.056841
    43 1.321869 -0.000001 0.000007 0.000000 -0.047130 -0.073469
    44 0.977462 0.000000 -0.000007 0.000000 -0.012250 -0.061757
    45 0.860973 0.000000 0.000000 0.000000 -0.000893 -0.180620
  time 20
    0 15.983983 6.592086 63.413757 3.849849 0.368354 -0.326939
    1 0.000000 0.000001 0.000000 0.000000 0.000000 0.000000
    2 3.984023 0.000014 0.000008 -1.851989 -1.040686 -1.733906
    3 19.319881 0.000007 0.000002 0.000000 0.000000 0.089819
    4 16.701584 0.000027 -0.000001 0.038911 0.155403 -0.642432
    5 6.534991 -0.000007 0.000001 -0.037568 -0.011618 -0.648111
    6 -3.984016 0.000009 0.000009 -1.808970 -1.203779 -1.717497
    7 19.319883 0.000006 -0.000003 0.000000 0.000000 0.089790
    8 16.701590 0.000005 0.000001 0.102622 0.189647 -0.343351
    9 6.534990 0.000001 -0.000004 -0.061392 -0.010845 -0.646715
    10 0.000005 4.212782 -1.689685 1.527892 -0.330967 1.505266
    11 3.620123 -0.000001 0.000000 -0.169688 -0.217917 0.344429
    12 3.445713 -0.000002 0.000001 -0.171523 -0.216502 0.515449
    13 7.391215 0.000002 0.000001 -0.065712 -0.060401 0.321410
    14 3.178820 -0.000007 -0.000001 3.141590 0.000000 0.364769
    15 3.706908 0.000011 0.000002 0.134210 -0.006296 0.422475
    16 2.023576 0.907751 0.852530 3.752961 -1.436686 0.786763
    17 4.983666 -0.000007 -0.000001 -1.872699 -0.746591 -1.034076
    18 10.904945 -0.000010 0.000005 -0.000002 0.000001 -0.964670
    19 10.565873 0.000007 -0.000039 0.376594 -0.018330 0.117554
    20 3.464128 0.088918 -0.780277 -0.266522 0.272889 -0.114263
    21 1.149900 0.000003 -0.000004 0.000000 -0.053881 0.012281
    22 3.616511 0.088098 -0.193359 -0.074871 0.173485 -0.083578
    23 3.507639 -0.030214 0.336394 0.087874 -0.039626 -0.002228
    24 3.709199 0.065914 0.920438 0.315356 -0.197665 -0.104771
    25 0.820752 -0.193685 0.888225 -1.372855 -0.498548 -0.474342
    26 1.123152 -0.000001 0.000007 0.000000 -0.012010 0.116354
    27 2.023577 0.907747 -0.852531 -2.731751 1.323448 1.866689
    28 4.983664 -0.000003 -0.000002 1.331758 -0.106496 -1.197135
    29 10.904955 -0.000001 -0.000006 0.000002 0.000000 -1.487039
    30 10.565878 0.000005 0.000008 -0.489644 -0.091763 0.072290
    31 3.464089 0.095510 0.779503 0.265534 -0.273843 -0.111899
    32 1.149893 -0.000003 -0.000006 0.000000 0.053975 0.011863
    33 3.616475 0.089731 0.192608 0.074650 -0.174185 -0.082089
    34 3.507608 -0.033062 -0.336132 -0.087881 0.039606 -0.002554
    35 3.709165 0.058125 -0.920976 -0.315627 0.196774 -0.106443
    36 0.820727 -0.201217 -0.886563 1.300502 0.122960 -0.720452
    37 1.123138 -0.000003 0.000006 -0.000006 0.012724 0.116279
    38 1.321866 0.000002 0.000005 0.000000 0.046519 -0.073857
    39 0.977462 0.000001 0.000002 0.000000 0.011737 -0.061857
    40 0.860968 -0.000003 -0.000002 0.000000 -0.000207 -0.180622
    41 1.575051 -0.000005 0.000008 0.000000 -0.055713 -0.133233
    42 1.060835 -0.000005 -0.000002 0.000000 0.054561 -0.056841
    43 1.321869 -0.000001 0.000007 0.000000 -0.047130 -0.073469
    44 0.977462 0.000000 -0.000007 0.000000 -0.012250 -0.061757
    45 0.860973 0.000000 0.000000 0.000000 -0.000893 -0.180620
  time 21
    0 17.747905 6.555566 60.818165 3.475424 0.302748 -0.278079
    1 0.000000 0.000001 0.000000 0.000000 0.000000 0.000000
    2 3.984023 0.000014 0.000008 -2.316661 -1.260267 -1.163176
    3 19.319881 0.000007 0.000002 0.000000 0.000000 0.089819
    4 16.701584 0.000027 -0.000001 -0.114015 0.035859 -0.689443
    5 6.534991 -0.000007 0.000001 -0.030449 -0.010384 -0.706722
    6 -3.984016 0.000009 0.000009 -1.856548 -1.035694 -1.590365
    7 19.319883 0.000006 -0.000003 0.000000 0.000000 0.089790
    8 16.701590 0.000005 0.000001 -0.004132 0.065060 -0.338624
    9 6.534990 0.000001 -0.000004 -0.045836 -0.006531 -0.535909
    10 0.000005 4.212782 -1.689685 1.588053 -0.321810 1.488536
    11 3.620123 -0.000001 0.000000 -0.100806 -0.248394 0.340597
    12 3.445713 -0.000002 0.000001 -0.102936 -0.247554 0.488868
    13 7.391215 0.000002 0.000001 -0.010606 -0.077815 0.313165
    14 3.178820 -0.000007 -0.000001 3.141590 0.000000 0.364769
    15 3.706908 0.000011 0.000002 0.132421 -0.005814 0.713769
    16 2.023576 0.907751 0.852530 3.516383 -1.436049 1.022466
    17 4.983666 -0.000007 -0.000001 -1.775698 -0.488249 -1.036536
    18 10.904945 -0.000010 0.000005 -0.000002 0.000001 -0.911369
    19 10.565873 0.000007 -0.000039 0.375677 -0.016946 0.136316
    20 3.464128 0.088918 -0.780277 -0.266522 0.272889 -0.114263
    21 1.149900 0.000003 -0.000004 0.000000 -0.053881 0.012281
    22 3.616511 0.088098 -0.193359 -0.074871 0.173485 -0.083578
    23 3.507639 -0.030214 0.336394 0.087874 -0.039626 -0.002228
    24 3.709199 0.065914 0.920438 0.315356 -0.197665 -0.104771
    25 0.820752 -0.193685 0.888225 -1.372855 -0.498548 -0.474342
    26 1.123152 -0.000001 0.000007 0.000000 -0.012010 0.116354
    27 2.023577 0.907747 -0.852531 -2.926081 1.296709 1.674358
    28 4.983664 -0.000003 -0.000002 1.600439 -0.122392 -1.290284
    29 10.904955 -0.000001 -0.000006 0.000002 0.000000 -1.709346
    30 10.565878 0.000005 0.000008 -0.489644 -0.091763 0.072290
    31 3.464089 0.095510 0.779503 0.265534 -0.273843 -0.111899
    32 1.149893 -0.000003 -0.000006 0.000000 0.053975 0.011863
    33 3.616475 0.089731 0.192608 0.074650 -0.174185 -0.082089
    34 3.507608 -0.033062 -0.336132 -0.087881 0.039606 -0.002554
    35 3.709165 0.058125 -0.920976 -0.315627 0.196774 -0.106443
    36 0.820727 -0.201217 -0.886563 1.300502 0.122960 -0.720452
    37 1.123138 -0.000003 0.000006 -0.000006 0.012724 0.116279
    38 1.321866 0.000002 0.000005 0.000000 0.046519 -0.073857
    39 0.977462 0.000001 0.000002 0.000000 0.011737 -0.061857
    40 0.860968 -0.000003 -0.000002 0.000000 -0.000207 -0.180622
    41 1.575051 -0.000005 0.000008 0.000000 -0.055713 -0.133233
    42 1.060835 -0.000005 -0.000002 0.000000 0.054561 -0.056841
    43 1.321869 -0.000001 0.000007 0.000000 -0.047130 -0.073469
    44 0.977462 0.000000 -0.000007 0.000000 -0.012250 -0.061757
    45 0.860973 0.000000 0.000000 0.000000 -0.000893 -0.180620
  time 22
    0 19.427304 6.540571 55.581026 3.064503 0.205903 -0.174982
    1 0.000000 0.000001 0.000000 0.000000 0.000000 0.000000
    2 3.984023 0.000014 0.000008 -2.186247 -1.212611 -1.102442
    3 19.319881 0.000007 0.000002 0.000000 0.000000 0.089819
    4 16.701584 0.000027 -0.000001 -0.137135 -0.018780 -0.505984
    5 6.534991 -0.000007 0.000001 -0.018572 -0.005818 -0.566329
    6 -3.984016 0.000009 0.000009 -1.623293 -0.848482 -1.467580
    7 19.319883 0.000006 -0.000003 0.000000 0.000000 0.089790
    8 16.701590 0.000005 0.000001 -0.144048 -0.040437 -0.337274
    9 6.534990 0.000001 -0.000004 -0.029572 -0.002876 -0.547778
    10 0.000005 4.212782 -1.689685 1.604592 -0.364979 1.502965
    11 3.620123 -0.000001 0.000000 -0.051489 -0.189262 0.337068
    12 3.445713 -0.000002 0.000001 -0.053128 -0.188817 0.395249
    13 7.391215 0.000002 0.000001 0.005765 -0.062007 0.323124
    14 3.178820 -0.000007 -0.000001 3.141590 0.000000 0.364769
    15 3.706908 0.000011 0.000002 0.132421 -0.005838 0.945919
    16 2.023576 0.907751 0.852530 3.320376 -1.429404 1.217513
    17 4.983666 -0.000007 -0.000001 -1.728483 -0.110551 -1.091471
    18 10.904945 -0.000010 0.000005 -0.000002 0.000001 -1.397597
    19 10.565873 0.000007 -0.000039 0.374714 -0.015500 0.155509
    20 3.464128 0.088918 -0.780277 -0.266522 0.272889 -0.114263
    21 1.149900 0.000003 -0.000004 0.000000 -0.053881 0.012281
    22 3.616511 0.088098 -0.193359 -0.074871 0.173485 -0.083578
    23 3.507639 -0.030214 0.336394 0.087874 -0.039626 -0.002228
    24 3.709199 0.065914 0.920438 0.315356 -0.197665 -0.104771
    25 0.820752 -0.193685 0.888225 -1.372855 -0.498548 -0.474342
    26 1.123152 -0.000001 0.000007 0.000000 -0.012010 0.116354
    27 2.023577 0.907747 -0.852531 -3.066876 1.266235 1.536801
    28 4.983664 -0.000003 -0.000002 1.616109 -0.310237 -1.149604
    29 10.904955 -0.000001 -0.000006 0.000002 0.000000 -2.051349
    30 10.565878 0.000005 0.000008 -0.489644 -0.091763 0.072290
    31 3.464089 0.095510 0.779503 0.265534 -0.273843 -0.111899
    32 1.149893 -0.000003 -0.000006 0.000000 0.053975 0.011863
    33 3.616475 0.089731 0.192608 0.074650 -0.174185 -0.082089
    34 3.507608 -0.033062 -0.336132 -0.087881 0.039606 -0.002554
    35 3.709165 0.058125 -0.920976 -0.315627 0.196774 -0.106443
    36 0.820727 -0.201217 -0.886563 1.300502 0.122960 -0.720452
    37 1.123138 -0.000003 0.000006 -0.000006 0.012724 0.116279
    38 1.321866 0.000002 0.000005 0.000000 0.046519 -0.073857
    39 0.977462 0.000001 0.000002 0.000000 0.011737 -0.061857
    40 0.860968 -0.000003 -0.000002 0.000000 -0.000207 -0.180622
    41 1.575051 -0.000005 0.000008 0.000000 -0.055713 -0.133233
    42 1.060835 -0.000005 -0.000002 0.000000 0.054561 -0.056841
    43 1.321869 -0.000001 0.000007 0.000000 -0.047130 -0.073469
    44 0.977462 0.000000 -0.000007 0.000000 -0.012250 -0.061757
    45 0.860973 0.000000 0.000000 0.000000 -0.000893 -0.180620
  time 23
    0 20.998745 10.191745 48.147665 2.613280 0.085361 -0.048399
    1 0.000000 0.000001 0.000000 0.000000 0.000000 0.000000
    2 3.984023 0.000014 0.000008 -1.729320 -1.145666 -1.398226
    3 19.319881 0.000007 0.000002 0.000000 0.000000 0.089819
    4 16.701584 0.000027 -0.000001 -0.129592 0.011003 -0.156776
    5 6.534991 -0.000007 0.000001 -0.011681 -0.004068 -0.528762
    6 -3.984016 0.000009 0.000009 -1.220062 -0.714766 -1.432359
    7 19.319883 0.000006 -0.000003 0.000000 0.000000 0.089790
    8 16.701590 0.000005 0.000001 -0.186980 -0.035882 -0.287176
    9 6.534990 0.000001 -0.000004 -0.031178 -0.003127 -0.501999
    10 0.000005 4.212782 -1.689685 1.589156 -0.432444 1.539349
    11 3.620123 -0.000001 0.000000 -0.014941 -0.075911 0.330268
    12 3.445713 -0.000002 0.000001 -0.015604 -0.075803 0.262152
    13 7.391215 0.000002 0.000001 -0.000132 -0.025562 0.341460
    14 3.178820 -0.000007 -0.000001 3.141590 0.000000 0.364769
    15 3.706908 0.000011 0.000002 0.132421 -0.005838 1.130495
    16 2.023576 0.907751 0.852530 3.185706 -1.421395 1.351435
    17 4.983666 -0.000007 -0.000001 -1.711158 -0.370817 -1.015491
    18 10.904945 -0.000010 0.000005 -0.000002 0.000001 -1.608126
    19 10.565873 0.000007 -0.000039 0.373752 -0.014054 0.174867
    20 3.464128 0.088918 -0.780277 -0.266522 0.272889 -0.114263
    21 1.149900 0.000003 -0.000004 0.000000 -0.053881 0.012281
    22 3.616511 0.088098 -0.193359 -0.074871 0.173485 -0.083578
    23 3.507639 -0.030214 0.336394 0.087874 -0.039626 -0.002228
    24 3.709199 0.065914 0.920438 0.315356 -0.197665 -0.104771
    25 0.820752 -0.193685 0.888225 -1.372855 -0.498548 -0.474342
    26 1.123152 -0.000001 0.000007 0.000000 -0.012010 0.116354
    27 2.023577 0.907747 -0.852531 -3.152324 1.240635 1.454496
    28 4.983664 -0.000003 -0.000002 2.044643 -0.176203 -1.320696
    29 10.904955 -0.000001 -0.000006 0.000002 0.000000 -2.248068
    30 10.565878 0.000005 0.000008 -0.489644 -0.091763 0.072290
    31 3.464089 0.095510 0.779503 0.265534 -0.273843 -0.111899
    32 1.149893 -0.000003 -0.000006 0.000000 0.053975 0.011863
    33 3.616475 0.089731 0.192608 0.074650 -0.174185 -0.082089
    34 3.507608 -0.033062 -0.336132 -0.087881 0.039606 -0.002554
    35 3.709165 0.058125 -0.920976 -0.315627 0.196774 -0.106443
    36 0.820727 -0.201217 -0.886563 1.300502 0.122960 -0.720452
    37 1.123138 -0.000003 0.000006 -0.000006 0.012724 0.116279
    38 1.321866 0.000002 0.000005 0.000000 0.046519 -0.073857
    39 0.977462 0.000001 0.000002 0.000000 0.011737 -0.061857
    40 0.860968 -0.000003 -0.000002 0.000000 -0.000207 -0.180622
    41 1.575051 -0.000005 0.000008 0.000000 -0.055713 -0.133233
    42 1.060835 -0.000005 -0.000002 0.000000 0.054561 -0.056841
    43 1.321869 -0.000001 0.000007 0.000000 -0.047130 -0.073469
    44 0.977462 0.000000 -0.000007 0.000000 -0.012250 -0.061757
    45 0.860973 0.000000 0.000000 0.000000 -0.000893 -0.180620
  time 24
    0 22.438787 12.692533 40.647053 2.215825 0.000000 -0.000010
    1 0.000000 0.000001 0.000000 0.000000 0.000000 0.000000
    2 3.984023 0.000014 0.000008 -1.503103 -1.002879 -1.632244
    3 19.319881 0.000007 0.000002 0.000000 0.000000 0.089819
    4 16.701584 0.000027 -0.000001 -0.109842 0.035990 0.127366
    5 6.534991 -0.000007 0.000001 -0.008145 -0.004020 -0.640831
    6 -3.984016 0.000009 0.000009 -1.209279 -0.495937 -1.484614
    7 19.319883 0.000006 -0.000003 0.000000 0.000000 0.089790
    8 16.701590 0.000005 0.000001 -0.011762 0.094282 -0.518153
    9 6.534990 0.000001 -0.000004 -0.073676 -0.005069 -1.067165
    10 0.000005 4.212782 -1.689685 1.570796 -0.459929 1.570796
    11 3.620123 -0.000001 0.000000 0.000000 -0.000001 0.321693
    12 3.445713 -0.000002 0.000001 0.000000 0.000000 0.185053
    13 7.391215 0.000002 0.000001 0.000000 0.000001 0.342203
    14 3.178820 -0.000007 -0.000001 3.141590 0.000000 0.364769
    15 3.706908 0.000011 0.000002 0.132421 -0.005838 1.194850
    16 2.023576 0.907751 0.852530 3.119132 -1.417481 1.417249
    17 4.983666 -0.000007 -0.000001 -1.644237 -0.980568 -1.143582
    18 10.904945 -0.000010 0.000005 -0.000002 0.000001 -0.841167
    19 10.565873 0.000007 -0.000039 0.372835 -0.012578 0.194027
    20 3.464128 0.088918 -0.780277 -0.266522 0.272889 -0.114263
    21 1.149900 0.000003 -0.000004 0.000000 -0.053881 0.012281
    22 3.616511 0.088098 -0.193359 -0.074871 0.173485 -0.083578
    23 3.507639 -0.030214 0.336394 0.087874 -0.039626 -0.002228
    24 3.709199 0.065914 0.920438 0.315356 -0.197665 -0.104771
    25 0.820752 -0.193685 0.888225 -1.372855 -0.498548 -0.474342
    26 1.123152 -0.000001 0.000007 0.000000 -0.012010 0.116354
    27 2.023577 0.907747 -0.852531 -3.178330 1.229794 1.429738
    28 4.983664 -0.000003 -0.000002 2.149555 -0.029679 -1.186117
    29 10.904955 -0.000001 -0.000006 0.000002 0.000000 -2.134296
    30 10.565878 0.000005 0.000008 -0.489644 -0.091763 0.072290
    31 3.464089 0.095510 0.779503 0.265534 -0.273843 -0.111899
    32 1.149893 -0.000003 -0.000006 0.000000 0.053975 0.011863
    33 3.616475 0.089731 0.192608 0.074650 -0.174185 -0.082089
    34 3.507608 -0.033062 -0.336132 -0.087881 0.039606 -0.002554
    35 3.709165 0.058125 -0.920976 -0.315627 0.196774 -0.106443
    36 0.820727 -0.201217 -0.886563 1.300502 0.122960 -0.720452
    37 1.123138 -0.000003 0.000006 -0.000006 0.012724 0.116279
    38 1.321866 0.000002 0.000005 0.000000 0.046519 -0.073857
    39 0.977462 0.000001 0.000002 0.000000 0.011737 -0.061857
    40 0.860968 -0.000003 -0.000002 0.000000 -0.000207 -0.180622
    41 1.575051 -0.000005 0.000008 0.000000 -0.055713 -0.133233
    42 1.060835 -0.000005 -0.000002 0.000000 0.054561 -0.056841
    43 1.321869 -0.000001 0.000007 0.000000 -0.047130 -0.073469
    44 0.977462 0.000000 -0.000007 0.000000 -0.012250 -0.061757
    45 0.860973 0.000000 0.000000 0.000000 -0.000893 -0.180620
  time 25
    0 23.723993 13.687457 33.044033 1.909747 -0.029311 -0.070848
    1 0.000000 0.000001 0.000000 0.000000 0.000000 0.000000
    2 3.984023 0.000014 0.000008 -1.674439 -1.200130 -1.580616
    3 19.319881 0.000007 0.000002 0.000000 0.000000 0.797624
    4 16.701584 0.000027 -0.000001 -0.056991 -0.001379 -0.150215
    5 6.534991 -0.000007 0.000001 -0.005401 -0.004871 -1.089339
    6 -3.984016 0.000009 0.000009 -1.122825 -0.737823 -1.755379
    7 19.319883 0.000006 -0.000003 0.000000 0.000000 1.362318
    8 16.701590 0.000005 0.000001 -0.023414 0.153303 -1.415797
    9 6.534990 0.000001 -0.000004 -0.079704 -0.004877 -1.089339
    10 0.000005 4.212782 -1.689685 1.567776 -0.423205 1.586519
    11 3.620123 -0.000001 0.000000 -0.009731 0.006878 0.313865
    12 3.445713 -0.000002 0.000001 -0.009708 0.006951 0.202473
    13 7.391215 0.000002 0.000001 0.019247 0.003728 0.314075
    14 3.178820 -0.000007 -0.000001 3.141590 0.000000 0.364769
    15 3.706908 0.000011 0.000002 0.145710 -0.002341 1.157066
    16 2.023576 0.907751 0.852530 3.212754 -1.417117 1.324651
    17 4.983666 -0.000007 -0.000001 -1.532101 -0.923899 -1.338450
    18 10.904945 -0.000010 0.000005 -0.000002 0.000001 -0.919152
    19 10.565873 0.000007 -0.000039 0.372009 -0.011163 0.212442
    20 3.464128 0.088918 -0.780277 -0.266522 0.272889 -0.114263
    21 1.149900 0.000003 -0.000004 0.000000 -0.053881 0.012281
    22 3.616511 0.088098 -0.193359 -0.074871 0.173485 -0.083578
    23 3.507639 -0.030214 0.336394 0.087874 -0.039626 -0.002228
    24 3.709199 0.065914 0.920438 0.315356 -0.197665 -0.104771
    25 0.820752 -0.193685 0.888225 -1.372855 -0.498548 -0.474342
    26 1.123152 -0.000001 0.000007 0.000000 -0.012010 0.116354
    27 2.023577 0.907747 -0.852531 -3.225388 1.228928 1.385001
    28 4.983664 -0.000003 -0.000002 2.071397 -0.054956 -1.004191
    29 10.904955 -0.000001 -0.000006 0.000002 0.000000 -2.083377
    30 10.565878 0.000005 0.000008 -0.489644 -0.091763 0.072290
    31 3.464089 0.095510 0.779503 0.265534 -0.273843 -0.111899
    32 1.149893 -0.000003 -0.000006 0.000000 0.053975 0.011863
    33 3.616475 0.089731 0.192608 0.074650 -0.174185 -0.082089
    34 3.507608 -0.033062 -0.336132 -0.087881 0.039606 -0.002554
    35 3.709165 0.058125 -0.920976 -0.315627 0.196774 -0.106443
    36 0.820727 -0.201217 -0.886563 1.300502 0.122960 -0.720452
    37 1.123138 -0.000003 0.000006 -0.000006 0.012724 0.116279
    38 1.321866 0.000002 0.000005 0.000000 0.046519 -0.073857
    39 0.977462 0.000001 0.000002 0.000000 0.011737 -0.061857
    40 0.860968 -0.000003 -0.000002 0.000000 -0.000207 -0.180622
    41 1.575051 -0.000005 0.000008 0.000000 -0.055713 -0.133233
    42 1.060835 -0.000005 -0.000002 0.000000 0.054561 -0.056841
    43 1.321869 -0.000001 0.000007 0.000000 -0.047130 -0.073469
    44 0.977462 0.000000 -0.000007 0.000000 -0.012250 -0.061757
    45 0.860973 0.000000 0.000000 0.000000 -0.000893 -0.180620
  time 26
    0 24.827018 13.946071 24.881559 1.648616 -0.031710 -0.201110
    1 0.000000 0.000001 0.000000 0.000000 0.000000 0.000000
    2 3.984023 0.000014 0.000008 -2.300980 -1.370194 -0.943332
    3 19.319881 0.000007 0.000002 0.000000 0.000000 1.465040
    4 16.701584 0.000027 -0.000001 -0.017075 -0.030281 -0.519353
    5 6.534991 -0.000007 0.000001 -0.005401 -0.004871 -1.089339
    6 -3.984016 0.000009 0.000009 -1.060113 -0.708128 -1.887834
    7 19.319883 0.000006 -0.000003 0.000000 0.000000 1.999665
    8 16.701590 0.000005 0.000001 -0.063810 0.237789 -1.886663
    9 6.534990 0.000001 -0.000004 -0.079704 -0.004877 -1.089339
    10 0.000005 4.212782 -1.689685 1.569262 -0.356272 1.597305
    11 3.620123 -0.000001 0.000000 -0.034939 -0.013436 0.306083
    12 3.445713 -0.000002 0.000001 -0.035079 -0.013135 0.264011
    13 7.391215 0.000002 0.000001 0.045218 -0.000490 0.271674
    14 3.178820 -0.000007 -0.000001 3.141590 0.000000 0.364769
    15 3.706908 0.000011 0.000002 0.195714 0.010732 1.015130
    16 2.023576 0.907751 0.852530 3.519811 -1.406012 1.020552
    17 4.983666 -0.000007 -0.000001 -1.672700 -0.746147 -1.284335
    18 10.904945 -0.000010 0.000005 -0.000002 0.000001 -1.350743
    19 10.565873 0.000007 -0.000039 0.371184 -0.009840 0.229250
    20 3.464128 0.088918 -0.780277 -0.266522 0.272889 -0.114263
    21 1.149900 0.000003 -0.000004 0.000000 -0.053881 0.012281
    22 3.616511 0.088098 -0.193359 -0.074871 0.173485 -0.083578
    23 3.507639 -0.030214 0.336394 0.087874 -0.039626 -0.002228
    24 3.709199 0.065914 0.920438 0.315356 -0.197665 -0.104771
    25 0.820752 -0.193685 0.888225 -1.372855 -0.498548 -0.474342
    26 1.123152 -0.000001 0.000007 0.000000 -0.012010 0.116354
    27 2.023577 0.907747 -0.852531 -3.374661 1.221184 1.242760
    28 4.983664 -0.000003 -0.000002 1.927310 0.088458 -0.868064
    29 10.904955 -0.000001 -0.000006 0.000002 0.000000 -2.031772
    30 10.565878 0.000005 0.000008 -0.489644 -0.091763 0.072290
    31 3.464089 0.095510 0.779503 0.265534 -0.273843 -0.111899
    32 1.149893 -0.000003 -0.000006 0.000000 0.053975 0.011863
    33 3.616475 0.089731 0.192608 0.074650 -0.174185 -0.082089
    34 3.507608 -0.033062 -0.336132 -0.087881 0.039606 -0.002554
    35 3.709165 0.058125 -0.920976 -0.315627 0.196774 -0.106443
    36 0.820727 -0.201217 -0.886563 1.300502 0.122960 -0.720452
    37 1.123138 -0.000003 0.000006 -0.000006 0.012724 0.116279
    38 1.321866 0.000002 0.000005 0.000000 0.046519 -0.073857
    39 0.977462 0.000001 0.000002 0.000000 0.011737 -0.061857
    40 0.860968 -0.000003 -0.000002 0.000000 -0.000207 -0.180622
    41 1.575051 -0.000005 0.000008 0.000000 -0.055713 -0.133233
    42 1.060835 -0.000005 -0.000002 0.000000 0.054561 -0.056841
    43 1.321869 -0.000001 0.000007 0.000000 -0.047130 -0.073469
    44 0.977462 0.000000 -0.000007 0.000000 -0.012250 -0.061757
    45 0.860973 0.000000 0.000000 0.000000 -0.000893 -0.180620
  time 27
    0 25.728331 13.823854 17.655772 1.437166 -0.022711 -0.338730
    1 0.000000 0.000001 0.000000 0.000000 0.000000 0.000000
    2 3.984023 0.000014 0.000008 -2.848929 -1.438637 -0.261084
    3 19.319881 0.000007 0.000002 0.000000 0.000000 2.037881
    4 16.701584 0.000027 -0.000001 0.017735 -0.007710 -0.919125
    5 6.534991 -0.000007 0.000001 -0.005401 -0.004871 -1.089339
    6 -3.984016 0.000009 0.000009 -0.774172 -0.512663 -2.146711
    7 19.319883 0.000006 -0.000003 0.000000 0.000000 2.465609
    8 16.701590 0.000005 0.000001 -0.112232 0.271176 -2.191504
    9 6.534990 0.000001 -0.000004 -0.079704 -0.004877 -1.089339
    10 0.000005 4.212782 -1.689685 1.570508 -0.282756 1.604783
    11 3.620123 -0.000001 0.000000 -0.065817 -0.042438 0.295802
    12 3.445713 -0.000002 0.000001 -0.066167 -0.041886 0.332217
    13 7.391215 0.000002 0.000001 0.068025 -0.007142 0.227595
    14 3.178820 -0.000007 -0.000001 3.141590 0.000000 0.364769
    15 3.706908 0.000011 0.000002 0.299598 0.037529 0.722494
    16 2.023576 0.907751 0.852530 3.897537 -1.361367 0.647867
    17 4.983666 -0.000007 -0.000001 -2.004541 -0.644497 -0.944887
    18 10.904945 -0.000010 0.000005 -0.000002 0.000001 -1.580689
    19 10.565873 0.000007 -0.000039 0.370588 -0.008764 0.242862
    20 3.464128 0.088918 -0.780277 -0.266522 0.272889 -0.114263
    21 1.149900 0.000003 -0.000004 0.000000 -0.053881 0.012281
    22 3.616511 0.088098 -0.193359 -0.074871 0.173485 -0.083578
    23 3.507639 -0.030214 0.336394 0.087874 -0.039626 -0.002228
    24 3.709199 0.065914 0.920438 0.315356 -0.197665 -0.104771
    25 0.820752 -0.193685 0.888225 -1.372855 -0.498548 -0.474342
    26 1.123152 -0.000001 0.000007 0.000000 -0.012010 0.116354
    27 2.023577 0.907747 -0.852531 -3.598522 1.193990 1.030641
    28 4.983664 -0.000003 -0.000002 1.810932 0.415817 -1.023676
    29 10.904955 -0.000001 -0.000006 0.000002 0.000000 -1.885714
    30 10.565878 0.000005 0.000008 -0.489644 -0.091763 0.072290
    31 3.464089 0.095510 0.779503 0.265534 -0.273843 -0.111899
    32 1.149893 -0.000003 -0.000006 0.000000 0.053975 0.011863
    33 3.616475 0.089731 0.192608 0.074650 -0.174185 -0.082089
    34 3.507608 -0.033062 -0.336132 -0.087881 0.039606 -0.002554
    35 3.709165 0.058125 -0.920976 -0.315627 0.196774 -0.106443
    36 0.820727 -0.201217 -0.886563 1.300502 0.122960 -0.720452
    37 1.123138 -0.000003 0.000006 -0.000006 0.012724 0.116279
    38 1.321866 0.000002 0.000005 0.000000 0.046519 -0.073857
    39 0.977462 0.000001 0.000002 0.000000 0.011737 -0.061857
    40 0.860968 -0.000003 -0.000002 0.000000 -0.000207 -0.180622
    41 1.575051 -0.000005 0.000008 0.000000 -0.055713 -0.133233
    42 1.060835 -0.000005 -0.000002 0.000000 0.054561 -0.056841
    43 1.321869 -0.000001 0.000007 0.000000 -0.047130 -0.073469
    44 0.977462 0.000000 -0.000007 0.000000 -0.012250 -0.061757
    45 0.860973 0.000000 0.000000 0.000000 -0.000893 -0.180620
  time 28
    0 26.400586 13.625504 12.854997 1.285891 -0.017783 -0.432205
    1 0.000000 0.000001 0.000000 0.000000 0.000000 0.000000
    2 3.984023 0.000014 0.000008 -3.507405 -1.417623 0.487342
    3 19.319881 0.000007 0.000002 0.000000 0.000000 2.311849
    4 16.701584 0.000027 -0.000001 0.091606 0.041366 -1.036629
    5 6.534991 -0.000007 0.000001 -0.005401 -0.004871 -1.089339
    6 -3.984016 0.000009 0.000009 -0.612237 -0.269641 -2.196925
    7 19.319883 0.000006 -0.000003 0.000000 0.000000 2.755312
    8 16.701590 0.000005 0.000001 -0.149882 0.234168 -2.446315
    9 6.534990 0.000001 -0.000004 -0.079704 -0.004877 -1.089339
    10 0.000005 4.212782 -1.689685 1.566194 -0.226179 1.610775
    11 3.620123 -0.000001 0.000000 -0.092532 -0.061554 0.280543
    12 3.445713 -0.000002 0.000001 -0.093024 -0.060786 0.369665
    13 7.391215 0.000002 0.000001 0.077816 -0.010593 0.194529
    14 3.178820 -0.000007 -0.000001 3.141590 0.000000 0.364769
    15 3.706908 0.000011 0.000002 0.376946 0.056922 0.507281
    16 2.023576 0.907751 0.852530 4.162498 -1.282498 0.389110
    17 4.983666 -0.000007 -0.000001 -2.185978 -0.503489 -0.809417
    18 10.904945 -0.000010 0.000005 -0.000002 0.000001 -1.553725
    19 10.565873 0.000007 -0.000039 0.370313 -0.008272 0.249370
    20 3.464128 0.088918 -0.780277 -0.266522 0.272889 -0.114263
    21 1.149900 0.000003 -0.000004 0.000000 -0.053881 0.012281
    22 3.616511 0.088098 -0.193359 -0.074871 0.173485 -0.083578
    23 3.507639 -0.030214 0.336394 0.087874 -0.039626 -0.002228
    24 3.709199 0.065914 0.920438 0.315356 -0.197665 -0.104771
    25 0.820752 -0.193685 0.888225 -1.372855 -0.498548 -0.474342
    26 1.123152 -0.000001 0.000007 0.000000 -0.012010 0.116354
    27 2.023577 0.907747 -0.852531 -3.823907 1.140740 0.819765
    28 4.983664 -0.000003 -0.000002 1.629199 0.655153 -1.404375
    29 10.904955 -0.000001 -0.000006 0.000002 0.000000 -1.689425
    30 10.565878 0.000005 0.000008 -0.489644 -0.091763 0.072290
    31 3.464089 0.095510 0.779503 0.265534 -0.273843 -0.111899
    32 1.149893 -0.000003 -0.000006 0.000000 0.053975 0.011863
    33 3.616475 0.089731 0.192608 0.074650 -0.174185 -0.082089
    34 3.507608 -0.033062 -0.336132 -0.087881 0.039606 -0.002554
    35 3.709165 0.058125 -0.920976 -0.315627 0.196774 -0.106443
    36 0.820727 -0.201217 -0.886563 1.300502 0.122960 -0.720452
    37 1.123138 -0.000003 0.000006 -0.000006 0.012724 0.116279
    38 1.321866 0.000002 0.000005 0.000000 0.046519 -0.073857
    39 0.977462 0.000001 0.000002 0.000000 0.011737 -0.061857
    40 0.860968 -0.000003 -0.000002 0.000000 -0.000207 -0.180622
    41 1.575051 -0.000005 0.000008 0.000000 -0.055713 -0.133233
    42 1.060835 -0.000005 -0.000002 0.000000 0.054561 -0.056841
    43 1.321869 -0.000001 0.000007 0.000000 -0.047130 -0.073469
    44 0.977462 0.000000 -0.000007 0.000000 -0.012250 -0.061757
    45 0.860973 0.000000 0.000000 0.000000 -0.000893 -0.180620
  time 29
    0 26.820346 13.237736 11.608176 1.221165 -0.018726 -0.462483
    1 0.000000 0.000001 0.000000 0.000000 0.000000 0.000000
    2 3.984023 0.000014 0.000008 -3.509891 -1.393568 0.506022
    3 19.319881 0.000007 0.000002 0.000000 0.000000 2.375629
    4 16.701584 0.000027 -0.000001 0.092669 0.041423 -1.063514
    5 6.534991 -0.000007 0.000001 -0.005401 -0.004871 -1.089339
    6 -3.984016 0.000009 0.000009 -0.696799 -0.179157 -2.123467
    7 19.319883 0.000006 -0.000003 0.000000 0.000000 2.835346
    8 16.701590 0.000005 0.000001 -0.142080 0.220382 -2.595933
    9 6.534990 0.000001 -0.000004 -0.079704 -0.004877 -1.089339
    10 0.000005 4.212782 -1.689685 1.549416 -0.189728 1.615281
    11 3.620123 -0.000001 0.000000 -0.116795 -0.066384 0.253227
    12 3.445713 -0.000002 0.000001 -0.117365 -0.065424 0.358224
    13 7.391215 0.000002 0.000001 0.065652 -0.008940 0.175390
    14 3.178820 -0.000007 -0.000001 3.141590 0.000000 0.364769
    15 3.706908 0.000011 0.000002 0.419454 0.073926 0.481815
    16 2.023576 0.907751 0.852530 4.162498 -1.282498 0.389110
    17 4.983666 -0.000007 -0.000001 -2.123436 -0.337426 -0.906806
    18 10.904945 -0.000010 0.000005 -0.000002 0.000001 -1.553725
    19 10.565873 0.000007 -0.000039 0.370313 -0.008272 0.249370
    20 3.464128 0.088918 -0.780277 -0.266522 0.272889 -0.114263
    21 1.149900 0.000003 -0.000004 0.000000 -0.053881 0.012281
    22 3.616511 0.088098 -0.193359 -0.074871 0.173485 -0.083578
    23 3.507639 -0.030214 0.336394 0.087874 -0.039626 -0.002228
    24 3.709199 0.065914 0.920438 0.315356 -0.197665 -0.104771
    25 0.820752 -0.193685 0.888225 -1.372855 -0.498548 -0.474342
    26 1.123152 -0.000001 0.000007 0.000000 -0.012010 0.116354
    27 2.023577 0.907747 -0.852531 -3.823907 1.140740 0.819765
    28 4.983664 -0.000003 -0.000002 1.425777 0.718936 -1.499618
    29 10.904955 -0.000001 -0.000006 0.000002 0.000000 -1.574880
    30 10.565878 0.000005 0.000008 -0.489644 -0.091763 0.072290
    31 3.464089 0.095510 0.779503 0.265534 -0.273843 -0.111899
    32 1.149893 -0.000003 -0.000006 0.000000 0.053975 0.011863
    33 3.616475 0.089731 0.192608 0.074650 -0.174185 -0.082089
    34 3.507608 -0.033062 -0.336132 -0.087881 0.039606 -0.002554
    35 3.709165 0.058125 -0.920976 -0.315627 0.196774 -0.106443
    36 0.820727 -0.201217 -0.886563 1.300502 0.122960 -0.720452
    37 1.123138 -0.000003 0.000006 -0.000006 0.012724 0.116279
    38 1.321866 0.000002 0.000005 0.000000 0.046519 -0.073857
    39 0.977462 0.000001 0.000002 0.000000 0.011737 -0.061857
    40 0.860968 -0.000003 -0.000002 0.000000 -0.000207 -0.180622
    41 1.575051 -0.000005 0.000008 0.000000 -0.055713 -0.133233
    42 1.060835 -0.000005 -0.000002 0.000000 0.054561 -0.056841
    43 1.321869 -0.000001 0.000007 0.000000 -0.047130 -0.073469
    44 0.977462 0.000000 -0.000007 0.000000 -0.012250 -0.061757
    45 0.860973 0.000000 0.000000 0.000000 -0.000893 -0.180620
  time 30
    0 26.968079 12.547265 12.880120 1.228223 -0.018641 -0.459088
    1 0.000000 0.000001 0.000000 0.000000 0.000000 0.000000
    2 3.984023 0.000014 0.000008 -2.995980 -1.395111 -0.046685
    3 19.319881 0.000007 0.000002 0.000000 0.000000 2.362082
    4 16.701584 0.000027 -0.000001 0.112368 0.017390 -1.147523
    5 6.534991 -0.000007 0.000001 -0.005401 -0.004871 -1.089339
    6 -3.984016 0.000009 0.000009 -0.744188 -0.170205 -2.222210
    7 19.319883 0.000006 -0.000003 0.000000 0.000000 2.758564
    8 16.701590 0.000005 0.000001 -0.092794 0.131255 -2.447598
    9 6.534990 0.000001 -0.000004 -0.079704 -0.004877 -1.089339
    10 0.000005 4.212782 -1.689685 1.524010 -0.161807 1.617774
    11 3.620123 -0.000001 0.000000 -0.142488 -0.066647 0.217382
    12 3.445713 -0.000002 0.000001 -0.143012 -0.065472 0.320565
    13 7.391215 0.000002 0.000001 0.038902 -0.005296 0.163549
    14 3.178820 -0.000007 -0.000001 3.141590 0.000000 0.364769
    15 3.706908 0.000011 0.000002 0.531984 0.117631 0.416908
    16 2.023576 0.907751 0.852530 4.162498 -1.282498 0.389110
    17 4.983666 -0.000007 -0.000001 -2.116011 -0.203323 -0.961923
    18 10.904945 -0.000010 0.000005 -0.000002 0.000001 -1.553725
    19 10.565873 0.000007 -0.000039 0.370359 -0.008272 0.249370
    20 3.464128 0.088918 -0.780277 -0.266522 0.272889 -0.114263
    21 1.149900 0.000003 -0.000004 0.000000 -0.053881 0.012281
    22 3.616511 0.088098 -0.193359 -0.074871 0.173485 -0.083578
    23 3.507639 -0.030214 0.336394 0.087874 -0.039626 -0.002228
    24 3.709199 0.065914 0.920438 0.315356 -0.197665 -0.104771
    25 0.820752 -0.193685 0.888225 -1.372855 -0.498548 -0.474342
    26 1.123152 -0.000001 0.000007 0.000000 -0.012010 0.116354
    27 2.023577 0.907747 -0.852531 -3.823907 1.140740 0.819765
    28 4.983664 -0.000003 -0.000002 1.260097 0.773438 -1.528118
    29 10.904955 -0.000001 -0.000006 0.000002 0.000000 -1.557878
    30 10.565878 0.000005 0.000008 -0.489644 -0.091763 0.072290
    31 3.464089 0.095510 0.779503 0.265534 -0.273843 -0.111899
    32 1.149893 -0.000003 -0.000006 0.000000 0.053975 0.011863
    33 3.616475 0.089731 0.192608 0.074650 -0.174185 -0.082089
    34 3.507608 -0.033062 -0.336132 -0.087881 0.039606 -0.002554
    35 3.709165 0.058125 -0.920976 -0.315627 0.196774 -0.106443
    36 0.820727 -0.201217 -0.886563 1.300502 0.122960 -0.720452
    37 1.123138 -0.000003 0.000006 -0.000006 0.012724 0.116279
    38 1.321866 0.000002 0.000005 0.000000 0.046519 -0.073857
    39 0.977462 0.000001 0.000002 0.000000 0.011737 -0.061857
    40 0.860968 -0.000003 -0.000002 0.000000 -0.000207 -0.180622
    41 1.575051 -0.000005 0.000008 0.000000 -0.055713 -0.133233
    42 1.060835 -0.000005 -0.000002 0.000000 0.054561 -0.056841
    43 1.321869 -0.000001 0.000007 0.000000 -0.047130 -0.073469
    44 0.977462 0.000000 -0.000007 0.000000 -0.012250 -0.061757
    45 0.860973 0.000000 0.000000 0.000000 -0.000893 -0.180620
  time 31
    0 26.968078 12.547265 18.044341 1.264254 -0.018083 -0.442204
    1 0.000000 0.000001 0.000000 0.000000 0.000000 0.000000
    2 3.984023 0.000014 0.000008 -2.482164 -1.357440 -0.602114
    3 19.319881 0.000007 0.000002 0.000000 0.000000 2.304108
    4 16.701584 0.000027 -0.000001 0.126442 -0.002521 -1.214662
    5 6.534991 -0.000007 0.000001 -0.005401 -0.004871 -1.089339
    6 -3.984016 0.000009 0.000009 -0.744850 -0.187149 -2.299571
    7 19.319883 0.000006 -0.000003 0.000000 0.000000 2.632511
    8 16.701590 0.000005 0.000001 -0.061462 0.073152 -2.271175
    9 6.534990 0.000001 -0.000004 -0.079704 -0.004877 -1.089339
    10 0.000005 4.212782 -1.689685 1.500712 -0.143874 1.618781
    11 3.620123 -0.000001 0.000000 -0.162767 -0.064922 0.186163
    12 3.445713 -0.000002 0.000001 -0.163326 -0.063566 0.280531
    13 7.391215 0.000002 0.000001 0.012140 -0.001653 0.157425
    14 3.178820 -0.000007 -0.000001 3.141590 0.000000 0.364769
    15 3.706908 0.000011 0.000002 0.675479 0.170308 0.339327
    16 2.023576 0.907751 0.852530 4.162498 -1.282498 0.389110
    17 4.983666 -0.000007 -0.000001 -2.130290 -0.115286 -0.991258
    18 10.904945 -0.000010 0.000005 -0.000002 0.000001 -1.553725
    19 10.565873 0.000007 -0.000039 0.370313 -0.008272 0.249370
    20 3.464128 0.088918 -0.780277 -0.266522 0.272889 -0.114263
    21 1.149900 0.000003 -0.000004 0.000000 -0.053881 0.012281
    22 3.616511 0.088098 -0.193359 -0.074871 0.173485 -0.083578
    23 3.507639 -0.030214 0.336394 0.087874 -0.039626 -0.002228
    24 3.709199 0.065914 0.920438 0.315356 -0.197665 -0.104771
    25 0.820752 -0.193685 0.888225 -1.372855 -0.498548 -0.474342
    26 1.123152 -0.000001 0.000007 0.000000 -0.012010 0.116354
    27 2.023577 0.907747 -0.852531 -3.823907 1.140740 0.819765
    28 4.983664 -0.000003 -0.000002 1.155471 0.838159 -1.491696
    29 10.904955 -0.000001 -0.000006 0.000002 0.000000 -1.582522
    30 10.565878 0.000005 0.000008 -0.489644 -0.091763 0.072290
    31 3.464089 0.095510 0.779503 0.265534 -0.273843 -0.111899
    32 1.149893 -0.000003 -0.000006 0.000000 0.053975 0.011863
    33 3.616475 0.089731 0.192608 0.074650 -0.174185 -0.082089
    34 3.507608 -0.033062 -0.336132 -0.087881 0.039606 -0.002554
    35 3.709165 0.058125 -0.920976 -0.315627 0.196774 -0.106443
    36 0.820727 -0.201217 -0.886563 1.300502 0.122960 -0.720452
    37 1.123138 -0.000003 0.000006 -0.000006 0.012724 0.116279
    38 1.321866 0.000002 0.000005 0.000000 0.046519 -0.073857
    39 0.977462 0.000001 0.000002 0.000000 0.011737 -0.061857
    40 0.860968 -0.000003 -0.000002 0.000000 -0.000207 -0.180622
    41 1.575051 -0.000005 0.000008 0.000000 -0.055713 -0.133233
    42 1.060835 -0.000005 -0.000002 0.000000 0.054561 -0.056841
    43 1.321869 -0.000001 0.000007 0.000000 -0.047130 -0.073469
    44 0.977462 0.000000 -0.000007 0.000000 -0.012250 -0.061757
    45 0.860973 0.000000 0.000000 0.000000 -0.000893 -0.180620
  time 32
    0 26.968078 12.547265 19.114686 1.285891 -0.017783 -0.432205
    1 0.000000 0.000001 0.000000 0.000000 0.000000 0.000000
    2 3.984023 0.000014 0.000008 -2.311402 -1.329618 -0.789666
    3 19.319881 0.000007 0.000002 0.000000 0.000000 2.265655
    4 16.701584 0.000027 -0.000001 0.130797 -0.009958 -1.233999
    5 6.534991 -0.000007 0.000001 -0.005401 -0.004871 -1.089339
    6 -3.984016 0.000009 0.000009 -0.734918 -0.192040 -2.321041
    7 19.319883 0.000006 -0.000003 0.000000 0.000000 2.566317
    8 16.701590 0.000005 0.000001 -0.052002 0.055506 -2.196771
    9 6.534990 0.000001 -0.000004 -0.079704 -0.004877 -1.089339
    10 0.000005 4.212782 -1.689685 1.490550 -0.137538 1.618973
    11 3.620123 -0.000001 0.000000 -0.171042 -0.063771 0.172844
    12 3.445713 -0.000002 0.000001 -0.171559 -0.062356 0.261884
    13 7.391215 0.000002 0.000001 0.000000 0.000001 0.155687
    14 3.178820 -0.000007 -0.000001 3.141590 0.000000 0.364769
    15 3.706908 0.000011 0.000002 0.761218 0.199831 0.295660
    16 2.023576 0.907751 0.852530 4.162498 -1.282498 0.389110
    17 4.983666 -0.000007 -0.000001 -2.139905 -0.083474 -0.999913
    18 10.904945 -0.000010 0.000005 -0.000002 0.000001 -1.553725
    19 10.565873 0.000007 -0.000039 0.370313 -0.008241 0.249370
    20 3.464128 0.088918 -0.780277 -0.266522 0.272889 -0.114263
    21 1.149900 0.000003 -0.000004 0.000000 -0.053881 0.012281
    22 3.616511 0.088098 -0.193359 -0.074871 0.173485 -0.083578
    23 3.507639 -0.030214 0.336394 0.087874 -0.039626 -0.002228
    24 3.709199 0.065914 0.920438 0.315356 -0.197665 -0.104771
    25 0.820752 -0.193685 0.888225 -1.372855 -0.498548 -0.474342
    26 1.123152 -0.000001 0.000007 0.000000 -0.012010 0.116354
    27 2.023577 0.907747 -0.852531 -3.823907 1.140740 0.819765
    28 4.983664 -0.000003 -0.000002 1.124800 0.876913 -1.448536
    29 10.904955 -0.000001 -0.000006 0.000002 0.000000 -1.600639
    30 10.565878 0.000005 0.000008 -0.489644 -0.091763 0.072290
    31 3.464089 0.095510 0.779503 0.265534 -0.273843 -0.111899
    32 1.149893 -0.000003 -0.000006 0.000000 0.053975 0.011863
    33 3.616475 0.089731 0.192608 0.074650 -0.174185 -0.082089
    34 3.507608 -0.033062 -0.336132 -0.087881 0.039606 -0.002554
    35 3.709165 0.058125 -0.920976 -0.315627 0.196774 -0.106443
    36 0.820727 -0.201217 -0.886563 1.300502 0.122960 -0.720452
    37 1.123138 -0.000003 0.000006 -0.000006 0.012724 0.116279
    38 1.321866 0.000002 0.000005 0.000000 0.046519 -0.073857
    39 0.977462 0.000001 0.000002 0.000000 0.011737 -0.061857
    40 0.860968 -0.000003 -0.000002 0.000000 -0.000207 -0.180622
    41 1.575051 -0.000005 0.000008 0.000000 -0.055713 -0.133233
    42 1.060835 -0.000005 -0.000002 0.000000 0.054561 -0.056841
    43 1.321869 -0.000001 0.000007 0.000000 -0.047130 -0.073469
    44 0.977462 0.000000 -0.000007 0.000000 -0.012250 -0.061757
    45 0.860973 0.000000 0.000000 0.000000 -0.000893 -0.180620
end
