// Created by Crowbar 0.68
version 1
nodes
  0 "Bip01" -1
  1 "Bip01 Pelvis" 0
  2 "Bip01 Spine" 1
  3 "Bip01 Spine1" 2
  4 "Bip01 Spine2" 3
  5 "Bip01 Spine3" 4
  6 "Bip01 Neck" 5
  7 "Bip01 Head" 6
  8 "Dummy14" 7
  9 "Bip01 L Clavicle" 6
  10 "Bip01 L UpperArm" 9
  11 "Bip01 L Forearm" 10
  12 "Bip01 L Hand" 11
  13 "Bip01 L Finger0" 12
  14 "Bip01 L Finger01" 13
  15 "Bip01 L Finger02" 14
  16 "Bip01 L Finger1" 12
  17 "Bip01 L Finger11" 16
  18 "Bip01 L Finger12" 17
  19 "Bip01 L Finger2" 12
  20 "Bip01 L Finger21" 19
  21 "Bip01 L Finger22" 20
  22 "Bip01 L Finger3" 12
  23 "Bip01 L Finger31" 22
  24 "Bip01 L Finger32" 23
  25 "Bip01 L Finger4" 12
  26 "Bip01 L Finger41" 25
  27 "Bip01 L Finger42" 26
  28 "Bip01 R Clavicle" 6
  29 "Bip01 R UpperArm" 28
  30 "Bip01 R Forearm" 29
  31 "Bip01 R Hand" 30
  32 "Bip01 R Finger0" 31
  33 "Bip01 R Finger01" 32
  34 "Bip01 R Finger02" 33
  35 "Bip01 R Finger1" 31
  36 "Bip01 R Finger11" 35
  37 "Bip01 R Finger12" 36
  38 "Bip01 R Finger2" 31
  39 "Bip01 R Finger21" 38
  40 "Bip01 R Finger22" 39
  41 "Bip01 R Finger3" 31
  42 "Bip01 R Finger31" 41
  43 "Bip01 R Finger32" 42
  44 "Bip01 R Finger4" 31
  45 "Bip01 R Finger41" 44
  46 "Bip01 R Finger42" 45
  47 "ValveBiped.Bip01_R_Hand" 31
  48 "Bip01 L Thigh" 2
  49 "Bip01 L Calf" 48
  50 "Bip01 L Foot" 49
  51 "Bip01 L Toe0" 50
  52 "Bip01 L Toe01" 51
  53 "Bip01 L Toe02" 52
  54 "Bip01 R Thigh" 2
  55 "Bip01 R Calf" 54
  56 "Bip01 R Foot" 55
  57 "Bip01 R Toe0" 56
  58 "Bip01 R Toe01" 57
  59 "Bip01 R Toe02" 58
  60 "Dummy22" 2
  61 "sniper" 31
end
skeleton
  time 0
    0 0.383943 0.967332 37.505188 -0.012847 -0.077324 -2.175330
    1 -1.760073 -0.457046 0.000004 0.000000 -1.524622 -1.570771
    2 4.429509 -0.004191 0.202800 -0.012775 -0.001866 0.175172
    3 5.339104 -0.005482 -0.000121 0.022016 -0.094272 0.123595
    4 6.941218 -0.005110 0.000127 -0.024293 -0.089285 0.249010
    5 6.620842 -0.004572 0.000556 -0.117261 0.033474 0.254584
    6 5.979036 -0.000998 -0.000001 0.000000 0.000000 0.017453
    7 1.252576 0.000001 -0.000001 0.693911 0.167340 -0.567159
    8 -3.731840 9.544965 0.014182 0.000000 0.000001 -1.675515
    9 0.000006 0.000991 2.684133 -0.516089 -0.967825 -2.722718
    10 7.524253 0.000000 -0.000004 -0.718688 0.324673 -0.683756
    11 11.423452 0.000000 -0.000002 0.000002 0.000021 -1.658058
    12 13.479674 -0.000003 -0.000003 -2.773970 0.038645 0.801041
    13 2.050500 0.662485 -1.659292 1.055273 0.885596 0.919630
    14 1.066192 0.000003 0.000000 0.000008 0.000008 -0.000016
    15 1.466010 0.000002 0.000000 -0.000002 -0.000003 -0.000001
    16 5.193863 -0.001293 -1.622129 -0.000865 0.401426 -0.000338
    17 1.525715 0.000000 0.000002 -0.000002 -0.000009 0.000018
    18 1.473169 0.000002 0.000001 0.000002 0.000002 0.000029
    19 4.977361 -0.298621 -0.436307 0.047536 0.133062 0.281524
    20 2.175559 -0.000003 0.000001 -0.000005 -0.000008 0.000016
    21 1.705901 0.000005 -0.000004 0.000004 -0.000002 0.000001
    22 5.227221 -0.016871 0.516781 -0.076770 -0.195058 0.374095
    23 1.850600 0.000000 0.000001 -0.000001 -0.000003 0.174565
    24 1.530744 0.000001 0.000002 0.000002 -0.000007 0.174569
    25 5.193863 0.001291 1.622131 -0.227874 -0.333403 0.614599
    26 1.485048 -0.000002 0.000000 0.000000 -0.000004 0.349044
    27 1.294659 -0.000002 -0.000001 0.000002 -0.000005 0.349061
    28 0.000005 0.001007 -2.684132 0.161953 1.075374 -3.017104
    29 7.524247 0.000001 0.000003 -0.354908 0.126042 -0.900078
    30 11.423457 -0.000001 -0.000003 0.000009 -0.000007 -2.109522
    31 13.708152 0.000001 0.000003 2.564880 -0.038020 0.509341
    32 1.195829 -0.033343 1.114693 -1.282531 -0.846341 0.949452
    33 1.294660 0.000001 0.000002 0.000002 -0.000011 0.000001
    34 2.182009 0.000002 -0.000003 -0.000011 0.000013 -0.000009
    35 4.895140 -0.386530 1.693284 -0.311646 -0.228062 0.960828
    36 1.507895 0.000002 -0.000001 0.000005 0.000002 0.698129
    37 1.370815 -0.000001 0.000004 -0.000001 -0.000005 0.698099
    38 5.141362 -0.100724 0.541388 -0.111291 -0.084496 0.929676
    39 1.759213 0.000001 0.000002 -0.000003 0.000001 0.698092
    40 1.599285 -0.000002 -0.000004 0.000001 0.000007 0.698117
    41 5.079528 -0.068058 -0.623692 0.166029 0.060351 0.926077
    42 1.688843 -0.000003 0.000002 -0.000003 0.000006 0.698095
    43 1.507898 -0.000001 0.000000 -0.000002 -0.000002 0.698132
    44 5.141361 -0.099000 -1.621452 0.349452 0.238665 0.964660
    45 1.256580 -0.000002 0.000000 -0.000004 0.000001 0.698118
    46 1.142345 -0.000004 -0.000003 0.000000 -0.000003 0.698113
    47 0.232744 -0.809297 1.175718 -3.117956 0.230511 0.116532
    48 -4.353002 0.711056 5.253956 2.486699 -0.305015 2.769387
    49 17.308262 -0.000001 0.000001 0.000012 0.000006 -0.704028
    50 15.463849 0.000002 0.000000 0.004846 -0.045754 0.166141
    51 6.097225 3.126210 -0.000760 0.000001 -0.000002 1.570796
    52 1.999104 0.000000 0.000000 0.000000 0.000000 0.000000
    53 1.999103 0.000000 0.000001 0.000000 0.000000 0.000000
    54 -4.368602 0.847811 -5.621170 -3.405896 0.118970 2.688366
    55 17.308268 0.000000 -0.000002 -0.000011 -0.000004 -0.844482
    56 15.463847 0.000001 -0.000003 -0.065054 0.163880 0.409717
    57 6.096773 3.126230 -0.001722 0.000012 -0.000002 1.570799
    58 1.999104 0.000000 0.000000 0.000000 0.000000 0.000000
    59 1.999104 0.000000 0.000000 0.000000 0.000000 0.000000
    60 5.028742 -7.322623 0.014163 0.000000 0.000001 -1.536686
    61 14.325458 4.272010 1.904472 1.421981 0.126217 -1.364846
  time 1
    0 0.614419 1.061085 35.825449 -0.010834 -0.078691 -2.114960
    1 -2.041331 -0.472672 0.000004 0.000000 -1.529223 -1.570771
    2 4.433415 -0.004191 0.183268 -0.052508 -0.012292 0.198549
    3 5.339104 -0.005482 -0.000121 0.010151 -0.088148 0.132439
    4 6.941218 -0.005110 0.000127 -0.031268 -0.086577 0.241002
    5 6.620842 -0.004572 0.000556 -0.114029 0.036206 0.236848
    6 5.979036 -0.000998 -0.000001 0.000000 0.000000 0.017453
    7 1.252576 0.000001 -0.000001 0.686659 0.173549 -0.558480
    8 -3.731840 9.544965 0.014182 0.000000 0.000001 -1.675515
    9 0.000006 0.000991 2.684133 -0.506016 -1.006483 -2.721941
    10 7.524253 0.000000 -0.000004 -0.701577 0.230545 -0.672574
    11 11.423452 0.000000 -0.000002 0.000002 0.000021 -1.645655
    12 13.479674 -0.000003 -0.000003 -2.877538 0.050652 0.720585
    13 2.050500 0.662485 -1.659292 1.055273 0.885596 0.919630
    14 1.066192 0.000003 0.000000 0.000008 0.000008 -0.000016
    15 1.466010 0.000002 0.000000 -0.000002 -0.000003 -0.000001
    16 5.193863 -0.001293 -1.622129 -0.000865 0.401426 -0.000338
    17 1.525715 0.000000 0.000002 -0.000002 -0.000009 0.000018
    18 1.473169 0.000002 0.000001 0.000002 0.000002 0.000029
    19 4.977361 -0.298621 -0.436307 0.047536 0.133062 0.281524
    20 2.175559 -0.000003 0.000001 -0.000005 -0.000008 0.000016
    21 1.705901 0.000005 -0.000004 0.000004 -0.000002 0.000001
    22 5.227221 -0.016871 0.516781 -0.073321 -0.196365 0.356368
    23 1.850600 0.000000 0.000001 -0.000001 -0.000003 0.157092
    24 1.530744 0.000001 0.000002 0.000002 -0.000007 0.157113
    25 5.193863 0.001291 1.622131 -0.215931 -0.341097 0.578511
    26 1.485048 -0.000002 0.000000 0.000000 -0.000004 0.314148
    27 1.294659 -0.000002 -0.000001 0.000002 -0.000005 0.314159
    28 0.000005 0.001007 -2.684132 0.163235 1.084292 -3.015291
    29 7.524247 0.000001 0.000003 -0.324902 0.124004 -0.990291
    30 11.423457 -0.000001 -0.000003 0.000009 -0.000007 -2.029229
    31 13.708152 0.000001 0.000003 2.592750 -0.019678 0.503975
    32 1.195829 -0.033343 1.114693 -1.282531 -0.846341 0.949452
    33 1.294660 0.000001 0.000002 0.000002 -0.000011 0.000001
    34 2.182009 0.000002 -0.000003 -0.000011 0.000013 -0.000009
    35 4.895140 -0.386530 1.693284 -0.295440 -0.248934 0.892281
    36 1.507895 0.000002 -0.000001 0.000005 0.000002 0.628317
    37 1.370815 -0.000001 0.000004 -0.000001 -0.000005 0.628281
    38 5.141362 -0.100724 0.541388 -0.105127 -0.092047 0.859981
    39 1.759213 0.000001 0.000002 -0.000003 0.000001 0.628298
    40 1.599285 -0.000002 -0.000004 0.000001 0.000007 0.628310
    41 5.079528 -0.068058 -0.623692 0.161474 0.071748 0.857035
    42 1.688843 -0.000003 0.000002 -0.000003 0.000006 0.628293
    43 1.507898 -0.000001 0.000000 -0.000002 -0.000002 0.628278
    44 5.141361 -0.099000 -1.621452 0.332604 0.262022 0.896763
    45 1.256580 -0.000002 0.000000 -0.000004 0.000001 0.628300
    46 1.142345 -0.000004 -0.000003 0.000000 -0.000003 0.628315
    47 0.232744 -0.809297 1.175718 -3.117956 0.230511 0.116532
    48 -4.278781 0.601678 5.347709 2.550108 -0.392288 2.605807
    49 17.308262 -0.000001 0.000001 0.000000 0.000006 -0.959484
    50 15.463849 0.000002 0.000000 0.008019 -0.032856 0.276214
    51 6.097225 3.126210 -0.000760 0.000001 -0.000002 1.570796
    52 1.999104 0.000000 0.000000 0.000000 0.000000 0.000000
    53 1.999103 0.000000 0.000001 0.000000 0.000000 0.000000
    54 -4.407666 1.168133 -5.511792 -3.434684 0.096279 2.648872
    55 17.308268 0.000000 -0.000002 -0.000011 -0.000004 -1.021171
    56 15.463847 0.000001 -0.000003 -0.098872 0.184094 0.355046
    57 6.096773 3.126230 -0.001722 0.000012 -0.000002 1.824002
    58 1.999104 0.000000 0.000000 0.000000 0.000000 0.000000
    59 1.999104 0.000000 0.000000 0.000000 0.000000 0.000000
    60 5.028742 -7.322623 0.014163 0.000000 0.000001 -1.536686
    61 14.325458 4.272010 1.904472 1.421981 0.126217 -1.364846
  time 2
    0 0.840988 1.154838 34.141804 -0.008821 -0.080200 -2.054506
    1 -2.318683 -0.472672 0.000004 0.000000 -1.533824 -1.570771
    2 4.433415 -0.004191 0.163737 -0.092208 -0.021712 0.222476
    3 5.339104 -0.005482 -0.000121 -0.001654 -0.081940 0.141212
    4 6.941218 -0.005110 0.000127 -0.038255 -0.083940 0.232982
    5 6.620842 -0.004572 0.000556 -0.110831 0.038987 0.219141
    6 5.979036 -0.000998 -0.000001 0.000000 0.000000 0.017453
    7 1.252576 0.000001 -0.000001 0.679707 0.180793 -0.548575
    8 -3.731840 9.544965 0.014182 0.000000 0.000001 -1.675515
    9 0.000006 0.000991 2.684133 -0.495625 -1.045349 -2.722373
    10 7.524253 0.000000 -0.000004 -0.678479 0.137704 -0.653592
    11 11.423452 0.000000 -0.000002 0.000002 0.000021 -1.633253
    12 13.479674 -0.000003 -0.000003 -2.981851 0.054205 0.639245
    13 2.050500 0.662485 -1.659292 1.055273 0.885596 0.919630
    14 1.066192 0.000003 0.000000 0.000008 0.000008 -0.000016
    15 1.466010 0.000002 0.000000 -0.000002 -0.000003 -0.000001
    16 5.193863 -0.001293 -1.622129 -0.000865 0.401426 -0.000338
    17 1.525715 0.000000 0.000002 -0.000002 -0.000009 0.000018
    18 1.473169 0.000002 0.000001 0.000002 0.000002 0.000029
    19 4.977361 -0.298621 -0.436307 0.047536 0.133062 0.281524
    20 2.175559 -0.000003 0.000001 -0.000005 -0.000008 0.000016
    21 1.705901 0.000005 -0.000004 0.000004 -0.000002 0.000001
    22 5.227221 -0.016871 0.516781 -0.069848 -0.197611 0.338605
    23 1.850600 0.000000 0.000001 -0.000001 -0.000003 0.139656
    24 1.530744 0.000001 0.000002 0.000002 -0.000007 0.139656
    25 5.193863 0.001291 1.622131 -0.203681 -0.348371 0.542245
    26 1.485048 -0.000002 0.000000 0.000000 -0.000004 0.279252
    27 1.294659 -0.000002 -0.000001 0.000002 -0.000005 0.279257
    28 0.000005 0.001007 -2.684132 0.164517 1.093210 -3.013479
    29 7.524247 0.000001 0.000003 -0.294465 0.120478 -1.080915
    30 11.423457 -0.000001 -0.000003 0.000009 -0.000007 -1.948935
    31 13.708152 0.000001 0.000003 2.620526 -0.001192 0.499163
    32 1.195829 -0.033343 1.114693 -1.282531 -0.846341 0.949452
    33 1.294660 0.000001 0.000002 0.000002 -0.000011 0.000001
    34 2.182009 0.000002 -0.000003 -0.000011 0.000013 -0.000009
    35 4.895140 -0.386530 1.693284 -0.277703 -0.268686 0.823013
    36 1.507895 0.000002 -0.000001 0.000005 0.000002 0.558504
    37 1.370815 -0.000001 0.000004 -0.000001 -0.000005 0.558462
    38 5.141362 -0.100724 0.541388 -0.098463 -0.099142 0.790223
    39 1.759213 0.000001 0.000002 -0.000003 0.000001 0.558504
    40 1.599285 -0.000002 -0.000004 0.000001 0.000007 0.558503
    41 5.079528 -0.068058 -0.623692 0.156133 0.082794 0.787923
    42 1.688843 -0.000003 0.000002 -0.000003 0.000006 0.558491
    43 1.507898 -0.000001 0.000000 -0.000002 -0.000002 0.558505
    44 5.141361 -0.099000 -1.621452 0.314080 0.284215 0.828045
    45 1.256580 -0.000002 0.000000 -0.000004 0.000001 0.558502
    46 1.142345 -0.000004 -0.000003 0.000000 -0.000003 0.558494
    47 0.232744 -0.809297 1.175718 -3.117956 0.230511 0.116532
    48 -4.208466 0.484487 5.433649 2.622410 -0.455225 2.451888
    49 17.308262 -0.000001 0.000001 0.000000 0.000006 -1.160025
    50 15.463849 0.000002 0.000000 0.008045 -0.020399 0.354379
    51 6.097225 3.126210 -0.000760 0.000001 -0.000002 1.570796
    52 1.999104 0.000000 0.000000 0.000000 0.000000 0.000000
    53 1.999103 0.000000 0.000001 0.000000 0.000000 0.000000
    54 -4.438917 1.480643 -5.394601 -3.462898 0.072740 2.608352
    55 17.308268 0.000000 -0.000002 -0.000011 -0.000004 -1.205769
    56 15.463847 0.000001 -0.000003 -0.076679 0.222735 0.585027
    57 6.096773 3.126230 -0.001722 0.000012 -0.000002 1.835795
    58 1.999104 0.000000 0.000000 0.000000 0.000000 0.000000
    59 1.999104 0.000000 0.000000 0.000000 0.000000 0.000000
    60 5.028742 -7.322623 0.014163 0.000000 0.000001 -1.536686
    61 14.325458 4.272010 1.904472 1.421981 0.126217 -1.364846
  time 3
    0 1.071464 1.244684 32.462065 -0.006903 -0.081850 -1.994135
    1 -2.588223 -0.460953 0.000004 0.000000 -1.538473 -1.570771
    2 4.433415 -0.004191 0.140298 -0.131843 -0.030113 0.246888
    3 5.339104 -0.005482 -0.000121 -0.013399 -0.075612 0.149913
    4 6.941218 -0.005110 0.000127 -0.045278 -0.081351 0.224947
    5 6.620842 -0.004572 0.000556 -0.107682 0.041839 0.201435
    6 5.979036 -0.000998 -0.000001 0.000000 0.000000 0.017453
    7 1.252576 0.000001 -0.000001 0.673090 0.189006 -0.537376
    8 -3.731840 9.544965 0.014182 0.000000 0.000001 -1.675515
    9 0.000006 0.000991 2.684133 -0.484442 -1.084339 -2.724444
    10 7.524253 0.000000 -0.000004 -0.649576 0.046815 -0.628556
    11 11.423452 0.000000 -0.000002 0.000002 0.000021 -1.620851
    12 13.479674 -0.000003 -0.000003 -3.086072 0.049303 0.558010
    13 2.050500 0.662485 -1.659292 1.055273 0.885596 0.919630
    14 1.066192 0.000003 0.000000 0.000008 0.000008 -0.000016
    15 1.466010 0.000002 0.000000 -0.000002 -0.000003 -0.000001
    16 5.193863 -0.001293 -1.622129 -0.000865 0.401426 -0.000338
    17 1.525715 0.000000 0.000002 -0.000002 -0.000009 0.000018
    18 1.473169 0.000002 0.000001 0.000002 0.000002 0.000029
    19 4.977361 -0.298621 -0.436307 0.047536 0.133062 0.281524
    20 2.175559 -0.000003 0.000001 -0.000005 -0.000008 0.000016
    21 1.705901 0.000005 -0.000004 0.000004 -0.000002 0.000001
    22 5.227221 -0.016871 0.516781 -0.066351 -0.198797 0.320842
    23 1.850600 0.000000 0.000001 -0.000001 -0.000003 0.122184
    24 1.530744 0.000001 0.000002 0.000002 -0.000007 0.122200
    25 5.193863 0.001291 1.622131 -0.191097 -0.355208 0.505800
    26 1.485048 -0.000002 0.000000 0.000000 -0.000004 0.244324
    27 1.294659 -0.000002 -0.000001 0.000002 -0.000005 0.244355
    28 0.000005 0.001007 -2.684132 0.165870 1.102128 -3.011580
    29 7.524247 0.000001 0.000003 -0.263168 0.115551 -1.171814
    30 11.423457 -0.000001 -0.000003 0.000009 -0.000007 -1.868642
    31 13.708152 0.000001 0.000003 2.648208 0.017409 0.494870
    32 1.195829 -0.033343 1.114693 -1.282531 -0.846341 0.949452
    33 1.294660 0.000001 0.000002 0.000002 -0.000011 0.000001
    34 2.182009 0.000002 -0.000003 -0.000011 0.000013 -0.000009
    35 4.895140 -0.386530 1.693284 -0.258500 -0.287180 0.753000
    36 1.507895 0.000002 -0.000001 0.000005 0.000002 0.488670
    37 1.370815 -0.000001 0.000004 -0.000001 -0.000005 0.488690
    38 5.141362 -0.100724 0.541388 -0.091327 -0.105757 0.720341
    39 1.759213 0.000001 0.000002 -0.000003 0.000001 0.488662
    40 1.599285 -0.000002 -0.000004 0.000001 0.000007 0.488675
    41 5.079528 -0.068058 -0.623692 0.150033 0.093445 0.718633
    42 1.688843 -0.000003 0.000002 -0.000003 0.000006 0.488688
    43 1.507898 -0.000001 0.000000 -0.000002 -0.000002 0.488692
    44 5.141361 -0.099000 -1.621452 0.293852 0.305124 0.758411
    45 1.256580 -0.000002 0.000000 -0.000004 0.000001 0.488684
    46 1.142345 -0.000004 -0.000003 0.000000 -0.000003 0.488673
    47 0.232744 -0.809297 1.175718 -3.117956 0.230511 0.116532
    48 -4.138151 0.367296 5.515683 2.703034 -0.500515 2.299083
    49 17.308262 -0.000001 0.000001 0.000012 0.000006 -1.330186
    50 15.463849 0.000002 0.000000 0.005299 -0.008611 0.413020
    51 6.097225 3.126210 -0.000760 0.000001 -0.000002 1.570796
    52 1.999104 0.000000 0.000000 0.000000 0.000000 0.000000
    53 1.999103 0.000000 0.000001 0.000000 0.000000 0.000000
    54 -4.458449 1.793153 -5.261784 -3.488339 0.047571 2.569603
    55 17.308268 0.000000 -0.000002 -0.000011 -0.000004 -1.384730
    56 15.463847 0.000001 -0.000003 -0.072051 0.255049 0.730260
    57 6.096773 3.126230 -0.001722 0.000012 -0.000002 1.847587
    58 1.999104 0.000000 0.000000 0.000000 0.000000 0.000000
    59 1.999104 0.000000 0.000000 0.000000 0.000000 0.000000
    60 5.028742 -7.322623 0.014163 0.000000 0.000001 -1.536686
    61 14.325458 4.272010 1.904472 1.421981 0.126217 -1.364846
  time 4
    0 1.298033 1.338437 30.782326 -0.005177 -0.083594 -1.933681
    1 -2.846043 -0.437514 0.000004 0.000000 -1.543074 -1.570771
    2 4.433415 -0.004191 0.120766 -0.171413 -0.037496 0.271754
    3 5.339104 -0.005482 -0.000121 -0.025084 -0.069188 0.158530
    4 6.941218 -0.005110 0.000127 -0.052301 -0.078811 0.216886
    5 6.620842 -0.004572 0.000556 -0.104582 0.044739 0.183728
    6 5.979036 -0.000998 -0.000001 0.000000 0.000000 0.017453
    7 1.252576 0.000001 -0.000001 0.666841 0.198106 -0.524742
    8 -3.731840 9.544965 0.014182 0.000000 0.000001 -1.675515
    9 0.000006 0.000991 2.684133 -0.472386 -1.123495 -2.728156
    10 7.524253 0.000000 -0.000004 -0.614748 -0.041499 -0.599101
    11 11.423452 0.000000 -0.000002 0.000002 0.000021 -1.608367
    12 13.479674 -0.000003 -0.000003 -3.189546 0.036016 0.477767
    13 2.050500 0.662485 -1.659292 1.055273 0.885596 0.919630
    14 1.066192 0.000003 0.000000 0.000008 0.000008 -0.000016
    15 1.466010 0.000002 0.000000 -0.000002 -0.000003 -0.000001
    16 5.193863 -0.001293 -1.622129 -0.000865 0.401426 -0.000338
    17 1.525715 0.000000 0.000002 -0.000002 -0.000009 0.000018
    18 1.473169 0.000002 0.000001 0.000002 0.000002 0.000029
    19 4.977361 -0.298621 -0.436307 0.047536 0.133062 0.281524
    20 2.175559 -0.000003 0.000001 -0.000005 -0.000008 0.000016
    21 1.705901 0.000005 -0.000004 0.000004 -0.000002 0.000001
    22 5.227221 -0.016871 0.516781 -0.062829 -0.199924 0.303078
    23 1.850600 0.000000 0.000001 -0.000001 -0.000003 0.104748
    24 1.530744 0.000001 0.000002 0.000002 -0.000007 0.104744
    25 5.193863 0.001291 1.622131 -0.178261 -0.361625 0.469140
    26 1.485048 -0.000002 0.000000 0.000000 -0.000004 0.209427
    27 1.294659 -0.000002 -0.000001 0.000002 -0.000005 0.209453
    28 0.000005 0.001007 -2.684132 0.167295 1.111046 -3.009594
    29 7.524247 0.000001 0.000003 -0.230581 0.109520 -1.262918
    30 11.423457 -0.000001 -0.000003 0.000009 -0.000007 -1.788349
    31 13.708152 0.000001 0.000003 2.675795 0.036125 0.491062
    32 1.195829 -0.033343 1.114693 -1.282531 -0.846341 0.949452
    33 1.294660 0.000001 0.000002 0.000002 -0.000011 0.000001
    34 2.182009 0.000002 -0.000003 -0.000011 0.000013 -0.000009
    35 4.895140 -0.386530 1.693284 -0.237864 -0.304338 0.682244
    36 1.507895 0.000002 -0.000001 0.000005 0.000002 0.418857
    37 1.370815 -0.000001 0.000004 -0.000001 -0.000005 0.418872
    38 5.141362 -0.100724 0.541388 -0.083719 -0.111869 0.650395
    39 1.759213 0.000001 0.000002 -0.000003 0.000001 0.418868
    40 1.599285 -0.000002 -0.000004 0.000001 0.000007 0.418868
    41 5.079528 -0.068058 -0.623692 0.143201 0.103646 0.649236
    42 1.688843 -0.000003 0.000002 -0.000003 0.000006 0.418848
    43 1.507898 -0.000001 0.000000 -0.000002 -0.000002 0.418879
    44 5.141361 -0.099000 -1.621452 0.272003 0.324628 0.687908
    45 1.256580 -0.000002 0.000000 -0.000004 0.000001 0.418866
    46 1.142345 -0.000004 -0.000003 0.000000 -0.000003 0.418874
    47 0.232744 -0.809297 1.175718 -3.117956 0.230511 0.116532
    48 -4.067837 0.246198 5.589904 2.790830 -0.530144 2.144978
    49 17.308262 -0.000001 0.000001 0.000000 0.000006 -1.479953
    50 15.463849 0.000002 0.000000 -0.000141 0.002261 0.456742
    51 6.097225 3.126210 -0.000760 0.000001 -0.000002 1.570796
    52 1.999104 0.000000 0.000000 0.000000 0.000000 0.000000
    53 1.999103 0.000000 0.000001 0.000000 0.000000 0.000000
    54 -4.470168 2.093943 -5.117249 -3.511963 0.021185 2.531599
    55 17.308268 0.000000 -0.000002 -0.000011 -0.000004 -1.562597
    56 15.463847 0.000001 -0.000003 -0.148085 0.251909 0.561338
    57 6.096773 3.126230 -0.001722 0.000012 -0.000002 1.909282
    58 1.999104 0.000000 0.000000 0.000000 0.000000 0.000000
    59 1.999104 0.000000 0.000000 0.000000 0.000000 0.000000
    60 5.028742 -7.322623 0.014163 0.000000 0.000001 -1.536686
    61 14.325458 4.272010 1.904472 1.421981 0.126217 -1.364846
  time 5
    0 1.528509 1.432190 29.102587 -0.003452 -0.085433 -1.873311
    1 -3.099957 -0.402357 0.000004 0.000000 -1.547723 -1.570771
    2 4.433415 -0.004191 0.101235 -0.210886 -0.043848 0.296976
    3 5.339104 -0.005482 -0.000121 -0.036721 -0.062668 0.167063
    4 6.941218 -0.005110 0.000127 -0.059360 -0.076342 0.208825
    5 6.620842 -0.004572 0.000556 -0.101532 0.047700 0.166022
    6 5.979036 -0.000998 -0.000001 0.000000 0.000000 0.017453
    7 1.252576 0.000001 -0.000001 0.660925 0.207977 -0.510708
    8 -3.731840 9.544965 0.014182 0.000000 0.000001 -1.675515
    9 0.000006 0.000991 2.684133 -0.458903 -1.162734 -2.734112
    10 7.524253 0.000000 -0.000004 -0.573692 -0.126795 -0.566974
    11 11.423452 0.000000 -0.000002 0.000002 0.000021 -1.595964
    12 13.479674 -0.000003 -0.000003 -3.291529 0.014595 0.399328
    13 2.050500 0.662485 -1.659292 1.055273 0.885596 0.919630
    14 1.066192 0.000003 0.000000 0.000008 0.000008 -0.000016
    15 1.466010 0.000002 0.000000 -0.000002 -0.000003 -0.000001
    16 5.193863 -0.001293 -1.622129 -0.000865 0.401426 -0.000338
    17 1.525715 0.000000 0.000002 -0.000002 -0.000009 0.000018
    18 1.473169 0.000002 0.000001 0.000002 0.000002 0.000029
    19 4.977361 -0.298621 -0.436307 0.047536 0.133062 0.281524
    20 2.175559 -0.000003 0.000001 -0.000005 -0.000008 0.000016
    21 1.705901 0.000005 -0.000004 0.000004 -0.000002 0.000001
    22 5.227221 -0.016871 0.516781 -0.059294 -0.200991 0.285315
    23 1.850600 0.000000 0.000001 -0.000001 -0.000003 0.087275
    24 1.530744 0.000001 0.000002 0.000002 -0.000007 0.087288
    25 5.193863 0.001291 1.622131 -0.165118 -0.367586 0.432337
    26 1.485048 -0.000002 0.000000 0.000000 -0.000004 0.174531
    27 1.294659 -0.000002 -0.000001 0.000002 -0.000005 0.174550
    28 0.000005 0.001007 -2.684132 0.168791 1.119922 -3.007609
    29 7.524247 0.000001 0.000003 -0.196321 0.102555 -1.354022
    30 11.423457 -0.000001 -0.000003 0.000009 -0.000007 -1.708055
    31 13.708152 0.000001 0.000003 2.703336 0.054956 0.487773
    32 1.195829 -0.033343 1.114693 -1.282531 -0.846341 0.949452
    33 1.294660 0.000001 0.000002 0.000002 -0.000011 0.000001
    34 2.182009 0.000002 -0.000003 -0.000011 0.000013 -0.000009
    35 4.895140 -0.386530 1.693284 -0.215909 -0.320042 0.610765
    36 1.507895 0.000002 -0.000001 0.000005 0.000002 0.349045
    37 1.370815 -0.000001 0.000004 -0.000001 -0.000005 0.349053
    38 5.141362 -0.100724 0.541388 -0.075722 -0.117430 0.580355
    39 1.759213 0.000001 0.000002 -0.000003 0.000001 0.349027
    40 1.599285 -0.000002 -0.000004 0.000001 0.000007 0.349062
    41 5.079528 -0.068058 -0.623692 0.135663 0.113354 0.579698
    42 1.688843 -0.000003 0.000002 -0.000003 0.000006 0.349045
    43 1.507898 -0.000001 0.000000 -0.000002 -0.000002 0.349066
    44 5.141361 -0.099000 -1.621452 0.248618 0.342605 0.616536
    45 1.256580 -0.000002 0.000000 -0.000004 0.000001 0.349048
    46 1.142345 -0.000004 -0.000003 0.000000 -0.000003 0.349053
    47 0.232744 -0.809297 1.175718 -3.117956 0.230511 0.116532
    48 -4.001428 0.121195 5.664125 2.884173 -0.544537 1.989015
    49 17.308262 -0.000001 0.000001 0.000012 0.000006 -1.614500
    50 15.463849 0.000002 0.000000 -0.008200 0.011793 0.487447
    51 6.097225 3.126210 -0.000760 0.000001 -0.000002 1.570796
    52 1.999104 0.000000 0.000000 0.000000 0.000000 0.000000
    53 1.999103 0.000000 0.000001 0.000000 0.000000 0.000000
    54 -4.474074 2.390827 -4.960994 -3.532908 -0.006484 2.495457
    55 17.308268 0.000000 -0.000002 -0.000011 -0.000004 -1.734575
    56 15.463847 0.000001 -0.000003 -0.237714 0.194793 0.286839
    57 6.096773 3.126230 -0.001722 0.000012 -0.000002 2.032672
    58 1.999104 0.000000 0.000000 0.000000 0.000000 0.000000
    59 1.999104 0.000000 0.000000 0.000000 0.000000 0.000000
    60 5.028742 -7.322623 0.014163 0.000000 0.000001 -1.536686
    61 14.325458 4.272010 1.904472 1.421981 0.126217 -1.364846
  time 6
    0 1.755079 1.525943 27.422849 -0.001918 -0.087366 -1.812857
    1 -3.346058 -0.355481 0.000004 0.000000 -1.552324 -1.570771
    2 4.433415 -0.004191 0.081703 -0.250245 -0.049157 0.322555
    3 5.339104 -0.005482 -0.000121 -0.048286 -0.056041 0.175524
    4 6.941218 -0.005110 0.000127 -0.066443 -0.073921 0.200737
    5 6.620842 -0.004572 0.000556 -0.098531 0.050720 0.148345
    6 5.979036 -0.000998 -0.000001 0.000000 0.000000 0.017453
    7 1.252576 0.000001 -0.000001 0.655411 0.218556 -0.495169
    8 -3.731840 9.544965 0.014182 0.000000 0.000001 -1.675515
    9 0.000006 0.000991 2.684133 -0.443595 -1.202014 -2.742658
    10 7.524253 0.000000 -0.000004 -0.525682 -0.208630 -0.533919
    11 11.423452 0.000000 -0.000002 0.000002 0.000021 -1.583562
    12 13.479674 -0.000003 -0.000003 -3.391555 -0.014642 0.323474
    13 2.050500 0.662485 -1.659292 1.055273 0.885596 0.919630
    14 1.066192 0.000003 0.000000 0.000008 0.000008 -0.000016
    15 1.466010 0.000002 0.000000 -0.000002 -0.000003 -0.000001
    16 5.193863 -0.001293 -1.622129 -0.000865 0.401426 -0.000338
    17 1.525715 0.000000 0.000002 -0.000002 -0.000009 0.000018
    18 1.473169 0.000002 0.000001 0.000002 0.000002 0.000029
    19 4.977361 -0.298621 -0.436307 0.047536 0.133062 0.281524
    20 2.175559 -0.000003 0.000001 -0.000005 -0.000008 0.000016
    21 1.705901 0.000005 -0.000004 0.000004 -0.000002 0.000001
    22 5.227221 -0.016871 0.516781 -0.055735 -0.201997 0.267514
    23 1.850600 0.000000 0.000001 -0.000001 -0.000003 0.069839
    24 1.530744 0.000001 0.000002 0.000002 -0.000007 0.069832
    25 5.193863 0.001291 1.622131 -0.151724 -0.373092 0.395356
    26 1.485048 -0.000002 0.000000 0.000000 -0.000004 0.139635
    27 1.294659 -0.000002 -0.000001 0.000002 -0.000005 0.139648
    28 0.000005 0.001007 -2.684132 0.170357 1.128840 -3.005537
    29 7.524247 0.000001 0.000003 -0.160103 0.094952 -1.445126
    30 11.423457 -0.000001 -0.000003 0.000009 -0.000007 -1.627762
    31 13.708152 0.000001 0.000003 2.730876 0.073845 0.485003
    32 1.195829 -0.033343 1.114693 -1.282531 -0.846341 0.949452
    33 1.294660 0.000001 0.000002 0.000002 -0.000011 0.000001
    34 2.182009 0.000002 -0.000003 -0.000011 0.000013 -0.000009
    35 4.895140 -0.386530 1.693284 -0.192699 -0.334212 0.538586
    36 1.507895 0.000002 -0.000001 0.000005 0.000002 0.279255
    37 1.370815 -0.000001 0.000004 -0.000001 -0.000005 0.279235
    38 5.141362 -0.100724 0.541388 -0.067309 -0.122416 0.510190
    39 1.759213 0.000001 0.000002 -0.000003 0.000001 0.279280
    40 1.599285 -0.000002 -0.000004 0.000001 0.000007 0.279233
    41 5.079528 -0.068058 -0.623692 0.127475 0.122514 0.510018
    42 1.688843 -0.000003 0.000002 -0.000003 0.000006 0.279282
    43 1.507898 -0.000001 0.000000 -0.000002 -0.000002 0.279252
    44 5.141361 -0.099000 -1.621452 0.223779 0.358935 0.544248
    45 1.256580 -0.000002 0.000000 -0.000004 0.000001 0.279271
    46 1.142345 -0.000004 -0.000003 0.000000 -0.000003 0.279232
    47 0.232744 -0.809297 1.175718 -3.117956 0.230511 0.116532
    48 -3.938927 -0.007716 5.730533 2.980673 -0.543567 1.832031
    49 17.308262 -0.000001 0.000001 0.000000 0.000006 -1.736626
    50 15.463849 0.000002 0.000000 -0.018954 0.019458 0.505837
    51 6.097225 3.126210 -0.000760 0.000001 -0.000002 1.570796
    52 1.999104 0.000000 0.000000 0.000000 0.000000 0.000000
    53 1.999103 0.000000 0.000001 0.000000 0.000000 0.000000
    54 -4.466262 2.675992 -4.796926 -3.547446 -0.036412 2.468817
    55 17.308268 0.000000 -0.000002 -0.000011 -0.000004 -1.865157
    56 15.463847 0.000001 -0.000003 -0.282758 0.115676 0.049518
    57 6.096773 3.126230 -0.001722 0.000012 -0.000002 2.094367
    58 1.999104 0.000000 0.000000 0.000000 0.000000 0.000000
    59 1.999104 0.000000 0.000000 0.000000 0.000000 0.000000
    60 5.028742 -7.322623 0.014163 0.000000 0.000001 -1.536686
    61 14.325458 4.272010 1.904472 1.421981 0.126217 -1.364846
  time 7
    0 1.981648 1.615789 25.743110 -0.000479 -0.089394 -1.752487
    1 -3.584347 -0.300791 0.000004 0.000000 -1.556973 -1.570771
    2 4.433415 -0.004191 0.062171 -0.289475 -0.053447 0.348392
    3 5.339104 -0.005482 -0.000121 -0.059803 -0.049330 0.183901
    4 6.941218 -0.005110 0.000127 -0.073537 -0.071560 0.192636
    5 6.620842 -0.004572 0.000556 -0.095580 0.053800 0.130638
    6 5.979036 -0.000998 -0.000001 0.000000 0.000000 0.017453
    7 1.252576 0.000001 -0.000001 0.650297 0.229725 -0.478055
    8 -3.731840 9.544965 0.014182 0.000000 0.000001 -1.675515
    9 0.000006 0.000991 2.684133 -0.425591 -1.241378 -2.754656
    10 7.524253 0.000000 -0.000004 -0.469872 -0.286560 -0.501956
    11 11.423452 0.000000 -0.000002 0.000002 0.000021 -1.571159
    12 13.479674 -0.000003 -0.000003 -3.489157 -0.051232 0.250876
    13 2.050500 0.662485 -1.659292 1.055273 0.885596 0.919630
    14 1.066192 0.000003 0.000000 0.000008 0.000008 -0.000016
    15 1.466010 0.000002 0.000000 -0.000002 -0.000003 -0.000001
    16 5.193863 -0.001293 -1.622129 -0.000865 0.401426 -0.000338
    17 1.525715 0.000000 0.000002 -0.000002 -0.000009 0.000018
    18 1.473169 0.000002 0.000001 0.000002 0.000002 0.000029
    19 4.977361 -0.298621 -0.436307 0.047536 0.133062 0.281524
    20 2.175559 -0.000003 0.000001 -0.000005 -0.000008 0.000016
    21 1.705901 0.000005 -0.000004 0.000004 -0.000002 0.000001
    22 5.227221 -0.016871 0.516781 -0.052164 -0.202944 0.249713
    23 1.850600 0.000000 0.000001 -0.000001 -0.000003 0.052366
    24 1.530744 0.000001 0.000002 0.000002 -0.000007 0.052375
    25 5.193863 0.001291 1.622131 -0.138107 -0.378142 0.358231
    26 1.485048 -0.000002 0.000000 0.000000 -0.000004 0.104739
    27 1.294659 -0.000002 -0.000001 0.000002 -0.000005 0.104746
    28 0.000005 0.001007 -2.684132 0.172067 1.137758 -3.003380
    29 7.524247 0.000001 0.000003 -0.121639 0.087094 -1.536161
    30 11.423457 -0.000001 -0.000003 0.000009 -0.000007 -1.547545
    31 13.708152 0.000001 0.000003 2.758416 0.092821 0.482787
    32 1.195829 -0.033343 1.114693 -1.282531 -0.846341 0.949452
    33 1.294660 0.000001 0.000002 0.000002 -0.000011 0.000001
    34 2.182009 0.000002 -0.000003 -0.000011 0.000013 -0.000009
    35 4.895140 -0.386530 1.693284 -0.168350 -0.346771 0.465728
    36 1.507895 0.000002 -0.000001 0.000005 0.000002 0.209443
    37 1.370815 -0.000001 0.000004 -0.000001 -0.000005 0.209416
    38 5.141362 -0.100724 0.541388 -0.058590 -0.126814 0.439993
    39 1.759213 0.000001 0.000002 -0.000003 0.000001 0.209486
    40 1.599285 -0.000002 -0.000004 0.000001 0.000007 0.209426
    41 5.079528 -0.068058 -0.623692 0.118637 0.131083 0.440160
    42 1.688843 -0.000003 0.000002 -0.000003 0.000006 0.209441
    43 1.507898 -0.000001 0.000000 -0.000002 -0.000002 0.209439
    44 5.141361 -0.099000 -1.621452 0.197572 0.373545 0.471139
    45 1.256580 -0.000002 0.000000 -0.000004 0.000001 0.209453
    46 1.142345 -0.000004 -0.000003 0.000000 -0.000003 0.209434
    47 0.232744 -0.809297 1.175718 -3.117956 0.230511 0.116532
    48 -3.876425 -0.140532 5.789129 3.077746 -0.526838 1.675696
    49 17.308262 -0.000001 0.000001 0.000000 0.000006 -1.847977
    50 15.463849 0.000002 0.000000 -0.032352 0.024497 0.511711
    51 6.097225 3.126210 -0.000760 0.000001 -0.000002 1.570796
    52 1.999104 0.000000 0.000000 0.000000 0.000000 0.000000
    53 1.999103 0.000000 0.000001 0.000000 0.000000 0.000000
    54 -4.450636 2.957251 -4.621140 -3.555097 -0.068385 2.454472
    55 17.308268 0.000000 -0.000002 -0.000011 -0.000004 -1.942816
    56 15.463847 0.000001 -0.000003 -0.286414 0.056652 -0.115210
    57 6.096773 3.126230 -0.001722 0.000012 -0.000002 2.017667
    58 1.999104 0.000000 0.000000 0.000000 0.000000 0.000000
    59 1.999104 0.000000 0.000000 0.000000 0.000000 0.000000
    60 5.028742 -7.322623 0.014163 0.000000 0.000001 -1.536686
    61 14.325458 4.272010 1.904472 1.421981 0.126217 -1.364846
  time 8
    0 2.212124 1.709542 24.063371 0.000671 -0.091468 -1.692033
    1 -3.810916 -0.234383 0.000004 0.000000 -1.561574 -1.570771
    2 4.433415 -0.004191 0.038733 -0.328574 -0.056695 0.374456
    3 5.339104 -0.005482 -0.000121 -0.071248 -0.042510 0.192194
    4 6.941218 -0.005110 0.000127 -0.080644 -0.069247 0.184521
    5 6.620842 -0.004572 0.000556 -0.092678 0.056928 0.112961
    6 5.979036 -0.000998 -0.000001 0.000000 0.000000 0.017453
    7 1.252576 0.000001 -0.000001 0.645652 0.241404 -0.459366
    8 -3.731840 9.544965 0.014182 0.000000 0.000001 -1.675515
    9 0.000006 0.000991 2.684133 -0.403621 -1.280741 -2.771401
    10 7.524253 0.000000 -0.000004 -0.405174 -0.360052 -0.473156
    11 11.423452 0.000000 -0.000002 0.000002 0.000021 -1.558675
    12 13.479674 -0.000003 -0.000003 -3.584148 -0.094643 0.181960
    13 2.050500 0.662485 -1.659292 1.055273 0.885596 0.919630
    14 1.066192 0.000003 0.000000 0.000008 0.000008 -0.000016
    15 1.466010 0.000002 0.000000 -0.000002 -0.000003 -0.000001
    16 5.193863 -0.001293 -1.622129 -0.000865 0.401426 -0.000338
    17 1.525715 0.000000 0.000002 -0.000002 -0.000009 0.000018
    18 1.473169 0.000002 0.000001 0.000002 0.000002 0.000029
    19 4.977361 -0.298621 -0.436307 0.047536 0.133062 0.281524
    20 2.175559 -0.000003 0.000001 -0.000005 -0.000008 0.000016
    21 1.705901 0.000005 -0.000004 0.000004 -0.000002 0.000001
    22 5.227221 -0.016871 0.516781 -0.048569 -0.203819 0.231912
    23 1.850600 0.000000 0.000001 -0.000001 -0.000003 0.034930
    24 1.530744 0.000001 0.000002 0.000002 -0.000007 0.034919
    25 5.193863 0.001291 1.622131 -0.124266 -0.382700 0.320963
    26 1.485048 -0.000002 0.000000 0.000000 -0.000004 0.069842
    27 1.294659 -0.000002 -0.000001 0.000002 -0.000005 0.069844
    28 0.000005 0.001007 -2.684132 0.173776 1.146676 -3.001222
    29 7.524247 0.000001 0.000003 -0.080642 0.079407 -1.626922
    30 11.423457 -0.000001 -0.000003 0.000009 -0.000007 -1.467252
    31 13.708152 0.000001 0.000003 2.785957 0.111825 0.481056
    32 1.195829 -0.033343 1.114693 -1.282531 -0.846341 0.949452
    33 1.294660 0.000001 0.000002 0.000002 -0.000011 0.000001
    34 2.182009 0.000002 -0.000003 -0.000011 0.000013 -0.000009
    35 4.895140 -0.386530 1.693284 -0.142990 -0.357600 0.392236
    36 1.507895 0.000002 -0.000001 0.000005 0.000002 0.139630
    37 1.370815 -0.000001 0.000004 -0.000001 -0.000005 0.139598
    38 5.141362 -0.100724 0.541388 -0.049566 -0.130589 0.369702
    39 1.759213 0.000001 0.000002 -0.000003 0.000001 0.139645
    40 1.599285 -0.000002 -0.000004 0.000001 0.000007 0.139642
    41 5.079528 -0.068058 -0.623692 0.109202 0.139033 0.370161
    42 1.688843 -0.000003 0.000002 -0.000003 0.000006 0.139639
    43 1.507898 -0.000001 0.000000 -0.000002 -0.000002 0.139626
    44 5.141361 -0.099000 -1.621452 0.170163 0.386313 0.397209
    45 1.256580 -0.000002 0.000000 -0.000004 0.000001 0.139635
    46 1.142345 -0.000004 -0.000003 0.000000 -0.000003 0.139613
    47 0.232744 -0.809297 1.175718 -3.117956 0.230511 0.116532
    48 -3.813923 -0.273349 5.843818 3.172715 -0.494027 1.521777
    49 17.308262 -0.000001 0.000001 0.000000 0.000006 -1.949283
    50 15.463849 0.000002 0.000000 -0.048395 0.025854 0.504369
    51 6.097225 3.126210 -0.000760 0.000001 -0.000002 1.570796
    52 1.999104 0.000000 0.000000 0.000000 0.000000 0.000000
    53 1.999103 0.000000 0.000001 0.000000 0.000000 0.000000
    54 -4.427198 3.226790 -4.433634 -3.559592 -0.101269 2.447207
    55 17.308268 0.000000 -0.000002 -0.000011 -0.000004 -1.991279
    56 15.463847 0.000001 -0.000003 -0.270419 0.011611 -0.262827
    57 6.096773 3.126230 -0.001722 0.000012 -0.000002 1.832583
    58 1.999104 0.000000 0.000000 0.000000 0.000000 0.000000
    59 1.999104 0.000000 0.000000 0.000000 0.000000 0.000000
    60 5.028742 -7.322623 0.014163 0.000000 0.000001 -1.536686
    61 14.325458 4.272010 1.904472 1.421981 0.126217 -1.364846
  time 9
    0 2.438693 1.803295 22.383632 0.001918 -0.093684 -1.631579
    1 -4.025767 -0.156256 0.000004 0.000000 -1.566175 -1.570771
    2 4.433415 -0.004191 0.019201 -0.367496 -0.058936 0.400714
    3 5.339104 -0.005482 -0.000121 -0.082646 -0.035595 0.200404
    4 6.941218 -0.005110 0.000127 -0.087787 -0.067006 0.176379
    5 6.620842 -0.004572 0.000556 -0.089825 0.060104 0.095285
    6 5.979036 -0.000998 -0.000001 0.000000 0.000000 0.017453
    7 1.252576 0.000001 -0.000001 0.641474 0.253460 -0.439032
    8 -3.731840 9.544965 0.014182 0.000000 0.000001 -1.675515
    9 0.000006 0.000991 2.684133 -0.375702 -1.320021 -2.794880
    10 7.524253 0.000000 -0.000004 -0.330318 -0.428484 -0.449865
    11 11.423452 0.000000 -0.000002 0.000002 0.000021 -1.546273
    12 13.479674 -0.000003 -0.000003 -3.676436 -0.144235 0.117114
    13 2.050500 0.662485 -1.659292 1.055273 0.885596 0.919630
    14 1.066192 0.000003 0.000000 0.000008 0.000008 -0.000016
    15 1.466010 0.000002 0.000000 -0.000002 -0.000003 -0.000001
    16 5.193863 -0.001293 -1.622129 -0.000865 0.401426 -0.000338
    17 1.525715 0.000000 0.000002 -0.000002 -0.000009 0.000018
    18 1.473169 0.000002 0.000001 0.000002 0.000002 0.000029
    19 4.977361 -0.298621 -0.436307 0.047536 0.133062 0.281524
    20 2.175559 -0.000003 0.000001 -0.000005 -0.000008 0.000016
    21 1.705901 0.000005 -0.000004 0.000004 -0.000002 0.000001
    22 5.227221 -0.016871 0.516781 -0.044948 -0.204634 0.214112
    23 1.850600 0.000000 0.000001 -0.000001 -0.000003 0.017458
    24 1.530744 0.000001 0.000002 0.000002 -0.000007 0.017463
    25 5.193863 0.001291 1.622131 -0.110230 -0.386784 0.283552
    26 1.485048 -0.000002 0.000000 0.000000 -0.000004 0.034914
    27 1.294659 -0.000002 -0.000001 0.000002 -0.000005 0.034942
    28 0.000005 0.001007 -2.684132 0.175557 1.155594 -2.998891
    29 7.524247 0.000001 0.000003 -0.037018 0.072229 -1.717546
    30 11.423457 -0.000001 -0.000003 0.000009 -0.000007 -1.386959
    31 13.708152 0.000001 0.000003 2.813497 0.130858 0.479845
    32 1.195829 -0.033343 1.114693 -1.282531 -0.846341 0.949452
    33 1.294660 0.000001 0.000002 0.000002 -0.000011 0.000001
    34 2.182009 0.000002 -0.000003 -0.000011 0.000013 -0.000009
    35 4.895140 -0.386530 1.693284 -0.116768 -0.366641 0.318218
    36 1.507895 0.000002 -0.000001 0.000005 0.000002 0.069818
    37 1.370815 -0.000001 0.000004 -0.000001 -0.000005 0.069826
    38 5.141362 -0.100724 0.541388 -0.040292 -0.133729 0.299348
    39 1.759213 0.000001 0.000002 -0.000003 0.000001 0.069851
    40 1.599285 -0.000002 -0.000004 0.000001 0.000007 0.069813
    41 5.079528 -0.068058 -0.623692 0.099224 0.146293 0.300020
    42 1.688843 -0.000003 0.000002 -0.000003 0.000006 0.069836
    43 1.507898 -0.000001 0.000000 -0.000002 -0.000002 0.069853
    44 5.141361 -0.099000 -1.621452 0.141637 0.397168 0.322604
    45 1.256580 -0.000002 0.000000 -0.000004 0.000001 0.069817
    46 1.142345 -0.000004 -0.000003 0.000000 -0.000003 0.069814
    47 0.232744 -0.809297 1.175718 -3.117956 0.230511 0.116532
    48 -3.755327 -0.410072 5.890695 3.306035 -0.461663 1.340734
    49 17.308262 -0.000001 0.000001 0.000012 0.000006 -1.924748
    50 15.463849 0.000002 0.000000 -0.000921 -0.021931 0.395464
    51 6.097225 3.126210 -0.000760 0.000001 -0.000002 1.570796
    52 1.999104 0.000000 0.000000 0.000000 0.000000 0.000000
    53 1.999103 0.000000 0.000001 0.000000 0.000000 0.000000
    54 -4.392041 3.488517 -4.242222 -3.563227 -0.134415 2.443295
    55 17.308268 0.000000 -0.000002 -0.000011 -0.000004 -2.028131
    56 15.463847 0.000001 -0.000003 -0.243227 -0.021958 -0.404676
    57 6.096773 3.126230 -0.001722 0.000012 -0.000002 1.647450
    58 1.999104 0.000000 0.000000 0.000000 0.000000 0.000000
    59 1.999104 0.000000 0.000000 0.000000 0.000000 0.000000
    60 5.028742 -7.322623 0.014163 0.000000 0.000001 -1.536686
    61 14.325458 4.272010 1.904472 1.421981 0.126217 -1.364846
  time 10
    0 2.669169 1.893142 20.707800 0.002972 -0.095900 -1.571125
    1 -4.232804 -0.070316 0.000004 0.000000 -1.570441 -1.570771
    2 4.433415 -0.004191 -0.000331 -0.406238 -0.060171 0.427069
    3 5.339104 -0.005482 -0.000121 -0.093983 -0.028596 0.208541
    4 6.941218 -0.005110 0.000127 -0.094942 -0.064813 0.168238
    5 6.620842 -0.004572 0.000556 -0.087039 0.063340 0.077608
    6 5.979036 -0.000998 -0.000001 0.000000 0.000000 0.017453
    7 1.252576 0.000001 -0.000001 0.637832 0.265796 -0.416984
    8 -3.731840 9.544965 0.014182 0.000000 0.000001 -1.675515
    9 0.000006 0.000991 2.684133 -0.338504 -1.359136 -2.828371
    10 7.524253 0.000000 -0.000004 -0.243973 -0.491014 -0.434374
    11 11.423452 0.000000 -0.000002 0.000002 0.000021 -1.533870
    12 13.479674 -0.000003 -0.000003 -3.766115 -0.199511 0.056621
    13 2.050500 0.662485 -1.659292 1.055273 0.885596 0.919630
    14 1.066192 0.000003 0.000000 0.000008 0.000008 -0.000016
    15 1.466010 0.000002 0.000000 -0.000002 -0.000003 -0.000001
    16 5.193863 -0.001293 -1.622129 -0.000865 0.401426 -0.000338
    17 1.525715 0.000000 0.000002 -0.000002 -0.000009 0.000018
    18 1.473169 0.000002 0.000001 0.000002 0.000002 0.000029
    19 4.977361 -0.298621 -0.436307 0.047536 0.133062 0.281524
    20 2.175559 -0.000003 0.000001 -0.000005 -0.000008 0.000016
    21 1.705901 0.000005 -0.000004 0.000004 -0.000002 0.000001
    22 5.227221 -0.016871 0.516781 -0.041328 -0.205377 0.196311
    23 1.850600 0.000000 0.000001 -0.000001 -0.000003 0.000022
    24 1.530744 0.000001 0.000002 0.000002 -0.000007 0.000007
    25 5.193863 0.001291 1.622131 -0.096027 -0.390375 0.246034
    26 1.485048 -0.000002 0.000000 0.000000 -0.000004 0.000018
    27 1.294659 -0.000002 -0.000001 0.000002 -0.000005 0.000039
    28 0.000005 0.001007 -2.684132 0.177480 1.164512 -2.996561
    29 7.524247 0.000001 0.000003 0.009426 0.066113 -1.807828
    30 11.423457 -0.000001 -0.000003 0.000009 -0.000007 -1.306665
    31 13.708152 0.000001 0.000003 2.841132 0.149948 0.479187
    32 1.195829 -0.033343 1.114693 -1.282531 -0.846341 0.949452
    33 1.294660 0.000001 0.000002 0.000002 -0.000011 0.000001
    34 2.182009 0.000002 -0.000003 -0.000011 0.000013 -0.000009
    35 4.895140 -0.386530 1.693284 -0.089812 -0.373834 0.243719
    36 1.507895 0.000002 -0.000001 0.000005 0.000002 0.000006
    37 1.370815 -0.000001 0.000004 -0.000001 -0.000005 0.000007
    38 5.141362 -0.100724 0.541388 -0.030824 -0.136198 0.228932
    39 1.759213 0.000001 0.000002 -0.000003 0.000001 0.000010
    40 1.599285 -0.000002 -0.000004 0.000001 0.000007 0.000007
    41 5.079528 -0.068058 -0.623692 0.088759 0.152850 0.229737
    42 1.688843 -0.000003 0.000002 -0.000003 0.000006 0.000034
    43 1.507898 -0.000001 0.000000 -0.000002 -0.000002 0.000040
    44 5.141361 -0.099000 -1.621452 0.112244 0.406011 0.247372
    45 1.256580 -0.000002 0.000000 -0.000004 0.000001 0.000019
    46 1.142345 -0.000004 -0.000003 0.000000 -0.000003 0.000016
    47 0.232744 -0.809297 1.175718 -3.117956 0.230511 0.116532
    48 -3.700638 -0.546795 5.933665 3.441268 -0.409886 1.166100
    49 17.308262 -0.000001 0.000001 0.000012 0.000006 -1.877322
    50 15.463849 0.000002 0.000000 0.057735 -0.085187 0.270306
    51 6.097225 3.126210 -0.000760 0.000001 -0.000002 1.570796
    52 1.999104 0.000000 0.000000 0.000000 0.000000 0.000000
    53 1.999103 0.000000 0.000001 0.000000 0.000000 0.000000
    54 -4.356883 3.738524 -4.039091 -3.567817 -0.167300 2.438917
    55 17.308268 0.000000 -0.000002 -0.000011 -0.000004 -2.070789
    56 15.463847 0.000001 -0.000003 -0.208238 -0.048596 -0.551148
    57 6.096773 3.126230 -0.001722 0.000012 -0.000002 1.570799
    58 1.999104 0.000000 0.000000 0.000000 0.000000 0.000000
    59 1.999104 0.000000 0.000000 0.000000 0.000000 0.000000
    60 5.028742 -7.322623 0.014163 0.000000 0.000001 -1.536686
    61 14.325458 4.272010 1.904472 1.421981 0.126217 -1.364846
end
