// Created by Crowbar 0.68
version 1
nodes
  0 "Bip01" -1
  1 "Bip01 Pelvis" 0
  2 "Bip01 Spine" 1
  3 "Bip01 Spine1" 2
  4 "Bip01 Spine2" 3
  5 "Bip01 Spine3" 4
  6 "Bip01 Neck" 5
  7 "Bip01 Head" 6
  8 "Dummy14" 7
  9 "Bip01 L Clavicle" 6
  10 "Bip01 L UpperArm" 9
  11 "Bip01 L Forearm" 10
  12 "Bip01 L Hand" 11
  13 "Bip01 L Finger0" 12
  14 "Bip01 L Finger01" 13
  15 "Bip01 L Finger02" 14
  16 "Bip01 L Finger1" 12
  17 "Bip01 L Finger11" 16
  18 "Bip01 L Finger12" 17
  19 "Bip01 L Finger2" 12
  20 "Bip01 L Finger21" 19
  21 "Bip01 L Finger22" 20
  22 "Bip01 L Finger3" 12
  23 "Bip01 L Finger31" 22
  24 "Bip01 L Finger32" 23
  25 "Bip01 L Finger4" 12
  26 "Bip01 L Finger41" 25
  27 "Bip01 L Finger42" 26
  28 "Bip01 R Clavicle" 6
  29 "Bip01 R UpperArm" 28
  30 "Bip01 R Forearm" 29
  31 "Bip01 R Hand" 30
  32 "Bip01 R Finger0" 31
  33 "Bip01 R Finger01" 32
  34 "Bip01 R Finger02" 33
  35 "Bip01 R Finger1" 31
  36 "Bip01 R Finger11" 35
  37 "Bip01 R Finger12" 36
  38 "Bip01 R Finger2" 31
  39 "Bip01 R Finger21" 38
  40 "Bip01 R Finger22" 39
  41 "Bip01 R Finger3" 31
  42 "Bip01 R Finger31" 41
  43 "Bip01 R Finger32" 42
  44 "Bip01 R Finger4" 31
  45 "Bip01 R Finger41" 44
  46 "Bip01 R Finger42" 45
  47 "ValveBiped.Bip01_R_Hand" 31
  48 "Bip01 L Thigh" 2
  49 "Bip01 L Calf" 48
  50 "Bip01 L Foot" 49
  51 "Bip01 L Toe0" 50
  52 "Bip01 L Toe01" 51
  53 "Bip01 L Toe02" 52
  54 "Bip01 R Thigh" 2
  55 "Bip01 R Calf" 54
  56 "Bip01 R Foot" 55
  57 "Bip01 R Toe0" 56
  58 "Bip01 R Toe01" 57
  59 "Bip01 R Toe02" 58
  60 "Dummy22" 2
  61 "sniper" 31
end
skeleton
  time 0
    0 2.411349 3.940079 36.348902 0.011218 -0.079162 -2.408223
    1 1.896289 0.000000 0.000002 0.000000 -1.524622 -1.570771
    2 4.429509 -0.004191 0.202800 -0.012775 -0.001866 0.175172
    3 5.339100 -0.005481 -0.000121 0.022016 -0.094272 0.123595
    4 6.941223 -0.005111 0.000128 -0.024293 -0.089285 0.249010
    5 6.620841 -0.004571 0.000557 -0.117261 0.033474 0.254584
    6 5.979035 -0.001001 0.000000 0.000000 0.000000 0.017453
    7 1.252573 -0.000002 0.000000 0.693911 0.167340 -0.567159
    8 -3.731832 9.544964 0.014181 0.000000 0.000001 -1.675515
    9 0.000005 0.000988 2.684133 -0.516089 -0.967825 -2.722718
    10 7.524250 0.000000 -0.000004 -0.673158 0.015750 -1.113900
    11 11.423456 -0.000001 -0.000006 0.000002 0.000021 -1.457253
    12 13.479675 -0.000001 -0.000004 -3.375521 0.484584 0.773078
    13 2.050504 0.662485 -1.659293 1.442523 0.513325 1.674745
    14 1.066186 0.000002 0.000000 0.000008 0.000008 -0.000016
    15 1.466006 0.000001 0.000000 -0.000002 -0.000003 -0.000001
    16 5.193865 -0.001289 -1.622130 0.396858 0.061952 1.425972
    17 1.525720 0.000002 -0.000003 -0.000002 -0.000009 0.549766
    18 1.473166 0.000001 0.000000 0.000002 0.000002 0.549774
    19 4.977361 -0.298621 -0.436308 0.137412 0.032765 1.275441
    20 2.175557 -0.000002 0.000002 -0.000005 -0.000008 0.994829
    21 1.705902 0.000005 -0.000003 0.000004 -0.000002 0.994832
    22 5.227223 -0.016870 0.516780 -0.201762 -0.056576 1.297348
    23 1.850598 -0.000001 0.000001 -0.000001 -0.000003 1.099553
    24 1.530746 0.000001 -0.000001 0.000002 -0.000007 1.099536
    25 5.193868 0.001289 1.622131 -0.396583 -0.063750 1.417931
    26 1.485056 0.000002 0.000000 0.000000 -0.000004 1.178095
    27 1.294656 0.000006 0.000000 0.000002 -0.000005 1.178071
    28 -0.000001 0.001007 -2.684130 0.161953 1.075374 -3.017104
    29 7.524247 0.000002 0.000001 -0.349700 0.098095 -1.001808
    30 11.423455 0.000000 -0.000003 0.000009 -0.000007 -2.065858
    31 13.708146 0.000001 -0.000001 2.450993 0.381194 0.267725
    32 1.195829 -0.033343 1.114696 -1.841991 -0.484611 1.657447
    33 1.294658 0.000005 0.000001 0.000002 -0.000011 0.418875
    34 2.182010 -0.000006 0.000000 -0.000011 0.000013 0.575947
    35 4.895138 -0.386527 1.693283 -0.189719 -0.335882 0.529503
    36 1.507895 0.000004 -0.000002 0.000005 0.000002 0.698129
    37 1.370816 -0.000001 -0.000001 -0.000001 -0.000005 0.698099
    38 5.141359 -0.100724 0.541389 -0.111291 -0.084496 0.929676
    39 1.759214 0.000002 0.000002 -0.000003 0.000001 1.143164
    40 1.599286 0.000001 -0.000005 0.000001 0.000007 0.698117
    41 5.079525 -0.068058 -0.623690 0.166029 0.060351 0.926077
    42 1.688842 -0.000002 -0.000001 -0.000003 0.000006 0.820268
    43 1.507899 -0.000002 -0.000004 -0.000002 -0.000002 1.404990
    44 5.141359 -0.099000 -1.621449 0.349452 0.238665 0.964660
    45 1.256579 -0.000002 0.000000 -0.000004 0.000001 0.698118
    46 1.142346 0.000002 0.000004 0.000000 -0.000003 0.820283
    47 0.232743 -0.809297 1.175722 -3.117956 0.230511 0.116532
    48 -4.353002 0.711056 5.253956 2.486699 -0.305015 2.769387
    49 17.308260 -0.000002 0.000002 0.000000 0.000006 -0.704028
    50 15.463848 0.000002 0.000001 0.004846 -0.045754 0.166141
    51 6.097225 3.126210 -0.000760 0.000001 -0.000002 1.570796
    52 1.999104 0.000000 -0.000002 0.000000 0.000000 0.000000
    53 1.999104 0.000000 0.000001 0.000000 0.000000 0.000000
    54 -4.368602 0.847811 -5.621170 -3.405896 0.118970 2.688366
    55 17.308264 -0.000002 -0.000002 -0.000011 -0.000004 -0.844482
    56 15.463843 0.000002 -0.000002 -0.065054 0.163880 0.409717
    57 6.096773 3.126230 -0.001722 0.000012 -0.000002 1.570799
    58 1.999104 0.000000 -0.000001 0.000000 0.000000 0.000000
    59 1.999103 0.000000 0.000000 0.000000 0.000000 0.000000
    60 5.028742 -7.322620 0.014163 0.000000 0.000001 -1.536686
    61 14.325455 4.272011 1.904477 1.421981 0.126217 -1.364846
  time 1
    0 2.407442 3.881484 36.352809 0.010930 -0.076899 -2.408807
    1 1.896289 0.000000 0.000002 0.000000 -1.526252 -1.570771
    2 4.429509 -0.004191 0.194987 -0.012256 -0.002153 0.175204
    3 5.339100 -0.005481 -0.000121 0.022243 -0.094559 0.123667
    4 6.941223 -0.005111 0.000128 -0.024113 -0.089609 0.249104
    5 6.620841 -0.004571 0.000557 -0.117327 0.033438 0.254614
    6 5.979035 -0.001001 0.000000 0.000000 0.000000 0.017453
    7 1.252573 -0.000002 0.000000 0.693978 0.166864 -0.567719
    8 -3.731832 9.544964 0.014181 0.000000 0.000001 -1.675515
    9 0.000005 0.000988 2.684133 -0.519658 -0.969816 -2.719006
    10 7.524250 0.000000 -0.000004 -0.673702 0.015528 -1.114336
    11 11.423456 -0.000001 -0.000006 0.000002 0.000021 -1.457253
    12 13.479675 -0.000001 -0.000004 -3.375521 0.484584 0.773078
    13 2.050504 0.662485 -1.659293 1.442523 0.513325 1.674745
    14 1.066186 0.000002 0.000000 0.000008 0.000008 -0.000016
    15 1.466006 0.000001 0.000000 -0.000002 -0.000003 -0.000001
    16 5.193865 -0.001289 -1.622130 0.396858 0.061952 1.425972
    17 1.525720 0.000002 -0.000003 -0.000002 -0.000009 0.549766
    18 1.473166 0.000001 0.000000 0.000002 0.000002 0.549774
    19 4.977361 -0.298621 -0.436308 0.137412 0.032765 1.275441
    20 2.175557 -0.000002 0.000002 -0.000005 -0.000008 0.994829
    21 1.705902 0.000005 -0.000003 0.000004 -0.000002 0.994832
    22 5.227223 -0.016870 0.516780 -0.201762 -0.056576 1.297348
    23 1.850598 -0.000001 0.000001 -0.000001 -0.000003 1.099553
    24 1.530746 0.000001 -0.000001 0.000002 -0.000007 1.099536
    25 5.193868 0.001289 1.622131 -0.396583 -0.063750 1.417931
    26 1.485056 0.000002 0.000000 0.000000 -0.000004 1.178095
    27 1.294656 0.000006 0.000000 0.000002 -0.000005 1.178071
    28 -0.000001 0.001007 -2.684130 0.162665 1.077241 -3.016327
    29 7.524247 0.000002 0.000001 -0.346403 0.095164 -1.002150
    30 11.423455 0.000000 -0.000003 0.000009 -0.000007 -2.065858
    31 13.708146 0.000001 -0.000001 2.450993 0.381194 0.267725
    32 1.195829 -0.033343 1.114696 -1.841991 -0.484611 1.657447
    33 1.294658 0.000005 0.000001 0.000002 -0.000011 0.418875
    34 2.182010 -0.000006 0.000000 -0.000011 0.000013 0.575947
    35 4.895138 -0.386527 1.693283 -0.189719 -0.335882 0.529503
    36 1.507895 0.000004 -0.000002 0.000005 0.000002 0.698129
    37 1.370816 -0.000001 -0.000001 -0.000001 -0.000005 0.698099
    38 5.141359 -0.100724 0.541389 -0.111291 -0.084496 0.929676
    39 1.759214 0.000002 0.000002 -0.000003 0.000001 1.143164
    40 1.599286 0.000001 -0.000005 0.000001 0.000007 0.698117
    41 5.079525 -0.068058 -0.623690 0.166029 0.060351 0.926077
    42 1.688842 -0.000002 -0.000001 -0.000003 0.000006 0.820268
    43 1.507899 -0.000002 -0.000004 -0.000002 -0.000002 1.404950
    44 5.141359 -0.099000 -1.621449 0.349452 0.238665 0.964660
    45 1.256579 -0.000002 0.000000 -0.000004 0.000001 0.698118
    46 1.142346 0.000002 0.000004 0.000000 -0.000003 0.820283
    47 0.232743 -0.809297 1.175722 -3.117956 0.230511 0.116532
    48 -4.353002 0.714963 5.261769 2.489377 -0.307625 2.765300
    49 17.308260 -0.000002 0.000002 0.000000 0.000006 -0.710908
    50 15.463848 0.000002 0.000001 0.001899 -0.047533 0.168745
    51 6.097225 3.126210 -0.000760 0.000001 -0.000002 1.570796
    52 1.999104 0.000000 -0.000002 0.000000 0.000000 0.000000
    53 1.999104 0.000000 0.000001 0.000000 0.000000 0.000000
    54 -4.372509 0.843905 -5.613358 -3.405418 0.118231 2.687807
    55 17.308264 -0.000002 -0.000002 -0.000011 -0.000004 -0.843136
    56 15.463843 0.000002 -0.000002 -0.065168 0.163566 0.408240
    57 6.096773 3.126230 -0.001722 0.000012 -0.000002 1.570799
    58 1.999104 0.000000 -0.000001 0.000000 0.000000 0.000000
    59 1.999103 0.000000 0.000000 0.000000 0.000000 0.000000
    60 5.028742 -7.322620 0.014163 0.000000 0.000001 -1.536686
    61 14.325455 4.272011 1.904477 1.421981 0.126217 -1.364846
  time 2
    0 2.387910 3.846326 36.356715 0.010546 -0.074400 -2.408807
    1 1.896289 0.000000 0.000002 0.000000 -1.527690 -1.570771
    2 4.429509 -0.004191 0.191081 -0.011770 -0.002549 0.175204
    3 5.339100 -0.005481 -0.000121 0.022136 -0.094787 0.123511
    4 6.941223 -0.005111 0.000128 -0.024245 -0.089872 0.249010
    5 6.620841 -0.004571 0.000557 -0.117327 0.033306 0.254822
    6 5.979035 -0.001001 0.000000 0.000000 0.000000 0.017453
    7 1.252573 -0.000002 0.000000 0.694312 0.166289 -0.568489
    8 -3.731832 9.544964 0.014181 0.000000 0.000001 -1.675515
    9 0.000005 0.000988 2.684133 -0.525844 -0.969982 -2.713310
    10 7.524250 0.000000 -0.000004 -0.673037 0.015972 -1.116027
    11 11.423456 -0.000001 -0.000006 0.000002 0.000021 -1.457253
    12 13.479675 -0.000001 -0.000004 -3.375521 0.484584 0.773078
    13 2.050504 0.662485 -1.659293 1.442523 0.513325 1.674745
    14 1.066186 0.000002 0.000000 0.000008 0.000008 -0.000016
    15 1.466006 0.000001 0.000000 -0.000002 -0.000003 -0.000001
    16 5.193865 -0.001289 -1.622130 0.396858 0.061952 1.425972
    17 1.525720 0.000002 -0.000003 -0.000002 -0.000009 0.549766
    18 1.473166 0.000001 0.000000 0.000002 0.000002 0.549774
    19 4.977361 -0.298621 -0.436308 0.137412 0.032765 1.275441
    20 2.175557 -0.000002 0.000002 -0.000005 -0.000008 0.994829
    21 1.705902 0.000005 -0.000003 0.000004 -0.000002 0.994832
    22 5.227223 -0.016870 0.516780 -0.201762 -0.056576 1.297348
    23 1.850598 -0.000001 0.000001 -0.000001 -0.000003 1.099553
    24 1.530746 0.000001 -0.000001 0.000002 -0.000007 1.099536
    25 5.193868 0.001289 1.622131 -0.396583 -0.063750 1.417931
    26 1.485056 0.000002 0.000000 0.000000 -0.000004 1.178095
    27 1.294656 0.000006 0.000000 0.000002 -0.000005 1.178071
    28 -0.000001 0.001007 -2.684130 0.170571 1.079315 -3.009076
    29 7.524247 0.000002 0.000001 -0.343871 0.090450 -1.005852
    30 11.423455 0.000000 -0.000003 0.000009 -0.000007 -2.065858
    31 13.708146 0.000001 -0.000001 2.450993 0.381194 0.267725
    32 1.195829 -0.033343 1.114696 -1.841991 -0.484611 1.657447
    33 1.294658 0.000005 0.000001 0.000002 -0.000011 0.418875
    34 2.182010 -0.000006 0.000000 -0.000011 0.000013 0.575947
    35 4.895138 -0.386527 1.693283 -0.189719 -0.335882 0.529503
    36 1.507895 0.000004 -0.000002 0.000005 0.000002 0.698129
    37 1.370816 -0.000001 -0.000001 -0.000001 -0.000005 0.698099
    38 5.141359 -0.100724 0.541389 -0.111291 -0.084496 0.929676
    39 1.759214 0.000002 0.000002 -0.000003 0.000001 1.143164
    40 1.599286 0.000001 -0.000005 0.000001 0.000007 0.698117
    41 5.079525 -0.068058 -0.623690 0.166029 0.060351 0.926077
    42 1.688842 -0.000002 -0.000001 -0.000003 0.000006 0.820268
    43 1.507899 -0.000002 -0.000004 -0.000002 -0.000002 1.404950
    44 5.141359 -0.099000 -1.621449 0.349452 0.238665 0.964660
    45 1.256579 -0.000002 0.000000 -0.000004 0.000001 0.698118
    46 1.142346 0.000002 0.000004 0.000000 -0.000003 0.820283
    47 0.232743 -0.809297 1.175722 -3.117956 0.230511 0.116532
    48 -4.349095 0.714963 5.269582 2.491194 -0.310309 2.761956
    49 17.308260 -0.000002 0.000002 0.000012 0.000006 -0.715169
    50 15.463848 0.000002 0.000001 -0.000317 -0.049560 0.170046
    51 6.097225 3.126210 -0.000760 0.000001 -0.000002 1.570796
    52 1.999104 0.000000 -0.000002 0.000000 0.000000 0.000000
    53 1.999104 0.000000 0.000001 0.000000 0.000000 0.000000
    54 -4.372509 0.839998 -5.605545 -3.404844 0.116819 2.687621
    55 17.308264 -0.000002 -0.000002 -0.000011 -0.000004 -0.840948
    56 15.463843 0.000002 -0.000002 -0.065253 0.162625 0.406619
    57 6.096773 3.126230 -0.001722 0.000012 -0.000002 1.570799
    58 1.999104 0.000000 -0.000001 0.000000 0.000000 0.000000
    59 1.999103 0.000000 0.000000 0.000000 0.000000 0.000000
    60 5.028742 -7.322620 0.014163 0.000000 0.000001 -1.536686
    61 14.325455 4.272011 1.904477 1.421981 0.126217 -1.364846
  time 3
    0 2.341034 3.811169 36.368434 0.010163 -0.071571 -2.408140
    1 1.896289 0.000000 0.000002 0.000000 -1.529798 -1.570771
    2 4.433415 -0.004191 0.179362 -0.011202 -0.002093 0.175237
    3 5.339100 -0.005481 -0.000121 0.021668 -0.094931 0.123079
    4 6.941223 -0.005111 0.000128 -0.024736 -0.090040 0.248687
    5 6.620841 -0.004571 0.000557 -0.117377 0.033043 0.255149
    6 5.979035 -0.001001 0.000000 0.000000 0.000000 0.017453
    7 1.252573 -0.000002 0.000000 0.694981 0.165452 -0.569049
    8 -3.731832 9.544964 0.014181 0.000000 0.000001 -1.675515
    9 0.000005 0.000988 2.684133 -0.525130 -0.967078 -2.714777
    10 7.524250 0.000000 -0.000004 -0.670739 0.010691 -1.116300
    11 11.423456 -0.000001 -0.000006 0.000002 0.000021 -1.456600
    12 13.479675 -0.000001 -0.000004 -3.375521 0.484584 0.773078
    13 2.050504 0.662485 -1.659293 1.442523 0.513325 1.674745
    14 1.066186 0.000002 0.000000 0.000008 0.000008 -0.000016
    15 1.466006 0.000001 0.000000 -0.000002 -0.000003 -0.000001
    16 5.193865 -0.001289 -1.622130 0.396858 0.061952 1.425972
    17 1.525720 0.000002 -0.000003 -0.000002 -0.000009 0.549766
    18 1.473166 0.000001 0.000000 0.000002 0.000002 0.549774
    19 4.977361 -0.298621 -0.436308 0.137412 0.032765 1.275441
    20 2.175557 -0.000002 0.000002 -0.000005 -0.000008 0.994829
    21 1.705902 0.000005 -0.000003 0.000004 -0.000002 0.994832
    22 5.227223 -0.016870 0.516780 -0.201762 -0.056576 1.297348
    23 1.850598 -0.000001 0.000001 -0.000001 -0.000003 1.099553
    24 1.530746 0.000001 -0.000001 0.000002 -0.000007 1.099536
    25 5.193868 0.001289 1.622131 -0.396583 -0.063750 1.417931
    26 1.485056 0.000002 0.000000 0.000000 -0.000004 1.178095
    27 1.294656 0.000006 0.000000 0.000002 -0.000005 1.178071
    28 -0.000001 0.001007 -2.684130 0.172138 1.079937 -3.007695
    29 7.524247 0.000002 0.000001 -0.342963 0.087774 -1.007703
    30 11.423455 0.000000 -0.000003 0.000009 -0.000007 -2.065858
    31 13.708146 0.000001 -0.000001 2.450993 0.381194 0.267725
    32 1.195829 -0.033343 1.114696 -1.841991 -0.484611 1.657447
    33 1.294658 0.000005 0.000001 0.000002 -0.000011 0.418875
    34 2.182010 -0.000006 0.000000 -0.000011 0.000013 0.575947
    35 4.895138 -0.386527 1.693283 -0.189719 -0.335882 0.529503
    36 1.507895 0.000004 -0.000002 0.000005 0.000002 0.698129
    37 1.370816 -0.000001 -0.000001 -0.000001 -0.000005 0.698099
    38 5.141359 -0.100724 0.541389 -0.111291 -0.084496 0.929676
    39 1.759214 0.000002 0.000002 -0.000003 0.000001 1.143164
    40 1.599286 0.000001 -0.000005 0.000001 0.000007 0.698117
    41 5.079525 -0.068058 -0.623690 0.166029 0.060351 0.926077
    42 1.688842 -0.000002 -0.000001 -0.000003 0.000006 0.820268
    43 1.507899 -0.000002 -0.000004 -0.000002 -0.000002 1.404950
    44 5.141359 -0.099000 -1.621449 0.349452 0.238665 0.964660
    45 1.256579 -0.000002 0.000000 -0.000004 0.000001 0.698118
    46 1.142346 0.000002 0.000004 0.000000 -0.000003 0.820283
    47 0.232743 -0.809297 1.175722 -3.117956 0.230511 0.116532
    48 -4.353002 0.718869 5.273488 2.492342 -0.312969 2.759541
    49 17.308260 -0.000002 0.000002 0.000012 0.000006 -0.717544
    50 15.463848 0.000002 0.000001 -0.000669 -0.051551 0.171281
    51 6.097225 3.126210 -0.000760 0.000001 -0.000002 1.570796
    52 1.999104 0.000000 -0.000002 0.000000 0.000000 0.000000
    53 1.999104 0.000000 0.000001 0.000000 0.000000 0.000000
    54 -4.372509 0.836092 -5.597732 -3.403887 0.115058 2.688553
    55 17.308264 -0.000002 -0.000002 -0.000011 -0.000004 -0.837498
    56 15.463843 0.000002 -0.000002 -0.064482 0.161127 0.406000
    57 6.096773 3.126230 -0.001722 0.000012 -0.000002 1.570799
    58 1.999104 0.000000 -0.000001 0.000000 0.000000 0.000000
    59 1.999103 0.000000 0.000000 0.000000 0.000000 0.000000
    60 5.028742 -7.322620 0.014163 0.000000 0.000001 -1.536686
    61 14.325455 4.272011 1.904477 1.421981 0.126217 -1.364846
  time 4
    0 2.282438 3.776012 36.380153 0.009779 -0.068601 -2.406723
    1 1.896289 0.000000 0.000002 0.000000 -1.532291 -1.570771
    2 4.433415 -0.004191 0.167643 -0.010618 -0.000799 0.175237
    3 5.339100 -0.005481 -0.000121 0.020853 -0.094943 0.122384
    4 6.941223 -0.005111 0.000128 -0.025611 -0.090100 0.248163
    5 6.620841 -0.004571 0.000557 -0.117525 0.032587 0.255654
    6 5.979035 -0.001001 0.000000 0.000000 0.000000 0.017453
    7 1.252573 -0.000002 0.000000 0.696485 0.164055 -0.568944
    8 -3.731832 9.544964 0.014181 0.000000 0.000001 -1.675515
    9 0.000005 0.000988 2.684133 -0.523306 -0.963470 -2.717366
    10 7.524250 0.000000 -0.000004 -0.668562 0.004433 -1.116027
    11 11.423456 -0.000001 -0.000006 0.000002 0.000021 -1.455784
    12 13.479675 -0.000001 -0.000004 -3.375521 0.484584 0.773078
    13 2.050504 0.662485 -1.659293 1.442523 0.513325 1.674745
    14 1.066186 0.000002 0.000000 0.000008 0.000008 -0.000016
    15 1.466006 0.000001 0.000000 -0.000002 -0.000003 -0.000001
    16 5.193865 -0.001289 -1.622130 0.396858 0.061952 1.425972
    17 1.525720 0.000002 -0.000003 -0.000002 -0.000009 0.549766
    18 1.473166 0.000001 0.000000 0.000002 0.000002 0.549774
    19 4.977361 -0.298621 -0.436308 0.137412 0.032765 1.275441
    20 2.175557 -0.000002 0.000002 -0.000005 -0.000008 0.994829
    21 1.705902 0.000005 -0.000003 0.000004 -0.000002 0.994832
    22 5.227223 -0.016870 0.516780 -0.201762 -0.056576 1.297348
    23 1.850598 -0.000001 0.000001 -0.000001 -0.000003 1.099553
    24 1.530746 0.000001 -0.000001 0.000002 -0.000007 1.099536
    25 5.193868 0.001289 1.622131 -0.396583 -0.063750 1.417931
    26 1.485056 0.000002 0.000000 0.000000 -0.000004 1.178095
    27 1.294656 0.000006 0.000000 0.000002 -0.000005 1.178071
    28 -0.000001 0.001007 -2.684130 0.166440 1.080103 -3.012788
    29 7.524247 0.000002 0.000001 -0.342868 0.087009 -1.007086
    30 11.423455 0.000000 -0.000003 0.000009 -0.000007 -2.065858
    31 13.708146 0.000001 -0.000001 2.450993 0.381194 0.267725
    32 1.195829 -0.033343 1.114696 -1.841991 -0.484611 1.657447
    33 1.294658 0.000005 0.000001 0.000002 -0.000011 0.418875
    34 2.182010 -0.000006 0.000000 -0.000011 0.000013 0.575947
    35 4.895138 -0.386527 1.693283 -0.189719 -0.335882 0.529503
    36 1.507895 0.000004 -0.000002 0.000005 0.000002 0.698129
    37 1.370816 -0.000001 -0.000001 -0.000001 -0.000005 0.698099
    38 5.141359 -0.100724 0.541389 -0.111291 -0.084496 0.929676
    39 1.759214 0.000002 0.000002 -0.000003 0.000001 1.143164
    40 1.599286 0.000001 -0.000005 0.000001 0.000007 0.698117
    41 5.079525 -0.068058 -0.623690 0.166029 0.060351 0.926077
    42 1.688842 -0.000002 -0.000001 -0.000003 0.000006 0.820268
    43 1.507899 -0.000002 -0.000004 -0.000002 -0.000002 1.404950
    44 5.141359 -0.099000 -1.621449 0.349452 0.238665 0.964660
    45 1.256579 -0.000002 0.000000 -0.000004 0.000001 0.698118
    46 1.142346 0.000002 0.000004 0.000000 -0.000003 0.820283
    47 0.232743 -0.809297 1.175722 -3.117956 0.230511 0.116532
    48 -4.360814 0.722775 5.281301 2.493203 -0.314833 2.758240
    49 17.308260 -0.000002 0.000002 0.000000 0.000006 -0.718518
    50 15.463848 0.000002 0.000001 0.000993 -0.053277 0.173417
    51 6.097225 3.126210 -0.000760 0.000001 -0.000002 1.570796
    52 1.999104 0.000000 -0.000002 0.000000 0.000000 0.000000
    53 1.999104 0.000000 0.000001 0.000000 0.000000 0.000000
    54 -4.364696 0.832186 -5.593826 -3.402548 0.113711 2.690509
    55 17.308264 -0.000002 -0.000002 -0.000011 -0.000004 -0.832955
    56 15.463843 0.000002 -0.000002 -0.062483 0.160040 0.406381
    57 6.096773 3.126230 -0.001722 0.000012 -0.000002 1.570799
    58 1.999104 0.000000 -0.000001 0.000000 0.000000 0.000000
    59 1.999103 0.000000 0.000000 0.000000 0.000000 0.000000
    60 5.028742 -7.322620 0.014163 0.000000 0.000001 -1.536686
    61 14.325455 4.272011 1.904477 1.421981 0.126217 -1.364846
  time 5
    0 2.231656 3.740854 36.384060 0.009396 -0.065819 -2.404888
    1 1.896289 0.000000 0.000002 0.000000 -1.534639 -1.570771
    2 4.433415 -0.004191 0.159830 -0.010131 0.001119 0.175237
    3 5.339100 -0.005481 -0.000121 0.019787 -0.094811 0.121485
    4 6.941223 -0.005111 0.000128 -0.026750 -0.090052 0.247478
    5 6.620841 -0.004571 0.000557 -0.117789 0.032000 0.256337
    6 5.979035 -0.001001 0.000000 0.000000 0.000000 0.017453
    7 1.252573 -0.000002 0.000000 0.699258 0.161641 -0.567509
    8 -3.731832 9.544964 0.014181 0.000000 0.000001 -1.675515
    9 0.000005 0.000988 2.684133 -0.521561 -0.960400 -2.719783
    10 7.524250 0.000000 -0.000004 -0.667232 -0.000226 -1.114936
    11 11.423456 -0.000001 -0.000006 0.000002 0.000021 -1.455213
    12 13.479675 -0.000001 -0.000004 -3.375521 0.484584 0.773078
    13 2.050504 0.662485 -1.659293 1.442523 0.513325 1.674745
    14 1.066186 0.000002 0.000000 0.000008 0.000008 -0.000016
    15 1.466006 0.000001 0.000000 -0.000002 -0.000003 -0.000001
    16 5.193865 -0.001289 -1.622130 0.396858 0.061952 1.425972
    17 1.525720 0.000002 -0.000003 -0.000002 -0.000009 0.549766
    18 1.473166 0.000001 0.000000 0.000002 0.000002 0.549774
    19 4.977361 -0.298621 -0.436308 0.137412 0.032765 1.275441
    20 2.175557 -0.000002 0.000002 -0.000005 -0.000008 0.994829
    21 1.705902 0.000005 -0.000003 0.000004 -0.000002 0.994832
    22 5.227223 -0.016870 0.516780 -0.201762 -0.056576 1.297348
    23 1.850598 -0.000001 0.000001 -0.000001 -0.000003 1.099553
    24 1.530746 0.000001 -0.000001 0.000002 -0.000007 1.099536
    25 5.193868 0.001289 1.622131 -0.396583 -0.063750 1.417931
    26 1.485056 0.000002 0.000000 0.000000 -0.000004 1.178095
    27 1.294656 0.000006 0.000000 0.000002 -0.000005 1.178071
    28 -0.000001 0.001007 -2.684130 0.160457 1.082260 -3.017881
    29 7.524247 0.000002 0.000001 -0.341912 0.085778 -1.006126
    30 11.423455 0.000000 -0.000003 0.000009 -0.000007 -2.065858
    31 13.708146 0.000001 -0.000001 2.450993 0.381194 0.267725
    32 1.195829 -0.033343 1.114696 -1.841991 -0.484611 1.657447
    33 1.294658 0.000005 0.000001 0.000002 -0.000011 0.418875
    34 2.182010 -0.000006 0.000000 -0.000011 0.000013 0.575947
    35 4.895138 -0.386527 1.693283 -0.189719 -0.335882 0.529503
    36 1.507895 0.000004 -0.000002 0.000005 0.000002 0.698129
    37 1.370816 -0.000001 -0.000001 -0.000001 -0.000005 0.698099
    38 5.141359 -0.100724 0.541389 -0.111291 -0.084496 0.929676
    39 1.759214 0.000002 0.000002 -0.000003 0.000001 1.143164
    40 1.599286 0.000001 -0.000005 0.000001 0.000007 0.698117
    41 5.079525 -0.068058 -0.623690 0.166029 0.060351 0.926077
    42 1.688842 -0.000002 -0.000001 -0.000003 0.000006 0.820268
    43 1.507899 -0.000002 -0.000004 -0.000002 -0.000002 1.404950
    44 5.141359 -0.099000 -1.621449 0.349452 0.238665 0.964660
    45 1.256579 -0.000002 0.000000 -0.000004 0.000001 0.698118
    46 1.142346 0.000002 0.000004 0.000000 -0.000003 0.820283
    47 0.232743 -0.809297 1.175722 -3.117956 0.230511 0.116532
    48 -4.364721 0.726682 5.281301 2.492629 -0.315952 2.757311
    49 17.308260 -0.000002 0.000002 0.000000 0.000006 -0.719674
    50 15.463848 0.000002 0.000001 0.004091 -0.053383 0.176388
    51 6.097225 3.126210 -0.000760 0.000001 -0.000002 1.570796
    52 1.999104 0.000000 -0.000002 0.000000 0.000000 0.000000
    53 1.999104 0.000000 0.000001 0.000000 0.000000 0.000000
    54 -4.356883 0.832186 -5.593826 -3.401305 0.113319 2.692278
    55 17.308264 -0.000002 -0.000002 -0.000011 -0.000004 -0.829169
    56 15.463843 0.000002 -0.000002 -0.060569 0.159871 0.407573
    57 6.096773 3.126230 -0.001722 0.000012 -0.000002 1.570799
    58 1.999104 0.000000 -0.000001 0.000000 0.000000 0.000000
    59 1.999103 0.000000 0.000000 0.000000 0.000000 0.000000
    60 5.028742 -7.322620 0.014163 0.000000 0.000001 -1.536686
    61 14.325455 4.272011 1.904477 1.421981 0.126217 -1.364846
  time 6
    0 2.184779 3.701791 36.380153 0.009108 -0.063981 -2.403304
    1 1.896289 0.000000 0.000002 0.000000 -1.536556 -1.570771
    2 4.433415 -0.004191 0.148111 -0.009855 0.003659 0.175237
    3 5.339100 -0.005481 -0.000121 0.018672 -0.094607 0.120491
    4 6.941223 -0.005111 0.000128 -0.027948 -0.089908 0.246726
    5 6.620841 -0.004571 0.000557 -0.118102 0.031413 0.257080
    6 5.979035 -0.001001 0.000000 0.000000 0.000000 0.017453
    7 1.252573 -0.000002 0.000000 0.703403 0.157945 -0.564324
    8 -3.731832 9.544964 0.014181 0.000000 0.000001 -1.675515
    9 0.000005 0.000988 2.684133 -0.521323 -0.959073 -2.720388
    10 7.524250 0.000000 -0.000004 -0.667232 -0.000714 -1.113082
    11 11.423456 -0.000001 -0.000006 0.000002 0.000021 -1.455050
    12 13.479675 -0.000001 -0.000004 -3.375521 0.484584 0.773078
    13 2.050504 0.662485 -1.659293 1.442523 0.513325 1.674745
    14 1.066186 0.000002 0.000000 0.000008 0.000008 -0.000016
    15 1.466006 0.000001 0.000000 -0.000002 -0.000003 -0.000001
    16 5.193865 -0.001289 -1.622130 0.396858 0.061952 1.425972
    17 1.525720 0.000002 -0.000003 -0.000002 -0.000009 0.549766
    18 1.473166 0.000001 0.000000 0.000002 0.000002 0.549774
    19 4.977361 -0.298621 -0.436308 0.137412 0.032765 1.275441
    20 2.175557 -0.000002 0.000002 -0.000005 -0.000008 0.994829
    21 1.705902 0.000005 -0.000003 0.000004 -0.000002 0.994832
    22 5.227223 -0.016870 0.516780 -0.201762 -0.056576 1.297348
    23 1.850598 -0.000001 0.000001 -0.000001 -0.000003 1.099553
    24 1.530746 0.000001 -0.000001 0.000002 -0.000007 1.099536
    25 5.193868 0.001289 1.622131 -0.396583 -0.063750 1.417931
    26 1.485056 0.000002 0.000000 0.000000 -0.000004 1.178095
    27 1.294656 0.000006 0.000000 0.000002 -0.000005 1.178071
    28 -0.000001 0.001007 -2.684130 0.157181 1.084748 -3.020643
    29 7.524247 0.000002 0.000001 -0.341577 0.084716 -1.006058
    30 11.423455 0.000000 -0.000003 0.000009 -0.000007 -2.065858
    31 13.708146 0.000001 -0.000001 2.450993 0.381194 0.267725
    32 1.195829 -0.033343 1.114696 -1.841991 -0.484611 1.657447
    33 1.294658 0.000005 0.000001 0.000002 -0.000011 0.418875
    34 2.182010 -0.000006 0.000000 -0.000011 0.000013 0.575947
    35 4.895138 -0.386527 1.693283 -0.189719 -0.335882 0.529503
    36 1.507895 0.000004 -0.000002 0.000005 0.000002 0.698129
    37 1.370816 -0.000001 -0.000001 -0.000001 -0.000005 0.698099
    38 5.141359 -0.100724 0.541389 -0.111291 -0.084496 0.929676
    39 1.759214 0.000002 0.000002 -0.000003 0.000001 1.143164
    40 1.599286 0.000001 -0.000005 0.000001 0.000007 0.698117
    41 5.079525 -0.068058 -0.623690 0.166029 0.060351 0.926077
    42 1.688842 -0.000002 -0.000001 -0.000003 0.000006 0.820268
    43 1.507899 -0.000002 -0.000004 -0.000002 -0.000002 1.404950
    44 5.141359 -0.099000 -1.621449 0.349452 0.238665 0.964660
    45 1.256579 -0.000002 0.000000 -0.000004 0.000001 0.698118
    46 1.142346 0.000002 0.000004 0.000000 -0.000003 0.820283
    47 0.232743 -0.809297 1.175722 -3.117956 0.230511 0.116532
    48 -4.380346 0.726682 5.277395 2.490429 -0.316822 2.757033
    49 17.308260 -0.000002 0.000002 0.000012 0.000006 -0.722292
    50 15.463848 0.000002 0.000001 0.007667 -0.054088 0.179458
    51 6.097225 3.126210 -0.000760 0.000001 -0.000002 1.570796
    52 1.999104 0.000000 -0.000002 0.000000 0.000000 0.000000
    53 1.999104 0.000000 0.000001 0.000000 0.000000 0.000000
    54 -4.345164 0.828279 -5.593826 -3.400827 0.113819 2.693583
    55 17.308264 -0.000002 -0.000002 -0.000011 -0.000004 -0.827823
    56 15.463843 0.000002 -0.000002 -0.059712 0.158833 0.408764
    57 6.096773 3.126230 -0.001722 0.000012 -0.000002 1.570799
    58 1.999104 0.000000 -0.000001 0.000000 0.000000 0.000000
    59 1.999103 0.000000 0.000000 0.000000 0.000000 0.000000
    60 5.028742 -7.322620 0.014163 0.000000 0.000001 -1.536686
    61 14.325455 4.272011 1.904477 1.421981 0.126217 -1.364846
  time 7
    0 2.149622 3.662727 36.380153 0.009108 -0.064075 -2.402553
    1 1.896289 0.000000 0.000002 0.000000 -1.537898 -1.570771
    2 4.433415 -0.004191 0.144205 -0.009790 0.006787 0.175237
    3 5.339100 -0.005481 -0.000121 0.017761 -0.094392 0.119544
    4 6.941223 -0.005111 0.000128 -0.028919 -0.089717 0.246014
    5 6.620841 -0.004571 0.000557 -0.118316 0.030993 0.257763
    6 5.979035 -0.001001 0.000000 0.000000 0.000000 0.017453
    7 1.252573 -0.000002 0.000000 0.707914 0.153543 -0.559915
    8 -3.731832 9.544964 0.014181 0.000000 0.000001 -1.675515
    9 0.000005 0.000988 2.684133 -0.523147 -0.960110 -2.718402
    10 7.524250 0.000000 -0.000004 -0.668502 0.004567 -1.110627
    11 11.423456 -0.000001 -0.000006 0.000002 0.000021 -1.455703
    12 13.479675 -0.000001 -0.000004 -3.375521 0.484584 0.773078
    13 2.050504 0.662485 -1.659293 1.442523 0.513325 1.674745
    14 1.066186 0.000002 0.000000 0.000008 0.000008 -0.000016
    15 1.466006 0.000001 0.000000 -0.000002 -0.000003 -0.000001
    16 5.193865 -0.001289 -1.622130 0.396858 0.061952 1.425972
    17 1.525720 0.000002 -0.000003 -0.000002 -0.000009 0.549766
    18 1.473166 0.000001 0.000000 0.000002 0.000002 0.549774
    19 4.977361 -0.298621 -0.436308 0.137412 0.032765 1.275441
    20 2.175557 -0.000002 0.000002 -0.000005 -0.000008 0.994829
    21 1.705902 0.000005 -0.000003 0.000004 -0.000002 0.994832
    22 5.227223 -0.016870 0.516780 -0.201762 -0.056576 1.297348
    23 1.850598 -0.000001 0.000001 -0.000001 -0.000003 1.099553
    24 1.530746 0.000001 -0.000001 0.000002 -0.000007 1.099536
    25 5.193868 0.001289 1.622131 -0.396583 -0.063750 1.417931
    26 1.485056 0.000002 0.000000 0.000000 -0.000004 1.178095
    27 1.294656 0.000006 0.000000 0.000002 -0.000005 1.178071
    28 -0.000001 0.001007 -2.684130 0.162024 1.080725 -3.016586
    29 7.524247 0.000002 0.000001 -0.347980 0.086118 -1.009828
    30 11.423455 0.000000 -0.000003 0.000009 -0.000007 -2.065858
    31 13.708146 0.000001 -0.000001 2.450993 0.381194 0.267725
    32 1.195829 -0.033343 1.114696 -1.841991 -0.484611 1.657447
    33 1.294658 0.000005 0.000001 0.000002 -0.000011 0.418875
    34 2.182010 -0.000006 0.000000 -0.000011 0.000013 0.575947
    35 4.895138 -0.386527 1.693283 -0.189719 -0.335882 0.529503
    36 1.507895 0.000004 -0.000002 0.000005 0.000002 0.698129
    37 1.370816 -0.000001 -0.000001 -0.000001 -0.000005 0.698099
    38 5.141359 -0.100724 0.541389 -0.111291 -0.084496 0.929676
    39 1.759214 0.000002 0.000002 -0.000003 0.000001 1.143164
    40 1.599286 0.000001 -0.000005 0.000001 0.000007 0.698117
    41 5.079525 -0.068058 -0.623690 0.166029 0.060351 0.926077
    42 1.688842 -0.000002 -0.000001 -0.000003 0.000006 0.820268
    43 1.507899 -0.000002 -0.000004 -0.000002 -0.000002 1.404950
    44 5.141359 -0.099000 -1.621449 0.349452 0.238665 0.964660
    45 1.256579 -0.000002 0.000000 -0.000004 0.000001 0.698118
    46 1.142346 0.000002 0.000004 0.000000 -0.000003 0.820283
    47 0.232743 -0.809297 1.175722 -3.117956 0.230511 0.116532
    48 -4.395972 0.726682 5.269582 2.488421 -0.317195 2.757776
    49 17.308260 -0.000002 0.000002 0.000000 0.000006 -0.725945
    50 15.463848 0.000002 0.000001 0.009531 -0.056942 0.180326
    51 6.097225 3.126210 -0.000760 0.000001 -0.000002 1.570796
    52 1.999104 0.000000 -0.000002 0.000000 0.000000 0.000000
    53 1.999104 0.000000 0.000001 0.000000 0.000000 0.000000
    54 -4.325632 0.828279 -5.601639 -3.401592 0.114949 2.694793
    55 17.308264 -0.000002 -0.000002 -0.000011 -0.000004 -0.828916
    56 15.463843 0.000002 -0.000002 -0.060027 0.156949 0.408002
    57 6.096773 3.126230 -0.001722 0.000012 -0.000002 1.570799
    58 1.999104 0.000000 -0.000001 0.000000 0.000000 0.000000
    59 1.999103 0.000000 0.000000 0.000000 0.000000 0.000000
    60 5.028742 -7.322620 0.014163 0.000000 0.000001 -1.536686
    61 14.325455 4.272011 1.904477 1.421981 0.126217 -1.364846
  time 8
    0 2.118371 3.631476 36.384060 0.009492 -0.066479 -2.402970
    1 1.896289 0.000000 0.000002 0.000000 -1.536173 -1.570771
    2 4.433415 -0.004191 0.152017 -0.010374 0.007818 0.175204
    3 5.339100 -0.005481 -0.000121 0.017174 -0.094224 0.118837
    4 6.941223 -0.005111 0.000128 -0.029518 -0.089525 0.245463
    5 6.620841 -0.004571 0.000557 -0.118349 0.030861 0.258268
    6 5.979035 -0.001001 0.000000 0.000000 0.000000 0.017453
    7 1.252573 -0.000002 0.000000 0.711424 0.149946 -0.555855
    8 -3.731832 9.544964 0.014181 0.000000 0.000001 -1.675515
    9 0.000005 0.000988 2.684133 -0.526320 -0.962640 -2.714950
    10 7.524250 0.000000 -0.000004 -0.670437 0.013931 -1.108391
    11 11.423456 -0.000001 -0.000006 0.000002 0.000021 -1.456763
    12 13.479675 -0.000001 -0.000004 -3.375521 0.484584 0.773078
    13 2.050504 0.662485 -1.659293 1.442523 0.513325 1.674745
    14 1.066186 0.000002 0.000000 0.000008 0.000008 -0.000016
    15 1.466006 0.000001 0.000000 -0.000002 -0.000003 -0.000001
    16 5.193865 -0.001289 -1.622130 0.396858 0.061952 1.425972
    17 1.525720 0.000002 -0.000003 -0.000002 -0.000009 0.549766
    18 1.473166 0.000001 0.000000 0.000002 0.000002 0.549774
    19 4.977361 -0.298621 -0.436308 0.137412 0.032765 1.275441
    20 2.175557 -0.000002 0.000002 -0.000005 -0.000008 0.994829
    21 1.705902 0.000005 -0.000003 0.000004 -0.000002 0.994832
    22 5.227223 -0.016870 0.516780 -0.201762 -0.056576 1.297348
    23 1.850598 -0.000001 0.000001 -0.000001 -0.000003 1.099553
    24 1.530746 0.000001 -0.000001 0.000002 -0.000007 1.099536
    25 5.193868 0.001289 1.622131 -0.396583 -0.063750 1.417931
    26 1.485056 0.000002 0.000000 0.000000 -0.000004 1.178095
    27 1.294656 0.000006 0.000000 0.000002 -0.000005 1.178071
    28 -0.000001 0.001007 -2.684130 0.171141 1.068489 -3.009508
    29 7.524247 0.000002 0.000001 -0.362028 0.091512 -1.016203
    30 11.423455 0.000000 -0.000003 0.000009 -0.000007 -2.065858
    31 13.708146 0.000001 -0.000001 2.450993 0.381194 0.267725
    32 1.195829 -0.033343 1.114696 -1.841991 -0.484611 1.657447
    33 1.294658 0.000005 0.000001 0.000002 -0.000011 0.418875
    34 2.182010 -0.000006 0.000000 -0.000011 0.000013 0.575947
    35 4.895138 -0.386527 1.693283 -0.189719 -0.335882 0.529503
    36 1.507895 0.000004 -0.000002 0.000005 0.000002 0.698129
    37 1.370816 -0.000001 -0.000001 -0.000001 -0.000005 0.698099
    38 5.141359 -0.100724 0.541389 -0.111291 -0.084496 0.929676
    39 1.759214 0.000002 0.000002 -0.000003 0.000001 1.143164
    40 1.599286 0.000001 -0.000005 0.000001 0.000007 0.698117
    41 5.079525 -0.068058 -0.623690 0.166029 0.060351 0.926077
    42 1.688842 -0.000002 -0.000001 -0.000003 0.000006 0.820268
    43 1.507899 -0.000002 -0.000004 -0.000002 -0.000002 1.404950
    44 5.141359 -0.099000 -1.621449 0.349452 0.238665 0.964660
    45 1.256579 -0.000002 0.000000 -0.000004 0.000001 0.698118
    46 1.142346 0.000002 0.000004 0.000000 -0.000003 0.820283
    47 0.232743 -0.809297 1.175722 -3.117956 0.230511 0.116532
    48 -4.399878 0.722775 5.257863 2.488421 -0.315305 2.760841
    49 17.308260 -0.000002 0.000002 0.000012 0.000006 -0.726493
    50 15.463848 0.000002 0.000001 0.007012 -0.060502 0.177589
    51 6.097225 3.126210 -0.000760 0.000001 -0.000002 1.570796
    52 1.999104 0.000000 -0.000002 0.000000 0.000000 0.000000
    53 1.999104 0.000000 0.000001 0.000000 0.000000 0.000000
    54 -4.321726 0.832186 -5.613358 -3.401114 0.117427 2.695073
    55 17.308264 -0.000002 -0.000002 -0.000011 -0.000004 -0.833965
    56 15.463843 0.000002 -0.000002 -0.062569 0.157384 0.405952
    57 6.096773 3.126230 -0.001722 0.000012 -0.000002 1.570799
    58 1.999104 0.000000 -0.000001 0.000000 0.000000 0.000000
    59 1.999103 0.000000 0.000000 0.000000 0.000000 0.000000
    60 5.028742 -7.322620 0.014163 0.000000 0.000001 -1.536686
    61 14.325455 4.272011 1.904477 1.421981 0.126217 -1.364846
  time 9
    0 2.094933 3.611944 36.391872 0.010067 -0.070723 -2.403721
    1 1.896289 0.000000 0.000002 0.000000 -1.528169 -1.570771
    2 4.429509 -0.004191 0.187175 -0.012110 0.003180 0.175172
    3 5.339100 -0.005481 -0.000121 0.016874 -0.094068 0.118429
    4 6.941223 -0.005111 0.000128 -0.029746 -0.089309 0.245114
    5 6.620841 -0.004571 0.000557 -0.118201 0.030933 0.258417
    6 5.979035 -0.001001 0.000000 0.000000 0.000000 0.017453
    7 1.252573 -0.000002 0.000000 0.712861 0.148829 -0.553895
    8 -3.731832 9.544964 0.014181 0.000000 0.000001 -1.675515
    9 0.000005 0.000988 2.684133 -0.529810 -0.965709 -2.710979
    10 7.524250 0.000000 -0.000004 -0.672734 0.024803 -1.106918
    11 11.423456 -0.000001 -0.000006 0.000002 0.000021 -1.458069
    12 13.479675 -0.000001 -0.000004 -3.375521 0.484584 0.773078
    13 2.050504 0.662485 -1.659293 1.442523 0.513325 1.674745
    14 1.066186 0.000002 0.000000 0.000008 0.000008 -0.000016
    15 1.466006 0.000001 0.000000 -0.000002 -0.000003 -0.000001
    16 5.193865 -0.001289 -1.622130 0.396858 0.061952 1.426015
    17 1.525720 0.000002 -0.000003 -0.000002 -0.000009 0.549766
    18 1.473166 0.000001 0.000000 0.000002 0.000002 0.549774
    19 4.977361 -0.298621 -0.436308 0.137412 0.032765 1.275441
    20 2.175557 -0.000002 0.000002 -0.000005 -0.000008 0.994829
    21 1.705902 0.000005 -0.000003 0.000004 -0.000002 0.994832
    22 5.227223 -0.016870 0.516780 -0.201762 -0.056576 1.297348
    23 1.850598 -0.000001 0.000001 -0.000001 -0.000003 1.099553
    24 1.530746 0.000001 -0.000001 0.000002 -0.000007 1.099536
    25 5.193868 0.001289 1.622131 -0.396583 -0.063750 1.417931
    26 1.485056 0.000002 0.000000 0.000000 -0.000004 1.178095
    27 1.294656 0.000006 0.000000 0.000002 -0.000005 1.178071
    28 -0.000001 0.001007 -2.684130 0.163164 1.057248 -3.017449
    29 7.524247 0.000002 0.000001 -0.374069 0.101068 -1.014352
    30 11.423455 0.000000 -0.000003 0.000009 -0.000007 -2.065858
    31 13.708146 0.000001 -0.000001 2.450993 0.381194 0.267725
    32 1.195829 -0.033343 1.114696 -1.841991 -0.484611 1.657447
    33 1.294658 0.000005 0.000001 0.000002 -0.000011 0.418875
    34 2.182010 -0.000006 0.000000 -0.000011 0.000013 0.575947
    35 4.895138 -0.386527 1.693283 -0.189719 -0.335882 0.529503
    36 1.507895 0.000004 -0.000002 0.000005 0.000002 0.698129
    37 1.370816 -0.000001 -0.000001 -0.000001 -0.000005 0.698099
    38 5.141359 -0.100724 0.541389 -0.111291 -0.084496 0.929676
    39 1.759214 0.000002 0.000002 -0.000003 0.000001 1.143164
    40 1.599286 0.000001 -0.000005 0.000001 0.000007 0.698117
    41 5.079525 -0.068058 -0.623690 0.166029 0.060351 0.926077
    42 1.688842 -0.000002 -0.000001 -0.000003 0.000006 0.820268
    43 1.507899 -0.000002 -0.000004 -0.000002 -0.000002 1.404990
    44 5.141359 -0.099000 -1.621449 0.349452 0.238665 0.964660
    45 1.256579 -0.000002 0.000000 -0.000004 0.000001 0.698118
    46 1.142346 0.000002 0.000004 0.000000 -0.000003 0.820283
    47 0.232743 -0.809297 1.175722 -3.117956 0.230511 0.116532
    48 -4.376440 0.714963 5.246144 2.491577 -0.309787 2.766786
    49 17.308260 -0.000002 0.000002 0.000000 0.000006 -0.719492
    50 15.463848 0.000002 0.000001 -0.000317 -0.063286 0.170447
    51 6.097225 3.126210 -0.000760 0.000001 -0.000002 1.570796
    52 1.999104 0.000000 -0.000002 0.000000 0.000000 0.000000
    53 1.999104 0.000000 0.000001 0.000000 0.000000 0.000000
    54 -4.345164 0.843905 -5.628983 -3.397575 0.121144 2.693955
    55 17.308264 -0.000002 -0.000002 -0.000011 -0.000004 -0.844061
    56 15.463843 0.000002 -0.000002 -0.067738 0.158809 0.405952
    57 6.096773 3.126230 -0.001722 0.000012 -0.000002 1.570799
    58 1.999104 0.000000 -0.000001 0.000000 0.000000 0.000000
    59 1.999103 0.000000 0.000000 0.000000 0.000000 0.000000
    60 5.028742 -7.322620 0.014163 0.000000 0.000001 -1.536686
    61 14.325455 4.272011 1.904477 1.421981 0.126217 -1.364846
  time 10
    0 2.079307 3.647101 36.403591 0.010738 -0.075343 -2.403554
    1 1.896289 0.000000 0.000002 0.000000 -1.515756 -1.570771
    2 4.429509 -0.004191 0.241864 -0.014593 -0.005952 0.175172
    3 5.339100 -0.005481 -0.000121 0.016695 -0.093780 0.118345
    4 6.941223 -0.005111 0.000128 -0.029830 -0.088986 0.244925
    5 6.620841 -0.004571 0.000557 -0.118003 0.030969 0.258149
    6 5.979035 -0.001001 0.000000 0.000000 0.000000 0.017453
    7 1.252573 -0.000002 0.000000 0.712125 0.150685 -0.555050
    8 -3.731832 9.544964 0.014181 0.000000 0.000001 -1.675515
    9 0.000005 0.000988 2.684133 -0.532665 -0.968323 -2.707699
    10 7.524250 0.000000 -0.000004 -0.675032 0.034389 -1.106100
    11 11.423456 -0.000001 -0.000006 0.000002 0.000021 -1.459130
    12 13.479675 -0.000001 -0.000004 -3.375521 0.484584 0.773078
    13 2.050504 0.662485 -1.659293 1.442523 0.513325 1.674745
    14 1.066186 0.000002 0.000000 0.000008 0.000008 -0.000016
    15 1.466006 0.000001 0.000000 -0.000002 -0.000003 -0.000001
    16 5.193865 -0.001289 -1.622130 0.396858 0.061952 1.426015
    17 1.525720 0.000002 -0.000003 -0.000002 -0.000009 0.549766
    18 1.473166 0.000001 0.000000 0.000002 0.000002 0.549774
    19 4.977361 -0.298621 -0.436308 0.137412 0.032765 1.275441
    20 2.175557 -0.000002 0.000002 -0.000005 -0.000008 0.994829
    21 1.705902 0.000005 -0.000003 0.000004 -0.000002 0.994832
    22 5.227223 -0.016870 0.516780 -0.201762 -0.056576 1.297348
    23 1.850598 -0.000001 0.000001 -0.000001 -0.000003 1.099553
    24 1.530746 0.000001 -0.000001 0.000002 -0.000007 1.099536
    25 5.193868 0.001289 1.622131 -0.396583 -0.063750 1.417931
    26 1.485056 0.000002 0.000000 0.000000 -0.000004 1.178095
    27 1.294656 0.000006 0.000000 0.000002 -0.000005 1.178071
    28 -0.000001 0.001007 -2.684130 0.143435 1.052603 -3.035058
    29 7.524247 0.000002 0.000001 -0.379134 0.110667 -1.005646
    30 11.423455 0.000000 -0.000003 0.000009 -0.000007 -2.065858
    31 13.708146 0.000001 -0.000001 2.450993 0.381194 0.267725
    32 1.195829 -0.033343 1.114696 -1.841991 -0.484611 1.657447
    33 1.294658 0.000005 0.000001 0.000002 -0.000011 0.418875
    34 2.182010 -0.000006 0.000000 -0.000011 0.000013 0.575947
    35 4.895138 -0.386527 1.693283 -0.189719 -0.335882 0.529503
    36 1.507895 0.000004 -0.000002 0.000005 0.000002 0.698129
    37 1.370816 -0.000001 -0.000001 -0.000001 -0.000005 0.698099
    38 5.141359 -0.100724 0.541389 -0.111291 -0.084496 0.929676
    39 1.759214 0.000002 0.000002 -0.000003 0.000001 1.143164
    40 1.599286 0.000001 -0.000005 0.000001 0.000007 0.698117
    41 5.079525 -0.068058 -0.623690 0.166029 0.060351 0.926077
    42 1.688842 -0.000002 -0.000001 -0.000003 0.000006 0.820268
    43 1.507899 -0.000002 -0.000004 -0.000002 -0.000002 1.404950
    44 5.141359 -0.099000 -1.621449 0.349452 0.238665 0.964660
    45 1.256579 -0.000002 0.000000 -0.000004 0.000001 0.698118
    46 1.142346 0.000002 0.000004 0.000000 -0.000003 0.820283
    47 0.232743 -0.809297 1.175722 -3.117956 0.230511 0.116532
    48 -4.329563 0.699337 5.230518 2.497315 -0.301709 2.774682
    49 17.308260 -0.000002 0.000002 0.000000 0.000006 -0.704637
    50 15.463848 0.000002 0.000001 -0.009157 -0.063620 0.160768
    51 6.097225 3.126210 -0.000760 0.000001 -0.000002 1.570796
    52 1.999104 0.000000 -0.000002 0.000000 0.000000 0.000000
    53 1.999104 0.000000 0.000001 0.000000 0.000000 0.000000
    54 -4.388134 0.855624 -5.640702 -3.393271 0.124013 2.692465
    55 17.308264 -0.000002 -0.000002 -0.000011 -0.000004 -0.855756
    56 15.463843 0.000002 -0.000002 -0.072823 0.156901 0.410003
    57 6.096773 3.126230 -0.001722 0.000012 -0.000002 1.570799
    58 1.999104 0.000000 -0.000001 0.000000 0.000000 0.000000
    59 1.999103 0.000000 0.000000 0.000000 0.000000 0.000000
    60 5.028742 -7.322620 0.014163 0.000000 0.000001 -1.536686
    61 14.325455 4.272011 1.904477 1.421981 0.126217 -1.364846
  time 11
    0 2.059775 3.756480 36.411404 0.011122 -0.078502 -2.401303
    1 1.896289 0.000000 0.000002 0.000000 -1.506458 -1.570771
    2 4.425603 -0.004191 0.284834 -0.016458 -0.012604 0.175140
    3 5.339100 -0.005481 -0.000121 0.016491 -0.093289 0.118489
    4 6.941223 -0.005111 0.000128 -0.029961 -0.088542 0.244872
    5 6.620841 -0.004571 0.000557 -0.117904 0.030741 0.257585
    6 5.979035 -0.001001 0.000000 0.000000 0.000000 0.017453
    7 1.252573 -0.000002 0.000000 0.709686 0.154561 -0.558235
    8 -3.731832 9.544964 0.014181 0.000000 0.000001 -1.675515
    9 0.000005 0.000988 2.684133 -0.533617 -0.969567 -2.706490
    10 7.524250 0.000000 -0.000004 -0.676907 0.039848 -1.105936
    11 11.423456 -0.000001 -0.000006 0.000002 0.000021 -1.459701
    12 13.479675 -0.000001 -0.000004 -3.375521 0.484584 0.773078
    13 2.050504 0.662485 -1.659293 1.442523 0.513325 1.674745
    14 1.066186 0.000002 0.000000 0.000008 0.000008 -0.000016
    15 1.466006 0.000001 0.000000 -0.000002 -0.000003 -0.000001
    16 5.193865 -0.001289 -1.622130 0.396858 0.061952 1.425972
    17 1.525720 0.000002 -0.000003 -0.000002 -0.000009 0.549766
    18 1.473166 0.000001 0.000000 0.000002 0.000002 0.549774
    19 4.977361 -0.298621 -0.436308 0.137412 0.032765 1.275441
    20 2.175557 -0.000002 0.000002 -0.000005 -0.000008 0.994829
    21 1.705902 0.000005 -0.000003 0.000004 -0.000002 0.994832
    22 5.227223 -0.016870 0.516780 -0.201762 -0.056576 1.297348
    23 1.850598 -0.000001 0.000001 -0.000001 -0.000003 1.099553
    24 1.530746 0.000001 -0.000001 0.000002 -0.000007 1.099536
    25 5.193868 0.001289 1.622131 -0.396583 -0.063750 1.417931
    26 1.485056 0.000002 0.000000 0.000000 -0.000004 1.178095
    27 1.294656 0.000006 0.000000 0.000002 -0.000005 1.178071
    28 -0.000001 0.001007 -2.684130 0.137025 1.055547 -3.040409
    29 7.524247 0.000002 0.000001 -0.378130 0.112961 -1.001259
    30 11.423455 0.000000 -0.000003 0.000009 -0.000007 -2.065858
    31 13.708146 0.000001 -0.000001 2.450993 0.381194 0.267725
    32 1.195829 -0.033343 1.114696 -1.841991 -0.484611 1.657447
    33 1.294658 0.000005 0.000001 0.000002 -0.000011 0.418875
    34 2.182010 -0.000006 0.000000 -0.000011 0.000013 0.575947
    35 4.895138 -0.386527 1.693283 -0.189719 -0.335882 0.529503
    36 1.507895 0.000004 -0.000002 0.000005 0.000002 0.698129
    37 1.370816 -0.000001 -0.000001 -0.000001 -0.000005 0.698099
    38 5.141359 -0.100724 0.541389 -0.111291 -0.084496 0.929676
    39 1.759214 0.000002 0.000002 -0.000003 0.000001 1.143164
    40 1.599286 0.000001 -0.000005 0.000001 0.000007 0.698117
    41 5.079525 -0.068058 -0.623690 0.166029 0.060351 0.926077
    42 1.688842 -0.000002 -0.000001 -0.000003 0.000006 0.820268
    43 1.507899 -0.000002 -0.000004 -0.000002 -0.000002 1.404950
    44 5.141359 -0.099000 -1.621449 0.349452 0.238665 0.964660
    45 1.256579 -0.000002 0.000000 -0.000004 0.000001 0.698118
    46 1.142346 0.000002 0.000004 0.000000 -0.000003 0.820283
    47 0.232743 -0.809297 1.175722 -3.117956 0.230511 0.116532
    48 -4.294406 0.691525 5.222705 2.504297 -0.294376 2.780720
    49 17.308260 -0.000002 0.000002 0.000012 0.000006 -0.687956
    50 15.463848 0.000002 0.000001 -0.014647 -0.062546 0.151490
    51 6.097225 3.126210 -0.000760 0.000001 -0.000002 1.570796
    52 1.999104 0.000000 -0.000002 0.000000 0.000000 0.000000
    53 1.999104 0.000000 0.000001 0.000000 0.000000 0.000000
    54 -4.427198 0.867343 -5.652421 -3.391071 0.124122 2.692092
    55 17.308264 -0.000002 -0.000002 -0.000011 -0.000004 -0.862235
    56 15.463843 0.000002 -0.000002 -0.074451 0.151636 0.415437
    57 6.096773 3.126230 -0.001722 0.000012 -0.000002 1.570799
    58 1.999104 0.000000 -0.000001 0.000000 0.000000 0.000000
    59 1.999103 0.000000 0.000000 0.000000 0.000000 0.000000
    60 5.028742 -7.322620 0.014163 0.000000 0.000001 -1.536686
    61 14.325455 4.272011 1.904477 1.421981 0.126217 -1.364846
  time 12
    0 2.048056 3.901015 36.427030 0.011218 -0.079398 -2.396883
    1 1.896289 0.000000 0.000002 0.000000 -1.504924 -1.570771
    2 4.425603 -0.004191 0.288740 -0.016864 -0.012472 0.175140
    3 5.339100 -0.005481 -0.000121 0.016263 -0.092630 0.118813
    4 6.941223 -0.005111 0.000128 -0.030165 -0.088051 0.244925
    5 6.620841 -0.004571 0.000557 -0.118069 0.030190 0.256783
    6 5.979035 -0.001001 0.000000 0.000000 0.000000 0.017453
    7 1.252573 -0.000002 0.000000 0.706009 0.158881 -0.561735
    8 -3.731832 9.544964 0.014181 0.000000 0.000001 -1.675515
    9 0.000005 0.000988 2.684133 -0.533062 -0.969567 -2.707008
    10 7.524250 0.000000 -0.000004 -0.678237 0.041224 -1.106155
    11 11.423456 -0.000001 -0.000006 0.000002 0.000021 -1.459782
    12 13.479675 -0.000001 -0.000004 -3.375521 0.484584 0.773078
    13 2.050504 0.662485 -1.659293 1.442523 0.513325 1.674745
    14 1.066186 0.000002 0.000000 0.000008 0.000008 -0.000016
    15 1.466006 0.000001 0.000000 -0.000002 -0.000003 -0.000001
    16 5.193865 -0.001289 -1.622130 0.396858 0.061952 1.425972
    17 1.525720 0.000002 -0.000003 -0.000002 -0.000009 0.549766
    18 1.473166 0.000001 0.000000 0.000002 0.000002 0.549774
    19 4.977361 -0.298621 -0.436308 0.137412 0.032765 1.275441
    20 2.175557 -0.000002 0.000002 -0.000005 -0.000008 0.994829
    21 1.705902 0.000005 -0.000003 0.000004 -0.000002 0.994832
    22 5.227223 -0.016870 0.516780 -0.201762 -0.056576 1.297348
    23 1.850598 -0.000001 0.000001 -0.000001 -0.000003 1.099553
    24 1.530746 0.000001 -0.000001 0.000002 -0.000007 1.099536
    25 5.193868 0.001289 1.622131 -0.396583 -0.063750 1.417931
    26 1.485056 0.000002 0.000000 0.000000 -0.000004 1.178095
    27 1.294656 0.000006 0.000000 0.000002 -0.000005 1.178071
    28 -0.000001 0.001007 -2.684130 0.142865 1.059944 -3.035058
    29 7.524247 0.000002 0.000001 -0.376315 0.110964 -1.002425
    30 11.423455 0.000000 -0.000003 0.000009 -0.000007 -2.065858
    31 13.708146 0.000001 -0.000001 2.450993 0.381194 0.267725
    32 1.195829 -0.033343 1.114696 -1.841991 -0.484611 1.657447
    33 1.294658 0.000005 0.000001 0.000002 -0.000011 0.418875
    34 2.182010 -0.000006 0.000000 -0.000011 0.000013 0.575947
    35 4.895138 -0.386527 1.693283 -0.189719 -0.335882 0.529503
    36 1.507895 0.000004 -0.000002 0.000005 0.000002 0.698129
    37 1.370816 -0.000001 -0.000001 -0.000001 -0.000005 0.698099
    38 5.141359 -0.100724 0.541389 -0.111291 -0.084496 0.929676
    39 1.759214 0.000002 0.000002 -0.000003 0.000001 1.143164
    40 1.599286 0.000001 -0.000005 0.000001 0.000007 0.698117
    41 5.079525 -0.068058 -0.623690 0.166029 0.060351 0.926077
    42 1.688842 -0.000002 -0.000001 -0.000003 0.000006 0.820268
    43 1.507899 -0.000002 -0.000004 -0.000002 -0.000002 1.404950
    44 5.141359 -0.099000 -1.621449 0.349452 0.238665 0.964660
    45 1.256579 -0.000002 0.000000 -0.000004 0.000001 0.698118
    46 1.142346 0.000002 0.000004 0.000000 -0.000003 0.820283
    47 0.232743 -0.809297 1.175722 -3.117956 0.230511 0.116532
    48 -4.294406 0.687618 5.214893 2.510896 -0.289106 2.782949
    49 17.308260 -0.000002 0.000002 0.000000 0.000006 -0.674744
    50 15.463848 0.000002 0.000001 -0.014874 -0.061330 0.146483
    51 6.097225 3.126210 -0.000760 0.000001 -0.000002 1.570796
    52 1.999104 0.000000 -0.000002 0.000000 0.000000 0.000000
    53 1.999104 0.000000 0.000001 0.000000 0.000000 0.000000
    54 -4.423292 0.867343 -5.660234 -3.390498 0.122513 2.693769
    55 17.308264 -0.000002 -0.000002 -0.000011 -0.000004 -0.859879
    56 15.463843 0.000002 -0.000002 -0.072423 0.146299 0.418202
    57 6.096773 3.126230 -0.001722 0.000012 -0.000002 1.570799
    58 1.999104 0.000000 -0.000001 0.000000 0.000000 0.000000
    59 1.999103 0.000000 0.000000 0.000000 0.000000 0.000000
    60 5.028742 -7.322620 0.014163 0.000000 0.000001 -1.536686
    61 14.325455 4.272011 1.904477 1.421981 0.126217 -1.364846
  time 13
    0 2.055869 4.026019 36.454374 0.011122 -0.078455 -2.391380
    1 1.896289 0.000000 0.000002 0.000000 -1.508854 -1.570771
    2 4.425603 -0.004191 0.273115 -0.016215 -0.007702 0.175107
    3 5.339100 -0.005481 -0.000121 0.016227 -0.091995 0.119268
    4 6.941223 -0.005111 0.000128 -0.030285 -0.087631 0.245100
    5 6.620841 -0.004571 0.000557 -0.118465 0.029483 0.255951
    6 5.979035 -0.001001 0.000000 0.000000 0.000000 0.017453
    7 1.252573 -0.000002 0.000000 0.701498 0.162249 -0.564499
    8 -3.731832 9.544964 0.014181 0.000000 0.000001 -1.675515
    9 0.000005 0.000988 2.684133 -0.531793 -0.969028 -2.708303
    10 7.524250 0.000000 -0.000004 -0.678841 0.040381 -1.106482
    11 11.423456 -0.000001 -0.000006 0.000002 0.000021 -1.459782
    12 13.479675 -0.000001 -0.000004 -3.375521 0.484584 0.773078
    13 2.050504 0.662485 -1.659293 1.442523 0.513325 1.674745
    14 1.066186 0.000002 0.000000 0.000008 0.000008 -0.000016
    15 1.466006 0.000001 0.000000 -0.000002 -0.000003 -0.000001
    16 5.193865 -0.001289 -1.622130 0.396858 0.061952 1.425972
    17 1.525720 0.000002 -0.000003 -0.000002 -0.000009 0.549766
    18 1.473166 0.000001 0.000000 0.000002 0.000002 0.549774
    19 4.977361 -0.298621 -0.436308 0.137412 0.032765 1.275441
    20 2.175557 -0.000002 0.000002 -0.000005 -0.000008 0.994829
    21 1.705902 0.000005 -0.000003 0.000004 -0.000002 0.994832
    22 5.227223 -0.016870 0.516780 -0.201762 -0.056576 1.297348
    23 1.850598 -0.000001 0.000001 -0.000001 -0.000003 1.099553
    24 1.530746 0.000001 -0.000001 0.000002 -0.000007 1.099536
    25 5.193868 0.001289 1.622131 -0.396583 -0.063750 1.417931
    26 1.485056 0.000002 0.000000 0.000000 -0.000004 1.178095
    27 1.294656 0.000006 0.000000 0.000002 -0.000005 1.178071
    28 -0.000001 0.001007 -2.684130 0.149418 1.058700 -3.029361
    29 7.524247 0.000002 0.000001 -0.378656 0.110752 -1.005167
    30 11.423455 0.000000 -0.000003 0.000009 -0.000007 -2.065858
    31 13.708146 0.000001 -0.000001 2.450993 0.381194 0.267725
    32 1.195829 -0.033343 1.114696 -1.841991 -0.484611 1.657447
    33 1.294658 0.000005 0.000001 0.000002 -0.000011 0.418875
    34 2.182010 -0.000006 0.000000 -0.000011 0.000013 0.575947
    35 4.895138 -0.386527 1.693283 -0.189719 -0.335882 0.529503
    36 1.507895 0.000004 -0.000002 0.000005 0.000002 0.698129
    37 1.370816 -0.000001 -0.000001 -0.000001 -0.000005 0.698099
    38 5.141359 -0.100724 0.541389 -0.111291 -0.084496 0.929676
    39 1.759214 0.000002 0.000002 -0.000003 0.000001 1.143164
    40 1.599286 0.000001 -0.000005 0.000001 0.000007 0.698117
    41 5.079525 -0.068058 -0.623690 0.166029 0.060351 0.926077
    42 1.688842 -0.000002 -0.000001 -0.000003 0.000006 0.820268
    43 1.507899 -0.000002 -0.000004 -0.000002 -0.000002 1.404950
    44 5.141359 -0.099000 -1.621449 0.349452 0.238665 0.964660
    45 1.256579 -0.000002 0.000000 -0.000004 0.000001 0.698118
    46 1.142346 0.000002 0.000004 0.000000 -0.000003 0.820283
    47 0.232743 -0.809297 1.175722 -3.117956 0.230511 0.116532
    48 -4.317844 0.691525 5.210986 2.512139 -0.285676 2.783507
    49 17.308260 -0.000002 0.000002 0.000000 0.000006 -0.664882
    50 15.463848 0.000002 0.000001 -0.008754 -0.056713 0.144981
    51 6.097225 3.126210 -0.000760 0.000001 -0.000002 1.570796
    52 1.999104 0.000000 -0.000002 0.000000 0.000000 0.000000
    53 1.999104 0.000000 0.000001 0.000000 0.000000 0.000000
    54 -4.399853 0.863437 -5.664140 -3.389637 0.121340 2.696936
    55 17.308264 -0.000002 -0.000002 -0.000011 -0.000004 -0.851381
    56 15.463843 0.000002 -0.000002 -0.068910 0.143232 0.417630
    57 6.096773 3.126230 -0.001722 0.000012 -0.000002 1.570799
    58 1.999104 0.000000 -0.000001 0.000000 0.000000 0.000000
    59 1.999103 0.000000 0.000000 0.000000 0.000000 0.000000
    60 5.028742 -7.322620 0.014163 0.000000 0.000001 -1.536686
    61 14.325455 4.272011 1.904477 1.421981 0.126217 -1.364846
  time 14
    0 2.075401 4.119772 36.489532 0.010834 -0.076475 -2.386460
    1 1.896289 0.000000 0.000002 0.000000 -1.513982 -1.570771
    2 4.429509 -0.004191 0.249677 -0.015274 -0.002369 0.175107
    3 5.339100 -0.005481 -0.000121 0.016563 -0.091575 0.119819
    4 6.941223 -0.005111 0.000128 -0.030081 -0.087452 0.245423
    5 6.620841 -0.004571 0.000557 -0.118992 0.028908 0.255208
    6 5.979035 -0.001001 0.000000 0.000000 0.000000 0.017453
    7 1.252573 -0.000002 0.000000 0.696518 0.164220 -0.566424
    8 -3.731832 9.544964 0.014181 0.000000 0.000001 -1.675515
    9 0.000005 0.000988 2.684133 -0.530127 -0.968157 -2.710029
    10 7.524250 0.000000 -0.000004 -0.678781 0.037762 -1.107355
    11 11.423456 -0.000001 -0.000006 0.000002 0.000021 -1.459619
    12 13.479675 -0.000001 -0.000004 -3.375521 0.484584 0.773078
    13 2.050504 0.662485 -1.659293 1.442523 0.513325 1.674745
    14 1.066186 0.000002 0.000000 0.000008 0.000008 -0.000016
    15 1.466006 0.000001 0.000000 -0.000002 -0.000003 -0.000001
    16 5.193865 -0.001289 -1.622130 0.396858 0.061952 1.425972
    17 1.525720 0.000002 -0.000003 -0.000002 -0.000009 0.549766
    18 1.473166 0.000001 0.000000 0.000002 0.000002 0.549774
    19 4.977361 -0.298621 -0.436308 0.137412 0.032765 1.275441
    20 2.175557 -0.000002 0.000002 -0.000005 -0.000008 0.994829
    21 1.705902 0.000005 -0.000003 0.000004 -0.000002 0.994832
    22 5.227223 -0.016870 0.516780 -0.201762 -0.056576 1.297348
    23 1.850598 -0.000001 0.000001 -0.000001 -0.000003 1.099553
    24 1.530746 0.000001 -0.000001 0.000002 -0.000007 1.099536
    25 5.193868 0.001289 1.622131 -0.396583 -0.063750 1.417931
    26 1.485056 0.000002 0.000000 0.000000 -0.000004 1.178095
    27 1.294656 0.000006 0.000000 0.000002 -0.000005 1.178071
    28 -0.000001 0.001007 -2.684130 0.153050 1.054801 -3.026512
    29 7.524247 0.000002 0.000001 -0.382048 0.111984 -1.007155
    30 11.423455 0.000000 -0.000003 0.000009 -0.000007 -2.065858
    31 13.708146 0.000001 -0.000001 2.450993 0.381194 0.267725
    32 1.195829 -0.033343 1.114696 -1.841991 -0.484611 1.657447
    33 1.294658 0.000005 0.000001 0.000002 -0.000011 0.418875
    34 2.182010 -0.000006 0.000000 -0.000011 0.000013 0.575947
    35 4.895138 -0.386527 1.693283 -0.189719 -0.335882 0.529503
    36 1.507895 0.000004 -0.000002 0.000005 0.000002 0.698129
    37 1.370816 -0.000001 -0.000001 -0.000001 -0.000005 0.698099
    38 5.141359 -0.100724 0.541389 -0.111291 -0.084496 0.929676
    39 1.759214 0.000002 0.000002 -0.000003 0.000001 1.143164
    40 1.599286 0.000001 -0.000005 0.000001 0.000007 0.698117
    41 5.079525 -0.068058 -0.623690 0.166029 0.060351 0.926077
    42 1.688842 -0.000002 -0.000001 -0.000003 0.000006 0.820268
    43 1.507899 -0.000002 -0.000004 -0.000002 -0.000002 1.404990
    44 5.141359 -0.099000 -1.621449 0.349452 0.238665 0.964660
    45 1.256579 -0.000002 0.000000 -0.000004 0.000001 0.698118
    46 1.142346 0.000002 0.000004 0.000000 -0.000003 0.820283
    47 0.232743 -0.809297 1.175722 -3.117956 0.230511 0.116532
    48 -4.349095 0.699337 5.210986 2.505827 -0.284607 2.783228
    49 17.308260 -0.000002 0.000002 0.000000 0.000006 -0.657637
    50 15.463848 0.000002 0.000001 0.001950 -0.048908 0.143813
    51 6.097225 3.126210 -0.000760 0.000001 -0.000002 1.570796
    52 1.999104 0.000000 -0.000002 0.000000 0.000000 0.000000
    53 1.999104 0.000000 0.000001 0.000000 0.000000 0.000000
    54 -4.368602 0.859530 -5.664140 -3.388489 0.120796 2.699358
    55 17.308264 -0.000002 -0.000002 -0.000011 -0.000004 -0.841621
    56 15.463843 0.000002 -0.000002 -0.065139 0.141662 0.414055
    57 6.096773 3.126230 -0.001722 0.000012 -0.000002 1.570799
    58 1.999104 0.000000 -0.000001 0.000000 0.000000 0.000000
    59 1.999103 0.000000 0.000000 0.000000 0.000000 0.000000
    60 5.028742 -7.322620 0.014163 0.000000 0.000001 -1.536686
    61 14.325455 4.272011 1.904477 1.421981 0.126217 -1.364846
  time 15
    0 2.106652 4.190087 36.512970 0.010546 -0.074070 -2.383625
    1 1.896289 0.000000 0.000002 0.000000 -1.516618 -1.570771
    2 4.429509 -0.004191 0.237958 -0.014706 0.000112 0.175107
    3 5.339100 -0.005481 -0.000121 0.017378 -0.091479 0.120371
    4 6.941223 -0.005111 0.000128 -0.029458 -0.087535 0.245826
    5 6.620841 -0.004571 0.000557 -0.119520 0.028656 0.254762
    6 5.979035 -0.001001 0.000000 0.000000 0.000000 0.017453
    7 1.252573 -0.000002 0.000000 0.691873 0.165386 -0.567999
    8 -3.731832 9.544964 0.014181 0.000000 0.000001 -1.675515
    9 0.000005 0.000988 2.684133 -0.528065 -0.967078 -2.712187
    10 7.524250 0.000000 -0.000004 -0.678055 0.033946 -1.108936
    11 11.423456 -0.000001 -0.000006 0.000002 0.000021 -1.459374
    12 13.479675 -0.000001 -0.000004 -3.375521 0.484584 0.773078
    13 2.050504 0.662485 -1.659293 1.442523 0.513325 1.674745
    14 1.066186 0.000002 0.000000 0.000008 0.000008 -0.000016
    15 1.466006 0.000001 0.000000 -0.000002 -0.000003 -0.000001
    16 5.193865 -0.001289 -1.622130 0.396858 0.061952 1.425972
    17 1.525720 0.000002 -0.000003 -0.000002 -0.000009 0.549766
    18 1.473166 0.000001 0.000000 0.000002 0.000002 0.549774
    19 4.977361 -0.298621 -0.436308 0.137412 0.032765 1.275441
    20 2.175557 -0.000002 0.000002 -0.000005 -0.000008 0.994829
    21 1.705902 0.000005 -0.000003 0.000004 -0.000002 0.994832
    22 5.227223 -0.016870 0.516780 -0.201762 -0.056576 1.297348
    23 1.850598 -0.000001 0.000001 -0.000001 -0.000003 1.099553
    24 1.530746 0.000001 -0.000001 0.000002 -0.000007 1.099536
    25 5.193868 0.001289 1.622131 -0.396583 -0.063750 1.417931
    26 1.485056 0.000002 0.000000 0.000000 -0.000004 1.178095
    27 1.294656 0.000006 0.000000 0.000002 -0.000005 1.178071
    28 -0.000001 0.001007 -2.684130 0.156968 1.055382 -3.022973
    29 7.524247 0.000002 0.000001 -0.380519 0.110752 -1.007909
    30 11.423455 0.000000 -0.000003 0.000009 -0.000007 -2.065858
    31 13.708146 0.000001 -0.000001 2.450993 0.381194 0.267725
    32 1.195829 -0.033343 1.114696 -1.841991 -0.484611 1.657447
    33 1.294658 0.000005 0.000001 0.000002 -0.000011 0.418875
    34 2.182010 -0.000006 0.000000 -0.000011 0.000013 0.575947
    35 4.895138 -0.386527 1.693283 -0.189719 -0.335882 0.529503
    36 1.507895 0.000004 -0.000002 0.000005 0.000002 0.698129
    37 1.370816 -0.000001 -0.000001 -0.000001 -0.000005 0.698099
    38 5.141359 -0.100724 0.541389 -0.111291 -0.084496 0.929676
    39 1.759214 0.000002 0.000002 -0.000003 0.000001 1.143164
    40 1.599286 0.000001 -0.000005 0.000001 0.000007 0.698117
    41 5.079525 -0.068058 -0.623690 0.166029 0.060351 0.926077
    42 1.688842 -0.000002 -0.000001 -0.000003 0.000006 0.820268
    43 1.507899 -0.000002 -0.000004 -0.000002 -0.000002 1.404950
    44 5.141359 -0.099000 -1.621449 0.349452 0.238665 0.964660
    45 1.256579 -0.000002 0.000000 -0.000004 0.000001 0.698118
    46 1.142346 0.000002 0.000004 0.000000 -0.000003 0.820283
    47 0.232743 -0.809297 1.175722 -3.117956 0.230511 0.116532
    48 -4.360814 0.699337 5.210986 2.497506 -0.285775 2.781277
    49 17.308260 -0.000002 0.000002 0.000012 0.000006 -0.653680
    50 15.463848 0.000002 0.000001 0.011419 -0.042494 0.141010
    51 6.097225 3.126210 -0.000760 0.000001 -0.000002 1.570796
    52 1.999104 0.000000 -0.000002 0.000000 0.000000 0.000000
    53 1.999104 0.000000 0.000001 0.000000 0.000000 0.000000
    54 -4.360790 0.855624 -5.664140 -3.387246 0.120296 2.698333
    55 17.308264 -0.000002 -0.000002 -0.000011 -0.000004 -0.836236
    56 15.463843 0.000002 -0.000002 -0.063454 0.141034 0.410528
    57 6.096773 3.126230 -0.001722 0.000012 -0.000002 1.570799
    58 1.999104 0.000000 -0.000001 0.000000 0.000000 0.000000
    59 1.999103 0.000000 0.000000 0.000000 0.000000 0.000000
    60 5.028742 -7.322620 0.014163 0.000000 0.000001 -1.536686
    61 14.325455 4.272011 1.904477 1.421981 0.126217 -1.364846
  time 16
    0 2.145715 4.256495 36.520782 0.010163 -0.071477 -2.383208
    1 1.896289 0.000000 0.000002 0.000000 -1.515276 -1.570771
    2 4.429509 -0.004191 0.245770 -0.014803 -0.001734 0.175107
    3 5.339100 -0.005481 -0.000121 0.018540 -0.091659 0.120778
    4 6.941223 -0.005111 0.000128 -0.028451 -0.087811 0.246242
    5 6.620841 -0.004571 0.000557 -0.119949 0.028788 0.254733
    6 5.979035 -0.001001 0.000000 0.000000 0.000000 0.017453
    7 1.252573 -0.000002 0.000000 0.688531 0.166470 -0.569434
    8 -3.731832 9.544964 0.014181 0.000000 0.000001 -1.675515
    9 0.000005 0.000988 2.684133 -0.525844 -0.965875 -2.714432
    10 7.524250 0.000000 -0.000004 -0.676846 0.029419 -1.111064
    11 11.423456 -0.000001 -0.000006 0.000002 0.000021 -1.459130
    12 13.479675 -0.000001 -0.000004 -3.375521 0.484584 0.773078
    13 2.050504 0.662485 -1.659293 1.442523 0.513325 1.674745
    14 1.066186 0.000002 0.000000 0.000008 0.000008 -0.000016
    15 1.466006 0.000001 0.000000 -0.000002 -0.000003 -0.000001
    16 5.193865 -0.001289 -1.622130 0.396858 0.061952 1.425972
    17 1.525720 0.000002 -0.000003 -0.000002 -0.000009 0.549766
    18 1.473166 0.000001 0.000000 0.000002 0.000002 0.549774
    19 4.977361 -0.298621 -0.436308 0.137412 0.032765 1.275441
    20 2.175557 -0.000002 0.000002 -0.000005 -0.000008 0.994829
    21 1.705902 0.000005 -0.000003 0.000004 -0.000002 0.994832
    22 5.227223 -0.016870 0.516780 -0.201762 -0.056576 1.297348
    23 1.850598 -0.000001 0.000001 -0.000001 -0.000003 1.099553
    24 1.530746 0.000001 -0.000001 0.000002 -0.000007 1.099536
    25 5.193868 0.001289 1.622131 -0.396583 -0.063750 1.417931
    26 1.485056 0.000002 0.000000 0.000000 -0.000004 1.178095
    27 1.294656 0.000006 0.000000 0.000002 -0.000005 1.178071
    28 -0.000001 0.001007 -2.684130 0.158036 1.062516 -3.021506
    29 7.524247 0.000002 0.000001 -0.372301 0.107014 -1.005646
    30 11.423455 0.000000 -0.000003 0.000009 -0.000007 -2.065858
    31 13.708146 0.000001 -0.000001 2.450993 0.381194 0.267725
    32 1.195829 -0.033343 1.114696 -1.841991 -0.484611 1.657447
    33 1.294658 0.000005 0.000001 0.000002 -0.000011 0.418875
    34 2.182010 -0.000006 0.000000 -0.000011 0.000013 0.575947
    35 4.895138 -0.386527 1.693283 -0.189719 -0.335882 0.529503
    36 1.507895 0.000004 -0.000002 0.000005 0.000002 0.698129
    37 1.370816 -0.000001 -0.000001 -0.000001 -0.000005 0.698099
    38 5.141359 -0.100724 0.541389 -0.111291 -0.084496 0.929676
    39 1.759214 0.000002 0.000002 -0.000003 0.000001 1.143164
    40 1.599286 0.000001 -0.000005 0.000001 0.000007 0.698117
    41 5.079525 -0.068058 -0.623690 0.166029 0.060351 0.926077
    42 1.688842 -0.000002 -0.000001 -0.000003 0.000006 0.820268
    43 1.507899 -0.000002 -0.000004 -0.000002 -0.000002 1.404950
    44 5.141359 -0.099000 -1.621449 0.349452 0.238665 0.964660
    45 1.256579 -0.000002 0.000000 -0.000004 0.000001 0.698118
    46 1.142346 0.000002 0.000004 0.000000 -0.000003 0.820283
    47 0.232743 -0.809297 1.175722 -3.117956 0.230511 0.116532
    48 -4.353002 0.699337 5.210986 2.491864 -0.287664 2.777562
    49 17.308260 -0.000002 0.000002 0.000012 0.000006 -0.652158
    50 15.463848 0.000002 0.000001 0.015827 -0.039481 0.137338
    51 6.097225 3.126210 -0.000760 0.000001 -0.000002 1.570796
    52 1.999104 0.000000 -0.000002 0.000000 0.000000 0.000000
    53 1.999104 0.000000 0.000001 0.000000 0.000000 0.000000
    54 -4.364696 0.855624 -5.660234 -3.385716 0.119905 2.692837
    55 17.308264 -0.000002 -0.000002 -0.000011 -0.000004 -0.837330
    56 15.463843 0.000002 -0.000002 -0.065368 0.140310 0.408049
    57 6.096773 3.126230 -0.001722 0.000012 -0.000002 1.570799
    58 1.999104 0.000000 -0.000001 0.000000 0.000000 0.000000
    59 1.999103 0.000000 0.000000 0.000000 0.000000 0.000000
    60 5.028742 -7.322620 0.014163 0.000000 0.000001 -1.536686
    61 14.325455 4.272011 1.904477 1.421981 0.126217 -1.364846
  time 17
    0 2.192592 4.299465 36.512970 0.009779 -0.068837 -2.384709
    1 1.896289 0.000000 0.000002 0.000000 -1.512017 -1.570771
    2 4.429509 -0.004191 0.257489 -0.015209 -0.005844 0.175107
    3 5.339100 -0.005481 -0.000121 0.019823 -0.091983 0.120922
    4 6.941223 -0.005111 0.000128 -0.027325 -0.088159 0.246578
    5 6.620841 -0.004571 0.000557 -0.120229 0.029195 0.255208
    6 5.979035 -0.001001 0.000000 0.000000 0.000000 0.017453
    7 1.252573 -0.000002 0.000000 0.687093 0.167883 -0.570659
    8 -3.731832 9.544964 0.014181 0.000000 0.000001 -1.675515
    9 0.000005 0.000988 2.684133 -0.523544 -0.964673 -2.716849
    10 7.524250 0.000000 -0.000004 -0.675516 0.024537 -1.113300
    11 11.423456 -0.000001 -0.000006 0.000002 0.000021 -1.458803
    12 13.479675 -0.000001 -0.000004 -3.375521 0.484584 0.773078
    13 2.050504 0.662485 -1.659293 1.442523 0.513325 1.674745
    14 1.066186 0.000002 0.000000 0.000008 0.000008 -0.000016
    15 1.466006 0.000001 0.000000 -0.000002 -0.000003 -0.000001
    16 5.193865 -0.001289 -1.622130 0.396858 0.061952 1.425972
    17 1.525720 0.000002 -0.000003 -0.000002 -0.000009 0.549766
    18 1.473166 0.000001 0.000000 0.000002 0.000002 0.549774
    19 4.977361 -0.298621 -0.436308 0.137412 0.032765 1.275441
    20 2.175557 -0.000002 0.000002 -0.000005 -0.000008 0.994829
    21 1.705902 0.000005 -0.000003 0.000004 -0.000002 0.994832
    22 5.227223 -0.016870 0.516780 -0.201762 -0.056576 1.297348
    23 1.850598 -0.000001 0.000001 -0.000001 -0.000003 1.099553
    24 1.530746 0.000001 -0.000001 0.000002 -0.000007 1.099536
    25 5.193868 0.001289 1.622131 -0.396583 -0.063750 1.417931
    26 1.485056 0.000002 0.000000 0.000000 -0.000004 1.178095
    27 1.294656 0.000006 0.000000 0.000002 -0.000005 1.178071
    28 -0.000001 0.001007 -2.684130 0.152908 1.070106 -3.025476
    29 7.524247 0.000002 0.000001 -0.362984 0.104296 -1.000642
    30 11.423455 0.000000 -0.000003 0.000009 -0.000007 -2.065858
    31 13.708146 0.000001 -0.000001 2.450993 0.381194 0.267725
    32 1.195829 -0.033343 1.114696 -1.841991 -0.484611 1.657447
    33 1.294658 0.000005 0.000001 0.000002 -0.000011 0.418875
    34 2.182010 -0.000006 0.000000 -0.000011 0.000013 0.575947
    35 4.895138 -0.386527 1.693283 -0.189719 -0.335882 0.529503
    36 1.507895 0.000004 -0.000002 0.000005 0.000002 0.698129
    37 1.370816 -0.000001 -0.000001 -0.000001 -0.000005 0.698099
    38 5.141359 -0.100724 0.541389 -0.111291 -0.084496 0.929676
    39 1.759214 0.000002 0.000002 -0.000003 0.000001 1.143164
    40 1.599286 0.000001 -0.000005 0.000001 0.000007 0.698117
    41 5.079525 -0.068058 -0.623690 0.166029 0.060351 0.926077
    42 1.688842 -0.000002 -0.000001 -0.000003 0.000006 0.820268
    43 1.507899 -0.000002 -0.000004 -0.000002 -0.000002 1.404950
    44 5.141359 -0.099000 -1.621449 0.349452 0.238665 0.964660
    45 1.256579 -0.000002 0.000000 -0.000004 0.000001 0.698118
    46 1.142346 0.000002 0.000004 0.000000 -0.000003 0.820283
    47 0.232743 -0.809297 1.175722 -3.117956 0.230511 0.116532
    48 -4.329563 0.699337 5.214893 2.490238 -0.289504 2.772731
    49 17.308260 -0.000002 0.000002 0.000012 0.000006 -0.653254
    50 15.463848 0.000002 0.000001 0.014895 -0.039869 0.134368
    51 6.097225 3.126210 -0.000760 0.000001 -0.000002 1.570796
    52 1.999104 0.000000 -0.000002 0.000000 0.000000 0.000000
    53 1.999104 0.000000 0.000001 0.000000 0.000000 0.000000
    54 -4.388134 0.859530 -5.656328 -3.384472 0.119688 2.685292
    55 17.308264 -0.000002 -0.000002 -0.000011 -0.000004 -0.841453
    56 15.463843 0.000002 -0.000002 -0.069109 0.139585 0.406190
    57 6.096773 3.126230 -0.001722 0.000012 -0.000002 1.570799
    58 1.999104 0.000000 -0.000001 0.000000 0.000000 0.000000
    59 1.999103 0.000000 0.000000 0.000000 0.000000 0.000000
    60 5.028742 -7.322620 0.014163 0.000000 0.000001 -1.536686
    61 14.325455 4.272011 1.904477 1.421981 0.126217 -1.364846
  time 18
    0 2.231656 4.303371 36.509063 0.009492 -0.066385 -2.387127
    1 1.896289 0.000000 0.000002 0.000000 -1.511730 -1.570771
    2 4.429509 -0.004191 0.261396 -0.015095 -0.007378 0.175140
    3 5.339100 -0.005481 -0.000121 0.020937 -0.092318 0.120838
    4 6.941223 -0.005111 0.000128 -0.026306 -0.088458 0.246793
    5 6.620841 -0.004571 0.000557 -0.120361 0.029711 0.256070
    6 5.979035 -0.001001 0.000000 0.000000 0.000000 0.017453
    7 1.252573 -0.000002 0.000000 0.687428 0.169541 -0.571359
    8 -3.731832 9.544964 0.014181 0.000000 0.000001 -1.675515
    9 0.000005 0.000988 2.684133 -0.521403 -0.963636 -2.719093
    10 7.524250 0.000000 -0.000004 -0.674246 0.019744 -1.115155
    11 11.423456 -0.000001 -0.000006 0.000002 0.000021 -1.458477
    12 13.479675 -0.000001 -0.000004 -3.375521 0.484584 0.773078
    13 2.050504 0.662485 -1.659293 1.442523 0.513325 1.674745
    14 1.066186 0.000002 0.000000 0.000008 0.000008 -0.000016
    15 1.466006 0.000001 0.000000 -0.000002 -0.000003 -0.000001
    16 5.193865 -0.001289 -1.622130 0.396858 0.061952 1.425972
    17 1.525720 0.000002 -0.000003 -0.000002 -0.000009 0.549766
    18 1.473166 0.000001 0.000000 0.000002 0.000002 0.549774
    19 4.977361 -0.298621 -0.436308 0.137412 0.032765 1.275441
    20 2.175557 -0.000002 0.000002 -0.000005 -0.000008 0.994829
    21 1.705902 0.000005 -0.000003 0.000004 -0.000002 0.994832
    22 5.227223 -0.016870 0.516780 -0.201762 -0.056576 1.297348
    23 1.850598 -0.000001 0.000001 -0.000001 -0.000003 1.099553
    24 1.530746 0.000001 -0.000001 0.000002 -0.000007 1.099536
    25 5.193868 0.001289 1.622131 -0.396583 -0.063750 1.417931
    26 1.485056 0.000002 0.000000 0.000000 -0.000004 1.178095
    27 1.294656 0.000006 0.000000 0.000002 -0.000005 1.178071
    28 -0.000001 0.001007 -2.684130 0.147210 1.071890 -3.030310
    29 7.524247 0.000002 0.000001 -0.358731 0.104339 -0.997009
    30 11.423455 0.000000 -0.000003 0.000009 -0.000007 -2.065858
    31 13.708146 0.000001 -0.000001 2.450993 0.381194 0.267725
    32 1.195829 -0.033343 1.114696 -1.841991 -0.484611 1.657447
    33 1.294658 0.000005 0.000001 0.000002 -0.000011 0.418875
    34 2.182010 -0.000006 0.000000 -0.000011 0.000013 0.575947
    35 4.895138 -0.386527 1.693283 -0.189719 -0.335882 0.529503
    36 1.507895 0.000004 -0.000002 0.000005 0.000002 0.698129
    37 1.370816 -0.000001 -0.000001 -0.000001 -0.000005 0.698099
    38 5.141359 -0.100724 0.541389 -0.111291 -0.084496 0.929676
    39 1.759214 0.000002 0.000002 -0.000003 0.000001 1.143164
    40 1.599286 0.000001 -0.000005 0.000001 0.000007 0.698117
    41 5.079525 -0.068058 -0.623690 0.166029 0.060351 0.926077
    42 1.688842 -0.000002 -0.000001 -0.000003 0.000006 0.820268
    43 1.507899 -0.000002 -0.000004 -0.000002 -0.000002 1.404950
    44 5.141359 -0.099000 -1.621449 0.349452 0.238665 0.964660
    45 1.256579 -0.000002 0.000000 -0.000004 0.000001 0.698118
    46 1.142346 0.000002 0.000004 0.000000 -0.000003 0.820283
    47 0.232743 -0.809297 1.175722 -3.117956 0.230511 0.116532
    48 -4.321751 0.699337 5.222705 2.491003 -0.292313 2.767344
    49 17.308260 -0.000002 0.000002 0.000012 0.000006 -0.659463
    50 15.463848 0.000002 0.000001 0.011696 -0.042124 0.134568
    51 6.097225 3.126210 -0.000760 0.000001 -0.000002 1.570796
    52 1.999104 0.000000 -0.000002 0.000000 0.000000 0.000000
    53 1.999104 0.000000 0.000001 0.000000 0.000000 0.000000
    54 -4.395947 0.859530 -5.652421 -3.385237 0.119253 2.680542
    55 17.308264 -0.000002 -0.000002 -0.000011 -0.000004 -0.842294
    56 15.463843 0.000002 -0.000002 -0.071166 0.141058 0.404713
    57 6.096773 3.126230 -0.001722 0.000012 -0.000002 1.570799
    58 1.999104 0.000000 -0.000001 0.000000 0.000000 0.000000
    59 1.999103 0.000000 0.000000 0.000000 0.000000 0.000000
    60 5.028742 -7.322620 0.014163 0.000000 0.000001 -1.536686
    61 14.325455 4.272011 1.904477 1.421981 0.126217 -1.364846
  time 19
    0 2.235562 4.260401 36.505157 0.009204 -0.064593 -2.389379
    1 1.896289 0.000000 0.000002 0.000000 -1.516187 -1.570771
    2 4.429509 -0.004191 0.241864 -0.014154 -0.004478 0.175140
    3 5.339100 -0.005481 -0.000121 0.021704 -0.092606 0.120622
    4 6.941223 -0.005111 0.000128 -0.025563 -0.088674 0.246914
    5 6.620841 -0.004571 0.000557 -0.120311 0.030238 0.257050
    6 5.979035 -0.001001 0.000000 0.000000 0.000000 0.017453
    7 1.252573 -0.000002 0.000000 0.688865 0.170938 -0.571464
    8 -3.731832 9.544964 0.014181 0.000000 0.000001 -1.675515
    9 0.000005 0.000988 2.684133 -0.519340 -0.962847 -2.721078
    10 7.524250 0.000000 -0.000004 -0.673279 0.015439 -1.116355
    11 11.423456 -0.000001 -0.000006 0.000002 0.000021 -1.458150
    12 13.479675 -0.000001 -0.000004 -3.375521 0.484584 0.773078
    13 2.050504 0.662485 -1.659293 1.442523 0.513325 1.674745
    14 1.066186 0.000002 0.000000 0.000008 0.000008 -0.000016
    15 1.466006 0.000001 0.000000 -0.000002 -0.000003 -0.000001
    16 5.193865 -0.001289 -1.622130 0.396858 0.061952 1.425972
    17 1.525720 0.000002 -0.000003 -0.000002 -0.000009 0.549766
    18 1.473166 0.000001 0.000000 0.000002 0.000002 0.549774
    19 4.977361 -0.298621 -0.436308 0.137412 0.032765 1.275441
    20 2.175557 -0.000002 0.000002 -0.000005 -0.000008 0.994829
    21 1.705902 0.000005 -0.000003 0.000004 -0.000002 0.994832
    22 5.227223 -0.016870 0.516780 -0.201762 -0.056576 1.297348
    23 1.850598 -0.000001 0.000001 -0.000001 -0.000003 1.099553
    24 1.530746 0.000001 -0.000001 0.000002 -0.000007 1.099536
    25 5.193868 0.001289 1.622131 -0.396583 -0.063750 1.417931
    26 1.485056 0.000002 0.000000 0.000000 -0.000004 1.178095
    27 1.294656 0.000006 0.000000 0.000002 -0.000005 1.178071
    28 -0.000001 0.001007 -2.684130 0.138093 1.070106 -3.038510
    29 7.524247 0.000002 0.000001 -0.357632 0.106759 -0.993170
    30 11.423455 0.000000 -0.000003 0.000009 -0.000007 -2.065858
    31 13.708146 0.000001 -0.000001 2.450993 0.381194 0.267725
    32 1.195829 -0.033343 1.114696 -1.841991 -0.484611 1.657447
    33 1.294658 0.000005 0.000001 0.000002 -0.000011 0.418875
    34 2.182010 -0.000006 0.000000 -0.000011 0.000013 0.575947
    35 4.895138 -0.386527 1.693283 -0.189719 -0.335882 0.529503
    36 1.507895 0.000004 -0.000002 0.000005 0.000002 0.698129
    37 1.370816 -0.000001 -0.000001 -0.000001 -0.000005 0.698099
    38 5.141359 -0.100724 0.541389 -0.111291 -0.084496 0.929676
    39 1.759214 0.000002 0.000002 -0.000003 0.000001 1.143164
    40 1.599286 0.000001 -0.000005 0.000001 0.000007 0.698117
    41 5.079525 -0.068058 -0.623690 0.166029 0.060351 0.926077
    42 1.688842 -0.000002 -0.000001 -0.000003 0.000006 0.820268
    43 1.507899 -0.000002 -0.000004 -0.000002 -0.000002 1.404950
    44 5.141359 -0.099000 -1.621449 0.349452 0.238665 0.964660
    45 1.256579 -0.000002 0.000000 -0.000004 0.000001 0.698118
    46 1.142346 0.000002 0.000004 0.000000 -0.000003 0.820283
    47 0.232743 -0.809297 1.175722 -3.117956 0.230511 0.116532
    48 -4.337376 0.703244 5.226612 2.491290 -0.296489 2.762792
    49 17.308260 -0.000002 0.000002 0.000012 0.000006 -0.669752
    50 15.463848 0.000002 0.000001 0.009556 -0.044855 0.138440
    51 6.097225 3.126210 -0.000760 0.000001 -0.000002 1.570796
    52 1.999104 0.000000 -0.000002 0.000000 0.000000 0.000000
    53 1.999104 0.000000 0.000001 0.000000 0.000000 0.000000
    54 -4.380322 0.851718 -5.644609 -3.387724 0.118188 2.680635
    55 17.308264 -0.000002 -0.000002 -0.000011 -0.000004 -0.838424
    56 15.463843 0.000002 -0.000002 -0.069966 0.143787 0.402472
    57 6.096773 3.126230 -0.001722 0.000012 -0.000002 1.570799
    58 1.999104 0.000000 -0.000001 0.000000 0.000000 0.000000
    59 1.999103 0.000000 0.000000 0.000000 0.000000 0.000000
    60 5.028742 -7.322620 0.014163 0.000000 0.000001 -1.536686
    61 14.325455 4.272011 1.904477 1.421981 0.126217 -1.364846
  time 20
    0 2.227749 4.201806 36.505157 0.009108 -0.063650 -2.391046
    1 1.896289 0.000000 0.000002 0.000000 -1.520932 -1.570771
    2 4.429509 -0.004191 0.218426 -0.013197 -0.001398 0.175140
    3 5.339100 -0.005481 -0.000121 0.022040 -0.092834 0.120395
    4 6.941223 -0.005111 0.000128 -0.025180 -0.088794 0.246968
    5 6.620841 -0.004571 0.000557 -0.120064 0.030694 0.257941
    6 5.979035 -0.001001 0.000000 0.000000 0.000000 0.017453
    7 1.252573 -0.000002 0.000000 0.690603 0.171513 -0.571044
    8 -3.731832 9.544964 0.014181 0.000000 0.000001 -1.675515
    9 0.000005 0.000988 2.684133 -0.517675 -0.962474 -2.722632
    10 7.524250 0.000000 -0.000004 -0.672613 0.012067 -1.116736
    11 11.423456 -0.000001 -0.000006 0.000002 0.000021 -1.457906
    12 13.479675 -0.000001 -0.000004 -3.375521 0.484584 0.773078
    13 2.050504 0.662485 -1.659293 1.442523 0.513325 1.674745
    14 1.066186 0.000002 0.000000 0.000008 0.000008 -0.000016
    15 1.466006 0.000001 0.000000 -0.000002 -0.000003 -0.000001
    16 5.193865 -0.001289 -1.622130 0.396858 0.061952 1.425972
    17 1.525720 0.000002 -0.000003 -0.000002 -0.000009 0.549766
    18 1.473166 0.000001 0.000000 0.000002 0.000002 0.549774
    19 4.977361 -0.298621 -0.436308 0.137412 0.032765 1.275441
    20 2.175557 -0.000002 0.000002 -0.000005 -0.000008 0.994829
    21 1.705902 0.000005 -0.000003 0.000004 -0.000002 0.994832
    22 5.227223 -0.016870 0.516780 -0.201762 -0.056576 1.297348
    23 1.850598 -0.000001 0.000001 -0.000001 -0.000003 1.099553
    24 1.530746 0.000001 -0.000001 0.000002 -0.000007 1.099536
    25 5.193868 0.001289 1.622131 -0.396583 -0.063750 1.417931
    26 1.485056 0.000002 0.000000 0.000000 -0.000004 1.178095
    27 1.294656 0.000006 0.000000 0.000002 -0.000005 1.178071
    28 -0.000001 0.001007 -2.684130 0.126270 1.069235 -3.049041
    29 7.524247 0.000002 0.000001 -0.355960 0.109223 -0.988372
    30 11.423455 0.000000 -0.000003 0.000009 -0.000007 -2.065858
    31 13.708146 0.000001 -0.000001 2.450993 0.381194 0.267725
    32 1.195829 -0.033343 1.114696 -1.841991 -0.484611 1.657447
    33 1.294658 0.000005 0.000001 0.000002 -0.000011 0.418875
    34 2.182010 -0.000006 0.000000 -0.000011 0.000013 0.575947
    35 4.895138 -0.386527 1.693283 -0.189719 -0.335882 0.529503
    36 1.507895 0.000004 -0.000002 0.000005 0.000002 0.698129
    37 1.370816 -0.000001 -0.000001 -0.000001 -0.000005 0.698099
    38 5.141359 -0.100724 0.541389 -0.111291 -0.084496 0.929676
    39 1.759214 0.000002 0.000002 -0.000003 0.000001 1.143164
    40 1.599286 0.000001 -0.000005 0.000001 0.000007 0.698117
    41 5.079525 -0.068058 -0.623690 0.166029 0.060351 0.926077
    42 1.688842 -0.000002 -0.000001 -0.000003 0.000006 0.820268
    43 1.507899 -0.000002 -0.000004 -0.000002 -0.000002 1.404950
    44 5.141359 -0.099000 -1.621449 0.349452 0.238665 0.964660
    45 1.256579 -0.000002 0.000000 -0.000004 0.000001 0.698118
    46 1.142346 0.000002 0.000004 0.000000 -0.000003 0.820305
    47 0.232743 -0.809297 1.175722 -3.117956 0.230511 0.116532
    48 -4.353002 0.707150 5.234425 2.490429 -0.300143 2.760841
    49 17.308260 -0.000002 0.000002 0.000000 0.000006 -0.678276
    50 15.463848 0.000002 0.000001 0.008800 -0.046635 0.143313
    51 6.097225 3.126210 -0.000760 0.000001 -0.000002 1.570796
    52 1.999104 0.000000 -0.000002 0.000000 0.000000 0.000000
    53 1.999104 0.000000 0.000001 0.000000 0.000000 0.000000
    54 -4.364696 0.847811 -5.640702 -3.389924 0.117297 2.682498
    55 17.308264 -0.000002 -0.000002 -0.000011 -0.000004 -0.834974
    56 15.463843 0.000002 -0.000002 -0.068053 0.146685 0.401090
    57 6.096773 3.126230 -0.001722 0.000012 -0.000002 1.570799
    58 1.999104 0.000000 -0.000001 0.000000 0.000000 0.000000
    59 1.999103 0.000000 0.000000 0.000000 0.000000 0.000000
    60 5.028742 -7.322620 0.014163 0.000000 0.000001 -1.536686
    61 14.325455 4.272011 1.904477 1.421981 0.126217 -1.364846
  time 21
    0 2.231656 4.143210 36.501251 0.009012 -0.063509 -2.392047
    1 1.896289 0.000000 0.000002 0.000000 -1.523232 -1.570771
    2 4.429509 -0.004191 0.210613 -0.012694 -0.000571 0.175172
    3 5.339100 -0.005481 -0.000121 0.021944 -0.092953 0.120191
    4 6.941223 -0.005111 0.000128 -0.025132 -0.088794 0.246954
    5 6.620841 -0.004571 0.000557 -0.119602 0.031053 0.258535
    6 5.979035 -0.001001 0.000000 0.000000 0.000000 0.017453
    7 1.252573 -0.000002 0.000000 0.692407 0.170839 -0.570204
    8 -3.731832 9.544964 0.014181 0.000000 0.000001 -1.675515
    9 0.000005 0.000988 2.684133 -0.516723 -0.963387 -2.723236
    10 7.524250 0.000000 -0.000004 -0.672613 0.011534 -1.115646
    11 11.423456 -0.000001 -0.000006 0.000002 0.000021 -1.457661
    12 13.479675 -0.000001 -0.000004 -3.375521 0.484584 0.773078
    13 2.050504 0.662485 -1.659293 1.442523 0.513325 1.674745
    14 1.066186 0.000002 0.000000 0.000008 0.000008 -0.000016
    15 1.466006 0.000001 0.000000 -0.000002 -0.000003 -0.000001
    16 5.193865 -0.001289 -1.622130 0.396858 0.061952 1.425972
    17 1.525720 0.000002 -0.000003 -0.000002 -0.000009 0.549766
    18 1.473166 0.000001 0.000000 0.000002 0.000002 0.549774
    19 4.977361 -0.298621 -0.436308 0.137412 0.032765 1.275441
    20 2.175557 -0.000002 0.000002 -0.000005 -0.000008 0.994829
    21 1.705902 0.000005 -0.000003 0.000004 -0.000002 0.994832
    22 5.227223 -0.016870 0.516780 -0.201762 -0.056576 1.297348
    23 1.850598 -0.000001 0.000001 -0.000001 -0.000003 1.099553
    24 1.530746 0.000001 -0.000001 0.000002 -0.000007 1.099536
    25 5.193868 0.001289 1.622131 -0.396583 -0.063750 1.417931
    26 1.485056 0.000002 0.000000 0.000000 -0.000004 1.178095
    27 1.294656 0.000006 0.000000 0.000002 -0.000005 1.178071
    28 -0.000001 0.001007 -2.684130 0.122852 1.069194 -3.051976
    29 7.524247 0.000002 0.000001 -0.354908 0.109435 -0.987343
    30 11.423455 0.000000 -0.000003 0.000009 -0.000007 -2.065858
    31 13.708146 0.000001 -0.000001 2.450993 0.381194 0.267725
    32 1.195829 -0.033343 1.114696 -1.841991 -0.484611 1.657447
    33 1.294658 0.000005 0.000001 0.000002 -0.000011 0.418875
    34 2.182010 -0.000006 0.000000 -0.000011 0.000013 0.575947
    35 4.895138 -0.386527 1.693283 -0.189719 -0.335882 0.529503
    36 1.507895 0.000004 -0.000002 0.000005 0.000002 0.698129
    37 1.370816 -0.000001 -0.000001 -0.000001 -0.000005 0.698099
    38 5.141359 -0.100724 0.541389 -0.111291 -0.084496 0.929676
    39 1.759214 0.000002 0.000002 -0.000003 0.000001 1.143164
    40 1.599286 0.000001 -0.000005 0.000001 0.000007 0.698117
    41 5.079525 -0.068058 -0.623690 0.166029 0.060351 0.926077
    42 1.688842 -0.000002 -0.000001 -0.000003 0.000006 0.820268
    43 1.507899 -0.000002 -0.000004 -0.000002 -0.000002 1.404950
    44 5.141359 -0.099000 -1.621449 0.349452 0.238665 0.964660
    45 1.256579 -0.000002 0.000000 -0.000004 0.000001 0.698118
    46 1.142346 0.000002 0.000004 0.000000 -0.000003 0.820283
    47 0.232743 -0.809297 1.175722 -3.117956 0.230511 0.116532
    48 -4.360814 0.711056 5.242237 2.489281 -0.302454 2.760841
    49 17.308260 -0.000002 0.000002 0.000012 0.000006 -0.682902
    50 15.463848 0.000002 0.000001 0.008775 -0.047410 0.146683
    51 6.097225 3.126210 -0.000760 0.000001 -0.000002 1.570796
    52 1.999104 0.000000 -0.000002 0.000000 0.000000 0.000000
    53 1.999104 0.000000 0.000001 0.000000 0.000000 0.000000
    54 -4.364696 0.843905 -5.632890 -3.390785 0.116906 2.683895
    55 17.308264 -0.000002 -0.000002 -0.000011 -0.000004 -0.834049
    56 15.463843 0.000002 -0.000002 -0.067253 0.148786 0.400661
    57 6.096773 3.126230 -0.001722 0.000012 -0.000002 1.570799
    58 1.999104 0.000000 -0.000001 0.000000 0.000000 0.000000
    59 1.999103 0.000000 0.000000 0.000000 0.000000 0.000000
    60 5.028742 -7.322620 0.014163 0.000000 0.000001 -1.536686
    61 14.325455 4.272011 1.904477 1.421981 0.126217 -1.364846
  time 22
    0 2.313689 4.045551 36.430936 0.010067 -0.070676 -2.399551
    1 1.896289 0.000000 0.000002 0.000000 -1.524047 -1.570771
    2 4.429509 -0.004191 0.206707 -0.012694 -0.001087 0.175172
    3 5.339100 -0.005481 -0.000121 0.021968 -0.093565 0.121725
    4 6.941223 -0.005111 0.000128 -0.024748 -0.089022 0.247895
    5 6.620841 -0.004571 0.000557 -0.118498 0.032192 0.256783
    6 5.979035 -0.001001 0.000000 0.000000 0.000000 0.017453
    7 1.252573 -0.000002 0.000000 0.693243 0.169180 -0.568734
    8 -3.731832 9.544964 0.014181 0.000000 0.000001 -1.675515
    9 0.000005 0.000988 2.684133 -0.516406 -0.965585 -2.722977
    10 7.524250 0.000000 -0.000004 -0.672855 0.013620 -1.114664
    11 11.423456 -0.000001 -0.000006 0.000002 0.000021 -1.457416
    12 13.479675 -0.000001 -0.000004 -3.375521 0.484584 0.773078
    13 2.050504 0.662485 -1.659293 1.442523 0.513325 1.674745
    14 1.066186 0.000002 0.000000 0.000008 0.000008 -0.000016
    15 1.466006 0.000001 0.000000 -0.000002 -0.000003 -0.000001
    16 5.193865 -0.001289 -1.622130 0.396858 0.061952 1.425972
    17 1.525720 0.000002 -0.000003 -0.000002 -0.000009 0.549766
    18 1.473166 0.000001 0.000000 0.000002 0.000002 0.549774
    19 4.977361 -0.298621 -0.436308 0.137412 0.032765 1.275441
    20 2.175557 -0.000002 0.000002 -0.000005 -0.000008 0.994829
    21 1.705902 0.000005 -0.000003 0.000004 -0.000002 0.994832
    22 5.227223 -0.016870 0.516780 -0.201762 -0.056576 1.297348
    23 1.850598 -0.000001 0.000001 -0.000001 -0.000003 1.099553
    24 1.530746 0.000001 -0.000001 0.000002 -0.000007 1.099536
    25 5.193868 0.001289 1.622131 -0.396583 -0.063750 1.417931
    26 1.485056 0.000002 0.000000 0.000000 -0.000004 1.178095
    27 1.294656 0.000006 0.000000 0.000002 -0.000005 1.178071
    28 -0.000001 0.001007 -2.684130 0.140373 1.072097 -3.036352
    29 7.524247 0.000002 0.000001 -0.352472 0.104211 -0.993856
    30 11.423455 0.000000 -0.000003 0.000009 -0.000007 -2.065858
    31 13.708146 0.000001 -0.000001 2.450993 0.381194 0.267725
    32 1.195829 -0.033343 1.114696 -1.841991 -0.484611 1.657447
    33 1.294658 0.000005 0.000001 0.000002 -0.000011 0.418875
    34 2.182010 -0.000006 0.000000 -0.000011 0.000013 0.575947
    35 4.895138 -0.386527 1.693283 -0.189719 -0.335882 0.529503
    36 1.507895 0.000004 -0.000002 0.000005 0.000002 0.698129
    37 1.370816 -0.000001 -0.000001 -0.000001 -0.000005 0.698099
    38 5.141359 -0.100724 0.541389 -0.111291 -0.084496 0.929676
    39 1.759214 0.000002 0.000002 -0.000003 0.000001 1.143164
    40 1.599286 0.000001 -0.000005 0.000001 0.000007 0.698117
    41 5.079525 -0.068058 -0.623690 0.166029 0.060351 0.926077
    42 1.688842 -0.000002 -0.000001 -0.000003 0.000006 0.820268
    43 1.507899 -0.000002 -0.000004 -0.000002 -0.000002 1.404950
    44 5.141359 -0.099000 -1.621449 0.349452 0.238665 0.964660
    45 1.256579 -0.000002 0.000000 -0.000004 0.000001 0.698118
    46 1.142346 0.000002 0.000004 0.000000 -0.000003 0.820283
    47 0.232743 -0.809297 1.175722 -3.117956 0.230511 0.116532
    48 -4.356908 0.711056 5.246144 2.488038 -0.303822 2.764743
    49 17.308260 -0.000002 0.000002 0.000012 0.000006 -0.692948
    50 15.463848 0.000002 0.000001 0.009833 -0.049701 0.158865
    51 6.097225 3.126210 -0.000760 0.000001 -0.000002 1.570796
    52 1.999104 0.000000 -0.000002 0.000000 0.000000 0.000000
    53 1.999104 0.000000 0.000001 0.000000 0.000000 0.000000
    54 -4.364696 0.843905 -5.628983 -3.397766 0.117818 2.686038
    55 17.308264 -0.000002 -0.000002 -0.000011 -0.000004 -0.838676
    56 15.463843 0.000002 -0.000002 -0.061083 0.153013 0.407859
    57 6.096773 3.126230 -0.001722 0.000012 -0.000002 1.570799
    58 1.999104 0.000000 -0.000001 0.000000 0.000000 0.000000
    59 1.999103 0.000000 0.000000 0.000000 0.000000 0.000000
    60 5.028742 -7.322620 0.014163 0.000000 0.000001 -1.536686
    61 14.325455 4.272011 1.904477 1.421981 0.126217 -1.364846
  time 23
    0 2.411349 3.940079 36.348902 0.011218 -0.079162 -2.408223
    1 1.896289 0.000000 0.000002 0.000000 -1.524622 -1.570771
    2 4.429509 -0.004191 0.202800 -0.012775 -0.001866 0.175172
    3 5.339100 -0.005481 -0.000121 0.022016 -0.094272 0.123595
    4 6.941223 -0.005111 0.000128 -0.024293 -0.089285 0.249010
    5 6.620841 -0.004571 0.000557 -0.117261 0.033474 0.254584
    6 5.979035 -0.001001 0.000000 0.000000 0.000000 0.017453
    7 1.252573 -0.000002 0.000000 0.693911 0.167340 -0.567159
    8 -3.731832 9.544964 0.014181 0.000000 0.000001 -1.675515
    9 0.000005 0.000988 2.684133 -0.516089 -0.967825 -2.722718
    10 7.524250 0.000000 -0.000004 -0.673158 0.015750 -1.113900
    11 11.423456 -0.000001 -0.000006 0.000002 0.000021 -1.457253
    12 13.479675 -0.000001 -0.000004 -3.375521 0.484584 0.773078
    13 2.050504 0.662485 -1.659293 1.442523 0.513325 1.674745
    14 1.066186 0.000002 0.000000 0.000008 0.000008 -0.000016
    15 1.466006 0.000001 0.000000 -0.000002 -0.000003 -0.000001
    16 5.193865 -0.001289 -1.622130 0.396858 0.061952 1.425972
    17 1.525720 0.000002 -0.000003 -0.000002 -0.000009 0.549766
    18 1.473166 0.000001 0.000000 0.000002 0.000002 0.549774
    19 4.977361 -0.298621 -0.436308 0.137412 0.032765 1.275441
    20 2.175557 -0.000002 0.000002 -0.000005 -0.000008 0.994829
    21 1.705902 0.000005 -0.000003 0.000004 -0.000002 0.994832
    22 5.227223 -0.016870 0.516780 -0.201762 -0.056576 1.297348
    23 1.850598 -0.000001 0.000001 -0.000001 -0.000003 1.099553
    24 1.530746 0.000001 -0.000001 0.000002 -0.000007 1.099536
    25 5.193868 0.001289 1.622131 -0.396583 -0.063750 1.417931
    26 1.485056 0.000002 0.000000 0.000000 -0.000004 1.178095
    27 1.294656 0.000006 0.000000 0.000002 -0.000005 1.178071
    28 -0.000001 0.001007 -2.684130 0.161953 1.075374 -3.017104
    29 7.524247 0.000002 0.000001 -0.349700 0.098095 -1.001808
    30 11.423455 0.000000 -0.000003 0.000009 -0.000007 -2.065858
    31 13.708146 0.000001 -0.000001 2.450993 0.381194 0.267725
    32 1.195829 -0.033343 1.114696 -1.841991 -0.484611 1.657447
    33 1.294658 0.000005 0.000001 0.000002 -0.000011 0.418875
    34 2.182010 -0.000006 0.000000 -0.000011 0.000013 0.575947
    35 4.895138 -0.386527 1.693283 -0.189719 -0.335882 0.529503
    36 1.507895 0.000004 -0.000002 0.000005 0.000002 0.698129
    37 1.370816 -0.000001 -0.000001 -0.000001 -0.000005 0.698099
    38 5.141359 -0.100724 0.541389 -0.111291 -0.084496 0.929676
    39 1.759214 0.000002 0.000002 -0.000003 0.000001 1.143164
    40 1.599286 0.000001 -0.000005 0.000001 0.000007 0.698117
    41 5.079525 -0.068058 -0.623690 0.166029 0.060351 0.926077
    42 1.688842 -0.000002 -0.000001 -0.000003 0.000006 0.820268
    43 1.507899 -0.000002 -0.000004 -0.000002 -0.000002 1.404990
    44 5.141359 -0.099000 -1.621449 0.349452 0.238665 0.964660
    45 1.256579 -0.000002 0.000000 -0.000004 0.000001 0.698118
    46 1.142346 0.000002 0.000004 0.000000 -0.000003 0.820283
    47 0.232743 -0.809297 1.175722 -3.117956 0.230511 0.116532
    48 -4.353002 0.711056 5.253956 2.486699 -0.305015 2.769387
    49 17.308260 -0.000002 0.000002 0.000000 0.000006 -0.704028
    50 15.463848 0.000002 0.000001 0.004846 -0.045754 0.166141
    51 6.097225 3.126210 -0.000760 0.000001 -0.000002 1.570796
    52 1.999104 0.000000 -0.000002 0.000000 0.000000 0.000000
    53 1.999104 0.000000 0.000001 0.000000 0.000000 0.000000
    54 -4.368602 0.847811 -5.621170 -3.405896 0.118970 2.688366
    55 17.308264 -0.000002 -0.000002 -0.000011 -0.000004 -0.844482
    56 15.463843 0.000002 -0.000002 -0.065054 0.163880 0.409717
    57 6.096773 3.126230 -0.001722 0.000012 -0.000002 1.570799
    58 1.999104 0.000000 -0.000001 0.000000 0.000000 0.000000
    59 1.999103 0.000000 0.000000 0.000000 0.000000 0.000000
    60 5.028742 -7.322620 0.014163 0.000000 0.000001 -1.536686
    61 14.325455 4.272011 1.904477 1.421981 0.126217 -1.364846
end
