// Created by Crowbar 0.68
version 1
nodes
  0 "Bip01" -1
  1 "Bip01 Pelvis" 0
  2 "Bip01 Spine" 1
  3 "Bip01 Spine1" 2
  4 "Bip01 Spine2" 3
  5 "Bip01 Spine3" 4
  6 "Bip01 Neck" 5
  7 "Bip01 Head" 6
  8 "Dummy14" 7
  9 "Bip01 L Clavicle" 6
  10 "Bip01 L UpperArm" 9
  11 "Bip01 L Forearm" 10
  12 "Bip01 L Hand" 11
  13 "Bip01 L Finger0" 12
  14 "Bip01 L Finger01" 13
  15 "Bip01 L Finger02" 14
  16 "Bip01 L Finger1" 12
  17 "Bip01 L Finger11" 16
  18 "Bip01 L Finger12" 17
  19 "Bip01 L Finger2" 12
  20 "Bip01 L Finger21" 19
  21 "Bip01 L Finger22" 20
  22 "Bip01 L Finger3" 12
  23 "Bip01 L Finger31" 22
  24 "Bip01 L Finger32" 23
  25 "Bip01 L Finger4" 12
  26 "Bip01 L Finger41" 25
  27 "Bip01 L Finger42" 26
  28 "Bip01 R Clavicle" 6
  29 "Bip01 R UpperArm" 28
  30 "Bip01 R Forearm" 29
  31 "Bip01 R Hand" 30
  32 "Bip01 R Finger0" 31
  33 "Bip01 R Finger01" 32
  34 "Bip01 R Finger02" 33
  35 "Bip01 R Finger1" 31
  36 "Bip01 R Finger11" 35
  37 "Bip01 R Finger12" 36
  38 "Bip01 R Finger2" 31
  39 "Bip01 R Finger21" 38
  40 "Bip01 R Finger22" 39
  41 "Bip01 R Finger3" 31
  42 "Bip01 R Finger31" 41
  43 "Bip01 R Finger32" 42
  44 "Bip01 R Finger4" 31
  45 "Bip01 R Finger41" 44
  46 "Bip01 R Finger42" 45
  47 "ValveBiped.Bip01_R_Hand" 31
  48 "Bip01 L Thigh" 2
  49 "Bip01 L Calf" 48
  50 "Bip01 L Foot" 49
  51 "Bip01 L Toe0" 50
  52 "Bip01 L Toe01" 51
  53 "Bip01 L Toe02" 52
  54 "Bip01 R Thigh" 2
  55 "Bip01 R Calf" 54
  56 "Bip01 R Foot" 55
  57 "Bip01 R Toe0" 56
  58 "Bip01 R Toe01" 57
  59 "Bip01 R Toe02" 58
  60 "Dummy22" 2
  61 "sniper" 31
end
skeleton
  time 0
    0 0.001119 0.002459 0.000137 0.000000 0.000000 -1.570875
    1 0.001700 -0.000001 0.000004 0.000000 -0.000048 -0.000072
    2 0.003593 -0.000285 -0.000331 0.000009 0.000004 0.000010
    3 0.002210 -0.001656 0.000011 0.000000 -0.000001 -0.000002
    4 0.002407 -0.001329 0.000009 0.000000 0.000000 0.000002
    5 0.002396 -0.000818 0.000007 0.000000 0.000001 0.000008
    6 0.002257 -0.001011 0.000011 0.000000 0.000003 0.000001
    7 0.002533 0.000000 0.000006 0.000001 -0.000004 -0.000020
    8 -0.001223 0.001686 0.002460 0.000001 -0.000004 -0.000051
    9 -0.000001 0.000987 0.000454 -0.000070 -0.000041 -0.000084
    10 0.000590 0.000017 -0.000163 0.348771 0.196417 -0.126575
    11 0.001280 0.000005 -0.000110 -0.484264 0.186320 0.524196
    12 0.002713 0.000010 0.000210 -0.691612 -0.126402 1.031259
    13 0.003568 0.002307 -0.002993 0.000046 0.207646 0.000023
    14 0.003662 0.000013 -0.000001 0.000008 0.000008 -0.000016
    15 0.001127 0.000035 0.000011 -0.000002 -0.000003 -0.000001
    16 -0.044586 -0.048212 -0.004903 -0.390809 -0.229823 1.065669
    17 0.002229 0.000005 0.000004 -0.000002 -0.000009 0.792176
    18 0.000469 0.000037 -0.000009 0.000002 0.000002 0.000029
    19 0.246733 -0.076011 0.012914 -0.173036 0.002540 0.928746
    20 0.003614 0.000036 0.000000 -0.000005 -0.000008 0.785718
    21 0.002736 0.000031 -0.000013 0.000004 -0.000002 0.000001
    22 -0.097171 0.108085 -0.018402 -0.000008 -0.000009 0.961183
    23 0.002893 0.000026 0.000005 -0.000001 -0.000003 0.379940
    24 0.003369 0.000034 -0.000002 0.000002 -0.000007 0.000007
    25 -0.079742 0.345007 -0.053711 0.123440 0.117100 0.815459
    26 0.000627 0.000030 0.000004 0.000000 -0.000004 0.000018
    27 0.001652 0.000035 -0.000002 0.000002 -0.000005 0.000039
    28 0.000030 0.001003 -0.000454 0.000063 -0.000001 -0.000090
    29 0.000580 -0.000006 0.000459 0.000013 -0.000018 -0.000006
    30 0.001223 -0.000110 0.000124 0.000009 -0.000007 -0.000025
    31 0.000674 -0.000014 -0.000472 0.000045 0.000017 -0.000029
    32 0.000476 -0.002097 0.001375 -0.000039 -0.000036 0.000029
    33 0.001649 -0.000007 -0.000006 0.000002 -0.000011 0.000001
    34 0.002240 -0.000014 -0.000088 -0.000011 0.000013 -0.000009
    35 0.000454 -0.003762 0.001816 -0.000003 -0.000018 0.000021
    36 0.000039 -0.000004 -0.000005 0.000005 0.000002 0.000006
    37 0.003582 -0.000033 0.000014 -0.000001 -0.000005 0.000007
    38 0.000570 -0.003128 0.002302 -0.000003 -0.000005 0.000016
    39 0.001350 -0.000011 0.000009 -0.000003 0.000001 0.000010
    40 0.001561 -0.000030 0.000010 0.000001 0.000007 0.000007
    41 0.001231 -0.001729 -0.002586 0.000020 0.000004 0.000023
    42 0.001291 -0.000013 0.000015 -0.000003 0.000006 0.000034
    43 0.000035 -0.000029 0.000022 -0.000002 -0.000002 0.000040
    44 0.000567 -0.001421 -0.000317 0.000010 0.000015 0.000008
    45 0.002643 -0.000013 0.000012 -0.000004 0.000001 0.000019
    46 0.001676 -0.000024 0.000012 0.000000 -0.000003 0.000016
    47 0.002267 -0.000678 0.003808 -0.000125 -0.000001 0.000006
    48 -0.001306 0.000097 0.003796 0.000095 -0.000019 0.000047
    49 0.003056 -0.000060 0.000688 0.000000 0.000006 -0.000003
    50 0.002459 0.000455 0.003476 0.000011 0.000005 0.000031
    51 0.003289 0.001115 -0.000760 0.000001 -0.000002 0.000048
    52 0.002952 -0.000006 -0.000001 0.000000 0.000000 0.000000
    53 0.002951 -0.000001 -0.000001 0.000000 0.000000 0.000000
    54 -0.001282 0.000129 -0.003811 -0.000094 0.000015 0.000029
    55 0.003083 -0.000071 -0.000496 -0.000011 -0.000004 -0.000076
    56 0.002425 -0.000106 -0.001967 -0.000017 -0.000005 0.000042
    57 0.002837 0.001135 -0.001722 0.000012 -0.000002 0.000048
    58 0.002950 -0.000001 0.000003 0.000000 0.000000 0.000000
    59 0.002951 0.000000 0.000000 0.000000 0.000000 0.000000
    60 0.001538 -0.002180 0.002455 0.000002 -0.000002 -0.000047
    61 0.000801 0.002344 0.002071 0.000044 0.000007 0.000000
  time 1
    0 0.001119 0.002459 0.000137 0.000000 0.000000 -1.570875
    1 0.001700 -0.000001 0.000004 0.000000 -0.000048 -0.000072
    2 0.003593 -0.000285 -0.000331 0.000009 0.000004 0.000010
    3 0.002210 -0.001656 0.000011 0.000000 -0.000001 -0.000002
    4 0.002407 -0.001329 0.000009 0.000000 0.000000 0.000002
    5 0.002396 -0.000818 0.000007 0.000000 0.000001 0.000008
    6 0.002257 -0.001011 0.000011 0.000000 0.000003 0.000001
    7 0.002533 0.000000 0.000006 0.000001 -0.000004 -0.000020
    8 -0.001223 0.001686 0.002460 0.000001 -0.000004 -0.000051
    9 -0.000001 0.000987 0.000454 -0.000070 -0.000041 -0.000084
    10 0.000590 0.000017 -0.000163 0.348771 0.196417 -0.126575
    11 0.001280 0.000005 -0.000110 -0.484264 0.186320 0.524196
    12 0.002713 0.000010 0.000210 -0.691612 -0.126402 1.031259
    13 0.003568 0.002307 -0.002993 0.000046 0.207646 0.000023
    14 0.003662 0.000013 -0.000001 0.000008 0.000008 -0.000016
    15 0.001127 0.000035 0.000011 -0.000002 -0.000003 -0.000001
    16 -0.044586 -0.048212 -0.004903 -0.390809 -0.229823 1.065669
    17 0.002229 0.000005 0.000004 -0.000002 -0.000009 0.792176
    18 0.000469 0.000037 -0.000009 0.000002 0.000002 0.000029
    19 0.246733 -0.076011 0.012914 -0.173036 0.002540 0.928746
    20 0.003614 0.000036 0.000000 -0.000005 -0.000008 0.785718
    21 0.002736 0.000031 -0.000013 0.000004 -0.000002 0.000001
    22 -0.097171 0.108085 -0.018402 -0.000008 -0.000009 0.961183
    23 0.002893 0.000026 0.000005 -0.000001 -0.000003 0.379940
    24 0.003369 0.000034 -0.000002 0.000002 -0.000007 0.000007
    25 -0.079742 0.345007 -0.053711 0.123440 0.117100 0.815459
    26 0.000627 0.000030 0.000004 0.000000 -0.000004 0.000018
    27 0.001652 0.000035 -0.000002 0.000002 -0.000005 0.000039
    28 0.000030 0.001003 -0.000454 0.000063 -0.000001 -0.000090
    29 0.000580 -0.000006 0.000459 0.000013 -0.000018 -0.000006
    30 0.001223 -0.000110 0.000124 0.000009 -0.000007 -0.000025
    31 0.000674 -0.000014 -0.000472 0.000045 0.000017 -0.000029
    32 0.000476 -0.002097 0.001375 -0.000039 -0.000036 0.000029
    33 0.001649 -0.000007 -0.000006 0.000002 -0.000011 0.000001
    34 0.002240 -0.000014 -0.000088 -0.000011 0.000013 -0.000009
    35 0.000454 -0.003762 0.001816 -0.000003 -0.000018 0.000021
    36 0.000039 -0.000004 -0.000005 0.000005 0.000002 0.000006
    37 0.003582 -0.000033 0.000014 -0.000001 -0.000005 0.000007
    38 0.000570 -0.003128 0.002302 -0.000003 -0.000005 0.000016
    39 0.001350 -0.000011 0.000009 -0.000003 0.000001 0.000010
    40 0.001561 -0.000030 0.000010 0.000001 0.000007 0.000007
    41 0.001231 -0.001729 -0.002586 0.000020 0.000004 0.000023
    42 0.001291 -0.000013 0.000015 -0.000003 0.000006 0.000034
    43 0.000035 -0.000029 0.000022 -0.000002 -0.000002 0.000040
    44 0.000567 -0.001421 -0.000317 0.000010 0.000015 0.000008
    45 0.002643 -0.000013 0.000012 -0.000004 0.000001 0.000019
    46 0.001676 -0.000024 0.000012 0.000000 -0.000003 0.000016
    47 0.002267 -0.000678 0.003808 -0.000125 -0.000001 0.000006
    48 -0.001306 0.000097 0.003796 0.000095 -0.000019 0.000047
    49 0.003056 -0.000060 0.000688 0.000000 0.000006 -0.000003
    50 0.002459 0.000455 0.003476 0.000011 0.000005 0.000031
    51 0.003289 0.001115 -0.000760 0.000001 -0.000002 0.000048
    52 0.002952 -0.000006 -0.000001 0.000000 0.000000 0.000000
    53 0.002951 -0.000001 -0.000001 0.000000 0.000000 0.000000
    54 -0.001282 0.000129 -0.003811 -0.000094 0.000015 0.000029
    55 0.003083 -0.000071 -0.000496 -0.000011 -0.000004 -0.000076
    56 0.002425 -0.000106 -0.001967 -0.000017 -0.000005 0.000042
    57 0.002837 0.001135 -0.001722 0.000012 -0.000002 0.000048
    58 0.002950 -0.000001 0.000003 0.000000 0.000000 0.000000
    59 0.002951 0.000000 0.000000 0.000000 0.000000 0.000000
    60 0.001538 -0.002180 0.002455 0.000002 -0.000002 -0.000047
    61 0.000801 0.002344 0.002071 0.000044 0.000007 0.000000
end
