// Created by Crowbar 0.68
version 1
nodes
  0 "Bip01" -1
  1 "Bip01 Pelvis" 0
  2 "Bip01 Spine" 1
  3 "Bip01 Spine1" 2
  4 "Bip01 Spine2" 3
  5 "Bip01 Spine3" 4
  6 "Bip01 Neck" 5
  7 "Bip01 Head" 6
  8 "Dummy14" 7
  9 "Bip01 L Clavicle" 6
  10 "Bip01 L UpperArm" 9
  11 "Bip01 L Forearm" 10
  12 "Bip01 L Hand" 11
  13 "Bip01 L Finger0" 12
  14 "Bip01 L Finger01" 13
  15 "Bip01 L Finger02" 14
  16 "Bip01 L Finger1" 12
  17 "Bip01 L Finger11" 16
  18 "Bip01 L Finger12" 17
  19 "Bip01 L Finger2" 12
  20 "Bip01 L Finger21" 19
  21 "Bip01 L Finger22" 20
  22 "Bip01 L Finger3" 12
  23 "Bip01 L Finger31" 22
  24 "Bip01 L Finger32" 23
  25 "Bip01 L Finger4" 12
  26 "Bip01 L Finger41" 25
  27 "Bip01 L Finger42" 26
  28 "Bip01 R Clavicle" 6
  29 "Bip01 R UpperArm" 28
  30 "Bip01 R Forearm" 29
  31 "Bip01 R Hand" 30
  32 "Bip01 R Finger0" 31
  33 "Bip01 R Finger01" 32
  34 "Bip01 R Finger02" 33
  35 "Bip01 R Finger1" 31
  36 "Bip01 R Finger11" 35
  37 "Bip01 R Finger12" 36
  38 "Bip01 R Finger2" 31
  39 "Bip01 R Finger21" 38
  40 "Bip01 R Finger22" 39
  41 "Bip01 R Finger3" 31
  42 "Bip01 R Finger31" 41
  43 "Bip01 R Finger32" 42
  44 "Bip01 R Finger4" 31
  45 "Bip01 R Finger41" 44
  46 "Bip01 R Finger42" 45
  47 "ValveBiped.Bip01_R_Hand" 31
  48 "Bip01 L Thigh" 2
  49 "Bip01 L Calf" 48
  50 "Bip01 L Foot" 49
  51 "Bip01 L Toe0" 50
  52 "Bip01 L Toe01" 51
  53 "Bip01 L Toe02" 52
  54 "Bip01 R Thigh" 2
  55 "Bip01 R Calf" 54
  56 "Bip01 R Foot" 55
  57 "Bip01 R Toe0" 56
  58 "Bip01 R Toe01" 57
  59 "Bip01 R Toe02" 58
  60 "Dummy22" 2
  61 "sniper" 31
end
skeleton
  time 0
    0 2.669169 8.174583 30.645603 0.003835 0.689406 -1.568373
    1 -4.232804 -0.070316 0.000004 -0.000086 -1.570451 -1.570710
    2 4.434193 -0.003595 0.001683 -0.406238 -0.060171 0.427069
    3 5.339529 -0.005383 0.000520 -0.093983 -0.028596 0.208541
    4 6.940794 -0.005183 0.000493 -0.094942 -0.064813 0.168238
    5 6.620027 -0.004718 0.000418 -0.087039 0.063340 0.077608
    6 5.979033 -0.000997 -0.000006 0.000000 0.000000 0.017453
    7 1.252565 0.000004 0.000002 0.435303 0.416961 -0.344818
    8 -3.731831 9.544961 0.014183 0.000000 0.000001 -1.675515
    9 0.000009 0.000990 2.684127 0.684253 -1.414718 -3.719256
    10 7.524253 -0.000005 -0.000008 -0.176856 -0.742954 -1.016318
    11 11.423454 0.000002 -0.000001 -0.241344 0.205022 -0.267110
    12 13.479672 -0.000002 -0.000005 -4.406912 0.337620 -0.920104
    13 2.050503 0.662490 -1.659300 0.877280 0.772758 0.679108
    14 1.066193 0.000001 0.000002 0.000008 0.281211 0.000001
    15 1.466011 0.000001 0.000000 -0.000002 0.207738 -0.000001
    16 5.193863 -0.001289 -1.622135 0.370332 0.158634 1.186205
    17 1.525722 0.000002 0.000000 -0.000002 -0.000009 0.593115
    18 1.473168 0.000001 0.000007 0.000002 0.000002 0.215528
    19 4.977361 -0.298618 -0.436309 0.139713 0.020852 1.360821
    20 2.175560 0.000002 0.000000 -0.000005 -0.000008 0.297183
    21 1.705904 0.000003 -0.000007 0.000004 -0.000002 0.263418
    22 5.227221 -0.016864 0.516781 -0.207124 -0.061969 1.416516
    23 1.850598 0.000002 -0.000011 -0.000001 -0.000003 0.404328
    24 1.530739 0.000004 0.000000 0.000002 -0.000007 0.000007
    25 5.193863 0.001295 1.622133 -0.391923 -0.089146 1.356771
    26 1.485044 -0.000006 -0.000001 0.000000 -0.000004 0.463478
    27 1.294661 -0.000004 0.000001 0.000002 -0.000005 0.170697
    28 -0.000002 0.001010 -2.684129 0.177480 1.164512 -2.996561
    29 7.524247 0.000007 -0.000002 -0.098465 -0.081057 -2.078466
    30 11.423450 -0.000001 0.000000 -0.114576 -0.043056 -0.519714
    31 13.708141 -0.000004 -0.000011 2.934175 0.592745 0.195230
    32 1.195827 -0.033344 1.114693 -0.915046 -0.843418 0.748275
    33 1.294661 0.000000 0.000001 0.283737 0.304529 0.027312
    34 2.182009 -0.000003 -0.000001 -0.000011 0.523417 -0.000009
    35 4.895141 -0.386528 1.693293 -0.066293 -0.054636 -0.245887
    36 1.507893 0.000000 0.000002 0.000005 0.000002 0.924220
    37 1.370811 0.000000 0.000002 -0.000001 -0.000005 0.723900
    38 5.141362 -0.100722 0.541393 0.878970 0.126636 0.893589
    39 1.759208 0.000002 -0.000005 -0.000003 0.000001 1.882034
    40 1.599283 0.000000 -0.000005 0.000001 0.000007 0.603095
    41 5.079523 -0.068059 -0.623686 0.977123 -0.308194 1.391640
    42 1.688844 -0.000005 0.000000 -0.000003 0.000006 1.368066
    43 1.507890 -0.000002 0.000010 -0.000002 -0.000002 1.016312
    44 5.141361 -0.099002 -1.621445 0.786261 -0.387373 1.828552
    45 1.256580 0.000000 0.000003 -0.000004 0.000001 0.706523
    46 1.142340 0.000000 -0.000002 0.000000 -0.000003 0.784243
    47 0.232749 -0.809303 1.175719 -3.117955 0.230511 0.116535
    48 -3.700638 -0.546795 5.933665 3.420419 -0.396464 1.165728
    49 17.308262 0.000000 0.000000 0.000000 0.000006 -0.864814
    50 15.463842 -0.000002 -0.000004 -0.014773 -0.076377 0.030136
    51 6.097225 3.126210 -0.000760 0.000001 -0.000002 1.570796
    52 1.999104 0.000000 -0.000001 0.000000 0.000000 0.000000
    53 1.999102 0.000000 0.000002 0.000000 0.000000 0.000000
    54 -4.356883 3.738524 -4.039091 -3.253730 -0.358068 1.673894
    55 17.308264 -0.000002 0.000000 -0.000011 -0.000004 -1.146284
    56 15.463841 0.000000 -0.000001 0.105237 0.095076 0.780784
    57 6.096773 3.126230 -0.001722 0.000012 -0.000002 1.570799
    58 1.999103 0.000000 0.000001 0.000000 0.000000 0.000000
    59 1.999104 0.000000 -0.000002 0.000000 0.000000 0.000000
    60 5.028743 -7.322625 0.014160 0.000000 0.000001 -1.536686
    61 14.325449 4.272008 1.904476 1.421981 0.126217 -1.364846
  time 1
    0 2.630105 8.381621 30.540131 0.003835 0.689406 -1.568373
    1 -4.232804 -0.070316 0.000004 -0.000086 -1.570451 -1.570710
    2 4.434193 -0.003595 0.001683 -0.406238 -0.060171 0.427069
    3 5.339529 -0.005383 0.000520 -0.093983 -0.028596 0.208541
    4 6.940794 -0.005183 0.000493 -0.094942 -0.064813 0.168238
    5 6.620027 -0.004718 0.000418 -0.087039 0.063340 0.077608
    6 5.979033 -0.000997 -0.000006 0.000000 0.000000 0.017453
    7 1.252565 0.000004 0.000002 0.445630 0.405808 -0.319025
    8 -3.731831 9.544961 0.014183 0.000000 0.000001 -1.675515
    9 0.000009 0.000990 2.684127 0.208050 -1.361085 -3.221030
    10 7.524253 -0.000005 -0.000008 -0.132958 -0.752185 -1.099609
    11 11.423454 0.000002 -0.000001 -0.299291 0.175171 -0.459593
    12 13.479672 -0.000002 -0.000005 -4.328234 0.354778 -0.737282
    13 2.050503 0.662490 -1.659300 0.877280 0.772758 0.679108
    14 1.066193 0.000001 0.000002 0.000008 0.281211 0.000001
    15 1.466011 0.000001 0.000000 -0.000002 0.207738 -0.000001
    16 5.193863 -0.001289 -1.622135 0.370332 0.158634 1.186205
    17 1.525722 0.000002 0.000000 -0.000002 -0.000009 0.593115
    18 1.473168 0.000001 0.000007 0.000002 0.000002 0.215528
    19 4.977361 -0.298618 -0.436309 0.139713 0.020852 1.360821
    20 2.175560 0.000002 0.000000 -0.000005 -0.000008 0.297183
    21 1.705904 0.000003 -0.000007 0.000004 -0.000002 0.263418
    22 5.227221 -0.016864 0.516781 -0.207124 -0.061969 1.416516
    23 1.850598 0.000002 -0.000011 -0.000001 -0.000003 0.404328
    24 1.530739 0.000004 0.000000 0.000002 -0.000007 0.000007
    25 5.193863 0.001295 1.622133 -0.391923 -0.089146 1.356771
    26 1.485044 -0.000006 -0.000001 0.000000 -0.000004 0.463478
    27 1.294661 -0.000004 0.000001 0.000002 -0.000005 0.170697
    28 -0.000002 0.001010 -2.684129 0.177480 1.164512 -2.996561
    29 7.524247 0.000007 -0.000002 -0.068697 -0.065087 -1.821264
    30 11.423450 -0.000001 0.000000 -0.167404 -0.094673 -0.872852
    31 13.708141 -0.000004 -0.000011 2.959546 0.598475 0.310654
    32 1.195827 -0.033344 1.114693 -0.915046 -0.843418 0.748275
    33 1.294661 0.000000 0.000001 0.283737 0.304529 0.027312
    34 2.182009 -0.000003 -0.000001 -0.000011 0.523417 -0.000009
    35 4.895141 -0.386528 1.693293 -0.066293 -0.054636 -0.245887
    36 1.507893 0.000000 0.000002 0.000005 0.000002 0.924220
    37 1.370811 0.000000 0.000002 -0.000001 -0.000005 0.723900
    38 5.141362 -0.100722 0.541393 0.878970 0.126636 0.893589
    39 1.759208 0.000002 -0.000005 -0.000003 0.000001 1.882034
    40 1.599283 0.000000 -0.000005 0.000001 0.000007 0.603095
    41 5.079523 -0.068059 -0.623686 0.977123 -0.308194 1.391640
    42 1.688844 -0.000005 0.000000 -0.000003 0.000006 1.368066
    43 1.507890 -0.000002 0.000010 -0.000002 -0.000002 1.016312
    44 5.141361 -0.099002 -1.621445 0.786261 -0.387373 1.828552
    45 1.256580 0.000000 0.000003 -0.000004 0.000001 0.706523
    46 1.142340 0.000000 -0.000002 0.000000 -0.000003 0.784243
    47 0.232749 -0.809303 1.175719 -3.117955 0.230511 0.116535
    48 -3.700638 -0.546795 5.933665 3.425392 -0.395295 1.156532
    49 17.308262 0.000000 0.000000 0.000012 0.000006 -0.866275
    50 15.463842 -0.000002 -0.000004 -0.014899 -0.078280 0.023027
    51 6.097225 3.126210 -0.000760 0.000001 -0.000002 1.570796
    52 1.999104 0.000000 -0.000001 0.000000 0.000000 0.000000
    53 1.999102 0.000000 0.000002 0.000000 0.000000 0.000000
    54 -4.356883 3.738524 -4.039091 -3.247035 -0.359263 1.658432
    55 17.308264 -0.000002 0.000000 -0.000011 -0.000004 -1.162859
    56 15.463841 0.000000 -0.000001 0.103923 0.095027 0.782357
    57 6.096773 3.126230 -0.001722 0.000012 -0.000002 1.570799
    58 1.999103 0.000000 0.000001 0.000000 0.000000 0.000000
    59 1.999104 0.000000 -0.000002 0.000000 0.000000 0.000000
    60 5.028743 -7.322625 0.014160 0.000000 0.000001 -1.536686
    61 14.325449 4.272008 1.904476 1.421981 0.126217 -1.364846
  time 2
    0 2.704326 8.783977 30.579195 0.003835 0.689406 -1.568373
    1 -4.064830 -0.203132 0.000004 -0.000086 -1.570451 -1.570710
    2 4.434193 -0.003595 0.001683 -0.406238 -0.060171 0.427069
    3 5.339529 -0.005383 0.000520 -0.093983 -0.028596 0.208541
    4 6.940794 -0.005183 0.000493 -0.174400 -0.066431 0.086955
    5 6.620027 -0.004718 0.000418 -0.087039 0.063340 0.077608
    6 5.979033 -0.000997 -0.000006 0.000000 0.000000 0.017453
    7 1.252565 0.000004 0.000002 0.561432 0.361147 -0.127797
    8 -3.731831 9.544961 0.014183 0.000000 0.000001 -1.675515
    9 0.000009 0.000990 2.684127 0.088207 -1.321100 -3.075671
    10 7.524253 -0.000005 -0.000008 -0.334429 -0.665069 -0.737319
    11 11.423454 0.000002 -0.000001 -0.356844 0.112675 -0.870015
    12 13.479672 -0.000002 -0.000005 -4.296539 0.410125 -0.548266
    13 2.050503 0.662490 -1.659300 0.877280 0.772758 0.679108
    14 1.066193 0.000001 0.000002 0.000008 0.281211 0.000001
    15 1.466011 0.000001 0.000000 -0.000002 0.207738 -0.000001
    16 5.193863 -0.001289 -1.622135 0.370332 0.158634 1.186205
    17 1.525722 0.000002 0.000000 -0.000002 -0.000009 0.593115
    18 1.473168 0.000001 0.000007 0.000002 0.000002 0.215528
    19 4.977361 -0.298618 -0.436309 0.139713 0.020852 1.360821
    20 2.175560 0.000002 0.000000 -0.000005 -0.000008 0.297183
    21 1.705904 0.000003 -0.000007 0.000004 -0.000002 0.263418
    22 5.227221 -0.016864 0.516781 -0.207124 -0.061969 1.416516
    23 1.850598 0.000002 -0.000011 -0.000001 -0.000003 0.404328
    24 1.530739 0.000004 0.000000 0.000002 -0.000007 0.000007
    25 5.193863 0.001295 1.622133 -0.391923 -0.089146 1.356771
    26 1.485044 -0.000006 -0.000001 0.000000 -0.000004 0.463478
    27 1.294661 -0.000004 0.000001 0.000002 -0.000005 0.170697
    28 -0.000002 0.001010 -2.684129 0.385665 1.142072 -2.806147
    29 7.524247 0.000007 -0.000002 -0.051066 -0.192039 -1.940474
    30 11.423450 -0.000001 0.000000 -0.159853 -0.098640 -0.896022
    31 13.708141 -0.000004 -0.000011 2.956622 0.585057 0.325022
    32 1.195827 -0.033344 1.114693 -0.915046 -0.843418 0.748275
    33 1.294661 0.000000 0.000001 0.283737 0.304529 0.027312
    34 2.182009 -0.000003 -0.000001 -0.000011 0.523417 -0.000009
    35 4.895141 -0.386528 1.693293 -0.066293 -0.054636 -0.245887
    36 1.507893 0.000000 0.000002 0.000005 0.000002 0.924220
    37 1.370811 0.000000 0.000002 -0.000001 -0.000005 0.723900
    38 5.141362 -0.100722 0.541393 0.878970 0.126636 0.893589
    39 1.759208 0.000002 -0.000005 -0.000003 0.000001 1.882034
    40 1.599283 0.000000 -0.000005 0.000001 0.000007 0.603095
    41 5.079523 -0.068059 -0.623686 0.977123 -0.308194 1.391640
    42 1.688844 -0.000005 0.000000 -0.000003 0.000006 1.368066
    43 1.507890 -0.000002 0.000010 -0.000002 -0.000002 1.016312
    44 5.141361 -0.099002 -1.621445 0.786261 -0.387373 1.828552
    45 1.256580 0.000000 0.000003 -0.000004 0.000001 0.706523
    46 1.142340 0.000000 -0.000002 0.000000 -0.000003 0.784243
    47 0.232749 -0.809303 1.175719 -3.117955 0.230511 0.116535
    48 -3.700638 -0.546795 5.933665 3.426731 -0.395444 1.150123
    49 17.308262 0.000000 0.000000 0.000000 0.000006 -0.856656
    50 15.463842 -0.000002 -0.000004 -0.012783 -0.078597 0.007641
    51 6.097225 3.126210 -0.000760 0.000001 -0.000002 1.570796
    52 1.999104 0.000000 -0.000001 0.000000 0.000000 0.000000
    53 1.999102 0.000000 0.000002 0.000000 0.000000 0.000000
    54 -4.356883 3.738524 -4.039091 -3.241870 -0.361132 1.640640
    55 17.308264 -0.000002 0.000000 -0.000011 -0.000004 -1.176321
    56 15.463841 0.000000 -0.000001 0.104951 0.095269 0.779021
    57 6.096773 3.126230 -0.001722 0.000012 -0.000002 1.570799
    58 1.999103 0.000000 0.000001 0.000000 0.000000 0.000000
    59 1.999104 0.000000 -0.000002 0.000000 0.000000 0.000000
    60 5.028743 -7.322625 0.014160 0.000000 0.000001 -1.536686
    61 14.325449 4.272008 1.904476 1.421981 0.126217 -1.364846
  time 3
    0 2.669169 9.026172 30.879985 0.003835 0.689406 -1.568373
    1 -3.533564 -0.339855 0.000004 -0.000086 -1.570451 -1.570710
    2 4.434193 -0.003595 0.001683 -0.445971 -0.042062 0.429077
    3 5.339529 -0.005383 0.000520 -0.095637 -0.039322 0.095730
    4 6.940794 -0.005183 0.000493 -0.169438 -0.065939 0.091980
    5 6.620027 -0.004718 0.000418 -0.087039 0.063340 0.077608
    6 5.979033 -0.000997 -0.000006 0.000000 0.000000 0.017453
    7 1.252565 0.000004 0.000002 0.596825 0.317011 -0.036943
    8 -3.731831 9.544961 0.014183 0.000000 0.000001 -1.675515
    9 0.000009 0.000990 2.684127 0.222803 -1.344204 -3.220599
    10 7.524253 -0.000005 -0.000008 -0.300145 -0.479165 -0.559283
    11 11.423454 0.000002 -0.000001 -0.367741 0.086885 -1.011174
    12 13.479672 -0.000002 -0.000005 -4.270996 0.348455 -0.534178
    13 2.050503 0.662490 -1.659300 0.877280 0.772758 0.679108
    14 1.066193 0.000001 0.000002 0.000008 0.281211 0.000001
    15 1.466011 0.000001 0.000000 -0.000002 0.207738 -0.000001
    16 5.193863 -0.001289 -1.622135 0.370332 0.158634 1.186205
    17 1.525722 0.000002 0.000000 -0.000002 -0.000009 0.593115
    18 1.473168 0.000001 0.000007 0.000002 0.000002 0.215528
    19 4.977361 -0.298618 -0.436309 0.139713 0.020852 1.360821
    20 2.175560 0.000002 0.000000 -0.000005 -0.000008 0.297183
    21 1.705904 0.000003 -0.000007 0.000004 -0.000002 0.263418
    22 5.227221 -0.016864 0.516781 -0.207124 -0.061969 1.416516
    23 1.850598 0.000002 -0.000011 -0.000001 -0.000003 0.404328
    24 1.530739 0.000004 0.000000 0.000002 -0.000007 0.000007
    25 5.193863 0.001295 1.622133 -0.391923 -0.089146 1.356771
    26 1.485044 -0.000006 -0.000001 0.000000 -0.000004 0.463478
    27 1.294661 -0.000004 0.000001 0.000002 -0.000005 0.170697
    28 -0.000002 0.001010 -2.684129 0.373343 1.143938 -2.817368
    29 7.524247 0.000007 -0.000002 -0.083557 -0.313343 -1.982769
    30 11.423450 -0.000001 0.000000 -0.159770 -0.082042 -0.800741
    31 13.708141 -0.000004 -0.000011 2.955018 0.601498 0.285139
    32 1.195827 -0.033344 1.114693 -0.915046 -0.843418 0.748275
    33 1.294661 0.000000 0.000001 0.283737 0.304529 0.027312
    34 2.182009 -0.000003 -0.000001 -0.000011 0.523417 -0.000009
    35 4.895141 -0.386528 1.693293 -0.066293 -0.054636 -0.245887
    36 1.507893 0.000000 0.000002 0.000005 0.000002 0.924220
    37 1.370811 0.000000 0.000002 -0.000001 -0.000005 0.723900
    38 5.141362 -0.100722 0.541393 0.878970 0.126636 0.893589
    39 1.759208 0.000002 -0.000005 -0.000003 0.000001 1.882034
    40 1.599283 0.000000 -0.000005 0.000001 0.000007 0.603095
    41 5.079523 -0.068059 -0.623686 0.977123 -0.308194 1.391640
    42 1.688844 -0.000005 0.000000 -0.000003 0.000006 1.368066
    43 1.507890 -0.000002 0.000010 -0.000002 -0.000002 1.016312
    44 5.141361 -0.099002 -1.621445 0.786261 -0.387373 1.828552
    45 1.256580 0.000000 0.000003 -0.000004 0.000001 0.706523
    46 1.142340 0.000000 -0.000002 0.000000 -0.000003 0.784243
    47 0.232749 -0.809303 1.175719 -3.117955 0.230511 0.116535
    48 -3.802204 -0.746019 5.847725 3.434860 -0.442200 1.136468
    49 17.308262 0.000000 0.000000 0.000000 0.000006 -0.863353
    50 15.463842 -0.000002 -0.000004 -0.012154 -0.085081 0.012447
    51 6.097225 3.126210 -0.000760 0.000001 -0.000002 1.570796
    52 1.999104 0.000000 -0.000001 0.000000 0.000000 0.000000
    53 1.999102 0.000000 0.000002 0.000000 0.000000 0.000000
    54 -4.259224 3.937749 -3.953151 -3.255834 -0.404146 1.638498
    55 17.308264 -0.000002 0.000000 -0.000011 -0.000004 -1.181538
    56 15.463841 0.000000 -0.000001 0.101381 0.088990 0.783215
    57 6.096773 3.126230 -0.001722 0.000012 -0.000002 1.570799
    58 1.999103 0.000000 0.000001 0.000000 0.000000 0.000000
    59 1.999104 0.000000 -0.000002 0.000000 0.000000 0.000000
    60 5.028743 -7.322625 0.014160 0.000000 0.000001 -1.536686
    61 14.325449 4.272008 1.904476 1.421981 0.126217 -1.364846
  time 4
    0 1.923052 9.084767 30.821390 0.003835 0.689406 -1.568373
    1 -3.603879 0.042969 0.000004 -0.000086 -1.570451 -1.570710
    2 4.434193 -0.003595 0.001683 -0.501489 -0.016607 0.430728
    3 5.339529 -0.005383 0.000520 -0.095565 -0.038531 0.104000
    4 6.940794 -0.005183 0.000493 -0.159119 -0.065100 0.102446
    5 6.620027 -0.004718 0.000418 -0.087039 0.063340 0.077608
    6 5.979033 -0.000997 -0.000006 0.000000 0.000000 0.017453
    7 1.252565 0.000004 0.000002 0.633387 0.302671 -0.080410
    8 -3.731831 9.544961 0.014183 0.000000 0.000001 -1.675515
    9 0.000009 0.000990 2.684127 0.212333 -1.322884 -3.194876
    10 7.524253 -0.000005 -0.000008 -0.441212 -0.477478 -0.430120
    11 11.423454 0.000002 -0.000001 -0.372383 0.074158 -1.106150
    12 13.479672 -0.000002 -0.000005 -4.267174 0.388242 -0.496375
    13 2.050503 0.662490 -1.659300 0.877280 0.772758 0.679108
    14 1.066193 0.000001 0.000002 0.000008 0.281211 0.000001
    15 1.466011 0.000001 0.000000 -0.000002 0.207738 -0.000001
    16 5.193863 -0.001289 -1.622135 0.370332 0.158634 1.186205
    17 1.525722 0.000002 0.000000 -0.000002 -0.000009 0.593115
    18 1.473168 0.000001 0.000007 0.000002 0.000002 0.215528
    19 4.977361 -0.298618 -0.436309 0.139713 0.020852 1.360821
    20 2.175560 0.000002 0.000000 -0.000005 -0.000008 0.297183
    21 1.705904 0.000003 -0.000007 0.000004 -0.000002 0.263418
    22 5.227221 -0.016864 0.516781 -0.207124 -0.061969 1.416516
    23 1.850598 0.000002 -0.000011 -0.000001 -0.000003 0.404328
    24 1.530739 0.000004 0.000000 0.000002 -0.000007 0.000007
    25 5.193863 0.001295 1.622133 -0.391923 -0.089146 1.356771
    26 1.485044 -0.000006 -0.000001 0.000000 -0.000004 0.463478
    27 1.294661 -0.000004 0.000001 0.000002 -0.000005 0.170697
    28 -0.000002 0.001010 -2.684129 0.347418 1.147589 -2.840846
    29 7.524247 0.000007 -0.000002 -0.106731 -0.269850 -2.022049
    30 11.423450 -0.000001 0.000000 -0.148121 -0.085254 -0.819782
    31 13.708141 -0.000004 -0.000011 2.950114 0.583473 0.301480
    32 1.195827 -0.033344 1.114693 -0.915046 -0.843418 0.748275
    33 1.294661 0.000000 0.000001 0.283737 0.304529 0.027312
    34 2.182009 -0.000003 -0.000001 -0.000011 0.523417 -0.000009
    35 4.895141 -0.386528 1.693293 -0.066293 -0.054636 -0.245887
    36 1.507893 0.000000 0.000002 0.000005 0.000002 0.924220
    37 1.370811 0.000000 0.000002 -0.000001 -0.000005 0.723900
    38 5.141362 -0.100722 0.541393 0.878970 0.126636 0.893589
    39 1.759208 0.000002 -0.000005 -0.000003 0.000001 1.882034
    40 1.599283 0.000000 -0.000005 0.000001 0.000007 0.603095
    41 5.079523 -0.068059 -0.623686 0.977123 -0.308194 1.391640
    42 1.688844 -0.000005 0.000000 -0.000003 0.000006 1.368066
    43 1.507890 -0.000002 0.000010 -0.000002 -0.000002 1.016312
    44 5.141361 -0.099002 -1.621445 0.786261 -0.387373 1.828552
    45 1.256580 0.000000 0.000003 -0.000004 0.000001 0.706523
    46 1.142340 0.000000 -0.000002 0.000000 -0.000003 0.784243
    47 0.232749 -0.809303 1.175719 -3.117955 0.230511 0.116535
    48 -3.938927 -1.015559 5.714908 3.463074 -0.510756 1.121977
    49 17.308262 0.000000 0.000000 0.000012 0.000006 -0.849837
    50 15.463842 -0.000002 -0.000004 -0.022077 -0.108586 0.003503
    51 6.097225 3.126210 -0.000760 0.000001 -0.000002 1.570796
    52 1.999104 0.000000 -0.000001 0.000000 0.000000 0.000000
    53 1.999102 0.000000 0.000002 0.000000 0.000000 0.000000
    54 -4.118595 4.207289 -3.820334 -3.253539 -0.464808 1.626668
    55 17.308264 -0.000002 0.000000 -0.000011 -0.000004 -1.190288
    56 15.463841 0.000000 -0.000001 0.079530 0.073920 0.779926
    57 6.096773 3.126230 -0.001722 0.000012 -0.000002 1.570799
    58 1.999103 0.000000 0.000001 0.000000 0.000000 0.000000
    59 1.999104 0.000000 -0.000002 0.000000 0.000000 0.000000
    60 5.028743 -7.322625 0.014160 0.000000 0.000001 -1.536686
    61 14.325449 4.272008 1.904476 1.421981 0.126217 -1.364846
  time 5
    0 1.446475 8.983202 30.766701 0.003835 0.689406 -1.568373
    1 -3.705444 0.062501 0.000004 -0.000086 -1.570451 -1.570710
    2 4.434193 -0.003595 0.001683 -0.490619 -0.021592 0.430501
    3 5.339529 -0.005383 0.000520 -0.095385 -0.036973 0.120359
    4 6.940794 -0.005183 0.000493 -0.148705 -0.064465 0.113032
    5 6.620027 -0.004718 0.000418 -0.087039 0.063340 0.077608
    6 5.979033 -0.000997 -0.000006 0.000000 0.000000 0.017453
    7 1.252565 0.000004 0.000002 0.607686 0.321577 -0.120692
    8 -3.731831 9.544961 0.014183 0.000000 0.000001 -1.675515
    9 0.000009 0.000990 2.684127 0.235096 -1.338977 -3.222757
    10 7.524253 -0.000005 -0.000008 -0.432384 -0.516133 -0.487774
    11 11.423454 0.000002 -0.000001 -0.367190 0.090248 -1.023331
    12 13.479672 -0.000002 -0.000005 -4.282649 0.384228 -0.537541
    13 2.050503 0.662490 -1.659300 0.877280 0.772758 0.679108
    14 1.066193 0.000001 0.000002 0.000008 0.281211 0.000001
    15 1.466011 0.000001 0.000000 -0.000002 0.207738 -0.000001
    16 5.193863 -0.001289 -1.622135 0.370332 0.158634 1.186249
    17 1.525722 0.000002 0.000000 -0.000002 -0.000009 0.593115
    18 1.473168 0.000001 0.000007 0.000002 0.000002 0.215528
    19 4.977361 -0.298618 -0.436309 0.139713 0.020852 1.360821
    20 2.175560 0.000002 0.000000 -0.000005 -0.000008 0.297183
    21 1.705904 0.000003 -0.000007 0.000004 -0.000002 0.263418
    22 5.227221 -0.016864 0.516781 -0.207124 -0.061969 1.416516
    23 1.850598 0.000002 -0.000011 -0.000001 -0.000003 0.404328
    24 1.530739 0.000004 0.000000 0.000002 -0.000007 0.000007
    25 5.193863 0.001295 1.622133 -0.391923 -0.089146 1.356771
    26 1.485044 -0.000006 -0.000001 0.000000 -0.000004 0.463478
    27 1.294661 -0.000004 0.000001 0.000002 -0.000005 0.170697
    28 -0.000002 0.001010 -2.684129 0.320923 1.151031 -2.865101
    29 7.524247 0.000007 -0.000002 -0.104485 -0.238505 -2.031303
    30 11.423450 -0.000001 0.000000 -0.142644 -0.078650 -0.779253
    31 13.708141 -0.000004 -0.000011 2.947190 0.583502 0.288290
    32 1.195827 -0.033344 1.114693 -0.915046 -0.843418 0.748275
    33 1.294661 0.000000 0.000001 0.283737 0.304529 0.027312
    34 2.182009 -0.000003 -0.000001 -0.000011 0.523417 -0.000009
    35 4.895141 -0.386528 1.693293 -0.066293 -0.054636 -0.245887
    36 1.507893 0.000000 0.000002 0.000005 0.000002 0.924220
    37 1.370811 0.000000 0.000002 -0.000001 -0.000005 0.723900
    38 5.141362 -0.100722 0.541393 0.878970 0.126636 0.893589
    39 1.759208 0.000002 -0.000005 -0.000003 0.000001 1.882034
    40 1.599283 0.000000 -0.000005 0.000001 0.000007 0.603095
    41 5.079523 -0.068059 -0.623686 0.977123 -0.308194 1.391640
    42 1.688844 -0.000005 0.000000 -0.000003 0.000006 1.368066
    43 1.507890 -0.000002 0.000010 -0.000002 -0.000002 1.016312
    44 5.141361 -0.099002 -1.621445 0.786261 -0.387373 1.828552
    45 1.256580 0.000000 0.000003 -0.000004 0.000001 0.706523
    46 1.142340 0.000000 -0.000002 0.000000 -0.000003 0.784243
    47 0.232749 -0.809303 1.175719 -3.117955 0.230511 0.116535
    48 -3.911582 -0.964776 5.742253 3.478950 -0.508767 1.127457
    49 17.308262 0.000000 0.000000 0.000000 0.000006 -0.844663
    50 15.463842 -0.000002 -0.000004 -0.028045 -0.127493 0.004437
    51 6.097225 3.126210 -0.000760 0.000001 -0.000002 1.570796
    52 1.999104 0.000000 -0.000001 0.000000 0.000000 0.000000
    53 1.999102 0.000000 0.000002 0.000000 0.000000 0.000000
    54 -4.145939 4.152600 -3.847679 -3.228385 -0.461221 1.627320
    55 17.308264 -0.000002 0.000000 -0.000011 -0.000004 -1.192055
    56 15.463841 0.000000 -0.000001 0.063792 0.059598 0.780498
    57 6.096773 3.126230 -0.001722 0.000012 -0.000002 1.570799
    58 1.999103 0.000000 0.000001 0.000000 0.000000 0.000000
    59 1.999104 0.000000 -0.000002 0.000000 0.000000 0.000000
    60 5.028743 -7.322625 0.014160 0.000000 0.000001 -1.536686
    61 14.325449 4.272008 1.904476 1.421981 0.126217 -1.364846
  time 6
    0 1.505071 8.803509 30.727637 0.003835 0.689406 -1.568373
    1 -3.807010 0.046875 0.000004 -0.000086 -1.570451 -1.570710
    2 4.434193 -0.003595 0.001683 -0.475271 -0.028639 0.430113
    3 5.339529 -0.005383 0.000520 -0.095182 -0.035403 0.136766
    4 6.940794 -0.005183 0.000493 -0.138650 -0.064070 0.123297
    5 6.620027 -0.004718 0.000418 -0.087039 0.063340 0.077608
    6 5.979033 -0.000997 -0.000006 0.000000 0.000000 0.017453
    7 1.252565 0.000004 0.000002 0.577541 0.341370 -0.160345
    8 -3.731831 9.544961 0.014183 0.000000 0.000001 -1.675515
    9 0.000009 0.000990 2.684127 0.266188 -1.356523 -3.260996
    10 7.524253 -0.000005 -0.000008 -0.408500 -0.557893 -0.561192
    11 11.423454 0.000002 -0.000001 -0.358181 0.109364 -0.923051
    12 13.479672 -0.000002 -0.000005 -4.300081 0.377229 -0.587485
    13 2.050503 0.662490 -1.659300 0.877280 0.772758 0.679108
    14 1.066193 0.000001 0.000002 0.000008 0.281211 0.000001
    15 1.466011 0.000001 0.000000 -0.000002 0.207738 -0.000001
    16 5.193863 -0.001289 -1.622135 0.370332 0.158634 1.186205
    17 1.525722 0.000002 0.000000 -0.000002 -0.000009 0.593115
    18 1.473168 0.000001 0.000007 0.000002 0.000002 0.215528
    19 4.977361 -0.298618 -0.436309 0.139713 0.020852 1.360821
    20 2.175560 0.000002 0.000000 -0.000005 -0.000008 0.297183
    21 1.705904 0.000003 -0.000007 0.000004 -0.000002 0.263418
    22 5.227221 -0.016864 0.516781 -0.207124 -0.061969 1.416516
    23 1.850598 0.000002 -0.000011 -0.000001 -0.000003 0.404328
    24 1.530739 0.000004 0.000000 0.000002 -0.000007 0.000007
    25 5.193863 0.001295 1.622133 -0.391923 -0.089146 1.356771
    26 1.485044 -0.000006 -0.000001 0.000000 -0.000004 0.463478
    27 1.294661 -0.000004 0.000001 0.000002 -0.000005 0.170697
    28 -0.000002 0.001010 -2.684129 0.294855 1.154101 -2.888924
    29 7.524247 0.000007 -0.000002 -0.101284 -0.209029 -2.038501
    30 11.423450 -0.000001 0.000000 -0.137742 -0.071735 -0.734595
    31 13.708141 -0.000004 -0.000011 2.944597 0.584913 0.272849
    32 1.195827 -0.033344 1.114693 -0.915046 -0.843418 0.748275
    33 1.294661 0.000000 0.000001 0.283737 0.304529 0.027312
    34 2.182009 -0.000003 -0.000001 -0.000011 0.523417 -0.000009
    35 4.895141 -0.386528 1.693293 -0.066293 -0.054636 -0.245887
    36 1.507893 0.000000 0.000002 0.000005 0.000002 0.924220
    37 1.370811 0.000000 0.000002 -0.000001 -0.000005 0.723900
    38 5.141362 -0.100722 0.541393 0.878970 0.126636 0.893589
    39 1.759208 0.000002 -0.000005 -0.000003 0.000001 1.882034
    40 1.599283 0.000000 -0.000005 0.000001 0.000007 0.603095
    41 5.079523 -0.068059 -0.623686 0.977123 -0.308194 1.391640
    42 1.688844 -0.000005 0.000000 -0.000003 0.000006 1.368066
    43 1.507890 -0.000002 0.000010 -0.000002 -0.000002 1.016312
    44 5.141361 -0.099002 -1.621445 0.786261 -0.387373 1.828552
    45 1.256580 0.000000 0.000003 -0.000004 0.000001 0.706523
    46 1.142340 0.000000 -0.000002 0.000000 -0.000003 0.784243
    47 0.232749 -0.809303 1.175719 -3.117955 0.230511 0.116535
    48 -3.872518 -0.890555 5.781316 3.474646 -0.491218 1.133774
    49 17.308262 0.000000 0.000000 0.000012 0.000006 -0.850324
    50 15.463842 -0.000002 -0.000004 -0.027844 -0.124903 0.011413
    51 6.097225 3.126210 -0.000760 0.000001 -0.000002 1.570796
    52 1.999104 0.000000 -0.000001 0.000000 0.000000 0.000000
    53 1.999102 0.000000 0.000002 0.000000 0.000000 0.000000
    54 -4.185003 4.078378 -3.886742 -3.226376 -0.444877 1.635424
    55 17.308264 -0.000002 0.000000 -0.000011 -0.000004 -1.186586
    56 15.463841 0.000000 -0.000001 0.065706 0.061241 0.782357
    57 6.096773 3.126230 -0.001722 0.000012 -0.000002 1.570799
    58 1.999103 0.000000 0.000001 0.000000 0.000000 0.000000
    59 1.999104 0.000000 -0.000002 0.000000 0.000000 0.000000
    60 5.028743 -7.322625 0.014160 0.000000 0.000001 -1.536686
    61 14.325449 4.272008 1.904476 1.421981 0.126217 -1.364846
  time 7
    0 1.583198 8.678505 30.704199 0.003835 0.689406 -1.568373
    1 -3.900763 0.027344 0.000004 -0.000086 -1.570451 -1.570710
    2 4.434193 -0.003595 0.001683 -0.460232 -0.035530 0.429660
    3 5.339529 -0.005383 0.000520 -0.094966 -0.033905 0.152442
    4 6.940794 -0.005183 0.000493 -0.129074 -0.063890 0.133091
    5 6.620027 -0.004718 0.000418 -0.087039 0.063340 0.077608
    6 5.979033 -0.000997 -0.000006 0.000000 0.000000 0.017453
    7 1.252565 0.000004 0.000002 0.547730 0.359553 -0.199052
    8 -3.731831 9.544961 0.014183 0.000000 0.000001 -1.675515
    9 0.000009 0.000990 2.684127 0.307034 -1.372451 -3.309333
    10 7.524253 -0.000005 -0.000008 -0.379295 -0.598589 -0.637992
    11 11.423454 0.000002 -0.000001 -0.345475 0.129049 -0.816815
    12 13.479672 -0.000002 -0.000005 -4.318259 0.370515 -0.640933
    13 2.050503 0.662490 -1.659300 0.877280 0.772758 0.679108
    14 1.066193 0.000001 0.000002 0.000008 0.281211 0.000001
    15 1.466011 0.000001 0.000000 -0.000002 0.207738 -0.000001
    16 5.193863 -0.001289 -1.622135 0.370332 0.158634 1.186205
    17 1.525722 0.000002 0.000000 -0.000002 -0.000009 0.593115
    18 1.473168 0.000001 0.000007 0.000002 0.000002 0.215528
    19 4.977361 -0.298618 -0.436309 0.139713 0.020852 1.360821
    20 2.175560 0.000002 0.000000 -0.000005 -0.000008 0.297183
    21 1.705904 0.000003 -0.000007 0.000004 -0.000002 0.263418
    22 5.227221 -0.016864 0.516781 -0.207124 -0.061969 1.416516
    23 1.850598 0.000002 -0.000011 -0.000001 -0.000003 0.404328
    24 1.530739 0.000004 0.000000 0.000002 -0.000007 0.000007
    25 5.193863 0.001295 1.622133 -0.391923 -0.089146 1.356771
    26 1.485044 -0.000006 -0.000001 0.000000 -0.000004 0.463478
    27 1.294661 -0.000004 0.000001 0.000002 -0.000005 0.170697
    28 -0.000002 0.001010 -2.684129 0.269714 1.156797 -2.911971
    29 7.524247 0.000007 -0.000002 -0.098895 -0.180954 -2.045699
    30 11.423450 -0.000001 0.000000 -0.133044 -0.065251 -0.690548
    31 13.708141 -0.000004 -0.000011 2.942286 0.586439 0.257408
    32 1.195827 -0.033344 1.114693 -0.915046 -0.843418 0.748275
    33 1.294661 0.000000 0.000001 0.283737 0.304529 0.027312
    34 2.182009 -0.000003 -0.000001 -0.000011 0.523417 -0.000009
    35 4.895141 -0.386528 1.693293 -0.066293 -0.054636 -0.245887
    36 1.507893 0.000000 0.000002 0.000005 0.000002 0.924220
    37 1.370811 0.000000 0.000002 -0.000001 -0.000005 0.723900
    38 5.141362 -0.100722 0.541393 0.878970 0.126636 0.893589
    39 1.759208 0.000002 -0.000005 -0.000003 0.000001 1.882034
    40 1.599283 0.000000 -0.000005 0.000001 0.000007 0.603095
    41 5.079523 -0.068059 -0.623686 0.977123 -0.308194 1.391640
    42 1.688844 -0.000005 0.000000 -0.000003 0.000006 1.368066
    43 1.507890 -0.000002 0.000010 -0.000002 -0.000002 1.016312
    44 5.141361 -0.099002 -1.621445 0.786261 -0.387373 1.828552
    45 1.256580 0.000000 0.000003 -0.000004 0.000001 0.706523
    46 1.142340 0.000000 -0.000002 0.000000 -0.000003 0.784243
    47 0.232749 -0.809303 1.175719 -3.117955 0.230511 0.116535
    48 -3.837361 -0.816334 5.816474 3.469195 -0.473893 1.140741
    49 17.308262 0.000000 0.000000 0.000000 0.000006 -0.851603
    50 15.463842 -0.000002 -0.000004 -0.027189 -0.121343 0.014650
    51 6.097225 3.126210 -0.000760 0.000001 -0.000002 1.570796
    52 1.999104 0.000000 -0.000001 0.000000 0.000000 0.000000
    53 1.999102 0.000000 0.000002 0.000000 0.000000 0.000000
    54 -4.224067 4.008064 -3.921900 -3.224751 -0.428641 1.641665
    55 17.308264 -0.000002 0.000000 -0.000011 -0.000004 -1.180612
    56 15.463841 0.000000 -0.000001 0.068448 0.063656 0.782119
    57 6.096773 3.126230 -0.001722 0.000012 -0.000002 1.570799
    58 1.999103 0.000000 0.000001 0.000000 0.000000 0.000000
    59 1.999104 0.000000 -0.000002 0.000000 0.000000 0.000000
    60 5.028743 -7.322625 0.014160 0.000000 0.000001 -1.536686
    61 14.325449 4.272008 1.904476 1.421981 0.126217 -1.364846
  time 8
    0 1.661326 8.569127 30.688573 0.003835 0.689406 -1.568373
    1 -3.990609 0.007812 0.000004 -0.000086 -1.570451 -1.570710
    2 4.434193 -0.003595 0.001683 -0.446101 -0.042002 0.429109
    3 5.339529 -0.005383 0.000520 -0.094738 -0.032515 0.167135
    4 6.940794 -0.005183 0.000493 -0.120110 -0.063890 0.142281
    5 6.620027 -0.004718 0.000418 -0.087039 0.063340 0.077608
    6 5.979033 -0.000997 -0.000006 0.000000 0.000000 0.017453
    7 1.252565 0.000004 0.000002 0.519122 0.375782 -0.236150
    8 -3.731831 9.544961 0.014183 0.000000 0.000001 -1.675515
    9 0.000009 0.000990 2.684127 0.360254 -1.386305 -3.370101
    10 7.524253 -0.000005 -0.000008 -0.345253 -0.637021 -0.717028
    11 11.423454 0.000002 -0.000001 -0.329110 0.148450 -0.705764
    12 13.479672 -0.000002 -0.000005 -4.336717 0.364263 -0.697072
    13 2.050503 0.662490 -1.659300 0.877280 0.772758 0.679108
    14 1.066193 0.000001 0.000002 0.000008 0.281211 0.000001
    15 1.466011 0.000001 0.000000 -0.000002 0.207738 -0.000001
    16 5.193863 -0.001289 -1.622135 0.370332 0.158634 1.186205
    17 1.525722 0.000002 0.000000 -0.000002 -0.000009 0.593115
    18 1.473168 0.000001 0.000007 0.000002 0.000002 0.215528
    19 4.977361 -0.298618 -0.436309 0.139713 0.020852 1.360821
    20 2.175560 0.000002 0.000000 -0.000005 -0.000008 0.297183
    21 1.705904 0.000003 -0.000007 0.000004 -0.000002 0.263418
    22 5.227221 -0.016864 0.516781 -0.207124 -0.061969 1.416516
    23 1.850598 0.000002 -0.000011 -0.000001 -0.000003 0.404328
    24 1.530739 0.000004 0.000000 0.000002 -0.000007 0.000007
    25 5.193863 0.001295 1.622133 -0.391923 -0.089146 1.356771
    26 1.485044 -0.000006 -0.000001 0.000000 -0.000004 0.463478
    27 1.294661 -0.000004 0.000001 0.000002 -0.000005 0.170697
    28 -0.000002 0.001010 -2.684129 0.245854 1.159120 -2.933809
    29 7.524247 0.000007 -0.000002 -0.097605 -0.154663 -2.053034
    30 11.423450 -0.000001 0.000000 -0.128346 -0.059271 -0.648107
    31 13.708141 -0.000004 -0.000011 2.940069 0.587994 0.242244
    32 1.195827 -0.033344 1.114693 -0.915046 -0.843418 0.748275
    33 1.294661 0.000000 0.000001 0.283737 0.304529 0.027312
    34 2.182009 -0.000003 -0.000001 -0.000011 0.523417 -0.000009
    35 4.895141 -0.386528 1.693293 -0.066293 -0.054636 -0.245887
    36 1.507893 0.000000 0.000002 0.000005 0.000002 0.924220
    37 1.370811 0.000000 0.000002 -0.000001 -0.000005 0.723900
    38 5.141362 -0.100722 0.541393 0.878970 0.126636 0.893589
    39 1.759208 0.000002 -0.000005 -0.000003 0.000001 1.882034
    40 1.599283 0.000000 -0.000005 0.000001 0.000007 0.603095
    41 5.079523 -0.068059 -0.623686 0.977123 -0.308194 1.391640
    42 1.688844 -0.000005 0.000000 -0.000003 0.000006 1.368066
    43 1.507890 -0.000002 0.000010 -0.000002 -0.000002 1.016312
    44 5.141361 -0.099002 -1.621445 0.786261 -0.387373 1.828552
    45 1.256580 0.000000 0.000003 -0.000004 0.000001 0.706523
    46 1.142340 0.000000 -0.000002 0.000000 -0.000003 0.784243
    47 0.232749 -0.809303 1.175719 -3.117955 0.230511 0.116535
    48 -3.802204 -0.746019 5.847725 3.463934 -0.457835 1.147800
    49 17.308262 0.000000 0.000000 0.000012 0.000006 -0.851116
    50 15.463842 -0.000002 -0.000004 -0.026534 -0.117996 0.016652
    51 6.097225 3.126210 -0.000760 0.000001 -0.000002 1.570796
    52 1.999104 0.000000 -0.000001 0.000000 0.000000 0.000000
    53 1.999102 0.000000 0.000002 0.000000 0.000000 0.000000
    54 -4.259224 3.937749 -3.953151 -3.222933 -0.413513 1.647533
    55 17.308264 -0.000002 0.000000 -0.000011 -0.000004 -1.174386
    56 15.463841 0.000000 -0.000001 0.071047 0.065853 0.781118
    57 6.096773 3.126230 -0.001722 0.000012 -0.000002 1.570799
    58 1.999103 0.000000 0.000001 0.000000 0.000000 0.000000
    59 1.999104 0.000000 -0.000002 0.000000 0.000000 0.000000
    60 5.028743 -7.322625 0.014160 0.000000 0.000001 -1.536686
    61 14.325449 4.272008 1.904476 1.421981 0.126217 -1.364846
  time 9
    0 1.743359 8.459748 30.680761 0.003835 0.689406 -1.568373
    1 -4.068737 -0.011720 0.000004 -0.000086 -1.570451 -1.570710
    2 4.434193 -0.003595 0.001683 -0.433203 -0.047886 0.428526
    3 5.339529 -0.005383 0.000520 -0.094510 -0.031245 0.180545
    4 6.940794 -0.005183 0.000493 -0.111948 -0.064046 0.150678
    5 6.620027 -0.004718 0.000418 -0.087039 0.063340 0.077608
    6 5.979033 -0.000997 -0.000006 0.000000 0.000000 0.017453
    7 1.252565 0.000004 0.000002 0.492486 0.389859 -0.270693
    8 -3.731831 9.544961 0.014183 0.000000 0.000001 -1.675515
    9 0.000009 0.000990 2.684127 0.428464 -1.397836 -3.445715
    10 7.524253 -0.000005 -0.000008 -0.306434 -0.671947 -0.797373
    11 11.423454 0.000002 -0.000001 -0.309322 0.166609 -0.590879
    12 13.479672 -0.000002 -0.000005 -4.355268 0.358295 -0.755228
    13 2.050503 0.662490 -1.659300 0.877280 0.772758 0.679108
    14 1.066193 0.000001 0.000002 0.000008 0.281211 0.000001
    15 1.466011 0.000001 0.000000 -0.000002 0.207738 -0.000001
    16 5.193863 -0.001289 -1.622135 0.370332 0.158634 1.186205
    17 1.525722 0.000002 0.000000 -0.000002 -0.000009 0.593115
    18 1.473168 0.000001 0.000007 0.000002 0.000002 0.215528
    19 4.977361 -0.298618 -0.436309 0.139713 0.020852 1.360821
    20 2.175560 0.000002 0.000000 -0.000005 -0.000008 0.297183
    21 1.705904 0.000003 -0.000007 0.000004 -0.000002 0.263418
    22 5.227221 -0.016864 0.516781 -0.207124 -0.061969 1.416516
    23 1.850598 0.000002 -0.000011 -0.000001 -0.000003 0.404328
    24 1.530739 0.000004 0.000000 0.000002 -0.000007 0.000007
    25 5.193863 0.001295 1.622133 -0.391923 -0.089146 1.356771
    26 1.485044 -0.000006 -0.000001 0.000000 -0.000004 0.463478
    27 1.294661 -0.000004 0.000001 0.000002 -0.000005 0.170697
    28 -0.000002 0.001010 -2.684129 0.223917 1.161069 -2.953920
    29 7.524247 0.000007 -0.000002 -0.097127 -0.130708 -2.060437
    30 11.423450 -0.000001 0.000000 -0.123948 -0.053914 -0.608037
    31 13.708141 -0.000004 -0.000011 2.938089 0.589491 0.227739
    32 1.195827 -0.033344 1.114693 -0.915046 -0.843418 0.748275
    33 1.294661 0.000000 0.000001 0.283737 0.304529 0.027312
    34 2.182009 -0.000003 -0.000001 -0.000011 0.523417 -0.000009
    35 4.895141 -0.386528 1.693293 -0.066293 -0.054636 -0.245887
    36 1.507893 0.000000 0.000002 0.000005 0.000002 0.924220
    37 1.370811 0.000000 0.000002 -0.000001 -0.000005 0.723900
    38 5.141362 -0.100722 0.541393 0.878970 0.126636 0.893589
    39 1.759208 0.000002 -0.000005 -0.000003 0.000001 1.882034
    40 1.599283 0.000000 -0.000005 0.000001 0.000007 0.603095
    41 5.079523 -0.068059 -0.623686 0.977123 -0.308194 1.391640
    42 1.688844 -0.000005 0.000000 -0.000003 0.000006 1.368066
    43 1.507890 -0.000002 0.000010 -0.000002 -0.000002 1.016312
    44 5.141361 -0.099002 -1.621445 0.786261 -0.387373 1.828552
    45 1.256580 0.000000 0.000003 -0.000004 0.000001 0.706523
    46 1.142340 0.000000 -0.000002 0.000000 -0.000003 0.784243
    47 0.232749 -0.809303 1.175719 -3.117955 0.230511 0.116535
    48 -3.767046 -0.683517 5.875069 3.458866 -0.443145 1.154488
    49 17.308262 0.000000 0.000000 0.000000 0.000006 -0.850751
    50 15.463842 -0.000002 -0.000004 -0.025829 -0.114683 0.018889
    51 6.097225 3.126210 -0.000760 0.000001 -0.000002 1.570796
    52 1.999104 0.000000 -0.000001 0.000000 0.000000 0.000000
    53 1.999102 0.000000 0.000002 0.000000 0.000000 0.000000
    54 -4.290475 3.871341 -3.984402 -3.221786 -0.399646 1.653588
    55 17.308264 -0.000002 0.000000 -0.000011 -0.000004 -1.167907
    56 15.463841 0.000000 -0.000001 0.073675 0.067979 0.780212
    57 6.096773 3.126230 -0.001722 0.000012 -0.000002 1.570799
    58 1.999103 0.000000 0.000001 0.000000 0.000000 0.000000
    59 1.999104 0.000000 -0.000002 0.000000 0.000000 0.000000
    60 5.028743 -7.322625 0.014160 0.000000 0.000001 -1.536686
    61 14.325449 4.272008 1.904476 1.421981 0.126217 -1.364846
  time 10
    0 1.829300 8.342557 30.672948 0.003835 0.689406 -1.568373
    1 -4.139051 -0.035158 0.000004 -0.000086 -1.570451 -1.570710
    2 4.434193 -0.003595 0.001683 -0.421894 -0.053040 0.427944
    3 5.339529 -0.005383 0.000520 -0.094295 -0.030130 0.192290
    4 6.940794 -0.005183 0.000493 -0.104805 -0.064285 0.158040
    5 6.620027 -0.004718 0.000418 -0.087039 0.063340 0.077608
    6 5.979033 -0.000997 -0.000006 0.000000 0.000000 0.017453
    7 1.252565 0.000004 0.000002 0.468757 0.401619 -0.301456
    8 -3.731831 9.544961 0.014183 0.000000 0.000001 -1.675515
    9 0.000009 0.000990 2.684127 0.510793 -1.406629 -3.534968
    10 7.524253 -0.000005 -0.000008 -0.263806 -0.702081 -0.877391
    11 11.423454 0.000002 -0.000001 -0.286781 0.182647 -0.474688
    12 13.479672 -0.000002 -0.000005 -4.373446 0.352398 -0.814092
    13 2.050503 0.662490 -1.659300 0.877280 0.772758 0.679108
    14 1.066193 0.000001 0.000002 0.000008 0.281211 0.000001
    15 1.466011 0.000001 0.000000 -0.000002 0.207738 -0.000001
    16 5.193863 -0.001289 -1.622135 0.370332 0.158634 1.186205
    17 1.525722 0.000002 0.000000 -0.000002 -0.000009 0.593115
    18 1.473168 0.000001 0.000007 0.000002 0.000002 0.215528
    19 4.977361 -0.298618 -0.436309 0.139713 0.020852 1.360821
    20 2.175560 0.000002 0.000000 -0.000005 -0.000008 0.297183
    21 1.705904 0.000003 -0.000007 0.000004 -0.000002 0.263418
    22 5.227221 -0.016864 0.516781 -0.207124 -0.061969 1.416516
    23 1.850598 0.000002 -0.000011 -0.000001 -0.000003 0.404328
    24 1.530739 0.000004 0.000000 0.000002 -0.000007 0.000007
    25 5.193863 0.001295 1.622133 -0.391923 -0.089146 1.356771
    26 1.485044 -0.000006 -0.000001 0.000000 -0.000004 0.463478
    27 1.294661 -0.000004 0.000001 0.000002 -0.000005 0.170697
    28 -0.000002 0.001010 -2.684129 0.204545 1.162604 -2.971701
    29 7.524247 0.000007 -0.000002 -0.097318 -0.109811 -2.067430
    30 11.423450 -0.000001 0.000000 -0.120041 -0.049324 -0.571943
    31 13.708141 -0.000004 -0.000011 2.936438 0.590844 0.214583
    32 1.195827 -0.033344 1.114693 -0.915046 -0.843418 0.748275
    33 1.294661 0.000000 0.000001 0.283737 0.304529 0.027312
    34 2.182009 -0.000003 -0.000001 -0.000011 0.523417 -0.000009
    35 4.895141 -0.386528 1.693293 -0.066293 -0.054636 -0.245887
    36 1.507893 0.000000 0.000002 0.000005 0.000002 0.924220
    37 1.370811 0.000000 0.000002 -0.000001 -0.000005 0.723900
    38 5.141362 -0.100722 0.541393 0.878970 0.126636 0.893589
    39 1.759208 0.000002 -0.000005 -0.000003 0.000001 1.882034
    40 1.599283 0.000000 -0.000005 0.000001 0.000007 0.603095
    41 5.079523 -0.068059 -0.623686 0.977123 -0.308194 1.391640
    42 1.688844 -0.000005 0.000000 -0.000003 0.000006 1.368066
    43 1.507890 -0.000002 0.000010 -0.000002 -0.000002 1.016312
    44 5.141361 -0.099002 -1.621445 0.786261 -0.387373 1.828552
    45 1.256580 0.000000 0.000003 -0.000004 0.000001 0.706523
    46 1.142340 0.000000 -0.000002 0.000000 -0.000003 0.784243
    47 0.232749 -0.809303 1.175719 -3.117955 0.230511 0.116535
    48 -3.739702 -0.624922 5.898507 3.454084 -0.429946 1.160248
    49 17.308262 0.000000 0.000000 0.000000 0.000006 -0.851907
    50 15.463842 -0.000002 -0.000004 -0.025074 -0.111177 0.022159
    51 6.097225 3.126210 -0.000760 0.000001 -0.000002 1.570796
    52 1.999104 0.000000 -0.000001 0.000000 0.000000 0.000000
    53 1.999102 0.000000 0.000002 0.000000 0.000000 0.000000
    54 -4.317820 3.816652 -4.007840 -3.221690 -0.387301 1.660108
    55 17.308264 -0.000002 0.000000 -0.000011 -0.000004 -1.161681
    56 15.463841 0.000000 -0.000001 0.076503 0.070225 0.779926
    57 6.096773 3.126230 -0.001722 0.000012 -0.000002 1.570799
    58 1.999103 0.000000 0.000001 0.000000 0.000000 0.000000
    59 1.999104 0.000000 -0.000002 0.000000 0.000000 0.000000
    60 5.028743 -7.322625 0.014160 0.000000 0.000001 -1.536686
    61 14.325449 4.272008 1.904476 1.421981 0.126217 -1.364846
  time 11
    0 1.997273 8.186302 30.661229 0.003835 0.689406 -1.568373
    1 -4.197647 -0.054690 0.000004 -0.000086 -1.570451 -1.570710
    2 4.434193 -0.003595 0.001683 -0.412614 -0.057270 0.427426
    3 5.339529 -0.005383 0.000520 -0.094115 -0.029219 0.201926
    4 6.940794 -0.005183 0.000493 -0.098957 -0.064573 0.164086
    5 6.620027 -0.004718 0.000418 -0.087039 0.063340 0.077608
    6 5.979033 -0.000997 -0.000006 0.000000 0.000000 0.017453
    7 1.252565 0.000004 0.000002 0.449006 0.410851 -0.327074
    8 -3.731831 9.544961 0.014183 0.000000 0.000001 -1.675515
    9 0.000009 0.000990 2.684127 0.601687 -1.412187 -3.632075
    10 7.524253 -0.000005 -0.000008 -0.219484 -0.726223 -0.954082
    11 11.423454 0.000002 -0.000001 -0.262823 0.195762 -0.361108
    12 13.479672 -0.000002 -0.000005 -4.390505 0.346856 -0.871328
    13 2.050503 0.662490 -1.659300 0.877280 0.772758 0.679108
    14 1.066193 0.000001 0.000002 0.000008 0.281211 0.000001
    15 1.466011 0.000001 0.000000 -0.000002 0.207738 -0.000001
    16 5.193863 -0.001289 -1.622135 0.370332 0.158634 1.186205
    17 1.525722 0.000002 0.000000 -0.000002 -0.000009 0.593115
    18 1.473168 0.000001 0.000007 0.000002 0.000002 0.215528
    19 4.977361 -0.298618 -0.436309 0.139713 0.020852 1.360821
    20 2.175560 0.000002 0.000000 -0.000005 -0.000008 0.297183
    21 1.705904 0.000003 -0.000007 0.000004 -0.000002 0.263418
    22 5.227221 -0.016864 0.516781 -0.207124 -0.061969 1.416516
    23 1.850598 0.000002 -0.000011 -0.000001 -0.000003 0.404328
    24 1.530739 0.000004 0.000000 0.000002 -0.000007 0.000007
    25 5.193863 0.001295 1.622133 -0.391923 -0.089146 1.356771
    26 1.485044 -0.000006 -0.000001 0.000000 -0.000004 0.463478
    27 1.294661 -0.000004 0.000001 0.000002 -0.000005 0.170697
    28 -0.000002 0.001010 -2.684129 0.188519 1.163765 -2.986462
    29 7.524247 0.000007 -0.000002 -0.097844 -0.092737 -2.073873
    30 11.423450 -0.000001 0.000000 -0.116817 -0.045585 -0.541202
    31 13.708141 -0.000004 -0.000011 2.935071 0.591967 0.203227
    32 1.195827 -0.033344 1.114693 -0.915046 -0.843418 0.748275
    33 1.294661 0.000000 0.000001 0.283737 0.304529 0.027312
    34 2.182009 -0.000003 -0.000001 -0.000011 0.523417 -0.000009
    35 4.895141 -0.386528 1.693293 -0.066293 -0.054636 -0.245887
    36 1.507893 0.000000 0.000002 0.000005 0.000002 0.924220
    37 1.370811 0.000000 0.000002 -0.000001 -0.000005 0.723900
    38 5.141362 -0.100722 0.541393 0.878970 0.126636 0.893589
    39 1.759208 0.000002 -0.000005 -0.000003 0.000001 1.882034
    40 1.599283 0.000000 -0.000005 0.000001 0.000007 0.603095
    41 5.079523 -0.068059 -0.623686 0.977123 -0.308194 1.391640
    42 1.688844 -0.000005 0.000000 -0.000003 0.000006 1.368066
    43 1.507890 -0.000002 0.000010 -0.000002 -0.000002 1.016312
    44 5.141361 -0.099002 -1.621445 0.786261 -0.387373 1.828552
    45 1.256580 0.000000 0.000003 -0.000004 0.000001 0.706523
    46 1.142340 0.000000 -0.000002 0.000000 -0.000003 0.784243
    47 0.232749 -0.809303 1.175719 -3.117955 0.230511 0.116535
    48 -3.716264 -0.578045 5.918039 3.446720 -0.416896 1.164521
    49 17.308262 0.000000 0.000000 0.000000 0.000006 -0.858543
    50 15.463842 -0.000002 -0.000004 -0.023311 -0.104287 0.029168
    51 6.097225 3.126210 -0.000760 0.000001 -0.000002 1.570796
    52 1.999104 0.000000 -0.000001 0.000000 0.000000 0.000000
    53 1.999102 0.000000 0.000002 0.000000 0.000000 0.000000
    54 -4.341258 3.769775 -4.027372 -3.226855 -0.375521 1.668771
    55 17.308264 -0.000002 0.000000 -0.000011 -0.000004 -1.154782
    56 15.463841 0.000000 -0.000001 0.082187 0.074813 0.781547
    57 6.096773 3.126230 -0.001722 0.000012 -0.000002 1.570799
    58 1.999103 0.000000 0.000001 0.000000 0.000000 0.000000
    59 1.999104 0.000000 -0.000002 0.000000 0.000000 0.000000
    60 5.028743 -7.322625 0.014160 0.000000 0.000001 -1.536686
    61 14.325449 4.272008 1.904476 1.421981 0.126217 -1.364846
  time 12
    0 2.669169 8.174583 30.645603 0.003835 0.689406 -1.568373
    1 -4.232804 -0.070316 0.000004 -0.000086 -1.570451 -1.570710
    2 4.434193 -0.003595 0.001683 -0.406238 -0.060171 0.427069
    3 5.339529 -0.005383 0.000520 -0.093983 -0.028596 0.208541
    4 6.940794 -0.005183 0.000493 -0.094942 -0.064813 0.168238
    5 6.620027 -0.004718 0.000418 -0.087039 0.063340 0.077608
    6 5.979033 -0.000997 -0.000006 0.000000 0.000000 0.017453
    7 1.252565 0.000004 0.000002 0.435303 0.416961 -0.344818
    8 -3.731831 9.544961 0.014183 0.000000 0.000001 -1.675515
    9 0.000009 0.000990 2.684127 0.682667 -1.414676 -3.717789
    10 7.524253 -0.000005 -0.000008 -0.180484 -0.742244 -1.016864
    11 11.423454 0.000002 -0.000001 -0.241541 0.204790 -0.266295
    12 13.479672 -0.000002 -0.000005 -4.404674 0.341421 -0.919219
    13 2.050503 0.662490 -1.659300 0.877280 0.772758 0.679108
    14 1.066193 0.000001 0.000002 0.000008 0.281211 0.000001
    15 1.466011 0.000001 0.000000 -0.000002 0.207738 -0.000001
    16 5.193863 -0.001289 -1.622135 0.370332 0.158634 1.186205
    17 1.525722 0.000002 0.000000 -0.000002 -0.000009 0.593115
    18 1.473168 0.000001 0.000007 0.000002 0.000002 0.215528
    19 4.977361 -0.298618 -0.436309 0.139713 0.020852 1.360821
    20 2.175560 0.000002 0.000000 -0.000005 -0.000008 0.297183
    21 1.705904 0.000003 -0.000007 0.000004 -0.000002 0.263418
    22 5.227221 -0.016864 0.516781 -0.207124 -0.061969 1.416516
    23 1.850598 0.000002 -0.000011 -0.000001 -0.000003 0.404328
    24 1.530739 0.000004 0.000000 0.000002 -0.000007 0.000007
    25 5.193863 0.001295 1.622133 -0.391923 -0.089146 1.356771
    26 1.485044 -0.000006 -0.000001 0.000000 -0.000004 0.463478
    27 1.294661 -0.000004 0.000001 0.000002 -0.000005 0.170697
    28 -0.000002 0.001010 -2.684129 0.177480 1.164512 -2.996561
    29 7.524247 0.000007 -0.000002 -0.098465 -0.081057 -2.078466
    30 11.423450 -0.000001 0.000000 -0.114576 -0.043056 -0.519714
    31 13.708141 -0.000004 -0.000011 2.934175 0.592745 0.195230
    32 1.195827 -0.033344 1.114693 -0.915046 -0.843418 0.748275
    33 1.294661 0.000000 0.000001 0.283737 0.304529 0.027312
    34 2.182009 -0.000003 -0.000001 -0.000011 0.523417 -0.000009
    35 4.895141 -0.386528 1.693293 -0.066293 -0.054636 -0.245887
    36 1.507893 0.000000 0.000002 0.000005 0.000002 0.924220
    37 1.370811 0.000000 0.000002 -0.000001 -0.000005 0.723900
    38 5.141362 -0.100722 0.541393 0.878970 0.126636 0.893589
    39 1.759208 0.000002 -0.000005 -0.000003 0.000001 1.882034
    40 1.599283 0.000000 -0.000005 0.000001 0.000007 0.603095
    41 5.079523 -0.068059 -0.623686 0.977123 -0.308194 1.391640
    42 1.688844 -0.000005 0.000000 -0.000003 0.000006 1.368066
    43 1.507890 -0.000002 0.000010 -0.000002 -0.000002 1.016312
    44 5.141361 -0.099002 -1.621445 0.786261 -0.387373 1.828552
    45 1.256580 0.000000 0.000003 -0.000004 0.000001 0.706523
    46 1.142340 0.000000 -0.000002 0.000000 -0.000003 0.784243
    47 0.232749 -0.809303 1.175719 -3.117955 0.230511 0.116535
    48 -3.700638 -0.546795 5.933665 3.420419 -0.396464 1.165728
    49 17.308262 0.000000 0.000000 0.000000 0.000006 -0.864814
    50 15.463842 -0.000002 -0.000004 -0.014773 -0.076377 0.030136
    51 6.097225 3.126210 -0.000760 0.000001 -0.000002 1.570796
    52 1.999104 0.000000 -0.000001 0.000000 0.000000 0.000000
    53 1.999102 0.000000 0.000002 0.000000 0.000000 0.000000
    54 -4.356883 3.738524 -4.039091 -3.253730 -0.358068 1.673894
    55 17.308264 -0.000002 0.000000 -0.000011 -0.000004 -1.146284
    56 15.463841 0.000000 -0.000001 0.105237 0.095076 0.780784
    57 6.096773 3.126230 -0.001722 0.000012 -0.000002 1.570799
    58 1.999103 0.000000 0.000001 0.000000 0.000000 0.000000
    59 1.999104 0.000000 -0.000002 0.000000 0.000000 0.000000
    60 5.028743 -7.322625 0.014160 0.000000 0.000001 -1.536686
    61 14.325449 4.272008 1.904476 1.421981 0.126217 -1.364846
end
