// Created by Crowbar 0.68
version 1
nodes
  0 "Bip01" -1
  1 "Bip01 Pelvis" 0
  2 "Bip01 Spine" 1
  3 "Bip01 Spine1" 2
  4 "Bip01 Spine2" 3
  5 "Bip01 Spine3" 4
  6 "Bip01 Neck" 5
  7 "Bip01 Head" 6
  8 "Dummy14" 7
  9 "Bip01 L Clavicle" 6
  10 "Bip01 L UpperArm" 9
  11 "Bip01 L Forearm" 10
  12 "Bip01 L Hand" 11
  13 "Bip01 L Finger0" 12
  14 "Bip01 L Finger01" 13
  15 "Bip01 L Finger02" 14
  16 "Bip01 L Finger1" 12
  17 "Bip01 L Finger11" 16
  18 "Bip01 L Finger12" 17
  19 "Bip01 L Finger2" 12
  20 "Bip01 L Finger21" 19
  21 "Bip01 L Finger22" 20
  22 "Bip01 L Finger3" 12
  23 "Bip01 L Finger31" 22
  24 "Bip01 L Finger32" 23
  25 "Bip01 L Finger4" 12
  26 "Bip01 L Finger41" 25
  27 "Bip01 L Finger42" 26
  28 "Bip01 R Clavicle" 6
  29 "Bip01 R UpperArm" 28
  30 "Bip01 R Forearm" 29
  31 "Bip01 R Hand" 30
  32 "Bip01 R Finger0" 31
  33 "Bip01 R Finger01" 32
  34 "Bip01 R Finger02" 33
  35 "Bip01 R Finger1" 31
  36 "Bip01 R Finger11" 35
  37 "Bip01 R Finger12" 36
  38 "Bip01 R Finger2" 31
  39 "Bip01 R Finger21" 38
  40 "Bip01 R Finger22" 39
  41 "Bip01 R Finger3" 31
  42 "Bip01 R Finger31" 41
  43 "Bip01 R Finger32" 42
  44 "Bip01 R Finger4" 31
  45 "Bip01 R Finger41" 44
  46 "Bip01 R Finger42" 45
  47 "ValveBiped.Bip01_R_Hand" 31
  48 "Bip01 L Thigh" 2
  49 "Bip01 L Calf" 48
  50 "Bip01 L Foot" 49
  51 "Bip01 L Toe0" 50
  52 "Bip01 L Toe01" 51
  53 "Bip01 L Toe02" 52
  54 "Bip01 R Thigh" 2
  55 "Bip01 R Calf" 54
  56 "Bip01 R Foot" 55
  57 "Bip01 R Toe0" 56
  58 "Bip01 R Toe01" 57
  59 "Bip01 R Toe02" 58
  60 "Dummy22" 2
  61 "sniper" 31
end
skeleton
  time 0
    0 2.669169 -16.154284 36.610629 0.004602 -0.881300 -1.574460
    1 -4.232804 -0.070316 0.000004 0.000000 -1.570451 -1.570796
    2 4.434196 -0.003592 0.001683 -0.406238 -0.060171 0.427069
    3 5.339528 -0.005385 0.000518 -0.093983 -0.028596 0.208541
    4 6.940791 -0.005175 0.000498 -0.094942 -0.064813 0.168238
    5 6.620032 -0.004732 0.000413 -0.087039 0.063340 0.077608
    6 5.979036 -0.000997 0.000000 0.000000 0.000000 0.017453
    7 1.252575 -0.000007 -0.000001 0.435303 0.416961 -0.344818
    8 -3.731833 9.544951 0.014184 0.000000 0.000001 -1.675515
    9 0.000008 0.000987 2.684127 -0.203035 -1.412685 -2.892764
    10 7.524248 0.000001 -0.000012 -0.059492 -0.858428 -1.212736
    11 11.423451 -0.000002 0.000002 -0.236230 0.193666 -0.387952
    12 13.479673 0.000007 0.000009 -4.320776 0.241455 -0.820711
    13 2.050503 0.662482 -1.659310 0.877280 0.772758 0.679108
    14 1.066185 0.000002 -0.000002 0.000008 0.281211 0.000001
    15 1.466001 0.000002 0.000000 -0.000002 0.207738 -0.000001
    16 5.193863 -0.001297 -1.622141 0.370332 0.158634 1.186205
    17 1.525730 0.000000 -0.000004 -0.000002 -0.000009 0.593115
    18 1.473163 0.000005 0.000007 0.000002 0.000002 0.215528
    19 4.977359 -0.298624 -0.436314 0.139713 0.020852 1.360821
    20 2.175560 0.000000 -0.000001 -0.000005 -0.000008 0.297183
    21 1.705897 0.000009 -0.000001 0.000004 -0.000002 0.263418
    22 5.227221 -0.016866 0.516766 -0.207124 -0.061969 1.416516
    23 1.850602 0.000004 -0.000016 -0.000001 -0.000003 0.404328
    24 1.530742 0.000004 0.000006 0.000002 -0.000007 0.000007
    25 5.193862 0.001290 1.622121 -0.391923 -0.089146 1.356771
    26 1.485048 -0.000003 -0.000002 0.000000 -0.000004 0.463478
    27 1.294659 -0.000002 -0.000006 0.000002 -0.000005 0.170697
    28 0.000016 0.000999 -2.684134 0.177480 1.164512 -2.996561
    29 7.524243 -0.000002 -0.000010 -0.095263 -0.024822 -1.985649
    30 11.423448 -0.000001 0.000012 -0.168482 -0.003938 -0.657437
    31 13.708141 0.000001 0.000002 2.892440 0.752178 0.156663
    32 1.195828 -0.033345 1.114688 -0.915046 -0.843418 0.748275
    33 1.294653 -0.000004 0.000007 0.283737 0.304529 0.027312
    34 2.182006 -0.000001 -0.000002 -0.000011 0.523417 -0.000009
    35 4.895140 -0.386528 1.693290 -0.066293 -0.054636 -0.245887
    36 1.507909 0.000003 0.000002 0.000005 0.000002 0.924220
    37 1.370810 0.000000 0.000003 -0.000001 -0.000005 0.723900
    38 5.141358 -0.100724 0.541390 0.878970 0.126636 0.893589
    39 1.759207 0.000000 0.000001 -0.000003 0.000001 1.882034
    40 1.599281 0.000001 -0.000002 0.000001 0.000007 0.603095
    41 5.079515 -0.068061 -0.623692 0.977123 -0.308194 1.391640
    42 1.688846 -0.000007 0.000007 -0.000003 0.000006 1.368066
    43 1.507892 0.000000 -0.000005 -0.000002 -0.000002 1.016312
    44 5.141355 -0.099003 -1.621447 0.786261 -0.387373 1.828552
    45 1.256579 -0.000004 -0.000002 -0.000004 0.000001 0.706523
    46 1.142344 0.000001 0.000004 0.000000 -0.000003 0.784243
    47 0.232746 -0.809303 1.175715 -3.117955 0.230511 0.116535
    48 -3.700638 -0.546795 5.933665 2.725317 -0.218512 3.020656
    49 17.308268 -0.000003 0.000000 0.000012 0.000006 -1.174393
    50 15.463845 0.000001 -0.000001 0.072871 -0.060907 0.505136
    51 6.097225 3.126210 -0.000760 0.000001 -0.000002 1.570796
    52 1.999105 0.000000 0.000001 0.000000 0.000000 0.000000
    53 1.999107 0.000000 0.000000 0.000000 0.000000 0.000000
    54 -4.356883 3.738524 -4.039091 -3.475714 0.293893 3.674335
    55 17.308268 0.000001 -0.000002 -0.000011 -0.000004 -0.713564
    56 15.463844 0.000000 0.000000 -0.030150 0.129007 0.850565
    57 6.096773 3.126230 -0.001722 0.000012 -0.000002 1.570799
    58 1.999104 0.000000 -0.000002 0.000000 0.000000 0.000000
    59 1.999105 0.000000 -0.000001 0.000000 0.000000 0.000000
    60 5.028739 -7.322626 0.014162 0.000000 0.000001 -1.536686
    61 14.325456 4.272008 1.904476 1.421981 0.126217 -1.364846
  time 1
    0 2.630105 -15.947247 36.505157 0.004602 -0.881300 -1.574460
    1 -4.232804 -0.070316 0.000004 0.000000 -1.570451 -1.570796
    2 4.434196 -0.003592 0.001683 -0.406238 -0.060171 0.427069
    3 5.339528 -0.005385 0.000518 -0.093983 -0.028596 0.208541
    4 6.940791 -0.005175 0.000498 -0.094942 -0.064813 0.168238
    5 6.620032 -0.004732 0.000413 -0.087039 0.063340 0.077608
    6 5.979036 -0.000997 0.000000 0.000000 0.000000 0.017453
    7 1.252575 -0.000007 -0.000001 0.445630 0.405808 -0.319025
    8 -3.731833 9.544951 0.014184 0.000000 0.000001 -1.675515
    9 0.000008 0.000987 2.684127 -0.282508 -1.339185 -2.794276
    10 7.524248 0.000001 -0.000012 -0.032706 -0.855765 -1.263900
    11 11.423451 -0.000002 0.000002 -0.282139 0.152692 -0.581577
    12 13.479673 0.000007 0.000009 -4.260369 0.259714 -0.644508
    13 2.050503 0.662482 -1.659310 0.877280 0.772758 0.679108
    14 1.066185 0.000002 -0.000002 0.000008 0.281211 0.000001
    15 1.466001 0.000002 0.000000 -0.000002 0.207738 -0.000001
    16 5.193863 -0.001297 -1.622141 0.370332 0.158634 1.186205
    17 1.525730 0.000000 -0.000004 -0.000002 -0.000009 0.593115
    18 1.473163 0.000005 0.000007 0.000002 0.000002 0.215528
    19 4.977359 -0.298624 -0.436314 0.139713 0.020852 1.360821
    20 2.175560 0.000000 -0.000001 -0.000005 -0.000008 0.297183
    21 1.705897 0.000009 -0.000001 0.000004 -0.000002 0.263418
    22 5.227221 -0.016866 0.516766 -0.207124 -0.061969 1.416516
    23 1.850602 0.000004 -0.000016 -0.000001 -0.000003 0.404328
    24 1.530742 0.000004 0.000006 0.000002 -0.000007 0.000007
    25 5.193862 0.001290 1.622121 -0.391923 -0.089146 1.356771
    26 1.485048 -0.000003 -0.000002 0.000000 -0.000004 0.463478
    27 1.294659 -0.000002 -0.000006 0.000002 -0.000005 0.170697
    28 0.000016 0.000999 -2.684134 0.177480 1.164512 -2.996561
    29 7.524243 -0.000002 -0.000010 -0.042035 -0.015946 -1.751273
    30 11.423448 -0.000001 0.000012 -0.229724 -0.058863 -0.964157
    31 13.708141 0.000001 0.000002 2.918188 0.751516 0.250034
    32 1.195828 -0.033345 1.114688 -0.915046 -0.843418 0.748275
    33 1.294653 -0.000004 0.000007 0.283737 0.304529 0.027312
    34 2.182006 -0.000001 -0.000002 -0.000011 0.523417 -0.000009
    35 4.895140 -0.386528 1.693290 -0.066293 -0.054636 -0.245887
    36 1.507909 0.000003 0.000002 0.000005 0.000002 0.924220
    37 1.370810 0.000000 0.000003 -0.000001 -0.000005 0.723900
    38 5.141358 -0.100724 0.541390 0.878970 0.126636 0.893589
    39 1.759207 0.000000 0.000001 -0.000003 0.000001 1.882034
    40 1.599281 0.000001 -0.000002 0.000001 0.000007 0.603095
    41 5.079515 -0.068061 -0.623692 0.977123 -0.308194 1.391640
    42 1.688846 -0.000007 0.000007 -0.000003 0.000006 1.368066
    43 1.507892 0.000000 -0.000005 -0.000002 -0.000002 1.016312
    44 5.141355 -0.099003 -1.621447 0.786261 -0.387373 1.828552
    45 1.256579 -0.000004 -0.000002 -0.000004 0.000001 0.706523
    46 1.142344 0.000001 0.000004 0.000000 -0.000003 0.784243
    47 0.232746 -0.809303 1.175715 -3.117955 0.230511 0.116535
    48 -3.700638 -0.546795 5.933665 2.727230 -0.224975 3.009787
    49 17.308268 -0.000003 0.000000 0.000000 0.000006 -1.183464
    50 15.463845 0.000001 -0.000001 0.074231 -0.061841 0.501732
    51 6.097225 3.126210 -0.000760 0.000001 -0.000002 1.570796
    52 1.999105 0.000000 0.000001 0.000000 0.000000 0.000000
    53 1.999107 0.000000 0.000000 0.000000 0.000000 0.000000
    54 -4.356883 3.738524 -4.039091 -3.481644 0.286025 3.654774
    55 17.308268 0.000001 -0.000002 -0.000011 -0.000004 -0.747639
    56 15.463844 0.000000 0.000000 -0.030064 0.127703 0.863959
    57 6.096773 3.126230 -0.001722 0.000012 -0.000002 1.570799
    58 1.999104 0.000000 -0.000002 0.000000 0.000000 0.000000
    59 1.999105 0.000000 -0.000001 0.000000 0.000000 0.000000
    60 5.028739 -7.322626 0.014162 0.000000 0.000001 -1.536686
    61 14.325456 4.272008 1.904476 1.421981 0.126217 -1.364846
  time 2
    0 2.704326 -15.544891 36.302026 0.004602 -0.881300 -1.574460
    1 -4.064830 -0.203132 0.000004 0.000000 -1.570451 -1.570796
    2 4.434196 -0.003592 0.001683 -0.406238 -0.060171 0.427069
    3 5.339528 -0.005385 0.000518 -0.093983 -0.028596 0.208541
    4 6.940791 -0.005175 0.000498 -0.174400 -0.066431 0.086955
    5 6.620032 -0.004732 0.000413 -0.087039 0.063340 0.077608
    6 5.979036 -0.000997 0.000000 0.000000 0.000000 0.017453
    7 1.252575 -0.000007 -0.000001 0.561432 0.361147 -0.127797
    8 -3.731833 9.544951 0.014184 0.000000 0.000001 -1.675515
    9 0.000008 0.000987 2.684127 -0.227226 -1.340263 -2.823710
    10 7.524248 0.000001 -0.000012 -0.321248 -0.772466 -0.808610
    11 11.423451 -0.000002 0.000002 -0.329031 0.086083 -0.984900
    12 13.479673 0.000007 0.000009 -4.245640 0.315239 -0.460731
    13 2.050503 0.662482 -1.659310 0.877280 0.772758 0.679108
    14 1.066185 0.000002 -0.000002 0.000008 0.281211 0.000001
    15 1.466001 0.000002 0.000000 -0.000002 0.207738 -0.000001
    16 5.193863 -0.001297 -1.622141 0.370332 0.158634 1.186205
    17 1.525730 0.000000 -0.000004 -0.000002 -0.000009 0.593115
    18 1.473163 0.000005 0.000007 0.000002 0.000002 0.215528
    19 4.977359 -0.298624 -0.436314 0.139713 0.020852 1.360821
    20 2.175560 0.000000 -0.000001 -0.000005 -0.000008 0.297183
    21 1.705897 0.000009 -0.000001 0.000004 -0.000002 0.263418
    22 5.227221 -0.016866 0.516766 -0.207124 -0.061969 1.416553
    23 1.850602 0.000004 -0.000016 -0.000001 -0.000003 0.404328
    24 1.530742 0.000004 0.000006 0.000002 -0.000007 0.000007
    25 5.193862 0.001290 1.622121 -0.391923 -0.089146 1.356771
    26 1.485048 -0.000003 -0.000002 0.000000 -0.000004 0.463478
    27 1.294659 -0.000002 -0.000006 0.000002 -0.000005 0.170697
    28 0.000016 0.000999 -2.684134 0.385665 1.142072 -2.806147
    29 7.524243 -0.000002 -0.000010 -0.034055 -0.144002 -1.871717
    30 11.423448 -0.000001 0.000012 -0.223000 -0.061021 -0.982127
    31 13.708141 0.000001 0.000002 2.916726 0.736543 0.262047
    32 1.195828 -0.033345 1.114688 -0.915046 -0.843418 0.748275
    33 1.294653 -0.000004 0.000007 0.283737 0.304529 0.027312
    34 2.182006 -0.000001 -0.000002 -0.000011 0.523417 -0.000009
    35 4.895140 -0.386528 1.693290 -0.066293 -0.054636 -0.245887
    36 1.507909 0.000003 0.000002 0.000005 0.000002 0.924220
    37 1.370810 0.000000 0.000003 -0.000001 -0.000005 0.723900
    38 5.141358 -0.100724 0.541390 0.878970 0.126636 0.893589
    39 1.759207 0.000000 0.000001 -0.000003 0.000001 1.882034
    40 1.599281 0.000001 -0.000002 0.000001 0.000007 0.603095
    41 5.079515 -0.068061 -0.623692 0.977123 -0.308194 1.391640
    42 1.688846 -0.000007 0.000007 -0.000003 0.000006 1.368066
    43 1.507892 0.000000 -0.000005 -0.000002 -0.000002 1.016312
    44 5.141355 -0.099003 -1.621447 0.786261 -0.387373 1.828552
    45 1.256579 -0.000004 -0.000002 -0.000004 0.000001 0.706523
    46 1.142344 0.000001 0.000004 0.000000 -0.000003 0.784243
    47 0.232746 -0.809303 1.175715 -3.117955 0.230511 0.116535
    48 -3.700638 -0.546795 5.933665 2.731151 -0.230170 2.996783
    49 17.308268 -0.000003 0.000000 0.000012 0.000006 -1.186995
    50 15.463845 0.000001 -0.000001 0.073198 -0.062228 0.491452
    51 6.097225 3.126210 -0.000760 0.000001 -0.000002 1.570796
    52 1.999105 0.000000 0.000001 0.000000 0.000000 0.000000
    53 1.999107 0.000000 0.000000 0.000000 0.000000 0.000000
    54 -4.356883 3.738524 -4.039091 -3.486139 0.277527 3.630463
    55 17.308268 0.000001 -0.000002 -0.000011 -0.000004 -0.782977
    56 15.463844 0.000000 0.000000 -0.032292 0.127727 0.873682
    57 6.096773 3.126230 -0.001722 0.000012 -0.000002 1.570799
    58 1.999104 0.000000 -0.000002 0.000000 0.000000 0.000000
    59 1.999105 0.000000 -0.000001 0.000000 0.000000 0.000000
    60 5.028739 -7.322626 0.014162 0.000000 0.000001 -1.536686
    61 14.325456 4.272008 1.904476 1.421981 0.126217 -1.364846
  time 3
    0 2.669169 -15.302696 35.856700 0.004602 -0.881300 -1.574460
    1 -3.533564 -0.339855 0.000004 0.000000 -1.570451 -1.570796
    2 4.434196 -0.003592 0.001683 -0.445971 -0.042062 0.429077
    3 5.339528 -0.005385 0.000518 -0.095637 -0.039322 0.095730
    4 6.940791 -0.005175 0.000498 -0.169438 -0.065939 0.091980
    5 6.620032 -0.004732 0.000413 -0.087039 0.063340 0.077608
    6 5.979036 -0.000997 0.000000 0.000000 0.000000 0.017453
    7 1.252575 -0.000007 -0.000001 0.596825 0.317011 -0.036943
    8 -3.731833 9.544951 0.014184 0.000000 0.000001 -1.675515
    9 0.000008 0.000987 2.684127 -0.159730 -1.379958 -2.897512
    10 7.524248 0.000001 -0.000012 -0.312843 -0.581370 -0.619065
    11 11.423451 -0.000002 0.000002 -0.338079 0.055921 -1.148335
    12 13.479673 0.000007 0.000009 -4.216742 0.253142 -0.427777
    13 2.050503 0.662482 -1.659310 0.877280 0.772758 0.679108
    14 1.066185 0.000002 -0.000002 0.000008 0.281211 0.000001
    15 1.466001 0.000002 0.000000 -0.000002 0.207738 -0.000001
    16 5.193863 -0.001297 -1.622141 0.370332 0.158634 1.186205
    17 1.525730 0.000000 -0.000004 -0.000002 -0.000009 0.593115
    18 1.473163 0.000005 0.000007 0.000002 0.000002 0.215528
    19 4.977359 -0.298624 -0.436314 0.139713 0.020852 1.360821
    20 2.175560 0.000000 -0.000001 -0.000005 -0.000008 0.297183
    21 1.705897 0.000009 -0.000001 0.000004 -0.000002 0.263418
    22 5.227221 -0.016866 0.516766 -0.207124 -0.061969 1.416516
    23 1.850602 0.000004 -0.000016 -0.000001 -0.000003 0.404328
    24 1.530742 0.000004 0.000006 0.000002 -0.000007 0.000007
    25 5.193862 0.001290 1.622121 -0.391923 -0.089146 1.356771
    26 1.485048 -0.000003 -0.000002 0.000000 -0.000004 0.463478
    27 1.294659 -0.000002 -0.000006 0.000002 -0.000005 0.170697
    28 0.000016 0.000999 -2.684134 0.373343 1.143938 -2.817368
    29 7.524243 -0.000002 -0.000010 -0.079257 -0.261441 -1.907158
    30 11.423448 -0.000001 0.000012 -0.220723 -0.046076 -0.899616
    31 13.708141 0.000001 0.000002 2.913331 0.756382 0.228327
    32 1.195828 -0.033345 1.114688 -0.915046 -0.843418 0.748275
    33 1.294653 -0.000004 0.000007 0.283737 0.304529 0.027312
    34 2.182006 -0.000001 -0.000002 -0.000011 0.523417 -0.000009
    35 4.895140 -0.386528 1.693290 -0.066293 -0.054636 -0.245887
    36 1.507909 0.000003 0.000002 0.000005 0.000002 0.924220
    37 1.370810 0.000000 0.000003 -0.000001 -0.000005 0.723900
    38 5.141358 -0.100724 0.541390 0.878970 0.126636 0.893589
    39 1.759207 0.000000 0.000001 -0.000003 0.000001 1.882034
    40 1.599281 0.000001 -0.000002 0.000001 0.000007 0.603095
    41 5.079515 -0.068061 -0.623692 0.977123 -0.308194 1.391640
    42 1.688846 -0.000007 0.000007 -0.000003 0.000006 1.368066
    43 1.507892 0.000000 -0.000005 -0.000002 -0.000002 1.016312
    44 5.141355 -0.099003 -1.621447 0.786261 -0.387373 1.828552
    45 1.256579 -0.000004 -0.000002 -0.000004 0.000001 0.706523
    46 1.142344 0.000001 0.000004 0.000000 -0.000003 0.784243
    47 0.232746 -0.809303 1.175715 -3.117955 0.230511 0.116535
    48 -3.802204 -0.746019 5.847725 2.689836 -0.227535 2.998733
    49 17.308268 -0.000003 0.000000 0.000000 0.000006 -1.189552
    50 15.463845 0.000001 -0.000001 0.076472 -0.068642 0.492153
    51 6.097225 3.126210 -0.000760 0.000001 -0.000002 1.570796
    52 1.999105 0.000000 0.000001 0.000000 0.000000 0.000000
    53 1.999107 0.000000 0.000000 0.000000 0.000000 0.000000
    54 -4.259224 3.937749 -3.953151 -3.515023 0.302935 3.612578
    55 17.308268 0.000001 -0.000002 -0.000011 -0.000004 -0.791054
    56 15.463844 0.000000 0.000000 -0.033206 0.121520 0.878973
    57 6.096773 3.126230 -0.001722 0.000012 -0.000002 1.570799
    58 1.999104 0.000000 -0.000002 0.000000 0.000000 0.000000
    59 1.999105 0.000000 -0.000001 0.000000 0.000000 0.000000
    60 5.028739 -7.322626 0.014162 0.000000 0.000001 -1.536686
    61 14.325456 4.272008 1.904476 1.421981 0.126217 -1.364846
  time 4
    0 1.923052 -15.244100 35.899670 0.004602 -0.881300 -1.574460
    1 -3.603879 0.042969 0.000004 0.000000 -1.570451 -1.570796
    2 4.434196 -0.003592 0.001683 -0.501489 -0.016607 0.430728
    3 5.339528 -0.005385 0.000518 -0.095565 -0.038531 0.104000
    4 6.940791 -0.005175 0.000498 -0.159119 -0.065100 0.102446
    5 6.620032 -0.004732 0.000413 -0.087039 0.063340 0.077608
    6 5.979036 -0.000997 0.000000 0.000000 0.000000 0.017453
    7 1.252575 -0.000007 -0.000001 0.633387 0.302671 -0.080410
    8 -3.731833 9.544951 0.014184 0.000000 0.000001 -1.675515
    9 0.000008 0.000987 2.684127 -0.111824 -1.365192 -2.928759
    10 7.524248 0.000001 -0.000012 -0.468542 -0.578396 -0.468192
    11 11.423451 -0.000002 0.000002 -0.341580 0.045160 -1.238579
    12 13.479673 0.000007 0.000009 -4.217767 0.291331 -0.395035
    13 2.050503 0.662482 -1.659310 0.877280 0.772758 0.679108
    14 1.066185 0.000002 -0.000002 0.000008 0.281211 0.000001
    15 1.466001 0.000002 0.000000 -0.000002 0.207738 -0.000001
    16 5.193863 -0.001297 -1.622141 0.370332 0.158634 1.186249
    17 1.525730 0.000000 -0.000004 -0.000002 -0.000009 0.593115
    18 1.473163 0.000005 0.000007 0.000002 0.000002 0.215528
    19 4.977359 -0.298624 -0.436314 0.139713 0.020852 1.360821
    20 2.175560 0.000000 -0.000001 -0.000005 -0.000008 0.297183
    21 1.705897 0.000009 -0.000001 0.000004 -0.000002 0.263418
    22 5.227221 -0.016866 0.516766 -0.207124 -0.061969 1.416516
    23 1.850602 0.000004 -0.000016 -0.000001 -0.000003 0.404328
    24 1.530742 0.000004 0.000006 0.000002 -0.000007 0.000007
    25 5.193862 0.001290 1.622121 -0.391923 -0.089146 1.356771
    26 1.485048 -0.000003 -0.000002 0.000000 -0.000004 0.463478
    27 1.294659 -0.000002 -0.000006 0.000002 -0.000005 0.170697
    28 0.000016 0.000999 -2.684134 0.347418 1.147589 -2.840846
    29 7.524243 -0.000002 -0.000010 -0.100089 -0.217014 -1.951990
    30 11.423448 -0.000001 0.000012 -0.209937 -0.046423 -0.912157
    31 13.708141 0.000001 0.000002 2.910407 0.736399 0.241725
    32 1.195828 -0.033345 1.114688 -0.915046 -0.843418 0.748275
    33 1.294653 -0.000004 0.000007 0.283737 0.304529 0.027312
    34 2.182006 -0.000001 -0.000002 -0.000011 0.523417 -0.000009
    35 4.895140 -0.386528 1.693290 -0.066293 -0.054636 -0.245887
    36 1.507909 0.000003 0.000002 0.000005 0.000002 0.924220
    37 1.370810 0.000000 0.000003 -0.000001 -0.000005 0.723900
    38 5.141358 -0.100724 0.541390 0.878970 0.126636 0.893589
    39 1.759207 0.000000 0.000001 -0.000003 0.000001 1.882034
    40 1.599281 0.000001 -0.000002 0.000001 0.000007 0.603095
    41 5.079515 -0.068061 -0.623692 0.977123 -0.308194 1.391640
    42 1.688846 -0.000007 0.000007 -0.000003 0.000006 1.368066
    43 1.507892 0.000000 -0.000005 -0.000002 -0.000002 1.016312
    44 5.141355 -0.099003 -1.621447 0.786261 -0.387373 1.828552
    45 1.256579 -0.000004 -0.000002 -0.000004 0.000001 0.706523
    46 1.142344 0.000001 0.000004 0.000000 -0.000003 0.784243
    47 0.232746 -0.809303 1.175715 -3.117955 0.230511 0.116535
    48 -3.938927 -1.015559 5.714908 2.621263 -0.237826 3.008766
    49 17.308268 -0.000003 0.000000 0.000000 0.000006 -1.184012
    50 15.463845 0.000001 -0.000001 0.098031 -0.083813 0.481707
    51 6.097225 3.126210 -0.000760 0.000001 -0.000002 1.570796
    52 1.999105 0.000000 0.000001 0.000000 0.000000 0.000000
    53 1.999107 0.000000 0.000000 0.000000 0.000000 0.000000
    54 -4.118595 4.207289 -3.820334 -3.568678 0.322127 3.586031
    55 17.308268 0.000001 -0.000002 -0.000011 -0.000004 -0.808387
    56 15.463844 0.000000 0.000000 -0.023838 0.097877 0.886838
    57 6.096773 3.126230 -0.001722 0.000012 -0.000002 1.570799
    58 1.999104 0.000000 -0.000002 0.000000 0.000000 0.000000
    59 1.999105 0.000000 -0.000001 0.000000 0.000000 0.000000
    60 5.028739 -7.322626 0.014162 0.000000 0.000001 -1.536686
    61 14.325456 4.272008 1.904476 1.421981 0.126217 -1.364846
  time 5
    0 1.446475 -15.345666 35.985610 0.004602 -0.881300 -1.574460
    1 -3.705444 0.062501 0.000004 0.000000 -1.570451 -1.570796
    2 4.434196 -0.003592 0.001683 -0.490619 -0.021592 0.430501
    3 5.339528 -0.005385 0.000518 -0.095385 -0.036973 0.120359
    4 6.940791 -0.005175 0.000498 -0.148705 -0.064465 0.113032
    5 6.620032 -0.004732 0.000413 -0.087039 0.063340 0.077608
    6 5.979036 -0.000997 0.000000 0.000000 0.000000 0.017453
    7 1.252575 -0.000007 -0.000001 0.607686 0.321577 -0.120692
    8 -3.731833 9.544951 0.014184 0.000000 0.000001 -1.675515
    9 0.000008 0.000987 2.684127 -0.131811 -1.375188 -2.914689
    10 7.524248 0.000001 -0.000012 -0.452821 -0.619802 -0.531192
    11 11.423451 -0.000002 0.000002 -0.338236 0.062517 -1.155515
    12 13.479673 0.000007 0.000009 -4.229793 0.285363 -0.437334
    13 2.050503 0.662482 -1.659310 0.877280 0.772758 0.679108
    14 1.066185 0.000002 -0.000002 0.000008 0.281211 0.000001
    15 1.466001 0.000002 0.000000 -0.000002 0.207738 -0.000001
    16 5.193863 -0.001297 -1.622141 0.370332 0.158634 1.186205
    17 1.525730 0.000000 -0.000004 -0.000002 -0.000009 0.593115
    18 1.473163 0.000005 0.000007 0.000002 0.000002 0.215528
    19 4.977359 -0.298624 -0.436314 0.139713 0.020852 1.360821
    20 2.175560 0.000000 -0.000001 -0.000005 -0.000008 0.297183
    21 1.705897 0.000009 -0.000001 0.000004 -0.000002 0.263418
    22 5.227221 -0.016866 0.516766 -0.207124 -0.061969 1.416516
    23 1.850602 0.000004 -0.000016 -0.000001 -0.000003 0.404328
    24 1.530742 0.000004 0.000006 0.000002 -0.000007 0.000007
    25 5.193862 0.001290 1.622121 -0.391923 -0.089146 1.356771
    26 1.485048 -0.000003 -0.000002 0.000000 -0.000004 0.463478
    27 1.294659 -0.000002 -0.000006 0.000002 -0.000005 0.170697
    28 0.000016 0.000999 -2.684134 0.320923 1.151031 -2.865101
    29 7.524243 -0.000002 -0.000010 -0.098608 -0.185371 -1.959531
    30 11.423448 -0.000001 0.000012 -0.203441 -0.039281 -0.875605
    31 13.708141 0.000001 0.000002 2.907294 0.737262 0.230474
    32 1.195828 -0.033345 1.114688 -0.915046 -0.843418 0.748275
    33 1.294653 -0.000004 0.000007 0.283737 0.304529 0.027312
    34 2.182006 -0.000001 -0.000002 -0.000011 0.523417 -0.000009
    35 4.895140 -0.386528 1.693290 -0.066293 -0.054636 -0.245887
    36 1.507909 0.000003 0.000002 0.000005 0.000002 0.924220
    37 1.370810 0.000000 0.000003 -0.000001 -0.000005 0.723900
    38 5.141358 -0.100724 0.541390 0.878970 0.126636 0.893589
    39 1.759207 0.000000 0.000001 -0.000003 0.000001 1.882034
    40 1.599281 0.000001 -0.000002 0.000001 0.000007 0.603095
    41 5.079515 -0.068061 -0.623692 0.977123 -0.308194 1.391640
    42 1.688846 -0.000007 0.000007 -0.000003 0.000006 1.368066
    43 1.507892 0.000000 -0.000005 -0.000002 -0.000002 1.016312
    44 5.141355 -0.099003 -1.621447 0.786261 -0.387373 1.828552
    45 1.256579 -0.000004 -0.000002 -0.000004 0.000001 0.706523
    46 1.142344 0.000001 0.000004 0.000000 -0.000003 0.784243
    47 0.232746 -0.809303 1.175715 -3.117955 0.230511 0.116535
    48 -3.911582 -0.964776 5.742253 2.627001 -0.257240 3.022049
    49 17.308268 -0.000003 0.000000 0.000012 0.000006 -1.178289
    50 15.463845 0.000001 -0.000001 0.113268 -0.097926 0.477969
    51 6.097225 3.126210 -0.000760 0.000001 -0.000002 1.570796
    52 1.999105 0.000000 0.000001 0.000000 0.000000 0.000000
    53 1.999107 0.000000 0.000000 0.000000 0.000000 0.000000
    54 -4.145939 4.152600 -3.847679 -3.563992 0.297610 3.601773
    55 17.308268 0.000001 -0.000002 -0.000011 -0.000004 -0.807714
    56 15.463844 0.000000 0.000000 -0.018582 0.078750 0.889364
    57 6.096773 3.126230 -0.001722 0.000012 -0.000002 1.570799
    58 1.999104 0.000000 -0.000002 0.000000 0.000000 0.000000
    59 1.999105 0.000000 -0.000001 0.000000 0.000000 0.000000
    60 5.028739 -7.322626 0.014162 0.000000 0.000001 -1.536686
    61 14.325456 4.272008 1.904476 1.421981 0.126217 -1.364846
  time 6
    0 1.505071 -15.525359 36.091082 0.004602 -0.881300 -1.574460
    1 -3.807010 0.046875 0.000004 0.000000 -1.570451 -1.570796
    2 4.434196 -0.003592 0.001683 -0.475271 -0.028639 0.430113
    3 5.339528 -0.005385 0.000518 -0.095182 -0.035403 0.136766
    4 6.940791 -0.005175 0.000498 -0.138650 -0.064070 0.123297
    5 6.620032 -0.004732 0.000413 -0.087039 0.063340 0.077608
    6 5.979036 -0.000997 0.000000 0.000000 0.000000 0.017453
    7 1.252575 -0.000007 -0.000001 0.577541 0.341370 -0.160345
    8 -3.731833 9.544951 0.014184 0.000000 0.000001 -1.675515
    9 0.000008 0.000987 2.684127 -0.156319 -1.385392 -2.898029
    10 7.524248 0.000001 -0.000012 -0.418537 -0.664625 -0.614319
    11 11.423451 -0.000002 0.000002 -0.331864 0.082901 -1.055480
    12 13.479673 0.000007 0.000009 -4.242750 0.276908 -0.487561
    13 2.050503 0.662482 -1.659310 0.877280 0.772758 0.679108
    14 1.066185 0.000002 -0.000002 0.000008 0.281211 0.000001
    15 1.466001 0.000002 0.000000 -0.000002 0.207738 -0.000001
    16 5.193863 -0.001297 -1.622141 0.370332 0.158634 1.186205
    17 1.525730 0.000000 -0.000004 -0.000002 -0.000009 0.593115
    18 1.473163 0.000005 0.000007 0.000002 0.000002 0.215528
    19 4.977359 -0.298624 -0.436314 0.139713 0.020852 1.360821
    20 2.175560 0.000000 -0.000001 -0.000005 -0.000008 0.297183
    21 1.705897 0.000009 -0.000001 0.000004 -0.000002 0.263418
    22 5.227221 -0.016866 0.516766 -0.207124 -0.061969 1.416516
    23 1.850602 0.000004 -0.000016 -0.000001 -0.000003 0.404328
    24 1.530742 0.000004 0.000006 0.000002 -0.000007 0.000007
    25 5.193862 0.001290 1.622121 -0.391923 -0.089146 1.356771
    26 1.485048 -0.000003 -0.000002 0.000000 -0.000004 0.463478
    27 1.294659 -0.000002 -0.000006 0.000002 -0.000005 0.170697
    28 0.000016 0.000999 -2.684134 0.294855 1.154142 -2.888924
    29 7.524243 -0.000002 -0.000010 -0.096362 -0.155597 -1.964124
    30 11.423448 -0.000001 0.000012 -0.197173 -0.032018 -0.836299
    31 13.708141 0.000001 0.000002 2.904229 0.739739 0.217456
    32 1.195828 -0.033345 1.114688 -0.915046 -0.843418 0.748275
    33 1.294653 -0.000004 0.000007 0.283737 0.304529 0.027312
    34 2.182006 -0.000001 -0.000002 -0.000011 0.523417 -0.000009
    35 4.895140 -0.386528 1.693290 -0.066293 -0.054636 -0.245887
    36 1.507909 0.000003 0.000002 0.000005 0.000002 0.924220
    37 1.370810 0.000000 0.000003 -0.000001 -0.000005 0.723900
    38 5.141358 -0.100724 0.541390 0.878970 0.126636 0.893589
    39 1.759207 0.000000 0.000001 -0.000003 0.000001 1.882034
    40 1.599281 0.000001 -0.000002 0.000001 0.000007 0.603095
    41 5.079515 -0.068061 -0.623692 0.977123 -0.308194 1.391640
    42 1.688846 -0.000007 0.000007 -0.000003 0.000006 1.368066
    43 1.507892 0.000000 -0.000005 -0.000002 -0.000002 1.016312
    44 5.141355 -0.099003 -1.621447 0.786261 -0.387373 1.828552
    45 1.256579 -0.000004 -0.000002 -0.000004 0.000001 0.706523
    46 1.142344 0.000001 0.000004 0.000000 -0.000003 0.784243
    47 0.232746 -0.809303 1.175715 -3.117955 0.230511 0.116535
    48 -3.872518 -0.890555 5.781316 2.643164 -0.256643 3.025114
    49 17.308268 -0.000003 0.000000 0.000012 0.000006 -1.178046
    50 15.463845 0.000001 -0.000001 0.111253 -0.096464 0.483409
    51 6.097225 3.126210 -0.000760 0.000001 -0.000002 1.570796
    52 1.999105 0.000000 0.000001 0.000000 0.000000 0.000000
    53 1.999107 0.000000 0.000000 0.000000 0.000000 0.000000
    54 -4.185003 4.078378 -3.886742 -3.549359 0.291720 3.617515
    55 17.308268 0.000001 -0.000002 -0.000011 -0.000004 -0.793410
    56 15.463844 0.000000 0.000000 -0.019011 0.081334 0.885455
    57 6.096773 3.126230 -0.001722 0.000012 -0.000002 1.570799
    58 1.999104 0.000000 -0.000002 0.000000 0.000000 0.000000
    59 1.999105 0.000000 -0.000001 0.000000 0.000000 0.000000
    60 5.028739 -7.322626 0.014162 0.000000 0.000001 -1.536686
    61 14.325456 4.272008 1.904476 1.421981 0.126217 -1.364846
  time 7
    0 1.583198 -15.650363 36.200460 0.004602 -0.881300 -1.574460
    1 -3.900763 0.027344 0.000004 0.000000 -1.570451 -1.570796
    2 4.434196 -0.003592 0.001683 -0.460232 -0.035530 0.429660
    3 5.339528 -0.005385 0.000518 -0.094966 -0.033905 0.152442
    4 6.940791 -0.005175 0.000498 -0.129074 -0.063890 0.133091
    5 6.620032 -0.004732 0.000413 -0.087039 0.063340 0.077608
    6 5.979036 -0.000997 0.000000 0.000000 0.000000 0.017453
    7 1.252575 -0.000007 -0.000001 0.547730 0.359553 -0.199052
    8 -3.731833 9.544951 0.014184 0.000000 0.000001 -1.675515
    9 0.000008 0.000987 2.684127 -0.175989 -1.393397 -2.886290
    10 7.524248 0.000001 -0.000012 -0.376151 -0.708383 -0.704319
    11 11.423451 -0.000002 0.000002 -0.322461 0.103207 -0.949651
    12 13.479673 0.000007 0.000009 -4.255895 0.270194 -0.540620
    13 2.050503 0.662482 -1.659310 0.877280 0.772758 0.679108
    14 1.066185 0.000002 -0.000002 0.000008 0.281211 0.000001
    15 1.466001 0.000002 0.000000 -0.000002 0.207738 -0.000001
    16 5.193863 -0.001297 -1.622141 0.370332 0.158634 1.186205
    17 1.525730 0.000000 -0.000004 -0.000002 -0.000009 0.593115
    18 1.473163 0.000005 0.000007 0.000002 0.000002 0.215528
    19 4.977359 -0.298624 -0.436314 0.139713 0.020852 1.360821
    20 2.175560 0.000000 -0.000001 -0.000005 -0.000008 0.297183
    21 1.705897 0.000009 -0.000001 0.000004 -0.000002 0.263418
    22 5.227221 -0.016866 0.516766 -0.207124 -0.061969 1.416516
    23 1.850602 0.000004 -0.000016 -0.000001 -0.000003 0.404328
    24 1.530742 0.000004 0.000006 0.000002 -0.000007 0.000007
    25 5.193862 0.001290 1.622121 -0.391923 -0.089146 1.356771
    26 1.485048 -0.000003 -0.000002 0.000000 -0.000004 0.463478
    27 1.294659 -0.000002 -0.000006 0.000002 -0.000005 0.170697
    28 0.000016 0.000999 -2.684134 0.269714 1.156797 -2.911971
    29 7.524243 -0.000002 -0.000010 -0.094786 -0.127140 -1.968442
    30 11.423448 -0.000001 0.000012 -0.191121 -0.025355 -0.798141
    31 13.708141 0.000001 0.000002 2.901494 0.742273 0.204681
    32 1.195828 -0.033345 1.114688 -0.915046 -0.843418 0.748275
    33 1.294653 -0.000004 0.000007 0.283737 0.304529 0.027312
    34 2.182006 -0.000001 -0.000002 -0.000011 0.523417 -0.000009
    35 4.895140 -0.386528 1.693290 -0.066293 -0.054636 -0.245887
    36 1.507909 0.000003 0.000002 0.000005 0.000002 0.924220
    37 1.370810 0.000000 0.000003 -0.000001 -0.000005 0.723900
    38 5.141358 -0.100724 0.541390 0.878970 0.126636 0.893589
    39 1.759207 0.000000 0.000001 -0.000003 0.000001 1.882034
    40 1.599281 0.000001 -0.000002 0.000001 0.000007 0.603095
    41 5.079515 -0.068061 -0.623692 0.977123 -0.308194 1.391640
    42 1.688846 -0.000007 0.000007 -0.000003 0.000006 1.368066
    43 1.507892 0.000000 -0.000005 -0.000002 -0.000002 1.016312
    44 5.141355 -0.099003 -1.621447 0.786261 -0.387373 1.828552
    45 1.256579 -0.000004 -0.000002 -0.000004 0.000001 0.706523
    46 1.142344 0.000001 0.000004 0.000000 -0.000003 0.784243
    47 0.232746 -0.809303 1.175715 -3.117955 0.230511 0.116535
    48 -3.837361 -0.816334 5.816474 2.659422 -0.255425 3.026786
    49 17.308268 -0.000003 0.000000 0.000000 0.000006 -1.176158
    50 15.463845 0.000001 -0.000001 0.108407 -0.094050 0.486313
    51 6.097225 3.126210 -0.000760 0.000001 -0.000002 1.570796
    52 1.999105 0.000000 0.000001 0.000000 0.000000 0.000000
    53 1.999107 0.000000 0.000000 0.000000 0.000000 0.000000
    54 -4.224067 4.008064 -3.921900 -3.535490 0.285612 3.630183
    55 17.308268 0.000001 -0.000002 -0.000011 -0.000004 -0.780874
    56 15.463844 0.000000 0.000000 -0.019782 0.084812 0.880737
    57 6.096773 3.126230 -0.001722 0.000012 -0.000002 1.570799
    58 1.999104 0.000000 -0.000002 0.000000 0.000000 0.000000
    59 1.999105 0.000000 -0.000001 0.000000 0.000000 0.000000
    60 5.028739 -7.322626 0.014162 0.000000 0.000001 -1.536686
    61 14.325456 4.272008 1.904476 1.421981 0.126217 -1.364846
  time 8
    0 1.661326 -15.759741 36.309839 0.004602 -0.881300 -1.574460
    1 -3.990609 0.007812 0.000004 0.000000 -1.570451 -1.570796
    2 4.434196 -0.003592 0.001683 -0.446101 -0.042002 0.429109
    3 5.339528 -0.005385 0.000518 -0.094738 -0.032515 0.167135
    4 6.940791 -0.005175 0.000498 -0.120110 -0.063890 0.142281
    5 6.620032 -0.004732 0.000413 -0.087039 0.063340 0.077608
    6 5.979036 -0.000997 0.000000 0.000000 0.000000 0.017453
    7 1.252575 -0.000007 -0.000001 0.519122 0.375782 -0.236150
    8 -3.731833 9.544951 0.014184 0.000000 0.000001 -1.675515
    9 0.000008 0.000987 2.684127 -0.192249 -1.399868 -2.877917
    10 7.524248 0.000001 -0.000012 -0.325601 -0.749655 -0.800701
    11 11.423451 -0.000002 0.000002 -0.309873 0.123901 -0.838927
    12 13.479673 0.000007 0.000009 -4.269225 0.264013 -0.596263
    13 2.050503 0.662482 -1.659310 0.877280 0.772758 0.679108
    14 1.066185 0.000002 -0.000002 0.000008 0.281211 0.000001
    15 1.466001 0.000002 0.000000 -0.000002 0.207738 -0.000001
    16 5.193863 -0.001297 -1.622141 0.370332 0.158634 1.186205
    17 1.525730 0.000000 -0.000004 -0.000002 -0.000009 0.593115
    18 1.473163 0.000005 0.000007 0.000002 0.000002 0.215528
    19 4.977359 -0.298624 -0.436314 0.139713 0.020852 1.360821
    20 2.175560 0.000000 -0.000001 -0.000005 -0.000008 0.297183
    21 1.705897 0.000009 -0.000001 0.000004 -0.000002 0.263418
    22 5.227221 -0.016866 0.516766 -0.207124 -0.061969 1.416516
    23 1.850602 0.000004 -0.000016 -0.000001 -0.000003 0.404328
    24 1.530742 0.000004 0.000006 0.000002 -0.000007 0.000007
    25 5.193862 0.001290 1.622121 -0.391923 -0.089146 1.356771
    26 1.485048 -0.000003 -0.000002 0.000000 -0.000004 0.463478
    27 1.294659 -0.000002 -0.000006 0.000002 -0.000005 0.170697
    28 0.000016 0.000999 -2.684134 0.245854 1.159120 -2.933809
    29 7.524243 -0.000002 -0.000010 -0.093973 -0.100425 -1.972624
    30 11.423448 -0.000001 0.000012 -0.185345 -0.019362 -0.761971
    31 13.708141 0.000001 0.000002 2.898995 0.744749 0.192460
    32 1.195828 -0.033345 1.114688 -0.915046 -0.843418 0.748275
    33 1.294653 -0.000004 0.000007 0.283737 0.304529 0.027312
    34 2.182006 -0.000001 -0.000002 -0.000011 0.523417 -0.000009
    35 4.895140 -0.386528 1.693290 -0.066293 -0.054636 -0.245887
    36 1.507909 0.000003 0.000002 0.000005 0.000002 0.924220
    37 1.370810 0.000000 0.000003 -0.000001 -0.000005 0.723900
    38 5.141358 -0.100724 0.541390 0.878970 0.126636 0.893589
    39 1.759207 0.000000 0.000001 -0.000003 0.000001 1.882034
    40 1.599281 0.000001 -0.000002 0.000001 0.000007 0.603095
    41 5.079515 -0.068061 -0.623692 0.977123 -0.308194 1.391640
    42 1.688846 -0.000007 0.000007 -0.000003 0.000006 1.368066
    43 1.507892 0.000000 -0.000005 -0.000002 -0.000002 1.016312
    44 5.141355 -0.099003 -1.621447 0.786261 -0.387373 1.828552
    45 1.256579 -0.000004 -0.000002 -0.000004 0.000001 0.706523
    46 1.142344 0.000001 0.000004 0.000000 -0.000003 0.784243
    47 0.232746 -0.809303 1.175715 -3.117955 0.230511 0.116535
    48 -3.802204 -0.746019 5.847725 2.674533 -0.254257 3.028644
    49 17.308268 -0.000003 0.000000 0.000000 0.000006 -1.173479
    50 15.463845 0.000001 -0.000001 0.105737 -0.091742 0.488182
    51 6.097225 3.126210 -0.000760 0.000001 -0.000002 1.570796
    52 1.999105 0.000000 0.000001 0.000000 0.000000 0.000000
    53 1.999107 0.000000 0.000000 0.000000 0.000000 0.000000
    54 -4.259224 3.937749 -3.953151 -3.522579 0.279591 3.642013
    55 17.308268 0.000001 -0.000002 -0.000011 -0.000004 -0.768421
    56 15.463844 0.000000 0.000000 -0.020553 0.088024 0.875589
    57 6.096773 3.126230 -0.001722 0.000012 -0.000002 1.570799
    58 1.999104 0.000000 -0.000002 0.000000 0.000000 0.000000
    59 1.999105 0.000000 -0.000001 0.000000 0.000000 0.000000
    60 5.028739 -7.322626 0.014162 0.000000 0.000001 -1.536686
    61 14.325456 4.272008 1.904476 1.421981 0.126217 -1.364846
  time 9
    0 1.743359 -15.869119 36.411404 0.004602 -0.881300 -1.574460
    1 -4.068737 -0.011720 0.000004 0.000000 -1.570451 -1.570796
    2 4.434196 -0.003592 0.001683 -0.433203 -0.047886 0.428526
    3 5.339528 -0.005385 0.000518 -0.094510 -0.031245 0.180545
    4 6.940791 -0.005175 0.000498 -0.111948 -0.064046 0.150678
    5 6.620032 -0.004732 0.000413 -0.087039 0.063340 0.077608
    6 5.979036 -0.000997 0.000000 0.000000 0.000000 0.017453
    7 1.252575 -0.000007 -0.000001 0.492486 0.389859 -0.270693
    8 -3.731833 9.544951 0.014184 0.000000 0.000001 -1.675515
    9 0.000008 0.000987 2.684127 -0.203828 -1.404929 -2.874033
    10 7.524248 0.000001 -0.000012 -0.266466 -0.786933 -0.903355
    11 11.423451 -0.000002 0.000002 -0.294137 0.144259 -0.723797
    12 13.479673 0.000007 0.000009 -4.282649 0.258258 -0.653959
    13 2.050503 0.662482 -1.659310 0.877280 0.772758 0.679108
    14 1.066185 0.000002 -0.000002 0.000008 0.281211 0.000001
    15 1.466001 0.000002 0.000000 -0.000002 0.207738 -0.000001
    16 5.193863 -0.001297 -1.622141 0.370332 0.158634 1.186205
    17 1.525730 0.000000 -0.000004 -0.000002 -0.000009 0.593115
    18 1.473163 0.000005 0.000007 0.000002 0.000002 0.215528
    19 4.977359 -0.298624 -0.436314 0.139713 0.020852 1.360821
    20 2.175560 0.000000 -0.000001 -0.000005 -0.000008 0.297183
    21 1.705897 0.000009 -0.000001 0.000004 -0.000002 0.263418
    22 5.227221 -0.016866 0.516766 -0.207124 -0.061969 1.416553
    23 1.850602 0.000004 -0.000016 -0.000001 -0.000003 0.404328
    24 1.530742 0.000004 0.000006 0.000002 -0.000007 0.000007
    25 5.193862 0.001290 1.622121 -0.391923 -0.089146 1.356771
    26 1.485048 -0.000003 -0.000002 0.000000 -0.000004 0.463478
    27 1.294659 -0.000002 -0.000006 0.000002 -0.000005 0.170697
    28 0.000016 0.000999 -2.684134 0.223917 1.161069 -2.953920
    29 7.524243 -0.000002 -0.000010 -0.093830 -0.076003 -1.976600
    30 11.423448 -0.000001 0.000012 -0.179976 -0.014125 -0.728553
    31 13.708141 0.000001 0.000002 2.896778 0.747081 0.181105
    32 1.195828 -0.033345 1.114688 -0.915046 -0.843418 0.748275
    33 1.294653 -0.000004 0.000007 0.283737 0.304529 0.027312
    34 2.182006 -0.000001 -0.000002 -0.000011 0.523417 -0.000009
    35 4.895140 -0.386528 1.693290 -0.066293 -0.054636 -0.245887
    36 1.507909 0.000003 0.000002 0.000005 0.000002 0.924220
    37 1.370810 0.000000 0.000003 -0.000001 -0.000005 0.723900
    38 5.141358 -0.100724 0.541390 0.878970 0.126636 0.893589
    39 1.759207 0.000000 0.000001 -0.000003 0.000001 1.882034
    40 1.599281 0.000001 -0.000002 0.000001 0.000007 0.603095
    41 5.079515 -0.068061 -0.623692 0.977123 -0.308194 1.391640
    42 1.688846 -0.000007 0.000007 -0.000003 0.000006 1.368066
    43 1.507892 0.000000 -0.000005 -0.000002 -0.000002 1.016312
    44 5.141355 -0.099003 -1.621447 0.786261 -0.387373 1.828552
    45 1.256579 -0.000004 -0.000002 -0.000004 0.000001 0.706523
    46 1.142344 0.000001 0.000004 0.000000 -0.000003 0.784243
    47 0.232746 -0.809303 1.175715 -3.117955 0.230511 0.116535
    48 -3.767046 -0.683517 5.875069 2.688401 -0.252765 3.030688
    49 17.308268 -0.000003 0.000000 0.000000 0.000006 -1.170740
    50 15.463845 0.000001 -0.000001 0.103042 -0.089486 0.490117
    51 6.097225 3.126210 -0.000760 0.000001 -0.000002 1.570796
    52 1.999105 0.000000 0.000001 0.000000 0.000000 0.000000
    53 1.999107 0.000000 0.000000 0.000000 0.000000 0.000000
    54 -4.290475 3.871341 -3.984402 -3.510719 0.274484 3.653563
    55 17.308268 0.000001 -0.000002 -0.000011 -0.000004 -0.755548
    56 15.463844 0.000000 0.000000 -0.021324 0.091187 0.870250
    57 6.096773 3.126230 -0.001722 0.000012 -0.000002 1.570799
    58 1.999104 0.000000 -0.000002 0.000000 0.000000 0.000000
    59 1.999105 0.000000 -0.000001 0.000000 0.000000 0.000000
    60 5.028739 -7.322626 0.014162 0.000000 0.000001 -1.536686
    61 14.325456 4.272008 1.904476 1.421981 0.126217 -1.364846
  time 10
    0 1.829300 -15.986310 36.501251 0.004602 -0.881300 -1.574460
    1 -4.139051 -0.035158 0.000004 0.000000 -1.570451 -1.570796
    2 4.434196 -0.003592 0.001683 -0.421894 -0.053040 0.427944
    3 5.339528 -0.005385 0.000518 -0.094295 -0.030130 0.192290
    4 6.940791 -0.005175 0.000498 -0.104805 -0.064285 0.158040
    5 6.620032 -0.004732 0.000413 -0.087039 0.063340 0.077608
    6 5.979036 -0.000997 0.000000 0.000000 0.000000 0.017453
    7 1.252575 -0.000007 -0.000001 0.468757 0.401619 -0.301456
    8 -3.731833 9.544951 0.014184 0.000000 0.000001 -1.675515
    9 0.000008 0.000987 2.684127 -0.210015 -1.408828 -2.874810
    10 7.524248 0.000001 -0.000012 -0.199531 -0.818531 -1.010809
    11 11.423451 -0.000002 0.000002 -0.275608 0.163505 -0.605811
    12 13.479673 0.000007 0.000009 -4.295886 0.252751 -0.712788
    13 2.050503 0.662482 -1.659310 0.877280 0.772758 0.679108
    14 1.066185 0.000002 -0.000002 0.000008 0.281211 0.000001
    15 1.466001 0.000002 0.000000 -0.000002 0.207738 -0.000001
    16 5.193863 -0.001297 -1.622141 0.370332 0.158634 1.186205
    17 1.525730 0.000000 -0.000004 -0.000002 -0.000009 0.593115
    18 1.473163 0.000005 0.000007 0.000002 0.000002 0.215528
    19 4.977359 -0.298624 -0.436314 0.139713 0.020852 1.360821
    20 2.175560 0.000000 -0.000001 -0.000005 -0.000008 0.297183
    21 1.705897 0.000009 -0.000001 0.000004 -0.000002 0.263418
    22 5.227221 -0.016866 0.516766 -0.207124 -0.061969 1.416516
    23 1.850602 0.000004 -0.000016 -0.000001 -0.000003 0.404328
    24 1.530742 0.000004 0.000006 0.000002 -0.000007 0.000007
    25 5.193862 0.001290 1.622121 -0.391923 -0.089146 1.356771
    26 1.485048 -0.000003 -0.000002 0.000000 -0.000004 0.463478
    27 1.294659 -0.000002 -0.000006 0.000002 -0.000005 0.170697
    28 0.000016 0.000999 -2.684134 0.204545 1.162604 -2.971701
    29 7.524243 -0.000002 -0.000010 -0.094117 -0.054554 -1.980233
    30 11.423448 -0.000001 0.000012 -0.175206 -0.009727 -0.698960
    31 13.708141 0.000001 0.000002 2.894939 0.749183 0.170961
    32 1.195828 -0.033345 1.114688 -0.915046 -0.843418 0.748275
    33 1.294653 -0.000004 0.000007 0.283737 0.304529 0.027312
    34 2.182006 -0.000001 -0.000002 -0.000011 0.523417 -0.000009
    35 4.895140 -0.386528 1.693290 -0.066293 -0.054636 -0.245887
    36 1.507909 0.000003 0.000002 0.000005 0.000002 0.924220
    37 1.370810 0.000000 0.000003 -0.000001 -0.000005 0.723900
    38 5.141358 -0.100724 0.541390 0.878970 0.126636 0.893589
    39 1.759207 0.000000 0.000001 -0.000003 0.000001 1.882034
    40 1.599281 0.000001 -0.000002 0.000001 0.000007 0.603095
    41 5.079515 -0.068061 -0.623692 0.977123 -0.308194 1.391640
    42 1.688846 -0.000007 0.000007 -0.000003 0.000006 1.368066
    43 1.507892 0.000000 -0.000005 -0.000002 -0.000002 1.016312
    44 5.141355 -0.099003 -1.621447 0.786261 -0.387373 1.828552
    45 1.256579 -0.000004 -0.000002 -0.000004 0.000001 0.706523
    46 1.142344 0.000001 0.000004 0.000000 -0.000003 0.784243
    47 0.232746 -0.809303 1.175715 -3.117955 0.230511 0.116535
    48 -3.739702 -0.624922 5.898507 2.700643 -0.250677 3.032824
    49 17.308268 -0.000003 0.000000 0.000000 0.000006 -1.168670
    50 15.463845 0.000001 -0.000001 0.100171 -0.087125 0.492888
    51 6.097225 3.126210 -0.000760 0.000001 -0.000002 1.570796
    52 1.999105 0.000000 0.000001 0.000000 0.000000 0.000000
    53 1.999107 0.000000 0.000000 0.000000 0.000000 0.000000
    54 -4.317820 3.816652 -4.007840 -3.499816 0.270941 3.664927
    55 17.308268 0.000001 -0.000002 -0.000011 -0.000004 -0.742170
    56 15.463844 0.000000 0.000000 -0.022124 0.094568 0.865103
    57 6.096773 3.126230 -0.001722 0.000012 -0.000002 1.570799
    58 1.999104 0.000000 -0.000002 0.000000 0.000000 0.000000
    59 1.999105 0.000000 -0.000001 0.000000 0.000000 0.000000
    60 5.028739 -7.322626 0.014162 0.000000 0.000001 -1.536686
    61 14.325456 4.272008 1.904476 1.421981 0.126217 -1.364846
  time 11
    0 1.997273 -16.142565 36.571565 0.004602 -0.881300 -1.574460
    1 -4.197647 -0.054690 0.000004 0.000000 -1.570451 -1.570796
    2 4.434196 -0.003592 0.001683 -0.412614 -0.057270 0.427426
    3 5.339528 -0.005385 0.000518 -0.094115 -0.029219 0.201926
    4 6.940791 -0.005175 0.000498 -0.098957 -0.064573 0.164086
    5 6.620032 -0.004732 0.000413 -0.087039 0.063340 0.077608
    6 5.979036 -0.000997 0.000000 0.000000 0.000000 0.017453
    7 1.252575 -0.000007 -0.000001 0.449006 0.410851 -0.327074
    8 -3.731833 9.544951 0.014184 0.000000 0.000001 -1.675515
    9 0.000008 0.000987 2.684127 -0.209460 -1.411275 -2.881629
    10 7.524248 0.000001 -0.000012 -0.127637 -0.842807 -1.119627
    11 11.423451 -0.000002 0.000002 -0.255191 0.180681 -0.488151
    12 13.479673 0.000007 0.000009 -4.308378 0.248240 -0.770767
    13 2.050503 0.662482 -1.659310 0.877280 0.772758 0.679108
    14 1.066185 0.000002 -0.000002 0.000008 0.281211 0.000001
    15 1.466001 0.000002 0.000000 -0.000002 0.207738 -0.000001
    16 5.193863 -0.001297 -1.622141 0.370332 0.158634 1.186205
    17 1.525730 0.000000 -0.000004 -0.000002 -0.000009 0.593115
    18 1.473163 0.000005 0.000007 0.000002 0.000002 0.215528
    19 4.977359 -0.298624 -0.436314 0.139713 0.020852 1.360821
    20 2.175560 0.000000 -0.000001 -0.000005 -0.000008 0.297183
    21 1.705897 0.000009 -0.000001 0.000004 -0.000002 0.263418
    22 5.227221 -0.016866 0.516766 -0.207124 -0.061969 1.416516
    23 1.850602 0.000004 -0.000016 -0.000001 -0.000003 0.404328
    24 1.530742 0.000004 0.000006 0.000002 -0.000007 0.000007
    25 5.193862 0.001290 1.622121 -0.391923 -0.089146 1.356771
    26 1.485048 -0.000003 -0.000002 0.000000 -0.000004 0.463478
    27 1.294659 -0.000002 -0.000006 0.000002 -0.000005 0.170697
    28 0.000016 0.000999 -2.684134 0.188519 1.163765 -2.986462
    29 7.524243 -0.000002 -0.000010 -0.094690 -0.036927 -1.983386
    30 11.423448 -0.000001 0.000012 -0.171239 -0.006251 -0.674413
    31 13.708141 0.000001 0.000002 2.893430 0.750940 0.162514
    32 1.195828 -0.033345 1.114688 -0.915046 -0.843418 0.748275
    33 1.294653 -0.000004 0.000007 0.283737 0.304529 0.027312
    34 2.182006 -0.000001 -0.000002 -0.000011 0.523417 -0.000009
    35 4.895140 -0.386528 1.693290 -0.066293 -0.054636 -0.245887
    36 1.507909 0.000003 0.000002 0.000005 0.000002 0.924220
    37 1.370810 0.000000 0.000003 -0.000001 -0.000005 0.723900
    38 5.141358 -0.100724 0.541390 0.878970 0.126636 0.893589
    39 1.759207 0.000000 0.000001 -0.000003 0.000001 1.882034
    40 1.599281 0.000001 -0.000002 0.000001 0.000007 0.603095
    41 5.079515 -0.068061 -0.623692 0.977123 -0.308194 1.391640
    42 1.688846 -0.000007 0.000007 -0.000003 0.000006 1.368066
    43 1.507892 0.000000 -0.000005 -0.000002 -0.000002 1.016312
    44 5.141355 -0.099003 -1.621447 0.786261 -0.387373 1.828552
    45 1.256579 -0.000004 -0.000002 -0.000004 0.000001 0.706523
    46 1.142344 0.000001 0.000004 0.000000 -0.000003 0.784243
    47 0.232746 -0.809303 1.175715 -3.117955 0.230511 0.116535
    48 -3.716264 -0.578045 5.918039 2.711546 -0.244463 3.034310
    49 17.308268 -0.000003 0.000000 0.000012 0.000006 -1.169157
    50 15.463845 0.000001 -0.000001 0.094580 -0.082350 0.499062
    51 6.097225 3.126210 -0.000760 0.000001 -0.000002 1.570796
    52 1.999105 0.000000 0.000001 0.000000 0.000000 0.000000
    53 1.999107 0.000000 0.000000 0.000000 0.000000 0.000000
    54 -4.341258 3.769775 -4.027372 -3.488817 0.273049 3.677223
    55 17.308268 0.000001 -0.000002 -0.000011 -0.000004 -0.725343
    56 15.463844 0.000000 0.000000 -0.023609 0.101379 0.859288
    57 6.096773 3.126230 -0.001722 0.000012 -0.000002 1.570799
    58 1.999104 0.000000 -0.000002 0.000000 0.000000 0.000000
    59 1.999105 0.000000 -0.000001 0.000000 0.000000 0.000000
    60 5.028739 -7.322626 0.014162 0.000000 0.000001 -1.536686
    61 14.325456 4.272008 1.904476 1.421981 0.126217 -1.364846
  time 12
    0 2.669169 -16.154284 36.610629 0.004602 -0.881300 -1.574460
    1 -4.232804 -0.070316 0.000004 0.000000 -1.570451 -1.570796
    2 4.434196 -0.003592 0.001683 -0.406238 -0.060171 0.427069
    3 5.339528 -0.005385 0.000518 -0.093983 -0.028596 0.208541
    4 6.940791 -0.005175 0.000498 -0.094942 -0.064813 0.168238
    5 6.620032 -0.004732 0.000413 -0.087039 0.063340 0.077608
    6 5.979036 -0.000997 0.000000 0.000000 0.000000 0.017453
    7 1.252575 -0.000007 -0.000001 0.435303 0.416961 -0.344818
    8 -3.731833 9.544951 0.014184 0.000000 0.000001 -1.675515
    9 0.000008 0.000987 2.684127 -0.203828 -1.412436 -2.891987
    10 7.524248 0.000001 -0.000012 -0.063181 -0.857629 -1.213173
    11 11.423451 -0.000002 0.000002 -0.236387 0.193692 -0.387136
    12 13.479673 0.000007 0.000009 -4.318352 0.245043 -0.819968
    13 2.050503 0.662482 -1.659310 0.877280 0.772758 0.679108
    14 1.066185 0.000002 -0.000002 0.000008 0.281211 0.000001
    15 1.466001 0.000002 0.000000 -0.000002 0.207738 -0.000001
    16 5.193863 -0.001297 -1.622141 0.370332 0.158634 1.186205
    17 1.525730 0.000000 -0.000004 -0.000002 -0.000009 0.593115
    18 1.473163 0.000005 0.000007 0.000002 0.000002 0.215528
    19 4.977359 -0.298624 -0.436314 0.139713 0.020852 1.360821
    20 2.175560 0.000000 -0.000001 -0.000005 -0.000008 0.297183
    21 1.705897 0.000009 -0.000001 0.000004 -0.000002 0.263418
    22 5.227221 -0.016866 0.516766 -0.207124 -0.061969 1.416516
    23 1.850602 0.000004 -0.000016 -0.000001 -0.000003 0.404328
    24 1.530742 0.000004 0.000006 0.000002 -0.000007 0.000007
    25 5.193862 0.001290 1.622121 -0.391923 -0.089146 1.356771
    26 1.485048 -0.000003 -0.000002 0.000000 -0.000004 0.463478
    27 1.294659 -0.000002 -0.000006 0.000002 -0.000005 0.170697
    28 0.000016 0.000999 -2.684134 0.177480 1.164512 -2.996561
    29 7.524243 -0.000002 -0.000010 -0.095263 -0.024822 -1.985649
    30 11.423448 -0.000001 0.000012 -0.168482 -0.003938 -0.657437
    31 13.708141 0.000001 0.000002 2.892440 0.752178 0.156663
    32 1.195828 -0.033345 1.114688 -0.915046 -0.843418 0.748275
    33 1.294653 -0.000004 0.000007 0.283737 0.304529 0.027312
    34 2.182006 -0.000001 -0.000002 -0.000011 0.523417 -0.000009
    35 4.895140 -0.386528 1.693290 -0.066293 -0.054636 -0.245887
    36 1.507909 0.000003 0.000002 0.000005 0.000002 0.924220
    37 1.370810 0.000000 0.000003 -0.000001 -0.000005 0.723900
    38 5.141358 -0.100724 0.541390 0.878970 0.126636 0.893589
    39 1.759207 0.000000 0.000001 -0.000003 0.000001 1.882034
    40 1.599281 0.000001 -0.000002 0.000001 0.000007 0.603095
    41 5.079515 -0.068061 -0.623692 0.977123 -0.308194 1.391640
    42 1.688846 -0.000007 0.000007 -0.000003 0.000006 1.368066
    43 1.507892 0.000000 -0.000005 -0.000002 -0.000002 1.016312
    44 5.141355 -0.099003 -1.621447 0.786261 -0.387373 1.828552
    45 1.256579 -0.000004 -0.000002 -0.000004 0.000001 0.706523
    46 1.142344 0.000001 0.000004 0.000000 -0.000003 0.784243
    47 0.232746 -0.809303 1.175715 -3.117955 0.230511 0.116535
    48 -3.700638 -0.546795 5.933665 2.725317 -0.218512 3.020656
    49 17.308268 -0.000003 0.000000 0.000012 0.000006 -1.174393
    50 15.463845 0.000001 -0.000001 0.072871 -0.060907 0.505136
    51 6.097225 3.126210 -0.000760 0.000001 -0.000002 1.570796
    52 1.999105 0.000000 0.000001 0.000000 0.000000 0.000000
    53 1.999107 0.000000 0.000000 0.000000 0.000000 0.000000
    54 -4.356883 3.738524 -4.039091 -3.475714 0.293893 3.674335
    55 17.308268 0.000001 -0.000002 -0.000011 -0.000004 -0.713564
    56 15.463844 0.000000 0.000000 -0.030150 0.129007 0.850565
    57 6.096773 3.126230 -0.001722 0.000012 -0.000002 1.570799
    58 1.999104 0.000000 -0.000002 0.000000 0.000000 0.000000
    59 1.999105 0.000000 -0.000001 0.000000 0.000000 0.000000
    60 5.028739 -7.322626 0.014162 0.000000 0.000001 -1.536686
    61 14.325456 4.272008 1.904476 1.421981 0.126217 -1.364846
end
