version 1
nodes
0 "static_prop" -1
end
skeleton
time 0
0 0.000000 0.000000 0.000000 -1.570796 -0.000000 0.000000
end
triangles
barrelbottom03a
0 0.000001 -15.101332 0.149137 0.000000 -1.000000 0.000000 0.500000 0.000500 1 0 1.000000
0 10.743800 -10.651131 0.149137 0.000000 -1.000000 0.000000 0.853200 0.146800 1 0 1.000000
0 5.814500 -13.944731 0.149137 0.000000 -1.000000 0.000000 0.691200 0.038500 1 0 1.000000
barrelbottom03a
0 0.000001 -15.101332 0.149137 0.000000 -1.000000 0.000000 0.500000 0.000500 1 0 1.000000
0 14.037400 -5.721829 0.149137 0.000000 -1.000000 0.000000 0.961500 0.308800 1 0 1.000000
0 10.743800 -10.651131 0.149137 0.000000 -1.000000 0.000000 0.853200 0.146800 1 0 1.000000
barrelbottom03a
0 0.000001 -15.101332 0.149137 0.000000 -1.000000 0.000000 0.500000 0.000500 1 0 1.000000
0 15.194000 0.092670 0.149136 0.000000 -1.000000 0.000000 0.999500 0.500000 1 0 1.000000
0 14.037400 -5.721829 0.149137 0.000000 -1.000000 0.000000 0.961500 0.308800 1 0 1.000000
barrelbottom03a
0 0.000001 -15.101332 0.149137 0.000000 -1.000000 0.000000 0.500000 0.000500 1 0 1.000000
0 14.037400 5.907169 0.149136 0.000000 -1.000000 0.000000 0.961500 0.691200 1 0 1.000000
0 15.194000 0.092670 0.149136 0.000000 -1.000000 0.000000 0.999500 0.500000 1 0 1.000000
barrelbottom03a
0 0.000001 -15.101332 0.149137 0.000000 -1.000000 0.000000 0.500000 0.000500 1 0 1.000000
0 10.743800 10.836470 0.149134 -0.000000 -1.000000 0.000000 0.853200 0.853200 1 0 1.000000
0 14.037400 5.907169 0.149136 0.000000 -1.000000 0.000000 0.961500 0.691200 1 0 1.000000
barrelbottom03a
0 0.000001 -15.101332 0.149137 0.000000 -1.000000 0.000000 0.500000 0.000500 1 0 1.000000
0 5.814499 14.130072 0.149134 -0.000000 -1.000000 0.000000 0.691200 0.961500 1 0 1.000000
0 10.743800 10.836470 0.149134 -0.000000 -1.000000 0.000000 0.853200 0.853200 1 0 1.000000
barrelbottom03a
0 0.000001 -15.101332 0.149137 0.000000 -1.000000 0.000000 0.500000 0.000500 1 0 1.000000
0 -0.000001 15.286669 0.149134 0.000000 -1.000000 0.000000 0.500000 0.999500 1 0 1.000000
0 5.814499 14.130072 0.149134 -0.000000 -1.000000 0.000000 0.691200 0.961500 1 0 1.000000
barrelbottom03a
0 0.000001 -15.101332 0.149137 0.000000 -1.000000 0.000000 0.500000 0.000500 1 0 1.000000
0 -5.814500 14.130072 0.149134 0.000000 -1.000000 0.000000 0.308800 0.961500 1 0 1.000000
0 -0.000001 15.286669 0.149134 0.000000 -1.000000 0.000000 0.500000 0.999500 1 0 1.000000
barrelbottom03a
0 0.000001 -15.101332 0.149137 0.000000 -1.000000 0.000000 0.500000 0.000500 1 0 1.000000
0 -10.743800 10.836470 0.149134 0.000000 -1.000000 0.000000 0.146800 0.853200 1 0 1.000000
0 -5.814500 14.130072 0.149134 0.000000 -1.000000 0.000000 0.308800 0.961500 1 0 1.000000
barrelbottom03a
0 0.000001 -15.101332 0.149137 0.000000 -1.000000 0.000000 0.500000 0.000500 1 0 1.000000
0 -14.037400 5.907169 0.149136 -0.000000 -1.000000 0.000000 0.038500 0.691200 1 0 1.000000
0 -10.743800 10.836470 0.149134 0.000000 -1.000000 0.000000 0.146800 0.853200 1 0 1.000000
barrelbottom03a
0 0.000001 -15.101332 0.149137 0.000000 -1.000000 0.000000 0.500000 0.000500 1 0 1.000000
0 -15.194000 0.092668 0.149136 -0.000000 -1.000000 0.000000 0.000500 0.500000 1 0 1.000000
0 -14.037400 5.907169 0.149136 -0.000000 -1.000000 0.000000 0.038500 0.691200 1 0 1.000000
barrelbottom03a
0 0.000001 -15.101332 0.149137 0.000000 -1.000000 0.000000 0.500000 0.000500 1 0 1.000000
0 -14.037400 -5.721831 0.149137 -0.000000 -1.000000 0.000000 0.038500 0.308800 1 0 1.000000
0 -15.194000 0.092668 0.149136 -0.000000 -1.000000 0.000000 0.000500 0.500000 1 0 1.000000
barrelbottom03a
0 0.000001 -15.101332 0.149137 0.000000 -1.000000 0.000000 0.500000 0.000500 1 0 1.000000
0 -10.743800 -10.651131 0.149137 -0.000000 -1.000000 0.000000 0.146800 0.146800 1 0 1.000000
0 -14.037400 -5.721831 0.149137 -0.000000 -1.000000 0.000000 0.038500 0.308800 1 0 1.000000
barrelbottom03a
0 0.000001 -15.101332 0.149137 0.000000 -1.000000 0.000000 0.500000 0.000500 1 0 1.000000
0 -5.814499 -13.944731 0.149137 -0.000000 -1.000000 0.000000 0.308800 0.038500 1 0 1.000000
0 -10.743800 -10.651131 0.149137 -0.000000 -1.000000 0.000000 0.146800 0.146800 1 0 1.000000
barrelside03a
0 5.814500 -13.944727 35.831440 0.443026 0.000000 0.896509 0.562500 0.759655 1 0 1.000000
0 10.743800 -10.651125 48.282337 0.658803 0.000000 0.752315 0.625000 0.999500 1 0 1.000000
0 5.814500 -13.944725 48.282341 0.320706 0.000000 0.947179 0.562500 0.999500 1 0 1.000000
barrelside03a
0 5.814500 -13.944727 35.831440 0.443026 0.000000 0.896509 0.562500 0.759655 1 0 1.000000
0 10.743800 -10.651127 35.831436 0.752315 0.000000 0.658803 0.625000 0.759655 1 0 1.000000
0 10.743800 -10.651125 48.282337 0.658803 0.000000 0.752315 0.625000 0.999500 1 0 1.000000
barrelside03a
0 10.743800 -10.651127 35.831436 0.752315 0.000000 0.658803 0.625000 0.759655 1 0 1.000000
0 14.037400 -5.721823 48.282337 0.896509 0.000000 0.443026 0.687500 0.999500 1 0 1.000000
0 10.743800 -10.651125 48.282337 0.658803 0.000000 0.752315 0.625000 0.999500 1 0 1.000000
barrelside03a
0 10.743800 -10.651127 35.831436 0.752315 0.000000 0.658803 0.625000 0.759655 1 0 1.000000
0 14.037400 -5.721825 35.831436 0.947179 0.000000 0.320706 0.687500 0.759655 1 0 1.000000
0 14.037400 -5.721823 48.282337 0.896509 0.000000 0.443026 0.687500 0.999500 1 0 1.000000
barrelside03a
0 14.037400 -5.721825 35.831436 0.947179 0.000000 0.320706 0.687500 0.759655 1 0 1.000000
0 15.194000 0.092676 48.282337 0.997805 0.000000 0.066226 0.750000 0.999500 1 0 1.000000
0 14.037400 -5.721823 48.282337 0.896509 0.000000 0.443026 0.687500 0.999500 1 0 1.000000
barrelside03a
0 14.037400 -5.721825 35.831436 0.947179 0.000000 0.320706 0.687500 0.759655 1 0 1.000000
0 15.194000 0.092676 35.831436 0.997805 0.000000 -0.066226 0.750000 0.759655 1 0 1.000000
0 15.194000 0.092676 48.282337 0.997805 0.000000 0.066226 0.750000 0.999500 1 0 1.000000
barrelside03a
0 15.194000 0.092676 35.831436 0.997805 0.000000 -0.066226 0.750000 0.759655 1 0 1.000000
0 14.037400 5.907175 48.282337 0.947179 -0.000000 -0.320706 0.812500 0.999500 1 0 1.000000
0 15.194000 0.092676 48.282337 0.997805 0.000000 0.066226 0.750000 0.999500 1 0 1.000000
barrelside03a
0 15.194000 0.092676 35.831436 0.997805 0.000000 -0.066226 0.750000 0.759655 1 0 1.000000
0 14.037400 5.907175 35.831436 0.896509 -0.000000 -0.443026 0.812500 0.759655 1 0 1.000000
0 14.037400 5.907175 48.282337 0.947179 -0.000000 -0.320706 0.812500 0.999500 1 0 1.000000
barrelside03a
0 14.037400 5.907175 35.831436 0.896509 -0.000000 -0.443026 0.812500 0.759655 1 0 1.000000
0 10.743800 10.836477 48.282337 0.752315 -0.000000 -0.658803 0.875000 0.999500 1 0 1.000000
0 14.037400 5.907175 48.282337 0.947179 -0.000000 -0.320706 0.812500 0.999500 1 0 1.000000
barrelside03a
0 14.037400 5.907175 35.831436 0.896509 -0.000000 -0.443026 0.812500 0.759655 1 0 1.000000
0 10.743800 10.836473 35.831436 0.658803 -0.000000 -0.752315 0.875000 0.759655 1 0 1.000000
0 10.743800 10.836477 48.282337 0.752315 -0.000000 -0.658803 0.875000 0.999500 1 0 1.000000
barrelside03a
0 10.743800 10.836473 35.831436 0.658803 -0.000000 -0.752315 0.875000 0.759655 1 0 1.000000
0 5.814499 14.130075 48.282333 0.443026 -0.000000 -0.896509 0.937500 0.999500 1 0 1.000000
0 10.743800 10.836477 48.282337 0.752315 -0.000000 -0.658803 0.875000 0.999500 1 0 1.000000
barrelside03a
0 10.743800 10.836473 35.831436 0.658803 -0.000000 -0.752315 0.875000 0.759655 1 0 1.000000
0 5.814499 14.130072 35.831432 0.320706 -0.000000 -0.947179 0.937500 0.759655 1 0 1.000000
0 5.814499 14.130075 48.282333 0.443026 -0.000000 -0.896509 0.937500 0.999500 1 0 1.000000
barrelside03a
0 5.814499 14.130072 35.831432 0.320706 -0.000000 -0.947179 0.937500 0.759655 1 0 1.000000
0 -0.000001 15.286676 48.282333 0.066226 -0.000000 -0.997805 1.000000 0.999500 1 0 1.000000
0 5.814499 14.130075 48.282333 0.443026 -0.000000 -0.896509 0.937500 0.999500 1 0 1.000000
barrelside03a
0 5.814499 14.130072 35.831432 0.320706 -0.000000 -0.947179 0.937500 0.759655 1 0 1.000000
0 -0.000001 15.286673 35.831432 -0.066226 -0.000000 -0.997805 1.000000 0.759655 1 0 1.000000
0 -0.000001 15.286676 48.282333 0.066226 -0.000000 -0.997805 1.000000 0.999500 1 0 1.000000
barrelside03a
0 -0.000001 15.286673 35.831432 -0.066226 -0.000000 -0.997805 0.000000 0.759655 1 0 1.000000
0 -5.814500 14.130075 48.282333 -0.320706 -0.000000 -0.947179 0.062500 0.999500 1 0 1.000000
0 -0.000001 15.286676 48.282333 0.066226 -0.000000 -0.997805 0.000000 0.999500 1 0 1.000000
barrelside03a
0 -0.000001 15.286673 35.831432 -0.066226 -0.000000 -0.997805 0.000000 0.759655 1 0 1.000000
0 -5.814500 14.130072 35.831432 -0.443026 -0.000000 -0.896509 0.062500 0.759655 1 0 1.000000
0 -5.814500 14.130075 48.282333 -0.320706 -0.000000 -0.947179 0.062500 0.999500 1 0 1.000000
barrelside03a
0 -5.814500 14.130072 35.831432 -0.443026 -0.000000 -0.896509 0.062500 0.759655 1 0 1.000000
0 -10.743800 10.836477 48.282337 -0.658803 -0.000000 -0.752315 0.125000 0.999500 1 0 1.000000
0 -5.814500 14.130075 48.282333 -0.320706 -0.000000 -0.947179 0.062500 0.999500 1 0 1.000000
barrelside03a
0 -5.814500 14.130072 35.831432 -0.443026 -0.000000 -0.896509 0.062500 0.759655 1 0 1.000000
0 -10.743800 10.836473 35.831436 -0.752315 -0.000000 -0.658803 0.125000 0.759655 1 0 1.000000
0 -10.743800 10.836477 48.282337 -0.658803 -0.000000 -0.752315 0.125000 0.999500 1 0 1.000000
barrelside03a
0 -10.743800 10.836473 35.831436 -0.752315 -0.000000 -0.658803 0.125000 0.759655 1 0 1.000000
0 -14.037400 5.907175 48.282337 -0.896509 -0.000000 -0.443026 0.187500 0.999500 1 0 1.000000
0 -10.743800 10.836477 48.282337 -0.658803 -0.000000 -0.752315 0.125000 0.999500 1 0 1.000000
barrelside03a
0 -10.743800 10.836473 35.831436 -0.752315 -0.000000 -0.658803 0.125000 0.759655 1 0 1.000000
0 -14.037400 5.907173 35.831436 -0.947179 -0.000000 -0.320706 0.187500 0.759655 1 0 1.000000
0 -14.037400 5.907175 48.282337 -0.896509 -0.000000 -0.443026 0.187500 0.999500 1 0 1.000000
barrelside03a
0 -14.037400 5.907173 35.831436 -0.947179 -0.000000 -0.320706 0.187500 0.759655 1 0 1.000000
0 -15.194000 0.092674 48.282337 -0.997805 -0.000000 -0.066226 0.250000 0.999500 1 0 1.000000
0 -14.037400 5.907175 48.282337 -0.896509 -0.000000 -0.443026 0.187500 0.999500 1 0 1.000000
barrelside03a
0 -14.037400 5.907173 35.831436 -0.947179 -0.000000 -0.320706 0.187500 0.759655 1 0 1.000000
0 -15.194000 0.092674 35.831436 -0.997805 0.000000 0.066226 0.250000 0.759655 1 0 1.000000
0 -15.194000 0.092674 48.282337 -0.997805 -0.000000 -0.066226 0.250000 0.999500 1 0 1.000000
barrelside03a
0 -15.194000 0.092674 35.831436 -0.997805 0.000000 0.066226 0.250000 0.759655 1 0 1.000000
0 -14.037400 -5.721825 48.282337 -0.947179 0.000000 0.320706 0.312500 0.999500 1 0 1.000000
0 -15.194000 0.092674 48.282337 -0.997805 -0.000000 -0.066226 0.250000 0.999500 1 0 1.000000
barrelside03a
0 -15.194000 0.092674 35.831436 -0.997805 0.000000 0.066226 0.250000 0.759655 1 0 1.000000
0 -14.037400 -5.721827 35.831436 -0.896509 0.000000 0.443026 0.312500 0.759655 1 0 1.000000
0 -14.037400 -5.721825 48.282337 -0.947179 0.000000 0.320706 0.312500 0.999500 1 0 1.000000
barrelside03a
0 -14.037400 -5.721827 35.831436 -0.896509 0.000000 0.443026 0.312500 0.759655 1 0 1.000000
0 -10.743800 -10.651125 48.282337 -0.752315 0.000000 0.658804 0.375000 0.999500 1 0 1.000000
0 -14.037400 -5.721825 48.282337 -0.947179 0.000000 0.320706 0.312500 0.999500 1 0 1.000000
barrelside03a
0 -14.037400 -5.721827 35.831436 -0.896509 0.000000 0.443026 0.312500 0.759655 1 0 1.000000
0 -10.743800 -10.651127 35.831436 -0.658803 0.000000 0.752315 0.375000 0.759655 1 0 1.000000
0 -10.743800 -10.651125 48.282337 -0.752315 0.000000 0.658804 0.375000 0.999500 1 0 1.000000
barrelside03a
0 -10.743800 -10.651127 35.831436 -0.658803 0.000000 0.752315 0.375000 0.759655 1 0 1.000000
0 -5.814499 -13.944725 48.282341 -0.443026 0.000000 0.896509 0.437500 0.999500 1 0 1.000000
0 -10.743800 -10.651125 48.282337 -0.752315 0.000000 0.658804 0.375000 0.999500 1 0 1.000000
barrelside03a
0 -10.743800 -10.651127 35.831436 -0.658803 0.000000 0.752315 0.375000 0.759655 1 0 1.000000
0 -5.814499 -13.944727 35.831440 -0.320706 0.000000 0.947179 0.437500 0.759655 1 0 1.000000
0 -5.814499 -13.944725 48.282341 -0.443026 0.000000 0.896509 0.437500 0.999500 1 0 1.000000
barrelside03a
0 -5.814499 -13.944727 35.831440 -0.320706 0.000000 0.947179 0.437500 0.759655 1 0 1.000000
0 0.000001 -15.101326 48.282341 -0.066226 0.000000 0.997805 0.500000 0.999500 1 0 1.000000
0 -5.814499 -13.944725 48.282341 -0.443026 0.000000 0.896509 0.437500 0.999500 1 0 1.000000
barrelside03a
0 -5.814499 -13.944727 35.831440 -0.320706 0.000000 0.947179 0.437500 0.759655 1 0 1.000000
0 0.000001 -15.101328 35.831440 0.066226 0.000000 0.997805 0.500000 0.759655 1 0 1.000000
0 0.000001 -15.101326 48.282341 -0.066226 0.000000 0.997805 0.500000 0.999500 1 0 1.000000
barrelside03a
0 0.000001 -15.101328 35.831440 0.066226 0.000000 0.997805 0.500000 0.759655 1 0 1.000000
0 5.814500 -13.944725 48.282341 0.320706 0.000000 0.947179 0.562500 0.999500 1 0 1.000000
0 0.000001 -15.101326 48.282341 -0.066226 0.000000 0.997805 0.500000 0.999500 1 0 1.000000
barrelside03a
0 0.000001 -15.101328 35.831440 0.066226 0.000000 0.997805 0.500000 0.759655 1 0 1.000000
0 5.814500 -13.944727 35.831440 0.443026 0.000000 0.896509 0.562500 0.759655 1 0 1.000000
0 5.814500 -13.944725 48.282341 0.320706 0.000000 0.947179 0.562500 0.999500 1 0 1.000000
barrelside03a
0 -0.000001 15.286669 0.149134 -0.066219 -0.000000 -0.997805 0.000000 0.000500 1 0 1.000000
0 -5.814500 14.130072 12.732435 -0.320713 -0.000000 -0.947177 0.062500 0.285077 1 0 1.000000
0 -0.000001 15.286673 12.732433 0.066219 -0.000000 -0.997805 0.000000 0.285077 1 0 1.000000
barrelside03a
0 -0.000001 15.286669 0.149134 -0.066219 -0.000000 -0.997805 0.000000 0.000500 1 0 1.000000
0 -5.814500 14.130072 0.149134 -0.443020 -0.000000 -0.896512 0.062500 0.000500 1 0 1.000000
0 -5.814500 14.130072 12.732435 -0.320713 -0.000000 -0.947177 0.062500 0.285077 1 0 1.000000
barrelside03a
0 -5.814500 14.130072 0.149134 -0.443020 -0.000000 -0.896512 0.062500 0.000500 1 0 1.000000
0 -10.743800 10.836470 12.732433 -0.658809 -0.000000 -0.752310 0.125000 0.285077 1 0 1.000000
0 -5.814500 14.130072 12.732435 -0.320713 -0.000000 -0.947177 0.062500 0.285077 1 0 1.000000
barrelside03a
0 -5.814500 14.130072 0.149134 -0.443020 -0.000000 -0.896512 0.062500 0.000500 1 0 1.000000
0 -10.743800 10.836470 0.149134 -0.752311 -0.000000 -0.658809 0.125000 0.000500 1 0 1.000000
0 -10.743800 10.836470 12.732433 -0.658809 -0.000000 -0.752310 0.125000 0.285077 1 0 1.000000
barrelside03a
0 -10.743800 10.836470 0.149134 -0.752311 -0.000000 -0.658809 0.125000 0.000500 1 0 1.000000
0 -14.037400 5.907171 12.732435 -0.896512 -0.000000 -0.443020 0.187500 0.285077 1 0 1.000000
0 -10.743800 10.836470 12.732433 -0.658809 -0.000000 -0.752310 0.125000 0.285077 1 0 1.000000
barrelside03a
0 -10.743800 10.836470 0.149134 -0.752311 -0.000000 -0.658809 0.125000 0.000500 1 0 1.000000
0 -14.037400 5.907169 0.149136 -0.947177 -0.000000 -0.320713 0.187500 0.000500 1 0 1.000000
0 -14.037400 5.907171 12.732435 -0.896512 -0.000000 -0.443020 0.187500 0.285077 1 0 1.000000
barrelside03a
0 -14.037400 5.907169 0.149136 -0.947177 -0.000000 -0.320713 0.187500 0.000500 1 0 1.000000
0 -15.194000 0.092670 12.732437 -0.997805 -0.000000 -0.066219 0.250000 0.285077 1 0 1.000000
0 -14.037400 5.907171 12.732435 -0.896512 -0.000000 -0.443020 0.187500 0.285077 1 0 1.000000
barrelside03a
0 -14.037400 5.907169 0.149136 -0.947177 -0.000000 -0.320713 0.187500 0.000500 1 0 1.000000
0 -15.194000 0.092668 0.149136 -0.997805 0.000000 0.066219 0.250000 0.000500 1 0 1.000000
0 -15.194000 0.092670 12.732437 -0.997805 -0.000000 -0.066219 0.250000 0.285077 1 0 1.000000
barrelside03a
0 -15.194000 0.092668 0.149136 -0.997805 0.000000 0.066219 0.250000 0.000500 1 0 1.000000
0 -14.037400 -5.721829 12.732437 -0.947177 0.000000 0.320713 0.312500 0.285077 1 0 1.000000
0 -15.194000 0.092670 12.732437 -0.997805 -0.000000 -0.066219 0.250000 0.285077 1 0 1.000000
barrelside03a
0 -15.194000 0.092668 0.149136 -0.997805 0.000000 0.066219 0.250000 0.000500 1 0 1.000000
0 -14.037400 -5.721831 0.149137 -0.896512 0.000000 0.443020 0.312500 0.000500 1 0 1.000000
0 -14.037400 -5.721829 12.732437 -0.947177 0.000000 0.320713 0.312500 0.285077 1 0 1.000000
barrelside03a
0 -14.037400 -5.721831 0.149137 -0.896512 0.000000 0.443020 0.312500 0.000500 1 0 1.000000
0 -10.743800 -10.651129 12.732437 -0.752311 0.000000 0.658809 0.375000 0.285077 1 0 1.000000
0 -14.037400 -5.721829 12.732437 -0.947177 0.000000 0.320713 0.312500 0.285077 1 0 1.000000
barrelside03a
0 -14.037400 -5.721831 0.149137 -0.896512 0.000000 0.443020 0.312500 0.000500 1 0 1.000000
0 -10.743800 -10.651131 0.149137 -0.658809 0.000000 0.752311 0.375000 0.000500 1 0 1.000000
0 -10.743800 -10.651129 12.732437 -0.752311 0.000000 0.658809 0.375000 0.285077 1 0 1.000000
barrelside03a
0 -10.743800 -10.651131 0.149137 -0.658809 0.000000 0.752311 0.375000 0.000500 1 0 1.000000
0 -5.814499 -13.944729 12.732437 -0.443020 0.000000 0.896512 0.437500 0.285077 1 0 1.000000
0 -10.743800 -10.651129 12.732437 -0.752311 0.000000 0.658809 0.375000 0.285077 1 0 1.000000
barrelside03a
0 -10.743800 -10.651131 0.149137 -0.658809 0.000000 0.752311 0.375000 0.000500 1 0 1.000000
0 -5.814499 -13.944731 0.149137 -0.320713 0.000000 0.947177 0.437500 0.000500 1 0 1.000000
0 -5.814499 -13.944729 12.732437 -0.443020 0.000000 0.896512 0.437500 0.285077 1 0 1.000000
barrelside03a
0 -5.814499 -13.944731 0.149137 -0.320713 0.000000 0.947177 0.437500 0.000500 1 0 1.000000
0 0.000001 -15.101330 12.732437 -0.066219 0.000000 0.997805 0.500000 0.285077 1 0 1.000000
0 -5.814499 -13.944729 12.732437 -0.443020 0.000000 0.896512 0.437500 0.285077 1 0 1.000000
barrelside03a
0 -5.814499 -13.944731 0.149137 -0.320713 0.000000 0.947177 0.437500 0.000500 1 0 1.000000
0 0.000001 -15.101332 0.149137 0.066219 0.000000 0.997805 0.500000 0.000500 1 0 1.000000
0 0.000001 -15.101330 12.732437 -0.066219 0.000000 0.997805 0.500000 0.285077 1 0 1.000000
barrelside03a
0 0.000001 -15.101332 0.149137 0.066219 0.000000 0.997805 0.500000 0.000500 1 0 1.000000
0 5.814500 -13.944729 12.732437 0.320713 0.000000 0.947176 0.562500 0.285077 1 0 1.000000
0 0.000001 -15.101330 12.732437 -0.066219 0.000000 0.997805 0.500000 0.285077 1 0 1.000000
barrelside03a
0 0.000001 -15.101332 0.149137 0.066219 0.000000 0.997805 0.500000 0.000500 1 0 1.000000
0 5.814500 -13.944731 0.149137 0.443020 0.000000 0.896512 0.562500 0.000500 1 0 1.000000
0 5.814500 -13.944729 12.732437 0.320713 0.000000 0.947176 0.562500 0.285077 1 0 1.000000
barrelside03a
0 5.814500 -13.944731 0.149137 0.443020 0.000000 0.896512 0.562500 0.000500 1 0 1.000000
0 10.743800 -10.651129 12.732437 0.658809 0.000000 0.752311 0.625000 0.285077 1 0 1.000000
0 5.814500 -13.944729 12.732437 0.320713 0.000000 0.947176 0.562500 0.285077 1 0 1.000000
barrelside03a
0 5.814500 -13.944731 0.149137 0.443020 0.000000 0.896512 0.562500 0.000500 1 0 1.000000
0 10.743800 -10.651131 0.149137 0.752311 0.000000 0.658809 0.625000 0.000500 1 0 1.000000
0 10.743800 -10.651129 12.732437 0.658809 0.000000 0.752311 0.625000 0.285077 1 0 1.000000
barrelside03a
0 10.743800 -10.651131 0.149137 0.752311 0.000000 0.658809 0.625000 0.000500 1 0 1.000000
0 14.037400 -5.721827 12.732437 0.896512 -0.000000 0.443020 0.687500 0.285077 1 0 1.000000
0 10.743800 -10.651129 12.732437 0.658809 0.000000 0.752311 0.625000 0.285077 1 0 1.000000
barrelside03a
0 10.743800 -10.651131 0.149137 0.752311 0.000000 0.658809 0.625000 0.000500 1 0 1.000000
0 14.037400 -5.721829 0.149137 0.947177 -0.000000 0.320713 0.687500 0.000500 1 0 1.000000
0 14.037400 -5.721827 12.732437 0.896512 -0.000000 0.443020 0.687500 0.285077 1 0 1.000000
barrelside03a
0 14.037400 -5.721829 0.149137 0.947177 -0.000000 0.320713 0.687500 0.000500 1 0 1.000000
0 15.194000 0.092672 12.732437 0.997805 0.000000 0.066219 0.750000 0.285077 1 0 1.000000
0 14.037400 -5.721827 12.732437 0.896512 -0.000000 0.443020 0.687500 0.285077 1 0 1.000000
barrelside03a
0 14.037400 -5.721829 0.149137 0.947177 -0.000000 0.320713 0.687500 0.000500 1 0 1.000000
0 15.194000 0.092670 0.149136 0.997805 -0.000000 -0.066219 0.750000 0.000500 1 0 1.000000
0 15.194000 0.092672 12.732437 0.997805 0.000000 0.066219 0.750000 0.285077 1 0 1.000000
barrelside03a
0 15.194000 0.092670 0.149136 0.997805 -0.000000 -0.066219 0.750000 0.000500 1 0 1.000000
0 14.037400 5.907171 12.732435 0.947177 0.000000 -0.320713 0.812500 0.285077 1 0 1.000000
0 15.194000 0.092672 12.732437 0.997805 0.000000 0.066219 0.750000 0.285077 1 0 1.000000
barrelside03a
0 15.194000 0.092670 0.149136 0.997805 -0.000000 -0.066219 0.750000 0.000500 1 0 1.000000
0 14.037400 5.907169 0.149136 0.896512 -0.000000 -0.443020 0.812500 0.000500 1 0 1.000000
0 14.037400 5.907171 12.732435 0.947177 0.000000 -0.320713 0.812500 0.285077 1 0 1.000000
barrelside03a
0 14.037400 5.907169 0.149136 0.896512 -0.000000 -0.443020 0.812500 0.000500 1 0 1.000000
0 10.743800 10.836470 12.732433 0.752310 -0.000000 -0.658809 0.875000 0.285077 1 0 1.000000
0 14.037400 5.907171 12.732435 0.947177 0.000000 -0.320713 0.812500 0.285077 1 0 1.000000
barrelside03a
0 14.037400 5.907169 0.149136 0.896512 -0.000000 -0.443020 0.812500 0.000500 1 0 1.000000
0 10.743800 10.836470 0.149134 0.658809 -0.000000 -0.752311 0.875000 0.000500 1 0 1.000000
0 10.743800 10.836470 12.732433 0.752310 -0.000000 -0.658809 0.875000 0.285077 1 0 1.000000
barrelside03a
0 10.743800 10.836470 0.149134 0.658809 -0.000000 -0.752311 0.875000 0.000500 1 0 1.000000
0 5.814499 14.130072 12.732435 0.443020 -0.000000 -0.896512 0.937500 0.285077 1 0 1.000000
0 10.743800 10.836470 12.732433 0.752310 -0.000000 -0.658809 0.875000 0.285077 1 0 1.000000
barrelside03a
0 10.743800 10.836470 0.149134 0.658809 -0.000000 -0.752311 0.875000 0.000500 1 0 1.000000
0 5.814499 14.130072 0.149134 0.320713 -0.000000 -0.947176 0.937500 0.000500 1 0 1.000000
0 5.814499 14.130072 12.732435 0.443020 -0.000000 -0.896512 0.937500 0.285077 1 0 1.000000
barrelside03a
0 5.814499 14.130072 0.149134 0.320713 -0.000000 -0.947176 0.937500 0.000500 1 0 1.000000
0 -0.000001 15.286673 12.732433 0.066219 -0.000000 -0.997805 1.000000 0.285077 1 0 1.000000
0 5.814499 14.130072 12.732435 0.443020 -0.000000 -0.896512 0.937500 0.285077 1 0 1.000000
barrelside03a
0 5.814499 14.130072 0.149134 0.320713 -0.000000 -0.947176 0.937500 0.000500 1 0 1.000000
0 -0.000001 15.286669 0.149134 -0.066219 -0.000000 -0.997805 1.000000 0.000500 1 0 1.000000
0 -0.000001 15.286673 12.732433 0.066219 -0.000000 -0.997805 1.000000 0.285077 1 0 1.000000
barrelside03a
0 -0.000001 15.286673 12.732433 -0.053385 -0.590084 -0.805575 0.000000 0.285077 1 0 1.000000
0 -6.117900 14.862471 13.814533 -0.258919 -0.590097 -0.764687 0.062500 0.307477 1 0 1.000000
0 -0.000001 16.079374 13.814533 0.053380 -0.590084 -0.805575 0.000000 0.307477 1 0 1.000000
barrelside03a
0 -0.000001 15.286673 12.732433 -0.053385 -0.590084 -0.805575 0.000000 0.285077 1 0 1.000000
0 -5.814500 14.130072 12.732435 -0.357600 -0.590106 -0.723808 0.062500 0.285077 1 0 1.000000
0 -6.117900 14.862471 13.814533 -0.258919 -0.590097 -0.764687 0.062500 0.307477 1 0 1.000000
barrelside03a
0 -5.814500 14.130072 12.732435 -0.357600 -0.590106 -0.723808 0.062500 0.285077 1 0 1.000000
0 -11.304301 11.396971 13.814535 -0.531828 -0.590112 -0.607394 0.125000 0.307477 1 0 1.000000
0 -6.117900 14.862471 13.814533 -0.258919 -0.590097 -0.764687 0.062500 0.307477 1 0 1.000000
barrelside03a
0 -5.814500 14.130072 12.732435 -0.357600 -0.590106 -0.723808 0.062500 0.285077 1 0 1.000000
0 -10.743800 10.836470 12.732433 -0.607394 -0.590112 -0.531827 0.125000 0.285077 1 0 1.000000
0 -11.304301 11.396971 13.814535 -0.531828 -0.590112 -0.607394 0.125000 0.307477 1 0 1.000000
barrelside03a
0 -10.743800 10.836470 12.732433 -0.607394 -0.590112 -0.531827 0.125000 0.285077 1 0 1.000000
0 -14.769800 6.210569 13.814535 -0.723814 -0.590106 -0.357587 0.187500 0.307477 1 0 1.000000
0 -11.304301 11.396971 13.814535 -0.531828 -0.590112 -0.607394 0.125000 0.307477 1 0 1.000000
barrelside03a
0 -10.743800 10.836470 12.732433 -0.607394 -0.590112 -0.531827 0.125000 0.285077 1 0 1.000000
0 -14.037400 5.907171 12.732435 -0.764696 -0.590096 -0.258897 0.187500 0.285077 1 0 1.000000
0 -14.769800 6.210569 13.814535 -0.723814 -0.590106 -0.357587 0.187500 0.307477 1 0 1.000000
barrelside03a
0 -14.037400 5.907171 12.732435 -0.764696 -0.590096 -0.258897 0.187500 0.285077 1 0 1.000000
0 -15.986701 0.092670 13.814537 -0.805575 -0.590084 -0.053380 0.250000 0.307477 1 0 1.000000
0 -14.769800 6.210569 13.814535 -0.723814 -0.590106 -0.357587 0.187500 0.307477 1 0 1.000000
barrelside03a
0 -14.037400 5.907171 12.732435 -0.764696 -0.590096 -0.258897 0.187500 0.285077 1 0 1.000000
0 -15.194000 0.092670 12.732437 -0.805575 -0.590084 0.053385 0.250000 0.285077 1 0 1.000000
0 -15.986701 0.092670 13.814537 -0.805575 -0.590084 -0.053380 0.250000 0.307477 1 0 1.000000
barrelside03a
0 -15.194000 0.092670 12.732437 -0.805575 -0.590084 0.053385 0.250000 0.285077 1 0 1.000000
0 -14.769800 -6.025229 13.814537 -0.764687 -0.590098 0.258919 0.312500 0.307477 1 0 1.000000
0 -15.986701 0.092670 13.814537 -0.805575 -0.590084 -0.053380 0.250000 0.307477 1 0 1.000000
barrelside03a
0 -15.194000 0.092670 12.732437 -0.805575 -0.590084 0.053385 0.250000 0.285077 1 0 1.000000
0 -14.037400 -5.721829 12.732437 -0.723807 -0.590106 0.357600 0.312500 0.285077 1 0 1.000000
0 -14.769800 -6.025229 13.814537 -0.764687 -0.590098 0.258919 0.312500 0.307477 1 0 1.000000
barrelside03a
0 -14.037400 -5.721829 12.732437 -0.723807 -0.590106 0.357600 0.312500 0.285077 1 0 1.000000
0 -11.304299 -11.211632 13.814537 -0.607394 -0.590112 0.531828 0.375000 0.307477 1 0 1.000000
0 -14.769800 -6.025229 13.814537 -0.764687 -0.590098 0.258919 0.312500 0.307477 1 0 1.000000
barrelside03a
0 -14.037400 -5.721829 12.732437 -0.723807 -0.590106 0.357600 0.312500 0.285077 1 0 1.000000
0 -10.743800 -10.651129 12.732437 -0.531827 -0.590112 0.607395 0.375000 0.285077 1 0 1.000000
0 -11.304299 -11.211632 13.814537 -0.607394 -0.590112 0.531828 0.375000 0.307477 1 0 1.000000
barrelside03a
0 -10.743800 -10.651129 12.732437 -0.531827 -0.590112 0.607395 0.375000 0.285077 1 0 1.000000
0 -6.117899 -14.677130 13.814537 -0.357634 -0.590104 0.723792 0.437500 0.307477 1 0 1.000000
0 -11.304299 -11.211632 13.814537 -0.607394 -0.590112 0.531828 0.375000 0.307477 1 0 1.000000
barrelside03a
0 -10.743800 -10.651129 12.732437 -0.531827 -0.590112 0.607395 0.375000 0.285077 1 0 1.000000
0 -5.814499 -13.944729 12.732437 -0.258897 -0.590096 0.764695 0.437500 0.285077 1 0 1.000000
0 -6.117899 -14.677130 13.814537 -0.357634 -0.590104 0.723792 0.437500 0.307477 1 0 1.000000
barrelside03a
0 -5.814499 -13.944729 12.732437 -0.258897 -0.590096 0.764695 0.437500 0.285077 1 0 1.000000
0 0.000001 -15.894030 13.814537 -0.053380 -0.590084 0.805576 0.500000 0.307477 1 0 1.000000
0 -6.117899 -14.677130 13.814537 -0.357634 -0.590104 0.723792 0.437500 0.307477 1 0 1.000000
barrelside03a
0 -5.814499 -13.944729 12.732437 -0.258897 -0.590096 0.764695 0.437500 0.285077 1 0 1.000000
0 0.000001 -15.101330 12.732437 0.053386 -0.590084 0.805575 0.500000 0.285077 1 0 1.000000
0 0.000001 -15.894030 13.814537 -0.053380 -0.590084 0.805576 0.500000 0.307477 1 0 1.000000
barrelside03a
0 0.000001 -15.101330 12.732437 0.053386 -0.590084 0.805575 0.500000 0.285077 1 0 1.000000
0 6.117900 -14.677130 13.814537 0.258919 -0.590097 0.764687 0.562500 0.307477 1 0 1.000000
0 0.000001 -15.894030 13.814537 -0.053380 -0.590084 0.805576 0.500000 0.307477 1 0 1.000000
barrelside03a
0 0.000001 -15.101330 12.732437 0.053386 -0.590084 0.805575 0.500000 0.285077 1 0 1.000000
0 5.814500 -13.944729 12.732437 0.357600 -0.590105 0.723808 0.562500 0.285077 1 0 1.000000
0 6.117900 -14.677130 13.814537 0.258919 -0.590097 0.764687 0.562500 0.307477 1 0 1.000000
barrelside03a
0 5.814500 -13.944729 12.732437 0.357600 -0.590105 0.723808 0.562500 0.285077 1 0 1.000000
0 11.304301 -11.211630 13.814537 0.531828 -0.590112 0.607394 0.625000 0.307477 1 0 1.000000
0 6.117900 -14.677130 13.814537 0.258919 -0.590097 0.764687 0.562500 0.307477 1 0 1.000000
barrelside03a
0 5.814500 -13.944729 12.732437 0.357600 -0.590105 0.723808 0.562500 0.285077 1 0 1.000000
0 10.743800 -10.651129 12.732437 0.607394 -0.590112 0.531827 0.625000 0.285077 1 0 1.000000
0 11.304301 -11.211630 13.814537 0.531828 -0.590112 0.607394 0.625000 0.307477 1 0 1.000000
barrelside03a
0 10.743800 -10.651129 12.732437 0.607394 -0.590112 0.531827 0.625000 0.285077 1 0 1.000000
0 14.769800 -6.025229 13.814537 0.723814 -0.590106 0.357587 0.687500 0.307477 1 0 1.000000
0 11.304301 -11.211630 13.814537 0.531828 -0.590112 0.607394 0.625000 0.307477 1 0 1.000000
barrelside03a
0 10.743800 -10.651129 12.732437 0.607394 -0.590112 0.531827 0.625000 0.285077 1 0 1.000000
0 14.037400 -5.721827 12.732437 0.764695 -0.590096 0.258897 0.687500 0.285077 1 0 1.000000
0 14.769800 -6.025229 13.814537 0.723814 -0.590106 0.357587 0.687500 0.307477 1 0 1.000000
barrelside03a
0 14.037400 -5.721827 12.732437 0.764695 -0.590096 0.258897 0.687500 0.285077 1 0 1.000000
0 15.986700 0.092672 13.814537 0.805575 -0.590084 0.053380 0.750000 0.307477 1 0 1.000000
0 14.769800 -6.025229 13.814537 0.723814 -0.590106 0.357587 0.687500 0.307477 1 0 1.000000
barrelside03a
0 14.037400 -5.721827 12.732437 0.764695 -0.590096 0.258897 0.687500 0.285077 1 0 1.000000
0 15.194000 0.092672 12.732437 0.805575 -0.590084 -0.053385 0.750000 0.285077 1 0 1.000000
0 15.986700 0.092672 13.814537 0.805575 -0.590084 0.053380 0.750000 0.307477 1 0 1.000000
barrelside03a
0 15.194000 0.092672 12.732437 0.805575 -0.590084 -0.053385 0.750000 0.285077 1 0 1.000000
0 14.769800 6.210571 13.814535 0.764686 -0.590098 -0.258919 0.812500 0.307477 1 0 1.000000
0 15.986700 0.092672 13.814537 0.805575 -0.590084 0.053380 0.750000 0.307477 1 0 1.000000
barrelside03a
0 15.194000 0.092672 12.732437 0.805575 -0.590084 -0.053385 0.750000 0.285077 1 0 1.000000
0 14.037400 5.907171 12.732435 0.723807 -0.590107 -0.357600 0.812500 0.285077 1 0 1.000000
0 14.769800 6.210571 13.814535 0.764686 -0.590098 -0.258919 0.812500 0.307477 1 0 1.000000
barrelside03a
0 14.037400 5.907171 12.732435 0.723807 -0.590107 -0.357600 0.812500 0.285077 1 0 1.000000
0 11.304299 11.396971 13.814535 0.607394 -0.590112 -0.531828 0.875000 0.307477 1 0 1.000000
0 14.769800 6.210571 13.814535 0.764686 -0.590098 -0.258919 0.812500 0.307477 1 0 1.000000
barrelside03a
0 14.037400 5.907171 12.732435 0.723807 -0.590107 -0.357600 0.812500 0.285077 1 0 1.000000
0 10.743800 10.836470 12.732433 0.531827 -0.590112 -0.607394 0.875000 0.285077 1 0 1.000000
0 11.304299 11.396971 13.814535 0.607394 -0.590112 -0.531828 0.875000 0.307477 1 0 1.000000
barrelside03a
0 10.743800 10.836470 12.732433 0.531827 -0.590112 -0.607394 0.875000 0.285077 1 0 1.000000
0 6.117899 14.862471 13.814533 0.357634 -0.590105 -0.723792 0.937500 0.307477 1 0 1.000000
0 11.304299 11.396971 13.814535 0.607394 -0.590112 -0.531828 0.875000 0.307477 1 0 1.000000
barrelside03a
0 10.743800 10.836470 12.732433 0.531827 -0.590112 -0.607394 0.875000 0.285077 1 0 1.000000
0 5.814499 14.130072 12.732435 0.258897 -0.590096 -0.764695 0.937500 0.285077 1 0 1.000000
0 6.117899 14.862471 13.814533 0.357634 -0.590105 -0.723792 0.937500 0.307477 1 0 1.000000
barrelside03a
0 5.814499 14.130072 12.732435 0.258897 -0.590096 -0.764695 0.937500 0.285077 1 0 1.000000
0 -0.000001 16.079374 13.814533 0.053380 -0.590084 -0.805575 1.000000 0.307477 1 0 1.000000
0 6.117899 14.862471 13.814533 0.357634 -0.590105 -0.723792 0.937500 0.307477 1 0 1.000000
barrelside03a
0 5.814499 14.130072 12.732435 0.258897 -0.590096 -0.764695 0.937500 0.285077 1 0 1.000000
0 -0.000001 15.286673 12.732433 -0.053385 -0.590084 -0.805575 1.000000 0.285077 1 0 1.000000
0 -0.000001 16.079374 13.814533 0.053380 -0.590084 -0.805575 1.000000 0.307477 1 0 1.000000
barrelside03a
0 -0.000001 16.079374 13.814533 -0.053378 0.590713 -0.805114 0.000000 0.307477 1 0 1.000000
0 -5.814500 14.130072 14.895136 -0.258783 0.590683 -0.764281 0.062500 0.329977 1 0 1.000000
0 -0.000001 15.286673 14.895134 0.053384 0.590713 -0.805114 0.000000 0.329977 1 0 1.000000
barrelside03a
0 -0.000001 16.079374 13.814533 -0.053378 0.590713 -0.805114 0.000000 0.307477 1 0 1.000000
0 -6.117900 14.862471 13.814533 -0.357416 0.590708 -0.723406 0.062500 0.307477 1 0 1.000000
0 -5.814500 14.130072 14.895136 -0.258783 0.590683 -0.764281 0.062500 0.329977 1 0 1.000000
barrelside03a
0 -6.117900 14.862471 13.814533 -0.357416 0.590708 -0.723406 0.062500 0.307477 1 0 1.000000
0 -10.743800 10.836470 14.895134 -0.531577 0.590671 -0.607069 0.125000 0.329977 1 0 1.000000
0 -5.814500 14.130072 14.895136 -0.258783 0.590683 -0.764281 0.062500 0.329977 1 0 1.000000
barrelside03a
0 -6.117900 14.862471 13.814533 -0.357416 0.590708 -0.723406 0.062500 0.307477 1 0 1.000000
0 -11.304301 11.396971 13.814535 -0.607069 0.590672 -0.531577 0.125000 0.307477 1 0 1.000000
0 -10.743800 10.836470 14.895134 -0.531577 0.590671 -0.607069 0.125000 0.329977 1 0 1.000000
barrelside03a
0 -11.304301 11.396971 13.814535 -0.607069 0.590672 -0.531577 0.125000 0.307477 1 0 1.000000
0 -14.037400 5.907171 14.895134 -0.723400 0.590709 -0.357429 0.187500 0.329977 1 0 1.000000
0 -10.743800 10.836470 14.895134 -0.531577 0.590671 -0.607069 0.125000 0.329977 1 0 1.000000
barrelside03a
0 -11.304301 11.396971 13.814535 -0.607069 0.590672 -0.531577 0.125000 0.307477 1 0 1.000000
0 -14.769800 6.210569 13.814535 -0.764272 0.590684 -0.258805 0.187500 0.307477 1 0 1.000000
0 -14.037400 5.907171 14.895134 -0.723400 0.590709 -0.357429 0.187500 0.329977 1 0 1.000000
barrelside03a
0 -14.769800 6.210569 13.814535 -0.764272 0.590684 -0.258805 0.187500 0.307477 1 0 1.000000
0 -15.194000 0.092670 14.895138 -0.805114 0.590713 -0.053384 0.250000 0.329977 1 0 1.000000
0 -14.037400 5.907171 14.895134 -0.723400 0.590709 -0.357429 0.187500 0.329977 1 0 1.000000
barrelside03a
0 -14.769800 6.210569 13.814535 -0.764272 0.590684 -0.258805 0.187500 0.307477 1 0 1.000000
0 -15.986701 0.092670 13.814537 -0.805112 0.590712 0.053429 0.250000 0.307477 1 0 1.000000
0 -15.194000 0.092670 14.895138 -0.805114 0.590713 -0.053384 0.250000 0.329977 1 0 1.000000
barrelside03a
0 -15.986701 0.092670 13.814537 -0.805112 0.590712 0.053429 0.250000 0.307477 1 0 1.000000
0 -14.037400 -5.721827 14.895138 -0.764281 0.590683 0.258783 0.312500 0.329977 1 0 1.000000
0 -15.194000 0.092670 14.895138 -0.805114 0.590713 -0.053384 0.250000 0.329977 1 0 1.000000
barrelside03a
0 -15.986701 0.092670 13.814537 -0.805112 0.590712 0.053429 0.250000 0.307477 1 0 1.000000
0 -14.769800 -6.025229 13.814537 -0.723406 0.590709 0.357416 0.312500 0.307477 1 0 1.000000
0 -14.037400 -5.721827 14.895138 -0.764281 0.590683 0.258783 0.312500 0.329977 1 0 1.000000
barrelside03a
0 -14.769800 -6.025229 13.814537 -0.723406 0.590709 0.357416 0.312500 0.307477 1 0 1.000000
0 -10.743800 -10.651129 14.895138 -0.607069 0.590672 0.531577 0.375000 0.329977 1 0 1.000000
0 -14.037400 -5.721827 14.895138 -0.764281 0.590683 0.258783 0.312500 0.329977 1 0 1.000000
barrelside03a
0 -14.769800 -6.025229 13.814537 -0.723406 0.590709 0.357416 0.312500 0.307477 1 0 1.000000
0 -11.304299 -11.211632 13.814537 -0.531577 0.590672 0.607069 0.375000 0.307477 1 0 1.000000
0 -10.743800 -10.651129 14.895138 -0.607069 0.590672 0.531577 0.375000 0.329977 1 0 1.000000
barrelside03a
0 -11.304299 -11.211632 13.814537 -0.531577 0.590672 0.607069 0.375000 0.307477 1 0 1.000000
0 -5.814499 -13.944729 14.895138 -0.357429 0.590710 0.723399 0.437500 0.329977 1 0 1.000000
0 -10.743800 -10.651129 14.895138 -0.607069 0.590672 0.531577 0.375000 0.329977 1 0 1.000000
barrelside03a
0 -11.304299 -11.211632 13.814537 -0.531577 0.590672 0.607069 0.375000 0.307477 1 0 1.000000
0 -6.117899 -14.677130 13.814537 -0.258805 0.590685 0.764271 0.437500 0.307477 1 0 1.000000
0 -5.814499 -13.944729 14.895138 -0.357429 0.590710 0.723399 0.437500 0.329977 1 0 1.000000
barrelside03a
0 -6.117899 -14.677130 13.814537 -0.258805 0.590685 0.764271 0.437500 0.307477 1 0 1.000000
0 0.000001 -15.101330 14.895138 -0.053383 0.590714 0.805113 0.500000 0.329977 1 0 1.000000
0 -5.814499 -13.944729 14.895138 -0.357429 0.590710 0.723399 0.437500 0.329977 1 0 1.000000
barrelside03a
0 -6.117899 -14.677130 13.814537 -0.258805 0.590685 0.764271 0.437500 0.307477 1 0 1.000000
0 0.000001 -15.894030 13.814537 0.053378 0.590714 0.805114 0.500000 0.307477 1 0 1.000000
0 0.000001 -15.101330 14.895138 -0.053383 0.590714 0.805113 0.500000 0.329977 1 0 1.000000
barrelside03a
0 0.000001 -15.894030 13.814537 0.053378 0.590714 0.805114 0.500000 0.307477 1 0 1.000000
0 5.814500 -13.944729 14.895138 0.258783 0.590684 0.764280 0.562500 0.329977 1 0 1.000000
0 0.000001 -15.101330 14.895138 -0.053383 0.590714 0.805113 0.500000 0.329977 1 0 1.000000
barrelside03a
0 0.000001 -15.894030 13.814537 0.053378 0.590714 0.805114 0.500000 0.307477 1 0 1.000000
0 6.117900 -14.677130 13.814537 0.357416 0.590710 0.723406 0.562500 0.307477 1 0 1.000000
0 5.814500 -13.944729 14.895138 0.258783 0.590684 0.764280 0.562500 0.329977 1 0 1.000000
barrelside03a
0 6.117900 -14.677130 13.814537 0.357416 0.590710 0.723406 0.562500 0.307477 1 0 1.000000
0 10.743800 -10.651129 14.895138 0.531577 0.590672 0.607069 0.625000 0.329977 1 0 1.000000
0 5.814500 -13.944729 14.895138 0.258783 0.590684 0.764280 0.562500 0.329977 1 0 1.000000
barrelside03a
0 6.117900 -14.677130 13.814537 0.357416 0.590710 0.723406 0.562500 0.307477 1 0 1.000000
0 11.304301 -11.211630 13.814537 0.607068 0.590672 0.531577 0.625000 0.307477 1 0 1.000000
0 10.743800 -10.651129 14.895138 0.531577 0.590672 0.607069 0.625000 0.329977 1 0 1.000000
barrelside03a
0 11.304301 -11.211630 13.814537 0.607068 0.590672 0.531577 0.625000 0.307477 1 0 1.000000
0 14.037400 -5.721827 14.895138 0.723400 0.590709 0.357429 0.687500 0.329977 1 0 1.000000
0 10.743800 -10.651129 14.895138 0.531577 0.590672 0.607069 0.625000 0.329977 1 0 1.000000
barrelside03a
0 11.304301 -11.211630 13.814537 0.607068 0.590672 0.531577 0.625000 0.307477 1 0 1.000000
0 14.769800 -6.025229 13.814537 0.764272 0.590684 0.258805 0.687500 0.307477 1 0 1.000000
0 14.037400 -5.721827 14.895138 0.723400 0.590709 0.357429 0.687500 0.329977 1 0 1.000000
barrelside03a
0 14.769800 -6.025229 13.814537 0.764272 0.590684 0.258805 0.687500 0.307477 1 0 1.000000
0 15.194000 0.092672 14.895138 0.805113 0.590714 0.053383 0.750000 0.329977 1 0 1.000000
0 14.037400 -5.721827 14.895138 0.723400 0.590709 0.357429 0.687500 0.329977 1 0 1.000000
barrelside03a
0 14.769800 -6.025229 13.814537 0.764272 0.590684 0.258805 0.687500 0.307477 1 0 1.000000
0 15.986700 0.092672 13.814537 0.805111 0.590712 -0.053430 0.750000 0.307477 1 0 1.000000
0 15.194000 0.092672 14.895138 0.805113 0.590714 0.053383 0.750000 0.329977 1 0 1.000000
barrelside03a
0 15.986700 0.092672 13.814537 0.805111 0.590712 -0.053430 0.750000 0.307477 1 0 1.000000
0 14.037400 5.907171 14.895134 0.764281 0.590683 -0.258782 0.812500 0.329977 1 0 1.000000
0 15.194000 0.092672 14.895138 0.805113 0.590714 0.053383 0.750000 0.329977 1 0 1.000000
barrelside03a
0 15.986700 0.092672 13.814537 0.805111 0.590712 -0.053430 0.750000 0.307477 1 0 1.000000
0 14.769800 6.210571 13.814535 0.723406 0.590709 -0.357416 0.812500 0.307477 1 0 1.000000
0 14.037400 5.907171 14.895134 0.764281 0.590683 -0.258782 0.812500 0.329977 1 0 1.000000
barrelside03a
0 14.769800 6.210571 13.814535 0.723406 0.590709 -0.357416 0.812500 0.307477 1 0 1.000000
0 10.743800 10.836470 14.895134 0.607069 0.590672 -0.531577 0.875000 0.329977 1 0 1.000000
0 14.037400 5.907171 14.895134 0.764281 0.590683 -0.258782 0.812500 0.329977 1 0 1.000000
barrelside03a
0 14.769800 6.210571 13.814535 0.723406 0.590709 -0.357416 0.812500 0.307477 1 0 1.000000
0 11.304299 11.396971 13.814535 0.531577 0.590672 -0.607069 0.875000 0.307477 1 0 1.000000
0 10.743800 10.836470 14.895134 0.607069 0.590672 -0.531577 0.875000 0.329977 1 0 1.000000
barrelside03a
0 11.304299 11.396971 13.814535 0.531577 0.590672 -0.607069 0.875000 0.307477 1 0 1.000000
0 5.814499 14.130072 14.895136 0.357429 0.590708 -0.723400 0.937500 0.329977 1 0 1.000000
0 10.743800 10.836470 14.895134 0.607069 0.590672 -0.531577 0.875000 0.329977 1 0 1.000000
barrelside03a
0 11.304299 11.396971 13.814535 0.531577 0.590672 -0.607069 0.875000 0.307477 1 0 1.000000
0 6.117899 14.862471 13.814533 0.258805 0.590684 -0.764273 0.937500 0.307477 1 0 1.000000
0 5.814499 14.130072 14.895136 0.357429 0.590708 -0.723400 0.937500 0.329977 1 0 1.000000
barrelside03a
0 6.117899 14.862471 13.814533 0.258805 0.590684 -0.764273 0.937500 0.307477 1 0 1.000000
0 -0.000001 15.286673 14.895134 0.053384 0.590713 -0.805114 1.000000 0.329977 1 0 1.000000
0 5.814499 14.130072 14.895136 0.357429 0.590708 -0.723400 0.937500 0.329977 1 0 1.000000
barrelside03a
0 6.117899 14.862471 13.814533 0.258805 0.590684 -0.764273 0.937500 0.307477 1 0 1.000000
0 -0.000001 16.079374 13.814533 -0.053378 0.590713 -0.805114 1.000000 0.307477 1 0 1.000000
0 -0.000001 15.286673 14.895134 0.053384 0.590713 -0.805114 1.000000 0.329977 1 0 1.000000
barrelside03a
0 -0.000001 15.286673 14.895134 -0.066195 -0.000000 -0.997807 0.000000 0.329977 1 0 1.000000
0 -5.814500 14.130075 33.296932 -0.320686 -0.000000 -0.947185 0.062500 0.707055 1 0 1.000000
0 -0.000001 15.286673 33.296932 0.066195 -0.000000 -0.997807 0.000000 0.707055 1 0 1.000000
barrelside03a
0 -0.000001 15.286673 14.895134 -0.066195 -0.000000 -0.997807 0.000000 0.329977 1 0 1.000000
0 -5.814500 14.130072 14.895136 -0.442998 -0.000000 -0.896522 0.062500 0.329977 1 0 1.000000
0 -5.814500 14.130075 33.296932 -0.320686 -0.000000 -0.947185 0.062500 0.707055 1 0 1.000000
barrelside03a
0 -5.814500 14.130072 14.895136 -0.442998 -0.000000 -0.896522 0.062500 0.329977 1 0 1.000000
0 -10.743800 10.836473 33.296936 -0.658788 -0.000000 -0.752329 0.125000 0.707055 1 0 1.000000
0 -5.814500 14.130075 33.296932 -0.320686 -0.000000 -0.947185 0.062500 0.707055 1 0 1.000000
barrelside03a
0 -5.814500 14.130072 14.895136 -0.442998 -0.000000 -0.896522 0.062500 0.329977 1 0 1.000000
0 -10.743800 10.836470 14.895134 -0.752329 -0.000000 -0.658788 0.125000 0.329977 1 0 1.000000
0 -10.743800 10.836473 33.296936 -0.658788 -0.000000 -0.752329 0.125000 0.707055 1 0 1.000000
barrelside03a
0 -10.743800 10.836470 14.895134 -0.752329 -0.000000 -0.658788 0.125000 0.329977 1 0 1.000000
0 -14.037400 5.907173 33.296936 -0.896522 -0.000000 -0.442998 0.187500 0.707055 1 0 1.000000
0 -10.743800 10.836473 33.296936 -0.658788 -0.000000 -0.752329 0.125000 0.707055 1 0 1.000000
barrelside03a
0 -10.743800 10.836470 14.895134 -0.752329 -0.000000 -0.658788 0.125000 0.329977 1 0 1.000000
0 -14.037400 5.907171 14.895134 -0.947185 -0.000000 -0.320686 0.187500 0.329977 1 0 1.000000
0 -14.037400 5.907173 33.296936 -0.896522 -0.000000 -0.442998 0.187500 0.707055 1 0 1.000000
barrelside03a
0 -14.037400 5.907171 14.895134 -0.947185 -0.000000 -0.320686 0.187500 0.329977 1 0 1.000000
0 -15.194000 0.092672 33.296936 -0.997807 -0.000000 -0.066195 0.250000 0.707055 1 0 1.000000
0 -14.037400 5.907173 33.296936 -0.896522 -0.000000 -0.442998 0.187500 0.707055 1 0 1.000000
barrelside03a
0 -14.037400 5.907171 14.895134 -0.947185 -0.000000 -0.320686 0.187500 0.329977 1 0 1.000000
0 -15.194000 0.092670 14.895138 -0.997807 0.000000 0.066195 0.250000 0.329977 1 0 1.000000
0 -15.194000 0.092672 33.296936 -0.997807 -0.000000 -0.066195 0.250000 0.707055 1 0 1.000000
barrelside03a
0 -15.194000 0.092670 14.895138 -0.997807 0.000000 0.066195 0.250000 0.329977 1 0 1.000000
0 -14.037400 -5.721827 33.296936 -0.947185 0.000000 0.320686 0.312500 0.707055 1 0 1.000000
0 -15.194000 0.092672 33.296936 -0.997807 -0.000000 -0.066195 0.250000 0.707055 1 0 1.000000
barrelside03a
0 -15.194000 0.092670 14.895138 -0.997807 0.000000 0.066195 0.250000 0.329977 1 0 1.000000
0 -14.037400 -5.721827 14.895138 -0.896522 0.000000 0.442999 0.312500 0.329977 1 0 1.000000
0 -14.037400 -5.721827 33.296936 -0.947185 0.000000 0.320686 0.312500 0.707055 1 0 1.000000
barrelside03a
0 -14.037400 -5.721827 14.895138 -0.896522 0.000000 0.442999 0.312500 0.329977 1 0 1.000000
0 -10.743800 -10.651127 33.296936 -0.752295 0.000000 0.658826 0.375000 0.707055 1 0 1.000000
0 -14.037400 -5.721827 33.296936 -0.947185 0.000000 0.320686 0.312500 0.707055 1 0 1.000000
barrelside03a
0 -14.037400 -5.721827 14.895138 -0.896522 0.000000 0.442999 0.312500 0.329977 1 0 1.000000
0 -10.743800 -10.651129 14.895138 -0.658826 0.000000 0.752295 0.375000 0.329977 1 0 1.000000
0 -10.743800 -10.651127 33.296936 -0.752295 0.000000 0.658826 0.375000 0.707055 1 0 1.000000
barrelside03a
0 -10.743800 -10.651129 14.895138 -0.658826 0.000000 0.752295 0.375000 0.329977 1 0 1.000000
0 -5.814499 -13.944727 33.296940 -0.442998 0.000000 0.896522 0.437500 0.707055 1 0 1.000000
0 -10.743800 -10.651127 33.296936 -0.752295 0.000000 0.658826 0.375000 0.707055 1 0 1.000000
barrelside03a
0 -10.743800 -10.651129 14.895138 -0.658826 0.000000 0.752295 0.375000 0.329977 1 0 1.000000
0 -5.814499 -13.944729 14.895138 -0.320686 0.000000 0.947185 0.437500 0.329977 1 0 1.000000
0 -5.814499 -13.944727 33.296940 -0.442998 0.000000 0.896522 0.437500 0.707055 1 0 1.000000
barrelside03a
0 -5.814499 -13.944729 14.895138 -0.320686 0.000000 0.947185 0.437500 0.329977 1 0 1.000000
0 0.000001 -15.101328 33.296940 -0.066195 0.000000 0.997807 0.500000 0.707055 1 0 1.000000
0 -5.814499 -13.944727 33.296940 -0.442998 0.000000 0.896522 0.437500 0.707055 1 0 1.000000
barrelside03a
0 -5.814499 -13.944729 14.895138 -0.320686 0.000000 0.947185 0.437500 0.329977 1 0 1.000000
0 0.000001 -15.101330 14.895138 0.066195 0.000000 0.997807 0.500000 0.329977 1 0 1.000000
0 0.000001 -15.101328 33.296940 -0.066195 0.000000 0.997807 0.500000 0.707055 1 0 1.000000
barrelside03a
0 0.000001 -15.101330 14.895138 0.066195 0.000000 0.997807 0.500000 0.329977 1 0 1.000000
0 5.814500 -13.944727 33.296940 0.320687 0.000000 0.947185 0.562500 0.707055 1 0 1.000000
0 0.000001 -15.101328 33.296940 -0.066195 0.000000 0.997807 0.500000 0.707055 1 0 1.000000
barrelside03a
0 0.000001 -15.101330 14.895138 0.066195 0.000000 0.997807 0.500000 0.329977 1 0 1.000000
0 5.814500 -13.944729 14.895138 0.442998 0.000000 0.896522 0.562500 0.329977 1 0 1.000000
0 5.814500 -13.944727 33.296940 0.320687 0.000000 0.947185 0.562500 0.707055 1 0 1.000000
barrelside03a
0 5.814500 -13.944729 14.895138 0.442998 0.000000 0.896522 0.562500 0.329977 1 0 1.000000
0 10.743800 -10.651127 33.296936 0.658788 0.000000 0.752329 0.625000 0.707055 1 0 1.000000
0 5.814500 -13.944727 33.296940 0.320687 0.000000 0.947185 0.562500 0.707055 1 0 1.000000
barrelside03a
0 5.814500 -13.944729 14.895138 0.442998 0.000000 0.896522 0.562500 0.329977 1 0 1.000000
0 10.743800 -10.651129 14.895138 0.752329 0.000000 0.658787 0.625000 0.329977 1 0 1.000000
0 10.743800 -10.651127 33.296936 0.658788 0.000000 0.752329 0.625000 0.707055 1 0 1.000000
barrelside03a
0 10.743800 -10.651129 14.895138 0.752329 0.000000 0.658787 0.625000 0.329977 1 0 1.000000
0 14.037400 -5.721827 33.296936 0.896522 0.000000 0.442998 0.687500 0.707055 1 0 1.000000
0 10.743800 -10.651127 33.296936 0.658788 0.000000 0.752329 0.625000 0.707055 1 0 1.000000
barrelside03a
0 10.743800 -10.651129 14.895138 0.752329 0.000000 0.658787 0.625000 0.329977 1 0 1.000000
0 14.037400 -5.721827 14.895138 0.947185 0.000000 0.320686 0.687500 0.329977 1 0 1.000000
0 14.037400 -5.721827 33.296936 0.896522 0.000000 0.442998 0.687500 0.707055 1 0 1.000000
barrelside03a
0 14.037400 -5.721827 14.895138 0.947185 0.000000 0.320686 0.687500 0.329977 1 0 1.000000
0 15.194000 0.092674 33.296936 0.997807 -0.000000 0.066195 0.750000 0.707055 1 0 1.000000
0 14.037400 -5.721827 33.296936 0.896522 0.000000 0.442998 0.687500 0.707055 1 0 1.000000
barrelside03a
0 14.037400 -5.721827 14.895138 0.947185 0.000000 0.320686 0.687500 0.329977 1 0 1.000000
0 15.194000 0.092672 14.895138 0.997807 0.000000 -0.066195 0.750000 0.329977 1 0 1.000000
0 15.194000 0.092674 33.296936 0.997807 -0.000000 0.066195 0.750000 0.707055 1 0 1.000000
barrelside03a
0 15.194000 0.092672 14.895138 0.997807 0.000000 -0.066195 0.750000 0.329977 1 0 1.000000
0 14.037400 5.907173 33.296936 0.947185 -0.000000 -0.320687 0.812500 0.707055 1 0 1.000000
0 15.194000 0.092674 33.296936 0.997807 -0.000000 0.066195 0.750000 0.707055 1 0 1.000000
barrelside03a
0 15.194000 0.092672 14.895138 0.997807 0.000000 -0.066195 0.750000 0.329977 1 0 1.000000
0 14.037400 5.907171 14.895134 0.896522 -0.000000 -0.442998 0.812500 0.329977 1 0 1.000000
0 14.037400 5.907173 33.296936 0.947185 -0.000000 -0.320687 0.812500 0.707055 1 0 1.000000
barrelside03a
0 14.037400 5.907171 14.895134 0.896522 -0.000000 -0.442998 0.812500 0.329977 1 0 1.000000
0 10.743800 10.836473 33.296936 0.752295 -0.000000 -0.658826 0.875000 0.707055 1 0 1.000000
0 14.037400 5.907173 33.296936 0.947185 -0.000000 -0.320687 0.812500 0.707055 1 0 1.000000
barrelside03a
0 14.037400 5.907171 14.895134 0.896522 -0.000000 -0.442998 0.812500 0.329977 1 0 1.000000
0 10.743800 10.836470 14.895134 0.658826 -0.000000 -0.752295 0.875000 0.329977 1 0 1.000000
0 10.743800 10.836473 33.296936 0.752295 -0.000000 -0.658826 0.875000 0.707055 1 0 1.000000
barrelside03a
0 10.743800 10.836470 14.895134 0.658826 -0.000000 -0.752295 0.875000 0.329977 1 0 1.000000
0 5.814499 14.130075 33.296932 0.442998 -0.000000 -0.896522 0.937500 0.707055 1 0 1.000000
0 10.743800 10.836473 33.296936 0.752295 -0.000000 -0.658826 0.875000 0.707055 1 0 1.000000
barrelside03a
0 10.743800 10.836470 14.895134 0.658826 -0.000000 -0.752295 0.875000 0.329977 1 0 1.000000
0 5.814499 14.130072 14.895136 0.320686 -0.000000 -0.947185 0.937500 0.329977 1 0 1.000000
0 5.814499 14.130075 33.296932 0.442998 -0.000000 -0.896522 0.937500 0.707055 1 0 1.000000
barrelside03a
0 5.814499 14.130072 14.895136 0.320686 -0.000000 -0.947185 0.937500 0.329977 1 0 1.000000
0 -0.000001 15.286673 33.296932 0.066195 -0.000000 -0.997807 1.000000 0.707055 1 0 1.000000
0 5.814499 14.130075 33.296932 0.442998 -0.000000 -0.896522 0.937500 0.707055 1 0 1.000000
barrelside03a
0 5.814499 14.130072 14.895136 0.320686 -0.000000 -0.947185 0.937500 0.329977 1 0 1.000000
0 -0.000001 15.286673 14.895134 -0.066195 -0.000000 -0.997807 1.000000 0.329977 1 0 1.000000
0 -0.000001 15.286673 33.296932 0.066195 -0.000000 -0.997807 1.000000 0.707055 1 0 1.000000
barrelside03a
0 -0.000001 15.286673 33.296932 -0.055712 -0.538982 -0.840473 0.000000 0.707055 1 0 1.000000
0 -6.117900 14.862474 34.533031 -0.270125 -0.539013 -0.797808 0.062500 0.732655 1 0 1.000000
0 -0.000001 16.079378 34.533031 0.055702 -0.538982 -0.840474 0.000000 0.732655 1 0 1.000000
barrelside03a
0 -0.000001 15.286673 33.296932 -0.055712 -0.538982 -0.840473 0.000000 0.707055 1 0 1.000000
0 -5.814500 14.130075 33.296932 -0.373111 -0.538984 -0.755172 0.062500 0.707055 1 0 1.000000
0 -6.117900 14.862474 34.533031 -0.270125 -0.539013 -0.797808 0.062500 0.732655 1 0 1.000000
barrelside03a
0 -5.814500 14.130075 33.296932 -0.373111 -0.538984 -0.755172 0.062500 0.707055 1 0 1.000000
0 -11.304301 11.396975 34.533035 -0.554910 -0.538996 -0.633686 0.125000 0.732655 1 0 1.000000
0 -6.117900 14.862474 34.533031 -0.270125 -0.539013 -0.797808 0.062500 0.732655 1 0 1.000000
barrelside03a
0 -5.814500 14.130075 33.296932 -0.373111 -0.538984 -0.755172 0.062500 0.707055 1 0 1.000000
0 -10.743800 10.836473 33.296936 -0.633691 -0.538996 -0.554905 0.125000 0.707055 1 0 1.000000
0 -11.304301 11.396975 34.533035 -0.554910 -0.538996 -0.633686 0.125000 0.732655 1 0 1.000000
barrelside03a
0 -10.743800 10.836473 33.296936 -0.633691 -0.538996 -0.554905 0.125000 0.707055 1 0 1.000000
0 -14.769800 6.210573 34.533035 -0.755178 -0.538988 -0.373092 0.187500 0.732655 1 0 1.000000
0 -11.304301 11.396975 34.533035 -0.554910 -0.538996 -0.633686 0.125000 0.732655 1 0 1.000000
barrelside03a
0 -10.743800 10.836473 33.296936 -0.633691 -0.538996 -0.554905 0.125000 0.707055 1 0 1.000000
0 -14.037400 5.907173 33.296936 -0.797818 -0.539012 -0.270098 0.187500 0.707055 1 0 1.000000
0 -14.769800 6.210573 34.533035 -0.755178 -0.538988 -0.373092 0.187500 0.732655 1 0 1.000000
barrelside03a
0 -14.037400 5.907173 33.296936 -0.797818 -0.539012 -0.270098 0.187500 0.707055 1 0 1.000000
0 -15.986701 0.092674 34.533035 -0.840474 -0.538982 -0.055702 0.250000 0.732655 1 0 1.000000
0 -14.769800 6.210573 34.533035 -0.755178 -0.538988 -0.373092 0.187500 0.732655 1 0 1.000000
barrelside03a
0 -14.037400 5.907173 33.296936 -0.797818 -0.539012 -0.270098 0.187500 0.707055 1 0 1.000000
0 -15.194000 0.092672 33.296936 -0.840473 -0.538982 0.055712 0.250000 0.707055 1 0 1.000000
0 -15.986701 0.092674 34.533035 -0.840474 -0.538982 -0.055702 0.250000 0.732655 1 0 1.000000
barrelside03a
0 -15.194000 0.092672 33.296936 -0.840473 -0.538982 0.055712 0.250000 0.707055 1 0 1.000000
0 -14.769800 -6.025225 34.533035 -0.797808 -0.539014 0.270124 0.312500 0.732655 1 0 1.000000
0 -15.986701 0.092674 34.533035 -0.840474 -0.538982 -0.055702 0.250000 0.732655 1 0 1.000000
barrelside03a
0 -15.194000 0.092672 33.296936 -0.840473 -0.538982 0.055712 0.250000 0.707055 1 0 1.000000
0 -14.037400 -5.721827 33.296936 -0.755172 -0.538984 0.373110 0.312500 0.707055 1 0 1.000000
0 -14.769800 -6.025225 34.533035 -0.797808 -0.539014 0.270124 0.312500 0.732655 1 0 1.000000
barrelside03a
0 -14.037400 -5.721827 33.296936 -0.755172 -0.538984 0.373110 0.312500 0.707055 1 0 1.000000
0 -11.304299 -11.211628 34.533035 -0.633687 -0.538996 0.554909 0.375000 0.732655 1 0 1.000000
0 -14.769800 -6.025225 34.533035 -0.797808 -0.539014 0.270124 0.312500 0.732655 1 0 1.000000
barrelside03a
0 -14.037400 -5.721827 33.296936 -0.755172 -0.538984 0.373110 0.312500 0.707055 1 0 1.000000
0 -10.743800 -10.651127 33.296936 -0.554906 -0.538995 0.633691 0.375000 0.707055 1 0 1.000000
0 -11.304299 -11.211628 34.533035 -0.633687 -0.538996 0.554909 0.375000 0.732655 1 0 1.000000
barrelside03a
0 -10.743800 -10.651127 33.296936 -0.554906 -0.538995 0.633691 0.375000 0.707055 1 0 1.000000
0 -6.117899 -14.677126 34.533039 -0.373091 -0.538988 0.755179 0.437500 0.732655 1 0 1.000000
0 -11.304299 -11.211628 34.533035 -0.633687 -0.538996 0.554909 0.375000 0.732655 1 0 1.000000
barrelside03a
0 -10.743800 -10.651127 33.296936 -0.554906 -0.538995 0.633691 0.375000 0.707055 1 0 1.000000
0 -5.814499 -13.944727 33.296940 -0.270098 -0.539011 0.797818 0.437500 0.707055 1 0 1.000000
0 -6.117899 -14.677126 34.533039 -0.373091 -0.538988 0.755179 0.437500 0.732655 1 0 1.000000
barrelside03a
0 -5.814499 -13.944727 33.296940 -0.270098 -0.539011 0.797818 0.437500 0.707055 1 0 1.000000
0 0.000001 -15.894026 34.533039 -0.055702 -0.538981 0.840475 0.500000 0.732655 1 0 1.000000
0 -6.117899 -14.677126 34.533039 -0.373091 -0.538988 0.755179 0.437500 0.732655 1 0 1.000000
barrelside03a
0 -5.814499 -13.944727 33.296940 -0.270098 -0.539011 0.797818 0.437500 0.707055 1 0 1.000000
0 0.000001 -15.101328 33.296940 0.055712 -0.538980 0.840474 0.500000 0.707055 1 0 1.000000
0 0.000001 -15.894026 34.533039 -0.055702 -0.538981 0.840475 0.500000 0.732655 1 0 1.000000
barrelside03a
0 0.000001 -15.101328 33.296940 0.055712 -0.538980 0.840474 0.500000 0.707055 1 0 1.000000
0 6.117900 -14.677126 34.533039 0.270125 -0.539014 0.797808 0.562500 0.732655 1 0 1.000000
0 0.000001 -15.894026 34.533039 -0.055702 -0.538981 0.840475 0.500000 0.732655 1 0 1.000000
barrelside03a
0 0.000001 -15.101328 33.296940 0.055712 -0.538980 0.840474 0.500000 0.707055 1 0 1.000000
0 5.814500 -13.944727 33.296940 0.373111 -0.538984 0.755172 0.562500 0.707055 1 0 1.000000
0 6.117900 -14.677126 34.533039 0.270125 -0.539014 0.797808 0.562500 0.732655 1 0 1.000000
barrelside03a
0 5.814500 -13.944727 33.296940 0.373111 -0.538984 0.755172 0.562500 0.707055 1 0 1.000000
0 11.304301 -11.211626 34.533035 0.554910 -0.538996 0.633686 0.625000 0.732655 1 0 1.000000
0 6.117900 -14.677126 34.533039 0.270125 -0.539014 0.797808 0.562500 0.732655 1 0 1.000000
barrelside03a
0 5.814500 -13.944727 33.296940 0.373111 -0.538984 0.755172 0.562500 0.707055 1 0 1.000000
0 10.743800 -10.651127 33.296936 0.633691 -0.538996 0.554905 0.625000 0.707055 1 0 1.000000
0 11.304301 -11.211626 34.533035 0.554910 -0.538996 0.633686 0.625000 0.732655 1 0 1.000000
barrelside03a
0 10.743800 -10.651127 33.296936 0.633691 -0.538996 0.554905 0.625000 0.707055 1 0 1.000000
0 14.769800 -6.025225 34.533035 0.755178 -0.538988 0.373092 0.687500 0.732655 1 0 1.000000
0 11.304301 -11.211626 34.533035 0.554910 -0.538996 0.633686 0.625000 0.732655 1 0 1.000000
barrelside03a
0 10.743800 -10.651127 33.296936 0.633691 -0.538996 0.554905 0.625000 0.707055 1 0 1.000000
0 14.037400 -5.721827 33.296936 0.797818 -0.539012 0.270099 0.687500 0.707055 1 0 1.000000
0 14.769800 -6.025225 34.533035 0.755178 -0.538988 0.373092 0.687500 0.732655 1 0 1.000000
barrelside03a
0 14.037400 -5.721827 33.296936 0.797818 -0.539012 0.270099 0.687500 0.707055 1 0 1.000000
0 15.986700 0.092676 34.533035 0.840474 -0.538981 0.055702 0.750000 0.732655 1 0 1.000000
0 14.769800 -6.025225 34.533035 0.755178 -0.538988 0.373092 0.687500 0.732655 1 0 1.000000
barrelside03a
0 14.037400 -5.721827 33.296936 0.797818 -0.539012 0.270099 0.687500 0.707055 1 0 1.000000
0 15.194000 0.092674 33.296936 0.840473 -0.538981 -0.055712 0.750000 0.707055 1 0 1.000000
0 15.986700 0.092676 34.533035 0.840474 -0.538981 0.055702 0.750000 0.732655 1 0 1.000000
barrelside03a
0 15.194000 0.092674 33.296936 0.840473 -0.538981 -0.055712 0.750000 0.707055 1 0 1.000000
0 14.769800 6.210575 34.533035 0.797808 -0.539013 -0.270125 0.812500 0.732655 1 0 1.000000
0 15.986700 0.092676 34.533035 0.840474 -0.538981 0.055702 0.750000 0.732655 1 0 1.000000
barrelside03a
0 15.194000 0.092674 33.296936 0.840473 -0.538981 -0.055712 0.750000 0.707055 1 0 1.000000
0 14.037400 5.907173 33.296936 0.755172 -0.538984 -0.373110 0.812500 0.707055 1 0 1.000000
0 14.769800 6.210575 34.533035 0.797808 -0.539013 -0.270125 0.812500 0.732655 1 0 1.000000
barrelside03a
0 14.037400 5.907173 33.296936 0.755172 -0.538984 -0.373110 0.812500 0.707055 1 0 1.000000
0 11.304299 11.396975 34.533035 0.633687 -0.538996 -0.554909 0.875000 0.732655 1 0 1.000000
0 14.769800 6.210575 34.533035 0.797808 -0.539013 -0.270125 0.812500 0.732655 1 0 1.000000
barrelside03a
0 14.037400 5.907173 33.296936 0.755172 -0.538984 -0.373110 0.812500 0.707055 1 0 1.000000
0 10.743800 10.836473 33.296936 0.554905 -0.538996 -0.633690 0.875000 0.707055 1 0 1.000000
0 11.304299 11.396975 34.533035 0.633687 -0.538996 -0.554909 0.875000 0.732655 1 0 1.000000
barrelside03a
0 10.743800 10.836473 33.296936 0.554905 -0.538996 -0.633690 0.875000 0.707055 1 0 1.000000
0 6.117899 14.862474 34.533031 0.373091 -0.538988 -0.755178 0.937500 0.732655 1 0 1.000000
0 11.304299 11.396975 34.533035 0.633687 -0.538996 -0.554909 0.875000 0.732655 1 0 1.000000
barrelside03a
0 10.743800 10.836473 33.296936 0.554905 -0.538996 -0.633690 0.875000 0.707055 1 0 1.000000
0 5.814499 14.130075 33.296932 0.270098 -0.539012 -0.797818 0.937500 0.707055 1 0 1.000000
0 6.117899 14.862474 34.533031 0.373091 -0.538988 -0.755178 0.937500 0.732655 1 0 1.000000
barrelside03a
0 5.814499 14.130075 33.296932 0.270098 -0.539012 -0.797818 0.937500 0.707055 1 0 1.000000
0 -0.000001 16.079378 34.533031 0.055702 -0.538982 -0.840474 1.000000 0.732655 1 0 1.000000
0 6.117899 14.862474 34.533031 0.373091 -0.538988 -0.755178 0.937500 0.732655 1 0 1.000000
barrelside03a
0 5.814499 14.130075 33.296932 0.270098 -0.539012 -0.797818 0.937500 0.707055 1 0 1.000000
0 -0.000001 15.286673 33.296932 -0.055712 -0.538982 -0.840473 1.000000 0.707055 1 0 1.000000
0 -0.000001 16.079378 34.533031 0.055702 -0.538982 -0.840474 1.000000 0.732655 1 0 1.000000
barrelside03a
0 -0.000001 16.079378 34.533031 -0.056530 0.520304 -0.852108 0.000000 0.732655 1 0 1.000000
0 -5.814500 14.130072 35.831432 -0.273894 0.520284 -0.808880 0.062500 0.759655 1 0 1.000000
0 -0.000001 15.286673 35.831432 0.056490 0.520305 -0.852110 0.000000 0.759655 1 0 1.000000
barrelside03a
0 -0.000001 16.079378 34.533031 -0.056530 0.520304 -0.852108 0.000000 0.732655 1 0 1.000000
0 -6.117900 14.862474 34.533031 -0.378308 0.520311 -0.765610 0.062500 0.732655 1 0 1.000000
0 -5.814500 14.130072 35.831432 -0.273894 0.520284 -0.808880 0.062500 0.759655 1 0 1.000000
barrelside03a
0 -6.117900 14.862474 34.533031 -0.378308 0.520311 -0.765610 0.062500 0.732655 1 0 1.000000
0 -10.743800 10.836473 35.831436 -0.562596 0.520291 -0.642482 0.125000 0.759655 1 0 1.000000
0 -5.814500 14.130072 35.831432 -0.273894 0.520284 -0.808880 0.062500 0.759655 1 0 1.000000
barrelside03a
0 -6.117900 14.862474 34.533031 -0.378308 0.520311 -0.765610 0.062500 0.732655 1 0 1.000000
0 -11.304301 11.396975 34.533035 -0.642476 0.520291 -0.562602 0.125000 0.732655 1 0 1.000000
0 -10.743800 10.836473 35.831436 -0.562596 0.520291 -0.642482 0.125000 0.759655 1 0 1.000000
barrelside03a
0 -11.304301 11.396975 34.533035 -0.642476 0.520291 -0.562602 0.125000 0.732655 1 0 1.000000
0 -14.037400 5.907173 35.831436 -0.765601 0.520310 -0.378329 0.187500 0.759655 1 0 1.000000
0 -10.743800 10.836473 35.831436 -0.562596 0.520291 -0.642482 0.125000 0.759655 1 0 1.000000
barrelside03a
0 -11.304301 11.396975 34.533035 -0.642476 0.520291 -0.562602 0.125000 0.732655 1 0 1.000000
0 -14.769800 6.210573 34.533035 -0.808887 0.520283 -0.273874 0.187500 0.732655 1 0 1.000000
0 -14.037400 5.907173 35.831436 -0.765601 0.520310 -0.378329 0.187500 0.759655 1 0 1.000000
barrelside03a
0 -14.769800 6.210573 34.533035 -0.808887 0.520283 -0.273874 0.187500 0.732655 1 0 1.000000
0 -15.194000 0.092674 35.831436 -0.852110 0.520306 -0.056490 0.250000 0.759655 1 0 1.000000
0 -14.037400 5.907173 35.831436 -0.765601 0.520310 -0.378329 0.187500 0.759655 1 0 1.000000
barrelside03a
0 -14.769800 6.210573 34.533035 -0.808887 0.520283 -0.273874 0.187500 0.732655 1 0 1.000000
0 -15.986701 0.092674 34.533035 -0.852108 0.520304 0.056529 0.250000 0.732655 1 0 1.000000
0 -15.194000 0.092674 35.831436 -0.852110 0.520306 -0.056490 0.250000 0.759655 1 0 1.000000
barrelside03a
0 -15.986701 0.092674 34.533035 -0.852108 0.520304 0.056529 0.250000 0.732655 1 0 1.000000
0 -14.037400 -5.721827 35.831436 -0.808880 0.520284 0.273895 0.312500 0.759655 1 0 1.000000
0 -15.194000 0.092674 35.831436 -0.852110 0.520306 -0.056490 0.250000 0.759655 1 0 1.000000
barrelside03a
0 -15.986701 0.092674 34.533035 -0.852108 0.520304 0.056529 0.250000 0.732655 1 0 1.000000
0 -14.769800 -6.025225 34.533035 -0.765613 0.520306 0.378310 0.312500 0.732655 1 0 1.000000
0 -14.037400 -5.721827 35.831436 -0.808880 0.520284 0.273895 0.312500 0.759655 1 0 1.000000
barrelside03a
0 -14.769800 -6.025225 34.533035 -0.765613 0.520306 0.378310 0.312500 0.732655 1 0 1.000000
0 -10.743800 -10.651127 35.831436 -0.642482 0.520291 0.562596 0.375000 0.759655 1 0 1.000000
0 -14.037400 -5.721827 35.831436 -0.808880 0.520284 0.273895 0.312500 0.759655 1 0 1.000000
barrelside03a
0 -14.769800 -6.025225 34.533035 -0.765613 0.520306 0.378310 0.312500 0.732655 1 0 1.000000
0 -11.304299 -11.211628 34.533035 -0.562602 0.520292 0.642476 0.375000 0.732655 1 0 1.000000
0 -10.743800 -10.651127 35.831436 -0.642482 0.520291 0.562596 0.375000 0.759655 1 0 1.000000
barrelside03a
0 -11.304299 -11.211628 34.533035 -0.562602 0.520292 0.642476 0.375000 0.732655 1 0 1.000000
0 -5.814499 -13.944727 35.831440 -0.378281 0.520312 0.765624 0.437500 0.759655 1 0 1.000000
0 -10.743800 -10.651127 35.831436 -0.642482 0.520291 0.562596 0.375000 0.759655 1 0 1.000000
barrelside03a
0 -11.304299 -11.211628 34.533035 -0.562602 0.520292 0.642476 0.375000 0.732655 1 0 1.000000
0 -6.117899 -14.677126 34.533039 -0.273874 0.520283 0.808887 0.437500 0.732655 1 0 1.000000
0 -5.814499 -13.944727 35.831440 -0.378281 0.520312 0.765624 0.437500 0.759655 1 0 1.000000
barrelside03a
0 -6.117899 -14.677126 34.533039 -0.273874 0.520283 0.808887 0.437500 0.732655 1 0 1.000000
0 0.000001 -15.101328 35.831440 -0.056490 0.520306 0.852109 0.500000 0.759655 1 0 1.000000
0 -5.814499 -13.944727 35.831440 -0.378281 0.520312 0.765624 0.437500 0.759655 1 0 1.000000
barrelside03a
0 -6.117899 -14.677126 34.533039 -0.273874 0.520283 0.808887 0.437500 0.732655 1 0 1.000000
0 0.000001 -15.894026 34.533039 0.056530 0.520305 0.852107 0.500000 0.732655 1 0 1.000000
0 0.000001 -15.101328 35.831440 -0.056490 0.520306 0.852109 0.500000 0.759655 1 0 1.000000
barrelside03a
0 0.000001 -15.894026 34.533039 0.056530 0.520305 0.852107 0.500000 0.732655 1 0 1.000000
0 5.814500 -13.944727 35.831440 0.273894 0.520284 0.808880 0.562500 0.759655 1 0 1.000000
0 0.000001 -15.101328 35.831440 -0.056490 0.520306 0.852109 0.500000 0.759655 1 0 1.000000
barrelside03a
0 0.000001 -15.894026 34.533039 0.056530 0.520305 0.852107 0.500000 0.732655 1 0 1.000000
0 6.117900 -14.677126 34.533039 0.378309 0.520311 0.765610 0.562500 0.732655 1 0 1.000000
0 5.814500 -13.944727 35.831440 0.273894 0.520284 0.808880 0.562500 0.759655 1 0 1.000000
barrelside03a
0 6.117900 -14.677126 34.533039 0.378309 0.520311 0.765610 0.562500 0.732655 1 0 1.000000
0 10.743800 -10.651127 35.831436 0.562596 0.520291 0.642482 0.625000 0.759655 1 0 1.000000
0 5.814500 -13.944727 35.831440 0.273894 0.520284 0.808880 0.562500 0.759655 1 0 1.000000
barrelside03a
0 6.117900 -14.677126 34.533039 0.378309 0.520311 0.765610 0.562500 0.732655 1 0 1.000000
0 11.304301 -11.211626 34.533035 0.642476 0.520291 0.562602 0.625000 0.732655 1 0 1.000000
0 10.743800 -10.651127 35.831436 0.562596 0.520291 0.642482 0.625000 0.759655 1 0 1.000000
barrelside03a
0 11.304301 -11.211626 34.533035 0.642476 0.520291 0.562602 0.625000 0.732655 1 0 1.000000
0 14.037400 -5.721825 35.831436 0.765601 0.520310 0.378329 0.687500 0.759655 1 0 1.000000
0 10.743800 -10.651127 35.831436 0.562596 0.520291 0.642482 0.625000 0.759655 1 0 1.000000
barrelside03a
0 11.304301 -11.211626 34.533035 0.642476 0.520291 0.562602 0.625000 0.732655 1 0 1.000000
0 14.769800 -6.025225 34.533035 0.808887 0.520283 0.273874 0.687500 0.732655 1 0 1.000000
0 14.037400 -5.721825 35.831436 0.765601 0.520310 0.378329 0.687500 0.759655 1 0 1.000000
barrelside03a
0 14.769800 -6.025225 34.533035 0.808887 0.520283 0.273874 0.687500 0.732655 1 0 1.000000
0 15.194000 0.092676 35.831436 0.852109 0.520306 0.056490 0.750000 0.759655 1 0 1.000000
0 14.037400 -5.721825 35.831436 0.765601 0.520310 0.378329 0.687500 0.759655 1 0 1.000000
barrelside03a
0 14.769800 -6.025225 34.533035 0.808887 0.520283 0.273874 0.687500 0.732655 1 0 1.000000
0 15.986700 0.092676 34.533035 0.852108 0.520305 -0.056529 0.750000 0.732655 1 0 1.000000
0 15.194000 0.092676 35.831436 0.852109 0.520306 0.056490 0.750000 0.759655 1 0 1.000000
barrelside03a
0 15.986700 0.092676 34.533035 0.852108 0.520305 -0.056529 0.750000 0.732655 1 0 1.000000
0 14.037400 5.907175 35.831436 0.808880 0.520284 -0.273895 0.812500 0.759655 1 0 1.000000
0 15.194000 0.092676 35.831436 0.852109 0.520306 0.056490 0.750000 0.759655 1 0 1.000000
barrelside03a
0 15.986700 0.092676 34.533035 0.852108 0.520305 -0.056529 0.750000 0.732655 1 0 1.000000
0 14.769800 6.210575 34.533035 0.765613 0.520306 -0.378310 0.812500 0.732655 1 0 1.000000
0 14.037400 5.907175 35.831436 0.808880 0.520284 -0.273895 0.812500 0.759655 1 0 1.000000
barrelside03a
0 14.769800 6.210575 34.533035 0.765613 0.520306 -0.378310 0.812500 0.732655 1 0 1.000000
0 10.743800 10.836473 35.831436 0.642482 0.520291 -0.562596 0.875000 0.759655 1 0 1.000000
0 14.037400 5.907175 35.831436 0.808880 0.520284 -0.273895 0.812500 0.759655 1 0 1.000000
barrelside03a
0 14.769800 6.210575 34.533035 0.765613 0.520306 -0.378310 0.812500 0.732655 1 0 1.000000
0 11.304299 11.396975 34.533035 0.562602 0.520292 -0.642476 0.875000 0.732655 1 0 1.000000
0 10.743800 10.836473 35.831436 0.642482 0.520291 -0.562596 0.875000 0.759655 1 0 1.000000
barrelside03a
0 11.304299 11.396975 34.533035 0.562602 0.520292 -0.642476 0.875000 0.732655 1 0 1.000000
0 5.814499 14.130072 35.831432 0.378281 0.520312 -0.765624 0.937500 0.759655 1 0 1.000000
0 10.743800 10.836473 35.831436 0.642482 0.520291 -0.562596 0.875000 0.759655 1 0 1.000000
barrelside03a
0 11.304299 11.396975 34.533035 0.562602 0.520292 -0.642476 0.875000 0.732655 1 0 1.000000
0 6.117899 14.862474 34.533031 0.273873 0.520283 -0.808887 0.937500 0.732655 1 0 1.000000
0 5.814499 14.130072 35.831432 0.378281 0.520312 -0.765624 0.937500 0.759655 1 0 1.000000
barrelside03a
0 6.117899 14.862474 34.533031 0.273873 0.520283 -0.808887 0.937500 0.732655 1 0 1.000000
0 -0.000001 15.286673 35.831432 0.056490 0.520305 -0.852110 1.000000 0.759655 1 0 1.000000
0 5.814499 14.130072 35.831432 0.378281 0.520312 -0.765624 0.937500 0.759655 1 0 1.000000
barrelside03a
0 6.117899 14.862474 34.533031 0.273873 0.520283 -0.808887 0.937500 0.732655 1 0 1.000000
0 -0.000001 16.079378 34.533031 -0.056530 0.520304 -0.852108 1.000000 0.732655 1 0 1.000000
0 -0.000001 15.286673 35.831432 0.056490 0.520305 -0.852110 1.000000 0.759655 1 0 1.000000
barreltop03a
0 -0.000001 15.286676 48.282333 0.000000 1.000000 -0.000000 0.500000 0.999500 1 0 1.000000
0 10.743800 10.836477 48.282337 -0.000000 1.000000 0.000001 0.853200 0.853200 1 0 1.000000
0 5.814499 14.130075 48.282333 0.000000 1.000000 -0.000005 0.691200 0.961500 1 0 1.000000
barreltop03a
0 -0.000001 15.286676 48.282333 0.000000 1.000000 -0.000000 0.500000 0.999500 1 0 1.000000
0 14.037400 5.907175 48.282337 -0.000000 1.000000 0.000001 0.961500 0.691200 1 0 1.000000
0 10.743800 10.836477 48.282337 -0.000000 1.000000 0.000001 0.853200 0.853200 1 0 1.000000
barreltop03a
0 -0.000001 15.286676 48.282333 0.000000 1.000000 -0.000000 0.500000 0.999500 1 0 1.000000
0 15.194000 0.092676 48.282337 -0.000000 1.000000 -0.000000 0.999500 0.500000 1 0 1.000000
0 14.037400 5.907175 48.282337 -0.000000 1.000000 0.000001 0.961500 0.691200 1 0 1.000000
barreltop03a
0 -0.000001 15.286676 48.282333 0.000000 1.000000 -0.000000 0.500000 0.999500 1 0 1.000000
0 14.037400 -5.721823 48.282337 -0.000000 1.000000 -0.000000 0.961500 0.308800 1 0 1.000000
0 15.194000 0.092676 48.282337 -0.000000 1.000000 -0.000000 0.999500 0.500000 1 0 1.000000
barreltop03a
0 -0.000001 15.286676 48.282333 0.000000 1.000000 -0.000000 0.500000 0.999500 1 0 1.000000
0 10.743800 -10.651125 48.282337 0.000000 1.000000 -0.000000 0.853200 0.146800 1 0 1.000000
0 14.037400 -5.721823 48.282337 -0.000000 1.000000 -0.000000 0.961500 0.308800 1 0 1.000000
barreltop03a
0 -0.000001 15.286676 48.282333 0.000000 1.000000 -0.000000 0.500000 0.999500 1 0 1.000000
0 5.814500 -13.944725 48.282341 0.000000 1.000000 -0.000000 0.691200 0.038500 1 0 1.000000
0 10.743800 -10.651125 48.282337 0.000000 1.000000 -0.000000 0.853200 0.146800 1 0 1.000000
barreltop03a
0 -0.000001 15.286676 48.282333 0.000000 1.000000 -0.000000 0.500000 0.999500 1 0 1.000000
0 0.000001 -15.101326 48.282341 -0.000000 1.000000 -0.000000 0.500000 0.000500 1 0 1.000000
0 5.814500 -13.944725 48.282341 0.000000 1.000000 -0.000000 0.691200 0.038500 1 0 1.000000
barreltop03a
0 -0.000001 15.286676 48.282333 0.000000 1.000000 -0.000000 0.500000 0.999500 1 0 1.000000
0 -5.814499 -13.944725 48.282341 -0.000000 1.000000 -0.000001 0.308800 0.038500 1 0 1.000000
0 0.000001 -15.101326 48.282341 -0.000000 1.000000 -0.000000 0.500000 0.000500 1 0 1.000000
barreltop03a
0 -0.000001 15.286676 48.282333 0.000000 1.000000 -0.000000 0.500000 0.999500 1 0 1.000000
0 -10.743800 -10.651125 48.282337 -0.000000 1.000000 -0.000001 0.146800 0.146800 1 0 1.000000
0 -5.814499 -13.944725 48.282341 -0.000000 1.000000 -0.000001 0.308800 0.038500 1 0 1.000000
barreltop03a
0 -0.000001 15.286676 48.282333 0.000000 1.000000 -0.000000 0.500000 0.999500 1 0 1.000000
0 -14.037400 -5.721825 48.282337 0.000000 1.000000 -0.000000 0.038500 0.308800 1 0 1.000000
0 -10.743800 -10.651125 48.282337 -0.000000 1.000000 -0.000001 0.146800 0.146800 1 0 1.000000
barreltop03a
0 -0.000001 15.286676 48.282333 0.000000 1.000000 -0.000000 0.500000 0.999500 1 0 1.000000
0 -15.194000 0.092674 48.282337 0.000000 1.000000 0.000000 0.000500 0.500000 1 0 1.000000
0 -14.037400 -5.721825 48.282337 0.000000 1.000000 -0.000000 0.038500 0.308800 1 0 1.000000
barreltop03a
0 -0.000001 15.286676 48.282333 0.000000 1.000000 -0.000000 0.500000 0.999500 1 0 1.000000
0 -14.037400 5.907175 48.282337 0.000000 1.000000 -0.000001 0.038500 0.691200 1 0 1.000000
0 -15.194000 0.092674 48.282337 0.000000 1.000000 0.000000 0.000500 0.500000 1 0 1.000000
barreltop03a
0 -0.000001 15.286676 48.282333 0.000000 1.000000 -0.000000 0.500000 0.999500 1 0 1.000000
0 -10.743800 10.836477 48.282337 0.000000 1.000000 0.000002 0.146800 0.853200 1 0 1.000000
0 -14.037400 5.907175 48.282337 0.000000 1.000000 -0.000001 0.038500 0.691200 1 0 1.000000
barreltop03a
0 -0.000001 15.286676 48.282333 0.000000 1.000000 -0.000000 0.500000 0.999500 1 0 1.000000
0 -5.814500 14.130075 48.282333 -0.000000 1.000000 0.000002 0.308800 0.961500 1 0 1.000000
0 -10.743800 10.836477 48.282337 0.000000 1.000000 0.000002 0.146800 0.853200 1 0 1.000000
end
