// Created by Crowbar 0.68
version 1
nodes
  0 "ValveBiped.Bip01" -1
  1 "ValveBiped.Bip01_Pelvis" 0
  2 "ValveBiped.Bip01_L_Thigh" 1
  3 "ValveBiped.Bip01_L_Calf" 2
  4 "ValveBiped.Bip01_L_Foot" 3
  5 "ValveBiped.Bip01_L_Toe0" 4
  6 "ValveBiped.Bip01_R_Thigh" 1
  7 "ValveBiped.Bip01_R_Calf" 6
  8 "ValveBiped.Bip01_R_Foot" 7
  9 "ValveBiped.Bip01_R_Toe0" 8
  10 "ValveBiped.Bip01_Spine" 0
  11 "ValveBiped.Bip01_Spine1" 10
  12 "ValveBiped.Bip01_Spine2" 11
  13 "ValveBiped.Bip01_Spine4" 12
  14 "ValveBiped.Bip01_Head1" 13
  15 "ValveBiped.Bip01_L_Clavicle" 13
  16 "ValveBiped.Bip01_L_UpperArm" 15
  17 "ValveBiped.Bip01_L_Forearm" 16
  18 "ValveBiped.Bip01_L_Hand" 17
  19 "ValveBiped.Bip01_L_Finger3" 18
  20 "ValveBiped.Bip01_L_Finger31" 19
  21 "ValveBiped.Bip01_L_Finger32" 20
  22 "ValveBiped.Bip01_L_Finger1" 18
  23 "ValveBiped.Bip01_L_Finger11" 22
  24 "ValveBiped.Bip01_L_Finger12" 23
  25 "ValveBiped.Bip01_L_Finger2" 18
  26 "ValveBiped.Bip01_L_Finger21" 25
  27 "ValveBiped.Bip01_L_Finger22" 26
  28 "ValveBiped.Bip01_R_Clavicle" 13
  29 "ValveBiped.Bip01_R_UpperArm" 28
  30 "ValveBiped.Bip01_R_Forearm" 29
  31 "ValveBiped.Bip01_R_Hand" 30
  32 "ValveBiped.Bip01_R_Finger3" 31
  33 "ValveBiped.Bip01_R_Finger31" 32
  34 "ValveBiped.Bip01_R_Finger32" 33
  35 "ValveBiped.Bip01_R_Finger2" 31
  36 "ValveBiped.Bip01_R_Finger21" 35
  37 "ValveBiped.Bip01_R_Finger22" 36
  38 "ValveBiped.Bip01_R_Finger1" 31
  39 "ValveBiped.Bip01_R_Finger11" 38
  40 "ValveBiped.Bip01_R_Finger12" 39
  41 "ValveBiped.HC_BodyCube" 13
  42 "ValveBiped.HC_HeadCube" 41
  43 "ValveBiped.HC_BoneLF" 42
  44 "ValveBiped.HC_BoneLF1" 43
  45 "ValveBiped.HC_BoneRF" 42
  46 "ValveBiped.HC_BoneRF1" 45
  47 "ValveBiped.HC_BoneLB" 41
  48 "ValveBiped.HC_BoneLB1" 47
  49 "ValveBiped.HC_BoneLB2" 48
  50 "ValveBiped.HC_BoneRB" 41
  51 "ValveBiped.HC_BoneRB1" 50
  52 "ValveBiped.HC_BoneRB2" 51
end
skeleton
  time 0
    0 0.554199 15.265625 4.515625 0.012277 0.546265 0.263983
    1 0.000000 0.000000 0.000000 0.000000 0.000000 0.000000
    2 3.890447 0.000000 0.000000 0.562736 0.173490 -1.798568
    3 17.591007 0.000000 -0.000003 0.000000 0.000000 0.681368
    4 17.699610 -0.000001 -0.000002 -0.528319 0.224872 -0.854797
    5 6.879457 0.000008 0.000001 -0.007299 -0.002951 -0.584373
    6 -3.890447 0.000000 0.000000 -2.376467 -0.097619 -1.360070
    7 17.590990 0.000000 0.000001 0.000000 0.000000 1.761840
    8 17.699574 0.000001 0.000001 0.075952 0.011700 -0.751535
    9 6.879451 -0.000002 -0.000002 -0.081334 -0.002949 -0.584373
    10 0.000000 3.345131 -2.981898 1.595187 -0.099830 1.590513
    11 4.126656 0.000000 0.000000 0.082124 -0.280889 0.016528
    12 3.612865 0.000000 0.000000 0.120211 -0.052653 0.606704
    13 9.183983 0.000000 0.000000 0.480462 -0.117985 0.039388
    14 4.149971 -1.375574 0.000000 3.141592 0.000000 -0.533455
    15 1.663036 1.210508 2.595493 2.833332 -0.873078 1.503787
    16 6.028141 0.000004 0.000000 -3.019823 -0.749397 -0.532347
    17 12.692978 0.000001 0.000023 0.000000 0.000000 -1.959038
    18 11.575961 0.000002 -0.000019 2.869166 0.286470 0.911265
    19 5.562228 -0.288269 -0.510574 2.556935 0.564834 -0.167397
    20 5.158491 0.000002 0.000004 -0.491465 -0.201975 0.395425
    21 3.326000 -0.000004 0.000008 -0.210611 -0.158136 0.377898
    22 5.591165 -0.279015 1.848881 2.861928 -0.043022 0.932565
    23 5.292999 0.000000 0.000008 -0.241725 -0.282480 0.224247
    24 3.079115 -0.000004 0.000000 0.246848 0.055997 0.239681
    25 5.739734 -0.095432 0.607277 2.794037 0.350194 0.470770
    26 5.652496 -0.000002 0.000000 -0.358095 -0.145341 0.422745
    27 3.325010 -0.000003 -0.000008 0.049479 0.046241 0.250519
    28 1.663048 1.210514 -2.595442 0.077617 0.365144 -1.649755
    29 6.028137 0.000004 0.000000 0.300111 -0.841844 -0.196358
    30 12.693001 0.000000 0.000004 0.000000 0.000000 -1.484208
    31 11.599612 0.000008 -0.000004 -2.154788 0.184844 0.027620
    32 5.928187 0.378914 0.637287 3.067635 -0.500266 0.035529
    33 5.073999 0.000000 0.000008 0.017385 0.226446 0.075409
    34 3.325997 0.000002 0.000004 -0.321211 0.063748 0.148784
    35 6.189649 0.568802 -0.554352 2.765009 -0.097189 0.080296
    36 5.510998 0.000005 0.000008 0.018410 -0.075993 0.408911
    37 3.325017 -0.000004 0.000008 0.069740 -0.004097 0.187445
    38 5.900459 0.299202 -1.780357 2.786918 0.290455 -0.158619
    39 5.248498 0.000008 -0.000008 -0.003131 0.072218 0.028774
    40 3.151004 0.000002 0.000000 0.014777 -0.028525 0.190967
    41 8.390625 -2.841797 2.283203 -0.103984 -1.227053 2.385617
    42 0.162476 -7.207031 -2.447266 1.089645 0.169064 3.021002
    43 -3.929419 0.000004 0.000002 1.891814 0.259399 -1.118345
    44 13.106233 0.000004 0.000002 0.000000 0.000000 1.441441
    45 3.929420 -0.000004 0.000000 -2.142737 0.076068 -1.953216
    46 13.106235 0.000008 -0.000001 0.000000 0.000000 -1.433304
    47 3.007648 4.344526 0.542816 1.831265 0.475391 1.148625
    48 10.074757 0.000000 -0.000002 0.000000 0.000000 -1.351646
    49 10.292004 -0.000004 0.000000 0.000000 0.000000 -0.236588
    50 -2.753412 4.323162 0.558395 1.218297 0.594387 1.799972
    51 10.074760 0.000004 0.000004 0.000000 0.000000 -1.340320
    52 10.292000 -0.000004 -0.000004 0.000000 0.000000 -0.229895
end
