// Created by Crowbar 0.68
version 1
nodes
  0 "ValveBiped.Bip01" -1
  1 "ValveBiped.Bip01_Pelvis" 0
  2 "ValveBiped.Bip01_L_Thigh" 1
  3 "ValveBiped.Bip01_L_Calf" 2
  4 "ValveBiped.Bip01_L_Foot" 3
  5 "ValveBiped.Bip01_L_Toe0" 4
  6 "ValveBiped.Bip01_R_Thigh" 1
  7 "ValveBiped.Bip01_R_Calf" 6
  8 "ValveBiped.Bip01_R_Foot" 7
  9 "ValveBiped.Bip01_R_Toe0" 8
  10 "ValveBiped.Bip01_Spine" 0
  11 "ValveBiped.Bip01_Spine1" 10
  12 "ValveBiped.Bip01_Spine2" 11
  13 "ValveBiped.Bip01_Spine4" 12
  14 "ValveBiped.Bip01_Head1" 13
  15 "ValveBiped.Bip01_L_Clavicle" 13
  16 "ValveBiped.Bip01_L_UpperArm" 15
  17 "ValveBiped.Bip01_L_Forearm" 16
  18 "ValveBiped.Bip01_L_Hand" 17
  19 "ValveBiped.Bip01_L_Finger3" 18
  20 "ValveBiped.Bip01_L_Finger31" 19
  21 "ValveBiped.Bip01_L_Finger32" 20
  22 "ValveBiped.Bip01_L_Finger1" 18
  23 "ValveBiped.Bip01_L_Finger11" 22
  24 "ValveBiped.Bip01_L_Finger12" 23
  25 "ValveBiped.Bip01_L_Finger2" 18
  26 "ValveBiped.Bip01_L_Finger21" 25
  27 "ValveBiped.Bip01_L_Finger22" 26
  28 "ValveBiped.Bip01_R_Clavicle" 13
  29 "ValveBiped.Bip01_R_UpperArm" 28
  30 "ValveBiped.Bip01_R_Forearm" 29
  31 "ValveBiped.Bip01_R_Hand" 30
  32 "ValveBiped.Bip01_R_Finger3" 31
  33 "ValveBiped.Bip01_R_Finger31" 32
  34 "ValveBiped.Bip01_R_Finger32" 33
  35 "ValveBiped.Bip01_R_Finger2" 31
  36 "ValveBiped.Bip01_R_Finger21" 35
  37 "ValveBiped.Bip01_R_Finger22" 36
  38 "ValveBiped.Bip01_R_Finger1" 31
  39 "ValveBiped.Bip01_R_Finger11" 38
  40 "ValveBiped.Bip01_R_Finger12" 39
  41 "ValveBiped.HC_BodyCube" 13
  42 "ValveBiped.HC_HeadCube" 41
  43 "ValveBiped.HC_BoneLF" 42
  44 "ValveBiped.HC_BoneLF1" 43
  45 "ValveBiped.HC_BoneRF" 42
  46 "ValveBiped.HC_BoneRF1" 45
  47 "ValveBiped.HC_BoneLB" 41
  48 "ValveBiped.HC_BoneLB1" 47
  49 "ValveBiped.HC_BoneLB2" 48
  50 "ValveBiped.HC_BoneRB" 41
  51 "ValveBiped.HC_BoneRB1" 50
  52 "ValveBiped.HC_BoneRB2" 51
end
skeleton
  time 0
    0 -0.011719 17.816543 15.814238 2.207300 -0.258438 -0.412013
    1 0.000000 0.000000 0.000000 0.000000 0.000000 0.021550
    2 3.890447 0.000000 0.000000 -3.425783 -0.767933 0.438287
    3 17.591007 0.000000 -0.000003 0.000000 0.000000 2.294654
    4 17.699610 -0.000001 -0.000002 -0.386733 0.358222 -1.460002
    5 6.879457 0.000008 0.000001 -0.007299 -0.002951 -0.584373
    6 -3.890447 0.000000 0.000000 -0.720951 -0.842012 -2.861055
    7 17.590990 0.000000 0.000001 0.000000 0.000000 2.137393
    8 17.699574 0.000001 0.000001 0.215196 -0.223644 -1.982768
    9 6.879451 -0.000002 -0.000002 -0.081334 -0.002949 -0.584373
    10 0.000000 3.345131 -2.981898 1.987179 -0.199788 1.439194
    11 4.126656 0.000000 0.000000 0.511004 -0.211419 -0.129803
    12 3.612865 0.000000 0.000000 -0.435200 -0.419179 0.756065
    13 9.183983 0.000000 0.000000 -0.654159 0.034948 0.546506
    14 4.278881 0.081502 -1.265664 3.637739 0.496153 0.415578
    15 1.663036 1.210508 2.595493 -0.579746 -1.063620 4.902971
    16 6.028141 0.000004 0.000000 -2.571837 -0.367097 -0.161672
    17 12.692978 0.000001 0.000023 0.000000 0.000000 -2.504162
    18 11.575961 0.000002 -0.000019 2.199658 0.517912 0.584563
    19 5.562228 -0.288269 -0.510574 3.173842 0.086066 -1.146271
    20 5.158491 0.000002 0.000004 -0.000024 0.244901 1.129229
    21 3.326000 -0.000004 0.000008 0.010815 -0.004069 0.400421
    22 5.591165 -0.279015 1.848881 3.149191 -0.377287 -1.483153
    23 5.292999 0.000000 0.000008 0.000006 0.000438 0.735312
    24 3.079115 -0.000004 0.000000 0.006976 -0.006848 1.321218
    25 5.739734 -0.095432 0.607277 3.163658 -0.128698 -1.291242
    26 5.652496 -0.000002 0.000000 -0.000021 0.072672 0.900473
    27 3.325010 -0.000003 -0.000008 0.009331 -0.006636 1.221887
    28 1.663048 1.210514 -2.595442 -0.971197 0.994500 2.778229
    29 6.028137 0.000004 0.000000 2.146024 0.232310 -1.422949
    30 12.693001 0.000000 0.000004 0.000000 0.000000 -1.582877
    31 11.599612 0.000008 -0.000004 -1.517493 -0.725958 1.145896
    32 5.928187 0.378914 0.637287 -3.092626 -0.415446 -1.822148
    33 5.073999 0.000000 0.000008 -0.000007 0.330895 1.977929
    34 3.325997 0.000002 0.000004 0.000000 0.000000 0.832520
    35 6.189649 0.568802 -0.554352 -3.106727 -0.188564 -1.753892
    36 5.510998 0.000005 0.000008 0.000001 -0.029189 1.511784
    37 3.325017 -0.000004 0.000008 0.000000 0.000000 0.822635
    38 5.900459 0.299202 -1.780357 -3.083472 -0.196111 -1.878767
    39 5.248498 0.000008 -0.000008 0.000010 0.105225 1.680964
    40 3.151004 0.000002 0.000000 0.000000 0.000000 0.822504
    41 7.772320 1.896335 -3.008281 -2.683666 -0.982702 5.831650
    42 0.162354 -7.207031 -2.447266 1.179746 0.332156 -2.903564
    43 -3.929419 0.000004 0.000002 1.787405 0.732420 -1.751356
    44 13.106233 0.000004 0.000002 0.000000 0.000000 2.175675
    45 3.929420 -0.000004 0.000000 1.745416 1.379481 1.596990
    46 13.106235 0.000008 -0.000001 0.000000 0.000000 -2.591475
    47 3.007648 4.344526 0.542816 1.239115 0.570859 0.484219
    48 10.074757 0.000000 -0.000002 0.000000 0.000000 -1.306997
    49 10.292004 -0.000004 0.000000 0.000000 0.000000 -0.209417
    50 -2.753412 4.323162 0.558395 2.268236 0.269358 3.056915
    51 10.074760 0.000004 0.000004 0.000000 0.000000 -1.735450
    52 10.292000 -0.000004 -0.000004 0.000000 0.000000 -0.508768
  time 1
    0 0.085940 17.714977 15.915804 2.191414 -0.259405 -0.372010
    1 0.000000 0.000000 0.000000 0.000000 0.000000 0.021550
    2 3.890447 0.000000 0.000000 -3.448850 -0.840012 0.489259
    3 17.591007 0.000000 -0.000003 0.000000 0.000000 2.295722
    4 17.699610 -0.000001 -0.000002 -0.424084 0.332479 -1.473238
    5 6.879457 0.000008 0.000001 -0.007299 -0.002951 -0.584373
    6 -3.890447 0.000000 0.000000 -0.711007 -0.789698 -2.845472
    7 17.590990 0.000000 0.000001 0.000000 0.000000 2.122598
    8 17.699574 0.000001 0.000001 0.210300 -0.239208 -1.979219
    9 6.879451 -0.000002 -0.000002 -0.081334 -0.002949 -0.584373
    10 0.000000 3.345131 -2.981898 1.979587 -0.195561 1.443770
    11 4.126656 0.000000 0.000000 0.501927 -0.209972 -0.126928
    12 3.612865 0.000000 0.000000 -0.428319 -0.402197 0.724399
    13 9.183983 0.000000 0.000000 -0.632486 0.008697 0.531115
    14 4.345289 -0.020064 -1.203162 3.597760 0.467557 0.343617
    15 1.663036 1.210508 2.595493 -0.587866 -1.070609 4.912035
    16 6.028141 0.000004 0.000000 -2.617564 -0.288615 -0.177509
    17 12.692978 0.000001 0.000023 0.000000 0.000000 -2.495428
    18 11.575961 0.000002 -0.000019 2.140124 0.480861 0.548316
    19 5.562228 -0.288269 -0.510574 3.173748 0.086066 -1.146271
    20 5.158491 0.000002 0.000004 -0.000024 0.244901 1.129229
    21 3.326000 -0.000004 0.000008 0.010815 -0.004069 0.400421
    22 5.591165 -0.279015 1.848881 3.149191 -0.377287 -1.483153
    23 5.292999 0.000000 0.000008 0.000006 0.000438 0.735312
    24 3.079115 -0.000004 0.000000 0.006976 -0.006848 1.321218
    25 5.739734 -0.095432 0.607277 3.163658 -0.128698 -1.291242
    26 5.652496 -0.000002 0.000000 -0.000021 0.072672 0.900473
    27 3.325010 -0.000003 -0.000008 0.009331 -0.006636 1.221887
    28 1.663048 1.210514 -2.595442 -0.971197 0.994500 2.778229
    29 6.028137 0.000004 0.000000 2.166794 0.196621 -1.391435
    30 12.693001 0.000000 0.000004 0.000000 0.000000 -1.565572
    31 11.599612 0.000008 -0.000004 -1.521343 -0.728872 1.127723
    32 5.928187 0.378914 0.637287 -3.092626 -0.415446 -1.822148
    33 5.073999 0.000000 0.000008 -0.000007 0.330512 1.980218
    34 3.325997 0.000002 0.000004 0.000000 0.000000 0.832520
    35 6.189649 0.568802 -0.554352 -3.106727 -0.188564 -1.753892
    36 5.510998 0.000005 0.000008 0.000001 -0.029189 1.511784
    37 3.325017 -0.000004 0.000008 0.000000 0.000000 0.822635
    38 5.900459 0.299202 -1.780357 -3.083472 -0.196111 -1.878767
    39 5.248498 0.000008 -0.000008 0.000010 0.105225 1.681029
    40 3.151004 0.000002 0.000000 0.000000 0.000000 0.822504
    41 7.737162 1.591638 -2.840307 -2.737630 -0.998554 5.860417
    42 0.162354 -7.207031 -2.447266 1.179746 0.332156 -2.903564
    43 -3.929419 0.000004 0.000002 1.771769 0.752264 -1.713436
    44 13.106233 0.000004 0.000002 0.000000 0.000000 2.225995
    45 3.929420 -0.000004 0.000000 1.572907 1.457490 1.510095
    46 13.106235 0.000008 -0.000001 0.000000 0.000000 -2.606818
    47 3.007648 4.344526 0.542816 1.252399 0.529838 0.506091
    48 10.074757 0.000000 -0.000002 0.000000 0.000000 -1.340733
    49 10.292004 -0.000004 0.000000 0.000000 0.000000 -0.229879
    50 -2.753412 4.323162 0.558395 2.254896 0.274833 3.038661
    51 10.074760 0.000004 0.000004 0.000000 0.000000 -1.730723
    52 10.292000 -0.000004 -0.000004 0.000000 0.000000 -0.504856
  time 2
    0 0.355479 17.461063 16.157999 2.149362 -0.257888 -0.271307
    1 0.000000 0.000000 0.000000 0.000000 0.000000 0.021550
    2 3.890447 0.000000 0.000000 -3.541408 -0.996671 0.643211
    3 17.591007 0.000000 -0.000003 0.000000 0.000000 2.299309
    4 17.699610 -0.000001 -0.000002 -0.494052 0.274465 -1.493121
    5 6.879457 0.000008 0.000001 -0.007299 -0.002951 -0.584373
    6 -3.890447 0.000000 0.000000 -0.685042 -0.656765 -2.806660
    7 17.590990 0.000000 0.000001 0.000000 0.000000 2.084097
    8 17.699574 0.000001 0.000001 0.198000 -0.281936 -1.966963
    9 6.879451 -0.000002 -0.000002 -0.081334 -0.002949 -0.584373
    10 0.000000 3.345131 -2.981898 1.958649 -0.183680 1.454390
    11 4.126656 0.000000 0.000000 0.476819 -0.206038 -0.119004
    12 3.612865 0.000000 0.000000 -0.409269 -0.357488 0.644714
    13 9.183983 0.000000 0.000000 -0.579001 -0.053247 0.491323
    14 4.466387 -0.293510 -1.031281 3.502653 0.391310 0.168054
    15 1.663036 1.210508 2.595493 -0.611661 -1.089455 4.938378
    16 6.028141 0.000004 0.000000 -2.713182 -0.110488 -0.239380
    17 12.692978 0.000001 0.000023 0.000000 0.000000 -2.433364
    18 11.575961 0.000002 -0.000019 2.001394 0.378940 0.464281
    19 5.562228 -0.288269 -0.510574 3.173842 0.086066 -1.146271
    20 5.158491 0.000002 0.000004 -0.000024 0.244901 1.129229
    21 3.326000 -0.000004 0.000008 0.010815 -0.004069 0.400421
    22 5.591165 -0.279015 1.848881 3.149191 -0.377287 -1.483153
    23 5.292999 0.000000 0.000008 0.000006 0.000438 0.735312
    24 3.079115 -0.000004 0.000000 0.006976 -0.006848 1.321218
    25 5.739734 -0.095432 0.607277 3.163658 -0.128698 -1.291242
    26 5.652496 -0.000002 0.000000 -0.000021 0.072672 0.900473
    27 3.325010 -0.000003 -0.000008 0.009331 -0.006636 1.221887
    28 1.663048 1.210514 -2.595442 -0.971197 0.994500 2.778229
    29 6.028137 0.000004 0.000000 2.211766 0.110273 -1.314710
    30 12.693001 0.000000 0.000004 0.000000 0.000000 -1.510725
    31 11.599612 0.000008 -0.000004 -1.531150 -0.736351 1.078138
    32 5.928187 0.378914 0.637287 -3.092626 -0.415446 -1.822148
    33 5.073999 0.000000 0.000008 -0.000007 0.330092 1.983541
    34 3.325997 0.000002 0.000004 0.000000 0.000000 0.832520
    35 6.189649 0.568802 -0.554352 -3.106727 -0.188564 -1.753892
    36 5.510998 0.000005 0.000008 0.000001 -0.029189 1.511784
    37 3.325017 -0.000004 0.000008 0.000000 0.000000 0.822635
    38 5.900459 0.299202 -1.780357 -3.083472 -0.196111 -1.878767
    39 5.248498 0.000008 -0.000008 0.000010 0.105225 1.681094
    40 3.151004 0.000002 0.000000 0.000000 0.000000 0.822504
    41 7.647316 0.814271 -2.430138 -2.872396 -1.038027 5.932427
    42 0.162354 -7.207031 -2.447266 1.179746 0.332156 -2.903564
    43 -3.929419 0.000004 0.000002 1.718081 0.805293 -1.608635
    44 13.106233 0.000004 0.000002 0.000000 0.000000 2.307783
    45 3.929420 -0.000004 0.000000 -0.962368 1.460647 -0.868633
    46 13.106235 0.000008 -0.000001 0.000000 0.000000 -2.607630
    47 3.007648 4.344526 0.542816 1.274307 0.428683 0.548276
    48 10.074757 0.000000 -0.000002 0.000000 0.000000 -1.418057
    49 10.292004 -0.000004 0.000000 0.000000 0.000000 -0.278550
    50 -2.753412 4.323162 0.558395 2.220962 0.293972 2.996948
    51 10.074760 0.000004 0.000004 0.000000 0.000000 -1.716603
    52 10.292000 -0.000004 -0.000004 0.000000 0.000000 -0.492977
  time 3
    0 0.769554 17.121209 16.435351 2.091248 -0.247501 -0.139562
    1 0.000000 0.000000 0.000000 0.000000 0.000000 0.021550
    2 3.890447 0.000000 0.000000 -3.765289 -1.153421 0.933653
    3 17.591007 0.000000 -0.000003 0.000000 0.000000 2.306024
    4 17.699610 -0.000001 -0.000002 -0.550254 0.211484 -1.501159
    5 6.879457 0.000008 0.000001 -0.007299 -0.002951 -0.584373
    6 -3.890447 0.000000 0.000000 -0.650330 -0.480613 -2.755324
    7 17.590990 0.000000 0.000001 0.000000 0.000000 2.031046
    8 17.699574 0.000001 0.000001 0.182019 -0.343935 -1.943338
    9 6.879451 -0.000002 -0.000002 -0.081334 -0.002949 -0.584373
    10 0.000000 3.345131 -2.981898 1.927331 -0.165343 1.466535
    11 4.126656 0.000000 0.000000 0.438845 -0.200107 -0.107153
    12 3.612865 0.000000 0.000000 -0.378511 -0.294525 0.540255
    13 9.183983 0.000000 0.000000 -0.501945 -0.127833 0.438048
    14 4.513263 -0.664615 -0.761742 3.388467 0.283744 -0.050764
    15 1.663036 1.210508 2.595493 -0.650753 -1.116939 4.981622
    16 6.028141 0.000004 0.000000 -2.797440 0.052595 -0.325529
    17 12.692978 0.000001 0.000023 0.000000 0.000000 -2.273292
    18 11.575961 0.000002 -0.000019 1.837449 0.229293 0.366128
    19 5.562228 -0.288269 -0.510574 3.173842 0.086066 -1.146271
    20 5.158491 0.000002 0.000004 -0.000024 0.244901 1.129229
    21 3.326000 -0.000004 0.000008 0.010815 -0.004069 0.400421
    22 5.591165 -0.279015 1.848881 3.149191 -0.377287 -1.483153
    23 5.292999 0.000000 0.000008 0.000006 0.000438 0.735312
    24 3.079115 -0.000004 0.000000 0.006976 -0.006848 1.321218
    25 5.739734 -0.095432 0.607277 3.163658 -0.128698 -1.291242
    26 5.652496 -0.000002 0.000000 -0.000021 0.072672 0.900473
    27 3.325010 -0.000003 -0.000008 0.009331 -0.006636 1.221887
    28 1.663048 1.210514 -2.595442 -0.971197 0.994500 2.778229
    29 6.028137 0.000004 0.000000 2.265123 0.004901 -1.208387
    30 12.693001 0.000000 0.000004 0.000000 0.000000 -1.421888
    31 11.599612 0.000008 -0.000004 -1.546456 -0.747668 1.012474
    32 5.928187 0.378914 0.637287 -3.092626 -0.415446 -1.822148
    33 5.073999 0.000000 0.000008 -0.000007 0.330212 1.983615
    34 3.325997 0.000002 0.000004 0.000000 0.000000 0.832520
    35 6.189649 0.568802 -0.554352 -3.106727 -0.188564 -1.753892
    36 5.510998 0.000005 0.000008 0.000001 -0.029189 1.511784
    37 3.325017 -0.000004 0.000008 0.000000 0.000000 0.822635
    38 5.900459 0.299202 -1.780357 -3.083472 -0.196111 -1.878767
    39 5.248498 0.000008 -0.000008 0.000010 0.105225 1.681094
    40 3.151004 0.000002 0.000000 0.000000 0.000000 0.822504
    41 7.537937 -0.193572 -1.887153 -3.047612 -1.089374 6.026013
    42 0.162354 -7.207031 -2.447266 1.179746 0.332156 -2.903564
    43 -3.929419 0.000004 0.000002 1.618900 0.879156 -1.471725
    44 13.106233 0.000004 0.000002 0.000000 0.000000 2.315191
    45 3.929420 -0.000004 0.000000 -1.240456 1.213211 -1.031136
    46 13.106235 0.000008 -0.000001 0.000000 0.000000 -2.551314
    47 3.007648 4.344526 0.542816 1.277575 0.306676 0.575960
    48 10.074757 0.000000 -0.000002 0.000000 0.000000 -1.502795
    49 10.292004 -0.000004 0.000000 0.000000 0.000000 -0.334425
    50 -2.753412 4.323162 0.558395 2.175014 0.324904 2.945293
    51 10.074760 0.000004 0.000004 0.000000 0.000000 -1.695662
    52 10.292000 -0.000004 -0.000004 0.000000 0.000000 -0.476237
  time 4
    0 1.300821 16.765730 16.658014 2.028112 -0.225029 -0.007078
    1 0.000000 0.000000 0.000000 0.000000 0.000000 0.021550
    2 3.890447 0.000000 0.000000 -4.174573 -1.252051 1.404099
    3 17.591007 0.000000 -0.000003 0.000000 0.000000 2.318310
    4 17.699610 -0.000001 -0.000002 -0.587079 0.156139 -1.500253
    5 6.879457 0.000008 0.000001 -0.007299 -0.002951 -0.584373
    6 -3.890447 0.000000 0.000000 -0.617183 -0.299244 -2.701407
    7 17.590990 0.000000 0.000001 0.000000 0.000000 1.973989
    8 17.699574 0.000001 0.000001 0.165685 -0.414083 -1.908954
    9 6.879451 -0.000002 -0.000002 -0.081334 -0.002949 -0.584373
    10 0.000000 3.345131 -2.981898 1.888421 -0.141809 1.475806
    11 4.126656 0.000000 0.000000 0.391238 -0.192801 -0.092334
    12 3.612865 0.000000 0.000000 -0.333633 -0.223035 0.434065
    13 9.183983 0.000000 0.000000 -0.401556 -0.193360 0.381614
    14 4.435136 -1.012282 -0.460952 3.282622 0.169170 -0.258827
    15 1.663036 1.210508 2.595493 -0.706652 -1.149645 5.042522
    16 6.028141 0.000004 0.000000 -2.845154 0.144510 -0.399669
    17 12.692978 0.000001 0.000023 0.000000 0.000000 -2.012021
    18 11.575961 0.000002 -0.000019 1.677145 0.062667 0.269215
    19 5.562228 -0.288269 -0.510574 3.173842 0.086066 -1.146271
    20 5.158491 0.000002 0.000004 -0.000024 0.244901 1.129229
    21 3.326000 -0.000004 0.000008 0.010815 -0.004069 0.400421
    22 5.591165 -0.279015 1.848881 3.149191 -0.377287 -1.483153
    23 5.292999 0.000000 0.000008 0.000006 0.000438 0.735312
    24 3.079115 -0.000004 0.000000 0.006976 -0.006848 1.321218
    25 5.739734 -0.095432 0.607277 3.163658 -0.128698 -1.291242
    26 5.652496 -0.000002 0.000000 -0.000021 0.072672 0.900473
    27 3.325010 -0.000003 -0.000008 0.009331 -0.006636 1.221887
    28 1.663048 1.210514 -2.595442 -0.971197 0.994500 2.778229
    29 6.028137 0.000004 0.000000 2.320670 -0.089200 -1.074669
    30 12.693001 0.000000 0.000004 0.000000 0.000000 -1.313603
    31 11.599612 0.000008 -0.000004 -1.569737 -0.764182 0.953835
    32 5.928187 0.378914 0.637287 -3.092626 -0.415446 -1.822148
    33 5.073999 0.000000 0.000008 -0.000007 0.330667 1.980292
    34 3.325997 0.000002 0.000004 0.000000 0.000000 0.832520
    35 6.189649 0.568802 -0.554352 -3.106727 -0.188564 -1.753892
    36 5.510998 0.000005 0.000008 0.000001 -0.029189 1.511784
    37 3.325017 -0.000004 0.000008 0.000000 0.000000 0.822635
    38 5.900459 0.299202 -1.780357 -3.083472 -0.196111 -1.878767
    39 5.248498 0.000008 -0.000008 0.000010 0.105225 1.681029
    40 3.151004 0.000002 0.000000 0.000000 0.000000 0.822504
    41 7.424653 -1.193603 -1.344168 -3.223019 -1.140720 -0.163306
    42 0.162354 -7.207031 -2.447266 1.179746 0.332156 -2.903564
    43 -3.929419 0.000004 0.000002 1.504743 0.929523 -1.362922
    44 13.106233 0.000004 0.000002 0.000000 0.000000 2.214625
    45 3.929420 -0.000004 0.000000 -1.301600 0.994084 -1.028845
    46 13.106235 0.000008 -0.000001 0.000000 0.000000 -2.460430
    47 3.007648 4.344526 0.542816 1.252453 0.214999 0.572425
    48 10.074757 0.000000 -0.000002 0.000000 0.000000 -1.562057
    49 10.292004 -0.000004 0.000000 0.000000 0.000000 -0.375817
    50 -2.753412 4.323162 0.558395 2.127428 0.352326 2.892162
    51 10.074760 0.000004 0.000004 0.000000 0.000000 -1.675140
    52 10.292000 -0.000004 -0.000004 0.000000 0.000000 -0.460043
  time 5
    0 1.910214 16.468846 16.724422 1.969414 -0.191736 0.096581
    1 0.000000 0.000000 0.000000 0.000000 0.000000 0.021550
    2 3.890447 0.000000 0.000000 -4.626260 -1.268976 -4.377651
    3 17.591007 0.000000 -0.000003 0.000000 0.000000 2.340899
    4 17.699610 -0.000001 -0.000002 -0.608560 0.111961 -1.498017
    5 6.879457 0.000008 0.000001 -0.007299 -0.002951 -0.584373
    6 -3.890447 0.000000 0.000000 -0.598860 -0.148488 -2.657145
    7 17.590990 0.000000 0.000001 0.000000 0.000000 1.926333
    8 17.699574 0.000001 0.000001 0.151623 -0.481185 -1.869800
    9 6.879451 -0.000002 -0.000002 -0.081334 -0.002949 -0.584373
    10 0.000000 3.345131 -2.981898 1.843877 -0.114304 1.477800
    11 4.126656 0.000000 0.000000 0.337185 -0.184643 -0.075714
    12 3.612865 0.000000 0.000000 -0.265007 -0.153235 0.349247
    13 9.183983 0.000000 0.000000 -0.271756 -0.229254 0.331530
    14 4.298413 -1.234945 -0.210944 3.204869 0.077968 -0.411629
    15 1.663036 1.210508 2.595493 -0.780020 -1.183999 5.122117
    16 6.028141 0.000004 0.000000 -2.905839 0.146351 -0.472940
    17 12.692978 0.000001 0.000023 0.000000 0.000000 -1.625111
    18 11.575961 0.000002 -0.000019 1.518298 -0.080180 0.173542
    19 5.562228 -0.288269 -0.510574 3.173842 0.086066 -1.146271
    20 5.158491 0.000002 0.000004 -0.000024 0.244901 1.129229
    21 3.326000 -0.000004 0.000008 0.010815 -0.004069 0.400421
    22 5.591165 -0.279015 1.848881 3.149191 -0.377287 -1.483153
    23 5.292999 0.000000 0.000008 0.000006 0.000438 0.735312
    24 3.079115 -0.000004 0.000000 0.006976 -0.006848 1.321218
    25 5.739734 -0.095432 0.607277 3.163658 -0.128698 -1.291242
    26 5.652496 -0.000002 0.000000 -0.000021 0.072672 0.900473
    27 3.325010 -0.000003 -0.000008 0.009331 -0.006636 1.221887
    28 1.663048 1.210514 -2.595442 -0.971197 0.994500 2.778229
    29 6.028137 0.000004 0.000000 2.390129 -0.146854 -0.903307
    30 12.693001 0.000000 0.000004 0.000000 0.000000 -1.208362
    31 11.599612 0.000008 -0.000004 -1.611807 -0.792109 0.934177
    32 5.928187 0.378914 0.637287 -3.092626 -0.415446 -1.822148
    33 5.073999 0.000000 0.000008 -0.000007 0.330895 1.977929
    34 3.325997 0.000002 0.000004 0.000000 0.000000 0.832520
    35 6.189649 0.568802 -0.554352 -3.106727 -0.188564 -1.753892
    36 5.510998 0.000005 0.000008 0.000001 -0.029189 1.511784
    37 3.325017 -0.000004 0.000008 0.000000 0.000000 0.822635
    38 5.900459 0.299202 -1.780357 -3.083472 -0.196111 -1.878767
    39 5.248498 0.000008 -0.000008 0.000010 0.105225 1.680964
    40 3.151004 0.000002 0.000000 0.000000 0.000000 0.822504
    41 7.334806 -1.967064 -0.930093 -3.357786 -1.180193 -0.091296
    42 0.162354 -7.207031 -2.447266 1.179746 0.332156 -2.903564
    43 -3.929419 0.000004 0.000002 1.418277 0.933826 -1.285369
    44 13.106233 0.000004 0.000002 0.000000 0.000000 2.072614
    45 3.929420 -0.000004 0.000000 -1.318216 0.823734 -0.998466
    46 13.106235 0.000008 -0.000001 0.000000 0.000000 -2.383897
    47 3.007648 4.344526 0.542816 1.206923 0.207100 0.528921
    48 10.074757 0.000000 -0.000002 0.000000 0.000000 -1.569918
    49 10.292004 -0.000004 0.000000 0.000000 0.000000 -0.381371
    50 -2.753412 4.323162 0.558395 2.094586 0.349939 2.849284
    51 10.074760 0.000004 0.000004 0.000000 0.000000 -1.664071
    52 10.292000 -0.000004 -0.000004 0.000000 0.000000 -0.451491
  time 6
    0 2.593829 16.296965 16.611138 1.940912 -0.151808 0.081892
    1 0.000000 0.000000 0.000000 0.000000 0.000000 0.021550
    2 3.890447 0.000000 0.000000 -4.707236 -1.290783 -4.283260
    3 17.591007 0.000000 -0.000003 0.000000 0.000000 2.380580
    4 17.699610 -0.000001 -0.000002 -0.615312 0.073203 -1.519109
    5 6.879457 0.000008 0.000001 -0.007299 -0.002951 -0.584373
    6 -3.890447 0.000000 0.000000 -0.625930 -0.129649 -2.660395
    7 17.590990 0.000000 0.000001 0.000000 0.000000 1.911374
    8 17.699574 0.000001 0.000001 0.138148 -0.527106 -1.831978
    9 6.879451 -0.000002 -0.000002 -0.081334 -0.002949 -0.584373
    10 0.000000 3.345131 -2.981898 1.795595 -0.093340 1.472579
    11 4.126656 0.000000 0.000000 0.329484 -0.173837 -0.075036
    12 3.612865 0.000000 0.000000 -0.146727 -0.105781 0.286692
    13 9.183983 0.000000 0.000000 -0.116280 -0.240406 0.295492
    14 4.208567 -1.328698 -0.078127 3.164889 0.029911 -0.488753
    15 1.663036 1.210508 2.595493 -0.870856 -1.216705 5.219557
    16 6.028141 0.000004 0.000000 -2.868065 0.093630 -0.542207
    17 12.692978 0.000001 0.000023 0.000000 0.000000 -1.129359
    18 11.575961 0.000002 -0.000019 1.338058 -0.184697 0.101907
    19 5.562228 -0.288269 -0.510574 3.173842 0.086066 -1.146271
    20 5.158491 0.000002 0.000004 -0.000024 0.244901 1.129229
    21 3.326000 -0.000004 0.000008 0.010815 -0.004069 0.400421
    22 5.591165 -0.279015 1.848881 3.149191 -0.377287 -1.483153
    23 5.292999 0.000000 0.000008 0.000006 0.000438 0.735312
    24 3.079115 -0.000004 0.000000 0.006976 -0.006848 1.321218
    25 5.739734 -0.095432 0.607277 3.163658 -0.128698 -1.291242
    26 5.652496 -0.000002 0.000000 -0.000021 0.072672 0.900473
    27 3.325010 -0.000003 -0.000008 0.009331 -0.006636 1.221887
    28 1.663048 1.210514 -2.595442 -0.971197 0.994500 2.778229
    29 6.028137 0.000004 0.000000 2.491601 -0.189315 -0.690756
    30 12.693001 0.000000 0.000004 0.000000 0.000000 -1.178656
    31 11.599612 0.000008 -0.000004 -1.684124 -0.834850 1.001597
    32 5.928187 0.378914 0.637287 -3.092626 -0.415446 -1.822148
    33 5.073999 0.000000 0.000008 -0.000007 0.330895 1.978151
    34 3.325997 0.000002 0.000004 0.000000 0.000000 0.832520
    35 6.189649 0.568802 -0.554352 -3.106727 -0.188564 -1.753892
    36 5.510998 0.000005 0.000008 0.000001 -0.029189 1.511784
    37 3.325017 -0.000004 0.000008 0.000000 0.000000 0.822635
    38 5.900459 0.299202 -1.780357 -3.083472 -0.196111 -1.878767
    39 5.248498 0.000008 -0.000008 0.000010 0.105225 1.680964
    40 3.151004 0.000002 0.000000 0.000000 0.000000 0.822504
    41 7.280117 -2.451454 -0.672272 -3.376093 -1.197877 -0.113154
    42 0.162354 -7.207031 -2.447266 1.179746 0.332156 -2.903564
    43 -3.929419 0.000004 0.000002 1.344998 0.909772 -1.198002
    44 13.106233 0.000004 0.000002 0.000000 0.000000 1.947474
    45 3.929420 -0.000004 0.000000 -1.308694 0.668887 -0.919803
    46 13.106235 0.000008 -0.000001 0.000000 0.000000 -2.334439
    47 3.007648 4.344526 0.542816 1.145323 0.298935 0.433225
    48 10.074757 0.000000 -0.000002 0.000000 0.000000 -1.523643
    49 10.292004 -0.000004 0.000000 0.000000 0.000000 -0.348837
    50 -2.753412 4.323162 0.558395 2.082495 0.294627 2.814019
    51 10.074760 0.000004 0.000004 0.000000 0.000000 -1.669995
    52 10.292000 -0.000004 -0.000004 0.000000 0.000000 -0.456049
  time 7
    0 3.312601 16.250089 16.384568 1.941379 -0.103612 -0.071657
    1 0.000000 0.000000 0.000000 0.000000 0.000000 0.021550
    2 3.890447 0.000000 0.000000 -4.184528 -1.348355 1.454693
    3 17.591007 0.000000 -0.000003 0.000000 0.000000 2.433464
    4 17.699610 -0.000001 -0.000002 -0.608473 0.035882 -1.575074
    5 6.879457 0.000008 0.000001 -0.007299 -0.002951 -0.584373
    6 -3.890447 0.000000 0.000000 -0.698853 -0.277173 -2.705422
    7 17.590990 0.000000 0.000001 0.000000 0.000000 1.928949
    8 17.699574 0.000001 0.000001 0.125692 -0.546377 -1.792936
    9 6.879451 -0.000002 -0.000002 -0.081334 -0.002949 -0.584373
    10 0.000000 3.345131 -2.981898 1.746899 -0.085515 1.464423
    11 4.126656 0.000000 0.000000 0.367845 -0.162799 -0.092801
    12 3.612865 0.000000 0.000000 -0.028216 -0.084854 0.246460
    13 9.183983 0.000000 0.000000 0.019657 -0.240225 0.278630
    14 4.181222 -1.352136 -0.042970 3.153864 0.016426 -0.510028
    15 1.663036 1.210508 2.595493 -0.975668 -1.244660 5.331066
    16 6.028141 0.000004 0.000000 -2.517212 0.099335 -0.639495
    17 12.692978 0.000001 0.000023 0.000000 0.000000 -0.687188
    18 11.575961 0.000002 -0.000019 1.165647 -0.262715 0.068331
    19 5.562228 -0.288269 -0.510574 3.173842 0.086066 -1.146271
    20 5.158491 0.000002 0.000004 -0.000024 0.244901 1.129229
    21 3.326000 -0.000004 0.000008 0.010815 -0.004069 0.400421
    22 5.591165 -0.279015 1.848881 3.149191 -0.377287 -1.483153
    23 5.292999 0.000000 0.000008 0.000006 0.000438 0.735312
    24 3.079115 -0.000004 0.000000 0.006976 -0.006848 1.321218
    25 5.739734 -0.095432 0.607277 3.163658 -0.128698 -1.291242
    26 5.652496 -0.000002 0.000000 -0.000021 0.072672 0.900473
    27 3.325010 -0.000003 -0.000008 0.009331 -0.006636 1.221887
    28 1.663048 1.210514 -2.595442 -0.971197 0.994500 2.778229
    29 6.028137 0.000004 0.000000 2.538574 -0.173676 -0.514892
    30 12.693001 0.000000 0.000004 0.000000 0.000000 -1.200696
    31 11.599612 0.000008 -0.000004 -1.749384 -0.868168 1.103268
    32 5.928187 0.378914 0.637287 -3.092626 -0.415446 -1.822148
    33 5.073999 0.000000 0.000008 -0.000007 0.330835 1.978520
    34 3.325997 0.000002 0.000004 0.000000 0.000000 0.832520
    35 6.189649 0.568802 -0.554352 -3.106727 -0.188564 -1.753892
    36 5.510998 0.000005 0.000008 0.000001 -0.029189 1.511784
    37 3.325017 -0.000004 0.000008 0.000000 0.000000 0.822635
    38 5.900459 0.299202 -1.780357 -3.083472 -0.196111 -1.878767
    39 5.248498 0.000008 -0.000008 0.000010 0.105225 1.680964
    40 3.151004 0.000002 0.000000 0.000000 0.000000 0.822504
    41 7.244960 -2.767870 -0.500392 -3.265865 -1.196361 6.032069
    42 0.162354 -7.207031 -2.447266 1.179746 0.332156 -2.903564
    43 -3.929419 0.000004 0.000002 1.294136 0.855350 -1.092153
    44 13.106233 0.000004 0.000002 0.000000 0.000000 1.833558
    45 3.929420 -0.000004 0.000000 -1.293852 0.516735 -0.831805
    46 13.106235 0.000008 -0.000001 0.000000 0.000000 -2.287057
    47 3.007648 4.344526 0.542816 1.076814 0.434107 0.308945
    48 10.074757 0.000000 -0.000002 0.000000 0.000000 -1.454081
    49 10.292004 -0.000004 0.000000 0.000000 0.000000 -0.301920
    50 -2.753412 4.323162 0.558395 2.079921 0.208945 2.776035
    51 10.074760 0.000004 0.000004 0.000000 0.000000 -1.687585
    52 10.292000 -0.000004 -0.000004 0.000000 0.000000 -0.469824
  time 8
    0 4.043092 16.281340 16.103310 1.939802 -0.045463 -0.264563
    1 0.000000 0.000000 0.000000 0.000000 0.000000 0.021550
    2 3.890447 0.000000 0.000000 -3.439757 -1.280153 0.685592
    3 17.591007 0.000000 -0.000003 0.000000 0.000000 2.485966
    4 17.699610 -0.000001 -0.000002 -0.594532 0.008867 -1.642037
    5 6.879457 0.000008 0.000001 -0.007299 -0.002951 -0.584373
    6 -3.890447 0.000000 0.000000 -0.781996 -0.491279 -2.738785
    7 17.590990 0.000000 0.000001 0.000000 0.000000 1.952082
    8 17.699574 0.000001 0.000001 0.121070 -0.552911 -1.747238
    9 6.879451 -0.000002 -0.000002 -0.081334 -0.002949 -0.584373
    10 0.000000 3.345131 -2.981898 1.701998 -0.086600 1.454977
    11 4.126656 0.000000 0.000000 0.375908 -0.158300 -0.107223
    12 3.612865 0.000000 0.000000 0.018691 -0.078218 0.252229
    13 9.183983 0.000000 0.000000 0.095112 -0.224946 0.289767
    14 4.200754 -1.336510 -0.070315 3.161726 0.026062 -0.494854
    15 1.663036 1.210508 2.595493 -1.085200 -1.265862 5.446918
    16 6.028141 0.000004 0.000000 -2.084752 0.086178 -0.876535
    17 12.692978 0.000001 0.000023 0.000000 0.000000 -0.544249
    18 11.575961 0.000002 -0.000019 1.033017 -0.311635 0.058983
    19 5.562228 -0.288269 -0.510574 3.173842 0.086066 -1.146271
    20 5.158491 0.000002 0.000004 -0.000024 0.244901 1.129229
    21 3.326000 -0.000004 0.000008 0.010815 -0.004069 0.400421
    22 5.591165 -0.279015 1.848881 3.149191 -0.377287 -1.483153
    23 5.292999 0.000000 0.000008 0.000006 0.000438 0.735312
    24 3.079115 -0.000004 0.000000 0.006976 -0.006848 1.321218
    25 5.739734 -0.095432 0.607277 3.163658 -0.128698 -1.291242
    26 5.652496 -0.000002 0.000000 -0.000021 0.072672 0.900473
    27 3.325010 -0.000003 -0.000008 0.009331 -0.006636 1.221887
    28 1.663048 1.210514 -2.595442 -0.971197 0.994500 2.778229
    29 6.028137 0.000004 0.000000 2.474546 0.002361 -0.460390
    30 12.693001 0.000000 0.000004 0.000000 0.000000 -1.237110
    31 11.599612 0.000008 -0.000004 -1.757449 -0.872005 1.175755
    32 5.928187 0.378914 0.637287 -3.092626 -0.415446 -1.822148
    33 5.073999 0.000000 0.000008 -0.000007 0.330787 1.979184
    34 3.325997 0.000002 0.000004 0.000000 0.000000 0.832520
    35 6.189649 0.568802 -0.554352 -3.106727 -0.188564 -1.753892
    36 5.510998 0.000005 0.000008 0.000001 -0.029189 1.511784
    37 3.325017 -0.000004 0.000008 0.000000 0.000000 0.822635
    38 5.900459 0.299202 -1.780357 -3.083472 -0.196111 -1.878767
    39 5.248498 0.000008 -0.000008 0.000010 0.105225 1.680964
    40 3.151004 0.000002 0.000000 0.000000 0.000000 0.822504
    41 7.221521 -2.955375 -0.398826 -3.082885 -1.182972 5.831745
    42 0.162354 -7.207031 -2.447266 1.179746 0.332156 -2.903564
    43 -3.929419 0.000004 0.000002 1.271436 0.796408 -1.000499
    44 13.106233 0.000004 0.000002 0.000000 0.000000 1.749275
    45 3.929420 -0.000004 0.000000 -1.282276 0.398285 -0.767398
    46 13.106235 0.000008 -0.000001 0.000000 0.000000 -2.247888
    47 3.007648 4.344526 0.542816 1.013125 0.552850 0.194852
    48 10.074757 0.000000 -0.000002 0.000000 0.000000 -1.390739
    49 10.292004 -0.000004 0.000000 0.000000 0.000000 -0.261069
    50 -2.753412 4.323162 0.558395 2.082807 0.129721 2.742634
    51 10.074760 0.000004 0.000004 0.000000 0.000000 -1.707389
    52 10.292000 -0.000004 -0.000004 0.000000 0.000000 -0.485595
  time 9
    0 4.757957 16.359467 15.829864 1.927829 0.008769 -0.440746
    1 0.000000 0.000000 0.000000 0.000000 0.000000 0.021550
    2 3.890447 0.000000 0.000000 -3.123223 -1.126961 0.347672
    3 17.591007 0.000000 -0.000003 0.000000 0.000000 2.530073
    4 17.699610 -0.000001 -0.000002 -0.575418 -0.007638 -1.701749
    5 6.879457 0.000008 0.000001 -0.007299 -0.002951 -0.584373
    6 -3.890447 0.000000 0.000000 -0.869651 -0.703631 -2.742514
    7 17.590990 0.000000 0.000001 0.000000 0.000000 1.966633
    8 17.699574 0.000001 0.000001 0.132390 -0.552617 -1.701152
    9 6.879451 -0.000002 -0.000002 -0.081334 -0.002949 -0.584373
    10 0.000000 3.345131 -2.981898 1.665046 -0.092512 1.446059
    11 4.126656 0.000000 0.000000 0.333443 -0.162843 -0.101940
    12 3.612865 0.000000 0.000000 -0.041155 -0.076236 0.299844
    13 9.183983 0.000000 0.000000 0.060364 -0.188387 0.332781
    14 4.239818 -1.297447 -0.128910 3.179366 0.047244 -0.461180
    15 1.663036 1.210508 2.595493 -1.184629 -1.279800 5.551723
    16 6.028141 0.000004 0.000000 -2.031452 0.003601 -1.160566
    17 12.692978 0.000001 0.000023 0.000000 0.000000 -0.689036
    18 11.575961 0.000002 -0.000019 0.979764 -0.328615 0.059269
    19 5.562228 -0.288269 -0.510574 3.183668 0.080203 -1.003382
    20 5.158491 0.000002 0.000004 -0.000024 0.236375 0.990891
    21 3.326000 -0.000004 0.000008 0.010815 -0.004069 0.400421
    22 5.591165 -0.279015 1.848881 3.162006 -0.360856 -1.332744
    23 5.292999 0.000000 0.000008 0.000006 0.000424 0.600427
    24 3.079115 -0.000004 0.000000 0.007674 -0.004925 1.104902
    25 5.739734 -0.095432 0.607277 3.174330 -0.124716 -1.147842
    26 5.652496 -0.000002 0.000000 -0.000021 0.070168 0.765330
    27 3.325010 -0.000003 -0.000008 0.009814 -0.004287 1.005530
    28 1.663048 1.210514 -2.595442 -0.971197 0.994500 2.778229
    29 6.028137 0.000004 0.000000 2.213195 0.387362 -0.604836
    30 12.693001 0.000000 0.000004 0.000000 0.000000 -1.219185
    31 11.599612 0.000008 -0.000004 -1.667534 -0.825573 1.145558
    32 5.928187 0.378914 0.637287 -3.092626 -0.415446 -1.822148
    33 5.073999 0.000000 0.000008 -0.000007 0.330703 1.979849
    34 3.325997 0.000002 0.000004 0.000000 0.000000 0.832520
    35 6.189649 0.568802 -0.554352 -3.106727 -0.188564 -1.753892
    36 5.510998 0.000005 0.000008 0.000001 -0.029189 1.511784
    37 3.325017 -0.000004 0.000008 0.000000 0.000000 0.822635
    38 5.900459 0.299202 -1.780357 -3.083472 -0.196111 -1.878767
    39 5.248498 0.000008 -0.000008 0.000010 0.105225 1.681029
    40 3.151004 0.000002 0.000000 0.000000 0.000000 0.822504
    41 7.213709 -3.037409 -0.355856 -2.883036 -1.164594 5.622432
    42 0.162354 -7.207031 -2.447266 1.179746 0.332156 -2.903564
    43 -3.929419 0.000004 0.000002 1.265691 0.772200 -0.965533
    44 13.106233 0.000004 0.000002 0.000000 0.000000 1.722282
    45 3.929420 -0.000004 0.000000 -1.277516 0.352629 -0.742620
    46 13.106235 0.000008 -0.000001 0.000000 0.000000 -2.241390
    47 3.007648 4.344526 0.542816 0.991807 0.599241 0.156562
    48 10.074757 0.000000 -0.000002 0.000000 0.000000 -1.367502
    49 10.292004 -0.000004 0.000000 0.000000 0.000000 -0.246424
    50 -2.753412 4.323162 0.558395 2.091232 0.095420 2.734167
    51 10.074760 0.000004 0.000004 0.000000 0.000000 -1.716902
    52 10.292000 -0.000004 -0.000004 0.000000 0.000000 -0.493239
  time 10
    0 5.429853 16.425876 15.630639 1.913170 0.048063 -0.593648
    1 0.000000 0.000000 0.000000 0.000000 0.000000 0.021550
    2 3.890447 0.000000 0.000000 -3.006736 -0.966927 0.200610
    3 17.591007 0.000000 -0.000003 0.000000 0.000000 2.561895
    4 17.699610 -0.000001 -0.000002 -0.550342 -0.018313 -1.752274
    5 6.879457 0.000008 0.000001 -0.007299 -0.002951 -0.584373
    6 -3.890447 0.000000 0.000000 -0.979311 -0.897929 -2.712018
    7 17.590990 0.000000 0.000001 0.000000 0.000000 1.969657
    8 17.699574 0.000001 0.000001 0.164588 -0.544101 -1.662720
    9 6.879451 -0.000002 -0.000002 -0.081334 -0.002949 -0.584373
    10 0.000000 3.345131 -2.981898 1.640134 -0.099024 1.439370
    11 4.126656 0.000000 0.000000 0.276590 -0.174719 -0.086537
    12 3.612865 0.000000 0.000000 -0.153043 -0.075236 0.361561
    13 9.183983 0.000000 0.000000 -0.031220 -0.146857 0.380832
    14 4.282788 -1.254477 -0.183599 3.196815 0.068363 -0.427194
    15 1.663036 1.210508 2.595493 -1.256297 -1.287260 5.626974
    16 6.028141 0.000004 0.000000 -2.158122 -0.087579 -1.224960
    17 12.692978 0.000001 0.000023 0.000000 0.000000 -1.110715
    18 11.575961 0.000002 -0.000019 0.688286 -0.507441 0.603068
    19 5.562228 -0.288269 -0.510574 3.199539 0.065844 -0.738329
    20 5.158491 0.000002 0.000004 -0.000024 0.220512 0.734023
    21 3.326000 -0.000004 0.000008 0.010815 -0.004069 0.400421
    22 5.591165 -0.279015 1.848881 3.183818 -0.334986 -1.051776
    23 5.292999 0.000000 0.000008 0.000006 0.000396 0.349943
    24 3.079115 -0.000004 0.000000 0.009016 -0.001355 0.703116
    25 5.739734 -0.095432 0.607277 3.192255 -0.121178 -0.881111
    26 5.652496 -0.000002 0.000000 -0.000021 0.065542 0.514261
    27 3.325010 -0.000003 -0.000008 0.010702 0.000099 0.603782
    28 1.663048 1.210514 -2.595442 -1.011176 1.014516 2.726703
    29 6.028137 0.000004 0.000000 1.803305 0.770758 -0.976583
    30 12.693001 0.000000 0.000004 0.000000 0.000000 -1.044554
    31 11.599612 0.000008 -0.000004 -1.580278 -0.771467 1.012068
    32 5.928187 0.378914 0.637287 -3.092626 -0.415446 -1.822148
    33 5.073999 0.000000 0.000008 -0.000007 0.330619 1.980735
    34 3.325997 0.000002 0.000004 0.000000 0.000000 0.832520
    35 6.189649 0.568802 -0.554352 -3.106727 -0.188564 -1.753892
    36 5.510998 0.000005 0.000008 0.000001 -0.029189 1.511784
    37 3.325017 -0.000004 0.000008 0.000000 0.000000 0.822635
    38 5.900459 0.299202 -1.780357 -3.083472 -0.196111 -1.878767
    39 5.248498 0.000008 -0.000008 0.000010 0.105225 1.681029
    40 3.151004 0.000002 0.000000 0.000000 0.000000 0.822504
    41 7.213709 -3.029596 -0.355856 -2.722294 -1.148299 5.457687
    42 0.162354 -7.207031 -2.447266 1.179746 0.332156 -2.903564
    43 -3.929419 0.000004 0.000002 1.265220 0.786657 -0.979443
    44 13.106233 0.000004 0.000002 0.000000 0.000000 1.746781
    45 3.929420 -0.000004 0.000000 -1.279102 0.365649 -0.750427
    46 13.106235 0.000008 -0.000001 0.000000 0.000000 -2.261606
    47 3.007648 4.344526 0.542816 1.004287 0.582970 0.176996
    48 10.074757 0.000000 -0.000002 0.000000 0.000000 -1.377155
    49 10.292004 -0.000004 0.000000 0.000000 0.000000 -0.252461
    50 -2.753412 4.323162 0.558395 2.098799 0.103422 2.746284
    51 10.074760 0.000004 0.000004 0.000000 0.000000 -1.716483
    52 10.292000 -0.000004 -0.000004 0.000000 0.000000 -0.492876
  time 11
    0 6.035340 16.461033 15.521261 1.902481 0.073820 -0.715600
    1 0.000000 0.000000 0.000000 0.000000 0.000000 0.021550
    2 3.890447 0.000000 0.000000 -2.974383 -0.824456 0.128401
    3 17.591007 0.000000 -0.000003 0.000000 0.000000 2.582881
    4 17.699610 -0.000001 -0.000002 -0.517199 -0.024718 -1.791739
    5 6.879457 0.000008 0.000001 -0.007299 -0.002951 -0.584373
    6 -3.890447 0.000000 0.000000 -1.135746 -1.058981 -2.626553
    7 17.590990 0.000000 0.000001 0.000000 0.000000 1.961973
    8 17.699574 0.000001 0.000001 0.218016 -0.526115 -1.638263
    9 6.879451 -0.000002 -0.000002 -0.081334 -0.002949 -0.584373
    10 0.000000 3.345131 -2.981898 1.630940 -0.102109 1.436788
    11 4.126656 0.000000 0.000000 0.213146 -0.194205 -0.078449
    12 3.612865 0.000000 0.000000 -0.266496 -0.070999 0.429047
    13 9.183983 0.000000 0.000000 -0.083134 -0.127108 0.402730
    14 4.298413 -1.234945 -0.210944 3.204869 0.077968 -0.411629
    15 1.663036 1.210508 2.595493 -1.283303 -1.289576 5.655300
    16 6.028141 0.000004 0.000000 -2.392624 -0.314055 -0.773939
    17 12.692978 0.000001 0.000023 0.000000 0.000000 -1.272130
    18 11.575961 0.000002 -0.000019 0.185709 -0.464167 1.176627
    19 5.562228 -0.288269 -0.510574 3.206436 0.056535 -0.595838
    20 5.158491 0.000002 0.000004 -0.000024 0.211968 0.595686
    21 3.326000 -0.000004 0.000008 0.010815 -0.004069 0.400421
    22 5.591165 -0.279015 1.848881 3.194172 -0.323408 -0.899522
    23 5.292999 0.000000 0.000008 0.000006 0.000382 0.214996
    24 3.079115 -0.000004 0.000000 0.009751 0.000569 0.486757
    25 5.739734 -0.095432 0.607277 3.200509 -0.121146 -0.737090
    26 5.652496 -0.000002 0.000000 -0.000021 0.063037 0.379039
    27 3.325010 -0.000003 -0.000008 0.011170 0.002448 0.387425
    28 1.663048 1.210514 -2.595442 -1.142724 1.061772 2.566314
    29 6.028137 0.000004 0.000000 1.411803 0.954637 -1.428887
    30 12.693001 0.000000 0.000004 0.000000 0.000000 -0.864963
    31 11.599612 0.000008 -0.000004 -1.544715 -0.746357 0.890468
    32 5.928187 0.378914 0.637287 -3.092626 -0.415446 -1.822148
    33 5.073999 0.000000 0.000008 -0.000007 0.330536 1.981547
    34 3.325997 0.000002 0.000004 0.000000 0.000000 0.832520
    35 6.189649 0.568802 -0.554352 -3.106727 -0.188564 -1.753892
    36 5.510998 0.000005 0.000008 0.000001 -0.029189 1.511784
    37 3.325017 -0.000004 0.000008 0.000000 0.000000 0.822635
    38 5.900459 0.299202 -1.780357 -3.083472 -0.196111 -1.878767
    39 5.248498 0.000008 -0.000008 0.000010 0.105225 1.681029
    40 3.151004 0.000002 0.000000 0.000000 0.000000 0.822504
    41 7.221521 -2.955375 -0.394920 -2.656253 -1.141289 5.390786
    42 0.162354 -7.207031 -2.447266 1.179746 0.332156 -2.903564
    43 -3.929419 0.000004 0.000002 1.266350 0.806779 -1.002118
    44 13.106233 0.000004 0.000002 0.000000 0.000000 1.784118
    45 3.929420 -0.000004 0.000000 -1.281530 0.387891 -0.763155
    46 13.106235 0.000008 -0.000001 0.000000 0.000000 -2.278935
    47 3.007648 4.344526 0.542816 1.017196 0.559274 0.199287
    48 10.074757 0.000000 -0.000002 0.000000 0.000000 -1.388948
    49 10.292004 -0.000004 0.000000 0.000000 0.000000 -0.259929
    50 -2.753412 4.323162 0.558395 2.099033 0.116384 2.753275
    51 10.074760 0.000004 0.000004 0.000000 0.000000 -1.716723
    52 10.292000 -0.000004 -0.000004 0.000000 0.000000 -0.493078
  time 12
    0 6.539262 16.472752 15.482197 1.900437 0.089675 -0.802352
    1 0.000000 0.000000 0.000000 0.000000 0.000000 0.021550
    2 3.890447 0.000000 0.000000 -2.987784 -0.704749 0.096308
    3 17.591007 0.000000 -0.000003 0.000000 0.000000 2.595777
    4 17.699610 -0.000001 -0.000002 -0.473097 -0.024882 -1.820024
    5 6.879457 0.000008 0.000001 -0.007299 -0.002951 -0.584373
    6 -3.890447 0.000000 0.000000 -1.361788 -1.175200 -2.464898
    7 17.590990 0.000000 0.000001 0.000000 0.000000 1.948649
    8 17.699574 0.000001 0.000001 0.287817 -0.497483 -1.630388
    9 6.879451 -0.000002 -0.000002 -0.081334 -0.002949 -0.584373
    10 0.000000 3.345131 -2.981898 1.634558 -0.102509 1.437610
    11 4.126656 0.000000 0.000000 0.152430 -0.237805 -0.075597
    12 3.612865 0.000000 0.000000 -0.330861 -0.052363 0.487737
    13 9.183983 0.000000 0.000000 -0.084824 -0.127672 0.401760
    14 4.294507 -1.238851 -0.207038 3.203047 0.075903 -0.415031
    15 1.663036 1.210508 2.595493 -1.267628 -1.288241 5.638871
    16 6.028141 0.000004 0.000000 -2.899591 -0.449398 0.282736
    17 12.692978 0.000001 0.000023 0.000000 0.000000 -0.425581
    18 11.575961 0.000002 -0.000019 0.423480 -0.272524 0.479066
    19 5.562228 -0.288269 -0.510574 3.199539 0.065844 -0.738329
    20 5.158491 0.000002 0.000004 -0.000024 0.220512 0.734023
    21 3.326000 -0.000004 0.000008 0.010815 -0.004069 0.400421
    22 5.591165 -0.279015 1.848881 3.183818 -0.334986 -1.051776
    23 5.292999 0.000000 0.000008 0.000006 0.000396 0.349943
    24 3.079115 -0.000004 0.000000 0.009016 -0.001355 0.703116
    25 5.739734 -0.095432 0.607277 3.192255 -0.121178 -0.881111
    26 5.652496 -0.000002 0.000000 -0.000021 0.065542 0.514261
    27 3.325010 -0.000003 -0.000008 0.010702 0.000099 0.603782
    28 1.663048 1.210514 -2.595442 -1.372885 1.102162 2.303731
    29 6.028137 0.000004 0.000000 1.276792 1.003380 -1.635499
    30 12.693001 0.000000 0.000004 0.000000 0.000000 -0.859157
    31 11.599612 0.000008 -0.000004 -1.536191 -0.740043 0.878106
    32 5.928187 0.378914 0.637287 -3.092626 -0.415446 -1.822148
    33 5.073999 0.000000 0.000008 -0.000007 0.330440 1.982286
    34 3.325997 0.000002 0.000004 0.000000 0.000000 0.832520
    35 6.189649 0.568802 -0.554352 -3.106727 -0.188564 -1.753892
    36 5.510998 0.000005 0.000008 0.000001 -0.029189 1.511784
    37 3.325017 -0.000004 0.000008 0.000000 0.000000 0.822635
    38 5.900459 0.299202 -1.780357 -3.083472 -0.196111 -1.878767
    39 5.248498 0.000008 -0.000008 0.000010 0.105225 1.681094
    40 3.151004 0.000002 0.000000 0.000000 0.000000 0.822504
    41 7.237147 -2.818652 -0.473047 -2.656636 -1.139141 5.396842
    42 0.162354 -7.207031 -2.447266 1.179746 0.332156 -2.903564
    43 -3.929419 0.000004 0.000002 1.264749 0.822009 -1.015076
    44 13.106233 0.000004 0.000002 0.000000 0.000000 1.822115
    45 3.929420 -0.000004 0.000000 -1.279943 0.399917 -0.758743
    46 13.106235 0.000008 -0.000001 0.000000 0.000000 -2.289404
    47 3.007648 4.344526 0.542816 1.019446 0.553903 0.203421
    48 10.074757 0.000000 -0.000002 0.000000 0.000000 -1.390889
    49 10.292004 -0.000004 0.000000 0.000000 0.000000 -0.261142
    50 -2.753412 4.323162 0.558395 2.096303 0.115822 2.750013
    51 10.074760 0.000004 0.000004 0.000000 0.000000 -1.721330
    52 10.292000 -0.000004 -0.000004 0.000000 0.000000 -0.497172
  time 13
    0 6.910367 16.468846 15.497822 1.909198 0.099427 -0.855198
    1 0.000000 0.000000 0.000000 0.000000 0.000000 0.021550
    2 3.890447 0.000000 0.000000 -3.026453 -0.605845 0.088190
    3 17.591007 0.000000 -0.000003 0.000000 0.000000 2.602416
    4 17.699610 -0.000001 -0.000002 -0.419174 -0.016260 -1.838517
    5 6.879457 0.000008 0.000001 -0.007299 -0.002951 -0.584373
    6 -3.890447 0.000000 0.000000 -1.636354 -1.241182 -2.245118
    7 17.590990 0.000000 0.000001 0.000000 0.000000 1.934262
    8 17.699574 0.000001 0.000001 0.361888 -0.460738 -1.634991
    9 6.879451 -0.000002 -0.000002 -0.081334 -0.002949 -0.584373
    10 0.000000 3.345131 -2.981898 1.643693 -0.103565 1.439546
    11 4.126656 0.000000 0.000000 0.101998 -0.300052 -0.067556
    12 3.612865 0.000000 0.000000 -0.367703 -0.017127 0.530593
    13 9.183983 0.000000 0.000000 -0.089360 -0.128900 0.399539
    14 4.286694 -1.250570 -0.191412 3.198925 0.070897 -0.423166
    15 1.663036 1.210508 2.595493 -1.227687 -1.284590 5.596949
    16 6.028141 0.000004 0.000000 -2.980819 -0.316125 0.638819
    17 12.692978 0.000001 0.000023 0.000000 0.000000 -0.496967
    18 11.575961 0.000002 -0.000019 0.583965 0.250889 -0.016372
    19 5.562228 -0.288269 -0.510574 3.183668 0.080203 -1.003382
    20 5.158491 0.000002 0.000004 -0.000024 0.236375 0.990891
    21 3.326000 -0.000004 0.000008 0.010815 -0.004069 0.400421
    22 5.591165 -0.279015 1.848881 3.162006 -0.360856 -1.332744
    23 5.292999 0.000000 0.000008 0.000006 0.000424 0.600427
    24 3.079115 -0.000004 0.000000 0.007674 -0.004925 1.104902
    25 5.739734 -0.095432 0.607277 3.174330 -0.124716 -1.147842
    26 5.652496 -0.000002 0.000000 -0.000021 0.070180 0.765330
    27 3.325010 -0.000003 -0.000008 0.009814 -0.004287 1.005530
    28 1.663048 1.210514 -2.595442 -1.619323 1.106874 2.034480
    29 6.028137 0.000004 0.000000 1.262786 1.029000 -1.710883
    30 12.693001 0.000000 0.000004 0.000000 0.000000 -0.934635
    31 11.599612 0.000008 -0.000004 -1.535549 -0.739606 0.913708
    32 5.928187 0.378914 0.637287 -3.092626 -0.415446 -1.822148
    33 5.073999 0.000000 0.000008 -0.000007 0.330344 1.982876
    34 3.325997 0.000002 0.000004 0.000000 0.000000 0.832520
    35 6.189649 0.568802 -0.554352 -3.106727 -0.188564 -1.753892
    36 5.510998 0.000005 0.000008 0.000001 -0.029189 1.511784
    37 3.325017 -0.000004 0.000008 0.000000 0.000000 0.822635
    38 5.900459 0.299202 -1.780357 -3.083472 -0.196111 -1.878767
    39 5.248498 0.000008 -0.000008 0.000010 0.105225 1.681094
    40 3.151004 0.000002 0.000000 0.000000 0.000000 0.822504
    41 7.260585 -2.619428 -0.578519 -2.657594 -1.133520 5.412456
    42 0.162354 -7.207031 -2.447266 1.179746 0.332156 -2.903564
    43 -3.929419 0.000004 0.000002 1.258909 0.846558 -1.031368
    44 13.106233 0.000004 0.000002 0.000000 0.000000 1.876836
    45 3.929420 -0.000004 0.000000 -1.275182 0.420102 -0.743893
    46 13.106235 0.000008 -0.000001 0.000000 0.000000 -2.309801
    47 3.007648 4.344526 0.542816 1.018964 0.549216 0.203661
    48 10.074757 0.000000 -0.000002 0.000000 0.000000 -1.391735
    49 10.292004 -0.000004 0.000000 0.000000 0.000000 -0.261712
    50 -2.753412 4.323162 0.558395 2.098175 0.114606 2.751411
    51 10.074760 0.000004 0.000004 0.000000 0.000000 -1.726296
    52 10.292000 -0.000004 -0.000004 0.000000 0.000000 -0.501205
  time 14
    0 7.121311 16.453220 15.548605 1.928472 0.105362 -0.878941
    1 0.000000 0.000000 0.000000 0.000000 0.000000 0.021550
    2 3.890447 0.000000 0.000000 -3.075556 -0.525645 0.094137
    3 17.591007 0.000000 -0.000003 0.000000 0.000000 2.604095
    4 17.699610 -0.000001 -0.000002 -0.361832 0.002626 -1.848429
    5 6.879457 0.000008 0.000001 -0.007299 -0.002951 -0.584373
    6 -3.890447 0.000000 0.000000 -1.860002 -1.268563 -2.058703
    7 17.590990 0.000000 0.000001 0.000000 0.000000 1.922818
    8 17.699574 0.000001 0.000001 0.421584 -0.424655 -1.644308
    9 6.879451 -0.000002 -0.000002 -0.081334 -0.002949 -0.584373
    10 0.000000 3.345131 -2.981898 1.657098 -0.105136 1.442069
    11 4.126656 0.000000 0.000000 0.067258 -0.351188 -0.059282
    12 3.612865 0.000000 0.000000 -0.388884 0.022273 0.558684
    13 9.183983 0.000000 0.000000 -0.096268 -0.130309 0.396661
    14 4.274975 -1.262289 -0.171880 3.193268 0.064108 -0.434078
    15 1.663036 1.210508 2.595493 -1.171882 -1.278268 5.538315
    16 6.028141 0.000004 0.000000 -2.879142 -0.223060 0.840268
    17 12.692978 0.000001 0.000023 0.000000 0.000000 -0.837938
    18 11.575961 0.000002 -0.000019 0.382789 0.438947 -0.568278
    19 5.562228 -0.288269 -0.510574 3.173842 0.086066 -1.146271
    20 5.158491 0.000002 0.000004 -0.000024 0.244901 1.129229
    21 3.326000 -0.000004 0.000008 0.010815 -0.004069 0.400421
    22 5.591165 -0.279015 1.848881 3.149191 -0.377287 -1.483153
    23 5.292999 0.000000 0.000008 0.000006 0.000438 0.735312
    24 3.079115 -0.000004 0.000000 0.006976 -0.006848 1.321218
    25 5.739734 -0.095432 0.607277 3.163658 -0.128698 -1.291242
    26 5.652496 -0.000002 0.000000 -0.000021 0.072672 0.900473
    27 3.325010 -0.000003 -0.000008 0.009331 -0.006636 1.221887
    28 1.663048 1.210514 -2.595442 -1.728883 1.097854 1.916856
    29 6.028137 0.000004 0.000000 1.223817 1.048960 -1.779658
    30 12.693001 0.000000 0.000004 0.000000 0.000000 -1.004589
    31 11.599612 0.000008 -0.000004 -1.535366 -0.739460 0.950323
    32 5.928187 0.378914 0.637287 -3.092626 -0.415446 -1.822148
    33 5.073999 0.000000 0.000008 -0.000007 0.330248 1.983467
    34 3.325997 0.000002 0.000004 0.000000 0.000000 0.832520
    35 6.189649 0.568802 -0.554352 -3.106727 -0.188564 -1.753892
    36 5.510998 0.000005 0.000008 0.000001 -0.029189 1.511784
    37 3.325017 -0.000004 0.000008 0.000000 0.000000 0.822635
    38 5.900459 0.299202 -1.780357 -3.083472 -0.196111 -1.878767
    39 5.248498 0.000008 -0.000008 0.000010 0.105225 1.681094
    40 3.151004 0.000002 0.000000 0.000000 0.000000 0.822504
    41 7.287930 -2.373326 -0.711336 -2.659032 -1.125373 5.435261
    42 0.162354 -7.207031 -2.447266 1.179746 0.332156 -2.903564
    43 -3.929419 0.000004 0.000002 1.250526 0.877670 -1.052137
    44 13.106233 0.000004 0.000002 0.000000 0.000000 1.944027
    45 3.929420 -0.000004 0.000000 -1.267714 0.447453 -0.721066
    46 13.106235 0.000008 -0.000001 0.000000 0.000000 -2.338230
    47 3.007648 4.344526 0.542816 1.017143 0.545215 0.201923
    48 10.074757 0.000000 -0.000002 0.000000 0.000000 -1.391735
    49 10.292004 -0.000004 0.000000 0.000000 0.000000 -0.261712
    50 -2.753412 4.323162 0.558395 2.103089 0.113202 2.756072
    51 10.074760 0.000004 0.000004 0.000000 0.000000 -1.731501
    52 10.292000 -0.000004 -0.000004 0.000000 0.000000 -0.505461
  time 15
    0 7.125217 16.425876 15.618920 1.956798 0.108230 -0.879496
    1 0.000000 0.000000 0.000000 0.000000 0.000000 0.021550
    2 3.890447 0.000000 0.000000 -3.122361 -0.467297 0.108862
    3 17.591007 0.000000 -0.000003 0.000000 0.000000 2.600966
    4 17.699610 -0.000001 -0.000002 -0.313434 0.030134 -1.849275
    5 6.879457 0.000008 0.000001 -0.007299 -0.002951 -0.584373
    6 -3.890447 0.000000 0.000000 -1.933017 -1.283061 -1.995895
    7 17.590990 0.000000 0.000001 0.000000 0.000000 1.917587
    8 17.699574 0.000001 0.000001 0.449551 -0.400648 -1.652682
    9 6.879451 -0.000002 -0.000002 -0.081334 -0.002949 -0.584373
    10 0.000000 3.345131 -2.981898 1.673883 -0.107135 1.445003
    11 4.126656 0.000000 0.000000 0.054077 -0.369531 -0.055402
    12 3.612865 0.000000 0.000000 -0.395739 0.052581 0.569383
    13 9.183983 0.000000 0.000000 -0.105548 -0.131597 0.393501
    14 4.259349 -1.277915 -0.152348 3.186749 0.056223 -0.446827
    15 1.663036 1.210508 2.595493 -1.106351 -1.269238 5.469201
    16 6.028141 0.000004 0.000000 -2.786742 -0.172225 0.911363
    17 12.692978 0.000001 0.000023 0.000000 0.000000 -1.276245
    18 11.575961 0.000002 -0.000019 0.571312 0.493060 -0.516007
    19 5.562228 -0.288269 -0.510574 3.173748 0.086066 -1.146271
    20 5.158491 0.000002 0.000004 -0.000024 0.244901 1.129229
    21 3.326000 -0.000004 0.000008 0.010815 -0.004069 0.400421
    22 5.591165 -0.279015 1.848881 3.149191 -0.377287 -1.483153
    23 5.292999 0.000000 0.000008 0.000006 0.000438 0.735312
    24 3.079115 -0.000004 0.000000 0.006976 -0.006848 1.321218
    25 5.739734 -0.095432 0.607277 3.163658 -0.128698 -1.291242
    26 5.652496 -0.000002 0.000000 -0.000021 0.072672 0.900473
    27 3.325010 -0.000003 -0.000008 0.009331 -0.006636 1.221887
    28 1.663048 1.210514 -2.595442 -1.600381 1.107772 2.054767
    29 6.028137 0.000004 0.000000 1.063271 1.048247 -1.929755
    30 12.693001 0.000000 0.000004 0.000000 0.000000 -1.024036
    31 11.599612 0.000008 -0.000004 -1.533075 -0.737809 0.962483
    32 5.928187 0.378914 0.637287 -3.092626 -0.415446 -1.822148
    33 5.073999 0.000000 0.000008 -0.000007 0.330176 1.983910
    34 3.325997 0.000002 0.000004 0.000000 0.000000 0.832520
    35 6.189649 0.568802 -0.554352 -3.106727 -0.188564 -1.753892
    36 5.510998 0.000005 0.000008 0.000001 -0.029189 1.511784
    37 3.325017 -0.000004 0.000008 0.000000 0.000000 0.822635
    38 5.900459 0.299202 -1.780357 -3.083472 -0.196111 -1.878767
    39 5.248498 0.000008 -0.000008 0.000010 0.105225 1.681094
    40 3.151004 0.000002 0.000000 0.000000 0.000000 0.822504
    41 7.323087 -2.080349 -0.867591 -2.660853 -1.115205 5.463459
    42 0.162354 -7.207031 -2.447266 1.179746 0.332156 -2.903564
    43 -3.929419 0.000004 0.000002 1.241107 0.913023 -1.078719
    44 13.106233 0.000004 0.000002 0.000000 0.000000 2.020460
    45 3.929420 -0.000004 0.000000 -1.257912 0.481544 -0.691790
    46 13.106235 0.000008 -0.000001 0.000000 0.000000 -2.372886
    47 3.007648 4.344526 0.542816 1.015107 0.541897 0.199706
    48 10.074757 0.000000 -0.000002 0.000000 0.000000 -1.390789
    49 10.292004 -0.000004 0.000000 0.000000 0.000000 -0.261098
    50 -2.753412 4.323162 0.558395 2.110266 0.111845 2.763140
    51 10.074760 0.000004 0.000004 0.000000 0.000000 -1.736766
    52 10.292000 -0.000004 -0.000004 0.000000 0.000000 -0.509837
  time 16
    0 6.754112 16.402437 15.697047 1.992835 0.102745 -0.850116
    1 0.000000 0.000000 0.000000 0.000000 0.000000 0.021550
    2 3.890447 0.000000 0.000000 -3.152608 -0.444989 0.134819
    3 17.591007 0.000000 -0.000003 0.000000 0.000000 2.589062
    4 17.699610 -0.000001 -0.000002 -0.290111 0.071766 -1.834951
    5 6.879457 0.000008 0.000001 -0.007299 -0.002951 -0.584373
    6 -3.890447 0.000000 0.000000 -1.852820 -1.282461 -2.057555
    7 17.590990 0.000000 0.000001 0.000000 0.000000 1.926006
    8 17.699574 0.000001 0.000001 0.452606 -0.376605 -1.673534
    9 6.879451 -0.000002 -0.000002 -0.081334 -0.002949 -0.584373
    10 0.000000 3.345131 -2.981898 1.693931 -0.109677 1.447995
    11 4.126656 0.000000 0.000000 0.070373 -0.341829 -0.059843
    12 3.612865 0.000000 0.000000 -0.378024 0.055690 0.565749
    13 9.183983 0.000000 0.000000 -0.117407 -0.132423 0.390467
    14 4.243724 -1.297447 -0.128910 3.179654 0.047713 -0.460398
    15 1.663036 1.210508 2.595493 -1.036099 -1.257224 5.394987
    16 6.028141 0.000004 0.000000 -2.854622 -0.298966 0.676585
    17 12.692978 0.000001 0.000023 0.000000 0.000000 -1.732441
    18 11.575961 0.000002 -0.000019 0.793699 0.536747 -0.411463
    19 5.562228 -0.288269 -0.510574 3.173842 0.086066 -1.146271
    20 5.158491 0.000002 0.000004 -0.000024 0.244901 1.129229
    21 3.326000 -0.000004 0.000008 0.010815 -0.004069 0.400421
    22 5.591165 -0.279015 1.848881 3.149191 -0.377287 -1.483153
    23 5.292999 0.000000 0.000008 0.000006 0.000438 0.735312
    24 3.079115 -0.000004 0.000000 0.006976 -0.006848 1.321218
    25 5.739734 -0.095432 0.607277 3.163658 -0.128698 -1.291242
    26 5.652496 -0.000002 0.000000 -0.000021 0.072672 0.900473
    27 3.325010 -0.000003 -0.000008 0.009331 -0.006636 1.221887
    28 1.663048 1.210514 -2.595442 -1.311775 1.095296 2.372115
    29 6.028137 0.000004 0.000000 0.932930 1.020935 -2.003607
    30 12.693001 0.000000 0.000004 0.000000 0.000000 -1.084802
    31 11.599612 0.000008 -0.000004 -1.525100 -0.731786 1.002948
    32 5.928187 0.378914 0.637287 -3.092626 -0.415446 -1.822148
    33 5.073999 0.000000 0.000008 -0.000007 0.330128 1.984132
    34 3.325997 0.000002 0.000004 0.000000 0.000000 0.832520
    35 6.189649 0.568802 -0.554352 -3.106727 -0.188564 -1.753892
    36 5.510998 0.000005 0.000008 0.000001 -0.029189 1.511784
    37 3.325017 -0.000004 0.000008 0.000000 0.000000 0.822635
    38 5.900459 0.299202 -1.780357 -3.083472 -0.196111 -1.878767
    39 5.248498 0.000008 -0.000008 0.000010 0.105225 1.681094
    40 3.151004 0.000002 0.000000 0.000000 0.000000 0.822504
    41 7.358244 -1.752214 -1.043377 -2.662866 -1.103458 5.496011
    42 0.162354 -7.207031 -2.447266 1.179746 0.332156 -2.903564
    43 -3.929419 0.000004 0.000002 1.232913 0.950759 -1.111970
    44 13.106233 0.000004 0.000002 0.000000 0.000000 2.103055
    45 3.929420 -0.000004 0.000000 -1.245497 0.522553 -0.657253
    46 13.106235 0.000008 -0.000001 0.000000 0.000000 -2.412597
    47 3.007648 4.344526 0.542816 1.013715 0.539475 0.198268
    48 10.074757 0.000000 -0.000002 0.000000 0.000000 -1.388799
    49 10.292004 -0.000004 0.000000 0.000000 0.000000 -0.259812
    50 -2.753412 4.323162 0.558395 2.119003 0.110909 2.772151
    51 10.074760 0.000004 0.000004 0.000000 0.000000 -1.742031
    52 10.292000 -0.000004 -0.000004 0.000000 0.000000 -0.514173
  time 17
    0 5.851741 16.375093 15.779081 2.033076 0.085807 -0.795238
    1 0.000000 0.000000 0.000000 0.000000 0.000000 0.021550
    2 3.890447 0.000000 0.000000 -3.154043 -0.456531 0.171915
    3 17.591007 0.000000 -0.000003 0.000000 0.000000 2.562734
    4 17.699610 -0.000001 -0.000002 -0.301246 0.134543 -1.802557
    5 6.879457 0.000008 0.000001 -0.007299 -0.002951 -0.584373
    6 -3.890447 0.000000 0.000000 -1.721614 -1.254664 -2.148565
    7 17.590990 0.000000 0.000001 0.000000 0.000000 1.950693
    8 17.699574 0.000001 0.000001 0.445242 -0.333840 -1.718289
    9 6.879451 -0.000002 -0.000002 -0.081334 -0.002949 -0.584373
    10 0.000000 3.345131 -2.981898 1.717182 -0.112676 1.450870
    11 4.126656 0.000000 0.000000 0.108999 -0.280392 -0.070198
    12 3.612865 0.000000 0.000000 -0.339975 0.041309 0.558395
    13 9.183983 0.000000 0.000000 -0.132409 -0.132383 0.387870
    14 4.224192 -1.313072 -0.105472 3.172559 0.039109 -0.474165
    15 1.663036 1.210508 2.595493 -0.964903 -1.242186 5.319736
    16 6.028141 0.000004 0.000000 -2.776139 -0.527374 0.180662
    17 12.692978 0.000001 0.000023 0.000000 0.000000 -2.100791
    18 11.575961 0.000002 -0.000019 1.028283 0.567451 -0.278113
    19 5.562228 -0.288269 -0.510574 3.173842 0.086066 -1.146271
    20 5.158491 0.000002 0.000004 -0.000024 0.244901 1.129229
    21 3.326000 -0.000004 0.000008 0.010815 -0.004069 0.400421
    22 5.591165 -0.279015 1.848881 3.149191 -0.377287 -1.483153
    23 5.292999 0.000000 0.000008 0.000006 0.000438 0.735312
    24 3.079115 -0.000004 0.000000 0.006976 -0.006848 1.321218
    25 5.739734 -0.095432 0.607277 3.163658 -0.128698 -1.291242
    26 5.652496 -0.000002 0.000000 -0.000021 0.072672 0.900473
    27 3.325010 -0.000003 -0.000008 0.009331 -0.006636 1.221887
    28 1.663048 1.210514 -2.595442 -1.062767 1.035967 2.662414
    29 6.028137 0.000004 0.000000 0.898820 1.007301 -1.936556
    30 12.693001 0.000000 0.000004 0.000000 0.000000 -1.237392
    31 11.599612 0.000008 -0.000004 -1.499987 -0.712213 1.098134
    32 5.928187 0.378914 0.637287 -3.092626 -0.415446 -1.822148
    33 5.073999 0.000000 0.000008 -0.000007 0.330068 1.984132
    34 3.325997 0.000002 0.000004 0.000000 0.000000 0.832520
    35 6.189649 0.568802 -0.554352 -3.106727 -0.188564 -1.753892
    36 5.510998 0.000005 0.000008 0.000001 -0.029189 1.511784
    37 3.325017 -0.000004 0.000008 0.000000 0.000000 0.822635
    38 5.900459 0.299202 -1.780357 -3.083472 -0.196111 -1.878767
    39 5.248498 0.000008 -0.000008 0.000010 0.105225 1.681094
    40 3.151004 0.000002 0.000000 0.000000 0.000000 0.822504
    41 7.401214 -1.388921 -1.242602 -2.665071 -1.090511 5.532063
    42 0.162354 -7.207031 -2.447266 1.179746 0.332156 -2.903564
    43 -3.929419 0.000004 0.000002 1.229710 0.989022 -1.152938
    44 13.106233 0.000004 0.000002 0.000000 0.000000 2.188951
    45 3.929420 -0.000004 0.000000 -1.230374 0.571154 -0.618388
    46 13.106235 0.000008 -0.000001 0.000000 0.000000 -2.456549
    47 3.007648 4.344526 0.542816 1.013875 0.538264 0.198747
    48 10.074757 0.000000 -0.000002 0.000000 0.000000 -1.385565
    49 10.292004 -0.000004 0.000000 0.000000 0.000000 -0.257751
    50 -2.753412 4.323162 0.558395 2.128755 0.110909 2.783026
    51 10.074760 0.000004 0.000004 0.000000 0.000000 -1.746938
    52 10.292000 -0.000004 -0.000004 0.000000 0.000000 -0.518288
  time 18
    0 4.500137 16.351655 15.853302 2.073668 0.057583 -0.725393
    1 0.000000 0.000000 0.000000 0.000000 0.000000 0.021550
    2 3.890447 0.000000 0.000000 -3.135092 -0.492981 0.213730
    3 17.591007 0.000000 -0.000003 0.000000 0.000000 2.519390
    4 17.699610 -0.000001 -0.000002 -0.339474 0.210539 -1.758257
    5 6.879457 0.000008 0.000001 -0.007299 -0.002951 -0.584373
    6 -3.890447 0.000000 0.000000 -1.596209 -1.202950 -2.213858
    7 17.590990 0.000000 0.000001 0.000000 0.000000 1.983962
    8 17.699574 0.000001 0.000001 0.427890 -0.272722 -1.781178
    9 6.879451 -0.000002 -0.000002 -0.081334 -0.002949 -0.584373
    10 0.000000 3.345131 -2.981898 1.744289 -0.116389 1.453275
    11 4.126656 0.000000 0.000000 0.162038 -0.206457 -0.083778
    12 3.612865 0.000000 0.000000 -0.293454 0.017509 0.551185
    13 9.183983 0.000000 0.000000 -0.151769 -0.130772 0.386306
    14 4.208567 -1.328698 -0.082034 3.165848 0.030974 -0.487032
    15 1.663036 1.210508 2.595493 -0.895973 -1.224204 5.246372
    16 6.028141 0.000004 0.000000 -2.545519 -0.599048 -0.258002
    17 12.692978 0.000001 0.000023 0.000000 0.000000 -2.269681
    18 11.575961 0.000002 -0.000019 1.260956 0.583895 -0.130359
    19 5.562228 -0.288269 -0.510574 3.173842 0.086066 -1.146271
    20 5.158491 0.000002 0.000004 -0.000024 0.244901 1.129229
    21 3.326000 -0.000004 0.000008 0.010815 -0.004069 0.400421
    22 5.591165 -0.279015 1.848881 3.149191 -0.377287 -1.483153
    23 5.292999 0.000000 0.000008 0.000006 0.000438 0.735312
    24 3.079115 -0.000004 0.000000 0.006976 -0.006848 1.321218
    25 5.739734 -0.095432 0.607277 3.163658 -0.128698 -1.291242
    26 5.652496 -0.000002 0.000000 -0.000021 0.072672 0.900473
    27 3.325010 -0.000003 -0.000008 0.009331 -0.006636 1.221887
    28 1.663048 1.210514 -2.595442 -0.971197 0.994500 2.778229
    29 6.028137 0.000004 0.000000 1.070989 1.005564 -1.666917
    30 12.693001 0.000000 0.000004 0.000000 0.000000 -1.480624
    31 11.599612 0.000008 -0.000004 -1.456175 -0.675689 1.246688
    32 5.928187 0.378914 0.637287 -3.092626 -0.415446 -1.822148
    33 5.073999 0.000000 0.000008 -0.000007 0.330068 1.984058
    34 3.325997 0.000002 0.000004 0.000000 0.000000 0.832520
    35 6.189649 0.568802 -0.554352 -3.106727 -0.188564 -1.753892
    36 5.510998 0.000005 0.000008 0.000001 -0.029189 1.511784
    37 3.325017 -0.000004 0.000008 0.000000 0.000000 0.822635
    38 5.900459 0.299202 -1.780357 -3.083472 -0.196111 -1.878767
    39 5.248498 0.000008 -0.000008 0.000010 0.105225 1.681094
    40 3.151004 0.000002 0.000000 0.000000 0.000000 0.822504
    41 7.444185 -0.998284 -1.449640 -2.667467 -1.076616 5.570671
    42 0.162354 -7.207031 -2.447266 1.179746 0.332156 -2.903564
    43 -3.929419 0.000004 0.000002 1.238187 1.025798 -1.201909
    44 13.106233 0.000004 0.000002 0.000000 0.000000 2.274774
    45 3.929420 -0.000004 0.000000 -1.211611 0.629439 -0.576384
    46 13.106235 0.000008 -0.000001 0.000000 0.000000 -2.504112
    47 3.007648 4.344526 0.542816 1.016661 0.538527 0.202642
    48 10.074757 0.000000 -0.000002 0.000000 0.000000 -1.380937
    49 10.292004 -0.000004 0.000000 0.000000 0.000000 -0.254828
    50 -2.753412 4.323162 0.558395 2.139520 0.112266 2.795998
    51 10.074760 0.000004 0.000004 0.000000 0.000000 -1.751245
    52 10.292000 -0.000004 -0.000004 0.000000 0.000000 -0.521938
  time 19
    0 2.941496 16.336029 15.896272 2.111865 0.016855 -0.645108
    1 0.000000 0.000000 0.000000 0.000000 0.000000 0.021550
    2 3.890447 0.000000 0.000000 -3.119873 -0.551694 0.255640
    3 17.591007 0.000000 -0.000003 0.000000 0.000000 2.463072
    4 17.699610 -0.000001 -0.000002 -0.387961 0.281609 -1.710210
    5 6.879457 0.000008 0.000001 -0.007299 -0.002951 -0.584373
    6 -3.890447 0.000000 0.000000 -1.475592 -1.133782 -2.259936
    7 17.590990 0.000000 0.000001 0.000000 0.000000 2.015433
    8 17.699574 0.000001 0.000001 0.401999 -0.202831 -1.851998
    9 6.879451 -0.000002 -0.000002 -0.081334 -0.002949 -0.584373
    10 0.000000 3.345131 -2.981898 1.776674 -0.121216 1.454449
    11 4.126656 0.000000 0.000000 0.225796 -0.140695 -0.098317
    12 3.612865 0.000000 0.000000 -0.249115 -0.014345 0.548705
    13 9.183983 0.000000 0.000000 -0.178868 -0.126001 0.386963
    14 4.196847 -1.340417 -0.066408 3.160575 0.024654 -0.497044
    15 1.663036 1.210508 2.595493 -0.831104 -1.203552 5.176974
    16 6.028141 0.000004 0.000000 -2.386470 -0.654207 -0.477378
    17 12.692978 0.000001 0.000023 0.000000 0.000000 -2.371133
    18 11.575961 0.000002 -0.000019 1.481158 0.587027 0.020543
    19 5.562228 -0.288269 -0.510574 3.173842 0.086066 -1.146271
    20 5.158491 0.000002 0.000004 -0.000024 0.244901 1.129229
    21 3.326000 -0.000004 0.000008 0.010815 -0.004069 0.400421
    22 5.591165 -0.279015 1.848881 3.149191 -0.377287 -1.483153
    23 5.292999 0.000000 0.000008 0.000006 0.000438 0.735312
    24 3.079115 -0.000004 0.000000 0.006976 -0.006848 1.321218
    25 5.739734 -0.095432 0.607277 3.163658 -0.128698 -1.291242
    26 5.652496 -0.000002 0.000000 -0.000021 0.072672 0.900473
    27 3.325010 -0.000003 -0.000008 0.009331 -0.006636 1.221887
    28 1.663048 1.210514 -2.595442 -0.971197 0.994500 2.778229
    29 6.028137 0.000004 0.000000 1.419806 0.944701 -1.278311
    30 12.693001 0.000000 0.000004 0.000000 0.000000 -1.752097
    31 11.599612 0.000008 -0.000004 -1.415846 -0.639068 1.423008
    32 5.928187 0.378914 0.637287 -3.092626 -0.415446 -1.822148
    33 5.073999 0.000000 0.000008 -0.000007 0.330080 1.983615
    34 3.325997 0.000002 0.000004 0.000000 0.000000 0.832520
    35 6.189649 0.568802 -0.554352 -3.106727 -0.188564 -1.753892
    36 5.510998 0.000005 0.000008 0.000001 -0.029189 1.511784
    37 3.325017 -0.000004 0.000008 0.000000 0.000000 0.822635
    38 5.900459 0.299202 -1.780357 -3.083472 -0.196111 -1.878767
    39 5.248498 0.000008 -0.000008 0.000010 0.105225 1.681094
    40 3.151004 0.000002 0.000000 0.000000 0.000000 0.822504
    41 7.494967 -0.584209 -1.676209 -2.670055 -1.062027 5.611266
    42 0.162354 -7.207031 -2.447266 1.179746 0.332156 -2.903564
    43 -3.929419 0.000004 0.000002 1.270683 1.058303 -1.258121
    44 13.106233 0.000004 0.000002 0.000000 0.000000 2.355902
    45 3.929420 -0.000004 0.000000 -1.187433 0.701772 -0.532682
    46 13.106235 0.000008 -0.000001 0.000000 0.000000 -2.555736
    47 3.007648 4.344526 0.542816 1.024106 0.540633 0.212590
    48 10.074757 0.000000 -0.000002 0.000000 0.000000 -1.374717
    49 10.292004 -0.000004 0.000000 0.000000 0.000000 -0.250955
    50 -2.753412 4.323162 0.558395 2.151690 0.115963 2.812155
    51 10.074760 0.000004 0.000004 0.000000 0.000000 -1.754656
    52 10.292000 -0.000004 -0.000004 0.000000 0.000000 -0.524782
  time 20
    0 1.683645 16.359467 15.829864 2.146208 -0.040044 -0.554198
    1 0.000000 0.000000 0.000000 0.000000 0.000000 0.021550
    2 3.890447 0.000000 0.000000 -3.148970 -0.634905 0.309160
    3 17.591007 0.000000 -0.000003 0.000000 0.000000 2.414539
    4 17.699610 -0.000001 -0.000002 -0.424260 0.325787 -1.665064
    5 6.879457 0.000008 0.000001 -0.007299 -0.002951 -0.584373
    6 -3.890447 0.000000 0.000000 -1.308477 -1.052471 -2.354482
    7 17.590990 0.000000 0.000001 0.000000 0.000000 2.040446
    8 17.699574 0.000001 0.000001 0.372386 -0.156469 -1.917494
    9 6.879451 -0.000002 -0.000002 -0.081334 -0.002949 -0.584373
    10 0.000000 3.345131 -2.981898 1.821575 -0.129527 1.450987
    11 4.126656 0.000000 0.000000 0.295927 -0.107539 -0.108649
    12 3.612865 0.000000 0.000000 -0.230373 -0.059036 0.563298
    13 9.183983 0.000000 0.000000 -0.231968 -0.109775 0.395660
    14 4.200754 -1.336510 -0.070315 3.161726 0.026062 -0.494854
    15 1.663036 1.210508 2.595493 -0.771711 -1.180544 5.113053
    16 6.028141 0.000004 0.000000 -2.284793 -0.672516 -0.579799
    17 12.692978 0.000001 0.000023 0.000000 0.000000 -2.430929
    18 11.575961 0.000002 -0.000019 1.680331 0.579732 0.165244
    19 5.562228 -0.288269 -0.510574 3.173842 0.086066 -1.146271
    20 5.158491 0.000002 0.000004 -0.000024 0.244901 1.129229
    21 3.326000 -0.000004 0.000008 0.010815 -0.004069 0.400421
    22 5.591165 -0.279015 1.848881 3.149191 -0.377287 -1.483153
    23 5.292999 0.000000 0.000008 0.000006 0.000438 0.735312
    24 3.079115 -0.000004 0.000000 0.006976 -0.006848 1.321218
    25 5.739734 -0.095432 0.607277 3.163658 -0.128698 -1.291242
    26 5.652496 -0.000002 0.000000 -0.000021 0.072672 0.900473
    27 3.325010 -0.000003 -0.000008 0.009331 -0.006636 1.221887
    28 1.663048 1.210514 -2.595442 -0.971197 0.994500 2.778229
    29 6.028137 0.000004 0.000000 1.768337 0.799363 -1.019017
    30 12.693001 0.000000 0.000004 0.000000 0.000000 -1.961789
    31 11.599612 0.000008 -0.000004 -1.427395 -0.649753 1.565415
    32 5.928187 0.378914 0.637287 -3.092626 -0.415446 -1.822148
    33 5.073999 0.000000 0.000008 -0.000007 0.330128 1.983098
    34 3.325997 0.000002 0.000004 0.000000 0.000000 0.832520
    35 6.189649 0.568802 -0.554352 -3.106727 -0.188564 -1.753892
    36 5.510998 0.000005 0.000008 0.000001 -0.029189 1.511784
    37 3.325017 -0.000004 0.000008 0.000000 0.000000 0.822635
    38 5.900459 0.299202 -1.780357 -3.083472 -0.196111 -1.878767
    39 5.248498 0.000008 -0.000008 0.000010 0.105225 1.681094
    40 3.151004 0.000002 0.000000 0.000000 0.000000 0.822504
    41 7.541844 -0.146696 -1.910591 -2.672547 -1.046996 5.653091
    42 0.162354 -7.207031 -2.447266 1.179746 0.332156 -2.903564
    43 -3.929419 0.000004 0.000002 1.359315 1.078394 -1.322907
    44 13.106233 0.000004 0.000002 0.000000 0.000000 2.421186
    45 3.929420 -0.000004 0.000000 -1.152334 0.810360 -0.499333
    46 13.106235 0.000008 -0.000001 0.000000 0.000000 -2.618190
    47 3.007648 4.344526 0.542816 1.046818 0.543003 0.243330
    48 10.074757 0.000000 -0.000002 0.000000 0.000000 -1.368348
    49 10.292004 -0.000004 0.000000 0.000000 0.000000 -0.246950
    50 -2.753412 4.323162 0.558395 2.168696 0.126679 2.838642
    51 10.074760 0.000004 0.000004 0.000000 0.000000 -1.755613
    52 10.292000 -0.000004 -0.000004 0.000000 0.000000 -0.525588
  time 21
    0 1.046907 16.554786 15.673609 2.172198 -0.105962 -0.485924
    1 0.000000 0.000000 0.000000 0.000000 0.000000 0.021550
    2 3.890447 0.000000 0.000000 -3.224395 -0.705114 0.366739
    3 17.591007 0.000000 -0.000003 0.000000 0.000000 2.386151
    4 17.699610 -0.000001 -0.000002 -0.435132 0.342867 -1.619918
    5 6.879457 0.000008 0.000001 -0.007299 -0.002951 -0.584373
    6 -3.890447 0.000000 0.000000 -1.125433 -0.983719 -2.500460
    7 17.590990 0.000000 0.000001 0.000000 0.000000 2.067667
    8 17.699574 0.000001 0.000001 0.343400 -0.155331 -1.960918
    9 6.879451 -0.000002 -0.000002 -0.081334 -0.002949 -0.584373
    10 0.000000 3.345131 -2.981898 1.878753 -0.146836 1.441482
    11 4.126656 0.000000 0.000000 0.363016 -0.114903 -0.112903
    12 3.612865 0.000000 0.000000 -0.266034 -0.143035 0.608519
    13 9.183983 0.000000 0.000000 -0.354059 -0.066111 0.428100
    14 4.325758 -1.199787 -0.253914 3.218291 0.093924 -0.385347
    15 1.663036 1.210508 2.595493 -0.718266 -1.155691 5.055174
    16 6.028141 0.000004 0.000000 -2.344247 -0.611515 -0.500351
    17 12.692978 0.000001 0.000023 0.000000 0.000000 -2.464774
    18 11.575961 0.000002 -0.000019 1.852833 0.565844 0.297259
    19 5.562228 -0.288269 -0.510574 3.173842 0.086066 -1.146271
    20 5.158491 0.000002 0.000004 -0.000024 0.244901 1.129229
    21 3.326000 -0.000004 0.000008 0.010815 -0.004069 0.400421
    22 5.591165 -0.279015 1.848881 3.149191 -0.377287 -1.483153
    23 5.292999 0.000000 0.000008 0.000006 0.000438 0.735312
    24 3.079115 -0.000004 0.000000 0.006976 -0.006848 1.321218
    25 5.739734 -0.095432 0.607277 3.163658 -0.128698 -1.291242
    26 5.652496 -0.000002 0.000000 -0.000021 0.072672 0.900473
    27 3.325010 -0.000003 -0.000008 0.009331 -0.006636 1.221887
    28 1.663048 1.210514 -2.595442 -0.971197 0.994500 2.778229
    29 6.028137 0.000004 0.000000 1.987289 0.598464 -1.061833
    30 12.693001 0.000000 0.000004 0.000000 0.000000 -2.021653
    31 11.599612 0.000008 -0.000004 -1.490454 -0.704442 1.565685
    32 5.928187 0.378914 0.637287 -3.092626 -0.415446 -1.822148
    33 5.073999 0.000000 0.000008 -0.000007 0.330212 1.982286
    34 3.325997 0.000002 0.000004 0.000000 0.000000 0.832520
    35 6.189649 0.568802 -0.554352 -3.106727 -0.188564 -1.753892
    36 5.510998 0.000005 0.000008 0.000001 -0.029189 1.511784
    37 3.325017 -0.000004 0.000008 0.000000 0.000000 0.822635
    38 5.900459 0.299202 -1.780357 -3.083472 -0.196111 -1.878767
    39 5.248498 0.000008 -0.000008 0.000010 0.105225 1.681094
    40 3.151004 0.000002 0.000000 0.000000 0.000000 0.822504
    41 7.592627 0.302537 -2.156693 -2.675231 -1.031712 5.695483
    42 0.162354 -7.207031 -2.447266 1.179746 0.332156 -2.903564
    43 -3.929419 0.000004 0.000002 1.546563 1.048706 -1.408749
    44 13.106233 0.000004 0.000002 0.000000 0.000000 2.436150
    45 3.929420 -0.000004 0.000000 -1.080268 1.024663 -0.518681
    46 13.106235 0.000008 -0.000001 0.000000 0.000000 -2.695265
    47 3.007648 4.344526 0.542816 1.106649 0.538264 0.323926
    48 10.074757 0.000000 -0.000002 0.000000 0.000000 -1.365213
    49 10.292004 -0.000004 0.000000 0.000000 0.000000 -0.244977
    50 -2.753412 4.323162 0.558395 2.198885 0.158546 2.895347
    51 10.074760 0.000004 0.000004 0.000000 0.000000 -1.750168
    52 10.292000 -0.000004 -0.000004 0.000000 0.000000 -0.521010
  time 22
    0 0.617206 16.894640 15.642358 2.188435 -0.162995 -0.449708
    1 0.000000 0.000000 0.000000 0.000000 0.000000 0.021550
    2 3.890447 0.000000 0.000000 -3.296182 -0.742522 0.402607
    3 17.591007 0.000000 -0.000003 0.000000 0.000000 2.357534
    4 17.699610 -0.000001 -0.000002 -0.430046 0.350996 -1.570843
    5 6.879457 0.000008 0.000001 -0.007299 -0.002951 -0.584373
    6 -3.890447 0.000000 0.000000 -0.986309 -0.936760 -2.622634
    7 17.590990 0.000000 0.000001 0.000000 0.000000 2.092517
    8 17.699574 0.000001 0.000001 0.311359 -0.166160 -1.981382
    9 6.879451 -0.000002 -0.000002 -0.081334 -0.002949 -0.584373
    10 0.000000 3.345131 -2.981898 1.925374 -0.166714 1.437610
    11 4.126656 0.000000 0.000000 0.422018 -0.142937 -0.118887
    12 3.612865 0.000000 0.000000 -0.322671 -0.244835 0.662681
    13 9.183983 0.000000 0.000000 -0.471704 -0.024882 0.471083
    14 4.489825 -0.832589 -0.625019 3.338325 0.230744 -0.149125
    15 1.663036 1.210508 2.595493 -0.671149 -1.129581 5.003810
    16 6.028141 0.000004 0.000000 -2.443179 -0.523234 -0.373738
    17 12.692978 0.000001 0.000023 0.000000 0.000000 -2.483418
    18 11.575961 0.000002 -0.000019 1.994658 0.549358 0.410769
    19 5.562228 -0.288269 -0.510574 3.173842 0.086066 -1.146271
    20 5.158491 0.000002 0.000004 -0.000024 0.244901 1.129229
    21 3.326000 -0.000004 0.000008 0.010815 -0.004069 0.400421
    22 5.591165 -0.279015 1.848881 3.149191 -0.377287 -1.483153
    23 5.292999 0.000000 0.000008 0.000006 0.000438 0.735312
    24 3.079115 -0.000004 0.000000 0.006976 -0.006848 1.321218
    25 5.739734 -0.095432 0.607277 3.163658 -0.128698 -1.291242
    26 5.652496 -0.000002 0.000000 -0.000021 0.072672 0.900473
    27 3.325010 -0.000003 -0.000008 0.009331 -0.006636 1.221887
    28 1.663048 1.210514 -2.595442 -0.971197 0.994500 2.778229
    29 6.028137 0.000004 0.000000 2.097336 0.421090 -1.212601
    30 12.693001 0.000000 0.000004 0.000000 0.000000 -1.943638
    31 11.599612 0.000008 -0.000004 -1.536558 -0.740383 1.453476
    32 5.928187 0.378914 0.637287 -3.092626 -0.415446 -1.822148
    33 5.073999 0.000000 0.000008 -0.000007 0.330356 1.981326
    34 3.325997 0.000002 0.000004 0.000000 0.000000 0.832520
    35 6.189649 0.568802 -0.554352 -3.106727 -0.188564 -1.753892
    36 5.510998 0.000005 0.000008 0.000001 -0.029189 1.511784
    37 3.325017 -0.000004 0.000008 0.000000 0.000000 0.822635
    38 5.900459 0.299202 -1.780357 -3.083472 -0.196111 -1.878767
    39 5.248498 0.000008 -0.000008 0.000010 0.105225 1.681029
    40 3.151004 0.000002 0.000000 0.000000 0.000000 0.822504
    41 7.643409 0.763488 -2.398887 -2.677819 -1.016617 5.737403
    42 0.162354 -7.207031 -2.447266 1.179746 0.332156 -2.903564
    43 -3.929419 0.000004 0.000002 1.690390 0.965463 -1.516981
    44 13.106233 0.000004 0.000002 0.000000 0.000000 2.398740
    45 3.929420 -0.000004 0.000000 -0.888996 1.284338 -0.499842
    46 13.106235 0.000008 -0.000001 0.000000 0.000000 -2.728206
    47 3.007648 4.344526 0.542816 1.159786 0.537421 0.391818
    48 10.074757 0.000000 -0.000002 0.000000 0.000000 -1.356406
    49 10.292004 -0.000004 0.000000 0.000000 0.000000 -0.239540
    50 -2.753412 4.323162 0.558395 2.229153 0.194158 2.957488
    51 10.074760 0.000004 0.000004 0.000000 0.000000 -1.744425
    52 10.292000 -0.000004 -0.000004 0.000000 0.000000 -0.516190
  time 23
    0 0.304697 17.285277 15.689234 2.198714 -0.209858 -0.428366
    1 0.000000 0.000000 0.000000 0.000000 0.000000 0.021550
    2 3.890447 0.000000 0.000000 -3.358494 -0.761592 0.424978
    3 17.591007 0.000000 -0.000003 0.000000 0.000000 2.329604
    4 17.699610 -0.000001 -0.000002 -0.415842 0.355143 -1.521950
    5 6.879457 0.000008 0.000001 -0.007299 -0.002951 -0.584373
    6 -3.890447 0.000000 0.000000 -0.871216 -0.898852 -2.727314
    7 17.590990 0.000000 0.000001 0.000000 0.000000 2.114015
    8 17.699574 0.000001 0.000001 0.276536 -0.182532 -1.988425
    9 6.879451 -0.000002 -0.000002 -0.081334 -0.002949 -0.584373
    10 0.000000 3.345131 -2.981898 1.959539 -0.184336 1.437434
    11 4.126656 0.000000 0.000000 0.468756 -0.176744 -0.124637
    12 3.612865 0.000000 0.000000 -0.380129 -0.335252 0.711940
    13 9.183983 0.000000 0.000000 -0.567378 0.007388 0.511219
    14 4.482012 -0.363824 -0.984405 3.480410 0.371568 0.126089
    15 1.663036 1.210508 2.595493 -0.630640 -1.103315 4.959434
    16 6.028141 0.000004 0.000000 -2.522324 -0.437575 -0.258176
    17 12.692978 0.000001 0.000023 0.000000 0.000000 -2.494000
    18 11.575961 0.000002 -0.000019 2.102802 0.533903 0.500909
    19 5.562228 -0.288269 -0.510574 3.173842 0.086066 -1.146271
    20 5.158491 0.000002 0.000004 -0.000024 0.244901 1.129229
    21 3.326000 -0.000004 0.000008 0.010815 -0.004069 0.400421
    22 5.591165 -0.279015 1.848881 3.149191 -0.377287 -1.483153
    23 5.292999 0.000000 0.000008 0.000006 0.000438 0.735312
    24 3.079115 -0.000004 0.000000 0.006976 -0.006848 1.321218
    25 5.739734 -0.095432 0.607277 3.163658 -0.128698 -1.291242
    26 5.652496 -0.000002 0.000000 -0.000021 0.072672 0.900473
    27 3.325010 -0.000003 -0.000008 0.009331 -0.006636 1.221887
    28 1.663048 1.210514 -2.595442 -0.971197 0.994500 2.778229
    29 6.028137 0.000004 0.000000 2.145833 0.305247 -1.339998
    30 12.693001 0.000000 0.000004 0.000000 0.000000 -1.789920
    31 11.599612 0.000008 -0.000004 -1.546731 -0.747911 1.308907
    32 5.928187 0.378914 0.637287 -3.092626 -0.415446 -1.822148
    33 5.073999 0.000000 0.000008 -0.000007 0.330536 1.980070
    34 3.325997 0.000002 0.000004 0.000000 0.000000 0.832520
    35 6.189649 0.568802 -0.554352 -3.106727 -0.188564 -1.753892
    36 5.510998 0.000005 0.000008 0.000001 -0.029189 1.511784
    37 3.325017 -0.000004 0.000008 0.000000 0.000000 0.822635
    38 5.900459 0.299202 -1.780357 -3.083472 -0.196111 -1.878767
    39 5.248498 0.000008 -0.000008 0.000010 0.105225 1.681029
    40 3.151004 0.000002 0.000000 0.000000 0.000000 0.822504
    41 7.694192 1.216627 -2.644989 -2.680311 -1.002217 5.777335
    42 0.162354 -7.207031 -2.447266 1.179746 0.332156 -2.903564
    43 -3.929419 0.000004 0.000002 1.756040 0.863368 -1.628356
    44 13.106233 0.000004 0.000002 0.000000 0.000000 2.320693
    45 3.929420 -0.000004 0.000000 0.122351 1.484380 0.278302
    46 13.106235 0.000008 -0.000001 0.000000 0.000000 -2.697250
    47 3.007648 4.344526 0.542816 1.200924 0.543793 0.441794
    48 10.074757 0.000000 -0.000002 0.000000 0.000000 -1.341529
    49 10.292004 -0.000004 0.000000 0.000000 0.000000 -0.230332
    50 -2.753412 4.323162 0.558395 2.252712 0.228459 3.011396
    51 10.074760 0.000004 0.000004 0.000000 0.000000 -1.739459
    52 10.292000 -0.000004 -0.000004 0.000000 0.000000 -0.512076
  time 24
    0 0.085940 17.640756 15.767362 2.204905 -0.243884 -0.416448
    1 0.000000 0.000000 0.000000 0.000000 0.000000 0.021550
    2 3.890447 0.000000 0.000000 -3.405204 -0.768070 0.435644
    3 17.591007 0.000000 -0.000003 0.000000 0.000000 2.305948
    4 17.699610 -0.000001 -0.000002 -0.397868 0.357237 -1.480369
    5 6.879457 0.000008 0.000001 -0.007299 -0.002951 -0.584373
    6 -3.890447 0.000000 0.000000 -0.777576 -0.865884 -2.812300
    7 17.590990 0.000000 0.000001 0.000000 0.000000 2.130282
    8 17.699574 0.000001 0.000001 0.241127 -0.203198 -1.986983
    9 6.879451 -0.000002 -0.000002 -0.081334 -0.002949 -0.584373
    10 0.000000 3.345131 -2.981898 1.980239 -0.195932 1.438607
    11 4.126656 0.000000 0.000000 0.499706 -0.202233 -0.128517
    12 3.612865 0.000000 0.000000 -0.420797 -0.396961 0.744847
    13 9.183983 0.000000 0.000000 -0.631093 0.027862 0.537778
    14 4.349196 -0.027877 -1.199255 3.594500 0.465085 0.337828
    15 1.663036 1.210508 2.595493 -0.598064 -1.078854 4.923366
    16 6.028141 0.000004 0.000000 -2.562844 -0.380944 -0.184732
    17 12.692978 0.000001 0.000023 0.000000 0.000000 -2.500802
    18 11.575961 0.000002 -0.000019 2.173532 0.522446 0.561670
    19 5.562228 -0.288269 -0.510574 3.173842 0.086066 -1.146271
    20 5.158491 0.000002 0.000004 -0.000024 0.244901 1.129229
    21 3.326000 -0.000004 0.000008 0.010815 -0.004069 0.400421
    22 5.591165 -0.279015 1.848881 3.149191 -0.377287 -1.483153
    23 5.292999 0.000000 0.000008 0.000006 0.000438 0.735312
    24 3.079115 -0.000004 0.000000 0.006976 -0.006848 1.321218
    25 5.739734 -0.095432 0.607277 3.163658 -0.128698 -1.291242
    26 5.652496 -0.000002 0.000000 -0.000021 0.072672 0.900473
    27 3.325010 -0.000003 -0.000008 0.009331 -0.006636 1.221887
    28 1.663048 1.210514 -2.595442 -0.971197 0.994500 2.778229
    29 6.028137 0.000004 0.000000 2.152407 0.248082 -1.405899
    30 12.693001 0.000000 0.000004 0.000000 0.000000 -1.644094
    31 11.599612 0.000008 -0.000004 -1.530875 -0.736109 1.192374
    32 5.928187 0.378914 0.637287 -3.092626 -0.415446 -1.822148
    33 5.073999 0.000000 0.000008 -0.000007 0.330739 1.978889
    34 3.325997 0.000002 0.000004 0.000000 0.000000 0.832520
    35 6.189649 0.568802 -0.554352 -3.106727 -0.188564 -1.753892
    36 5.510998 0.000005 0.000008 0.000001 -0.029189 1.511784
    37 3.325017 -0.000004 0.000008 0.000000 0.000000 0.822635
    38 5.900459 0.299202 -1.780357 -3.083472 -0.196111 -1.878767
    39 5.248498 0.000008 -0.000008 0.000010 0.105225 1.680964
    40 3.151004 0.000002 0.000000 0.000000 0.000000 0.822504
    41 7.741069 1.634609 -2.867652 -2.682516 -0.989712 5.812157
    42 0.162354 -7.207031 -2.447266 1.179746 0.332156 -2.903564
    43 -3.929419 0.000004 0.000002 1.779493 0.776008 -1.711150
    44 13.106233 0.000004 0.000002 0.000000 0.000000 2.230836
    45 3.929420 -0.000004 0.000000 1.545835 1.427691 1.492784
    46 13.106235 0.000008 -0.000001 0.000000 0.000000 -2.633081
    47 3.007648 4.344526 0.542816 1.228509 0.558010 0.473133
    48 10.074757 0.000000 -0.000002 0.000000 0.000000 -1.322023
    49 10.292004 -0.000004 0.000000 0.000000 0.000000 -0.218362
    50 -2.753412 4.323162 0.558395 2.265818 0.256115 3.046273
    51 10.074760 0.000004 0.000004 0.000000 0.000000 -1.736168
    52 10.292000 -0.000004 -0.000004 0.000000 0.000000 -0.509353
  time 25
    0 -0.011719 17.816543 15.814238 2.207300 -0.258438 -0.412013
    1 0.000000 0.000000 0.000000 0.000000 0.000000 0.021550
    2 3.890447 0.000000 0.000000 -3.425783 -0.767933 0.438287
    3 17.591007 0.000000 -0.000003 0.000000 0.000000 2.294654
    4 17.699610 -0.000001 -0.000002 -0.386733 0.358222 -1.460002
    5 6.879457 0.000008 0.000001 -0.007299 -0.002951 -0.584373
    6 -3.890447 0.000000 0.000000 -0.720951 -0.842012 -2.861055
    7 17.590990 0.000000 0.000001 0.000000 0.000000 2.137393
    8 17.699574 0.000001 0.000001 0.215196 -0.223644 -1.982768
    9 6.879451 -0.000002 -0.000002 -0.081334 -0.002949 -0.584373
    10 0.000000 3.345131 -2.981898 1.987179 -0.199788 1.439194
    11 4.126656 0.000000 0.000000 0.511004 -0.211419 -0.129803
    12 3.612865 0.000000 0.000000 -0.435200 -0.419179 0.756065
    13 9.183983 0.000000 0.000000 -0.654159 0.034948 0.546506
    14 4.278881 0.081502 -1.265664 3.637739 0.496153 0.415578
    15 1.663036 1.210508 2.595493 -0.579746 -1.063620 4.902971
    16 6.028141 0.000004 0.000000 -2.571837 -0.367097 -0.161672
    17 12.692978 0.000001 0.000023 0.000000 0.000000 -2.504162
    18 11.575961 0.000002 -0.000019 2.199658 0.517912 0.584563
    19 5.562228 -0.288269 -0.510574 3.173842 0.086066 -1.146271
    20 5.158491 0.000002 0.000004 -0.000024 0.244901 1.129229
    21 3.326000 -0.000004 0.000008 0.010815 -0.004069 0.400421
    22 5.591165 -0.279015 1.848881 3.149191 -0.377287 -1.483153
    23 5.292999 0.000000 0.000008 0.000006 0.000438 0.735312
    24 3.079115 -0.000004 0.000000 0.006976 -0.006848 1.321218
    25 5.739734 -0.095432 0.607277 3.163658 -0.128698 -1.291242
    26 5.652496 -0.000002 0.000000 -0.000021 0.072672 0.900473
    27 3.325010 -0.000003 -0.000008 0.009331 -0.006636 1.221887
    28 1.663048 1.210514 -2.595442 -0.971197 0.994500 2.778229
    29 6.028137 0.000004 0.000000 2.146024 0.232310 -1.422949
    30 12.693001 0.000000 0.000004 0.000000 0.000000 -1.582877
    31 11.599612 0.000008 -0.000004 -1.517493 -0.725958 1.145896
    32 5.928187 0.378914 0.637287 -3.092626 -0.415446 -1.822148
    33 5.073999 0.000000 0.000008 -0.000007 0.330895 1.977929
    34 3.325997 0.000002 0.000004 0.000000 0.000000 0.832520
    35 6.189649 0.568802 -0.554352 -3.106727 -0.188564 -1.753892
    36 5.510998 0.000005 0.000008 0.000001 -0.029189 1.511784
    37 3.325017 -0.000004 0.000008 0.000000 0.000000 0.822635
    38 5.900459 0.299202 -1.780357 -3.083472 -0.196111 -1.878767
    39 5.248498 0.000008 -0.000008 0.000010 0.105225 1.680964
    40 3.151004 0.000002 0.000000 0.000000 0.000000 0.822504
    41 7.772320 1.896335 -3.008281 -2.683666 -0.982702 5.831650
    42 0.162354 -7.207031 -2.447266 1.179746 0.332156 -2.903564
    43 -3.929419 0.000004 0.000002 1.787405 0.732420 -1.751356
    44 13.106233 0.000004 0.000002 0.000000 0.000000 2.175675
    45 3.929420 -0.000004 0.000000 1.745416 1.379481 1.596990
    46 13.106235 0.000008 -0.000001 0.000000 0.000000 -2.591475
    47 3.007648 4.344526 0.542816 1.239115 0.570859 0.484219
    48 10.074757 0.000000 -0.000002 0.000000 0.000000 -1.306997
    49 10.292004 -0.000004 0.000000 0.000000 0.000000 -0.209417
    50 -2.753412 4.323162 0.558395 2.268236 0.269358 3.056915
    51 10.074760 0.000004 0.000004 0.000000 0.000000 -1.735450
    52 10.292000 -0.000004 -0.000004 0.000000 0.000000 -0.508768
end
