version 1
nodes
0 "blender_implicit" -1
1 "L_UpperArm" -1
2 "L_Forearm" 1
3 "L_Hand" 2
4 "L_Thumb0" 3
5 "L_Thumb1" 4
6 "L_Thumb2" 5
7 "L_Pointer0" 3
8 "L_Pointer1" 7
9 "L_Pointer2" 8
10 "L_Middle0" 3
11 "L_Middle1" 10
12 "L_Middle2" 11
13 "L_Ring0" 3
14 "L_Ring1" 13
15 "L_Ring2" 14
16 "L_Pinky0" 3
17 "L_Pinky1" 16
18 "L_Pinky2" 17
19 "L_UpperArmIKT" -1
20 "R_UpperArm" -1
21 "R_Forearm" 20
22 "R_Hand" 21
23 "R_Thumb0" 22
24 "R_Thumb1" 23
25 "R_Thumb2" 24
26 "R_Pointer0" 22
27 "R_Pointer1" 26
28 "R_Pointer2" 27
29 "R_Middle0" 22
30 "R_Middle1" 29
31 "R_Middle2" 30
32 "R_Ring0" 22
33 "R_Ring1" 32
34 "R_Ring2" 33
35 "R_Pinky0" 22
36 "R_Pinky1" 35
37 "R_Pinky2" 36
38 "Mag" 22
39 "Bolt" 22
40 "R_UpperArmIKT" -1
41 "L_Hand.001" -1
42 "R_Hand.001" -1
43 "R_Hand.003" 42
44 "R_Hand.005" 42
end
skeleton
time 0
0  0 0 0  0 0 0
1  -5.355218 -5.339104 -8.291138  2.848175 0.593634 0.139653
2  -0.000000 11.468580 0.000000  0.285157 0.372500 1.168052
3  -0.000001 12.816456 -0.000001  0.421364 -0.106548 -0.434835
4  -0.000001 2.167195 -0.000000  -1.568361 0.525611 0.200446
5  -0.000002 2.567070 -0.000004  1.320258 -0.214704 -0.282045
6  0.000002 1.464967 -0.000000  0.824862 -0.273098 0.126686
7  -0.000001 2.167195 -0.000000  -0.507890 -0.207301 0.112373
8  0.000001 3.726166 -0.000001  0.110614 -0.529114 1.732680
9  -0.000000 2.144070 0.000000  -0.075993 -0.303549 1.386446
10  -0.000001 2.167195 -0.000000  -0.253170 -0.083860 0.161467
11  -0.000000 3.609649 0.000000  -0.073679 -0.380640 1.977874
12  0.000002 2.118028 -0.000000  -0.100125 -0.279099 1.579645
13  -0.000001 2.167195 -0.000000  0.047121 0.088415 0.170705
14  0.000001 3.532716 -0.000000  -0.096691 -0.185890 1.934163
15  0.000002 2.225789 -0.000000  -0.076451 -0.455651 1.671700
16  -0.000001 2.167195 -0.000000  0.271280 0.246622 0.180993
17  -0.000000 3.685046 0.000000  -0.246017 0.465126 1.799745
18  -0.000003 1.981059 0.000000  -0.087917 0.215571 1.252227
19  0.000000 -12.096142 10.071050  1.570797 -0.000000 0.000000
20  -9.366302 5.258384 -4.926641  2.922229 -0.233351 -1.050896
21  -0.000001 11.468577 -0.000000  0.279652 0.246604 -1.443862
22  0.000002 12.816455 0.000000  -0.064929 -0.051461 0.423600
23  0.000001 2.167198 -0.000000  -1.279418 -0.250291 -0.062071
24  -0.000000 2.567069 0.000001  1.274299 0.142686 0.169036
25  0.000000 1.443191 -0.000000  0.802273 0.139588 0.010908
26  0.000001 2.167198 -0.000000  -0.423218 0.166886 0.314043
27  0.000001 3.726163 0.000001  0.245487 0.100666 -0.806513
28  0.000002 2.058414 0.000001  0.039025 0.129105 -0.489969
29  0.000001 2.167198 -0.000000  -0.064924 0.039225 0.291489
30  -0.000001 3.609649 -0.000000  -0.075616 0.134510 -1.768896
31  0.000001 2.085953 0.000000  -0.118616 0.042848 -1.480332
32  0.000001 2.167198 -0.000000  0.212897 -0.091647 0.216737
33  0.000000 3.532717 0.000000  -0.156590 -0.256745 -1.853166
34  -0.000001 2.194928 0.000000  -0.112674 0.014151 -1.714720
35  0.000001 2.167198 -0.000000  0.502678 -0.222501 0.162544
36  -0.000000 3.685045 0.000000  -0.056994 -0.411238 -1.970080
37  0.000003 1.901133 0.000000  0.014138 -0.158628 -1.197288
38  0.000001 2.167198 -0.000000  -0.284281 -0.015959 -0.088094
39  0.000001 2.167198 -0.000000  -0.514160 -0.025316 -0.075305
40  -15.678185 -12.096142 10.071050  1.570797 -0.000000 0.000000
41  -10.731464 -23.988163 -0.719872  3.081105 -0.010354 -0.353580
42  -14.285053 -11.562529 -2.756672  3.118263 0.008135 -0.015057
43  0.000001 2.167199 -0.000000  -0.284281 -0.015959 -0.088094
44  0.000001 2.167199 -0.000000  -0.514160 -0.025316 -0.075305
time 1
0  0 0 0  0 0 0
1  -5.355218 -5.339104 -8.291138  2.884783 0.713769 0.296639
2  -0.000000 11.468580 0.000001  0.310745 0.251312 1.576651
3  0.000002 12.816454 0.000001  0.518373 -0.017803 -0.668193
4  0.000000 2.167199 -0.000000  -1.568361 0.525611 0.200446
5  -0.000001 2.567069 0.000002  1.320258 -0.214704 -0.282045
6  -0.000001 1.464965 0.000001  0.824862 -0.273098 0.126686
7  0.000000 2.167199 -0.000000  -0.507890 -0.207301 0.112373
8  -0.000001 3.726164 -0.000001  0.110614 -0.529114 1.732680
9  0.000002 2.144069 0.000000  -0.075993 -0.303549 1.386446
10  0.000000 2.167199 -0.000000  -0.253170 -0.083860 0.161467
11  0.000000 3.609653 0.000001  -0.073679 -0.380640 1.977874
12  -0.000001 2.118031 -0.000000  -0.100125 -0.279099 1.579645
13  0.000000 2.167199 -0.000000  0.047121 0.088415 0.170705
14  -0.000002 3.532719 0.000000  -0.096691 -0.185890 1.934163
15  -0.000002 2.225786 0.000000  -0.076451 -0.455651 1.671700
16  0.000000 2.167199 -0.000000  0.271280 0.246622 0.180993
17  0.000001 3.685047 0.000000  -0.246017 0.465126 1.799745
18  0.000002 1.981061 -0.000000  -0.087917 0.215571 1.252227
19  0.000000 -12.096142 10.071050  1.570797 -0.000000 0.000000
20  -9.366302 5.258384 -4.926641  2.825408 -0.232348 -1.306813
21  -0.000001 11.468578 0.000001  0.274794 0.342998 -1.794134
22  0.000001 12.816454 -0.000000  -0.136280 0.060137 0.488245
23  -0.000001 2.167199 -0.000000  -1.279418 -0.250291 -0.062071
24  -0.000000 2.567069 0.000000  1.274299 0.142686 0.169036
25  0.000000 1.443191 -0.000000  0.802273 0.139588 0.010908
26  -0.000001 2.167199 -0.000000  -0.423218 0.166886 0.314043
27  -0.000000 3.726165 -0.000001  0.245487 0.100666 -0.806513
28  -0.000000 2.058414 -0.000001  0.039025 0.129105 -0.489969
29  -0.000001 2.167199 -0.000000  -0.064924 0.039225 0.291489
30  -0.000000 3.609650 -0.000000  -0.075616 0.134510 -1.768896
31  -0.000001 2.085953 0.000000  -0.118616 0.042848 -1.480332
32  -0.000001 2.167199 -0.000000  0.212897 -0.091647 0.216737
33  -0.000001 3.532715 -0.000000  -0.156590 -0.256745 -1.853166
34  -0.000000 2.194928 0.000000  -0.112674 0.014151 -1.714720
35  -0.000001 2.167199 -0.000000  0.502678 -0.222501 0.162544
36  -0.000000 3.685047 0.000000  -0.056994 -0.411238 -1.970080
37  0.000001 1.901132 -0.000000  0.014138 -0.158628 -1.197289
38  -0.000001 2.167199 -0.000000  -0.284281 -0.015959 -0.088094
39  -0.000001 2.167199 -0.000000  -0.514160 -0.025316 -0.075305
40  -15.678185 -12.096142 10.071050  1.570797 -0.000000 0.000000
41  -10.731464 -20.502508 -0.698812  3.065109 -0.016255 -0.353367
42  -14.285053 -8.113401 -2.947148  3.101216 0.007878 -0.015193
43  0.000000 2.167197 -0.000000  -0.284282 -0.015959 -0.088094
44  0.000000 2.167197 -0.000000  -0.514161 -0.025316 -0.075305
time 2
0  0 0 0  0 0 0
1  -5.355218 -5.339104 -8.291138  2.866971 0.663111 0.240799
2  -0.000000 11.468578 0.000001  0.307165 0.299170 1.421175
3  -0.000000 12.816454 0.000001  0.469964 -0.067121 -0.580166
4  -0.000001 2.167198 -0.000000  -1.568361 0.525611 0.200446
5  0.000001 2.567069 -0.000002  1.320258 -0.214704 -0.282045
6  0.000002 1.464965 -0.000000  0.824862 -0.273098 0.126686
7  -0.000001 2.167198 -0.000000  -0.507890 -0.207301 0.112373
8  0.000000 3.726165 0.000001  0.110614 -0.529114 1.732680
9  0.000001 2.144071 -0.000000  -0.075993 -0.303549 1.386446
10  -0.000001 2.167198 -0.000000  -0.253170 -0.083860 0.161467
11  -0.000002 3.609650 -0.000000  -0.073679 -0.380640 1.977874
12  0.000000 2.118032 -0.000000  -0.100125 -0.279099 1.579645
13  -0.000001 2.167198 -0.000000  0.047121 0.088415 0.170705
14  0.000000 3.532718 -0.000000  -0.096691 -0.185890 1.934163
15  0.000000 2.225785 -0.000000  -0.076451 -0.455651 1.671700
16  -0.000001 2.167198 -0.000000  0.271280 0.246622 0.180993
17  0.000001 3.685044 -0.000000  -0.246017 0.465126 1.799745
18  -0.000001 1.981056 -0.000001  -0.087917 0.215571 1.252227
19  0.000000 -12.096142 10.071050  1.570797 -0.000000 0.000000
20  -9.366302 5.258384 -4.926641  2.872216 -0.231035 -1.198789
21  -0.000002 11.468579 0.000000  0.281074 0.303931 -1.649980
22  -0.000000 12.816454 -0.000000  -0.110529 -0.001959 0.470285
23  -0.000001 2.167197 0.000000  -1.279418 -0.250291 -0.062071
24  0.000000 2.567069 0.000001  1.274299 0.142686 0.169036
25  0.000001 1.443192 -0.000000  0.802273 0.139588 0.010908
26  -0.000001 2.167197 0.000000  -0.423218 0.166886 0.314043
27  0.000001 3.726162 -0.000002  0.245487 0.100666 -0.806513
28  0.000000 2.058414 0.000000  0.039025 0.129105 -0.489969
29  -0.000001 2.167197 0.000000  -0.064924 0.039225 0.291489
30  -0.000000 3.609651 0.000000  -0.075616 0.134510 -1.768896
31  0.000003 2.085952 -0.000000  -0.118616 0.042848 -1.480332
32  -0.000001 2.167197 0.000000  0.212897 -0.091647 0.216737
33  0.000001 3.532716 0.000000  -0.156590 -0.256745 -1.853166
34  0.000000 2.194929 0.000000  -0.112674 0.014151 -1.714720
35  -0.000001 2.167197 0.000000  0.502678 -0.222501 0.162544
36  0.000001 3.685046 0.000000  -0.056994 -0.411238 -1.970080
37  0.000000 1.901134 0.000001  0.014138 -0.158628 -1.197288
38  -0.000001 2.167197 0.000000  -0.284281 -0.015959 -0.088094
39  -0.000001 2.167197 0.000000  -0.514160 -0.025316 -0.075305
40  -15.678185 -12.096142 10.071050  1.570797 -0.000000 0.000000
41  -10.713902 -21.979492 -0.687503  3.062997 -0.004932 -0.353377
42  -14.302611 -9.589921 -2.874216  3.102787 0.019169 -0.015239
43  0.000000 2.167198 0.000000  -0.284282 -0.015959 -0.088094
44  0.000000 2.167198 0.000000  -0.514161 -0.025316 -0.075305
time 3
0  0 0 0  0 0 0
1  -5.355218 -5.339104 -8.291138  2.849998 0.606531 0.159973
2  -0.000001 11.468579 0.000000  0.290915 0.358970 1.216942
3  0.000000 12.816454 0.000000  0.416897 -0.114981 -0.468965
4  0.000000 2.167199 0.000000  -1.568361 0.525611 0.200446
5  -0.000000 2.567068 0.000001  1.320258 -0.214704 -0.282045
6  -0.000000 1.464965 0.000001  0.824862 -0.273098 0.126686
7  0.000000 2.167199 0.000000  -0.507890 -0.207301 0.112373
8  0.000000 3.726163 0.000002  0.110614 -0.529114 1.732680
9  -0.000001 2.144071 0.000000  -0.075993 -0.303549 1.386446
10  0.000000 2.167199 0.000000  -0.253170 -0.083860 0.161467
11  -0.000001 3.609649 0.000001  -0.073679 -0.380640 1.977874
12  0.000000 2.118031 0.000000  -0.100125 -0.279099 1.579645
13  0.000000 2.167199 0.000000  0.047121 0.088415 0.170705
14  -0.000001 3.532718 0.000000  -0.096691 -0.185890 1.934163
15  0.000002 2.225784 0.000001  -0.076451 -0.455651 1.671700
16  0.000000 2.167199 0.000000  0.271280 0.246622 0.180993
17  0.000001 3.685047 -0.000000  -0.246017 0.465126 1.799745
18  -0.000000 1.981056 -0.000000  -0.087917 0.215571 1.252227
19  0.000000 -12.096142 10.071050  1.570797 -0.000000 0.000000
20  -9.366302 5.258384 -4.926641  2.914035 -0.231290 -1.077060
21  -0.000002 11.468576 -0.000000  0.280776 0.256542 -1.479516
22  -0.000002 12.816455 0.000000  -0.082431 -0.062858 0.432773
23  -0.000000 2.167197 -0.000000  -1.279418 -0.250291 -0.062071
24  -0.000001 2.567069 -0.000002  1.274299 0.142686 0.169036
25  0.000001 1.443191 0.000000  0.802273 0.139588 0.010908
26  -0.000000 2.167197 -0.000000  -0.423218 0.166886 0.314043
27  -0.000000 3.726165 0.000000  0.245487 0.100666 -0.806513
28  -0.000002 2.058414 0.000000  0.039025 0.129105 -0.489969
29  -0.000000 2.167197 -0.000000  -0.064924 0.039225 0.291489
30  0.000000 3.609648 0.000000  -0.075616 0.134510 -1.768896
31  0.000001 2.085952 0.000000  -0.118616 0.042848 -1.480332
32  -0.000000 2.167197 -0.000000  0.212897 -0.091647 0.216737
33  -0.000001 3.532717 0.000000  -0.156590 -0.256745 -1.853166
34  0.000002 2.194928 -0.000000  -0.112674 0.014151 -1.714719
35  -0.000000 2.167197 -0.000000  0.502678 -0.222501 0.162544
36  0.000000 3.685046 0.000000  -0.056994 -0.411238 -1.970080
37  0.000000 1.901134 0.000000  0.014138 -0.158628 -1.197288
38  -0.000000 2.167197 -0.000000  -0.284281 -0.015959 -0.088094
39  -0.000000 2.167197 -0.000000  -0.514160 -0.025316 -0.075305
40  -15.678185 -12.096142 10.071050  1.570797 -0.000000 0.000000
41  -10.708054 -23.633692 -0.690130  3.062774 0.006794 -0.353510
42  -14.308464 -11.231802 -2.786414  3.106663 0.030396 -0.015243
43  -0.000001 2.167197 0.000000  -0.284282 -0.015959 -0.088094
44  -0.000001 2.167197 0.000000  -0.514161 -0.025316 -0.075305
time 4
0  0 0 0  0 0 0
1  -5.355218 -5.339104 -8.291138  2.848670 0.597476 0.145756
2  -0.000001 11.468580 0.000001  0.286962 0.368469 1.182754
3  0.000000 12.816455 -0.000001  0.414036 -0.116119 -0.448800
4  0.000001 2.167198 -0.000000  -1.568361 0.525611 0.200446
5  0.000001 2.567069 -0.000000  1.320258 -0.214704 -0.282045
6  -0.000000 1.464966 -0.000000  0.824862 -0.273098 0.126686
7  0.000001 2.167198 -0.000000  -0.507890 -0.207301 0.112373
8  -0.000000 3.726165 0.000001  0.110614 -0.529114 1.732680
9  0.000001 2.144071 0.000000  -0.075993 -0.303549 1.386446
10  0.000001 2.167198 -0.000000  -0.253170 -0.083860 0.161467
11  -0.000001 3.609651 -0.000001  -0.073679 -0.380640 1.977874
12  0.000001 2.118031 0.000000  -0.100125 -0.279099 1.579645
13  0.000001 2.167198 -0.000000  0.047121 0.088415 0.170705
14  -0.000002 3.532719 0.000000  -0.096691 -0.185890 1.934163
15  -0.000004 2.225788 -0.000000  -0.076451 -0.455651 1.671700
16  0.000001 2.167198 -0.000000  0.271280 0.246622 0.180993
17  0.000000 3.685046 0.000000  -0.246017 0.465126 1.799745
18  0.000001 1.981058 -0.000000  -0.087917 0.215571 1.252227
19  0.000000 -12.096142 10.071050  1.570797 -0.000000 0.000000
20  -9.366302 5.258384 -4.926641  2.919848 -0.232737 -1.058632
21  -0.000001 11.468577 -0.000000  0.280024 0.249553 -1.454450
22  -0.000000 12.816457 -0.000000  -0.073233 -0.064695 0.426831
23  0.000000 2.167197 0.000000  -1.279418 -0.250291 -0.062071
24  -0.000001 2.567069 -0.000000  1.274299 0.142686 0.169036
25  0.000001 1.443192 -0.000000  0.802273 0.139588 0.010908
26  0.000000 2.167197 0.000000  -0.423218 0.166886 0.314043
27  -0.000001 3.726164 -0.000000  0.245487 0.100666 -0.806513
28  -0.000001 2.058413 0.000000  0.039025 0.129105 -0.489969
29  0.000000 2.167197 0.000000  -0.064924 0.039225 0.291489
30  -0.000001 3.609650 -0.000000  -0.075616 0.134510 -1.768896
31  0.000001 2.085952 0.000000  -0.118616 0.042848 -1.480332
32  0.000000 2.167197 0.000000  0.212897 -0.091647 0.216737
33  0.000001 3.532718 -0.000000  -0.156590 -0.256745 -1.853166
34  -0.000000 2.194929 -0.000000  -0.112674 0.014151 -1.714720
35  0.000000 2.167197 0.000000  0.502678 -0.222501 0.162544
36  -0.000001 3.685047 -0.000000  -0.056994 -0.411238 -1.970080
37  -0.000001 1.901133 -0.000001  0.014138 -0.158628 -1.197288
38  0.000000 2.167197 0.000000  -0.284281 -0.015959 -0.088094
39  0.000000 2.167197 0.000000  -0.514160 -0.025316 -0.075305
40  -15.678185 -12.096142 10.071050  1.570797 -0.000000 0.000000
41  -10.724536 -23.883116 -0.710229  3.069204 0.002710 -0.353498
42  -14.291989 -11.464536 -2.765484  3.111720 0.024567 -0.015153
43  0.000001 2.167197 -0.000000  -0.284282 -0.015959 -0.088094
44  0.000001 2.167197 -0.000000  -0.514161 -0.025316 -0.075305
time 5
0  0 0 0  0 0 0
1  -5.355218 -5.339104 -8.291138  2.848220 0.594121 0.140403
2  -0.000000 11.468579 0.000001  0.285385 0.371999 1.169885
3  -0.000000 12.816456 -0.000000  0.418187 -0.110382 -0.438001
4  0.000001 2.167197 -0.000000  -1.568361 0.525611 0.200446
5  0.000001 2.567070 -0.000001  1.320258 -0.214704 -0.282045
6  -0.000001 1.464967 -0.000000  0.824862 -0.273098 0.126686
7  0.000001 2.167197 -0.000000  -0.507890 -0.207301 0.112373
8  -0.000001 3.726166 0.000000  0.110614 -0.529114 1.732680
9  -0.000001 2.144071 0.000000  -0.075993 -0.303549 1.386446
10  0.000001 2.167197 -0.000000  -0.253170 -0.083860 0.161467
11  -0.000000 3.609652 -0.000001  -0.073679 -0.380640 1.977874
12  0.000003 2.118027 0.000000  -0.100125 -0.279099 1.579645
13  0.000001 2.167197 -0.000000  0.047121 0.088415 0.170705
14  0.000002 3.532720 0.000000  -0.096691 -0.185890 1.934163
15  -0.000001 2.225786 -0.000000  -0.076451 -0.455651 1.671700
16  0.000001 2.167197 -0.000000  0.271280 0.246622 0.180993
17  -0.000000 3.685047 0.000000  -0.246017 0.465126 1.799745
18  0.000001 1.981057 -0.000000  -0.087917 0.215571 1.252227
19  0.000000 -12.096142 10.071050  1.570797 -0.000000 0.000000
20  -9.366302 5.258384 -4.926641  2.921933 -0.233274 -1.051864
21  -0.000000 11.468575 -0.000000  0.279701 0.246973 -1.445189
22  0.000000 12.816456 -0.000000  -0.067140 -0.056802 0.424167
23  -0.000000 2.167197 -0.000000  -1.279418 -0.250291 -0.062071
24  -0.000001 2.567069 0.000000  1.274299 0.142686 0.169036
25  0.000002 1.443194 -0.000000  0.802273 0.139588 0.010908
26  -0.000000 2.167197 -0.000000  -0.423218 0.166886 0.314043
27  -0.000000 3.726164 -0.000000  0.245487 0.100666 -0.806513
28  -0.000001 2.058413 0.000000  0.039025 0.129105 -0.489969
29  -0.000000 2.167197 -0.000000  -0.064924 0.039225 0.291489
30  -0.000001 3.609650 0.000000  -0.075616 0.134510 -1.768896
31  0.000002 2.085952 0.000000  -0.118616 0.042848 -1.480332
32  -0.000000 2.167197 -0.000000  0.212897 -0.091647 0.216737
33  0.000001 3.532718 -0.000000  -0.156590 -0.256745 -1.853166
34  0.000001 2.194929 0.000000  -0.112674 0.014151 -1.714720
35  -0.000000 2.167197 -0.000000  0.502678 -0.222501 0.162544
36  -0.000001 3.685048 0.000000  -0.056994 -0.411238 -1.970080
37  0.000000 1.901133 0.000000  0.014138 -0.158628 -1.197288
38  -0.000000 2.167197 -0.000000  -0.284281 -0.015959 -0.088094
39  -0.000000 2.167197 -0.000000  -0.514161 -0.025316 -0.075305
40  -15.678185 -12.096142 10.071050  1.570797 -0.000000 0.000000
41  -10.730602 -23.975025 -0.718355  3.077191 -0.005727 -0.353534
42  -14.285920 -11.550280 -2.757774  3.116281 0.013878 -0.015077
43  0.000001 2.167197 0.000000  -0.284282 -0.015959 -0.088094
44  0.000001 2.167197 0.000000  -0.514161 -0.025316 -0.075305
time 6
0  0 0 0  0 0 0
1  -5.355218 -5.339104 -8.291138  2.848175 0.593634 0.139653
2  -0.000000 11.468580 0.000000  0.285157 0.372500 1.168052
3  -0.000001 12.816456 -0.000001  0.421364 -0.106548 -0.434835
4  -0.000001 2.167195 -0.000000  -1.568361 0.525611 0.200446
5  -0.000002 2.567070 -0.000004  1.320258 -0.214704 -0.282045
6  0.000002 1.464967 -0.000000  0.824862 -0.273098 0.126686
7  -0.000001 2.167195 -0.000000  -0.507890 -0.207301 0.112373
8  0.000001 3.726166 -0.000001  0.110614 -0.529114 1.732680
9  -0.000000 2.144070 0.000000  -0.075993 -0.303549 1.386446
10  -0.000001 2.167195 -0.000000  -0.253170 -0.083860 0.161467
11  -0.000000 3.609649 0.000000  -0.073679 -0.380640 1.977874
12  0.000002 2.118028 -0.000000  -0.100125 -0.279099 1.579645
13  -0.000001 2.167195 -0.000000  0.047121 0.088415 0.170705
14  0.000001 3.532716 -0.000000  -0.096691 -0.185890 1.934163
15  0.000002 2.225789 -0.000000  -0.076451 -0.455651 1.671700
16  -0.000001 2.167195 -0.000000  0.271280 0.246622 0.180993
17  -0.000000 3.685046 0.000000  -0.246017 0.465126 1.799745
18  -0.000003 1.981059 0.000000  -0.087917 0.215571 1.252227
19  0.000000 -12.096142 10.071050  1.570797 -0.000000 0.000000
20  -9.366302 5.258384 -4.926641  2.922229 -0.233351 -1.050896
21  -0.000001 11.468577 -0.000000  0.279652 0.246604 -1.443862
22  0.000002 12.816455 0.000000  -0.064929 -0.051461 0.423600
23  0.000001 2.167198 -0.000000  -1.279418 -0.250291 -0.062071
24  -0.000000 2.567069 0.000001  1.274299 0.142686 0.169036
25  0.000000 1.443191 -0.000000  0.802273 0.139588 0.010908
26  0.000001 2.167198 -0.000000  -0.423218 0.166886 0.314043
27  0.000001 3.726163 0.000001  0.245487 0.100666 -0.806513
28  0.000002 2.058414 0.000001  0.039025 0.129105 -0.489969
29  0.000001 2.167198 -0.000000  -0.064924 0.039225 0.291489
30  -0.000001 3.609649 -0.000000  -0.075616 0.134510 -1.768896
31  0.000001 2.085953 0.000000  -0.118616 0.042848 -1.480332
32  0.000001 2.167198 -0.000000  0.212897 -0.091647 0.216737
33  0.000000 3.532717 0.000000  -0.156590 -0.256745 -1.853166
34  -0.000001 2.194928 0.000000  -0.112674 0.014151 -1.714720
35  0.000001 2.167198 -0.000000  0.502678 -0.222501 0.162544
36  -0.000000 3.685045 0.000000  -0.056994 -0.411238 -1.970080
37  0.000003 1.901133 0.000000  0.014138 -0.158628 -1.197288
38  0.000001 2.167198 -0.000000  -0.284281 -0.015959 -0.088094
39  0.000001 2.167198 -0.000000  -0.514160 -0.025316 -0.075305
40  -15.678185 -12.096142 10.071050  1.570797 -0.000000 0.000000
41  -10.731464 -23.988163 -0.719872  3.081105 -0.010354 -0.353580
42  -14.285053 -11.562529 -2.756672  3.118263 0.008135 -0.015057
43  0.000001 2.167199 -0.000000  -0.284281 -0.015959 -0.088094
44  0.000001 2.167199 -0.000000  -0.514160 -0.025316 -0.075305
end
