//=================================================================================
//	QC Generated by Source Model Decompiler.
//=================================================================================

$modelname "weapons/w_oicw.mdl"
$cdmaterials "models/weapons/w_AR2/"

$body "studio" "AR2_reference.smd"

$illumposition 1.19 -0.39 -0.30

$surfaceprop "weapon"

$contents solid

$bbox -15.38 -1.55 -7.15 17.76 0.76 6.55
$hboxset "default"
$hbox 0 "ValveBiped.Bip01_R_Hand"    0.00   -1.50   -5.00     5.00   -1.50    0.00
$hbox 0 "ValveBiped.Weapon_bone"  -13.66   -1.05   -5.35    19.57   -1.05    8.31

$attachment "muzzle" "ValveBiped.Weapon_bone" 19.57 0.74 -0.26 rotate 2.27 -0.02 176.56

$attachment "1" "ValveBiped.Weapon_bone" 4.44 1.37 0.00 rotate 3.43 90.11 -177.72


$sequence "idle" "@idle.smd" fps 30.00 ACT_VM_IDLE 1  {
	fadein 0.2
	fadeout 0.2
	fps 30
	loop

}

$sequence "attack1" "@attack1.smd" fps 30.00 ACT_RANGE_ATTACK_AR2 1 node Fire {
    { event AE_MUZZLEFLASH 0 "357 MUZZLE" }  
	{ event 3007 0 "1" }
	{ event 6001 0.00 "1" }
	fadein 0.2
	fadeout 0.2
	fps 30

}

$sequence "attack2" "@attack2.smd" fps 30.00 loop  walkframe 1 LX ACT_RANGE_ATTACK_AR2_GRENADE 1 node Fire {
   { event AE_MUZZLEFLASH 0 "357 MUZZLE" }  
	{ event 3007 0 "1" }
	fadein 0.2
	fadeout 0.2
	fps 30
}

$collisionmodel "w_AR2_phy.smd" {
	$mass "10.000000"
	$inertia "1.000000"
	$damping "0.000000"
	$rotdamping "0.000000"

}