// Created by Crowbar 0.68
version 1
nodes
  0 "static_prop" -1
end
skeleton
  time 0
    0 0.000000 0.000000 0.000000 0.000000 0.000000 0.000000
end
triangles
barrelbottom01a
  0 13.655100 -6.319600 0.000000 0.000000 0.000000 -1.000000 0.500000 0.799900 1 0 1.000000
  0 12.304200 4.513700 0.000000 0.000000 0.000000 -1.000000 0.131800 0.852700 1 0 1.000000
  0 15.050400 -0.617499 0.000000 0.000000 0.000000 -1.000000 0.304900 0.966300 1 0 1.000000
barrelbottom01a
  0 13.655100 -6.319600 0.000000 0.000000 0.000000 -1.000000 0.500000 0.799900 1 0 1.000000
  0 11.112000 10.203201 0.000000 0.000000 0.000000 -1.000000 0.038500 0.691200 1 0 1.000000
  0 12.304200 4.513700 0.000000 0.000000 0.000000 -1.000000 0.131800 0.852700 1 0 1.000000
barrelbottom01a
  0 13.655100 -6.319600 0.000000 0.000000 0.000000 -1.000000 0.500000 0.799900 1 0 1.000000
  0 6.377900 13.674400 0.000000 0.000000 0.000000 -1.000000 0.000500 0.500000 1 0 1.000000
  0 11.112000 10.203201 0.000000 0.000000 0.000000 -1.000000 0.038500 0.691200 1 0 1.000000
barrelbottom01a
  0 13.655100 -6.319600 0.000000 0.000000 0.000000 -1.000000 0.500000 0.799900 1 0 1.000000
  0 0.675699 15.069700 0.000000 0.000000 0.000000 -1.000000 0.038500 0.308800 1 0 1.000000
  0 6.377900 13.674400 0.000000 0.000000 0.000000 -1.000000 0.000500 0.500000 1 0 1.000000
barrelbottom01a
  0 13.655100 -6.319600 0.000000 0.000000 0.000000 -1.000000 0.500000 0.799900 1 0 1.000000
  0 -5.126300 14.176700 0.000000 0.000000 0.000000 -1.000000 0.146800 0.146800 1 0 1.000000
  0 0.675699 15.069700 0.000000 0.000000 0.000000 -1.000000 0.038500 0.308800 1 0 1.000000
barrelbottom01a
  0 13.655100 -6.319600 0.000000 0.000000 0.000000 -1.000000 0.500000 0.799900 1 0 1.000000
  0 -10.144901 11.131300 0.000000 0.000000 0.000000 -1.000000 0.308800 0.038500 1 0 1.000000
  0 -5.126300 14.176700 0.000000 0.000000 0.000000 -1.000000 0.146800 0.146800 1 0 1.000000
barrelbottom01a
  0 13.655100 -6.319600 0.000000 0.000000 0.000000 -1.000000 0.500000 0.799900 1 0 1.000000
  0 -13.616100 6.397200 0.000000 0.000000 0.000000 -1.000000 0.500000 0.000500 1 0 1.000000
  0 -10.144901 11.131300 0.000000 0.000000 0.000000 -1.000000 0.308800 0.038500 1 0 1.000000
barrelbottom01a
  0 13.655100 -6.319600 0.000000 0.000000 0.000000 -1.000000 0.500000 0.799900 1 0 1.000000
  0 -15.011400 0.695099 0.000000 0.000000 0.000000 -1.000000 0.691200 0.038500 1 0 1.000000
  0 -13.616100 6.397200 0.000000 0.000000 0.000000 -1.000000 0.500000 0.000500 1 0 1.000000
barrelbottom01a
  0 13.655100 -6.319600 0.000000 0.000000 0.000000 -1.000000 0.500000 0.799900 1 0 1.000000
  0 -14.118400 -5.107000 0.000000 0.000000 0.000000 -1.000000 0.853200 0.146800 1 0 1.000000
  0 -15.011400 0.695099 0.000000 0.000000 0.000000 -1.000000 0.691200 0.038500 1 0 1.000000
barrelbottom01a
  0 13.655100 -6.319600 0.000000 0.000000 0.000000 -1.000000 0.500000 0.799900 1 0 1.000000
  0 -11.073000 -10.125601 0.000000 0.000000 0.000000 -1.000000 0.961500 0.308800 1 0 1.000000
  0 -14.118400 -5.107000 0.000000 0.000000 0.000000 -1.000000 0.853200 0.146800 1 0 1.000000
barrelbottom01a
  0 13.655100 -6.319600 0.000000 0.000000 0.000000 -1.000000 0.500000 0.799900 1 0 1.000000
  0 -6.338900 -13.596800 0.000000 0.000000 0.000000 -1.000000 0.999500 0.500000 1 0 1.000000
  0 -11.073000 -10.125601 0.000000 0.000000 0.000000 -1.000000 0.961500 0.308800 1 0 1.000000
barrelbottom01a
  0 13.655100 -6.319600 0.000000 0.000000 0.000000 -1.000000 0.500000 0.799900 1 0 1.000000
  0 -0.636799 -14.992100 0.000000 0.000000 0.000000 -1.000000 0.961500 0.691200 1 0 1.000000
  0 -6.338900 -13.596800 0.000000 0.000000 0.000000 -1.000000 0.999500 0.500000 1 0 1.000000
barrelbottom01a
  0 13.655100 -6.319600 0.000000 0.000000 0.000000 -1.000000 0.500000 0.799900 1 0 1.000000
  0 5.165201 -14.099100 0.000000 0.000000 0.000000 -1.000000 0.853200 0.853200 1 0 1.000000
  0 -0.636799 -14.992100 0.000000 0.000000 0.000000 -1.000000 0.961500 0.691200 1 0 1.000000
barrelbottom01a
  0 13.655100 -6.319600 0.000000 0.000000 0.000000 -1.000000 0.500000 0.799900 1 0 1.000000
  0 10.183901 -11.053700 0.000000 0.000000 0.000000 -1.000000 0.691200 0.961500 1 0 1.000000
  0 5.165201 -14.099100 0.000000 0.000000 0.000000 -1.000000 0.853200 0.853200 1 0 1.000000
barrelside01a
  0 6.095200 12.400000 1.741300 0.383311 0.775923 0.501015 -0.053300 0.036700 1 0 1.000000
  0 6.377900 13.674400 0.000000 0.335806 0.714213 0.614112 -0.050000 0.000500 1 0 1.000000
  0 0.675699 15.069700 0.000000 0.185801 0.759504 0.623403 0.012500 0.000500 1 0 1.000000
barrelside01a
  0 11.112000 10.203201 0.000000 0.652698 0.606898 0.453498 0.887500 0.000500 1 0 1.000000
  0 10.341500 10.135700 1.741300 0.734494 0.569396 0.369197 0.892700 0.036700 1 0 1.000000
  0 12.304200 4.513700 0.000000 0.886088 0.185697 0.424694 0.825000 0.000500 1 0 1.000000
barrelside01a
  0 10.341500 10.135700 1.741300 0.734494 0.569396 0.369197 0.892700 0.036700 1 0 1.000000
  0 11.112000 10.203201 0.000000 0.652698 0.606898 0.453498 0.887500 0.000500 1 0 1.000000
  0 6.095200 12.400000 1.741300 0.383311 0.775923 0.501015 0.946700 0.036700 1 0 1.000000
barrelside01a
  0 6.377900 13.674400 0.000000 0.335806 0.714213 0.614112 0.950000 0.000500 1 0 1.000000
  0 6.095200 12.400000 1.741300 0.383311 0.775923 0.501015 0.946700 0.036700 1 0 1.000000
  0 11.112000 10.203201 0.000000 0.652698 0.606898 0.453498 0.887500 0.000500 1 0 1.000000
barrelside01a
  0 -0.660499 -14.988500 12.522900 -0.186304 -0.761417 -0.620914 0.512200 0.261000 1 0 1.000000
  0 -0.676499 -15.901500 13.719000 -0.186304 -0.761417 -0.620914 0.512500 0.285900 1 0 1.000000
  0 -6.383399 -13.588100 12.522900 -0.364484 -0.691869 -0.623272 0.449500 0.261000 1 0 1.000000
barrelside01a
  0 -6.723599 -14.421800 13.719000 -0.644240 -0.634039 -0.427726 0.450000 0.285900 1 0 1.000000
  0 -6.383399 -13.588100 12.522900 -0.364484 -0.691869 -0.623272 0.449500 0.261000 1 0 1.000000
  0 -0.676499 -15.901500 13.719000 -0.186304 -0.761417 -0.620914 0.512500 0.285900 1 0 1.000000
barrelside01a
  0 -6.383399 -13.588100 12.522900 -0.364484 -0.691869 -0.623272 0.449500 0.261000 1 0 1.000000
  0 -6.723599 -14.421800 13.719000 -0.644240 -0.634039 -0.427726 0.450000 0.285900 1 0 1.000000
  0 -10.147700 -8.203400 12.522900 -0.837413 -0.436307 -0.329205 0.377900 0.261000 1 0 1.000000
barrelside01a
  0 -10.085900 -8.224800 14.714500 -0.877394 -0.479297 0.021300 0.378500 0.306600 1 0 1.000000
  0 -10.147700 -8.203400 12.522900 -0.837413 -0.436307 -0.329205 0.377900 0.261000 1 0 1.000000
  0 -6.723599 -14.421800 13.719000 -0.644240 -0.634039 -0.427726 0.450000 0.285900 1 0 1.000000
barrelside01a
  0 -12.914200 -3.191200 14.714500 -0.841910 -0.312804 -0.439705 0.308400 0.306600 1 0 1.000000
  0 -13.687200 1.785699 12.522900 -0.850854 -0.089795 -0.517672 0.249300 0.261000 1 0 1.000000
  0 -10.147700 -8.203400 12.522900 -0.837413 -0.436307 -0.329205 0.377900 0.261000 1 0 1.000000
barrelside01a
  0 -14.441100 2.088699 13.719000 -0.807415 0.153703 -0.569611 0.247000 0.285900 1 0 1.000000
  0 -13.687200 1.785699 12.522900 -0.850854 -0.089795 -0.517672 0.249300 0.261000 1 0 1.000000
  0 -12.914200 -3.191200 14.714500 -0.841910 -0.312804 -0.439705 0.308400 0.306600 1 0 1.000000
barrelside01a
  0 -13.687200 1.785699 12.522900 -0.850854 -0.089795 -0.517672 0.249300 0.261000 1 0 1.000000
  0 -14.441100 2.088699 13.719000 -0.807415 0.153703 -0.569611 0.247000 0.285900 1 0 1.000000
  0 -10.037100 8.880800 12.522900 -0.691024 0.436015 -0.576520 0.154700 0.261000 1 0 1.000000
barrelside01a
  0 -10.593600 9.452900 13.719000 -0.658008 0.504406 -0.559107 0.154000 0.285900 1 0 1.000000
  0 -10.037100 8.880800 12.522900 -0.691024 0.436015 -0.576520 0.154700 0.261000 1 0 1.000000
  0 -14.441100 2.088699 13.719000 -0.807415 0.153703 -0.569611 0.247000 0.285900 1 0 1.000000
barrelside01a
  0 -10.037100 8.880800 12.522900 -0.691024 0.436015 -0.576520 0.154700 0.261000 1 0 1.000000
  0 -10.593600 9.452900 13.719000 -0.658008 0.504406 -0.559107 0.154000 0.285900 1 0 1.000000
  0 -5.166400 14.286800 12.522900 -0.467293 0.667790 -0.579391 0.075000 0.261000 1 0 1.000000
barrelside01a
  0 -5.437601 15.032000 13.719000 -0.301196 0.759791 -0.576193 0.075000 0.285900 1 0 1.000000
  0 -5.166400 14.286800 12.522900 -0.467293 0.667790 -0.579391 0.075000 0.261000 1 0 1.000000
  0 -10.593600 9.452900 13.719000 -0.658008 0.504406 -0.559107 0.154000 0.285900 1 0 1.000000
barrelside01a
  0 -5.166400 14.286800 12.522900 -0.467293 0.667790 -0.579391 0.075000 0.261000 1 0 1.000000
  0 -5.437601 15.032000 13.719000 -0.301196 0.759791 -0.576193 0.075000 0.285900 1 0 1.000000
  0 0.656799 15.183100 12.522900 -0.018700 0.816520 -0.577014 0.012800 0.261000 1 0 1.000000
barrelside01a
  0 0.715399 15.979100 13.719000 0.089102 0.810720 -0.578614 0.012500 0.285900 1 0 1.000000
  0 0.656799 15.183100 12.522900 -0.018700 0.816520 -0.577014 0.012800 0.261000 1 0 1.000000
  0 -5.437601 15.032000 13.719000 -0.301196 0.759791 -0.576193 0.075000 0.285900 1 0 1.000000
barrelside01a
  0 0.656799 15.183100 12.522900 -0.018700 0.816520 -0.577014 0.012800 0.261000 1 0 1.000000
  0 0.715399 15.979100 13.719000 0.089102 0.810720 -0.578614 0.012500 0.285900 1 0 1.000000
  0 6.379799 13.782700 12.522900 0.293496 0.757691 -0.582893 -0.049500 0.261000 1 0 1.000000
barrelside01a
  0 6.762499 14.499400 13.719000 0.389981 0.710566 -0.585672 -0.050000 0.285900 1 0 1.000000
  0 6.379799 13.782700 12.522900 0.293496 0.757691 -0.582893 -0.049500 0.261000 1 0 1.000000
  0 0.715399 15.979100 13.719000 0.089102 0.810720 -0.578614 0.012500 0.285900 1 0 1.000000
barrelside01a
  0 6.762499 14.499400 13.719000 0.259591 0.668978 0.696477 -0.050000 0.285900 1 0 1.000000
  0 0.675699 15.069700 14.714500 0.078702 0.713214 0.696514 0.012500 0.306600 1 0 1.000000
  0 6.377900 13.674400 14.714500 0.345610 0.628818 0.696520 -0.050000 0.306600 1 0 1.000000
barrelside01a
  0 6.762499 14.499400 13.719000 0.259591 0.668978 0.696477 -0.050000 0.285900 1 0 1.000000
  0 0.715399 15.979100 13.719000 -0.016200 0.717386 0.696487 0.012500 0.285900 1 0 1.000000
  0 0.675699 15.069700 14.714500 0.078702 0.713214 0.696514 0.012500 0.306600 1 0 1.000000
barrelside01a
  0 0.715399 15.979100 13.719000 -0.016200 0.717386 0.696487 0.012500 0.285900 1 0 1.000000
  0 -5.126300 14.176700 14.714500 -0.269000 0.664599 0.697099 0.075000 0.306600 1 0 1.000000
  0 0.675699 15.069700 14.714500 0.078702 0.713214 0.696514 0.012500 0.306600 1 0 1.000000
barrelside01a
  0 0.715399 15.979100 13.719000 -0.016200 0.717386 0.696487 0.012500 0.285900 1 0 1.000000
  0 -5.437601 15.032000 13.719000 -0.411588 0.585783 0.698179 0.075000 0.285900 1 0 1.000000
  0 -5.126300 14.176700 14.714500 -0.269000 0.664599 0.697099 0.075000 0.306600 1 0 1.000000
barrelside01a
  0 -5.437601 15.032000 13.719000 -0.411588 0.585783 0.698179 0.075000 0.285900 1 0 1.000000
  0 -9.978700 8.781800 14.714500 -0.585497 0.446098 0.676897 0.155100 0.306600 1 0 1.000000
  0 -5.126300 14.176700 14.714500 -0.269000 0.664599 0.697099 0.075000 0.306600 1 0 1.000000
barrelside01a
  0 -5.437601 15.032000 13.719000 -0.411588 0.585783 0.698179 0.075000 0.285900 1 0 1.000000
  0 -10.593600 9.452900 13.719000 -0.609308 0.387305 0.691909 0.154000 0.285900 1 0 1.000000
  0 -9.978700 8.781800 14.714500 -0.585497 0.446098 0.676897 0.155100 0.306600 1 0 1.000000
barrelside01a
  0 -10.593600 9.452900 13.719000 -0.609308 0.387305 0.691909 0.154000 0.285900 1 0 1.000000
  0 -13.616100 1.703999 14.714500 -0.703891 0.191198 0.684091 0.250100 0.306600 1 0 1.000000
  0 -9.978700 8.781800 14.714500 -0.585497 0.446098 0.676897 0.155100 0.306600 1 0 1.000000
barrelside01a
  0 -10.593600 9.452900 13.719000 -0.609308 0.387305 0.691909 0.154000 0.285900 1 0 1.000000
  0 -14.441100 2.088699 13.719000 -0.721466 0.114195 0.682968 0.247000 0.285900 1 0 1.000000
  0 -13.616100 1.703999 14.714500 -0.703891 0.191198 0.684091 0.250100 0.306600 1 0 1.000000
barrelside01a
  0 -14.441100 2.088699 13.719000 -0.721466 0.114195 0.682968 0.247000 0.285900 1 0 1.000000
  0 -12.914200 -3.191200 14.714500 -0.767552 -0.110093 0.631461 0.308400 0.306600 1 0 1.000000
  0 -13.616100 1.703999 14.714500 -0.703891 0.191198 0.684091 0.250100 0.306600 1 0 1.000000
barrelside01a
  0 -0.676499 -15.901500 13.719000 0.118801 -0.771608 -0.624906 0.512500 0.285900 1 0 1.000000
  0 -0.660499 -14.988500 12.522900 -0.092799 -0.981885 -0.165197 0.512200 0.261000 1 0 1.000000
  0 5.476601 -14.954400 13.719000 0.210208 -0.956538 -0.202108 0.575000 0.285900 1 0 1.000000
barrelside01a
  0 6.379799 13.782700 12.522900 0.436617 0.892735 -0.111304 -0.049500 0.261000 1 0 1.000000
  0 6.095200 12.400000 1.741300 0.384903 0.918208 -0.093501 -0.053300 0.036700 1 0 1.000000
  0 0.656799 15.183100 12.522900 0.181794 0.981869 -0.053698 0.012800 0.261000 1 0 1.000000
barrelside01a
  0 0.675699 15.069700 0.000000 0.048499 0.998778 -0.009500 0.012500 0.000500 1 0 1.000000
  0 0.656799 15.183100 12.522900 0.181794 0.981869 -0.053698 0.012800 0.261000 1 0 1.000000
  0 6.095200 12.400000 1.741300 0.384903 0.918208 -0.093501 -0.053300 0.036700 1 0 1.000000
barrelside01a
  0 0.656799 15.183100 12.522900 0.181794 0.981869 -0.053698 0.012800 0.261000 1 0 1.000000
  0 0.675699 15.069700 0.000000 0.048499 0.998778 -0.009500 0.012500 0.000500 1 0 1.000000
  0 -5.166400 14.286800 12.522900 -0.367990 0.929776 -0.010000 0.075000 0.261000 1 0 1.000000
barrelside01a
  0 -5.126300 14.176700 0.000000 -0.489616 0.870428 0.051302 0.075000 0.000500 1 0 1.000000
  0 -5.166400 14.286800 12.522900 -0.367990 0.929776 -0.010000 0.075000 0.261000 1 0 1.000000
  0 0.675699 15.069700 0.000000 0.048499 0.998778 -0.009500 0.012500 0.000500 1 0 1.000000
barrelside01a
  0 -5.166400 14.286800 12.522900 -0.367990 0.929776 -0.010000 0.075000 0.261000 1 0 1.000000
  0 -5.126300 14.176700 0.000000 -0.489616 0.870428 0.051302 0.075000 0.000500 1 0 1.000000
  0 -10.037100 8.880800 12.522900 -0.733297 0.674397 0.086400 0.154700 0.261000 1 0 1.000000
barrelside01a
  0 -10.144901 11.131300 0.000000 -0.748189 0.642591 0.165198 0.137500 0.000500 1 0 1.000000
  0 -10.037100 8.880800 12.522900 -0.733297 0.674397 0.086400 0.154700 0.261000 1 0 1.000000
  0 -5.126300 14.176700 0.000000 -0.489616 0.870428 0.051302 0.075000 0.000500 1 0 1.000000
barrelside01a
  0 -10.037100 8.880800 12.522900 -0.733297 0.674397 0.086400 0.154700 0.261000 1 0 1.000000
  0 -10.144901 11.131300 0.000000 -0.748189 0.642591 0.165198 0.137500 0.000500 1 0 1.000000
  0 -13.687200 1.785699 12.522900 -0.972252 0.169709 0.161009 0.249300 0.261000 1 0 1.000000
barrelside01a
  0 -13.616100 6.397200 0.000000 -0.895891 0.415496 0.157298 0.200000 0.000500 1 0 1.000000
  0 -13.687200 1.785699 12.522900 -0.972252 0.169709 0.161009 0.249300 0.261000 1 0 1.000000
  0 -10.144901 11.131300 0.000000 -0.748189 0.642591 0.165198 0.137500 0.000500 1 0 1.000000
barrelside01a
  0 -13.687200 1.785699 12.522900 -0.972252 0.169709 0.161009 0.249300 0.261000 1 0 1.000000
  0 -13.616100 6.397200 0.000000 -0.895891 0.415496 0.157298 0.200000 0.000500 1 0 1.000000
  0 -15.011400 0.695099 0.000000 -0.993218 0.043801 0.107702 0.262500 0.000500 1 0 1.000000
barrelside01a
  0 -15.011400 0.695099 0.000000 -0.993218 0.043801 0.107702 0.262500 0.000500 1 0 1.000000
  0 -14.118400 -5.107000 0.000000 -0.927284 -0.334294 0.168497 0.325000 0.000500 1 0 1.000000
  0 -13.687200 1.785699 12.522900 -0.972252 0.169709 0.161009 0.249300 0.261000 1 0 1.000000
barrelside01a
  0 -10.147700 -8.203400 12.522900 -0.867802 -0.477101 0.138900 0.377900 0.261000 1 0 1.000000
  0 -13.687200 1.785699 12.522900 -0.972252 0.169709 0.161009 0.249300 0.261000 1 0 1.000000
  0 -14.118400 -5.107000 0.000000 -0.927284 -0.334294 0.168497 0.325000 0.000500 1 0 1.000000
barrelside01a
  0 -11.073000 -10.125601 0.000000 -0.761811 -0.639509 0.103302 0.387500 0.000500 1 0 1.000000
  0 -10.147700 -8.203400 12.522900 -0.867802 -0.477101 0.138900 0.377900 0.261000 1 0 1.000000
  0 -14.118400 -5.107000 0.000000 -0.927284 -0.334294 0.168497 0.325000 0.000500 1 0 1.000000
barrelside01a
  0 -10.147700 -8.203400 12.522900 -0.867802 -0.477101 0.138900 0.377900 0.261000 1 0 1.000000
  0 -11.073000 -10.125601 0.000000 -0.761811 -0.639509 0.103302 0.387500 0.000500 1 0 1.000000
  0 -6.383399 -13.588100 12.522900 -0.572105 -0.818407 0.053900 0.449500 0.261000 1 0 1.000000
barrelside01a
  0 -6.338900 -13.596800 0.000000 -0.361698 -0.932295 -0.000700 0.450000 0.000500 1 0 1.000000
  0 -6.383399 -13.588100 12.522900 -0.572105 -0.818407 0.053900 0.449500 0.261000 1 0 1.000000
  0 -11.073000 -10.125601 0.000000 -0.761811 -0.639509 0.103302 0.387500 0.000500 1 0 1.000000
barrelside01a
  0 -6.383399 -13.588100 12.522900 -0.572105 -0.818407 0.053900 0.449500 0.261000 1 0 1.000000
  0 -6.338900 -13.596800 0.000000 -0.361698 -0.932295 -0.000700 0.450000 0.000500 1 0 1.000000
  0 -0.660499 -14.988500 12.522900 -0.092799 -0.981885 -0.165197 0.512200 0.261000 1 0 1.000000
barrelside01a
  0 -0.636799 -14.992100 0.000000 -0.027199 -0.999358 -0.023299 0.512500 0.000500 1 0 1.000000
  0 -0.660499 -14.988500 12.522900 -0.092799 -0.981885 -0.165197 0.512200 0.261000 1 0 1.000000
  0 -6.338900 -13.596800 0.000000 -0.361698 -0.932295 -0.000700 0.450000 0.000500 1 0 1.000000
barrelside01a
  0 5.476601 -14.954400 13.719000 0.210208 -0.956538 -0.202108 0.575000 0.285900 1 0 1.000000
  0 -0.660499 -14.988500 12.522900 -0.092799 -0.981885 -0.165197 0.512200 0.261000 1 0 1.000000
  0 -0.636799 -14.992100 0.000000 -0.027199 -0.999358 -0.023299 0.512500 0.000500 1 0 1.000000
barrelside01a
  0 5.165201 -14.099100 0.000000 0.620504 -0.766905 -0.163801 0.575000 0.000500 1 0 1.000000
  0 5.476601 -14.954400 13.719000 0.210208 -0.956538 -0.202108 0.575000 0.285900 1 0 1.000000
  0 -0.636799 -14.992100 0.000000 -0.027199 -0.999358 -0.023299 0.512500 0.000500 1 0 1.000000
barrelside01a
  0 -10.147700 -8.203400 12.522900 -0.867802 -0.477101 0.138900 0.377900 0.261000 1 0 1.000000
  0 -10.085900 -8.224800 14.714500 -0.766728 -0.641223 -0.031001 0.378500 0.306600 1 0 1.000000
  0 -12.914200 -3.191200 14.714500 -0.928485 -0.363594 -0.075599 0.308400 0.306600 1 0 1.000000
barrelside01a
  0 6.377900 13.674400 14.714500 0.479589 0.873080 0.087898 -0.050000 0.306600 1 0 1.000000
  0 0.675699 15.069700 33.117199 0.236798 0.970493 0.045500 0.012500 0.689500 1 0 1.000000
  0 5.632599 11.423400 33.117199 0.473614 0.876325 0.088003 -0.053500 0.689500 1 0 1.000000
barrelside01a
  0 6.377900 13.674400 14.714500 0.479589 0.873080 0.087898 -0.050000 0.306600 1 0 1.000000
  0 0.675699 15.069700 14.714500 -0.022601 0.999744 0.000000 0.012500 0.306600 1 0 1.000000
  0 0.675699 15.069700 33.117199 0.236798 0.970493 0.045500 0.012500 0.689500 1 0 1.000000
barrelside01a
  0 0.675699 15.069700 14.714500 -0.022601 0.999744 0.000000 0.012500 0.306600 1 0 1.000000
  0 -5.126300 14.176700 33.117199 -0.279090 0.960265 0.000000 0.075000 0.689500 1 0 1.000000
  0 0.675699 15.069700 33.117199 0.236798 0.970493 0.045500 0.012500 0.689500 1 0 1.000000
barrelside01a
  0 0.675699 15.069700 14.714500 -0.022601 0.999744 0.000000 0.012500 0.306600 1 0 1.000000
  0 -5.126300 14.176700 14.714500 -0.489908 0.871114 -0.033901 0.075000 0.306600 1 0 1.000000
  0 -5.126300 14.176700 33.117199 -0.279090 0.960265 0.000000 0.075000 0.689500 1 0 1.000000
barrelside01a
  0 -5.126300 14.176700 14.714500 -0.489908 0.871114 -0.033901 0.075000 0.306600 1 0 1.000000
  0 -10.144901 11.131300 33.117199 -0.697619 0.713720 -0.062702 0.137500 0.689500 1 0 1.000000
  0 -5.126300 14.176700 33.117199 -0.279090 0.960265 0.000000 0.075000 0.689500 1 0 1.000000
barrelside01a
  0 -5.126300 14.176700 14.714500 -0.489908 0.871114 -0.033901 0.075000 0.306600 1 0 1.000000
  0 -9.978700 8.781800 14.714500 -0.813292 0.572594 -0.103399 0.155100 0.306600 1 0 1.000000
  0 -10.144901 11.131300 33.117199 -0.697619 0.713720 -0.062702 0.137500 0.689500 1 0 1.000000
barrelside01a
  0 -9.978700 8.781800 14.714500 -0.813292 0.572594 -0.103399 0.155100 0.306600 1 0 1.000000
  0 -13.616100 6.397200 33.117199 -0.896925 0.432312 -0.092903 0.200000 0.689500 1 0 1.000000
  0 -10.144901 11.131300 33.117199 -0.697619 0.713720 -0.062702 0.137500 0.689500 1 0 1.000000
barrelside01a
  0 -9.978700 8.781800 14.714500 -0.813292 0.572594 -0.103399 0.155100 0.306600 1 0 1.000000
  0 -13.616100 1.703999 14.714500 -0.977354 0.189191 -0.094796 0.250100 0.306600 1 0 1.000000
  0 -13.616100 6.397200 33.117199 -0.896925 0.432312 -0.092903 0.200000 0.689500 1 0 1.000000
barrelside01a
  0 -13.616100 1.703999 14.714500 -0.977354 0.189191 -0.094796 0.250100 0.306600 1 0 1.000000
  0 -15.011400 0.695099 33.117199 -0.996575 -0.018900 -0.080498 0.262500 0.689500 1 0 1.000000
  0 -13.616100 6.397200 33.117199 -0.896925 0.432312 -0.092903 0.200000 0.689500 1 0 1.000000
barrelside01a
  0 -13.616100 1.703999 14.714500 -0.977354 0.189191 -0.094796 0.250100 0.306600 1 0 1.000000
  0 -12.914200 -3.191200 14.714500 -0.928485 -0.363594 -0.075599 0.308400 0.306600 1 0 1.000000
  0 -15.011400 0.695099 33.117199 -0.996575 -0.018900 -0.080498 0.262500 0.689500 1 0 1.000000
barrelside01a
  0 -12.914200 -3.191200 14.714500 -0.928485 -0.363594 -0.075599 0.308400 0.306600 1 0 1.000000
  0 -14.118400 -5.107000 33.117199 -0.934832 -0.339912 -0.102704 0.325000 0.689500 1 0 1.000000
  0 -15.011400 0.695099 33.117199 -0.996575 -0.018900 -0.080498 0.262500 0.689500 1 0 1.000000
barrelside01a
  0 -12.914200 -3.191200 14.714500 -0.928485 -0.363594 -0.075599 0.308400 0.306600 1 0 1.000000
  0 -11.073000 -10.125601 33.117199 -0.733813 -0.668812 -0.119202 0.387500 0.689500 1 0 1.000000
  0 -14.118400 -5.107000 33.117199 -0.934832 -0.339912 -0.102704 0.325000 0.689500 1 0 1.000000
barrelside01a
  0 -12.914200 -3.191200 14.714500 -0.928485 -0.363594 -0.075599 0.308400 0.306600 1 0 1.000000
  0 -10.085900 -8.224800 14.714500 -0.766728 -0.641223 -0.031001 0.378500 0.306600 1 0 1.000000
  0 -11.073000 -10.125601 33.117199 -0.733813 -0.668812 -0.119202 0.387500 0.689500 1 0 1.000000
barrelside01a
  0 -10.085900 -8.224800 14.714500 -0.766728 -0.641223 -0.031001 0.378500 0.306600 1 0 1.000000
  0 -5.229199 -12.598000 33.117199 -0.575074 -0.817964 0.014999 0.456800 0.689500 1 0 1.000000
  0 -11.073000 -10.125601 33.117199 -0.733813 -0.668812 -0.119202 0.387500 0.689500 1 0 1.000000
barrelside01a
  0 -10.085900 -8.224800 14.714500 -0.766728 -0.641223 -0.031001 0.378500 0.306600 1 0 1.000000
  0 -6.338900 -13.596800 14.714500 -0.529092 -0.846587 0.057899 0.450000 0.306600 1 0 1.000000
  0 -5.229199 -12.598000 33.117199 -0.575074 -0.817964 0.014999 0.456800 0.689500 1 0 1.000000
barrelside01a
  0 -6.338900 -13.596800 14.714500 -0.529092 -0.846587 0.057899 0.450000 0.306600 1 0 1.000000
  0 -0.636799 -14.992100 33.117199 -0.188593 -0.981662 0.027799 0.512500 0.689500 1 0 1.000000
  0 -5.229199 -12.598000 33.117199 -0.575074 -0.817964 0.014999 0.456800 0.689500 1 0 1.000000
barrelside01a
  0 -6.338900 -13.596800 14.714500 -0.529092 -0.846587 0.057899 0.450000 0.306600 1 0 1.000000
  0 -0.636799 -14.992100 14.714500 0.022601 -0.999744 0.000000 0.512500 0.306600 1 0 1.000000
  0 -0.636799 -14.992100 33.117199 -0.188593 -0.981662 0.027799 0.512500 0.689500 1 0 1.000000
barrelside01a
  0 -0.636799 -14.992100 14.714500 0.022601 -0.999744 0.000000 0.512500 0.306600 1 0 1.000000
  0 5.165201 -14.099100 33.117199 0.279090 -0.960265 0.000000 0.575000 0.689500 1 0 1.000000
  0 -0.636799 -14.992100 33.117199 -0.188593 -0.981662 0.027799 0.512500 0.689500 1 0 1.000000
barrelside01a
  0 -0.636799 -14.992100 14.714500 0.022601 -0.999744 0.000000 0.512500 0.306600 1 0 1.000000
  0 5.165201 -14.099100 14.714500 0.403409 -0.915020 0.000000 0.575000 0.306600 1 0 1.000000
  0 5.165201 -14.099100 33.117199 0.279090 -0.960265 0.000000 0.575000 0.689500 1 0 1.000000
barrelside01a
  0 5.165201 -14.099100 14.714500 0.403409 -0.915020 0.000000 0.575000 0.306600 1 0 1.000000
  0 10.183901 -11.053700 33.117199 0.625292 -0.780390 0.000000 0.637500 0.689500 1 0 1.000000
  0 5.165201 -14.099100 33.117199 0.279090 -0.960265 0.000000 0.575000 0.689500 1 0 1.000000
barrelside01a
  0 5.165201 -14.099100 14.714500 0.403409 -0.915020 0.000000 0.575000 0.306600 1 0 1.000000
  0 10.183901 -11.053700 14.714500 0.722876 -0.690977 0.000000 0.637500 0.306600 1 0 1.000000
  0 10.183901 -11.053700 33.117199 0.625292 -0.780390 0.000000 0.637500 0.689500 1 0 1.000000
barrelside01a
  0 10.183901 -11.053700 14.714500 0.722876 -0.690977 0.000000 0.637500 0.306600 1 0 1.000000
  0 13.655100 -6.319600 33.117199 0.876351 -0.481673 0.000000 0.700000 0.689500 1 0 1.000000
  0 10.183901 -11.053700 33.117199 0.625292 -0.780390 0.000000 0.637500 0.689500 1 0 1.000000
barrelside01a
  0 10.183901 -11.053700 14.714500 0.722876 -0.690977 0.000000 0.637500 0.306600 1 0 1.000000
  0 13.655100 -6.319600 14.714500 0.932295 -0.361698 0.000000 0.700000 0.306600 1 0 1.000000
  0 13.655100 -6.319600 33.117199 0.876351 -0.481673 0.000000 0.700000 0.689500 1 0 1.000000
barrelside01a
  0 13.655100 -6.319600 14.714500 0.932295 -0.361698 0.000000 0.700000 0.306600 1 0 1.000000
  0 15.050400 -0.617499 33.117199 0.993976 -0.109597 0.000000 0.762500 0.689500 1 0 1.000000
  0 13.655100 -6.319600 33.117199 0.876351 -0.481673 0.000000 0.700000 0.689500 1 0 1.000000
barrelside01a
  0 13.655100 -6.319600 14.714500 0.932295 -0.361698 0.000000 0.700000 0.306600 1 0 1.000000
  0 15.050400 -0.617499 14.714500 0.999744 0.022601 0.000000 0.762500 0.306600 1 0 1.000000
  0 15.050400 -0.617499 33.117199 0.993976 -0.109597 0.000000 0.762500 0.689500 1 0 1.000000
barrelside01a
  0 15.050400 -0.617499 14.714500 0.999744 0.022601 0.000000 0.762500 0.306600 1 0 1.000000
  0 14.157400 5.184600 33.117199 0.960265 0.279090 0.000000 0.825000 0.689500 1 0 1.000000
  0 15.050400 -0.617499 33.117199 0.993976 -0.109597 0.000000 0.762500 0.689500 1 0 1.000000
barrelside01a
  0 15.050400 -0.617499 14.714500 0.999744 0.022601 0.000000 0.762500 0.306600 1 0 1.000000
  0 14.157400 5.184600 14.714500 0.915020 0.403409 0.000000 0.825000 0.306600 1 0 1.000000
  0 14.157400 5.184600 33.117199 0.960265 0.279090 0.000000 0.825000 0.689500 1 0 1.000000
barrelside01a
  0 14.157400 5.184600 14.714500 0.915020 0.403409 0.000000 0.825000 0.306600 1 0 1.000000
  0 11.112000 10.203201 33.117199 0.691436 0.722438 0.000000 0.887500 0.689500 1 0 1.000000
  0 14.157400 5.184600 33.117199 0.960265 0.279090 0.000000 0.825000 0.689500 1 0 1.000000
barrelside01a
  0 14.157400 5.184600 14.714500 0.915020 0.403409 0.000000 0.825000 0.306600 1 0 1.000000
  0 11.112000 10.203201 14.714500 0.585203 0.809604 0.045600 0.887500 0.306600 1 0 1.000000
  0 11.112000 10.203201 33.117199 0.691436 0.722438 0.000000 0.887500 0.689500 1 0 1.000000
barrelside01a
  0 11.112000 10.203201 14.714500 0.585203 0.809604 0.045600 0.887500 0.306600 1 0 1.000000
  0 5.632599 11.423400 33.117199 0.473614 0.876325 0.088003 0.946500 0.689500 1 0 1.000000
  0 11.112000 10.203201 33.117199 0.691436 0.722438 0.000000 0.887500 0.689500 1 0 1.000000
barrelside01a
  0 11.112000 10.203201 14.714500 0.585203 0.809604 0.045600 0.887500 0.306600 1 0 1.000000
  0 6.377900 13.674400 14.714500 0.479589 0.873080 0.087898 0.950000 0.306600 1 0 1.000000
  0 5.632599 11.423400 33.117199 0.473614 0.876325 0.088003 0.946500 0.689500 1 0 1.000000
barrelside01a
  0 10.798801 -11.724800 13.719000 0.632192 -0.463494 -0.620892 0.637500 0.285900 1 0 1.000000
  0 10.199701 -11.035700 12.522900 0.632192 -0.463494 -0.620892 0.637800 0.261000 1 0 1.000000
  0 14.480000 -6.704299 13.719000 0.684337 -0.375520 -0.625034 0.700000 0.285900 1 0 1.000000
barrelside01a
  0 13.683600 -6.284299 12.522900 0.729808 -0.282603 -0.622507 0.700500 0.261000 1 0 1.000000
  0 14.480000 -6.704299 13.719000 0.684337 -0.375520 -0.625034 0.700000 0.285900 1 0 1.000000
  0 10.199701 -11.035700 12.522900 0.632192 -0.463494 -0.620892 0.637800 0.261000 1 0 1.000000
barrelside01a
  0 14.480000 -6.704299 13.719000 0.684337 -0.375520 -0.625034 0.700000 0.285900 1 0 1.000000
  0 13.683600 -6.284299 12.522900 0.729808 -0.282603 -0.622507 0.700500 0.261000 1 0 1.000000
  0 15.959700 -0.657199 13.719000 0.782470 -0.085597 -0.616777 0.762500 0.285900 1 0 1.000000
barrelside01a
  0 15.084000 -0.561399 12.522900 0.789572 0.018499 -0.613378 0.763100 0.261000 1 0 1.000000
  0 15.959700 -0.657199 13.719000 0.782470 -0.085597 -0.616777 0.762500 0.285900 1 0 1.000000
  0 13.683600 -6.284299 12.522900 0.729808 -0.282603 -0.622507 0.700500 0.261000 1 0 1.000000
barrelside01a
  0 15.959700 -0.657199 13.719000 0.782470 -0.085597 -0.616777 0.762500 0.285900 1 0 1.000000
  0 15.084000 -0.561399 12.522900 0.789572 0.018499 -0.613378 0.763100 0.261000 1 0 1.000000
  0 15.012700 5.495901 13.719000 0.763339 0.222611 -0.606431 0.825000 0.285900 1 0 1.000000
barrelside01a
  0 14.187700 5.261900 12.522900 0.729874 0.322588 -0.602678 0.825700 0.261000 1 0 1.000000
  0 15.012700 5.495901 13.719000 0.763339 0.222611 -0.606431 0.825000 0.285900 1 0 1.000000
  0 15.084000 -0.561399 12.522900 0.789572 0.018499 -0.613378 0.763100 0.261000 1 0 1.000000
barrelside01a
  0 15.012700 5.495901 13.719000 0.763339 0.222611 -0.606431 0.825000 0.285900 1 0 1.000000
  0 14.187700 5.261900 12.522900 0.729874 0.322588 -0.602678 0.825700 0.261000 1 0 1.000000
  0 11.783100 10.818201 13.719000 0.626490 0.502892 -0.595491 0.887500 0.285900 1 0 1.000000
barrelside01a
  0 11.131200 10.298801 12.522900 0.556419 0.583120 -0.591920 0.888100 0.261000 1 0 1.000000
  0 11.783100 10.818201 13.719000 0.626490 0.502892 -0.595491 0.887500 0.285900 1 0 1.000000
  0 14.187700 5.261900 12.522900 0.729874 0.322588 -0.602678 0.825700 0.261000 1 0 1.000000
barrelside01a
  0 11.783100 10.818201 13.719000 0.626490 0.502892 -0.595491 0.887500 0.285900 1 0 1.000000
  0 11.131200 10.298801 12.522900 0.556419 0.583120 -0.591920 0.888100 0.261000 1 0 1.000000
  0 6.762499 14.499400 13.719000 0.389981 0.710566 -0.585672 0.950000 0.285900 1 0 1.000000
barrelside01a
  0 6.379799 13.782700 12.522900 0.293496 0.757691 -0.582893 0.950500 0.261000 1 0 1.000000
  0 6.762499 14.499400 13.719000 0.389981 0.710566 -0.585672 0.950000 0.285900 1 0 1.000000
  0 11.131200 10.298801 12.522900 0.556419 0.583120 -0.591920 0.888100 0.261000 1 0 1.000000
barrelside01a
  0 -0.676499 -15.901500 34.297600 -0.049401 -0.881223 0.470112 0.512500 0.714100 1 0 1.000000
  0 -0.647099 -15.227300 35.645401 -0.144703 -0.872118 0.467409 0.512500 0.742100 1 0 1.000000
  0 -5.328700 -12.811400 35.645401 -0.383295 -0.814190 0.436095 0.456700 0.742100 1 0 1.000000
barrelside01a
  0 -0.647099 -15.227300 35.645401 -0.144703 -0.872118 0.467409 0.512500 0.742100 1 0 1.000000
  0 -0.676499 -15.901500 34.297600 -0.049401 -0.881223 0.470112 0.512500 0.714100 1 0 1.000000
  0 5.245800 -14.320300 35.645401 0.246487 -0.847954 0.469274 0.575000 0.742100 1 0 1.000000
barrelside01a
  0 5.476601 -14.954400 34.297600 0.356290 -0.807977 0.469287 0.575000 0.714100 1 0 1.000000
  0 5.245800 -14.320300 35.645401 0.246487 -0.847954 0.469274 0.575000 0.742100 1 0 1.000000
  0 -0.676499 -15.901500 34.297600 -0.049401 -0.881223 0.470112 0.512500 0.714100 1 0 1.000000
barrelside01a
  0 5.245800 -14.320300 35.645401 0.246487 -0.847954 0.469274 0.575000 0.742100 1 0 1.000000
  0 5.476601 -14.954400 34.297600 0.356290 -0.807977 0.469287 0.575000 0.714100 1 0 1.000000
  0 10.342901 -11.227300 35.645401 0.552193 -0.689091 0.469294 0.637500 0.742100 1 0 1.000000
barrelside01a
  0 10.798801 -11.724800 34.297600 0.638296 -0.610196 0.469297 0.637500 0.714100 1 0 1.000000
  0 10.342901 -11.227300 35.645401 0.552193 -0.689091 0.469294 0.637500 0.742100 1 0 1.000000
  0 5.476601 -14.954400 34.297600 0.356290 -0.807977 0.469287 0.575000 0.714100 1 0 1.000000
barrelside01a
  0 10.342901 -11.227300 35.645401 0.552193 -0.689091 0.469294 0.637500 0.742100 1 0 1.000000
  0 10.798801 -11.724800 34.297600 0.638296 -0.610196 0.469297 0.637500 0.714100 1 0 1.000000
  0 13.868500 -6.419099 35.645401 0.773883 -0.425291 0.469290 0.700000 0.742100 1 0 1.000000
barrelside01a
  0 14.480000 -6.704299 34.297600 0.823234 -0.319413 0.469319 0.700000 0.714100 1 0 1.000000
  0 13.868500 -6.419099 35.645401 0.773883 -0.425291 0.469290 0.700000 0.742100 1 0 1.000000
  0 10.798801 -11.724800 34.297600 0.638296 -0.610196 0.469297 0.637500 0.714100 1 0 1.000000
barrelside01a
  0 13.868500 -6.419099 35.645401 0.773883 -0.425291 0.469290 0.700000 0.742100 1 0 1.000000
  0 14.480000 -6.704299 34.297600 0.823234 -0.319413 0.469319 0.700000 0.714100 1 0 1.000000
  0 15.285600 -0.627699 35.645401 0.877713 -0.096801 0.469307 0.762500 0.742100 1 0 1.000000
barrelside01a
  0 15.959700 -0.657199 34.297600 0.882811 0.019900 0.469306 0.762500 0.714100 1 0 1.000000
  0 15.285600 -0.627699 35.645401 0.877713 -0.096801 0.469307 0.762500 0.742100 1 0 1.000000
  0 14.480000 -6.704299 34.297600 0.823234 -0.319413 0.469319 0.700000 0.714100 1 0 1.000000
barrelside01a
  0 15.285600 -0.627699 35.645401 0.877713 -0.096801 0.469307 0.762500 0.742100 1 0 1.000000
  0 15.959700 -0.657199 34.297600 0.882811 0.019900 0.469306 0.762500 0.714100 1 0 1.000000
  0 14.378600 5.265100 35.645401 0.847954 0.246487 0.469274 0.825000 0.742100 1 0 1.000000
barrelside01a
  0 15.012700 5.495901 34.297600 0.807977 0.356290 0.469287 0.825000 0.714100 1 0 1.000000
  0 14.378600 5.265100 35.645401 0.847954 0.246487 0.469274 0.825000 0.742100 1 0 1.000000
  0 15.959700 -0.657199 34.297600 0.882811 0.019900 0.469306 0.762500 0.714100 1 0 1.000000
barrelside01a
  0 14.378600 5.265100 35.645401 0.847954 0.246487 0.469274 0.825000 0.742100 1 0 1.000000
  0 15.012700 5.495901 34.297600 0.807977 0.356290 0.469287 0.825000 0.714100 1 0 1.000000
  0 11.285600 10.362301 35.645401 0.607984 0.640483 0.469188 0.887500 0.742100 1 0 1.000000
barrelside01a
  0 11.783100 10.818201 34.297600 0.414701 0.780203 0.468302 0.887500 0.714100 1 0 1.000000
  0 11.285600 10.362301 35.645401 0.607984 0.640483 0.469188 0.887500 0.742100 1 0 1.000000
  0 15.012700 5.495901 34.297600 0.807977 0.356290 0.469287 0.825000 0.714100 1 0 1.000000
barrelside01a
  0 11.285600 10.362301 35.645401 0.607984 0.640483 0.469188 0.887500 0.742100 1 0 1.000000
  0 11.783100 10.818201 34.297600 0.414701 0.780203 0.468302 0.887500 0.714100 1 0 1.000000
  0 5.732100 11.636800 35.645401 0.317607 0.835120 0.449111 0.946600 0.742100 1 0 1.000000
barrelside01a
  0 6.017300 12.248400 34.297600 0.425389 0.784579 0.451088 0.946800 0.714100 1 0 1.000000
  0 5.732100 11.636800 35.645401 0.317607 0.835120 0.449111 0.946600 0.742100 1 0 1.000000
  0 11.783100 10.818201 34.297600 0.414701 0.780203 0.468302 0.887500 0.714100 1 0 1.000000
barrelside01a
  0 5.732100 11.636800 35.645401 0.317607 0.835120 0.449111 -0.053400 0.742100 1 0 1.000000
  0 6.017300 12.248400 34.297600 0.425389 0.784579 0.451088 -0.053200 0.714100 1 0 1.000000
  0 0.685999 15.304900 35.645401 0.320498 0.822596 0.469698 0.012500 0.742100 1 0 1.000000
barrelside01a
  0 0.715399 15.979100 34.297600 0.089796 0.878364 0.469481 0.012500 0.714100 1 0 1.000000
  0 0.685999 15.304900 35.645401 0.320498 0.822596 0.469698 0.012500 0.742100 1 0 1.000000
  0 6.017300 12.248400 34.297600 0.425389 0.784579 0.451088 -0.053200 0.714100 1 0 1.000000
barrelside01a
  0 0.685999 15.304900 35.645401 0.320498 0.822596 0.469698 0.012500 0.742100 1 0 1.000000
  0 0.715399 15.979100 34.297600 0.089796 0.878364 0.469481 0.012500 0.714100 1 0 1.000000
  0 -5.206800 14.397900 35.645401 -0.246487 0.847954 0.469274 0.075000 0.742100 1 0 1.000000
barrelside01a
  0 -5.437601 15.032000 34.297600 -0.356290 0.807977 0.469287 0.075000 0.714100 1 0 1.000000
  0 -5.206800 14.397900 35.645401 -0.246487 0.847954 0.469274 0.075000 0.742100 1 0 1.000000
  0 0.715399 15.979100 34.297600 0.089796 0.878364 0.469481 0.012500 0.714100 1 0 1.000000
barrelside01a
  0 -5.206800 14.397900 35.645401 -0.246487 0.847954 0.469274 0.075000 0.742100 1 0 1.000000
  0 -5.437601 15.032000 34.297600 -0.356290 0.807977 0.469287 0.075000 0.714100 1 0 1.000000
  0 -10.304001 11.304900 35.645401 -0.552193 0.689091 0.469294 0.137500 0.742100 1 0 1.000000
barrelside01a
  0 -10.759901 11.802400 34.297600 -0.638296 0.610196 0.469297 0.137500 0.714100 1 0 1.000000
  0 -10.304001 11.304900 35.645401 -0.552193 0.689091 0.469294 0.137500 0.742100 1 0 1.000000
  0 -5.437601 15.032000 34.297600 -0.356290 0.807977 0.469287 0.075000 0.714100 1 0 1.000000
barrelside01a
  0 -10.304001 11.304900 35.645401 -0.552193 0.689091 0.469294 0.137500 0.742100 1 0 1.000000
  0 -10.759901 11.802400 34.297600 -0.638296 0.610196 0.469297 0.137500 0.714100 1 0 1.000000
  0 -13.829500 6.496699 35.645401 -0.773883 0.425291 0.469290 0.200000 0.742100 1 0 1.000000
barrelside01a
  0 -14.441100 6.781899 34.297600 -0.823234 0.319413 0.469319 0.200000 0.714100 1 0 1.000000
  0 -13.829500 6.496699 35.645401 -0.773883 0.425291 0.469290 0.200000 0.742100 1 0 1.000000
  0 -10.759901 11.802400 34.297600 -0.638296 0.610196 0.469297 0.137500 0.714100 1 0 1.000000
barrelside01a
  0 -13.829500 6.496699 35.645401 -0.773883 0.425291 0.469290 0.200000 0.742100 1 0 1.000000
  0 -14.441100 6.781899 34.297600 -0.823234 0.319413 0.469319 0.200000 0.714100 1 0 1.000000
  0 -15.246700 0.705299 35.645401 -0.877713 0.096801 0.469307 0.262500 0.742100 1 0 1.000000
barrelside01a
  0 -15.920800 0.734799 34.297600 -0.882811 -0.019900 0.469306 0.262500 0.714100 1 0 1.000000
  0 -15.246700 0.705299 35.645401 -0.877713 0.096801 0.469307 0.262500 0.742100 1 0 1.000000
  0 -14.441100 6.781899 34.297600 -0.823234 0.319413 0.469319 0.200000 0.714100 1 0 1.000000
barrelside01a
  0 -15.246700 0.705299 35.645401 -0.877713 0.096801 0.469307 0.262500 0.742100 1 0 1.000000
  0 -15.920800 0.734799 34.297600 -0.882811 -0.019900 0.469306 0.262500 0.714100 1 0 1.000000
  0 -14.339700 -5.187500 35.645401 -0.847954 -0.246487 0.469274 0.325000 0.742100 1 0 1.000000
barrelside01a
  0 -14.973800 -5.418301 34.297600 -0.807977 -0.356290 0.469287 0.325000 0.714100 1 0 1.000000
  0 -14.339700 -5.187500 35.645401 -0.847954 -0.246487 0.469274 0.325000 0.742100 1 0 1.000000
  0 -15.920800 0.734799 34.297600 -0.882811 -0.019900 0.469306 0.262500 0.714100 1 0 1.000000
barrelside01a
  0 -14.339700 -5.187500 35.645401 -0.847954 -0.246487 0.469274 0.325000 0.742100 1 0 1.000000
  0 -14.973800 -5.418301 34.297600 -0.807977 -0.356290 0.469287 0.325000 0.714100 1 0 1.000000
  0 -11.246600 -10.284701 35.645401 -0.644758 -0.602761 0.470070 0.387500 0.742100 1 0 1.000000
barrelside01a
  0 -11.744100 -10.740601 34.297600 -0.577571 -0.669166 0.467577 0.387500 0.714100 1 0 1.000000
  0 -11.246600 -10.284701 35.645401 -0.644758 -0.602761 0.470070 0.387500 0.742100 1 0 1.000000
  0 -14.973800 -5.418301 34.297600 -0.807977 -0.356290 0.469287 0.325000 0.714100 1 0 1.000000
barrelside01a
  0 -11.246600 -10.284701 35.645401 -0.644758 -0.602761 0.470070 0.387500 0.742100 1 0 1.000000
  0 -11.744100 -10.740601 34.297600 -0.577571 -0.669166 0.467577 0.387500 0.714100 1 0 1.000000
  0 -5.328700 -12.811400 35.645401 -0.383295 -0.814190 0.436095 0.456700 0.742100 1 0 1.000000
barrelside01a
  0 -0.408199 -12.664900 48.016701 -0.187492 -0.974560 0.122795 0.514100 0.999500 1 0 1.000000
  0 -0.647099 -15.227300 35.645401 -0.194309 -0.970043 0.145807 0.512500 0.742100 1 0 1.000000
  0 5.216701 -14.240500 48.016701 0.144295 -0.986263 0.080397 0.575000 0.999500 1 0 1.000000
barrelside01a
  0 5.245800 -14.320300 35.645401 0.403398 -0.914995 0.007300 0.575000 0.742100 1 0 1.000000
  0 5.216701 -14.240500 48.016701 0.144295 -0.986263 0.080397 0.575000 0.999500 1 0 1.000000
  0 -0.647099 -15.227300 35.645401 -0.194309 -0.970043 0.145807 0.512500 0.742100 1 0 1.000000
barrelside01a
  0 5.216701 -14.240500 48.016701 0.144295 -0.986263 0.080397 0.575000 0.999500 1 0 1.000000
  0 5.245800 -14.320300 35.645401 0.403398 -0.914995 0.007300 0.575000 0.742100 1 0 1.000000
  0 10.285501 -11.164600 48.016701 0.625324 -0.780331 0.007300 0.637500 0.999500 1 0 1.000000
barrelside01a
  0 10.342901 -11.227300 35.645401 0.722907 -0.690907 0.007300 0.637500 0.742100 1 0 1.000000
  0 10.285501 -11.164600 48.016701 0.625324 -0.780331 0.007300 0.637500 0.999500 1 0 1.000000
  0 5.245800 -14.320300 35.645401 0.403398 -0.914995 0.007300 0.575000 0.742100 1 0 1.000000
barrelside01a
  0 10.285501 -11.164600 48.016701 0.625324 -0.780331 0.007300 0.637500 0.999500 1 0 1.000000
  0 10.342901 -11.227300 35.645401 0.722907 -0.690907 0.007300 0.637500 0.742100 1 0 1.000000
  0 13.791400 -6.383200 48.016701 0.876347 -0.481626 0.007300 0.700000 0.999500 1 0 1.000000
barrelside01a
  0 13.868500 -6.419099 35.645401 0.932270 -0.361688 0.007300 0.700000 0.742100 1 0 1.000000
  0 13.791400 -6.383200 48.016701 0.876347 -0.481626 0.007300 0.700000 0.999500 1 0 1.000000
  0 10.342901 -11.227300 35.645401 0.722907 -0.690907 0.007300 0.637500 0.742100 1 0 1.000000
barrelside01a
  0 13.791400 -6.383200 48.016701 0.876347 -0.481626 0.007300 0.700000 0.999500 1 0 1.000000
  0 13.868500 -6.419099 35.645401 0.932270 -0.361688 0.007300 0.700000 0.742100 1 0 1.000000
  0 15.200700 -0.623999 48.016701 0.993948 -0.109605 0.007300 0.762500 0.999500 1 0 1.000000
barrelside01a
  0 15.285600 -0.627699 35.645401 0.999718 0.022600 0.007300 0.762500 0.742100 1 0 1.000000
  0 15.200700 -0.623999 48.016701 0.993948 -0.109605 0.007300 0.762500 0.999500 1 0 1.000000
  0 13.868500 -6.419099 35.645401 0.932270 -0.361688 0.007300 0.700000 0.742100 1 0 1.000000
barrelside01a
  0 15.200700 -0.623999 48.016701 0.993948 -0.109605 0.007300 0.762500 0.999500 1 0 1.000000
  0 15.285600 -0.627699 35.645401 0.999718 0.022600 0.007300 0.762500 0.742100 1 0 1.000000
  0 14.298700 5.236001 48.016701 0.960231 0.279109 0.007300 0.825000 0.999500 1 0 1.000000
barrelside01a
  0 14.378600 5.265100 35.645401 0.914995 0.403398 0.007300 0.825000 0.742100 1 0 1.000000
  0 14.298700 5.236001 48.016701 0.960231 0.279109 0.007300 0.825000 0.999500 1 0 1.000000
  0 15.285600 -0.627699 35.645401 0.999718 0.022600 0.007300 0.762500 0.742100 1 0 1.000000
barrelside01a
  0 14.298700 5.236001 48.016701 0.960231 0.279109 0.007300 0.825000 0.999500 1 0 1.000000
  0 14.378600 5.265100 35.645401 0.914995 0.403398 0.007300 0.825000 0.742100 1 0 1.000000
  0 11.222900 10.304901 48.016701 0.780331 0.625324 0.007300 0.887500 0.999500 1 0 1.000000
barrelside01a
  0 11.285600 10.362301 35.645401 0.588478 0.806070 -0.062798 0.887500 0.742100 1 0 1.000000
  0 11.222900 10.304901 48.016701 0.780331 0.625324 0.007300 0.887500 0.999500 1 0 1.000000
  0 14.378600 5.265100 35.645401 0.914995 0.403398 0.007300 0.825000 0.742100 1 0 1.000000
barrelside01a
  0 11.222900 10.304901 48.016701 0.780331 0.625324 0.007300 0.887500 0.999500 1 0 1.000000
  0 11.285600 10.362301 35.645401 0.588478 0.806070 -0.062798 0.887500 0.742100 1 0 1.000000
  0 6.441400 13.810800 48.016701 0.355791 0.925676 -0.128597 0.950000 0.999500 1 0 1.000000
barrelside01a
  0 5.732100 11.636800 35.645401 0.354505 0.926113 -0.129002 0.946600 0.742100 1 0 1.000000
  0 6.441400 13.810800 48.016701 0.355791 0.925676 -0.128597 0.950000 0.999500 1 0 1.000000
  0 11.285600 10.362301 35.645401 0.588478 0.806070 -0.062798 0.887500 0.742100 1 0 1.000000
barrelside01a
  0 6.441400 13.810800 48.016701 0.355791 0.925676 -0.128597 -0.050000 0.999500 1 0 1.000000
  0 5.732100 11.636800 35.645401 0.354505 0.926113 -0.129002 -0.053400 0.742100 1 0 1.000000
  0 0.682299 15.220000 48.016701 0.235905 0.969719 -0.063201 0.012500 0.999500 1 0 1.000000
barrelside01a
  0 0.685999 15.304900 35.645401 0.101303 0.994829 0.007300 0.012500 0.742100 1 0 1.000000
  0 0.682299 15.220000 48.016701 0.235905 0.969719 -0.063201 0.012500 0.999500 1 0 1.000000
  0 5.732100 11.636800 35.645401 0.354505 0.926113 -0.129002 -0.053400 0.742100 1 0 1.000000
barrelside01a
  0 0.682299 15.220000 48.016701 0.235905 0.969719 -0.063201 0.012500 0.999500 1 0 1.000000
  0 0.685999 15.304900 35.645401 0.101303 0.994829 0.007300 0.012500 0.742100 1 0 1.000000
  0 -5.177801 14.318100 48.016701 -0.279109 0.960231 0.007300 0.075000 0.999500 1 0 1.000000
barrelside01a
  0 -5.206800 14.397900 35.645401 -0.403398 0.914995 0.007300 0.075000 0.742100 1 0 1.000000
  0 -5.177801 14.318100 48.016701 -0.279109 0.960231 0.007300 0.075000 0.999500 1 0 1.000000
  0 0.685999 15.304900 35.645401 0.101303 0.994829 0.007300 0.012500 0.742100 1 0 1.000000
barrelside01a
  0 -5.177801 14.318100 48.016701 -0.279109 0.960231 0.007300 0.075000 0.999500 1 0 1.000000
  0 -5.206800 14.397900 35.645401 -0.403398 0.914995 0.007300 0.075000 0.742100 1 0 1.000000
  0 -10.246601 11.242200 48.016701 -0.625324 0.780331 0.007300 0.137500 0.999500 1 0 1.000000
barrelside01a
  0 -10.304001 11.304900 35.645401 -0.722907 0.690907 0.007300 0.137500 0.742100 1 0 1.000000
  0 -10.246601 11.242200 48.016701 -0.625324 0.780331 0.007300 0.137500 0.999500 1 0 1.000000
  0 -5.206800 14.397900 35.645401 -0.403398 0.914995 0.007300 0.075000 0.742100 1 0 1.000000
barrelside01a
  0 -10.246601 11.242200 48.016701 -0.625324 0.780331 0.007300 0.137500 0.999500 1 0 1.000000
  0 -10.304001 11.304900 35.645401 -0.722907 0.690907 0.007300 0.137500 0.742100 1 0 1.000000
  0 -13.752500 6.460800 48.016701 -0.876347 0.481626 0.007300 0.200000 0.999500 1 0 1.000000
barrelside01a
  0 -13.829500 6.496699 35.645401 -0.932270 0.361688 0.007300 0.200000 0.742100 1 0 1.000000
  0 -13.752500 6.460800 48.016701 -0.876347 0.481626 0.007300 0.200000 0.999500 1 0 1.000000
  0 -10.304001 11.304900 35.645401 -0.722907 0.690907 0.007300 0.137500 0.742100 1 0 1.000000
barrelside01a
  0 -13.752500 6.460800 48.016701 -0.876347 0.481626 0.007300 0.200000 0.999500 1 0 1.000000
  0 -13.829500 6.496699 35.645401 -0.932270 0.361688 0.007300 0.200000 0.742100 1 0 1.000000
  0 -15.161800 0.701599 48.016701 -0.993948 0.109605 0.007300 0.262500 0.999500 1 0 1.000000
barrelside01a
  0 -15.246700 0.705299 35.645401 -0.999718 -0.022600 0.007300 0.262500 0.742100 1 0 1.000000
  0 -15.161800 0.701599 48.016701 -0.993948 0.109605 0.007300 0.262500 0.999500 1 0 1.000000
  0 -13.829500 6.496699 35.645401 -0.932270 0.361688 0.007300 0.200000 0.742100 1 0 1.000000
barrelside01a
  0 -15.161800 0.701599 48.016701 -0.993948 0.109605 0.007300 0.262500 0.999500 1 0 1.000000
  0 -15.246700 0.705299 35.645401 -0.999718 -0.022600 0.007300 0.262500 0.742100 1 0 1.000000
  0 -14.259800 -5.158401 48.016701 -0.960231 -0.279109 0.007300 0.325000 0.999500 1 0 1.000000
barrelside01a
  0 -14.339700 -5.187500 35.645401 -0.914995 -0.403398 0.007300 0.325000 0.742100 1 0 1.000000
  0 -14.259800 -5.158401 48.016701 -0.960231 -0.279109 0.007300 0.325000 0.999500 1 0 1.000000
  0 -15.246700 0.705299 35.645401 -0.999718 -0.022600 0.007300 0.262500 0.742100 1 0 1.000000
barrelside01a
  0 -14.259800 -5.158401 48.016701 -0.960231 -0.279109 0.007300 0.325000 0.999500 1 0 1.000000
  0 -14.339700 -5.187500 35.645401 -0.914995 -0.403398 0.007300 0.325000 0.742100 1 0 1.000000
  0 -11.184000 -10.227301 48.016701 -0.780331 -0.625324 0.007300 0.387500 0.999500 1 0 1.000000
barrelside01a
  0 -11.246600 -10.284701 35.645401 -0.633807 -0.772808 -0.032500 0.387500 0.742100 1 0 1.000000
  0 -11.184000 -10.227301 48.016701 -0.780331 -0.625324 0.007300 0.387500 0.999500 1 0 1.000000
  0 -14.339700 -5.187500 35.645401 -0.914995 -0.403398 0.007300 0.325000 0.742100 1 0 1.000000
barrelside01a
  0 -11.184000 -10.227301 48.016701 -0.780331 -0.625324 0.007300 0.387500 0.999500 1 0 1.000000
  0 -11.246600 -10.284701 35.645401 -0.633807 -0.772808 -0.032500 0.387500 0.742100 1 0 1.000000
  0 -6.402500 -13.733200 48.016701 -0.285392 -0.956672 -0.057698 0.450000 0.999500 1 0 1.000000
barrelside01a
  0 -5.328700 -12.811400 35.645401 -0.233499 -0.972297 0.010800 0.456700 0.742100 1 0 1.000000
  0 -6.402500 -13.733200 48.016701 -0.285392 -0.956672 -0.057698 0.450000 0.999500 1 0 1.000000
  0 -11.246600 -10.284701 35.645401 -0.633807 -0.772808 -0.032500 0.387500 0.742100 1 0 1.000000
barrelside01a
  0 -6.402500 -13.733200 48.016701 -0.285392 -0.956672 -0.057698 0.450000 0.999500 1 0 1.000000
  0 -5.328700 -12.811400 35.645401 -0.233499 -0.972297 0.010800 0.456700 0.742100 1 0 1.000000
  0 -0.408199 -12.664900 48.016701 -0.187492 -0.974560 0.122795 0.514100 0.999500 1 0 1.000000
barrelside01a
  0 -0.647099 -15.227300 35.645401 -0.194309 -0.970043 0.145807 0.512500 0.742100 1 0 1.000000
  0 -0.408199 -12.664900 48.016701 -0.187492 -0.974560 0.122795 0.514100 0.999500 1 0 1.000000
  0 -5.328700 -12.811400 35.645401 -0.233499 -0.972297 0.010800 0.456700 0.742100 1 0 1.000000
barrelside01a
  0 -0.636799 -14.992100 33.117199 -0.045900 -0.771803 -0.634203 0.512500 0.689500 1 0 1.000000
  0 5.476601 -14.954400 34.297600 0.215995 -0.743082 -0.633384 0.575000 0.714100 1 0 1.000000
  0 -0.676499 -15.901500 34.297600 -0.295998 -0.828195 -0.475897 0.512500 0.714100 1 0 1.000000
barrelside01a
  0 -0.636799 -14.992100 33.117199 -0.045900 -0.771803 -0.634203 0.512500 0.689500 1 0 1.000000
  0 5.165201 -14.099100 33.117199 0.312189 -0.708075 -0.633378 0.575000 0.689500 1 0 1.000000
  0 5.476601 -14.954400 34.297600 0.215995 -0.743082 -0.633384 0.575000 0.714100 1 0 1.000000
barrelside01a
  0 5.165201 -14.099100 33.117199 0.312189 -0.708075 -0.633378 0.575000 0.689500 1 0 1.000000
  0 10.798801 -11.724800 34.297600 0.483888 -0.603885 -0.633384 0.637500 0.714100 1 0 1.000000
  0 5.476601 -14.954400 34.297600 0.215995 -0.743082 -0.633384 0.575000 0.714100 1 0 1.000000
barrelside01a
  0 5.165201 -14.099100 33.117199 0.312189 -0.708075 -0.633378 0.575000 0.689500 1 0 1.000000
  0 10.183901 -11.053700 33.117199 0.559392 -0.534692 -0.633391 0.637500 0.689500 1 0 1.000000
  0 10.798801 -11.724800 34.297600 0.483888 -0.603885 -0.633384 0.637500 0.714100 1 0 1.000000
barrelside01a
  0 10.183901 -11.053700 33.117199 0.559392 -0.534692 -0.633391 0.637500 0.689500 1 0 1.000000
  0 14.480000 -6.704299 34.297600 0.678181 -0.372689 -0.633382 0.700000 0.714100 1 0 1.000000
  0 10.798801 -11.724800 34.297600 0.483888 -0.603885 -0.633384 0.637500 0.714100 1 0 1.000000
barrelside01a
  0 10.183901 -11.053700 33.117199 0.559392 -0.534692 -0.633391 0.637500 0.689500 1 0 1.000000
  0 13.655100 -6.319600 33.117199 0.721415 -0.279906 -0.633413 0.700000 0.689500 1 0 1.000000
  0 14.480000 -6.704299 34.297600 0.678181 -0.372689 -0.633382 0.700000 0.714100 1 0 1.000000
barrelside01a
  0 13.655100 -6.319600 33.117199 0.721415 -0.279906 -0.633413 0.700000 0.689500 1 0 1.000000
  0 15.959700 -0.657199 34.297600 0.769179 -0.084798 -0.633382 0.762500 0.714100 1 0 1.000000
  0 14.480000 -6.704299 34.297600 0.678181 -0.372689 -0.633382 0.700000 0.714100 1 0 1.000000
barrelside01a
  0 13.655100 -6.319600 33.117199 0.721415 -0.279906 -0.633413 0.700000 0.689500 1 0 1.000000
  0 15.050400 -0.617499 33.117199 0.773616 0.017500 -0.633413 0.762500 0.689500 1 0 1.000000
  0 15.959700 -0.657199 34.297600 0.769179 -0.084798 -0.633382 0.762500 0.714100 1 0 1.000000
barrelside01a
  0 15.050400 -0.617499 33.117199 0.773616 0.017500 -0.633413 0.762500 0.689500 1 0 1.000000
  0 15.012700 5.495901 34.297600 0.743082 0.215995 -0.633384 0.825000 0.714100 1 0 1.000000
  0 15.959700 -0.657199 34.297600 0.769179 -0.084798 -0.633382 0.762500 0.714100 1 0 1.000000
barrelside01a
  0 15.050400 -0.617499 33.117199 0.773616 0.017500 -0.633413 0.762500 0.689500 1 0 1.000000
  0 14.157400 5.184600 33.117199 0.708075 0.312189 -0.633378 0.825000 0.689500 1 0 1.000000
  0 15.012700 5.495901 34.297600 0.743082 0.215995 -0.633384 0.825000 0.714100 1 0 1.000000
barrelside01a
  0 14.157400 5.184600 33.117199 0.708075 0.312189 -0.633378 0.825000 0.689500 1 0 1.000000
  0 11.783100 10.818201 34.297600 0.533307 0.560807 -0.633308 0.887500 0.714100 1 0 1.000000
  0 15.012700 5.495901 34.297600 0.743082 0.215995 -0.633384 0.825000 0.714100 1 0 1.000000
barrelside01a
  0 14.157400 5.184600 33.117199 0.708075 0.312189 -0.633378 0.825000 0.689500 1 0 1.000000
  0 11.112000 10.203201 33.117199 0.360382 0.685367 -0.632769 0.887500 0.689500 1 0 1.000000
  0 11.783100 10.818201 34.297600 0.533307 0.560807 -0.633308 0.887500 0.714100 1 0 1.000000
barrelside01a
  0 11.112000 10.203201 33.117199 0.360382 0.685367 -0.632769 0.887500 0.689500 1 0 1.000000
  0 6.017300 12.248400 34.297600 0.274999 0.741096 -0.612497 0.946800 0.714100 1 0 1.000000
  0 11.783100 10.818201 34.297600 0.533307 0.560807 -0.633308 0.887500 0.714100 1 0 1.000000
barrelside01a
  0 11.112000 10.203201 33.117199 0.360382 0.685367 -0.632769 0.887500 0.689500 1 0 1.000000
  0 5.632599 11.423400 33.117199 0.373503 0.696306 -0.612905 0.946500 0.689500 1 0 1.000000
  0 6.017300 12.248400 34.297600 0.274999 0.741096 -0.612497 0.946800 0.714100 1 0 1.000000
barrelside01a
  0 5.632599 11.423400 33.117199 0.373503 0.696306 -0.612905 -0.053500 0.689500 1 0 1.000000
  0 0.715399 15.979100 34.297600 0.284795 0.720487 -0.632289 0.012500 0.714100 1 0 1.000000
  0 6.017300 12.248400 34.297600 0.274999 0.741096 -0.612497 -0.053200 0.714100 1 0 1.000000
barrelside01a
  0 5.632599 11.423400 33.117199 0.373503 0.696306 -0.612905 -0.053500 0.689500 1 0 1.000000
  0 0.675699 15.069700 33.117199 0.088098 0.768885 -0.633288 0.012500 0.689500 1 0 1.000000
  0 0.715399 15.979100 34.297600 0.284795 0.720487 -0.632289 0.012500 0.714100 1 0 1.000000
barrelside01a
  0 0.675699 15.069700 33.117199 0.088098 0.768885 -0.633288 0.012500 0.689500 1 0 1.000000
  0 -5.437601 15.032000 34.297600 -0.215995 0.743082 -0.633384 0.075000 0.714100 1 0 1.000000
  0 0.715399 15.979100 34.297600 0.284795 0.720487 -0.632289 0.012500 0.714100 1 0 1.000000
barrelside01a
  0 0.675699 15.069700 33.117199 0.088098 0.768885 -0.633288 0.012500 0.689500 1 0 1.000000
  0 -5.126300 14.176700 33.117199 -0.312189 0.708075 -0.633378 0.075000 0.689500 1 0 1.000000
  0 -5.437601 15.032000 34.297600 -0.215995 0.743082 -0.633384 0.075000 0.714100 1 0 1.000000
barrelside01a
  0 -5.126300 14.176700 33.117199 -0.312189 0.708075 -0.633378 0.075000 0.689500 1 0 1.000000
  0 -10.759901 11.802400 34.297600 -0.483888 0.603885 -0.633384 0.137500 0.714100 1 0 1.000000
  0 -5.437601 15.032000 34.297600 -0.215995 0.743082 -0.633384 0.075000 0.714100 1 0 1.000000
barrelside01a
  0 -5.126300 14.176700 33.117199 -0.312189 0.708075 -0.633378 0.075000 0.689500 1 0 1.000000
  0 -10.144901 11.131300 33.117199 -0.559392 0.534692 -0.633391 0.137500 0.689500 1 0 1.000000
  0 -10.759901 11.802400 34.297600 -0.483888 0.603885 -0.633384 0.137500 0.714100 1 0 1.000000
barrelside01a
  0 -10.144901 11.131300 33.117199 -0.559392 0.534692 -0.633391 0.137500 0.689500 1 0 1.000000
  0 -14.441100 6.781899 34.297600 -0.678181 0.372689 -0.633382 0.200000 0.714100 1 0 1.000000
  0 -10.759901 11.802400 34.297600 -0.483888 0.603885 -0.633384 0.137500 0.714100 1 0 1.000000
barrelside01a
  0 -10.144901 11.131300 33.117199 -0.559392 0.534692 -0.633391 0.137500 0.689500 1 0 1.000000
  0 -13.616100 6.397200 33.117199 -0.721415 0.279906 -0.633413 0.200000 0.689500 1 0 1.000000
  0 -14.441100 6.781899 34.297600 -0.678181 0.372689 -0.633382 0.200000 0.714100 1 0 1.000000
barrelside01a
  0 -13.616100 6.397200 33.117199 -0.721415 0.279906 -0.633413 0.200000 0.689500 1 0 1.000000
  0 -15.920800 0.734799 34.297600 -0.769179 0.084798 -0.633382 0.262500 0.714100 1 0 1.000000
  0 -14.441100 6.781899 34.297600 -0.678181 0.372689 -0.633382 0.200000 0.714100 1 0 1.000000
barrelside01a
  0 -13.616100 6.397200 33.117199 -0.721415 0.279906 -0.633413 0.200000 0.689500 1 0 1.000000
  0 -15.011400 0.695099 33.117199 -0.773616 -0.017500 -0.633413 0.262500 0.689500 1 0 1.000000
  0 -15.920800 0.734799 34.297600 -0.769179 0.084798 -0.633382 0.262500 0.714100 1 0 1.000000
barrelside01a
  0 -15.011400 0.695099 33.117199 -0.773616 -0.017500 -0.633413 0.262500 0.689500 1 0 1.000000
  0 -14.973800 -5.418301 34.297600 -0.743082 -0.215995 -0.633384 0.325000 0.714100 1 0 1.000000
  0 -15.920800 0.734799 34.297600 -0.769179 0.084798 -0.633382 0.262500 0.714100 1 0 1.000000
barrelside01a
  0 -15.011400 0.695099 33.117199 -0.773616 -0.017500 -0.633413 0.262500 0.689500 1 0 1.000000
  0 -14.118400 -5.107000 33.117199 -0.708075 -0.312189 -0.633378 0.325000 0.689500 1 0 1.000000
  0 -14.973800 -5.418301 34.297600 -0.743082 -0.215995 -0.633384 0.325000 0.714100 1 0 1.000000
barrelside01a
  0 -14.118400 -5.107000 33.117199 -0.708075 -0.312189 -0.633378 0.325000 0.689500 1 0 1.000000
  0 -11.744100 -10.740601 34.297600 -0.522314 -0.571715 -0.632717 0.387500 0.714100 1 0 1.000000
  0 -14.973800 -5.418301 34.297600 -0.743082 -0.215995 -0.633384 0.325000 0.714100 1 0 1.000000
barrelside01a
  0 -14.118400 -5.107000 33.117199 -0.708075 -0.312189 -0.633378 0.325000 0.689500 1 0 1.000000
  0 -11.073000 -10.125601 33.117199 -0.436810 -0.772918 -0.460211 0.387500 0.689500 1 0 1.000000
  0 -11.744100 -10.740601 34.297600 -0.522314 -0.571715 -0.632717 0.387500 0.714100 1 0 1.000000
barrelside01a
  0 -11.073000 -10.125601 33.117199 -0.436810 -0.772918 -0.460211 0.387500 0.689500 1 0 1.000000
  0 -5.328700 -12.811400 35.645401 -0.385990 -0.885576 -0.258393 0.456700 0.742100 1 0 1.000000
  0 -11.744100 -10.740601 34.297600 -0.522314 -0.571715 -0.632717 0.387500 0.714100 1 0 1.000000
barrelside01a
  0 -11.073000 -10.125601 33.117199 -0.436810 -0.772918 -0.460211 0.387500 0.689500 1 0 1.000000
  0 -5.229199 -12.598000 33.117199 -0.458985 -0.845172 -0.273891 0.456800 0.689500 1 0 1.000000
  0 -5.328700 -12.811400 35.645401 -0.385990 -0.885576 -0.258393 0.456700 0.742100 1 0 1.000000
barrelside01a
  0 -5.229199 -12.598000 33.117199 -0.458985 -0.845172 -0.273891 0.456800 0.689500 1 0 1.000000
  0 -0.676499 -15.901500 34.297600 -0.295998 -0.828195 -0.475897 0.512500 0.714100 1 0 1.000000
  0 -5.328700 -12.811400 35.645401 -0.385990 -0.885576 -0.258393 0.456700 0.742100 1 0 1.000000
barrelside01a
  0 -5.229199 -12.598000 33.117199 -0.458985 -0.845172 -0.273891 0.456800 0.689500 1 0 1.000000
  0 -0.636799 -14.992100 33.117199 -0.045900 -0.771803 -0.634203 0.512500 0.689500 1 0 1.000000
  0 -0.676499 -15.901500 34.297600 -0.295998 -0.828195 -0.475897 0.512500 0.714100 1 0 1.000000
barrelside01a
  0 5.476601 -14.954400 13.719000 0.210208 -0.956538 -0.202108 0.575000 0.285900 1 0 1.000000
  0 5.165201 -14.099100 0.000000 0.620504 -0.766905 -0.163801 0.575000 0.000500 1 0 1.000000
  0 10.798801 -11.724800 13.719000 0.848169 -0.444084 -0.288789 0.637500 0.285900 1 0 1.000000
barrelside01a
  0 10.199701 -11.035700 12.522900 0.846795 -0.508097 -0.157399 0.637800 0.261000 1 0 1.000000
  0 10.798801 -11.724800 13.719000 0.848169 -0.444084 -0.288789 0.637500 0.285900 1 0 1.000000
  0 5.165201 -14.099100 0.000000 0.620504 -0.766905 -0.163801 0.575000 0.000500 1 0 1.000000
barrelside01a
  0 10.183901 -11.053700 0.000000 0.722876 -0.690977 0.000100 0.637500 0.000500 1 0 1.000000
  0 10.199701 -11.035700 12.522900 0.846795 -0.508097 -0.157399 0.637800 0.261000 1 0 1.000000
  0 5.165201 -14.099100 0.000000 0.620504 -0.766905 -0.163801 0.575000 0.000500 1 0 1.000000
barrelside01a
  0 10.199701 -11.035700 12.522900 0.846795 -0.508097 -0.157399 0.637800 0.261000 1 0 1.000000
  0 10.183901 -11.053700 0.000000 0.722876 -0.690977 0.000100 0.637500 0.000500 1 0 1.000000
  0 13.683600 -6.284299 12.522900 0.876351 -0.481673 -0.000700 0.700500 0.261000 1 0 1.000000
barrelside01a
  0 13.655100 -6.319600 0.000000 0.932294 -0.361698 -0.001200 0.700000 0.000500 1 0 1.000000
  0 13.683600 -6.284299 12.522900 0.876351 -0.481673 -0.000700 0.700500 0.261000 1 0 1.000000
  0 10.183901 -11.053700 0.000000 0.722876 -0.690977 0.000100 0.637500 0.000500 1 0 1.000000
barrelside01a
  0 13.683600 -6.284299 12.522900 0.876351 -0.481673 -0.000700 0.700500 0.261000 1 0 1.000000
  0 13.655100 -6.319600 0.000000 0.932294 -0.361698 -0.001200 0.700000 0.000500 1 0 1.000000
  0 15.084000 -0.561399 12.522900 0.993973 -0.109597 -0.002300 0.763100 0.261000 1 0 1.000000
barrelside01a
  0 15.050400 -0.617499 0.000000 0.989290 0.132699 -0.060799 0.762500 0.000500 1 0 1.000000
  0 15.084000 -0.561399 12.522900 0.993973 -0.109597 -0.002300 0.763100 0.261000 1 0 1.000000
  0 13.655100 -6.319600 0.000000 0.932294 -0.361698 -0.001200 0.700000 0.000500 1 0 1.000000
barrelside01a
  0 15.084000 -0.561399 12.522900 0.993973 -0.109597 -0.002300 0.763100 0.261000 1 0 1.000000
  0 15.050400 -0.617499 0.000000 0.989290 0.132699 -0.060799 0.762500 0.000500 1 0 1.000000
  0 14.187700 5.261900 12.522900 0.916496 0.383098 -0.115199 0.825700 0.261000 1 0 1.000000
barrelside01a
  0 12.304200 4.513700 0.000000 0.885421 0.443611 -0.138703 0.825000 0.000500 1 0 1.000000
  0 14.187700 5.261900 12.522900 0.916496 0.383098 -0.115199 0.825700 0.261000 1 0 1.000000
  0 15.050400 -0.617499 0.000000 0.989290 0.132699 -0.060799 0.762500 0.000500 1 0 1.000000
barrelside01a
  0 14.187700 5.261900 12.522900 0.916496 0.383098 -0.115199 0.825700 0.261000 1 0 1.000000
  0 12.304200 4.513700 0.000000 0.885421 0.443611 -0.138703 0.825000 0.000500 1 0 1.000000
  0 11.131200 10.298801 12.522900 0.813356 0.572269 -0.104694 0.888100 0.261000 1 0 1.000000
barrelside01a
  0 10.341500 10.135700 1.741300 0.697262 0.710561 -0.094495 0.892700 0.036700 1 0 1.000000
  0 11.131200 10.298801 12.522900 0.813356 0.572269 -0.104694 0.888100 0.261000 1 0 1.000000
  0 12.304200 4.513700 0.000000 0.885421 0.443611 -0.138703 0.825000 0.000500 1 0 1.000000
barrelside01a
  0 11.131200 10.298801 12.522900 0.813356 0.572269 -0.104694 0.888100 0.261000 1 0 1.000000
  0 10.341500 10.135700 1.741300 0.697262 0.710561 -0.094495 0.892700 0.036700 1 0 1.000000
  0 6.379799 13.782700 12.522900 0.436617 0.892735 -0.111304 0.950500 0.261000 1 0 1.000000
barrelside01a
  0 6.095200 12.400000 1.741300 0.384903 0.918208 -0.093501 0.946700 0.036700 1 0 1.000000
  0 6.379799 13.782700 12.522900 0.436617 0.892735 -0.111304 0.950500 0.261000 1 0 1.000000
  0 10.341500 10.135700 1.741300 0.697262 0.710561 -0.094495 0.892700 0.036700 1 0 1.000000
barrelside01a
  0 -10.085900 -8.224800 14.714500 -0.627517 -0.437712 0.643918 0.378500 0.306600 1 0 1.000000
  0 -6.723599 -14.421800 13.719000 -0.334386 -0.634474 0.696871 0.450000 0.285900 1 0 1.000000
  0 -6.338900 -13.596800 14.714500 -0.414522 -0.591331 0.691736 0.450000 0.306600 1 0 1.000000
barrelside01a
  0 -6.723599 -14.421800 13.719000 -0.334386 -0.634474 0.696871 0.450000 0.285900 1 0 1.000000
  0 -0.636799 -14.992100 14.714500 -0.078702 -0.713214 0.696514 0.512500 0.306600 1 0 1.000000
  0 -6.338900 -13.596800 14.714500 -0.414522 -0.591331 0.691736 0.450000 0.306600 1 0 1.000000
barrelside01a
  0 -6.723599 -14.421800 13.719000 -0.334386 -0.634474 0.696871 0.450000 0.285900 1 0 1.000000
  0 -0.676499 -15.901500 13.719000 0.016200 -0.717386 0.696487 0.512500 0.285900 1 0 1.000000
  0 -0.636799 -14.992100 14.714500 -0.078702 -0.713214 0.696514 0.512500 0.306600 1 0 1.000000
barrelside01a
  0 -0.676499 -15.901500 13.719000 0.016200 -0.717386 0.696487 0.512500 0.285900 1 0 1.000000
  0 5.165201 -14.099100 14.714500 0.200305 -0.689016 0.696516 0.575000 0.306600 1 0 1.000000
  0 -0.636799 -14.992100 14.714500 -0.078702 -0.713214 0.696514 0.512500 0.306600 1 0 1.000000
barrelside01a
  0 -0.676499 -15.901500 13.719000 0.016200 -0.717386 0.696487 0.512500 0.285900 1 0 1.000000
  0 5.476601 -14.954400 13.719000 0.289493 -0.656585 0.696484 0.575000 0.285900 1 0 1.000000
  0 5.165201 -14.099100 14.714500 0.200305 -0.689016 0.696516 0.575000 0.306600 1 0 1.000000
barrelside01a
  0 5.476601 -14.954400 13.719000 0.289493 -0.656585 0.696484 0.575000 0.285900 1 0 1.000000
  0 10.183901 -11.053700 14.714500 0.448690 -0.559988 0.696485 0.637500 0.306600 1 0 1.000000
  0 5.165201 -14.099100 14.714500 0.200305 -0.689016 0.696516 0.575000 0.306600 1 0 1.000000
barrelside01a
  0 5.476601 -14.954400 13.719000 0.289493 -0.656585 0.696484 0.575000 0.285900 1 0 1.000000
  0 10.798801 -11.724800 13.719000 0.518705 -0.495805 0.696507 0.637500 0.285900 1 0 1.000000
  0 10.183901 -11.053700 14.714500 0.448690 -0.559988 0.696485 0.637500 0.306600 1 0 1.000000
barrelside01a
  0 10.798801 -11.724800 13.719000 0.518705 -0.495805 0.696507 0.637500 0.285900 1 0 1.000000
  0 13.655100 -6.319600 14.714500 0.628818 -0.345610 0.696520 0.700000 0.306600 1 0 1.000000
  0 10.183901 -11.053700 14.714500 0.448690 -0.559988 0.696485 0.637500 0.306600 1 0 1.000000
barrelside01a
  0 10.798801 -11.724800 13.719000 0.518705 -0.495805 0.696507 0.637500 0.285900 1 0 1.000000
  0 14.480000 -6.704299 13.719000 0.668978 -0.259591 0.696477 0.700000 0.285900 1 0 1.000000
  0 13.655100 -6.319600 14.714500 0.628818 -0.345610 0.696520 0.700000 0.306600 1 0 1.000000
barrelside01a
  0 14.480000 -6.704299 13.719000 0.668978 -0.259591 0.696477 0.700000 0.285900 1 0 1.000000
  0 15.050400 -0.617499 14.714500 0.713214 -0.078702 0.696514 0.762500 0.306600 1 0 1.000000
  0 13.655100 -6.319600 14.714500 0.628818 -0.345610 0.696520 0.700000 0.306600 1 0 1.000000
barrelside01a
  0 14.480000 -6.704299 13.719000 0.668978 -0.259591 0.696477 0.700000 0.285900 1 0 1.000000
  0 15.959700 -0.657199 13.719000 0.717386 0.016200 0.696487 0.762500 0.285900 1 0 1.000000
  0 15.050400 -0.617499 14.714500 0.713214 -0.078702 0.696514 0.762500 0.306600 1 0 1.000000
barrelside01a
  0 15.959700 -0.657199 13.719000 0.717386 0.016200 0.696487 0.762500 0.285900 1 0 1.000000
  0 14.157400 5.184600 14.714500 0.689016 0.200305 0.696516 0.825000 0.306600 1 0 1.000000
  0 15.050400 -0.617499 14.714500 0.713214 -0.078702 0.696514 0.762500 0.306600 1 0 1.000000
barrelside01a
  0 15.959700 -0.657199 13.719000 0.717386 0.016200 0.696487 0.762500 0.285900 1 0 1.000000
  0 15.012700 5.495901 13.719000 0.656585 0.289493 0.696484 0.825000 0.285900 1 0 1.000000
  0 14.157400 5.184600 14.714500 0.689016 0.200305 0.696516 0.825000 0.306600 1 0 1.000000
barrelside01a
  0 15.012700 5.495901 13.719000 0.656585 0.289493 0.696484 0.825000 0.285900 1 0 1.000000
  0 11.112000 10.203201 14.714500 0.559988 0.448690 0.696485 0.887500 0.306600 1 0 1.000000
  0 14.157400 5.184600 14.714500 0.689016 0.200305 0.696516 0.825000 0.306600 1 0 1.000000
barrelside01a
  0 15.012700 5.495901 13.719000 0.656585 0.289493 0.696484 0.825000 0.285900 1 0 1.000000
  0 11.783100 10.818201 13.719000 0.495805 0.518705 0.696507 0.887500 0.285900 1 0 1.000000
  0 11.112000 10.203201 14.714500 0.559988 0.448690 0.696485 0.887500 0.306600 1 0 1.000000
barrelside01a
  0 11.783100 10.818201 13.719000 0.495805 0.518705 0.696507 0.887500 0.285900 1 0 1.000000
  0 6.377900 13.674400 14.714500 0.345610 0.628818 0.696520 0.950000 0.306600 1 0 1.000000
  0 11.112000 10.203201 14.714500 0.559988 0.448690 0.696485 0.887500 0.306600 1 0 1.000000
barrelside01a
  0 11.783100 10.818201 13.719000 0.495805 0.518705 0.696507 0.887500 0.285900 1 0 1.000000
  0 6.762499 14.499400 13.719000 0.259591 0.668978 0.696477 0.950000 0.285900 1 0 1.000000
  0 6.377900 13.674400 14.714500 0.345610 0.628818 0.696520 0.950000 0.306600 1 0 1.000000
barreltop01a
  0 -10.246601 11.242200 48.016701 0.000000 0.000000 1.000000 0.357200 0.206700 1 0 1.000000
  0 0.682299 15.220000 48.016701 0.000000 0.000000 1.000000 0.038500 0.308800 1 0 1.000000
  0 -5.177801 14.318100 48.016701 0.000000 0.000000 1.000000 0.146800 0.146800 1 0 1.000000
barreltop01a
  0 -10.246601 11.242200 48.016701 0.000000 0.000000 1.000000 0.357200 0.206700 1 0 1.000000
  0 6.441400 13.810800 48.016701 0.000000 0.000000 1.000000 0.000500 0.500000 1 0 1.000000
  0 0.682299 15.220000 48.016701 0.000000 0.000000 1.000000 0.038500 0.308800 1 0 1.000000
barreltop01a
  0 -10.246601 11.242200 48.016701 0.000000 0.000000 1.000000 0.357200 0.206700 1 0 1.000000
  0 11.222900 10.304901 48.016701 0.000000 0.000000 1.000000 0.038500 0.691200 1 0 1.000000
  0 6.441400 13.810800 48.016701 0.000000 0.000000 1.000000 0.000500 0.500000 1 0 1.000000
barreltop01a
  0 -10.246601 11.242200 48.016701 0.000000 0.000000 1.000000 0.357200 0.206700 1 0 1.000000
  0 14.298700 5.236001 48.016701 0.000000 0.000000 1.000000 0.146800 0.853200 1 0 1.000000
  0 11.222900 10.304901 48.016701 0.000000 0.000000 1.000000 0.038500 0.691200 1 0 1.000000
barreltop01a
  0 -10.246601 11.242200 48.016701 0.000000 0.000000 1.000000 0.357200 0.206700 1 0 1.000000
  0 15.200700 -0.623999 48.016701 0.000000 0.000000 1.000000 0.308800 0.961500 1 0 1.000000
  0 14.298700 5.236001 48.016701 0.000000 0.000000 1.000000 0.146800 0.853200 1 0 1.000000
barreltop01a
  0 -10.246601 11.242200 48.016701 0.000000 0.000000 1.000000 0.357200 0.206700 1 0 1.000000
  0 13.791400 -6.383200 48.016701 0.000000 0.000000 1.000000 0.500000 0.999500 1 0 1.000000
  0 15.200700 -0.623999 48.016701 0.000000 0.000000 1.000000 0.308800 0.961500 1 0 1.000000
barreltop01a
  0 -10.246601 11.242200 48.016701 0.000000 0.000000 1.000000 0.357200 0.206700 1 0 1.000000
  0 10.285501 -11.164600 48.016701 0.000000 0.000000 1.000000 0.691200 0.961500 1 0 1.000000
  0 13.791400 -6.383200 48.016701 0.000000 0.000000 1.000000 0.500000 0.999500 1 0 1.000000
barreltop01a
  0 -10.246601 11.242200 48.016701 0.000000 0.000000 1.000000 0.357200 0.206700 1 0 1.000000
  0 5.216701 -14.240500 48.016701 0.000000 0.000000 1.000000 0.853200 0.853200 1 0 1.000000
  0 10.285501 -11.164600 48.016701 0.000000 0.000000 1.000000 0.691200 0.961500 1 0 1.000000
barreltop01a
  0 -10.246601 11.242200 48.016701 0.000000 0.000000 1.000000 0.357200 0.206700 1 0 1.000000
  0 -0.408199 -12.664900 48.016701 0.000000 0.000000 1.000000 0.967300 0.704800 1 0 1.000000
  0 5.216701 -14.240500 48.016701 0.000000 0.000000 1.000000 0.853200 0.853200 1 0 1.000000
barreltop01a
  0 -10.246601 11.242200 48.016701 0.000000 0.000000 1.000000 0.357200 0.206700 1 0 1.000000
  0 -6.402500 -13.733200 48.016701 0.000000 0.000000 1.000000 0.999500 0.500000 1 0 1.000000
  0 -0.408199 -12.664900 48.016701 0.000000 0.000000 1.000000 0.967300 0.704800 1 0 1.000000
barreltop01a
  0 -10.246601 11.242200 48.016701 0.000000 0.000000 1.000000 0.357200 0.206700 1 0 1.000000
  0 -11.184000 -10.227301 48.016701 0.000000 0.000000 1.000000 0.961500 0.308800 1 0 1.000000
  0 -6.402500 -13.733200 48.016701 0.000000 0.000000 1.000000 0.999500 0.500000 1 0 1.000000
barreltop01a
  0 -10.246601 11.242200 48.016701 0.000000 0.000000 1.000000 0.357200 0.206700 1 0 1.000000
  0 -14.259800 -5.158401 48.016701 0.000000 0.000000 1.000000 0.853200 0.146800 1 0 1.000000
  0 -11.184000 -10.227301 48.016701 0.000000 0.000000 1.000000 0.961500 0.308800 1 0 1.000000
barreltop01a
  0 -10.246601 11.242200 48.016701 0.000000 0.000000 1.000000 0.357200 0.206700 1 0 1.000000
  0 -15.161800 0.701599 48.016701 0.000000 0.000000 1.000000 0.691200 0.038500 1 0 1.000000
  0 -14.259800 -5.158401 48.016701 0.000000 0.000000 1.000000 0.853200 0.146800 1 0 1.000000
barreltop01a
  0 -10.246601 11.242200 48.016701 0.000000 0.000000 1.000000 0.357200 0.206700 1 0 1.000000
  0 -13.752500 6.460800 48.016701 0.000000 0.000000 1.000000 0.500000 0.000500 1 0 1.000000
  0 -15.161800 0.701599 48.016701 0.000000 0.000000 1.000000 0.691200 0.038500 1 0 1.000000
end
