// Created by Crowbar 0.68
version 1
nodes
  0 "static_prop" -1
end
skeleton
  time 0
    0 0.000000 0.000000 0.000000 0.000000 0.000000 0.000000
end
triangles
  phy
    0 15.619500 0.091701 -0.000300 0.000000 0.291623 0.956533 0 0
    0 13.514900 -7.762900 48.074901 0.420794 -0.029058 0.906691 0 0
    0 13.514900 -7.762900 -0.000300 0.488337 0.528084 0.694733 0 0
  phy
    0 15.619500 0.091701 -0.000300 0.000000 0.291623 0.956533 0 0
    0 15.619500 0.091701 48.074901 0.000000 -0.882147 0.470974 0 0
    0 13.514900 -7.762900 48.074901 0.420794 -0.029058 0.906691 0 0
  phy
    0 15.619500 0.091701 48.074901 0.000000 -0.882147 0.470974 0 0
    0 7.764901 -13.512900 48.074901 0.813338 -0.107857 0.571706 0 0
    0 13.514900 -7.762900 48.074901 0.420794 -0.029058 0.906691 0 0
  phy
    0 15.619500 0.091701 48.074901 0.000000 -0.882147 0.470974 0 0
    0 -0.089699 -15.617500 48.074901 0.973385 -0.212045 0.086938 0 0
    0 7.764901 -13.512900 48.074901 0.813338 -0.107857 0.571706 0 0
  phy
    0 15.619500 0.091701 48.074901 0.000000 -0.882147 0.470974 0 0
    0 -7.944399 -13.512900 48.074901 0.841135 -0.238029 -0.485628 0 0
    0 -0.089699 -15.617500 48.074901 0.973385 -0.212045 0.086938 0 0
  phy
    0 15.619500 0.091701 48.074901 0.000000 -0.882147 0.470974 0 0
    0 -13.694300 -7.762900 48.074901 0.390205 -0.375293 -0.840771 0 0
    0 -7.944399 -13.512900 48.074901 0.841135 -0.238029 -0.485628 0 0
  phy
    0 15.619500 0.091701 48.074901 0.000000 -0.882147 0.470974 0 0
    0 -15.799000 0.091699 48.074901 0.000000 -0.547063 -0.837091 0 0
    0 -13.694300 -7.762900 48.074901 0.390205 -0.375293 -0.840771 0 0
  phy
    0 15.619500 0.091701 48.074901 0.000000 -0.882147 0.470974 0 0
    0 -13.694300 7.946400 48.074901 -0.462873 -0.378129 -0.801728 0 0
    0 -15.799000 0.091699 48.074901 0.000000 -0.547063 -0.837091 0 0
  phy
    0 15.619500 0.091701 48.074901 0.000000 -0.882147 0.470974 0 0
    0 -0.089701 15.800999 48.074901 -0.913709 -0.398090 -0.081607 0 0
    0 -13.694300 7.946400 48.074901 -0.462873 -0.378129 -0.801728 0 0
  phy
    0 15.619500 0.091701 48.074901 0.000000 -0.882147 0.470974 0 0
    0 13.514900 7.946400 48.074901 -0.498336 -0.081420 0.863152 0 0
    0 -0.089701 15.800999 48.074901 -0.913709 -0.398090 -0.081607 0 0
  phy
    0 13.514900 7.946400 48.074901 -0.498336 -0.081420 0.863152 0 0
    0 7.764899 13.696400 48.074901 -0.906691 -0.029058 0.420794 0 0
    0 -0.089701 15.800999 48.074901 -0.913709 -0.398090 -0.081607 0 0
  phy
    0 -0.089701 15.800999 48.074901 -0.913709 -0.398090 -0.081607 0 0
    0 -7.944400 13.696400 48.074901 -0.865197 -0.043738 -0.499521 0 0
    0 -13.694300 7.946400 48.074901 -0.462873 -0.378129 -0.801728 0 0
  phy
    0 13.514900 -7.762900 48.074901 0.420794 -0.029058 0.906691 0 0
    0 7.764901 -13.512900 48.074901 0.813338 -0.107857 0.571706 0 0
    0 13.514900 -7.762900 -0.000300 0.488337 0.528084 0.694733 0 0
  phy
    0 -13.694300 -7.762900 48.074901 0.390205 -0.375293 -0.840771 0 0
    0 -13.694300 -7.762900 -0.000300 0.558403 0.238925 -0.794418 0 0
    0 -7.944399 -13.512900 48.074901 0.841135 -0.238029 -0.485628 0 0
  phy
    0 -7.944399 -13.512900 48.074901 0.841135 -0.238029 -0.485628 0 0
    0 -13.694300 -7.762900 -0.000300 0.558403 0.238925 -0.794418 0 0
    0 -7.944399 -13.512900 -0.000300 0.865197 0.043738 -0.499521 0 0
  phy
    0 -13.694300 7.946400 -0.000300 -0.235486 0.882147 -0.407877 0 0
    0 -7.944400 13.696400 -0.000300 -0.865819 0.021884 -0.499879 0 0
    0 -0.089701 15.800999 -0.000300 -0.990225 0.107857 0.088441 0 0
  phy
    0 -13.694300 7.946400 -0.000300 -0.235486 0.882147 -0.407877 0 0
    0 -0.089701 15.800999 -0.000300 -0.990225 0.107857 0.088441 0 0
    0 7.764899 13.696400 -0.000300 -0.799507 0.212044 0.561984 0 0
  phy
    0 -13.694300 7.946400 -0.000300 -0.235486 0.882147 -0.407877 0 0
    0 7.764899 13.696400 -0.000300 -0.799507 0.212044 0.561984 0 0
    0 13.514900 7.946400 -0.000300 -0.448966 0.440122 0.777639 0 0
  phy
    0 -13.694300 7.946400 -0.000300 -0.235486 0.882147 -0.407877 0 0
    0 13.514900 7.946400 -0.000300 -0.448966 0.440122 0.777639 0 0
    0 15.619500 0.091701 -0.000300 0.000000 0.291623 0.956533 0 0
  phy
    0 -13.694300 7.946400 -0.000300 -0.235486 0.882147 -0.407877 0 0
    0 15.619500 0.091701 -0.000300 0.000000 0.291623 0.956533 0 0
    0 13.514900 -7.762900 -0.000300 0.488337 0.528084 0.694733 0 0
  phy
    0 -13.694300 7.946400 -0.000300 -0.235486 0.882147 -0.407877 0 0
    0 13.514900 -7.762900 -0.000300 0.488337 0.528084 0.694733 0 0
    0 -0.089699 -15.617500 -0.000300 0.845826 0.528083 -0.075544 0 0
  phy
    0 -13.694300 7.946400 -0.000300 -0.235486 0.882147 -0.407877 0 0
    0 -0.089699 -15.617500 -0.000300 0.845826 0.528083 -0.075544 0 0
    0 -13.694300 -7.762900 -0.000300 0.558403 0.238925 -0.794418 0 0
  phy
    0 -13.694300 7.946400 -0.000300 -0.235486 0.882147 -0.407877 0 0
    0 -13.694300 -7.762900 -0.000300 0.558403 0.238925 -0.794418 0 0
    0 -15.799000 0.091699 -0.000300 0.000000 0.021884 -0.999761 0 0
  phy
    0 -13.694300 -7.762900 -0.000300 0.558403 0.238925 -0.794418 0 0
    0 -0.089699 -15.617500 -0.000300 0.845826 0.528083 -0.075544 0 0
    0 -7.944399 -13.512900 -0.000300 0.865197 0.043738 -0.499521 0 0
  phy
    0 -0.089699 -15.617500 -0.000300 0.845826 0.528083 -0.075544 0 0
    0 13.514900 -7.762900 -0.000300 0.488337 0.528084 0.694733 0 0
    0 7.764901 -13.512900 -0.000300 0.906691 0.029058 0.420794 0 0
  phy
    0 -13.694300 -7.762900 -0.000300 0.558403 0.238925 -0.794418 0 0
    0 -13.694300 -7.762900 48.074901 0.390205 -0.375293 -0.840771 0 0
    0 -15.799000 0.091699 -0.000300 0.000000 0.021884 -0.999761 0 0
  phy
    0 7.764901 -13.512900 48.074901 0.813338 -0.107857 0.571706 0 0
    0 7.764901 -13.512900 -0.000300 0.906691 0.029058 0.420794 0 0
    0 13.514900 -7.762900 -0.000300 0.488337 0.528084 0.694733 0 0
  phy
    0 13.514900 7.946400 48.074901 -0.498336 -0.081420 0.863152 0 0
    0 13.514900 7.946400 -0.000300 -0.448966 0.440122 0.777639 0 0
    0 7.764899 13.696400 -0.000300 -0.799507 0.212044 0.561984 0 0
  phy
    0 13.514900 7.946400 48.074901 -0.498336 -0.081420 0.863152 0 0
    0 15.619500 0.091701 -0.000300 0.000000 0.291623 0.956533 0 0
    0 13.514900 7.946400 -0.000300 -0.448966 0.440122 0.777639 0 0
  phy
    0 7.764899 13.696400 -0.000300 -0.799507 0.212044 0.561984 0 0
    0 -0.089701 15.800999 -0.000300 -0.990225 0.107857 0.088441 0 0
    0 7.764899 13.696400 48.074901 -0.906691 -0.029058 0.420794 0 0
  phy
    0 7.764899 13.696400 48.074901 -0.906691 -0.029058 0.420794 0 0
    0 -0.089701 15.800999 -0.000300 -0.990225 0.107857 0.088441 0 0
    0 -0.089701 15.800999 48.074901 -0.913709 -0.398090 -0.081607 0 0
  phy
    0 7.764899 13.696400 48.074901 -0.906691 -0.029058 0.420794 0 0
    0 13.514900 7.946400 48.074901 -0.498336 -0.081420 0.863152 0 0
    0 7.764899 13.696400 -0.000300 -0.799507 0.212044 0.561984 0 0
  phy
    0 -15.799000 0.091699 48.074901 0.000000 -0.547063 -0.837091 0 0
    0 -13.694300 7.946400 48.074901 -0.462873 -0.378129 -0.801728 0 0
    0 -15.799000 0.091699 -0.000300 0.000000 0.021884 -0.999761 0 0
  phy
    0 -15.799000 0.091699 -0.000300 0.000000 0.021884 -0.999761 0 0
    0 -13.694300 7.946400 48.074901 -0.462873 -0.378129 -0.801728 0 0
    0 -13.694300 7.946400 -0.000300 -0.235486 0.882147 -0.407877 0 0
  phy
    0 -13.694300 7.946400 -0.000300 -0.235486 0.882147 -0.407877 0 0
    0 -13.694300 7.946400 48.074901 -0.462873 -0.378129 -0.801728 0 0
    0 -7.944400 13.696400 -0.000300 -0.865819 0.021884 -0.499879 0 0
  phy
    0 -15.799000 0.091699 -0.000300 0.000000 0.021884 -0.999761 0 0
    0 -13.694300 -7.762900 48.074901 0.390205 -0.375293 -0.840771 0 0
    0 -15.799000 0.091699 48.074901 0.000000 -0.547063 -0.837091 0 0
  phy
    0 7.764901 -13.512900 48.074901 0.813338 -0.107857 0.571706 0 0
    0 -0.089699 -15.617500 48.074901 0.973385 -0.212045 0.086938 0 0
    0 7.764901 -13.512900 -0.000300 0.906691 0.029058 0.420794 0 0
  phy
    0 -7.944399 -13.512900 48.074901 0.841135 -0.238029 -0.485628 0 0
    0 -0.089699 -15.617500 -0.000300 0.845826 0.528083 -0.075544 0 0
    0 -0.089699 -15.617500 48.074901 0.973385 -0.212045 0.086938 0 0
  phy
    0 -7.944399 -13.512900 48.074901 0.841135 -0.238029 -0.485628 0 0
    0 -7.944399 -13.512900 -0.000300 0.865197 0.043738 -0.499521 0 0
    0 -0.089699 -15.617500 -0.000300 0.845826 0.528083 -0.075544 0 0
  phy
    0 7.764901 -13.512900 -0.000300 0.906691 0.029058 0.420794 0 0
    0 -0.089699 -15.617500 48.074901 0.973385 -0.212045 0.086938 0 0
    0 -0.089699 -15.617500 -0.000300 0.845826 0.528083 -0.075544 0 0
  phy
    0 15.619500 0.091701 48.074901 0.000000 -0.882147 0.470974 0 0
    0 15.619500 0.091701 -0.000300 0.000000 0.291623 0.956533 0 0
    0 13.514900 7.946400 48.074901 -0.498336 -0.081420 0.863152 0 0
  phy
    0 -7.944400 13.696400 48.074901 -0.865197 -0.043738 -0.499521 0 0
    0 -0.089701 15.800999 48.074901 -0.913709 -0.398090 -0.081607 0 0
    0 -7.944400 13.696400 -0.000300 -0.865819 0.021884 -0.499879 0 0
  phy
    0 -7.944400 13.696400 -0.000300 -0.865819 0.021884 -0.499879 0 0
    0 -0.089701 15.800999 48.074901 -0.913709 -0.398090 -0.081607 0 0
    0 -0.089701 15.800999 -0.000300 -0.990225 0.107857 0.088441 0 0
  phy
    0 -13.694300 7.946400 48.074901 -0.462873 -0.378129 -0.801728 0 0
    0 -7.944400 13.696400 48.074901 -0.865197 -0.043738 -0.499521 0 0
    0 -7.944400 13.696400 -0.000300 -0.865819 0.021884 -0.499879 0 0
end
