// Created by Crowbar 0.68
version 1
nodes
  0 "static_prop" -1
end
skeleton
  time 0
    0 0.000000 0.000000 0.000000 0.000000 0.000000 0.000000
end
triangles
barrelbottom11a
  0 0.000001 -15.194000 -0.042600 0.000000 0.000000 -1.000000 0.500000 0.000500 1 0 1.000000
  0 10.743800 -10.743800 -0.042600 0.000000 0.000000 -1.000000 0.853200 0.146800 1 0 1.000000
  0 5.814500 -14.037400 -0.042600 0.000000 0.000000 -1.000000 0.691200 0.038500 1 0 1.000000
barrelbottom11a
  0 0.000001 -15.194000 -0.042600 0.000000 0.000000 -1.000000 0.500000 0.000500 1 0 1.000000
  0 14.037400 -5.814499 -0.042600 0.000000 0.000000 -1.000000 0.961500 0.308800 1 0 1.000000
  0 10.743800 -10.743800 -0.042600 0.000000 0.000000 -1.000000 0.853200 0.146800 1 0 1.000000
barrelbottom11a
  0 0.000001 -15.194000 -0.042600 0.000000 0.000000 -1.000000 0.500000 0.000500 1 0 1.000000
  0 15.194000 0.000001 -0.042600 0.000000 0.000000 -1.000000 0.999500 0.500000 1 0 1.000000
  0 14.037400 -5.814499 -0.042600 0.000000 0.000000 -1.000000 0.961500 0.308800 1 0 1.000000
barrelbottom11a
  0 0.000001 -15.194000 -0.042600 0.000000 0.000000 -1.000000 0.500000 0.000500 1 0 1.000000
  0 14.037400 5.814500 -0.042600 0.000000 0.000000 -1.000000 0.961500 0.691200 1 0 1.000000
  0 15.194000 0.000001 -0.042600 0.000000 0.000000 -1.000000 0.999500 0.500000 1 0 1.000000
barrelbottom11a
  0 0.000001 -15.194000 -0.042600 0.000000 0.000000 -1.000000 0.500000 0.000500 1 0 1.000000
  0 10.743800 10.743800 -0.042600 0.000000 0.000000 -1.000000 0.853200 0.853200 1 0 1.000000
  0 14.037400 5.814500 -0.042600 0.000000 0.000000 -1.000000 0.961500 0.691200 1 0 1.000000
barrelbottom11a
  0 0.000001 -15.194000 -0.042600 0.000000 0.000000 -1.000000 0.500000 0.000500 1 0 1.000000
  0 5.814499 14.037400 -0.042600 0.000000 0.000000 -1.000000 0.691200 0.961500 1 0 1.000000
  0 10.743800 10.743800 -0.042600 0.000000 0.000000 -1.000000 0.853200 0.853200 1 0 1.000000
barrelbottom11a
  0 0.000001 -15.194000 -0.042600 0.000000 0.000000 -1.000000 0.500000 0.000500 1 0 1.000000
  0 -0.000001 15.194000 -0.042600 0.000000 0.000000 -1.000000 0.500000 0.999500 1 0 1.000000
  0 5.814499 14.037400 -0.042600 0.000000 0.000000 -1.000000 0.691200 0.961500 1 0 1.000000
barrelbottom11a
  0 0.000001 -15.194000 -0.042600 0.000000 0.000000 -1.000000 0.500000 0.000500 1 0 1.000000
  0 -5.814500 14.037400 -0.042600 0.000000 0.000000 -1.000000 0.308800 0.961500 1 0 1.000000
  0 -0.000001 15.194000 -0.042600 0.000000 0.000000 -1.000000 0.500000 0.999500 1 0 1.000000
barrelbottom11a
  0 0.000001 -15.194000 -0.042600 0.000000 0.000000 -1.000000 0.500000 0.000500 1 0 1.000000
  0 -10.743800 10.743800 -0.042600 0.000000 0.000000 -1.000000 0.146800 0.853200 1 0 1.000000
  0 -5.814500 14.037400 -0.042600 0.000000 0.000000 -1.000000 0.308800 0.961500 1 0 1.000000
barrelbottom11a
  0 0.000001 -15.194000 -0.042600 0.000000 0.000000 -1.000000 0.500000 0.000500 1 0 1.000000
  0 -14.037400 5.814499 -0.042600 0.000000 0.000000 -1.000000 0.038500 0.691200 1 0 1.000000
  0 -10.743800 10.743800 -0.042600 0.000000 0.000000 -1.000000 0.146800 0.853200 1 0 1.000000
barrelbottom11a
  0 0.000001 -15.194000 -0.042600 0.000000 0.000000 -1.000000 0.500000 0.000500 1 0 1.000000
  0 -15.194000 -0.000001 -0.042600 0.000000 0.000000 -1.000000 0.000500 0.500000 1 0 1.000000
  0 -14.037400 5.814499 -0.042600 0.000000 0.000000 -1.000000 0.038500 0.691200 1 0 1.000000
barrelbottom11a
  0 0.000001 -15.194000 -0.042600 0.000000 0.000000 -1.000000 0.500000 0.000500 1 0 1.000000
  0 -14.037400 -5.814500 -0.042600 0.000000 0.000000 -1.000000 0.038500 0.308800 1 0 1.000000
  0 -15.194000 -0.000001 -0.042600 0.000000 0.000000 -1.000000 0.000500 0.500000 1 0 1.000000
barrelbottom11a
  0 0.000001 -15.194000 -0.042600 0.000000 0.000000 -1.000000 0.500000 0.000500 1 0 1.000000
  0 -10.743800 -10.743800 -0.042600 0.000000 0.000000 -1.000000 0.146800 0.146800 1 0 1.000000
  0 -14.037400 -5.814500 -0.042600 0.000000 0.000000 -1.000000 0.038500 0.308800 1 0 1.000000
barrelbottom11a
  0 0.000001 -15.194000 -0.042600 0.000000 0.000000 -1.000000 0.500000 0.000500 1 0 1.000000
  0 -5.814499 -13.826300 -0.042600 0.000000 0.000000 -1.000000 0.308800 0.045500 1 0 1.000000
  0 -10.743800 -10.743800 -0.042600 0.000000 0.000000 -1.000000 0.146800 0.146800 1 0 1.000000
barrelside11a
  0 5.814500 -14.037400 14.472700 0.911766 -0.410485 0.013599 0.562500 0.301800 1 0 1.000000
  0 10.404500 -3.605000 21.637600 0.908304 -0.417502 0.026000 0.696900 0.450500 1 0 1.000000
  0 5.459301 -14.371300 28.195801 0.911766 -0.410485 0.013599 0.557800 0.586600 1 0 1.000000
barrelside11a
  0 5.814500 -14.037400 14.472700 0.464885 -0.767675 0.441086 0.562500 0.301800 1 0 1.000000
  0 12.251000 0.000001 15.034500 0.908304 -0.417502 0.026000 0.750000 0.313400 1 0 1.000000
  0 10.404500 -3.605000 21.637600 0.908304 -0.417502 0.026000 0.696900 0.450500 1 0 1.000000
barrelside11a
  0 10.404500 -3.605000 21.637600 0.908304 -0.417502 0.026000 0.696900 0.450500 1 0 1.000000
  0 12.251000 0.000001 15.034500 0.908304 -0.417502 0.026000 0.750000 0.313400 1 0 1.000000
  0 13.294100 2.229501 20.204599 0.897010 -0.441905 0.009600 0.776400 0.420700 1 0 1.000000
barrelside11a
  0 10.404500 -3.605000 21.637600 0.908304 -0.417502 0.026000 0.696900 0.450500 1 0 1.000000
  0 13.294100 2.229501 20.204599 0.897010 -0.441905 0.009600 0.776400 0.420700 1 0 1.000000
  0 12.839500 1.451101 28.195801 0.896885 -0.442193 0.007900 0.767900 0.586600 1 0 1.000000
barrelside11a
  0 -5.814499 -12.358000 14.472700 -0.319903 -0.791008 0.521505 0.430000 0.301800 1 0 1.000000
  0 0.000001 -15.986700 13.351800 -0.017001 -0.816337 0.577326 0.500000 0.278500 1 0 1.000000
  0 0.000001 -15.194000 14.472700 -0.108800 -0.811597 0.573998 0.500000 0.301800 1 0 1.000000
barrelside11a
  0 0.000001 -15.986700 13.351800 -0.017001 -0.816337 0.577326 0.500000 0.278500 1 0 1.000000
  0 5.814500 -14.037400 14.472700 0.464885 -0.767675 0.441086 0.562500 0.301800 1 0 1.000000
  0 0.000001 -15.194000 14.472700 -0.108800 -0.811597 0.573998 0.500000 0.301800 1 0 1.000000
barrelside11a
  0 0.000001 -15.986700 13.351800 -0.017001 -0.816337 0.577326 0.500000 0.278500 1 0 1.000000
  0 6.117900 -14.769800 13.351800 0.160294 -0.805871 0.569980 0.562500 0.278500 1 0 1.000000
  0 5.814500 -14.037400 14.472700 0.464885 -0.767675 0.441086 0.562500 0.301800 1 0 1.000000
barrelside11a
  0 -14.037400 5.814499 14.472700 -0.772805 0.320102 0.548003 0.187500 0.301800 1 0 1.000000
  0 -15.986700 -0.000001 13.262500 -0.898535 -0.118805 0.422516 0.250000 0.276600 1 0 1.000000
  0 -15.194000 -0.000001 14.472700 -0.836316 -0.021900 0.547810 0.250000 0.301800 1 0 1.000000
barrelside11a
  0 -15.986700 -0.000001 13.262500 -0.898535 -0.118805 0.422516 0.250000 0.276600 1 0 1.000000
  0 -14.037400 -5.814500 13.990600 -0.886998 -0.356499 0.293499 0.312500 0.291800 1 0 1.000000
  0 -15.194000 -0.000001 14.472700 -0.836316 -0.021900 0.547810 0.250000 0.301800 1 0 1.000000
barrelside11a
  0 -15.986700 -0.000001 13.262500 -0.898535 -0.118805 0.422516 0.250000 0.276600 1 0 1.000000
  0 -14.154400 -6.117900 12.556000 -0.867880 -0.404991 0.287693 0.314900 0.262000 1 0 1.000000
  0 -14.037400 -5.814500 13.990600 -0.886998 -0.356499 0.293499 0.312500 0.291800 1 0 1.000000
barrelside11a
  0 -14.154400 -6.117900 12.556000 -0.867880 -0.404991 0.287693 0.314900 0.262000 1 0 1.000000
  0 -10.743800 -10.743800 14.472700 -0.666177 -0.609079 0.430385 0.375000 0.301800 1 0 1.000000
  0 -14.037400 -5.814500 13.990600 -0.886998 -0.356499 0.293499 0.312500 0.291800 1 0 1.000000
barrelside11a
  0 -14.154400 -6.117900 12.556000 -0.867880 -0.404991 0.287693 0.314900 0.262000 1 0 1.000000
  0 -11.304299 -11.304301 13.262500 -0.555779 -0.625776 0.547279 0.375000 0.276600 1 0 1.000000
  0 -10.743800 -10.743800 14.472700 -0.666177 -0.609079 0.430385 0.375000 0.301800 1 0 1.000000
barrelside11a
  0 -11.304299 -11.304301 13.262500 -0.555779 -0.625776 0.547279 0.375000 0.276600 1 0 1.000000
  0 -5.814499 -12.358000 14.472700 -0.319903 -0.791008 0.521505 0.430000 0.301800 1 0 1.000000
  0 -10.743800 -10.743800 14.472700 -0.666177 -0.609079 0.430385 0.375000 0.301800 1 0 1.000000
barrelside11a
  0 -0.000001 14.613000 13.712100 0.008900 0.703017 0.711117 0.000000 0.286000 1 0 1.000000
  0 -5.814500 14.037400 14.472700 -0.117199 0.680095 0.723695 0.062500 0.301800 1 0 1.000000
  0 -0.000001 13.820300 14.472700 -0.006300 0.703634 0.710534 0.000000 0.301800 1 0 1.000000
barrelside11a
  0 -0.000001 14.613000 13.712100 0.008900 0.703017 0.711117 0.000000 0.286000 1 0 1.000000
  0 -6.117900 14.769800 13.712100 -0.298296 0.680491 0.669291 0.062500 0.286000 1 0 1.000000
  0 -5.814500 14.037400 14.472700 -0.117199 0.680095 0.723695 0.062500 0.301800 1 0 1.000000
barrelside11a
  0 -6.117900 14.769800 13.712100 -0.298296 0.680491 0.669291 0.062500 0.286000 1 0 1.000000
  0 -10.743800 10.743800 14.472700 -0.537012 0.583713 0.609013 0.125000 0.301800 1 0 1.000000
  0 -5.814500 14.037400 14.472700 -0.117199 0.680095 0.723695 0.062500 0.301800 1 0 1.000000
barrelside11a
  0 -6.117900 14.769800 13.712100 -0.298296 0.680491 0.669291 0.062500 0.286000 1 0 1.000000
  0 -11.304301 11.304299 13.262500 -0.605308 0.577408 0.547907 0.125000 0.276600 1 0 1.000000
  0 -10.743800 10.743800 14.472700 -0.537012 0.583713 0.609013 0.125000 0.301800 1 0 1.000000
barrelside11a
  0 -11.304301 11.304299 13.262500 -0.605308 0.577408 0.547907 0.125000 0.276600 1 0 1.000000
  0 -14.037400 5.814499 14.472700 -0.772805 0.320102 0.548003 0.187500 0.301800 1 0 1.000000
  0 -10.743800 10.743800 14.472700 -0.537012 0.583713 0.609013 0.125000 0.301800 1 0 1.000000
barrelside11a
  0 14.037400 5.814500 33.105202 0.720069 0.501979 -0.479080 0.812500 0.688500 1 0 1.000000
  0 11.304299 11.304301 34.750099 0.615398 0.633798 -0.468599 0.875000 0.722600 1 0 1.000000
  0 14.769800 6.117900 34.341301 0.685778 0.499884 -0.528983 0.812500 0.714100 1 0 1.000000
barrelside11a
  0 14.037400 5.814500 33.105202 0.720069 0.501979 -0.479080 0.812500 0.688500 1 0 1.000000
  0 10.743800 10.743800 33.105202 0.580287 0.760383 -0.291693 0.875000 0.688500 1 0 1.000000
  0 11.304299 11.304301 34.750099 0.615398 0.633798 -0.468599 0.875000 0.722600 1 0 1.000000
barrelside11a
  0 10.743800 10.743800 33.105202 0.580287 0.760383 -0.291693 0.875000 0.688500 1 0 1.000000
  0 5.814499 14.037400 35.639702 0.419698 0.896895 -0.139399 0.937500 0.741100 1 0 1.000000
  0 11.304299 11.304301 34.750099 0.615398 0.633798 -0.468599 0.875000 0.722600 1 0 1.000000
barrelside11a
  0 10.743800 10.743800 33.105202 0.580287 0.760383 -0.291693 0.875000 0.688500 1 0 1.000000
  0 5.814499 14.037400 33.105202 0.366186 0.893367 -0.260390 0.937500 0.688500 1 0 1.000000
  0 5.814499 14.037400 35.639702 0.419698 0.896895 -0.139399 0.937500 0.741100 1 0 1.000000
barrelside11a
  0 5.814499 14.037400 33.105202 0.366186 0.893367 -0.260390 0.937500 0.688500 1 0 1.000000
  0 -0.000001 15.986700 33.859299 0.115898 0.843987 -0.523692 1.000000 0.704100 1 0 1.000000
  0 5.814499 14.037400 35.639702 0.419698 0.896895 -0.139399 0.937500 0.741100 1 0 1.000000
barrelside11a
  0 5.814499 14.037400 33.105202 0.366186 0.893367 -0.260390 0.937500 0.688500 1 0 1.000000
  0 -0.000001 15.194000 33.105202 -0.045700 0.688497 -0.723797 1.000000 0.688500 1 0 1.000000
  0 -0.000001 15.986700 33.859299 0.115898 0.843987 -0.523692 1.000000 0.704100 1 0 1.000000
barrelside11a
  0 14.037400 5.814500 14.472700 0.831465 0.555577 0.000000 0.812500 0.301800 1 0 1.000000
  0 10.743800 10.743800 33.105202 0.752310 0.658809 0.000000 0.875000 0.688500 1 0 1.000000
  0 14.037400 5.814500 33.105202 0.831465 0.555577 0.000000 0.812500 0.688500 1 0 1.000000
barrelside11a
  0 14.037400 5.814500 14.472700 0.831465 0.555577 0.000000 0.812500 0.301800 1 0 1.000000
  0 10.743800 10.743800 14.472700 0.658809 0.752310 0.000000 0.875000 0.301800 1 0 1.000000
  0 10.743800 10.743800 33.105202 0.752310 0.658809 0.000000 0.875000 0.688500 1 0 1.000000
barrelside11a
  0 10.743800 10.743800 14.472700 0.658809 0.752310 0.000000 0.875000 0.301800 1 0 1.000000
  0 5.814499 14.037400 33.105202 0.443009 0.896517 0.000000 0.937500 0.688500 1 0 1.000000
  0 10.743800 10.743800 33.105202 0.752310 0.658809 0.000000 0.875000 0.688500 1 0 1.000000
barrelside11a
  0 10.743800 10.743800 14.472700 0.658809 0.752310 0.000000 0.875000 0.301800 1 0 1.000000
  0 5.814499 14.037400 14.472700 0.246103 0.968913 -0.025300 0.937500 0.301800 1 0 1.000000
  0 5.814499 14.037400 33.105202 0.443009 0.896517 0.000000 0.937500 0.688500 1 0 1.000000
barrelside11a
  0 5.814499 14.037400 14.472700 0.246103 0.968913 -0.025300 0.937500 0.301800 1 0 1.000000
  0 -0.000001 15.194000 33.105202 -0.012400 0.998712 -0.049201 1.000000 0.688500 1 0 1.000000
  0 5.814499 14.037400 33.105202 0.443009 0.896517 0.000000 0.937500 0.688500 1 0 1.000000
barrelside11a
  0 5.814499 14.037400 14.472700 0.246103 0.968913 -0.025300 0.937500 0.301800 1 0 1.000000
  0 -0.000001 13.820300 14.472700 -0.065199 0.996678 -0.048799 1.000000 0.301800 1 0 1.000000
  0 -0.000001 15.194000 33.105202 -0.012400 0.998712 -0.049201 1.000000 0.688500 1 0 1.000000
barrelside11a
  0 14.769800 6.117900 13.712100 0.581496 0.388497 0.714795 0.812500 0.286000 1 0 1.000000
  0 10.743800 10.743800 14.472700 0.521500 0.456600 0.720800 0.875000 0.301800 1 0 1.000000
  0 14.037400 5.814500 14.472700 0.581496 0.388497 0.714795 0.812500 0.301800 1 0 1.000000
barrelside11a
  0 14.769800 6.117900 13.712100 0.581496 0.388497 0.714795 0.812500 0.286000 1 0 1.000000
  0 11.304299 11.304301 13.712100 0.456600 0.521500 0.720800 0.875000 0.286000 1 0 1.000000
  0 10.743800 10.743800 14.472700 0.521500 0.456600 0.720800 0.875000 0.301800 1 0 1.000000
barrelside11a
  0 11.304299 11.304301 13.712100 0.456600 0.521500 0.720800 0.875000 0.286000 1 0 1.000000
  0 5.814499 14.037400 14.472700 0.255602 0.643504 0.721505 0.937500 0.301800 1 0 1.000000
  0 10.743800 10.743800 14.472700 0.521500 0.456600 0.720800 0.875000 0.301800 1 0 1.000000
barrelside11a
  0 11.304299 11.304301 13.712100 0.456600 0.521500 0.720800 0.875000 0.286000 1 0 1.000000
  0 6.117899 14.769800 13.712100 0.116996 0.680680 0.723178 0.937500 0.286000 1 0 1.000000
  0 5.814499 14.037400 14.472700 0.255602 0.643504 0.721505 0.937500 0.301800 1 0 1.000000
barrelside11a
  0 6.117899 14.769800 13.712100 0.116996 0.680680 0.723178 0.937500 0.286000 1 0 1.000000
  0 -0.000001 13.820300 14.472700 -0.006300 0.703634 0.710534 1.000000 0.301800 1 0 1.000000
  0 5.814499 14.037400 14.472700 0.255602 0.643504 0.721505 0.937500 0.301800 1 0 1.000000
barrelside11a
  0 6.117899 14.769800 13.712100 0.116996 0.680680 0.723178 0.937500 0.286000 1 0 1.000000
  0 -0.000001 14.613000 13.712100 0.008900 0.703017 0.711117 1.000000 0.286000 1 0 1.000000
  0 -0.000001 13.820300 14.472700 -0.006300 0.703634 0.710534 1.000000 0.301800 1 0 1.000000
barrelside11a
  0 -0.000001 15.194000 33.105202 -0.045700 0.688497 -0.723797 0.000000 0.688500 1 0 1.000000
  0 -6.117900 14.769800 33.859299 -0.252510 0.641325 -0.724528 0.062500 0.704100 1 0 1.000000
  0 -0.000001 15.986700 33.859299 0.115898 0.843987 -0.523692 0.000000 0.704100 1 0 1.000000
barrelside11a
  0 -0.000001 15.194000 33.105202 -0.045700 0.688497 -0.723797 0.000000 0.688500 1 0 1.000000
  0 -5.814500 14.037400 33.105202 -0.363695 0.582792 -0.726690 0.062500 0.688500 1 0 1.000000
  0 -6.117900 14.769800 33.859299 -0.252510 0.641325 -0.724528 0.062500 0.704100 1 0 1.000000
barrelside11a
  0 -5.814500 14.037400 33.105202 -0.363695 0.582792 -0.726690 0.062500 0.688500 1 0 1.000000
  0 -10.913000 10.468099 33.859299 -0.485189 0.499089 -0.717984 0.128300 0.704100 1 0 1.000000
  0 -6.117900 14.769800 33.859299 -0.252510 0.641325 -0.724528 0.062500 0.704100 1 0 1.000000
barrelside11a
  0 -5.814500 14.037400 33.105202 -0.363695 0.582792 -0.726690 0.062500 0.688500 1 0 1.000000
  0 -10.352500 9.907500 33.105202 -0.503101 0.481301 -0.717801 0.128500 0.688500 1 0 1.000000
  0 -10.913000 10.468099 33.859299 -0.485189 0.499089 -0.717984 0.128300 0.704100 1 0 1.000000
barrelside11a
  0 -10.352500 9.907500 33.105202 -0.503101 0.481301 -0.717801 0.128500 0.688500 1 0 1.000000
  0 -14.769800 6.117899 33.859299 -0.584506 0.361704 -0.726308 0.187500 0.704100 1 0 1.000000
  0 -10.913000 10.468099 33.859299 -0.485189 0.499089 -0.717984 0.128300 0.704100 1 0 1.000000
barrelside11a
  0 -10.352500 9.907500 33.105202 -0.503101 0.481301 -0.717801 0.128500 0.688500 1 0 1.000000
  0 -14.037400 5.814499 33.105202 -0.641201 0.252900 -0.724501 0.187500 0.688500 1 0 1.000000
  0 -14.769800 6.117899 33.859299 -0.584506 0.361704 -0.726308 0.187500 0.704100 1 0 1.000000
barrelside11a
  0 -14.037400 5.814499 33.105202 -0.641201 0.252900 -0.724501 0.187500 0.688500 1 0 1.000000
  0 -15.986700 -0.000001 33.859299 -0.688497 0.045700 -0.723797 0.250000 0.704100 1 0 1.000000
  0 -14.769800 6.117899 33.859299 -0.584506 0.361704 -0.726308 0.187500 0.704100 1 0 1.000000
barrelside11a
  0 -14.037400 5.814499 33.105202 -0.641201 0.252900 -0.724501 0.187500 0.688500 1 0 1.000000
  0 -15.194000 -0.000001 33.105202 -0.688501 -0.045600 -0.723801 0.250000 0.688500 1 0 1.000000
  0 -15.986700 -0.000001 33.859299 -0.688497 0.045700 -0.723797 0.250000 0.704100 1 0 1.000000
barrelside11a
  0 -15.194000 -0.000001 33.105202 -0.688501 -0.045600 -0.723801 0.250000 0.688500 1 0 1.000000
  0 -14.769800 -6.117900 33.859299 -0.642877 -0.248691 -0.724474 0.312500 0.704100 1 0 1.000000
  0 -15.986700 -0.000001 33.859299 -0.688497 0.045700 -0.723797 0.250000 0.704100 1 0 1.000000
barrelside11a
  0 -15.194000 -0.000001 33.105202 -0.688501 -0.045600 -0.723801 0.250000 0.688500 1 0 1.000000
  0 -14.037400 -5.814500 33.105202 -0.669800 -0.374300 -0.641300 0.312500 0.688500 1 0 1.000000
  0 -14.769800 -6.117900 33.859299 -0.642877 -0.248691 -0.724474 0.312500 0.704100 1 0 1.000000
barrelside11a
  0 -14.037400 -5.814500 33.105202 -0.669800 -0.374300 -0.641300 0.312500 0.688500 1 0 1.000000
  0 -11.304299 -11.304301 34.639599 -0.610410 -0.572010 -0.547909 0.375000 0.720300 1 0 1.000000
  0 -14.769800 -6.117900 33.859299 -0.642877 -0.248691 -0.724474 0.312500 0.704100 1 0 1.000000
barrelside11a
  0 -14.037400 -5.814500 33.105202 -0.669800 -0.374300 -0.641300 0.312500 0.688500 1 0 1.000000
  0 -10.743800 -10.743800 33.105202 -0.580889 -0.643487 -0.498490 0.375000 0.688500 1 0 1.000000
  0 -11.304299 -11.304301 34.639599 -0.610410 -0.572010 -0.547909 0.375000 0.720300 1 0 1.000000
barrelside11a
  0 -10.743800 -10.743800 33.105202 -0.580889 -0.643487 -0.498490 0.375000 0.688500 1 0 1.000000
  0 -6.117899 -14.769800 34.230900 -0.384886 -0.749673 -0.538380 0.437500 0.711800 1 0 1.000000
  0 -11.304299 -11.304301 34.639599 -0.610410 -0.572010 -0.547909 0.375000 0.720300 1 0 1.000000
barrelside11a
  0 -10.743800 -10.743800 33.105202 -0.580889 -0.643487 -0.498490 0.375000 0.688500 1 0 1.000000
  0 -5.814499 -14.037400 33.105202 -0.262401 -0.775004 -0.574903 0.437500 0.688500 1 0 1.000000
  0 -6.117899 -14.769800 34.230900 -0.384886 -0.749673 -0.538380 0.437500 0.711800 1 0 1.000000
barrelside11a
  0 -5.814499 -14.037400 33.105202 -0.262401 -0.775004 -0.574903 0.437500 0.688500 1 0 1.000000
  0 0.000001 -15.986700 34.230900 -0.054101 -0.816422 -0.574916 0.500000 0.711800 1 0 1.000000
  0 -6.117899 -14.769800 34.230900 -0.384886 -0.749673 -0.538380 0.437500 0.711800 1 0 1.000000
barrelside11a
  0 -5.814499 -14.037400 33.105202 -0.262401 -0.775004 -0.574903 0.437500 0.688500 1 0 1.000000
  0 0.000001 -15.194000 33.105202 0.028699 -0.906567 -0.421085 0.500000 0.688500 1 0 1.000000
  0 0.000001 -15.986700 34.230900 -0.054101 -0.816422 -0.574916 0.500000 0.711800 1 0 1.000000
barrelside11a
  0 0.000001 -15.194000 33.105202 0.028699 -0.906567 -0.421085 0.500000 0.688500 1 0 1.000000
  0 6.117900 -14.769800 34.230900 0.126204 -0.934226 -0.333609 0.562500 0.711800 1 0 1.000000
  0 0.000001 -15.986700 34.230900 -0.054101 -0.816422 -0.574916 0.500000 0.711800 1 0 1.000000
barrelside11a
  0 0.000001 -15.194000 33.105202 0.028699 -0.906567 -0.421085 0.500000 0.688500 1 0 1.000000
  0 5.459301 -14.371300 28.195801 0.082599 -0.993787 -0.074599 0.557800 0.586600 1 0 1.000000
  0 6.117900 -14.769800 34.230900 0.126204 -0.934226 -0.333609 0.562500 0.711800 1 0 1.000000
barrelside11a
  0 -0.000001 13.820300 14.472700 -0.065199 0.996678 -0.048799 0.000000 0.301800 1 0 1.000000
  0 -5.814500 14.037400 33.105202 -0.292206 0.956018 -0.025400 0.062500 0.688500 1 0 1.000000
  0 -0.000001 15.194000 33.105202 -0.012400 0.998712 -0.049201 0.000000 0.688500 1 0 1.000000
barrelside11a
  0 -0.000001 13.820300 14.472700 -0.065199 0.996678 -0.048799 0.000000 0.301800 1 0 1.000000
  0 -5.814500 14.037400 14.472700 -0.420390 0.907178 0.017300 0.062500 0.301800 1 0 1.000000
  0 -5.814500 14.037400 33.105202 -0.292206 0.956018 -0.025400 0.062500 0.688500 1 0 1.000000
barrelside11a
  0 -5.814500 14.037400 14.472700 -0.420390 0.907178 0.017300 0.062500 0.301800 1 0 1.000000
  0 -10.352500 9.907500 33.105202 -0.660422 0.750225 0.031701 0.128500 0.688500 1 0 1.000000
  0 -5.814500 14.037400 33.105202 -0.292206 0.956018 -0.025400 0.062500 0.688500 1 0 1.000000
barrelside11a
  0 -5.814500 14.037400 14.472700 -0.420390 0.907178 0.017300 0.062500 0.301800 1 0 1.000000
  0 -10.743800 10.743800 14.472700 -0.719185 0.694086 0.031899 0.125000 0.301800 1 0 1.000000
  0 -10.352500 9.907500 33.105202 -0.660422 0.750225 0.031701 0.128500 0.688500 1 0 1.000000
barrelside11a
  0 -10.743800 10.743800 14.472700 -0.719185 0.694086 0.031899 0.125000 0.301800 1 0 1.000000
  0 -14.037400 5.814499 33.105202 -0.874098 0.485499 0.015600 0.187500 0.688500 1 0 1.000000
  0 -10.352500 9.907500 33.105202 -0.660422 0.750225 0.031701 0.128500 0.688500 1 0 1.000000
barrelside11a
  0 -10.743800 10.743800 14.472700 -0.719185 0.694086 0.031899 0.125000 0.301800 1 0 1.000000
  0 -14.037400 5.814499 14.472700 -0.947183 0.320694 0.000000 0.187500 0.301800 1 0 1.000000
  0 -14.037400 5.814499 33.105202 -0.874098 0.485499 0.015600 0.187500 0.688500 1 0 1.000000
barrelside11a
  0 -14.037400 5.814499 14.472700 -0.947183 0.320694 0.000000 0.187500 0.301800 1 0 1.000000
  0 -15.194000 -0.000001 33.105202 -0.997806 0.066200 0.000000 0.250000 0.688500 1 0 1.000000
  0 -14.037400 5.814499 33.105202 -0.874098 0.485499 0.015600 0.187500 0.688500 1 0 1.000000
barrelside11a
  0 -14.037400 5.814499 14.472700 -0.947183 0.320694 0.000000 0.187500 0.301800 1 0 1.000000
  0 -15.194000 -0.000001 14.472700 -0.997806 -0.066200 0.000000 0.250000 0.301800 1 0 1.000000
  0 -15.194000 -0.000001 33.105202 -0.997806 0.066200 0.000000 0.250000 0.688500 1 0 1.000000
barrelside11a
  0 -15.194000 -0.000001 14.472700 -0.997806 -0.066200 0.000000 0.250000 0.301800 1 0 1.000000
  0 -14.037400 -5.814500 33.105202 -0.947183 -0.320694 0.000000 0.312500 0.688500 1 0 1.000000
  0 -15.194000 -0.000001 33.105202 -0.997806 0.066200 0.000000 0.250000 0.688500 1 0 1.000000
barrelside11a
  0 -15.194000 -0.000001 14.472700 -0.997806 -0.066200 0.000000 0.250000 0.301800 1 0 1.000000
  0 -14.037400 -5.814500 13.990600 -0.896517 -0.443009 0.000000 0.312500 0.291800 1 0 1.000000
  0 -14.037400 -5.814500 33.105202 -0.947183 -0.320694 0.000000 0.312500 0.688500 1 0 1.000000
barrelside11a
  0 -14.037400 -5.814500 13.990600 -0.896517 -0.443009 0.000000 0.312500 0.291800 1 0 1.000000
  0 -10.743800 -10.743800 33.105202 -0.752310 -0.658809 0.000000 0.375000 0.688500 1 0 1.000000
  0 -14.037400 -5.814500 33.105202 -0.947183 -0.320694 0.000000 0.312500 0.688500 1 0 1.000000
barrelside11a
  0 -14.037400 -5.814500 13.990600 -0.896517 -0.443009 0.000000 0.312500 0.291800 1 0 1.000000
  0 -10.743800 -10.743800 14.472700 -0.587896 -0.808395 -0.029600 0.375000 0.301800 1 0 1.000000
  0 -10.743800 -10.743800 33.105202 -0.752310 -0.658809 0.000000 0.375000 0.688500 1 0 1.000000
barrelside11a
  0 -10.743800 -10.743800 14.472700 -0.587896 -0.808395 -0.029600 0.375000 0.301800 1 0 1.000000
  0 -5.814499 -14.037400 33.105202 -0.358409 -0.931723 -0.058601 0.437500 0.688500 1 0 1.000000
  0 -10.743800 -10.743800 33.105202 -0.752310 -0.658809 0.000000 0.375000 0.688500 1 0 1.000000
barrelside11a
  0 -10.743800 -10.743800 14.472700 -0.587896 -0.808395 -0.029600 0.375000 0.301800 1 0 1.000000
  0 -5.814499 -12.358000 14.472700 -0.316292 -0.946875 -0.058198 0.430000 0.301800 1 0 1.000000
  0 -5.814499 -14.037400 33.105202 -0.358409 -0.931723 -0.058601 0.437500 0.688500 1 0 1.000000
barrelside11a
  0 -5.814499 -12.358000 14.472700 -0.316292 -0.946875 -0.058198 0.430000 0.301800 1 0 1.000000
  0 0.000001 -15.194000 33.105202 -0.166399 -0.985593 -0.030300 0.500000 0.688500 1 0 1.000000
  0 -5.814499 -14.037400 33.105202 -0.358409 -0.931723 -0.058601 0.437500 0.688500 1 0 1.000000
barrelside11a
  0 -5.814499 -12.358000 14.472700 -0.316292 -0.946875 -0.058198 0.430000 0.301800 1 0 1.000000
  0 0.000001 -15.194000 14.472700 -0.032901 -0.999437 -0.006600 0.500000 0.301800 1 0 1.000000
  0 0.000001 -15.194000 33.105202 -0.166399 -0.985593 -0.030300 0.500000 0.688500 1 0 1.000000
barrelside11a
  0 0.000001 -15.194000 14.472700 -0.032901 -0.999437 -0.006600 0.500000 0.301800 1 0 1.000000
  0 5.459301 -14.371300 28.195801 0.172106 -0.985033 -0.009400 0.557800 0.586600 1 0 1.000000
  0 0.000001 -15.194000 33.105202 -0.166399 -0.985593 -0.030300 0.500000 0.688500 1 0 1.000000
barrelside11a
  0 0.000001 -15.194000 14.472700 -0.032901 -0.999437 -0.006600 0.500000 0.301800 1 0 1.000000
  0 5.814500 -14.037400 14.472700 0.195101 -0.980603 -0.018800 0.562500 0.301800 1 0 1.000000
  0 5.459301 -14.371300 28.195801 0.172106 -0.985033 -0.009400 0.557800 0.586600 1 0 1.000000
barrelside11a
  0 -0.000001 13.820300 12.164200 0.007800 0.895636 -0.444718 0.000000 0.253900 1 0 1.000000
  0 -6.117900 14.769800 13.712100 -0.141493 0.878256 -0.456777 0.062500 0.286000 1 0 1.000000
  0 -0.000001 14.613000 13.712100 -0.011200 0.895309 -0.445305 0.000000 0.286000 1 0 1.000000
barrelside11a
  0 -0.000001 13.820300 12.164200 0.007800 0.895636 -0.444718 0.000000 0.253900 1 0 1.000000
  0 -5.814500 14.037400 12.164200 -0.306604 0.809312 -0.501007 0.062500 0.253900 1 0 1.000000
  0 -6.117900 14.769800 13.712100 -0.141493 0.878256 -0.456777 0.062500 0.286000 1 0 1.000000
barrelside11a
  0 -5.814500 14.037400 12.164200 -0.306604 0.809312 -0.501007 0.062500 0.253900 1 0 1.000000
  0 -11.304301 11.304299 13.262500 -0.593298 0.592798 -0.544598 0.125000 0.276600 1 0 1.000000
  0 -6.117900 14.769800 13.712100 -0.141493 0.878256 -0.456777 0.062500 0.286000 1 0 1.000000
barrelside11a
  0 -5.814500 14.037400 12.164200 -0.306604 0.809312 -0.501007 0.062500 0.253900 1 0 1.000000
  0 -10.743800 10.743800 12.164200 -0.741419 0.538414 -0.400510 0.125000 0.253900 1 0 1.000000
  0 -11.304301 11.304299 13.262500 -0.593298 0.592798 -0.544598 0.125000 0.276600 1 0 1.000000
barrelside11a
  0 -10.743800 10.743800 12.164200 -0.741419 0.538414 -0.400510 0.125000 0.253900 1 0 1.000000
  0 -14.037400 5.814499 14.472700 -0.896602 0.400101 -0.189800 0.187500 0.301800 1 0 1.000000
  0 -11.304301 11.304299 13.262500 -0.593298 0.592798 -0.544598 0.125000 0.276600 1 0 1.000000
barrelside11a
  0 -10.743800 10.743800 12.164200 -0.741419 0.538414 -0.400510 0.125000 0.253900 1 0 1.000000
  0 -14.037400 5.814499 12.164200 -0.912420 0.368708 -0.177604 0.187500 0.253900 1 0 1.000000
  0 -14.037400 5.814499 14.472700 -0.896602 0.400101 -0.189800 0.187500 0.301800 1 0 1.000000
barrelside11a
  0 -14.037400 5.814499 12.164200 -0.912420 0.368708 -0.177604 0.187500 0.253900 1 0 1.000000
  0 -15.986700 -0.000001 13.262500 -0.939187 0.101399 -0.328095 0.250000 0.276600 1 0 1.000000
  0 -14.037400 5.814499 14.472700 -0.896602 0.400101 -0.189800 0.187500 0.301800 1 0 1.000000
barrelside11a
  0 -14.037400 5.814499 12.164200 -0.912420 0.368708 -0.177604 0.187500 0.253900 1 0 1.000000
  0 -15.253200 -0.368401 11.920500 -0.922717 -0.079901 -0.377107 0.253800 0.248800 1 0 1.000000
  0 -15.986700 -0.000001 13.262500 -0.939187 0.101399 -0.328095 0.250000 0.276600 1 0 1.000000
barrelside11a
  0 -15.253200 -0.368401 11.920500 -0.922717 -0.079901 -0.377107 0.253800 0.248800 1 0 1.000000
  0 -14.154400 -6.117900 12.556000 -0.900929 -0.307510 -0.306210 0.314900 0.262000 1 0 1.000000
  0 -15.986700 -0.000001 13.262500 -0.939187 0.101399 -0.328095 0.250000 0.276600 1 0 1.000000
barrelside11a
  0 -15.253200 -0.368401 11.920500 -0.922717 -0.079901 -0.377107 0.253800 0.248800 1 0 1.000000
  0 -14.094200 -5.515400 11.467100 -0.869950 -0.401723 -0.286016 0.309400 0.239400 1 0 1.000000
  0 -14.154400 -6.117900 12.556000 -0.900929 -0.307510 -0.306210 0.314900 0.262000 1 0 1.000000
barrelside11a
  0 -14.094200 -5.515400 11.467100 -0.869950 -0.401723 -0.286016 0.309400 0.239400 1 0 1.000000
  0 -11.304299 -11.304301 13.262500 -0.633823 -0.708326 -0.310712 0.375000 0.276600 1 0 1.000000
  0 -14.154400 -6.117900 12.556000 -0.900929 -0.307510 -0.306210 0.314900 0.262000 1 0 1.000000
barrelside11a
  0 -14.094200 -5.515400 11.467100 -0.869950 -0.401723 -0.286016 0.309400 0.239400 1 0 1.000000
  0 -10.793799 -11.134400 11.920500 -0.455100 -0.878899 -0.142900 0.377500 0.248800 1 0 1.000000
  0 -11.304299 -11.304301 13.262500 -0.633823 -0.708326 -0.310712 0.375000 0.276600 1 0 1.000000
barrelside11a
  0 -10.793799 -11.134400 11.920500 -0.455100 -0.878899 -0.142900 0.377500 0.248800 1 0 1.000000
  0 -5.814499 -12.358000 14.472700 -0.327910 -0.943928 0.038401 0.430000 0.301800 1 0 1.000000
  0 -11.304299 -11.304301 13.262500 -0.633823 -0.708326 -0.310712 0.375000 0.276600 1 0 1.000000
barrelside11a
  0 -10.793799 -11.134400 11.920500 -0.455100 -0.878899 -0.142900 0.377500 0.248800 1 0 1.000000
  0 -5.854300 -12.755400 11.920500 -0.428313 -0.902727 0.040401 0.431500 0.248800 1 0 1.000000
  0 -5.814499 -12.358000 14.472700 -0.327910 -0.943928 0.038401 0.430000 0.301800 1 0 1.000000
barrelside11a
  0 -5.854300 -12.755400 11.920500 -0.428313 -0.902727 0.040401 0.431500 0.248800 1 0 1.000000
  0 0.000001 -15.986700 13.351800 -0.265509 -0.955733 -0.126804 0.500000 0.278500 1 0 1.000000
  0 -5.814499 -12.358000 14.472700 -0.327910 -0.943928 0.038401 0.430000 0.301800 1 0 1.000000
barrelside11a
  0 -5.854300 -12.755400 11.920500 -0.428313 -0.902727 0.040401 0.431500 0.248800 1 0 1.000000
  0 -0.027699 -15.593900 11.920500 -0.017300 -0.964286 -0.264296 0.499700 0.248800 1 0 1.000000
  0 0.000001 -15.986700 13.351800 -0.265509 -0.955733 -0.126804 0.500000 0.278500 1 0 1.000000
barrelside11a
  0 -0.027699 -15.593900 11.920500 -0.017300 -0.964286 -0.264296 0.499700 0.248800 1 0 1.000000
  0 6.117900 -14.769800 13.351800 0.300099 -0.911797 -0.280299 0.562500 0.278500 1 0 1.000000
  0 0.000001 -15.986700 13.351800 -0.265509 -0.955733 -0.126804 0.500000 0.278500 1 0 1.000000
barrelside11a
  0 -0.027699 -15.593900 11.920500 -0.017300 -0.964286 -0.264296 0.499700 0.248800 1 0 1.000000
  0 5.798800 -14.434900 11.920500 0.355302 -0.889504 -0.287301 0.560800 0.248800 1 0 1.000000
  0 6.117900 -14.769800 13.351800 0.300099 -0.911797 -0.280299 0.562500 0.278500 1 0 1.000000
barrelside11a
  0 5.798800 -14.434900 11.920500 0.355302 -0.889504 -0.287301 0.560800 0.248800 1 0 1.000000
  0 9.500001 -11.134400 9.394500 0.511192 -0.804587 -0.302195 0.612400 0.196400 1 0 1.000000
  0 6.117900 -14.769800 13.351800 0.300099 -0.911797 -0.280299 0.562500 0.278500 1 0 1.000000
barrelside11a
  0 -0.000001 15.194000 -0.042600 0.012100 0.997117 0.074901 0.000000 0.000500 1 0 1.000000
  0 -5.814500 14.037400 12.164200 -0.246306 0.968423 0.038601 0.062500 0.253900 1 0 1.000000
  0 -0.000001 13.820300 12.164200 0.065001 0.995115 0.074301 0.000000 0.253900 1 0 1.000000
barrelside11a
  0 -0.000001 15.194000 -0.042600 0.012100 0.997117 0.074901 0.000000 0.000500 1 0 1.000000
  0 -5.814500 14.037400 -0.042600 -0.443009 0.896517 0.000000 0.062500 0.000500 1 0 1.000000
  0 -5.814500 14.037400 12.164200 -0.246306 0.968423 0.038601 0.062500 0.253900 1 0 1.000000
barrelside11a
  0 -5.814500 14.037400 -0.042600 -0.443009 0.896517 0.000000 0.062500 0.000500 1 0 1.000000
  0 -10.743800 10.743800 12.164200 -0.658809 0.752310 0.000000 0.125000 0.253900 1 0 1.000000
  0 -5.814500 14.037400 12.164200 -0.246306 0.968423 0.038601 0.062500 0.253900 1 0 1.000000
barrelside11a
  0 -5.814500 14.037400 -0.042600 -0.443009 0.896517 0.000000 0.062500 0.000500 1 0 1.000000
  0 -10.743800 10.743800 -0.042600 -0.752310 0.658809 0.000000 0.125000 0.000500 1 0 1.000000
  0 -10.743800 10.743800 12.164200 -0.658809 0.752310 0.000000 0.125000 0.253900 1 0 1.000000
barrelside11a
  0 -10.743800 10.743800 -0.042600 -0.752310 0.658809 0.000000 0.125000 0.000500 1 0 1.000000
  0 -14.037400 5.814499 12.164200 -0.896873 0.442287 0.000000 0.187500 0.253900 1 0 1.000000
  0 -10.743800 10.743800 12.164200 -0.658809 0.752310 0.000000 0.125000 0.253900 1 0 1.000000
barrelside11a
  0 -10.743800 10.743800 -0.042600 -0.752310 0.658809 0.000000 0.125000 0.000500 1 0 1.000000
  0 -14.037400 5.814499 -0.042600 -0.947416 0.320005 0.000400 0.187500 0.000500 1 0 1.000000
  0 -14.037400 5.814499 12.164200 -0.896873 0.442287 0.000000 0.187500 0.253900 1 0 1.000000
barrelside11a
  0 -14.037400 5.814499 -0.042600 -0.947416 0.320005 0.000400 0.187500 0.000500 1 0 1.000000
  0 -15.253200 -0.368401 11.920500 -0.998339 0.057502 -0.003500 0.253800 0.248800 1 0 1.000000
  0 -14.037400 5.814499 12.164200 -0.896873 0.442287 0.000000 0.187500 0.253900 1 0 1.000000
barrelside11a
  0 -14.037400 5.814499 -0.042600 -0.947416 0.320005 0.000400 0.187500 0.000500 1 0 1.000000
  0 -15.194000 -0.000001 -0.042600 -0.997237 -0.074203 -0.003500 0.250000 0.000500 1 0 1.000000
  0 -15.253200 -0.368401 11.920500 -0.998339 0.057502 -0.003500 0.253800 0.248800 1 0 1.000000
barrelside11a
  0 -15.194000 -0.000001 -0.042600 -0.997237 -0.074203 -0.003500 0.250000 0.000500 1 0 1.000000
  0 -14.094200 -5.515400 11.467100 -0.950674 -0.310191 -0.000800 0.309400 0.239400 1 0 1.000000
  0 -15.253200 -0.368401 11.920500 -0.998339 0.057502 -0.003500 0.253800 0.248800 1 0 1.000000
barrelside11a
  0 -15.194000 -0.000001 -0.042600 -0.997237 -0.074203 -0.003500 0.250000 0.000500 1 0 1.000000
  0 -14.037400 -5.814500 -0.042600 -0.905091 -0.425196 -0.004200 0.312500 0.000500 1 0 1.000000
  0 -14.094200 -5.515400 11.467100 -0.950674 -0.310191 -0.000800 0.309400 0.239400 1 0 1.000000
barrelside11a
  0 -14.037400 -5.814500 -0.042600 -0.905091 -0.425196 -0.004200 0.312500 0.000500 1 0 1.000000
  0 -10.793799 -11.134400 11.920500 -0.706016 -0.708017 -0.015900 0.377500 0.248800 1 0 1.000000
  0 -14.094200 -5.515400 11.467100 -0.950674 -0.310191 -0.000800 0.309400 0.239400 1 0 1.000000
barrelside11a
  0 -14.037400 -5.814500 -0.042600 -0.905091 -0.425196 -0.004200 0.312500 0.000500 1 0 1.000000
  0 -10.743800 -10.743800 -0.042600 -0.579520 -0.814928 0.006900 0.375000 0.000500 1 0 1.000000
  0 -10.793799 -11.134400 11.920500 -0.706016 -0.708017 -0.015900 0.377500 0.248800 1 0 1.000000
barrelside11a
  0 -10.743800 -10.743800 -0.042600 -0.579520 -0.814928 0.006900 0.375000 0.000500 1 0 1.000000
  0 -5.854300 -12.755400 11.920500 -0.428313 -0.902727 0.040401 0.431500 0.248800 1 0 1.000000
  0 -10.793799 -11.134400 11.920500 -0.706016 -0.708017 -0.015900 0.377500 0.248800 1 0 1.000000
barrelside11a
  0 -10.743800 -10.743800 -0.042600 -0.579520 -0.814928 0.006900 0.375000 0.000500 1 0 1.000000
  0 -5.814499 -13.826300 -0.042600 -0.402307 -0.914617 0.040301 0.436600 0.000500 1 0 1.000000
  0 -5.854300 -12.755400 11.920500 -0.428313 -0.902727 0.040401 0.431500 0.248800 1 0 1.000000
barrelside11a
  0 -5.814499 -13.826300 -0.042600 -0.402307 -0.914617 0.040301 0.436600 0.000500 1 0 1.000000
  0 -0.027699 -15.593900 11.920500 -0.162905 -0.986631 0.004600 0.499700 0.248800 1 0 1.000000
  0 -5.854300 -12.755400 11.920500 -0.428313 -0.902727 0.040401 0.431500 0.248800 1 0 1.000000
barrelside11a
  0 -5.814499 -13.826300 -0.042600 -0.402307 -0.914617 0.040301 0.436600 0.000500 1 0 1.000000
  0 0.000001 -15.194000 -0.042600 0.054803 -0.997945 -0.033201 0.500000 0.000500 1 0 1.000000
  0 -0.027699 -15.593900 11.920500 -0.162905 -0.986631 0.004600 0.499700 0.248800 1 0 1.000000
barrelside11a
  0 0.000001 -15.194000 -0.042600 0.054803 -0.997945 -0.033201 0.500000 0.000500 1 0 1.000000
  0 5.798800 -14.434900 11.920500 0.359395 -0.932687 -0.030500 0.560800 0.248800 1 0 1.000000
  0 -0.027699 -15.593900 11.920500 -0.162905 -0.986631 0.004600 0.499700 0.248800 1 0 1.000000
barrelside11a
  0 0.000001 -15.194000 -0.042600 0.054803 -0.997945 -0.033201 0.500000 0.000500 1 0 1.000000
  0 5.814500 -14.037400 -0.042600 0.480685 -0.876872 -0.006100 0.562500 0.000500 1 0 1.000000
  0 5.798800 -14.434900 11.920500 0.359395 -0.932687 -0.030500 0.560800 0.248800 1 0 1.000000
barrelside11a
  0 5.814500 -14.037400 -0.042600 0.480685 -0.876872 -0.006100 0.562500 0.000500 1 0 1.000000
  0 9.500001 -11.134400 9.394500 0.689798 -0.723198 0.034100 0.612400 0.196400 1 0 1.000000
  0 5.798800 -14.434900 11.920500 0.359395 -0.932687 -0.030500 0.560800 0.248800 1 0 1.000000
barrelside11a
  0 5.814500 -14.037400 -0.042600 0.480685 -0.876872 -0.006100 0.562500 0.000500 1 0 1.000000
  0 10.743800 -10.743800 -0.042600 0.705466 -0.705866 0.063797 0.625000 0.000500 1 0 1.000000
  0 9.500001 -11.134400 9.394500 0.689798 -0.723198 0.034100 0.612400 0.196400 1 0 1.000000
barrelside11a
  0 10.743800 -10.743800 -0.042600 0.705466 -0.705866 0.063797 0.625000 0.000500 1 0 1.000000
  0 14.037400 -5.814499 -0.042600 0.917124 -0.380610 0.118403 0.687500 0.000500 1 0 1.000000
  0 9.500001 -11.134400 9.394500 0.689798 -0.723198 0.034100 0.612400 0.196400 1 0 1.000000
barrelside11a
  0 14.037400 -5.814499 -0.042600 0.917124 -0.380610 0.118403 0.687500 0.000500 1 0 1.000000
  0 15.194000 0.000001 -0.042600 0.994073 -0.043799 0.099497 0.750000 0.000500 1 0 1.000000
  0 13.936300 0.000001 8.318000 0.975778 -0.162196 0.146797 0.750000 0.174000 1 0 1.000000
barrelside11a
  0 15.194000 0.000001 -0.042600 0.994073 -0.043799 0.099497 0.750000 0.000500 1 0 1.000000
  0 14.037400 5.814500 12.818300 0.961718 0.268905 0.052801 0.812500 0.267400 1 0 1.000000
  0 13.936300 0.000001 8.318000 0.975778 -0.162196 0.146797 0.750000 0.174000 1 0 1.000000
barrelside11a
  0 15.194000 0.000001 -0.042600 0.994073 -0.043799 0.099497 0.750000 0.000500 1 0 1.000000
  0 14.037400 5.814500 -0.042600 0.869773 0.492685 0.027499 0.812500 0.000500 1 0 1.000000
  0 14.037400 5.814500 12.818300 0.961718 0.268905 0.052801 0.812500 0.267400 1 0 1.000000
barrelside11a
  0 14.037400 5.814500 -0.042600 0.869773 0.492685 0.027499 0.812500 0.000500 1 0 1.000000
  0 10.204400 9.863800 11.624100 0.752794 0.655895 0.055700 0.872300 0.242600 1 0 1.000000
  0 14.037400 5.814500 12.818300 0.961718 0.268905 0.052801 0.812500 0.267400 1 0 1.000000
barrelside11a
  0 14.037400 5.814500 -0.042600 0.869773 0.492685 0.027499 0.812500 0.000500 1 0 1.000000
  0 10.743800 10.743800 -0.042600 0.701680 0.710280 0.056098 0.875000 0.000500 1 0 1.000000
  0 10.204400 9.863800 11.624100 0.752794 0.655895 0.055700 0.872300 0.242600 1 0 1.000000
barrelside11a
  0 10.743800 10.743800 -0.042600 0.701680 0.710280 0.056098 0.875000 0.000500 1 0 1.000000
  0 5.814499 14.037400 12.164200 0.428914 0.902830 0.030501 0.937500 0.253900 1 0 1.000000
  0 10.204400 9.863800 11.624100 0.752794 0.655895 0.055700 0.872300 0.242600 1 0 1.000000
barrelside11a
  0 10.743800 10.743800 -0.042600 0.701680 0.710280 0.056098 0.875000 0.000500 1 0 1.000000
  0 5.814499 14.037400 -0.042600 0.245889 0.968557 0.037898 0.937500 0.000500 1 0 1.000000
  0 5.814499 14.037400 12.164200 0.428914 0.902830 0.030501 0.937500 0.253900 1 0 1.000000
barrelside11a
  0 5.814499 14.037400 -0.042600 0.245889 0.968557 0.037898 0.937500 0.000500 1 0 1.000000
  0 -0.000001 13.820300 12.164200 0.065001 0.995115 0.074301 1.000000 0.253900 1 0 1.000000
  0 5.814499 14.037400 12.164200 0.428914 0.902830 0.030501 0.937500 0.253900 1 0 1.000000
barrelside11a
  0 5.814499 14.037400 -0.042600 0.245889 0.968557 0.037898 0.937500 0.000500 1 0 1.000000
  0 -0.000001 15.194000 -0.042600 0.012100 0.997117 0.074901 1.000000 0.000500 1 0 1.000000
  0 -0.000001 13.820300 12.164200 0.065001 0.995115 0.074301 1.000000 0.253900 1 0 1.000000
barrelside11a
  0 5.814499 14.037400 35.639702 0.306189 0.782072 0.542781 0.937500 0.741100 1 0 1.000000
  0 -0.000001 15.986700 33.859299 -0.060498 0.911874 0.405988 1.000000 0.704100 1 0 1.000000
  0 -0.000001 15.194000 35.639702 0.000000 0.913514 0.406806 1.000000 0.741100 1 0 1.000000
barrelside11a
  0 6.117900 -14.769800 34.230900 0.573291 -0.657289 0.489192 0.562500 0.711800 1 0 1.000000
  0 8.663800 -9.831400 35.639702 0.701097 -0.537997 0.467998 0.615000 0.741100 1 0 1.000000
  0 5.814500 -14.037400 35.639702 0.383896 -0.782892 0.489595 0.562500 0.741100 1 0 1.000000
barrelside11a
  0 6.117900 -14.769800 34.230900 0.573291 -0.657289 0.489192 0.562500 0.711800 1 0 1.000000
  0 9.224400 -10.392000 34.230900 0.682673 -0.571077 0.455882 0.615500 0.711800 1 0 1.000000
  0 8.663800 -9.831400 35.639702 0.701097 -0.537997 0.467998 0.615000 0.741100 1 0 1.000000
barrelside11a
  0 9.224400 -10.392000 34.230900 0.682673 -0.571077 0.455882 0.615500 0.711800 1 0 1.000000
  0 12.433900 -5.814499 35.639702 0.724868 -0.536376 0.432281 0.680400 0.741100 1 0 1.000000
  0 8.663800 -9.831400 35.639702 0.701097 -0.537997 0.467998 0.615000 0.741100 1 0 1.000000
barrelside11a
  0 9.224400 -10.392000 34.230900 0.682673 -0.571077 0.455882 0.615500 0.711800 1 0 1.000000
  0 13.166300 -6.117899 33.859299 0.772974 -0.468884 0.427386 0.680800 0.704100 1 0 1.000000
  0 12.433900 -5.814499 35.639702 0.724868 -0.536376 0.432281 0.680400 0.741100 1 0 1.000000
barrelside11a
  0 13.166300 -6.117899 33.859299 0.772974 -0.468884 0.427386 0.680800 0.704100 1 0 1.000000
  0 15.194000 0.000001 35.639702 0.848076 -0.215694 0.483986 0.750000 0.741100 1 0 1.000000
  0 12.433900 -5.814499 35.639702 0.724868 -0.536376 0.432281 0.680400 0.741100 1 0 1.000000
barrelside11a
  0 13.166300 -6.117899 33.859299 0.772974 -0.468884 0.427386 0.680800 0.704100 1 0 1.000000
  0 15.986700 0.000001 34.341301 0.853278 -0.022099 0.520987 0.750000 0.714100 1 0 1.000000
  0 15.194000 0.000001 35.639702 0.848076 -0.215694 0.483986 0.750000 0.741100 1 0 1.000000
barrelside11a
  0 15.986700 0.000001 34.341301 0.853278 -0.022099 0.520987 0.750000 0.714100 1 0 1.000000
  0 14.037400 5.814500 35.639702 0.808879 0.273893 0.520286 0.812500 0.741100 1 0 1.000000
  0 15.194000 0.000001 35.639702 0.848076 -0.215694 0.483986 0.750000 0.741100 1 0 1.000000
barrelside11a
  0 15.986700 0.000001 34.341301 0.853278 -0.022099 0.520987 0.750000 0.714100 1 0 1.000000
  0 14.769800 6.117900 34.341301 0.745970 0.347586 0.568077 0.812500 0.714100 1 0 1.000000
  0 14.037400 5.814500 35.639702 0.808879 0.273893 0.520286 0.812500 0.741100 1 0 1.000000
barrelside11a
  0 14.769800 6.117900 34.341301 0.745970 0.347586 0.568077 0.812500 0.714100 1 0 1.000000
  0 10.743800 10.743800 35.639702 0.603961 0.503468 0.617860 0.875000 0.741100 1 0 1.000000
  0 14.037400 5.814500 35.639702 0.808879 0.273893 0.520286 0.812500 0.741100 1 0 1.000000
barrelside11a
  0 14.769800 6.117900 34.341301 0.745970 0.347586 0.568077 0.812500 0.714100 1 0 1.000000
  0 11.304299 11.304301 34.750099 0.543108 0.512507 0.665109 0.875000 0.722600 1 0 1.000000
  0 10.743800 10.743800 35.639702 0.603961 0.503468 0.617860 0.875000 0.741100 1 0 1.000000
barrelside11a
  0 11.304299 11.304301 34.750099 0.543108 0.512507 0.665109 0.875000 0.722600 1 0 1.000000
  0 5.814499 14.037400 35.639702 0.306189 0.782072 0.542781 0.937500 0.741100 1 0 1.000000
  0 10.743800 10.743800 35.639702 0.603961 0.503468 0.617860 0.875000 0.741100 1 0 1.000000
barrelside11a
  0 -0.000001 15.986700 33.859299 -0.060498 0.911874 0.405988 0.000000 0.704100 1 0 1.000000
  0 -5.814500 14.037400 35.639702 -0.335301 0.849804 0.406702 0.062500 0.741100 1 0 1.000000
  0 -0.000001 15.194000 35.639702 0.000000 0.913514 0.406806 0.000000 0.741100 1 0 1.000000
barrelside11a
  0 -0.000001 15.986700 33.859299 -0.060498 0.911874 0.405988 0.000000 0.704100 1 0 1.000000
  0 -6.117900 14.769800 33.859299 -0.482901 0.774501 0.408601 0.062500 0.704100 1 0 1.000000
  0 -5.814500 14.037400 35.639702 -0.335301 0.849804 0.406702 0.062500 0.741100 1 0 1.000000
barrelside11a
  0 -6.117900 14.769800 33.859299 -0.482901 0.774501 0.408601 0.062500 0.704100 1 0 1.000000
  0 -10.352500 9.907500 35.639702 -0.637364 0.658563 0.400077 0.128500 0.741100 1 0 1.000000
  0 -5.814500 14.037400 35.639702 -0.335301 0.849804 0.406702 0.062500 0.741100 1 0 1.000000
barrelside11a
  0 -6.117900 14.769800 33.859299 -0.482901 0.774501 0.408601 0.062500 0.704100 1 0 1.000000
  0 -10.913000 10.468099 33.859299 -0.660413 0.635112 0.400608 0.128300 0.704100 1 0 1.000000
  0 -10.352500 9.907500 35.639702 -0.637364 0.658563 0.400077 0.128500 0.741100 1 0 1.000000
barrelside11a
  0 -10.913000 10.468099 33.859299 -0.660413 0.635112 0.400608 0.128300 0.704100 1 0 1.000000
  0 -14.037400 5.814499 35.639702 -0.776281 0.479788 0.408890 0.187500 0.741100 1 0 1.000000
  0 -10.352500 9.907500 35.639702 -0.637364 0.658563 0.400077 0.128500 0.741100 1 0 1.000000
barrelside11a
  0 -10.913000 10.468099 33.859299 -0.660413 0.635112 0.400608 0.128300 0.704100 1 0 1.000000
  0 -14.769800 6.117899 33.859299 -0.851268 0.331587 0.406685 0.187500 0.704100 1 0 1.000000
  0 -14.037400 5.814499 35.639702 -0.776281 0.479788 0.408890 0.187500 0.741100 1 0 1.000000
barrelside11a
  0 -14.769800 6.117899 33.859299 -0.851268 0.331587 0.406685 0.187500 0.704100 1 0 1.000000
  0 -15.194000 -0.000001 35.639702 -0.911874 0.060498 0.405988 0.250000 0.741100 1 0 1.000000
  0 -14.037400 5.814499 35.639702 -0.776281 0.479788 0.408890 0.187500 0.741100 1 0 1.000000
barrelside11a
  0 -14.769800 6.117899 33.859299 -0.851268 0.331587 0.406685 0.187500 0.704100 1 0 1.000000
  0 -15.986700 -0.000001 33.859299 -0.911874 -0.060498 0.405988 0.250000 0.704100 1 0 1.000000
  0 -15.194000 -0.000001 35.639702 -0.911874 0.060498 0.405988 0.250000 0.741100 1 0 1.000000
barrelside11a
  0 -15.986700 -0.000001 33.859299 -0.911874 -0.060498 0.405988 0.250000 0.704100 1 0 1.000000
  0 -14.037400 -5.814500 35.639702 -0.865597 -0.293099 0.405999 0.312500 0.741100 1 0 1.000000
  0 -15.194000 -0.000001 35.639702 -0.911874 0.060498 0.405988 0.250000 0.741100 1 0 1.000000
barrelside11a
  0 -15.986700 -0.000001 33.859299 -0.911874 -0.060498 0.405988 0.250000 0.704100 1 0 1.000000
  0 -14.769800 -6.117900 33.859299 -0.801297 -0.361499 0.476698 0.312500 0.704100 1 0 1.000000
  0 -14.037400 -5.814500 35.639702 -0.865597 -0.293099 0.405999 0.312500 0.741100 1 0 1.000000
barrelside11a
  0 -14.769800 -6.117900 33.859299 -0.801297 -0.361499 0.476698 0.312500 0.704100 1 0 1.000000
  0 -10.743800 -10.743800 35.639702 -0.647819 -0.525615 0.551416 0.375000 0.741100 1 0 1.000000
  0 -14.037400 -5.814500 35.639702 -0.865597 -0.293099 0.405999 0.312500 0.741100 1 0 1.000000
barrelside11a
  0 -14.769800 -6.117900 33.859299 -0.801297 -0.361499 0.476698 0.312500 0.704100 1 0 1.000000
  0 -11.304299 -11.304301 34.639599 -0.544474 -0.605571 0.580372 0.375000 0.720300 1 0 1.000000
  0 -10.743800 -10.743800 35.639702 -0.647819 -0.525615 0.551416 0.375000 0.741100 1 0 1.000000
barrelside11a
  0 -11.304299 -11.304301 34.639599 -0.544474 -0.605571 0.580372 0.375000 0.720300 1 0 1.000000
  0 -5.814499 -14.037400 35.639702 -0.361185 -0.763769 0.534978 0.437500 0.741100 1 0 1.000000
  0 -10.743800 -10.743800 35.639702 -0.647819 -0.525615 0.551416 0.375000 0.741100 1 0 1.000000
barrelside11a
  0 -11.304299 -11.304301 34.639599 -0.544474 -0.605571 0.580372 0.375000 0.720300 1 0 1.000000
  0 -6.117899 -14.769800 34.230900 -0.269705 -0.829417 0.489210 0.437500 0.711800 1 0 1.000000
  0 -5.814499 -14.037400 35.639702 -0.361185 -0.763769 0.534978 0.437500 0.741100 1 0 1.000000
barrelside11a
  0 -6.117899 -14.769800 34.230900 -0.269705 -0.829417 0.489210 0.437500 0.711800 1 0 1.000000
  0 0.000001 -15.194000 35.639702 -0.057697 -0.870051 0.489573 0.500000 0.741100 1 0 1.000000
  0 -5.814499 -14.037400 35.639702 -0.361185 -0.763769 0.534978 0.437500 0.741100 1 0 1.000000
barrelside11a
  0 -6.117899 -14.769800 34.230900 -0.269705 -0.829417 0.489210 0.437500 0.711800 1 0 1.000000
  0 0.000001 -15.986700 34.230900 0.057697 -0.870051 0.489573 0.500000 0.711800 1 0 1.000000
  0 0.000001 -15.194000 35.639702 -0.057697 -0.870051 0.489573 0.500000 0.741100 1 0 1.000000
barrelside11a
  0 0.000001 -15.986700 34.230900 0.057697 -0.870051 0.489573 0.500000 0.711800 1 0 1.000000
  0 5.814500 -14.037400 35.639702 0.383896 -0.782892 0.489595 0.562500 0.741100 1 0 1.000000
  0 0.000001 -15.194000 35.639702 -0.057697 -0.870051 0.489573 0.500000 0.741100 1 0 1.000000
barrelside11a
  0 0.000001 -15.986700 34.230900 0.057697 -0.870051 0.489573 0.500000 0.711800 1 0 1.000000
  0 6.117900 -14.769800 34.230900 0.573291 -0.657289 0.489192 0.562500 0.711800 1 0 1.000000
  0 5.814500 -14.037400 35.639702 0.383896 -0.782892 0.489595 0.562500 0.741100 1 0 1.000000
barrelside11a
  0 10.951700 -3.020400 29.531099 0.742048 -0.459129 -0.488431 0.707200 0.614300 1 0 1.000000
  0 12.839500 1.451101 28.195801 0.742048 -0.459129 -0.488431 0.767900 0.586600 1 0 1.000000
  0 15.986700 0.000001 34.341301 0.742048 -0.459129 -0.488431 0.750000 0.714100 1 0 1.000000
barrelside11a
  0 -0.000001 15.194000 35.639702 -0.066200 0.997806 0.000000 0.000000 0.741100 1 0 1.000000
  0 -5.814500 14.037400 48.090599 -0.460913 0.887425 0.006000 0.062500 0.999500 1 0 1.000000
  0 -0.000001 15.194000 48.090599 0.066200 0.997806 0.000000 0.000000 0.999500 1 0 1.000000
barrelside11a
  0 -0.000001 15.194000 35.639702 -0.066200 0.997806 0.000000 0.000000 0.741100 1 0 1.000000
  0 -5.814500 14.037400 35.639702 -0.450491 0.892781 0.000000 0.062500 0.741100 1 0 1.000000
  0 -5.814500 14.037400 48.090599 -0.460913 0.887425 0.006000 0.062500 0.999500 1 0 1.000000
barrelside11a
  0 -5.814500 14.037400 35.639702 -0.450491 0.892781 0.000000 0.062500 0.741100 1 0 1.000000
  0 -10.352500 9.907500 35.639702 -0.708385 0.705784 0.007700 0.128500 0.741100 1 0 1.000000
  0 -5.814500 14.037400 48.090599 -0.460913 0.887425 0.006000 0.062500 0.999500 1 0 1.000000
barrelside11a
  0 -10.352500 9.907500 35.639702 -0.708385 0.705784 0.007700 0.128500 0.741100 1 0 1.000000
  0 -14.037400 5.814499 48.090599 -0.839817 0.542811 0.008000 0.187500 0.999500 1 0 1.000000
  0 -5.814500 14.037400 48.090599 -0.460913 0.887425 0.006000 0.062500 0.999500 1 0 1.000000
barrelside11a
  0 -10.352500 9.907500 35.639702 -0.708385 0.705784 0.007700 0.128500 0.741100 1 0 1.000000
  0 -14.037400 5.814499 35.639702 -0.931122 0.364708 0.000000 0.187500 0.741100 1 0 1.000000
  0 -14.037400 5.814499 48.090599 -0.839817 0.542811 0.008000 0.187500 0.999500 1 0 1.000000
barrelside11a
  0 -14.037400 5.814499 35.639702 -0.931122 0.364708 0.000000 0.187500 0.741100 1 0 1.000000
  0 -15.194000 -0.000001 48.090599 -0.997806 0.066200 0.000000 0.250000 0.999500 1 0 1.000000
  0 -14.037400 5.814499 48.090599 -0.839817 0.542811 0.008000 0.187500 0.999500 1 0 1.000000
barrelside11a
  0 -14.037400 5.814499 35.639702 -0.931122 0.364708 0.000000 0.187500 0.741100 1 0 1.000000
  0 -15.194000 -0.000001 35.639702 -0.997806 -0.066200 0.000000 0.250000 0.741100 1 0 1.000000
  0 -15.194000 -0.000001 48.090599 -0.997806 0.066200 0.000000 0.250000 0.999500 1 0 1.000000
barrelside11a
  0 -15.194000 -0.000001 35.639702 -0.997806 -0.066200 0.000000 0.250000 0.741100 1 0 1.000000
  0 -14.037400 -5.814500 48.090599 -0.947183 -0.320694 0.000000 0.312500 0.999500 1 0 1.000000
  0 -15.194000 -0.000001 48.090599 -0.997806 0.066200 0.000000 0.250000 0.999500 1 0 1.000000
barrelside11a
  0 -15.194000 -0.000001 35.639702 -0.997806 -0.066200 0.000000 0.250000 0.741100 1 0 1.000000
  0 -14.037400 -5.814500 35.639702 -0.896517 -0.443009 0.000000 0.312500 0.741100 1 0 1.000000
  0 -14.037400 -5.814500 48.090599 -0.947183 -0.320694 0.000000 0.312500 0.999500 1 0 1.000000
barrelside11a
  0 -14.037400 -5.814500 35.639702 -0.896517 -0.443009 0.000000 0.312500 0.741100 1 0 1.000000
  0 -10.743800 -10.743800 48.090599 -0.752310 -0.658809 0.000000 0.375000 0.999500 1 0 1.000000
  0 -14.037400 -5.814500 48.090599 -0.947183 -0.320694 0.000000 0.312500 0.999500 1 0 1.000000
barrelside11a
  0 -14.037400 -5.814500 35.639702 -0.896517 -0.443009 0.000000 0.312500 0.741100 1 0 1.000000
  0 -10.743800 -10.743800 35.639702 -0.658809 -0.752310 0.000000 0.375000 0.741100 1 0 1.000000
  0 -10.743800 -10.743800 48.090599 -0.752310 -0.658809 0.000000 0.375000 0.999500 1 0 1.000000
barrelside11a
  0 -10.743800 -10.743800 35.639702 -0.658809 -0.752310 0.000000 0.375000 0.741100 1 0 1.000000
  0 -5.814499 -14.037400 48.090599 -0.443009 -0.896517 0.000000 0.437500 0.999500 1 0 1.000000
  0 -10.743800 -10.743800 48.090599 -0.752310 -0.658809 0.000000 0.375000 0.999500 1 0 1.000000
barrelside11a
  0 -10.743800 -10.743800 35.639702 -0.658809 -0.752310 0.000000 0.375000 0.741100 1 0 1.000000
  0 -5.814499 -14.037400 35.639702 -0.320694 -0.947183 0.000000 0.437500 0.741100 1 0 1.000000
  0 -5.814499 -14.037400 48.090599 -0.443009 -0.896517 0.000000 0.437500 0.999500 1 0 1.000000
barrelside11a
  0 -5.814499 -14.037400 35.639702 -0.320694 -0.947183 0.000000 0.437500 0.741100 1 0 1.000000
  0 0.000001 -15.194000 48.090599 -0.066200 -0.997806 0.000000 0.500000 0.999500 1 0 1.000000
  0 -5.814499 -14.037400 48.090599 -0.443009 -0.896517 0.000000 0.437500 0.999500 1 0 1.000000
barrelside11a
  0 -5.814499 -14.037400 35.639702 -0.320694 -0.947183 0.000000 0.437500 0.741100 1 0 1.000000
  0 0.000001 -15.194000 35.639702 0.066200 -0.997806 0.000000 0.500000 0.741100 1 0 1.000000
  0 0.000001 -15.194000 48.090599 -0.066200 -0.997806 0.000000 0.500000 0.999500 1 0 1.000000
barrelside11a
  0 0.000001 -15.194000 35.639702 0.066200 -0.997806 0.000000 0.500000 0.741100 1 0 1.000000
  0 5.814500 -14.037400 48.090599 0.320694 -0.947183 0.000000 0.562500 0.999500 1 0 1.000000
  0 0.000001 -15.194000 48.090599 -0.066200 -0.997806 0.000000 0.500000 0.999500 1 0 1.000000
barrelside11a
  0 0.000001 -15.194000 35.639702 0.066200 -0.997806 0.000000 0.500000 0.741100 1 0 1.000000
  0 5.814500 -14.037400 35.639702 0.550993 -0.832189 -0.062199 0.562500 0.741100 1 0 1.000000
  0 5.814500 -14.037400 48.090599 0.320694 -0.947183 0.000000 0.562500 0.999500 1 0 1.000000
barrelside11a
  0 5.814500 -14.037400 35.639702 0.550993 -0.832189 -0.062199 0.562500 0.741100 1 0 1.000000
  0 10.743800 -10.743800 48.090599 0.786099 -0.605799 -0.122700 0.625000 0.999500 1 0 1.000000
  0 5.814500 -14.037400 48.090599 0.320694 -0.947183 0.000000 0.562500 0.999500 1 0 1.000000
barrelside11a
  0 5.814500 -14.037400 35.639702 0.550993 -0.832189 -0.062199 0.562500 0.741100 1 0 1.000000
  0 8.663800 -9.831400 35.639702 0.830231 -0.544720 -0.118304 0.615000 0.741100 1 0 1.000000
  0 10.743800 -10.743800 48.090599 0.786099 -0.605799 -0.122700 0.625000 0.999500 1 0 1.000000
barrelside11a
  0 8.663800 -9.831400 35.639702 0.830231 -0.544720 -0.118304 0.615000 0.741100 1 0 1.000000
  0 13.112200 -4.978300 48.090599 0.869200 -0.489900 -0.067000 0.692200 0.999500 1 0 1.000000
  0 10.743800 -10.743800 48.090599 0.786099 -0.605799 -0.122700 0.625000 0.999500 1 0 1.000000
barrelside11a
  0 8.663800 -9.831400 35.639702 0.830231 -0.544720 -0.118304 0.615000 0.741100 1 0 1.000000
  0 12.433900 -5.814499 35.639702 0.862509 -0.506005 -0.006100 0.680400 0.741100 1 0 1.000000
  0 13.112200 -4.978300 48.090599 0.869200 -0.489900 -0.067000 0.692200 0.999500 1 0 1.000000
barrelside11a
  0 12.433900 -5.814499 35.639702 0.862509 -0.506005 -0.006100 0.680400 0.741100 1 0 1.000000
  0 15.194000 0.000001 48.090599 0.976468 -0.215493 -0.008500 0.750000 0.999500 1 0 1.000000
  0 13.112200 -4.978300 48.090599 0.869200 -0.489900 -0.067000 0.692200 0.999500 1 0 1.000000
barrelside11a
  0 12.433900 -5.814499 35.639702 0.862509 -0.506005 -0.006100 0.680400 0.741100 1 0 1.000000
  0 15.194000 0.000001 35.639702 0.999909 -0.013500 0.000000 0.750000 0.741100 1 0 1.000000
  0 15.194000 0.000001 48.090599 0.976468 -0.215493 -0.008500 0.750000 0.999500 1 0 1.000000
barrelside11a
  0 15.194000 0.000001 35.639702 0.999909 -0.013500 0.000000 0.750000 0.741100 1 0 1.000000
  0 14.037400 5.814500 48.090599 0.947183 0.320694 0.000000 0.812500 0.999500 1 0 1.000000
  0 15.194000 0.000001 48.090599 0.976468 -0.215493 -0.008500 0.750000 0.999500 1 0 1.000000
barrelside11a
  0 15.194000 0.000001 35.639702 0.999909 -0.013500 0.000000 0.750000 0.741100 1 0 1.000000
  0 14.037400 5.814500 35.639702 0.896517 0.443009 0.000000 0.812500 0.741100 1 0 1.000000
  0 14.037400 5.814500 48.090599 0.947183 0.320694 0.000000 0.812500 0.999500 1 0 1.000000
barrelside11a
  0 14.037400 5.814500 35.639702 0.896517 0.443009 0.000000 0.812500 0.741100 1 0 1.000000
  0 10.743800 10.743800 48.090599 0.752310 0.658809 0.000000 0.875000 0.999500 1 0 1.000000
  0 14.037400 5.814500 48.090599 0.947183 0.320694 0.000000 0.812500 0.999500 1 0 1.000000
barrelside11a
  0 14.037400 5.814500 35.639702 0.896517 0.443009 0.000000 0.812500 0.741100 1 0 1.000000
  0 10.743800 10.743800 35.639702 0.658809 0.752310 0.000000 0.875000 0.741100 1 0 1.000000
  0 10.743800 10.743800 48.090599 0.752310 0.658809 0.000000 0.875000 0.999500 1 0 1.000000
barrelside11a
  0 10.743800 10.743800 35.639702 0.658809 0.752310 0.000000 0.875000 0.741100 1 0 1.000000
  0 5.814499 14.037400 48.090599 0.443009 0.896517 0.000000 0.937500 0.999500 1 0 1.000000
  0 10.743800 10.743800 48.090599 0.752310 0.658809 0.000000 0.875000 0.999500 1 0 1.000000
barrelside11a
  0 10.743800 10.743800 35.639702 0.658809 0.752310 0.000000 0.875000 0.741100 1 0 1.000000
  0 5.814499 14.037400 35.639702 0.320694 0.947183 0.000000 0.937500 0.741100 1 0 1.000000
  0 5.814499 14.037400 48.090599 0.443009 0.896517 0.000000 0.937500 0.999500 1 0 1.000000
barrelside11a
  0 5.814499 14.037400 35.639702 0.320694 0.947183 0.000000 0.937500 0.741100 1 0 1.000000
  0 -0.000001 15.194000 48.090599 0.066200 0.997806 0.000000 1.000000 0.999500 1 0 1.000000
  0 5.814499 14.037400 48.090599 0.443009 0.896517 0.000000 0.937500 0.999500 1 0 1.000000
barrelside11a
  0 5.814499 14.037400 35.639702 0.320694 0.947183 0.000000 0.937500 0.741100 1 0 1.000000
  0 -0.000001 15.194000 35.639702 -0.066200 0.997806 0.000000 1.000000 0.741100 1 0 1.000000
  0 -0.000001 15.194000 48.090599 0.066200 0.997806 0.000000 1.000000 0.999500 1 0 1.000000
barrelside11a
  0 13.936300 0.000001 8.318000 0.950135 -0.201007 0.238409 0.750000 0.174000 1 0 1.000000
  0 14.037400 5.814500 12.818300 0.887477 0.066098 -0.456088 0.812500 0.267400 1 0 1.000000
  0 12.251000 0.000001 15.034500 0.931766 -0.337388 -0.134095 0.750000 0.313400 1 0 1.000000
barrelside11a
  0 12.251000 0.000001 15.034500 0.931766 -0.337388 -0.134095 0.750000 0.313400 1 0 1.000000
  0 14.037400 5.814500 12.818300 0.887477 0.066098 -0.456088 0.812500 0.267400 1 0 1.000000
  0 14.769800 6.117900 13.712100 0.773587 -0.000700 -0.633689 0.812500 0.286000 1 0 1.000000
barrelside11a
  0 14.037400 5.814500 12.818300 0.887477 0.066098 -0.456088 0.812500 0.267400 1 0 1.000000
  0 11.304299 11.304301 13.712100 0.570285 0.495887 -0.654883 0.875000 0.286000 1 0 1.000000
  0 14.769800 6.117900 13.712100 0.773587 -0.000700 -0.633689 0.812500 0.286000 1 0 1.000000
barrelside11a
  0 14.037400 5.814500 12.818300 0.887477 0.066098 -0.456088 0.812500 0.267400 1 0 1.000000
  0 10.204400 9.863800 11.624100 0.561205 0.586305 -0.584205 0.872300 0.242600 1 0 1.000000
  0 11.304299 11.304301 13.712100 0.570285 0.495887 -0.654883 0.875000 0.286000 1 0 1.000000
barrelside11a
  0 10.204400 9.863800 11.624100 0.561205 0.586305 -0.584205 0.872300 0.242600 1 0 1.000000
  0 6.117899 14.769800 13.712100 0.345707 0.774116 -0.530311 0.937500 0.286000 1 0 1.000000
  0 11.304299 11.304301 13.712100 0.570285 0.495887 -0.654883 0.875000 0.286000 1 0 1.000000
barrelside11a
  0 10.204400 9.863800 11.624100 0.561205 0.586305 -0.584205 0.872300 0.242600 1 0 1.000000
  0 5.814499 14.037400 12.164200 0.187403 0.867116 -0.461508 0.937500 0.253900 1 0 1.000000
  0 6.117899 14.769800 13.712100 0.345707 0.774116 -0.530311 0.937500 0.286000 1 0 1.000000
barrelside11a
  0 5.814499 14.037400 12.164200 0.187403 0.867116 -0.461508 0.937500 0.253900 1 0 1.000000
  0 -0.000001 14.613000 13.712100 -0.011200 0.895309 -0.445305 1.000000 0.286000 1 0 1.000000
  0 6.117899 14.769800 13.712100 0.345707 0.774116 -0.530311 0.937500 0.286000 1 0 1.000000
barrelside11a
  0 5.814499 14.037400 12.164200 0.187403 0.867116 -0.461508 0.937500 0.253900 1 0 1.000000
  0 -0.000001 13.820300 12.164200 0.007800 0.895636 -0.444718 1.000000 0.253900 1 0 1.000000
  0 -0.000001 14.613000 13.712100 -0.011200 0.895309 -0.445305 1.000000 0.286000 1 0 1.000000
barrelside11a
  0 10.951700 -3.020400 29.531099 0.746732 -0.297413 -0.594926 0.707200 0.614300 1 0 1.000000
  0 15.986700 0.000001 34.341301 0.746732 -0.297413 -0.594926 0.750000 0.714100 1 0 1.000000
  0 13.166300 -6.117899 33.859299 0.746732 -0.297413 -0.594926 0.680800 0.704100 1 0 1.000000
barrelside11a
  0 9.500001 -11.134400 9.394500 0.906753 -0.346082 0.240887 0.612400 0.196400 1 0 1.000000
  0 14.037400 -5.814499 -0.042600 0.920228 -0.316010 0.230907 0.687500 0.000500 1 0 1.000000
  0 12.251000 0.000001 15.034500 0.920228 -0.316010 0.230907 0.750000 0.313400 1 0 1.000000
barrelside11a
  0 14.037400 -5.814499 -0.042600 0.920228 -0.316010 0.230907 0.687500 0.000500 1 0 1.000000
  0 13.936300 0.000001 8.318000 0.920228 -0.316010 0.230907 0.750000 0.174000 1 0 1.000000
  0 12.251000 0.000001 15.034500 0.920228 -0.316010 0.230907 0.750000 0.313400 1 0 1.000000
barrelside11a
  0 12.251000 0.000001 15.034500 0.952241 -0.298713 -0.063303 0.750000 0.313400 1 0 1.000000
  0 14.037400 5.814500 14.472700 0.952241 -0.298713 -0.063303 0.812500 0.301800 1 0 1.000000
  0 13.294100 2.229501 20.204599 0.952241 -0.298713 -0.063303 0.776400 0.420700 1 0 1.000000
barrelside11a
  0 9.430000 -9.628300 30.311501 0.779218 -0.247506 -0.575813 0.623300 0.630500 1 0 1.000000
  0 10.951700 -3.020400 29.531099 0.779218 -0.247506 -0.575813 0.707200 0.614300 1 0 1.000000
  0 13.166300 -6.117899 33.859299 0.779218 -0.247506 -0.575813 0.680800 0.704100 1 0 1.000000
barrelside11a
  0 12.251000 0.000001 15.034500 0.742595 -0.165399 0.648996 0.750000 0.313400 1 0 1.000000
  0 14.769800 6.117900 13.712100 0.742595 -0.165399 0.648996 0.812500 0.286000 1 0 1.000000
  0 14.037400 5.814500 14.472700 0.742595 -0.165399 0.648996 0.812500 0.301800 1 0 1.000000
barrelside11a
  0 9.430000 -9.628300 30.311501 0.727698 -0.679398 -0.094200 0.623300 0.630500 1 0 1.000000
  0 13.166300 -6.117899 33.859299 0.727698 -0.679398 -0.094200 0.680800 0.704100 1 0 1.000000
  0 9.224400 -10.392000 34.230900 0.727698 -0.679398 -0.094200 0.615500 0.711800 1 0 1.000000
barrelside11a
  0 6.117900 -14.769800 13.351800 0.844701 -0.313800 0.433601 0.562500 0.278500 1 0 1.000000
  0 9.500001 -11.134400 9.394500 0.844701 -0.313800 0.433601 0.612400 0.196400 1 0 1.000000
  0 5.814500 -14.037400 14.472700 0.844701 -0.313800 0.433601 0.562500 0.301800 1 0 1.000000
barrelside11a
  0 6.117900 -14.769800 34.230900 0.813562 -0.577273 -0.069797 0.562500 0.711800 1 0 1.000000
  0 9.430000 -9.628300 30.311501 0.813562 -0.577273 -0.069797 0.623300 0.630500 1 0 1.000000
  0 9.224400 -10.392000 34.230900 0.813562 -0.577273 -0.069797 0.615500 0.711800 1 0 1.000000
barrelside11a
  0 13.294100 2.229501 20.204599 0.956160 -0.291688 0.025999 0.776400 0.420700 1 0 1.000000
  0 14.037400 5.814500 33.105202 0.956160 -0.291688 0.025999 0.812500 0.688500 1 0 1.000000
  0 12.839500 1.451101 28.195801 0.956160 -0.291688 0.025999 0.767900 0.586600 1 0 1.000000
barrelside11a
  0 5.459301 -14.371300 28.195801 0.787604 -0.603203 -0.125801 0.557800 0.586600 1 0 1.000000
  0 9.430000 -9.628300 30.311501 0.787604 -0.603203 -0.125801 0.623300 0.630500 1 0 1.000000
  0 6.117900 -14.769800 34.230900 0.787604 -0.603203 -0.125801 0.562500 0.711800 1 0 1.000000
barrelside11a
  0 13.294100 2.229501 20.204599 0.979180 -0.202996 0.000000 0.776400 0.420700 1 0 1.000000
  0 14.037400 5.814500 14.472700 0.979180 -0.202996 0.000000 0.812500 0.301800 1 0 1.000000
  0 14.037400 5.814500 33.105202 0.979180 -0.202996 0.000000 0.812500 0.688500 1 0 1.000000
barrelside11a
  0 12.839500 1.451101 28.195801 0.741286 0.401593 -0.537790 0.767900 0.586600 1 0 1.000000
  0 14.037400 5.814500 33.105202 0.741286 0.401593 -0.537790 0.812500 0.688500 1 0 1.000000
  0 14.769800 6.117900 34.341301 0.741286 0.401593 -0.537790 0.812500 0.714100 1 0 1.000000
barrelside11a
  0 5.814500 -14.037400 14.472700 0.835484 -0.398193 0.378693 0.562500 0.301800 1 0 1.000000
  0 9.500001 -11.134400 9.394500 0.835484 -0.398193 0.378693 0.612400 0.196400 1 0 1.000000
  0 12.251000 0.000001 15.034500 0.835484 -0.398193 0.378693 0.750000 0.313400 1 0 1.000000
barrelside11a
  0 12.839500 1.451101 28.195801 0.892294 0.177499 -0.415097 0.767900 0.586600 1 0 1.000000
  0 14.769800 6.117900 34.341301 0.892294 0.177499 -0.415097 0.812500 0.714100 1 0 1.000000
  0 15.986700 0.000001 34.341301 0.892294 0.177499 -0.415097 0.750000 0.714100 1 0 1.000000
barrelside11a
  0 5.459301 -14.371300 28.195801 0.793796 -0.537697 -0.284199 0.557800 0.586600 1 0 1.000000
  0 10.404500 -3.605000 21.637600 0.793796 -0.537697 -0.284199 0.696900 0.450500 1 0 1.000000
  0 9.430000 -9.628300 30.311501 0.793796 -0.537697 -0.284199 0.623300 0.630500 1 0 1.000000
barrelside11a
  0 10.404500 -3.605000 21.637600 0.917010 -0.397404 -0.034100 0.696900 0.450500 1 0 1.000000
  0 12.839500 1.451101 28.195801 0.917010 -0.397404 -0.034100 0.767900 0.586600 1 0 1.000000
  0 10.951700 -3.020400 29.531099 0.917010 -0.397404 -0.034100 0.707200 0.614300 1 0 1.000000
barrelside11a
  0 9.430000 -9.628300 30.311501 0.971930 -0.229807 -0.050402 0.623300 0.630500 1 0 1.000000
  0 10.404500 -3.605000 21.637600 0.971930 -0.229807 -0.050402 0.696900 0.450500 1 0 1.000000
  0 10.951700 -3.020400 29.531099 0.971930 -0.229807 -0.050402 0.707200 0.614300 1 0 1.000000
barreltop11a
  0 -0.000001 15.194000 48.090599 0.000000 0.000000 1.000000 0.500000 0.999500 1 0 1.000000
  0 10.743800 10.743800 48.090599 0.000000 0.000000 1.000000 0.853200 0.853200 1 0 1.000000
  0 5.814499 14.037400 48.090599 0.000000 0.000000 1.000000 0.691200 0.961500 1 0 1.000000
barreltop11a
  0 -0.000001 15.194000 48.090599 0.000000 0.000000 1.000000 0.500000 0.999500 1 0 1.000000
  0 14.037400 5.814500 48.090599 0.000000 0.000000 1.000000 0.961500 0.691200 1 0 1.000000
  0 10.743800 10.743800 48.090599 0.000000 0.000000 1.000000 0.853200 0.853200 1 0 1.000000
barreltop11a
  0 -0.000001 15.194000 48.090599 0.000000 0.000000 1.000000 0.500000 0.999500 1 0 1.000000
  0 15.194000 0.000001 48.090599 0.000000 0.000000 1.000000 0.999500 0.500000 1 0 1.000000
  0 14.037400 5.814500 48.090599 0.000000 0.000000 1.000000 0.961500 0.691200 1 0 1.000000
barreltop11a
  0 -0.000001 15.194000 48.090599 0.000000 0.000000 1.000000 0.500000 0.999500 1 0 1.000000
  0 13.112200 -4.978300 48.090599 0.000000 0.000000 1.000000 0.931100 0.336300 1 0 1.000000
  0 15.194000 0.000001 48.090599 0.000000 0.000000 1.000000 0.999500 0.500000 1 0 1.000000
barreltop11a
  0 -0.000001 15.194000 48.090599 0.000000 0.000000 1.000000 0.500000 0.999500 1 0 1.000000
  0 10.743800 -10.743800 48.090599 0.000000 0.000000 1.000000 0.853200 0.146800 1 0 1.000000
  0 13.112200 -4.978300 48.090599 0.000000 0.000000 1.000000 0.931100 0.336300 1 0 1.000000
barreltop11a
  0 -0.000001 15.194000 48.090599 0.000000 0.000000 1.000000 0.500000 0.999500 1 0 1.000000
  0 5.814500 -14.037400 48.090599 0.000000 0.000000 1.000000 0.691200 0.038500 1 0 1.000000
  0 10.743800 -10.743800 48.090599 0.000000 0.000000 1.000000 0.853200 0.146800 1 0 1.000000
barreltop11a
  0 -0.000001 15.194000 48.090599 0.000000 0.000000 1.000000 0.500000 0.999500 1 0 1.000000
  0 0.000001 -15.194000 48.090599 0.000000 0.000000 1.000000 0.500000 0.000500 1 0 1.000000
  0 5.814500 -14.037400 48.090599 0.000000 0.000000 1.000000 0.691200 0.038500 1 0 1.000000
barreltop11a
  0 -0.000001 15.194000 48.090599 0.000000 0.000000 1.000000 0.500000 0.999500 1 0 1.000000
  0 -5.814499 -14.037400 48.090599 0.000000 0.000000 1.000000 0.308800 0.038500 1 0 1.000000
  0 0.000001 -15.194000 48.090599 0.000000 0.000000 1.000000 0.500000 0.000500 1 0 1.000000
barreltop11a
  0 -0.000001 15.194000 48.090599 0.000000 0.000000 1.000000 0.500000 0.999500 1 0 1.000000
  0 -10.743800 -10.743800 48.090599 0.000000 0.000000 1.000000 0.146800 0.146800 1 0 1.000000
  0 -5.814499 -14.037400 48.090599 0.000000 0.000000 1.000000 0.308800 0.038500 1 0 1.000000
barreltop11a
  0 -0.000001 15.194000 48.090599 0.000000 0.000000 1.000000 0.500000 0.999500 1 0 1.000000
  0 -14.037400 -5.814500 48.090599 0.000000 0.000000 1.000000 0.038500 0.308800 1 0 1.000000
  0 -10.743800 -10.743800 48.090599 0.000000 0.000000 1.000000 0.146800 0.146800 1 0 1.000000
barreltop11a
  0 -0.000001 15.194000 48.090599 0.000000 0.000000 1.000000 0.500000 0.999500 1 0 1.000000
  0 -15.194000 -0.000001 48.090599 0.000000 0.000000 1.000000 0.000500 0.500000 1 0 1.000000
  0 -14.037400 -5.814500 48.090599 0.000000 0.000000 1.000000 0.038500 0.308800 1 0 1.000000
barreltop11a
  0 -0.000001 15.194000 48.090599 0.000000 0.000000 1.000000 0.500000 0.999500 1 0 1.000000
  0 -14.037400 5.814499 48.090599 0.000000 0.000000 1.000000 0.038500 0.691200 1 0 1.000000
  0 -15.194000 -0.000001 48.090599 0.000000 0.000000 1.000000 0.000500 0.500000 1 0 1.000000
barreltop11a
  0 -0.000001 15.194000 48.090599 0.000000 0.000000 1.000000 0.500000 0.999500 1 0 1.000000
  0 -5.814500 14.037400 48.090599 0.000000 0.000000 1.000000 0.308800 0.961500 1 0 1.000000
  0 -14.037400 5.814499 48.090599 0.000000 0.000000 1.000000 0.038500 0.691200 1 0 1.000000
end
