// Created by Crowbar 0.68
version 1
nodes
  0 "ValveBiped.Bip01_Pelvis" -1
  1 "ValveBiped.Bip01_L_Thigh" 0
  2 "ValveBiped.Bip01_L_Calf" 1
  3 "ValveBiped.Bip01_L_Foot" 2
  4 "ValveBiped.Bip01_L_Toe0" 3
  5 "ValveBiped.Bip01_R_Thigh" 0
  6 "ValveBiped.Bip01_R_Calf" 5
  7 "ValveBiped.Bip01_R_Foot" 6
  8 "ValveBiped.Bip01_R_Toe0" 7
  9 "ValveBiped.Bip01_Spine" 0
  10 "ValveBiped.Bip01_Spine1" 9
  11 "ValveBiped.Bip01_Spine2" 10
  12 "ValveBiped.Bip01_Spine4" 11
  13 "ValveBiped.Bip01_Neck1" 12
  14 "ValveBiped.Bip01_Head1" 13
  15 "ValveBiped.Bip01_L_Clavicle" 12
  16 "ValveBiped.Bip01_L_UpperArm" 15
  17 "ValveBiped.Bip01_L_Forearm" 16
  18 "ValveBiped.Bip01_L_Hand" 17
  19 "ValveBiped.Bip01_L_Finger2" 18
  20 "ValveBiped.Bip01_L_Finger21" 19
  21 "ValveBiped.Bip01_L_Finger22" 20
  22 "ValveBiped.Bip01_L_Finger1" 18
  23 "ValveBiped.Bip01_L_Finger11" 22
  24 "ValveBiped.Bip01_L_Finger12" 23
  25 "ValveBiped.Bip01_L_Finger0" 18
  26 "ValveBiped.Bip01_L_Finger01" 25
  27 "ValveBiped.Bip01_L_Finger02" 26
  28 "ValveBiped.Bip01_R_Clavicle" 12
  29 "ValveBiped.Bip01_R_UpperArm" 28
  30 "ValveBiped.Bip01_R_Forearm" 29
  31 "ValveBiped.Bip01_R_Hand" 30
  32 "ValveBiped.Bip01_R_Finger2" 31
  33 "ValveBiped.Bip01_R_Finger21" 32
  34 "ValveBiped.Bip01_R_Finger22" 33
  35 "ValveBiped.Bip01_R_Finger1" 31
  36 "ValveBiped.Bip01_R_Finger11" 35
  37 "ValveBiped.Bip01_R_Finger12" 36
  38 "ValveBiped.Bip01_R_Finger0" 31
  39 "ValveBiped.Bip01_R_Finger01" 38
  40 "ValveBiped.Bip01_R_Finger02" 39
  41 "ValveBiped.Cod" 0
end
skeleton
  time 0
    0 -0.736746 0.253940 34.686854 1.552191 -0.056222 -0.133808
    1 3.890452 -0.000004 -0.000003 -1.468676 -0.763843 -1.762418
    2 17.848177 0.000000 0.000000 0.000000 0.000000 1.364421
    3 15.638507 0.000000 0.000000 0.284564 0.089209 -1.100145
    4 7.109929 0.000000 0.000000 -0.007119 -0.003131 -0.631738
    5 -3.890452 0.000004 0.000007 -1.221462 -0.289960 -1.718015
    6 17.848173 0.000000 0.000000 0.000000 0.000000 0.977734
    7 15.638511 0.000000 0.000000 0.076968 0.151821 -1.588857
    8 7.109930 0.000000 0.000000 -0.081154 -0.003131 -0.631749
    9 0.175792 3.341221 -2.981901 1.703036 0.067745 1.558147
    10 4.018331 0.000000 0.000000 -0.197848 0.012033 0.089885
    11 3.518565 0.000000 0.000000 -0.009603 0.029602 0.100159
    12 8.942642 0.000000 0.000000 0.042132 -0.008018 0.165423
    13 3.306641 -0.000002 0.000001 3.138800 0.000567 0.400476
    14 3.593712 -0.000001 0.000000 -0.149012 -0.073388 0.467188
    15 2.033346 1.000768 1.101697 1.848180 -1.411864 2.688434
    16 6.809416 0.000001 0.000000 -1.367981 -0.146195 -0.848051
    17 12.391796 0.000000 0.000001 0.000000 0.000000 -1.738728
    18 9.337076 0.000000 -0.000031 -0.744651 -0.044731 0.128141
    19 4.454020 -0.070210 0.572073 0.096293 -0.007832 -0.804082
    20 1.426597 -0.000001 0.000000 0.023861 -0.079623 -1.125947
    21 1.322468 -0.000002 0.000000 0.009312 -0.033625 -0.575065
    22 4.477066 -0.028570 1.582474 0.476656 -0.055423 -1.136099
    23 1.344418 0.000000 0.000000 0.023466 -0.208305 -0.755723
    24 1.224671 0.000000 0.000000 0.026043 -0.124620 -0.538676
    25 2.630323 -0.345015 1.907214 -0.354022 -0.915164 -1.788195
    26 1.059292 0.000000 0.000001 0.000551 0.000004 0.000021
    27 0.781203 0.000000 0.000000 -0.000467 0.006940 -0.135953
    28 2.033353 1.000771 -1.101647 -2.491848 1.227541 2.138419
    29 6.809417 0.000001 0.000000 0.944476 0.523740 -0.645514
    30 12.391794 0.000000 0.000001 0.000000 0.000000 -1.773945
    31 9.337102 0.000000 0.000003 -1.026650 -0.187758 0.124667
    32 4.453986 -0.073766 -0.571672 -0.386562 0.126208 -1.146676
    33 1.426599 0.000002 0.000000 -0.051390 0.078806 -1.521754
    34 1.322465 -0.000001 0.000000 -0.034695 0.051519 -1.200268
    35 4.477036 -0.043465 -1.581290 -0.083016 0.164909 0.067468
    36 1.344414 0.000000 0.000000 0.024521 0.136363 -0.478036
    37 1.224670 0.000001 0.000000 -0.166394 0.224946 -1.318175
    38 2.630291 -0.359835 -1.904289 1.070466 0.381356 -0.978487
    39 1.059293 0.000000 0.000000 0.002193 0.017488 0.317162
    40 0.781204 0.000000 0.000000 0.006472 0.026012 0.488050
    41 -0.044717 2.528787 4.661499 -0.036342 0.044283 -0.117516
  time 1
    0 2.633039 3.685439 35.005904 1.563575 -0.042917 -0.109881
    1 3.890452 -0.000004 -0.000003 -1.445962 -0.663397 -1.653550
    2 17.848177 0.000000 0.000000 0.000000 0.000000 1.423452
    3 15.638507 0.000000 0.000000 0.305422 0.068387 -1.040944
    4 7.109929 0.000000 0.000000 -0.007119 -0.003131 -0.631738
    5 -3.890452 0.000004 0.000007 -1.215360 -0.418721 -1.798803
    6 17.848173 0.000000 0.000000 0.000000 0.000000 0.956450
    7 15.638511 0.000000 0.000000 0.137931 0.149955 -1.417627
    8 7.109930 0.000000 0.000000 -0.081154 -0.003131 -0.631749
    9 0.132822 3.345128 -2.981901 1.703414 0.067745 1.569082
    10 4.018331 0.000000 0.000000 -0.219886 0.013926 0.083763
    11 3.518565 0.000000 0.000000 -0.032689 0.033173 0.094128
    12 8.942642 0.000000 0.000000 0.039745 -0.003068 0.167252
    13 3.306641 -0.000002 0.000001 3.138800 0.000567 0.400476
    14 3.593712 -0.000001 0.000000 -0.121294 -0.062938 0.463999
    15 2.033346 1.000768 1.101697 1.848180 -1.411864 2.688434
    16 6.809416 0.000001 0.000000 -1.449172 -0.251427 -0.922929
    17 12.391796 0.000000 0.000001 0.000000 0.000000 -1.614858
    18 9.337076 0.000000 -0.000031 -0.683982 0.118852 0.085388
    19 4.454020 -0.070210 0.572073 0.096293 -0.007832 -0.804082
    20 1.426597 -0.000001 0.000000 0.023861 -0.079623 -1.125947
    21 1.322468 -0.000002 0.000000 0.009312 -0.033625 -0.575065
    22 4.477066 -0.028570 1.582474 0.476656 -0.055423 -1.136099
    23 1.344418 0.000000 0.000000 0.023466 -0.208305 -0.755723
    24 1.224671 0.000000 0.000000 0.026043 -0.124620 -0.538676
    25 2.630323 -0.345015 1.907214 -0.354022 -0.915164 -1.788195
    26 1.059292 0.000000 0.000001 0.000551 0.000004 0.000021
    27 0.781203 0.000000 0.000000 -0.000467 0.006940 -0.135953
    28 2.033353 1.000771 -1.101647 -2.422826 1.244582 2.206190
    29 6.809417 0.000001 0.000000 0.966245 0.542135 -0.656956
    30 12.391794 0.000000 0.000001 0.000000 0.000000 -1.734585
    31 9.337102 0.000000 0.000003 -1.017369 -0.175499 0.132697
    32 4.453986 -0.073766 -0.571672 -0.386562 0.126208 -1.146676
    33 1.426599 0.000002 0.000000 -0.051390 0.078806 -1.521754
    34 1.322465 -0.000001 0.000000 -0.034695 0.051519 -1.200268
    35 4.477036 -0.043465 -1.581290 -0.083016 0.164909 0.067468
    36 1.344414 0.000000 0.000000 0.024521 0.136363 -0.478036
    37 1.224670 0.000001 0.000000 -0.166394 0.224946 -1.318175
    38 2.630291 -0.359835 -1.904289 1.070466 0.381356 -0.978487
    39 1.059293 0.000000 0.000000 0.002193 0.017488 0.317162
    40 0.781204 0.000000 0.000000 0.006472 0.026012 0.488050
    41 -0.044717 2.528787 4.661499 -0.035886 0.062739 -0.088738
  time 2
    0 6.104390 7.005207 35.757216 1.578187 -0.034971 -0.097630
    1 3.890452 -0.000004 -0.000003 -1.432219 -0.558598 -1.563849
    2 17.848177 0.000000 0.000000 0.000000 0.000000 1.436253
    3 15.638507 0.000000 0.000000 0.350554 0.067063 -0.948717
    4 7.109929 0.000000 0.000000 -0.007119 -0.003131 -0.631738
    5 -3.890452 0.000004 0.000007 -1.272280 -0.472892 -1.844967
    6 17.848173 0.000000 0.000000 0.000000 0.000000 0.769041
    7 15.638511 0.000000 0.000000 0.235860 0.165200 -1.161020
    8 7.109930 0.000000 0.000000 -0.081154 -0.003131 -0.631749
    9 0.109383 3.345128 -2.981901 1.703791 0.067745 1.575406
    10 4.018331 0.000000 0.000000 -0.237698 0.015053 0.076423
    11 3.518565 0.000000 0.000000 -0.051225 0.036169 0.086998
    12 8.942642 0.000000 0.000000 0.038455 0.002253 0.169363
    13 3.306641 -0.000002 0.000001 3.138800 0.000567 0.400476
    14 3.593712 -0.000001 0.000000 -0.094841 -0.052145 0.455228
    15 2.033346 1.000768 1.101697 1.848180 -1.411864 2.688434
    16 6.809416 0.000001 0.000000 -1.494597 -0.353327 -0.995725
    17 12.391796 0.000000 0.000001 0.000000 0.000000 -1.481842
    18 9.337076 0.000000 -0.000031 -0.622777 0.250441 0.046501
    19 4.454020 -0.070210 0.572073 0.096293 -0.007832 -0.804082
    20 1.426597 -0.000001 0.000000 0.023861 -0.079623 -1.125947
    21 1.322468 -0.000002 0.000000 0.009312 -0.033625 -0.575065
    22 4.477066 -0.028570 1.582474 0.476656 -0.055423 -1.136099
    23 1.344418 0.000000 0.000000 0.023466 -0.208305 -0.755723
    24 1.224671 0.000000 0.000000 0.026043 -0.124620 -0.538676
    25 2.630323 -0.345015 1.907214 -0.354022 -0.915164 -1.788195
    26 1.059292 0.000000 0.000001 0.000551 0.000004 0.000021
    27 0.781203 0.000000 0.000000 -0.000467 0.006940 -0.135953
    28 2.033353 1.000771 -1.101647 -2.351603 1.260531 2.275783
    29 6.809417 0.000001 0.000000 0.984133 0.548749 -0.667451
    30 12.391794 0.000000 0.000001 0.000000 0.000000 -1.699535
    31 9.337102 0.000000 0.000003 -1.009432 -0.165715 0.138569
    32 4.453986 -0.073766 -0.571672 -0.386562 0.126208 -1.146676
    33 1.426599 0.000002 0.000000 -0.051390 0.078806 -1.521754
    34 1.322465 -0.000001 0.000000 -0.034695 0.051519 -1.200268
    35 4.477036 -0.043465 -1.581290 -0.083016 0.164909 0.067468
    36 1.344414 0.000000 0.000000 0.024521 0.136363 -0.478036
    37 1.224670 0.000001 0.000000 -0.166394 0.224946 -1.318175
    38 2.630291 -0.359835 -1.904289 1.070466 0.381356 -0.978487
    39 1.059293 0.000000 0.000000 0.002193 0.017488 0.317162
    40 0.781204 0.000000 0.000000 0.006472 0.026012 0.488050
    41 -0.044717 2.528787 4.661499 -0.034976 0.078273 -0.067175
  time 3
    0 9.806216 10.335133 36.364441 1.595348 -0.032846 -0.100310
    1 3.890452 -0.000004 -0.000003 -1.435750 -0.438753 -1.507882
    2 17.848177 0.000000 0.000000 0.000000 0.000000 1.343354
    3 15.638507 0.000000 0.000000 0.400688 0.064558 -0.814203
    4 7.109929 0.000000 0.000000 -0.007119 -0.003131 -0.631738
    5 -3.890452 0.000004 0.000007 -1.211070 -0.506694 -1.920836
    6 17.848173 0.000000 0.000000 0.000000 0.000000 0.528666
    7 15.638511 0.000000 0.000000 0.201673 0.104537 -0.824288
    8 7.109930 0.000000 0.000000 -0.081154 -0.003131 -0.631749
    9 0.105477 3.345128 -2.981901 1.704276 0.067745 1.577120
    10 4.018331 0.000000 0.000000 -0.248932 0.015520 0.069726
    11 3.518565 0.000000 0.000000 -0.062716 0.038387 0.080470
    12 8.942642 0.000000 0.000000 0.038524 0.007107 0.170735
    13 3.306641 -0.000002 0.000001 3.138800 0.000567 0.400476
    14 3.593712 -0.000001 0.000000 -0.072987 -0.041716 0.444316
    15 2.033346 1.000768 1.101697 1.848180 -1.411864 2.688434
    16 6.809416 0.000001 0.000000 -1.502917 -0.429298 -1.056972
    17 12.391796 0.000000 0.000001 0.000000 0.000000 -1.362782
    18 9.337076 0.000000 -0.000031 -0.576740 0.331789 0.010902
    19 4.454020 -0.070210 0.572073 0.096293 -0.007832 -0.804082
    20 1.426597 -0.000001 0.000000 0.023861 -0.079623 -1.125947
    21 1.322468 -0.000002 0.000000 0.009312 -0.033625 -0.575065
    22 4.477066 -0.028570 1.582474 0.476656 -0.055423 -1.136099
    23 1.344418 0.000000 0.000000 0.023466 -0.208305 -0.755723
    24 1.224671 0.000000 0.000000 0.026043 -0.124620 -0.538676
    25 2.630323 -0.345015 1.907214 -0.354022 -0.915164 -1.788195
    26 1.059292 0.000000 0.000001 0.000551 0.000004 0.000021
    27 0.781203 0.000000 0.000000 -0.000467 0.006940 -0.135953
    28 2.033353 1.000771 -1.101647 -2.290910 1.274293 2.334735
    29 6.809417 0.000001 0.000000 0.995113 0.542004 -0.675365
    30 12.391794 0.000000 0.000001 0.000000 0.000000 -1.673894
    31 9.337102 0.000000 0.000003 -1.004312 -0.160728 0.140296
    32 4.453986 -0.073766 -0.571672 -0.386562 0.126208 -1.146676
    33 1.426599 0.000002 0.000000 -0.051390 0.078806 -1.521754
    34 1.322465 -0.000001 0.000000 -0.034695 0.051519 -1.200268
    35 4.477036 -0.043465 -1.581290 -0.083016 0.164909 0.067468
    36 1.344414 0.000000 0.000000 0.024521 0.136363 -0.478036
    37 1.224670 0.000001 0.000000 -0.166394 0.224946 -1.318175
    38 2.630291 -0.359835 -1.904289 1.070466 0.381356 -0.978487
    39 1.059293 0.000000 0.000000 0.002193 0.017488 0.317162
    40 0.781204 0.000000 0.000000 0.006472 0.026012 0.488050
    41 -0.044717 2.528787 4.661499 -0.033414 0.092568 -0.050621
  time 4
    0 13.609608 13.878363 36.776119 1.611575 -0.036126 -0.116102
    1 3.890452 -0.000004 -0.000003 -1.438709 -0.328702 -1.502228
    2 17.848177 0.000000 0.000000 0.000000 0.000000 1.192446
    3 15.638507 0.000000 0.000000 0.439712 0.054206 -0.695218
    4 7.109929 0.000000 0.000000 -0.007119 -0.003131 -0.631738
    5 -3.890452 0.000004 0.000007 -1.143377 -0.527457 -1.985447
    6 17.848173 0.000000 0.000000 0.000000 0.000000 0.339875
    7 15.638511 0.000000 0.000000 0.134503 0.033270 -0.551351
    8 7.109930 0.000000 0.000000 -0.081154 -0.003131 -0.631749
    9 0.117196 3.345128 -2.981901 1.704815 0.067745 1.574933
    10 4.018331 0.000000 0.000000 -0.252255 0.015520 0.065587
    11 3.518565 0.000000 0.000000 -0.065714 0.039765 0.076178
    12 8.942642 0.000000 0.000000 0.039995 0.010822 0.170594
    13 3.306641 -0.000002 0.000001 3.138800 0.000567 0.400476
    14 3.593712 -0.000001 0.000000 -0.057462 -0.032572 0.435545
    15 2.033346 1.000768 1.101697 1.848180 -1.411864 2.688434
    16 6.809416 0.000001 0.000000 -1.467246 -0.418956 -1.091050
    17 12.391796 0.000000 0.000001 0.000000 0.000000 -1.319652
    18 9.337076 0.000000 -0.000031 -0.577722 0.320609 -0.021176
    19 4.454020 -0.070210 0.572073 0.096293 -0.007832 -0.804082
    20 1.426597 -0.000001 0.000000 0.023861 -0.079623 -1.125947
    21 1.322468 -0.000002 0.000000 0.009312 -0.033625 -0.575065
    22 4.477066 -0.028570 1.582474 0.476656 -0.055423 -1.136099
    23 1.344418 0.000000 0.000000 0.023466 -0.208305 -0.755723
    24 1.224671 0.000000 0.000000 0.026043 -0.124620 -0.538676
    25 2.630323 -0.345015 1.907214 -0.354022 -0.915164 -1.788195
    26 1.059292 0.000000 0.000001 0.000551 0.000004 0.000021
    27 0.781203 0.000000 0.000000 -0.000467 0.006940 -0.135953
    28 2.033353 1.000771 -1.101647 -2.255969 1.289068 2.367519
    29 6.809417 0.000001 0.000000 0.975994 0.518440 -0.680354
    30 12.391794 0.000000 0.000001 0.000000 0.000000 -1.666855
    31 9.337102 0.000000 0.000003 -1.005656 -0.167086 0.133302
    32 4.453986 -0.073766 -0.571672 -0.386562 0.126208 -1.146676
    33 1.426599 0.000002 0.000000 -0.051390 0.078806 -1.521754
    34 1.322465 -0.000001 0.000000 -0.034695 0.051519 -1.200268
    35 4.477036 -0.043465 -1.581290 -0.083016 0.164909 0.067468
    36 1.344414 0.000000 0.000000 0.024521 0.136363 -0.478036
    37 1.224670 0.000001 0.000000 -0.166394 0.224946 -1.318175
    38 2.630291 -0.359835 -1.904289 1.070466 0.381356 -0.978487
    39 1.059293 0.000000 0.000000 0.002193 0.017488 0.317162
    40 0.781204 0.000000 0.000000 0.006472 0.026012 0.488050
    41 -0.044717 2.528787 4.661499 -0.031136 0.107530 -0.036553
  time 5
    0 17.510659 17.533325 37.301008 1.561196 -0.019726 -0.262442
    1 3.890452 -0.000004 -0.000003 -1.433173 -0.175170 -1.520724
    2 17.848177 0.000000 0.000000 0.000000 0.000000 1.086746
    3 15.638507 0.000000 0.000000 0.290831 0.126173 -0.784858
    4 7.109929 0.000000 0.000000 -0.007119 -0.003131 -0.631738
    5 -3.890452 0.000004 0.000007 -1.139563 -0.557716 -1.941932
    6 17.848173 0.000000 0.000000 0.000000 0.000000 0.387885
    7 15.638511 0.000000 0.000000 0.022305 -0.109810 -0.525375
    8 7.109930 0.000000 0.000000 -0.081154 -0.003131 -0.631749
    9 0.058601 3.345128 -2.981901 1.700558 0.067802 1.557852
    10 4.018331 0.000000 0.000000 -0.271490 -0.018456 0.054681
    11 3.518565 0.000000 0.000000 -0.082782 0.003799 0.061350
    12 8.942642 0.000000 0.000000 0.032918 0.007047 0.160532
    13 3.306641 -0.000002 0.000001 3.138800 0.000567 0.400476
    14 3.593712 -0.000001 0.000000 0.133444 -0.062424 0.402055
    15 2.033346 1.000768 1.101697 1.848180 -1.411864 2.688434
    16 6.809416 0.000001 0.000000 -1.412736 -0.121198 -0.968367
    17 12.391796 0.000000 0.000001 0.000000 0.000000 -1.626607
    18 9.337076 0.000000 -0.000031 -0.651774 0.185797 0.122025
    19 4.454020 -0.070210 0.572073 0.096293 -0.007832 -0.804082
    20 1.426597 -0.000001 0.000000 0.023861 -0.079623 -1.125947
    21 1.322468 -0.000002 0.000000 0.009312 -0.033625 -0.575065
    22 4.477066 -0.028570 1.582474 0.476656 -0.055423 -1.136099
    23 1.344418 0.000000 0.000000 0.023466 -0.208305 -0.755723
    24 1.224671 0.000000 0.000000 0.026043 -0.124620 -0.538676
    25 2.630323 -0.345015 1.907214 -0.354022 -0.915164 -1.788195
    26 1.059292 0.000000 0.000001 0.000551 0.000004 0.000021
    27 0.781203 0.000000 0.000000 -0.000467 0.006940 -0.135953
    28 2.033353 1.000771 -1.101647 -2.221219 1.324324 2.397426
    29 6.809417 0.000001 0.000000 0.796729 0.469210 -0.840445
    30 12.391794 0.000000 0.000001 0.000000 0.000000 -1.680789
    31 9.337102 0.000000 0.000003 -1.023130 -0.199522 0.110679
    32 4.453986 -0.073766 -0.571672 -0.386562 0.126208 -1.146676
    33 1.426599 0.000002 0.000000 -0.051390 0.078806 -1.521754
    34 1.322465 -0.000001 0.000000 -0.034695 0.051519 -1.200268
    35 4.477036 -0.043465 -1.581290 -0.083016 0.164909 0.067468
    36 1.344414 0.000000 0.000000 0.024521 0.136363 -0.478036
    37 1.224670 0.000001 0.000000 -0.166394 0.224946 -1.318175
    38 2.630291 -0.359835 -1.904289 1.070466 0.381356 -0.978487
    39 1.059293 0.000000 0.000000 0.002193 0.017488 0.317162
    40 0.781204 0.000000 0.000000 0.006472 0.026012 0.488050
    41 -0.044717 2.528787 4.661499 -0.025606 0.129481 -0.021764
  time 6
    0 21.095295 20.995296 37.259840 1.562130 -0.016677 -0.285604
    1 3.890452 -0.000004 -0.000003 -1.409504 -0.156387 -1.558195
    2 17.848177 0.000000 0.000000 0.000000 0.000000 0.961953
    3 15.638507 0.000000 0.000000 0.229715 0.139574 -0.868920
    4 7.109929 0.000000 0.000000 -0.005681 -0.004473 -1.005233
    5 -3.890452 0.000004 0.000007 -1.110293 -0.515058 -1.920457
    6 17.848173 0.000000 0.000000 0.000000 0.000000 0.370013
    7 15.638511 0.000000 0.000000 0.030458 -0.106442 -0.732704
    8 7.109930 0.000000 0.000000 -0.081154 -0.003131 -0.631749
    9 0.050788 3.345128 -2.981901 1.700558 0.067802 1.561634
    10 4.018331 0.000000 0.000000 -0.258923 -0.021117 0.056681
    11 3.518565 0.000000 0.000000 -0.069530 0.001870 0.063797
    12 8.942642 0.000000 0.000000 0.034486 0.009132 0.160919
    13 3.306641 -0.000002 0.000001 3.138800 0.000567 0.400476
    14 3.593712 -0.000001 0.000000 0.122053 -0.067692 0.398152
    15 2.033346 1.000768 1.101697 1.848180 -1.411864 2.688434
    16 6.809416 0.000001 0.000000 -1.358609 -0.031649 -0.918196
    17 12.391796 0.000000 0.000001 0.000000 0.000000 -1.697254
    18 9.337076 0.000000 -0.000031 -0.716012 0.035794 0.085388
    19 4.454020 -0.070210 0.572073 0.096293 -0.007832 -0.804082
    20 1.426597 -0.000001 0.000000 0.023861 -0.079623 -1.125947
    21 1.322468 -0.000002 0.000000 0.009312 -0.033625 -0.575065
    22 4.477066 -0.028570 1.582474 0.476656 -0.055423 -1.136099
    23 1.344418 0.000000 0.000000 0.023466 -0.208305 -0.755723
    24 1.224671 0.000000 0.000000 0.026043 -0.124620 -0.538676
    25 2.630323 -0.345015 1.907214 -0.354022 -0.915164 -1.788195
    26 1.059292 0.000000 0.000001 0.000551 0.000004 0.000021
    27 0.781203 0.000000 0.000000 -0.000467 0.006940 -0.135953
    28 2.033353 1.000771 -1.101647 -2.257979 1.308336 2.362822
    29 6.809417 0.000001 0.000000 0.762940 0.517608 -0.787884
    30 12.391794 0.000000 0.000001 0.000000 0.000000 -1.708729
    31 9.337102 0.000000 0.000003 -1.019737 -0.199713 0.121213
    32 4.453986 -0.073766 -0.571672 -0.386562 0.126208 -1.146676
    33 1.426599 0.000002 0.000000 -0.051390 0.078806 -1.521754
    34 1.322465 -0.000001 0.000000 -0.034695 0.051519 -1.200268
    35 4.477036 -0.043465 -1.581290 -0.083016 0.164909 0.067468
    36 1.344414 0.000000 0.000000 0.024521 0.136363 -0.478036
    37 1.224670 0.000001 0.000000 -0.166394 0.224946 -1.318175
    38 2.630291 -0.359835 -1.904289 1.070466 0.381356 -0.978487
    39 1.059293 0.000000 0.000000 0.002193 0.017488 0.317162
    40 0.781204 0.000000 0.000000 0.006472 0.026012 0.488050
    41 -0.044717 2.528787 4.661499 -0.027753 0.117473 -0.031423
  time 7
    0 24.629147 24.518212 36.765827 1.554909 -0.007715 -0.313264
    1 3.890452 -0.000004 -0.000003 -1.431837 -0.187283 -1.582920
    2 17.848177 0.000000 0.000000 0.000000 0.000000 0.931084
    3 15.638507 0.000000 0.000000 0.153376 0.184598 -1.070034
    4 7.109929 0.000000 0.000000 -0.005813 -0.004389 -0.977307
    5 -3.890452 0.000004 0.000007 -1.025343 -0.539020 -1.925377
    6 17.848173 0.000000 0.000000 0.000000 0.000000 0.596903
    7 15.638511 0.000000 0.000000 -0.018646 -0.034857 -0.877482
    8 7.109930 0.000000 0.000000 -0.081154 -0.003131 -0.631749
    9 0.023443 3.345128 -2.981901 1.700504 0.067802 1.570737
    10 4.018331 0.000000 0.000000 -0.238941 -0.021728 0.061743
    11 3.518565 0.000000 0.000000 -0.048562 0.001606 0.069154
    12 8.942642 0.000000 0.000000 0.037511 0.009899 0.160040
    13 3.306641 -0.000002 0.000001 3.138800 0.000567 0.400476
    14 3.593712 -0.000001 0.000000 0.098259 -0.074887 0.397732
    15 2.033346 1.000768 1.101697 1.848180 -1.411864 2.688434
    16 6.809416 0.000001 0.000000 -1.280095 0.030059 -0.877681
    17 12.391796 0.000000 0.000001 0.000000 0.000000 -1.730055
    18 9.337076 0.000000 -0.000031 -0.768651 -0.130879 0.036808
    19 4.454020 -0.070210 0.572073 0.096293 -0.007832 -0.804082
    20 1.426597 -0.000001 0.000000 0.023861 -0.079623 -1.125947
    21 1.322468 -0.000002 0.000000 0.009312 -0.033625 -0.575065
    22 4.477066 -0.028570 1.582474 0.476656 -0.055423 -1.136099
    23 1.344418 0.000000 0.000000 0.023466 -0.208305 -0.755723
    24 1.224671 0.000000 0.000000 0.026043 -0.124620 -0.538676
    25 2.630323 -0.345015 1.907214 -0.354022 -0.915164 -1.788195
    26 1.059292 0.000000 0.000001 0.000551 0.000004 0.000021
    27 0.781203 0.000000 0.000000 -0.000467 0.006940 -0.135953
    28 2.033353 1.000771 -1.101647 -2.288900 1.291537 2.334256
    29 6.809417 0.000001 0.000000 0.744767 0.565086 -0.720097
    30 12.391794 0.000000 0.000001 0.000000 0.000000 -1.737386
    31 9.337102 0.000000 0.000003 -1.015961 -0.199827 0.133734
    32 4.453986 -0.073766 -0.571672 -0.386562 0.126208 -1.146676
    33 1.426599 0.000002 0.000000 -0.051390 0.078806 -1.521754
    34 1.322465 -0.000001 0.000000 -0.034695 0.051519 -1.200268
    35 4.477036 -0.043465 -1.581290 -0.083016 0.164909 0.067468
    36 1.344414 0.000000 0.000000 0.024521 0.136363 -0.478036
    37 1.224670 0.000001 0.000000 -0.166394 0.224946 -1.318175
    38 2.630291 -0.359835 -1.904289 1.070466 0.381356 -0.978487
    39 1.059293 0.000000 0.000000 0.002193 0.017488 0.317162
    40 0.781204 0.000000 0.000000 0.006472 0.026012 0.488050
    41 -0.044717 2.528787 4.661499 -0.029770 0.103464 -0.037195
  time 8
    0 28.057528 27.959869 36.004223 1.539447 -0.002957 -0.343413
    1 3.890452 -0.000004 -0.000003 -1.506757 -0.255130 -1.612533
    2 17.848177 0.000000 0.000000 0.000000 0.000000 0.935546
    3 15.638507 0.000000 0.000000 0.177145 0.148106 -1.202397
    4 7.109929 0.000000 0.000000 -0.005382 -0.004653 -1.071579
    5 -3.890452 0.000004 0.000007 -0.907310 -0.570312 -1.979866
    6 17.848173 0.000000 0.000000 0.000000 0.000000 1.000724
    7 15.638511 0.000000 0.000000 -0.066360 0.078278 -1.049476
    8 7.109930 0.000000 0.000000 -0.081154 -0.003131 -0.631749
    9 0.007818 3.345128 -2.981901 1.700396 0.067802 1.575702
    10 4.018331 0.000000 0.000000 -0.214100 -0.021141 0.067970
    11 3.518565 0.000000 0.000000 -0.022520 0.002325 0.076036
    12 8.942642 0.000000 0.000000 0.041813 0.009779 0.159741
    13 3.306641 -0.000002 0.000001 3.138800 0.000567 0.400476
    14 3.593712 -0.000001 0.000000 0.063748 -0.081954 0.396221
    15 2.033346 1.000768 1.101697 1.848180 -1.411864 2.688434
    16 6.809416 0.000001 0.000000 -1.199574 0.052311 -0.852784
    17 12.391796 0.000000 0.000001 0.000000 0.000000 -1.732499
    18 9.337076 0.000000 -0.000031 -0.803090 -0.276180 -0.004098
    19 4.454020 -0.070210 0.572073 0.096293 -0.007832 -0.804082
    20 1.426597 -0.000001 0.000000 0.023861 -0.079623 -1.125947
    21 1.322468 -0.000002 0.000000 0.009312 -0.033625 -0.575065
    22 4.477066 -0.028570 1.582474 0.476656 -0.055423 -1.136099
    23 1.344418 0.000000 0.000000 0.023466 -0.208305 -0.755723
    24 1.224671 0.000000 0.000000 0.026043 -0.124620 -0.538676
    25 2.630323 -0.345015 1.907214 -0.354022 -0.915164 -1.788195
    26 1.059292 0.000000 0.000001 0.000551 0.000004 0.000021
    27 0.781203 0.000000 0.000000 -0.000467 0.006940 -0.135953
    28 2.033353 1.000771 -1.101647 -2.319916 1.275589 2.305403
    29 6.809417 0.000001 0.000000 0.748553 0.595088 -0.649041
    30 12.391794 0.000000 0.000001 0.000000 0.000000 -1.763817
    31 9.337102 0.000000 0.000003 -1.012889 -0.200322 0.143318
    32 4.453986 -0.073766 -0.571672 -0.386562 0.126208 -1.146676
    33 1.426599 0.000002 0.000000 -0.051390 0.078806 -1.521754
    34 1.322465 -0.000001 0.000000 -0.034695 0.051519 -1.200268
    35 4.477036 -0.043465 -1.581290 -0.083016 0.164909 0.067468
    36 1.344414 0.000000 0.000000 0.024521 0.136363 -0.478036
    37 1.224670 0.000001 0.000000 -0.166394 0.224946 -1.318175
    38 2.630291 -0.359835 -1.904289 1.070466 0.381356 -0.978487
    39 1.059293 0.000000 0.000000 0.002193 0.017488 0.317162
    40 0.781204 0.000000 0.000000 0.006472 0.026012 0.488050
    41 -0.044717 2.528787 4.661499 -0.031527 0.087772 -0.048056
  time 9
    0 31.368717 31.137434 35.273495 1.519397 -0.005867 -0.370499
    1 3.890452 -0.000004 -0.000003 -1.571082 -0.322977 -1.658725
    2 17.848177 0.000000 0.000000 0.000000 0.000000 0.908115
    3 15.638507 0.000000 0.000000 0.198477 0.131751 -1.335854
    4 7.109929 0.000000 0.000000 -0.006640 -0.003706 -0.774853
    5 -3.890452 0.000004 0.000007 -0.926474 -0.542808 -1.972487
    6 17.848173 0.000000 0.000000 0.000000 0.000000 1.310717
    7 15.638511 0.000000 0.000000 -0.015589 0.165792 -1.085575
    8 7.109930 0.000000 0.000000 -0.081154 -0.003131 -0.631749
    9 0.019537 3.345128 -2.981901 1.700342 0.067802 1.574106
    10 4.018331 0.000000 0.000000 -0.187066 -0.019199 0.073570
    11 3.518565 0.000000 0.000000 0.005682 0.004015 0.082847
    12 8.942642 0.000000 0.000000 0.046781 0.008533 0.160743
    13 3.306641 -0.000002 0.000001 3.138800 0.000567 0.400476
    14 3.593712 -0.000001 0.000000 0.019660 -0.087565 0.392990
    15 2.033346 1.000768 1.101697 1.848180 -1.411864 2.688434
    16 6.809416 0.000001 0.000000 -1.139517 0.032902 -0.839153
    17 12.391796 0.000000 0.000001 0.000000 0.000000 -1.720593
    18 9.337076 0.000000 -0.000031 -0.826109 -0.365156 -0.016676
    19 4.454020 -0.070210 0.572073 0.096293 -0.007832 -0.804082
    20 1.426597 -0.000001 0.000000 0.023861 -0.079623 -1.125947
    21 1.322468 -0.000002 0.000000 0.009312 -0.033625 -0.575065
    22 4.477066 -0.028570 1.582474 0.476656 -0.055423 -1.136099
    23 1.344418 0.000000 0.000000 0.023466 -0.208305 -0.755723
    24 1.224671 0.000000 0.000000 0.026043 -0.124620 -0.538676
    25 2.630323 -0.345015 1.907214 -0.354022 -0.915164 -1.788195
    26 1.059292 0.000000 0.000001 0.000551 0.000004 0.000021
    27 0.781203 0.000000 0.000000 -0.000467 0.006940 -0.135953
    28 2.033353 1.000771 -1.101647 -2.356581 1.261907 2.270607
    29 6.809417 0.000001 0.000000 0.776569 0.593030 -0.592610
    30 12.391794 0.000000 0.000001 0.000000 0.000000 -1.785221
    31 9.337102 0.000000 0.000003 -1.012825 -0.201616 0.146772
    32 4.453986 -0.073766 -0.571672 -0.386562 0.126208 -1.146676
    33 1.426599 0.000002 0.000000 -0.051390 0.078806 -1.521754
    34 1.322465 -0.000001 0.000000 -0.034695 0.051519 -1.200268
    35 4.477036 -0.043465 -1.581290 -0.083016 0.164909 0.067468
    36 1.344414 0.000000 0.000000 0.024521 0.136363 -0.478036
    37 1.224670 0.000001 0.000000 -0.166394 0.224946 -1.318175
    38 2.630291 -0.359835 -1.904289 1.070466 0.381356 -0.978487
    39 1.059293 0.000000 0.000000 0.002193 0.017488 0.317162
    40 0.781204 0.000000 0.000000 0.006472 0.026012 0.488050
    41 -0.044717 2.528787 4.661499 -0.032893 0.070745 -0.066493
  time 10
    0 34.531465 34.071221 34.851525 1.500707 -0.012473 -0.386004
    1 3.890452 -0.000004 -0.000003 -1.568983 -0.401612 -1.729355
    2 17.848177 0.000000 0.000000 0.000000 0.000000 0.869712
    3 15.638507 0.000000 0.000000 0.227500 0.106084 -1.332063
    4 7.109929 0.000000 0.000000 -0.007119 -0.003131 -0.631738
    5 -3.890452 0.000004 0.000007 -0.981581 -0.434466 -1.924904
    6 17.848173 0.000000 0.000000 0.000000 0.000000 1.486835
    7 15.638511 0.000000 0.000000 -0.006880 0.101579 -1.015192
    8 7.109930 0.000000 0.000000 -0.081154 -0.003131 -0.631749
    9 0.042975 3.345128 -2.981901 1.700342 0.067802 1.569969
    10 4.018331 0.000000 0.000000 -0.161502 -0.016155 0.077745
    11 3.518565 0.000000 0.000000 0.032186 0.006352 0.088594
    12 8.942642 0.000000 0.000000 0.051569 0.006088 0.163101
    13 3.306641 -0.000002 0.000001 3.138800 0.000567 0.400476
    14 3.593712 -0.000001 0.000000 -0.030840 -0.092169 0.389380
    15 2.033346 1.000768 1.101697 1.848180 -1.411864 2.688434
    16 6.809416 0.000001 0.000000 -1.099352 0.001876 -0.821640
    17 12.391796 0.000000 0.000001 0.000000 0.000000 -1.723116
    18 9.337076 0.000000 -0.000031 -0.845380 -0.411617 0.005710
    19 4.454020 -0.070210 0.572073 0.096293 -0.007832 -0.804082
    20 1.426597 -0.000001 0.000000 0.023861 -0.079623 -1.125947
    21 1.322468 -0.000002 0.000000 0.009312 -0.033625 -0.575065
    22 4.477066 -0.028570 1.582474 0.476656 -0.055423 -1.136099
    23 1.344418 0.000000 0.000000 0.023466 -0.208305 -0.755723
    24 1.224671 0.000000 0.000000 0.026043 -0.124620 -0.538676
    25 2.630323 -0.345015 1.907214 -0.354022 -0.915164 -1.788195
    26 1.059292 0.000000 0.000001 0.000551 0.000004 0.000021
    27 0.781203 0.000000 0.000000 -0.000467 0.006940 -0.135953
    28 2.033353 1.000771 -1.101647 -2.406169 1.248711 2.222486
    29 6.809417 0.000001 0.000000 0.813482 0.564298 -0.563533
    30 12.391794 0.000000 0.000001 0.000000 0.000000 -1.803967
    31 9.337102 0.000000 0.000003 -1.017305 -0.204510 0.144095
    32 4.453986 -0.073766 -0.571672 -0.386562 0.126208 -1.146676
    33 1.426599 0.000002 0.000000 -0.051390 0.078806 -1.521754
    34 1.322465 -0.000001 0.000000 -0.034695 0.051519 -1.200268
    35 4.477036 -0.043465 -1.581290 -0.083016 0.164909 0.067468
    36 1.344414 0.000000 0.000000 0.024521 0.136363 -0.478036
    37 1.224670 0.000001 0.000000 -0.166394 0.224946 -1.318175
    38 2.630291 -0.359835 -1.904289 1.070466 0.381356 -0.978487
    39 1.059293 0.000000 0.000000 0.002193 0.017488 0.317162
    40 0.781204 0.000000 0.000000 0.006472 0.026012 0.488050
    41 -0.044717 2.528787 4.661499 -0.033869 0.052923 -0.088057
  time 11
    0 37.659055 37.025323 34.923569 1.490173 -0.015291 -0.383324
    1 3.890452 -0.000004 -0.000003 -1.466768 -0.450771 -1.821644
    2 17.848177 0.000000 0.000000 0.000000 0.000000 0.731825
    3 15.638507 0.000000 0.000000 0.200977 0.008189 -1.131495
    4 7.109929 0.000000 0.000000 -0.007119 -0.003131 -0.631738
    5 -3.890452 0.000004 0.000007 -1.036975 -0.279037 -1.853103
    6 17.848173 0.000000 0.000000 0.000000 0.000000 1.490897
    7 15.638511 0.000000 0.000000 -0.084797 -0.065712 -0.842051
    8 7.109930 0.000000 0.000000 -0.081154 -0.003131 -0.631749
    9 0.050788 3.345128 -2.981901 1.700504 0.067773 1.570914
    10 4.018331 0.000000 0.000000 -0.140707 -0.012284 0.080597
    11 3.518565 0.000000 0.000000 0.053532 0.009024 0.092993
    12 8.942642 0.000000 0.000000 0.055219 0.002445 0.166091
    13 3.306641 -0.000002 0.000001 3.138800 0.000567 0.400476
    14 3.593712 -0.000001 0.000000 -0.083281 -0.096280 0.388037
    15 2.033346 1.000768 1.101697 1.848180 -1.411864 2.688434
    16 6.809416 0.000001 0.000000 -1.068463 -0.011897 -0.793336
    17 12.391796 0.000000 0.000001 0.000000 0.000000 -1.752211
    18 9.337076 0.000000 -0.000031 -0.862956 -0.448082 0.049559
    19 4.454020 -0.070210 0.572073 0.096293 -0.007832 -0.804082
    20 1.426597 -0.000001 0.000000 0.023861 -0.079623 -1.125947
    21 1.322468 -0.000002 0.000000 0.009312 -0.033625 -0.575065
    22 4.477066 -0.028570 1.582474 0.476656 -0.055423 -1.136099
    23 1.344418 0.000000 0.000000 0.023466 -0.208305 -0.755723
    24 1.224671 0.000000 0.000000 0.026043 -0.124620 -0.538676
    25 2.630323 -0.345015 1.907214 -0.354022 -0.915164 -1.788195
    26 1.059292 0.000000 0.000001 0.000551 0.000004 0.000021
    27 0.781203 0.000000 0.000000 -0.000467 0.006940 -0.135953
    28 2.033353 1.000771 -1.101647 -2.464277 1.233936 2.165642
    29 6.809417 0.000001 0.000000 0.841593 0.528689 -0.557942
    30 12.391794 0.000000 0.000001 0.000000 0.000000 -1.822713
    31 9.337102 0.000000 0.000003 -1.024858 -0.208850 0.138828
    32 4.453986 -0.073766 -0.571672 -0.386562 0.126208 -1.146676
    33 1.426599 0.000002 0.000000 -0.051390 0.078806 -1.521754
    34 1.322465 -0.000001 0.000000 -0.034695 0.051519 -1.200268
    35 4.477036 -0.043465 -1.581290 -0.083016 0.164909 0.067468
    36 1.344414 0.000000 0.000000 0.024521 0.136363 -0.478036
    37 1.224670 0.000001 0.000000 -0.166394 0.224946 -1.318175
    38 2.630291 -0.359835 -1.904289 1.070466 0.381356 -0.978487
    39 1.059293 0.000000 0.000000 0.002193 0.017488 0.317162
    40 0.781204 0.000000 0.000000 0.006472 0.026012 0.488050
    41 -0.044717 2.528787 4.661499 -0.034260 0.035070 -0.104690
  time 12
    0 41.036653 40.365406 35.407290 1.491957 -0.015569 -0.360545
    1 3.890452 -0.000004 -0.000003 -1.379918 -0.504377 -1.876174
    2 17.848177 0.000000 0.000000 0.000000 0.000000 0.501112
    3 15.638507 0.000000 0.000000 0.115586 0.048959 -0.614802
    4 7.109929 0.000000 0.000000 -0.006424 -0.003910 -0.830705
    5 -3.890452 0.000004 0.000007 -1.072919 -0.153868 -1.761436
    6 17.848173 0.000000 0.000000 0.000000 0.000000 1.336875
    7 15.638511 0.000000 0.000000 -0.057836 -0.082232 -0.666237
    8 7.109930 0.000000 0.000000 -0.081154 -0.003131 -0.631749
    9 0.050788 3.345128 -2.981901 1.700773 0.067773 1.575702
    10 4.018331 0.000000 0.000000 -0.127122 -0.008090 0.082945
    11 3.518565 0.000000 0.000000 0.067161 0.011625 0.096398
    12 8.942642 0.000000 0.000000 0.057023 -0.002073 0.168519
    13 3.306641 -0.000002 0.000001 3.138800 0.000567 0.400476
    14 3.593712 -0.000001 0.000000 -0.131546 -0.099600 0.391605
    15 2.033346 1.000768 1.101697 1.848180 -1.411864 2.688434
    16 6.809416 0.000001 0.000000 -1.051154 -0.009789 -0.758406
    17 12.391796 0.000000 0.000001 0.000000 0.000000 -1.800703
    18 9.337076 0.000000 -0.000031 -0.876072 -0.471986 0.105120
    19 4.454020 -0.070210 0.572073 0.096293 -0.007832 -0.804082
    20 1.426597 -0.000001 0.000000 0.023861 -0.079623 -1.125947
    21 1.322468 -0.000002 0.000000 0.009312 -0.033625 -0.575065
    22 4.477066 -0.028570 1.582474 0.476656 -0.055423 -1.136099
    23 1.344418 0.000000 0.000000 0.023466 -0.208305 -0.755723
    24 1.224671 0.000000 0.000000 0.026043 -0.124620 -0.538676
    25 2.630323 -0.345015 1.907214 -0.354022 -0.915164 -1.788195
    26 1.059292 0.000000 0.000001 0.000551 0.000004 0.000021
    27 0.781203 0.000000 0.000000 -0.000467 0.006940 -0.135953
    28 2.033353 1.000771 -1.101647 -2.520375 1.218838 2.110428
    29 6.809417 0.000001 0.000000 0.860806 0.495928 -0.570329
    30 12.391794 0.000000 0.000001 0.000000 0.000000 -1.839017
    31 9.337102 0.000000 0.000003 -1.033691 -0.213532 0.132266
    32 4.453986 -0.073766 -0.571672 -0.386562 0.126208 -1.146676
    33 1.426599 0.000002 0.000000 -0.051390 0.078806 -1.521754
    34 1.322465 -0.000001 0.000000 -0.034695 0.051519 -1.200268
    35 4.477036 -0.043465 -1.581290 -0.083016 0.164909 0.067468
    36 1.344414 0.000000 0.000000 0.024521 0.136363 -0.478036
    37 1.224670 0.000001 0.000000 -0.166394 0.224946 -1.318175
    38 2.630291 -0.359835 -1.904289 1.070466 0.381356 -0.978487
    39 1.059293 0.000000 0.000000 0.002193 0.017488 0.317162
    40 0.781204 0.000000 0.000000 0.006472 0.026012 0.488050
    41 -0.044717 2.528787 4.661499 -0.034260 0.018425 -0.116914
  time 13
    0 44.617382 44.121942 35.849844 1.503171 -0.016954 -0.322931
    1 3.890452 -0.000004 -0.000003 -1.330958 -0.563093 -1.913070
    2 17.848177 0.000000 0.000000 0.000000 0.000000 0.408578
    3 15.638507 0.000000 0.000000 0.118118 0.098946 -0.576890
    4 7.109929 0.000000 0.000000 -0.006796 -0.003538 -0.731221
    5 -3.890452 0.000004 0.000007 -1.099329 -0.050741 -1.676107
    6 17.848173 0.000000 0.000000 0.000000 0.000000 1.170018
    7 15.638511 0.000000 0.000000 -0.005953 -0.081504 -0.553165
    8 7.109930 0.000000 0.000000 -0.081154 -0.003131 -0.631749
    9 0.050788 3.345128 -2.981901 1.701204 0.067773 1.580844
    10 4.018331 0.000000 0.000000 -0.121878 -0.004051 0.085607
    11 3.518565 0.000000 0.000000 0.071963 0.014022 0.099378
    12 8.942642 0.000000 0.000000 0.056870 -0.006795 0.169521
    13 3.306641 -0.000002 0.000001 3.138800 0.000567 0.400476
    14 3.593712 -0.000001 0.000000 -0.169727 -0.101206 0.401635
    15 2.033346 1.000768 1.101697 1.848180 -1.411864 2.688434
    16 6.809416 0.000001 0.000000 -1.049719 0.003003 -0.724611
    17 12.391796 0.000000 0.000001 0.000000 0.000000 -1.856133
    18 9.337076 0.000000 -0.000031 -0.881692 -0.480404 0.159989
    19 4.454020 -0.070210 0.572073 0.096293 -0.007832 -0.804082
    20 1.426597 -0.000001 0.000000 0.023861 -0.079623 -1.125947
    21 1.322468 -0.000002 0.000000 0.009312 -0.033625 -0.575065
    22 4.477066 -0.028570 1.582474 0.476656 -0.055423 -1.136099
    23 1.344418 0.000000 0.000000 0.023466 -0.208305 -0.755723
    24 1.224671 0.000000 0.000000 0.026043 -0.124620 -0.538676
    25 2.630323 -0.345015 1.907214 -0.354022 -0.915164 -1.788195
    26 1.059292 0.000000 0.000001 0.000551 0.000004 0.000021
    27 0.781203 0.000000 0.000000 -0.000467 0.006940 -0.135953
    28 2.033353 1.000771 -1.101647 -2.566613 1.205399 2.064800
    29 6.809417 0.000001 0.000000 0.873016 0.472233 -0.592093
    30 12.391794 0.000000 0.000001 0.000000 0.000000 -1.851012
    31 9.337102 0.000000 0.000003 -1.041947 -0.217377 0.125531
    32 4.453986 -0.073766 -0.571672 -0.386562 0.126208 -1.146676
    33 1.426599 0.000002 0.000000 -0.051390 0.078806 -1.521754
    34 1.322465 -0.000001 0.000000 -0.034695 0.051519 -1.200268
    35 4.477036 -0.043465 -1.581290 -0.083016 0.164909 0.067468
    36 1.344414 0.000000 0.000000 0.024521 0.136363 -0.478036
    37 1.224670 0.000001 0.000000 -0.166394 0.224946 -1.318175
    38 2.630291 -0.359835 -1.904289 1.070466 0.381356 -0.978487
    39 1.059293 0.000000 0.000000 0.002193 0.017488 0.317162
    40 0.781204 0.000000 0.000000 0.006472 0.026012 0.488050
    41 -0.044717 2.528787 4.661499 -0.033934 0.004574 -0.126774
  time 14
    0 48.229362 48.122255 35.818968 1.516849 -0.028920 -0.278809
    1 3.890452 -0.000004 -0.000003 -1.312252 -0.605817 -1.931758
    2 17.848177 0.000000 0.000000 0.000000 0.000000 0.414064
    3 15.638507 0.000000 0.000000 0.138152 0.130546 -0.644621
    4 7.109929 0.000000 0.000000 -0.007119 -0.003131 -0.631738
    5 -3.890452 0.000004 0.000007 -1.136322 -0.034357 -1.637416
    6 17.848173 0.000000 0.000000 0.000000 0.000000 1.101049
    7 15.638511 0.000000 0.000000 0.019525 -0.087511 -0.752664
    8 7.109930 0.000000 0.000000 -0.079104 -0.004809 -1.137910
    9 0.085945 3.345128 -2.981901 1.701635 0.067745 1.576175
    10 4.018331 0.000000 0.000000 -0.125065 -0.000348 0.088876
    11 3.518565 0.000000 0.000000 0.067979 0.016335 0.102145
    12 8.942642 0.000000 0.000000 0.055080 -0.010786 0.168888
    13 3.306641 -0.000002 0.000001 3.138800 0.000567 0.400476
    14 3.593712 -0.000001 0.000000 -0.193142 -0.100392 0.417541
    15 2.033346 1.000768 1.101697 1.848180 -1.411864 2.688434
    16 6.809416 0.000001 0.000000 -1.065881 0.018786 -0.703691
    17 12.391796 0.000000 0.000001 0.000000 0.000000 -1.903599
    18 9.337076 0.000000 -0.000031 -0.875715 -0.469553 0.201530
    19 4.454020 -0.070210 0.572073 0.096293 -0.007832 -0.804082
    20 1.426597 -0.000001 0.000000 0.023861 -0.079623 -1.125947
    21 1.322468 -0.000002 0.000000 0.009312 -0.033625 -0.575065
    22 4.477066 -0.028570 1.582474 0.476656 -0.055423 -1.136099
    23 1.344418 0.000000 0.000000 0.023466 -0.208305 -0.755723
    24 1.224671 0.000000 0.000000 0.026043 -0.124620 -0.538676
    25 2.630323 -0.345015 1.907214 -0.354022 -0.915164 -1.788195
    26 1.059292 0.000000 0.000001 0.000551 0.000004 0.000021
    27 0.781203 0.000000 0.000000 -0.000467 0.006940 -0.135953
    28 2.033353 1.000771 -1.101647 -2.596959 1.196049 2.034605
    29 6.809417 0.000001 0.000000 0.880967 0.459750 -0.612997
    30 12.391794 0.000000 0.000001 0.000000 0.000000 -1.857691
    31 9.337102 0.000000 0.000003 -1.047644 -0.219167 0.118796
    32 4.453986 -0.073766 -0.571672 -0.386562 0.126208 -1.146676
    33 1.426599 0.000002 0.000000 -0.051390 0.078806 -1.521754
    34 1.322465 -0.000001 0.000000 -0.034695 0.051519 -1.200268
    35 4.477036 -0.043465 -1.581290 -0.083016 0.164909 0.067468
    36 1.344414 0.000000 0.000000 0.024521 0.136363 -0.478036
    37 1.224670 0.000001 0.000000 -0.166394 0.224946 -1.318175
    38 2.630291 -0.359835 -1.904289 1.070466 0.381356 -0.978487
    39 1.059293 0.000000 0.000000 0.002193 0.017488 0.317162
    40 0.781204 0.000000 0.000000 0.006472 0.026012 0.488050
    41 -0.044717 2.528787 4.661499 -0.033674 -0.004511 -0.142325
  time 15
    0 51.911656 52.102253 35.602837 1.527893 -0.052573 -0.235835
    1 3.890452 -0.000004 -0.000003 -1.335348 -0.636712 -1.921983
    2 17.848177 0.000000 0.000000 0.000000 0.000000 0.567678
    3 15.638507 0.000000 0.000000 0.163725 0.134280 -0.724855
    4 7.109929 0.000000 0.000000 -0.007119 -0.003131 -0.631738
    5 -3.890452 0.000004 0.000007 -1.178558 -0.048773 -1.623037
    6 17.848173 0.000000 0.000000 0.000000 0.000000 1.063437
    7 15.638511 0.000000 0.000000 0.032126 -0.070126 -1.059408
    8 7.109930 0.000000 0.000000 -0.078937 -0.004881 -1.171033
    9 0.160166 3.345128 -2.981901 1.702066 0.067745 1.559093
    10 4.018331 0.000000 0.000000 -0.135915 0.003068 0.092094
    11 3.518565 0.000000 0.000000 0.056090 0.018936 0.104416
    12 8.942642 0.000000 0.000000 0.052221 -0.013231 0.167182
    13 3.306641 -0.000002 0.000001 3.138800 0.000567 0.400476
    14 3.593712 -0.000001 0.000000 -0.200145 -0.096880 0.435880
    15 2.033346 1.000768 1.101697 1.848180 -1.411864 2.688434
    16 6.809416 0.000001 0.000000 -1.101169 0.027412 -0.705678
    17 12.391796 0.000000 0.000001 0.000000 0.000000 -1.926307
    18 9.337076 0.000000 -0.000031 -0.857068 -0.434370 0.217800
    19 4.454020 -0.070210 0.572073 0.096293 -0.007832 -0.804082
    20 1.426597 -0.000001 0.000000 0.023861 -0.079623 -1.125947
    21 1.322468 -0.000002 0.000000 0.009312 -0.033625 -0.575065
    22 4.477066 -0.028570 1.582474 0.476656 -0.055423 -1.136099
    23 1.344418 0.000000 0.000000 0.023466 -0.208305 -0.755723
    24 1.224671 0.000000 0.000000 0.026043 -0.124620 -0.538676
    25 2.630323 -0.345015 1.907214 -0.354022 -0.915164 -1.788195
    26 1.059292 0.000000 0.000001 0.000551 0.000004 0.000021
    27 0.781203 0.000000 0.000000 -0.000467 0.006940 -0.135953
    28 2.033353 1.000771 -1.101647 -2.606149 1.193337 2.025498
    29 6.809417 0.000001 0.000000 0.887024 0.460144 -0.624869
    30 12.391794 0.000000 0.000001 0.000000 0.000000 -1.856757
    31 9.337102 0.000000 0.000003 -1.048796 -0.217606 0.113442
    32 4.453986 -0.073766 -0.571672 -0.386562 0.126208 -1.146676
    33 1.426599 0.000002 0.000000 -0.051390 0.078806 -1.521754
    34 1.322465 -0.000001 0.000000 -0.034695 0.051519 -1.200268
    35 4.477036 -0.043465 -1.581290 -0.083016 0.164909 0.067468
    36 1.344414 0.000000 0.000000 0.024521 0.136363 -0.478036
    37 1.224670 0.000001 0.000000 -0.166394 0.224946 -1.318175
    38 2.630291 -0.359835 -1.904289 1.070466 0.381356 -0.978487
    39 1.059293 0.000000 0.000000 0.002193 0.017488 0.317162
    40 0.781204 0.000000 0.000000 0.006472 0.026012 0.488050
    41 -0.044717 2.528787 4.661499 -0.033999 -0.003876 -0.160842
  time 16
    0 55.492385 56.000992 35.067656 1.535794 -0.070590 -0.197838
    1 3.890452 -0.000004 -0.000003 -1.375146 -0.683694 -1.896395
    2 17.848177 0.000000 0.000000 0.000000 0.000000 0.818068
    3 15.638507 0.000000 0.000000 0.199300 0.126173 -0.848068
    4 7.109929 0.000000 0.000000 -0.007119 -0.003131 -0.631738
    5 -3.890452 0.000004 0.000007 -1.218316 -0.069044 -1.612726
    6 17.848173 0.000000 0.000000 0.000000 0.000000 1.009009
    7 15.638511 0.000000 0.000000 0.032033 -0.015880 -1.379713
    8 7.109930 0.000000 0.000000 -0.079763 -0.004437 -0.994753
    9 0.214855 3.341221 -2.981901 1.702444 0.067745 1.544966
    10 4.018331 0.000000 0.000000 -0.153071 0.006364 0.094025
    11 3.518565 0.000000 0.000000 0.037722 0.022088 0.105302
    12 8.942642 0.000000 0.000000 0.048821 -0.013591 0.165458
    13 3.306641 -0.000002 0.000001 3.138800 0.000567 0.400476
    14 3.593712 -0.000001 0.000000 -0.192551 -0.090905 0.452290
    15 2.033346 1.000768 1.101697 1.848180 -1.411864 2.688434
    16 6.809416 0.000001 0.000000 -1.168876 0.004964 -0.733415
    17 12.391796 0.000000 0.000001 0.000000 0.000000 -1.904940
    18 9.337076 0.000000 -0.000031 -0.829856 -0.350096 0.204588
    19 4.454020 -0.070210 0.572073 0.096293 -0.007832 -0.804082
    20 1.426597 -0.000001 0.000000 0.023861 -0.079623 -1.125947
    21 1.322468 -0.000002 0.000000 0.009312 -0.033625 -0.575065
    22 4.477066 -0.028570 1.582474 0.476656 -0.055423 -1.136099
    23 1.344418 0.000000 0.000000 0.023466 -0.208305 -0.755723
    24 1.224671 0.000000 0.000000 0.026043 -0.124620 -0.538676
    25 2.630323 -0.345015 1.907214 -0.354022 -0.915164 -1.788195
    26 1.059292 0.000000 0.000001 0.000551 0.000004 0.000021
    27 0.781203 0.000000 0.000000 -0.000467 0.006940 -0.135953
    28 2.033353 1.000771 -1.101647 -2.589301 1.199085 2.042178
    29 6.809417 0.000001 0.000000 0.899991 0.474554 -0.629428
    30 12.391794 0.000000 0.000001 0.000000 0.000000 -1.841674
    31 9.337102 0.000000 0.000003 -1.044315 -0.211096 0.112320
    32 4.453986 -0.073766 -0.571672 -0.386562 0.126208 -1.146676
    33 1.426599 0.000002 0.000000 -0.051390 0.078806 -1.521754
    34 1.322465 -0.000001 0.000000 -0.034695 0.051519 -1.200268
    35 4.477036 -0.043465 -1.581290 -0.083016 0.164909 0.067468
    36 1.344414 0.000000 0.000000 0.024521 0.136363 -0.478036
    37 1.224670 0.000001 0.000000 -0.166394 0.224946 -1.318175
    38 2.630291 -0.359835 -1.904289 1.070466 0.381356 -0.978487
    39 1.059293 0.000000 0.000000 0.002193 0.017488 0.317162
    40 0.781204 0.000000 0.000000 0.006472 0.026012 0.488050
    41 -0.044717 2.528787 4.661499 -0.035106 0.007433 -0.165331
  time 17
    0 58.948110 59.706740 34.779482 1.543270 -0.070082 -0.164148
    1 3.890452 -0.000004 -0.000003 -1.423438 -0.732333 -1.840907
    2 17.848177 0.000000 0.000000 0.000000 0.000000 1.106496
    3 15.638507 0.000000 0.000000 0.241489 0.109062 -0.984879
    4 7.109929 0.000000 0.000000 -0.007119 -0.003131 -0.631738
    5 -3.890452 0.000004 0.000007 -1.237575 -0.093251 -1.622942
    6 17.848173 0.000000 0.000000 0.000000 0.000000 0.843127
    7 15.638511 0.000000 0.000000 0.029161 0.152003 -1.672992
    8 7.109930 0.000000 0.000000 -0.081154 -0.003131 -0.631749
    9 0.214855 3.341221 -2.981901 1.702767 0.067745 1.546089
    10 4.018331 0.000000 0.000000 -0.174589 0.009432 0.093468
    11 3.518565 0.000000 0.000000 0.014908 0.025755 0.103990
    12 8.942642 0.000000 0.000000 0.045310 -0.011745 0.164719
    13 3.306641 -0.000002 0.000001 3.138800 0.000567 0.400476
    14 3.593712 -0.000001 0.000000 -0.174073 -0.082896 0.463243
    15 2.033346 1.000768 1.101697 1.848180 -1.411864 2.688434
    16 6.809416 0.000001 0.000000 -1.266229 -0.056450 -0.782261
    17 12.391796 0.000000 0.000001 0.000000 0.000000 -1.839102
    18 9.337076 0.000000 -0.000031 -0.793811 -0.211438 0.171355
    19 4.454020 -0.070210 0.572073 0.096293 -0.007832 -0.804082
    20 1.426597 -0.000001 0.000000 0.023861 -0.079623 -1.125947
    21 1.322468 -0.000002 0.000000 0.009312 -0.033625 -0.575065
    22 4.477066 -0.028570 1.582474 0.476656 -0.055423 -1.136099
    23 1.344418 0.000000 0.000000 0.023466 -0.208305 -0.755723
    24 1.224671 0.000000 0.000000 0.026043 -0.124620 -0.538676
    25 2.630323 -0.345015 1.907214 -0.354022 -0.915164 -1.788195
    26 1.059292 0.000000 0.000001 0.000551 0.000004 0.000021
    27 0.781203 0.000000 0.000000 -0.000467 0.006940 -0.135953
    28 2.033353 1.000771 -1.101647 -2.549477 1.211471 2.081575
    29 6.809417 0.000001 0.000000 0.921287 0.498380 -0.635536
    30 12.391794 0.000000 0.000001 0.000000 0.000000 -1.811939
    31 9.337102 0.000000 0.000003 -1.036059 -0.200360 0.116723
    32 4.453986 -0.073766 -0.571672 -0.386562 0.126208 -1.146676
    33 1.426599 0.000002 0.000000 -0.051390 0.078806 -1.521754
    34 1.322465 -0.000001 0.000000 -0.034695 0.051519 -1.200268
    35 4.477036 -0.043465 -1.581290 -0.083016 0.164909 0.067468
    36 1.344414 0.000000 0.000000 0.024521 0.136363 -0.478036
    37 1.224670 0.000001 0.000000 -0.166394 0.224946 -1.318175
    38 2.630291 -0.359835 -1.904289 1.070466 0.381356 -0.978487
    39 1.059293 0.000000 0.000000 0.002193 0.017488 0.317162
    40 0.781204 0.000000 0.000000 0.006472 0.026012 0.488050
    41 -0.044717 2.528787 4.661499 -0.036017 0.024842 -0.148097
  time 18
    0 62.310083 63.300758 34.686854 1.552191 -0.056222 -0.133808
    1 3.890452 -0.000004 -0.000003 -1.468676 -0.763843 -1.762418
    2 17.848177 0.000000 0.000000 0.000000 0.000000 1.364421
    3 15.638507 0.000000 0.000000 0.284564 0.089209 -1.100145
    4 7.109929 0.000000 0.000000 -0.007119 -0.003131 -0.631738
    5 -3.890452 0.000004 0.000007 -1.221462 -0.289960 -1.718015
    6 17.848173 0.000000 0.000000 0.000000 0.000000 0.977734
    7 15.638511 0.000000 0.000000 0.076968 0.151821 -1.588857
    8 7.109930 0.000000 0.000000 -0.081154 -0.003131 -0.631749
    9 0.175792 3.341221 -2.981901 1.703036 0.067745 1.558147
    10 4.018331 0.000000 0.000000 -0.197848 0.012033 0.089885
    11 3.518565 0.000000 0.000000 -0.009603 0.029602 0.100159
    12 8.942642 0.000000 0.000000 0.042132 -0.008018 0.165423
    13 3.306641 -0.000002 0.000001 3.138800 0.000567 0.400476
    14 3.593712 -0.000001 0.000000 -0.149012 -0.073388 0.467188
    15 2.033346 1.000768 1.101697 1.848180 -1.411864 2.688434
    16 6.809416 0.000001 0.000000 -1.367981 -0.146195 -0.848051
    17 12.391796 0.000000 0.000001 0.000000 0.000000 -1.738728
    18 9.337076 0.000000 -0.000031 -0.744651 -0.044731 0.128141
    19 4.454020 -0.070210 0.572073 0.096293 -0.007832 -0.804082
    20 1.426597 -0.000001 0.000000 0.023861 -0.079623 -1.125947
    21 1.322468 -0.000002 0.000000 0.009312 -0.033625 -0.575065
    22 4.477066 -0.028570 1.582474 0.476656 -0.055423 -1.136099
    23 1.344418 0.000000 0.000000 0.023466 -0.208305 -0.755723
    24 1.224671 0.000000 0.000000 0.026043 -0.124620 -0.538676
    25 2.630323 -0.345015 1.907214 -0.354022 -0.915164 -1.788195
    26 1.059292 0.000000 0.000001 0.000551 0.000004 0.000021
    27 0.781203 0.000000 0.000000 -0.000467 0.006940 -0.135953
    28 2.033353 1.000771 -1.101647 -2.491848 1.227541 2.138419
    29 6.809417 0.000001 0.000000 0.944476 0.523740 -0.645514
    30 12.391794 0.000000 0.000001 0.000000 0.000000 -1.773945
    31 9.337102 0.000000 0.000003 -1.026650 -0.187758 0.124667
    32 4.453986 -0.073766 -0.571672 -0.386562 0.126208 -1.146676
    33 1.426599 0.000002 0.000000 -0.051390 0.078806 -1.521754
    34 1.322465 -0.000001 0.000000 -0.034695 0.051519 -1.200268
    35 4.477036 -0.043465 -1.581290 -0.083016 0.164909 0.067468
    36 1.344414 0.000000 0.000000 0.024521 0.136363 -0.478036
    37 1.224670 0.000001 0.000000 -0.166394 0.224946 -1.318175
    38 2.630291 -0.359835 -1.904289 1.070466 0.381356 -0.978487
    39 1.059293 0.000000 0.000000 0.002193 0.017488 0.317162
    40 0.781204 0.000000 0.000000 0.006472 0.026012 0.488050
    41 -0.044717 2.528787 4.661499 -0.036342 0.044283 -0.117516
end
