// Created by Crowbar 0.68
version 1
nodes
  0 "ValveBiped.Bip01_Pelvis" -1
  1 "ValveBiped.Bip01_L_Thigh" 0
  2 "ValveBiped.Bip01_L_Calf" 1
  3 "ValveBiped.Bip01_L_Foot" 2
  4 "ValveBiped.Bip01_L_Toe0" 3
  5 "ValveBiped.Bip01_R_Thigh" 0
  6 "ValveBiped.Bip01_R_Calf" 5
  7 "ValveBiped.Bip01_R_Foot" 6
  8 "ValveBiped.Bip01_R_Toe0" 7
  9 "ValveBiped.Bip01_Spine" 0
  10 "ValveBiped.Bip01_Spine1" 9
  11 "ValveBiped.Bip01_Spine2" 10
  12 "ValveBiped.Bip01_Spine4" 11
  13 "ValveBiped.Bip01_Neck1" 12
  14 "ValveBiped.Bip01_Head1" 13
  15 "ValveBiped.Bip01_L_Clavicle" 12
  16 "ValveBiped.Bip01_L_UpperArm" 15
  17 "ValveBiped.Bip01_L_Forearm" 16
  18 "ValveBiped.Bip01_L_Hand" 17
  19 "ValveBiped.Bip01_L_Finger2" 18
  20 "ValveBiped.Bip01_L_Finger21" 19
  21 "ValveBiped.Bip01_L_Finger22" 20
  22 "ValveBiped.Bip01_L_Finger1" 18
  23 "ValveBiped.Bip01_L_Finger11" 22
  24 "ValveBiped.Bip01_L_Finger12" 23
  25 "ValveBiped.Bip01_L_Finger0" 18
  26 "ValveBiped.Bip01_L_Finger01" 25
  27 "ValveBiped.Bip01_L_Finger02" 26
  28 "ValveBiped.Bip01_R_Clavicle" 12
  29 "ValveBiped.Bip01_R_UpperArm" 28
  30 "ValveBiped.Bip01_R_Forearm" 29
  31 "ValveBiped.Bip01_R_Hand" 30
  32 "ValveBiped.Bip01_R_Finger2" 31
  33 "ValveBiped.Bip01_R_Finger21" 32
  34 "ValveBiped.Bip01_R_Finger22" 33
  35 "ValveBiped.Bip01_R_Finger1" 31
  36 "ValveBiped.Bip01_R_Finger11" 35
  37 "ValveBiped.Bip01_R_Finger12" 36
  38 "ValveBiped.Bip01_R_Finger0" 31
  39 "ValveBiped.Bip01_R_Finger01" 38
  40 "ValveBiped.Bip01_R_Finger02" 39
  41 "ValveBiped.Cod" 0
end
skeleton
  time 0
    0 -0.916439 -0.020310 36.858455 1.499603 -0.008962 -0.045851
    1 3.890452 -0.000004 -0.000003 -1.922584 -0.357043 -1.394030
    2 17.848177 0.000000 0.000000 0.000000 0.000000 1.856057
    3 15.638507 0.000000 0.000000 0.457310 -0.313691 -1.115674
    4 7.109929 0.000000 0.000000 -0.007119 -0.003131 -0.631738
    5 -3.890452 0.000004 0.000007 -1.315756 0.407230 -1.568926
    6 17.848173 0.000000 0.000000 0.000000 0.000000 0.326959
    7 15.638511 0.000000 0.000000 -0.085353 -0.159142 -0.936405
    8 7.109930 0.000000 0.000000 -0.078697 -0.004976 -1.219932
    9 0.027350 3.345128 -2.981901 1.601889 0.037399 1.554128
    10 4.018331 0.000000 0.000000 -0.229176 0.006867 0.253314
    11 3.518565 0.000000 0.000000 -0.220081 0.055932 0.394029
    12 8.942642 0.000000 0.000000 -0.001207 0.050299 0.249895
    13 3.306641 0.000001 0.000000 3.138800 0.000567 0.400476
    14 3.593712 -0.000001 0.000000 0.492559 0.024818 1.011929
    15 2.033346 1.000768 1.101697 1.848180 -1.411864 2.688434
    16 6.809416 0.000001 0.000000 -1.592428 -0.518503 -1.358567
    17 12.391796 0.000000 0.000001 0.000000 0.000000 -1.827826
    18 9.337076 0.000000 -0.000031 -0.021081 0.413531 0.165124
    19 4.454020 -0.070210 0.572073 0.096293 -0.007832 -0.804082
    20 1.426597 -0.000001 0.000000 0.023861 -0.079623 -1.125947
    21 1.322468 -0.000002 0.000000 0.009312 -0.033625 -0.575065
    22 4.477066 -0.028570 1.582474 0.476656 -0.055423 -1.136099
    23 1.344418 0.000000 0.000000 0.023466 -0.208305 -0.755723
    24 1.224671 0.000000 0.000000 0.026043 -0.124620 -0.538676
    25 2.630323 -0.345015 1.907214 -0.354022 -0.915164 -1.788195
    26 1.059292 0.000000 0.000001 0.000551 0.000004 0.000021
    27 0.781203 0.000000 0.000000 -0.000467 0.006940 -0.135953
    28 2.033353 1.000771 -1.101647 -2.784590 1.401436 1.822280
    29 6.809417 0.000001 0.000000 1.382414 0.410345 -0.881565
    30 12.391794 0.000000 0.000001 0.000000 0.000000 -1.940648
    31 9.337102 0.000000 0.000003 -1.402107 -0.437313 0.014145
    32 4.453986 -0.073766 -0.571672 0.047699 -0.153453 -0.767464
    33 1.426599 0.000002 0.000000 -0.053883 0.078890 -1.553256
    34 1.322465 -0.000001 0.000000 -0.013603 0.036958 -0.732277
    35 4.477036 -0.043465 -1.581290 -0.332128 -0.154804 0.170747
    36 1.344414 0.000000 0.000000 -0.042629 0.220735 -0.851579
    37 1.224670 0.000001 0.000000 0.008150 -0.000004 -0.000025
    38 2.630291 -0.359835 -1.904289 0.415078 0.423437 -0.720800
    39 1.059293 0.000000 0.000000 0.015101 0.038905 0.767148
    40 0.781204 0.000000 0.000000 0.004782 0.022537 0.418308
    41 -0.044717 2.528787 4.661499 0.002504 0.030909 0.028617
  time 1
    0 -0.623461 -7.600794 37.486263 1.499263 -0.020003 -0.032356
    1 3.890452 -0.000004 -0.000003 -1.907123 -0.488006 -1.423835
    2 17.848177 0.000000 0.000000 0.000000 0.000000 1.603399
    3 15.638507 0.000000 0.000000 0.441706 -0.226739 -1.206808
    4 7.109929 0.000000 0.000000 -0.007119 -0.003131 -0.631738
    5 -3.890452 0.000004 0.000007 -1.306603 0.647531 -1.568264
    6 17.848173 0.000000 0.000000 0.000000 0.000000 0.122165
    7 15.638511 0.000000 0.000000 -0.040418 -0.234232 -0.596427
    8 7.109930 0.000000 0.000000 -0.081154 -0.003131 -0.631749
    9 0.062507 3.345128 -2.981901 1.611805 0.031670 1.540770
    10 4.018331 0.000000 0.000000 -0.229018 0.008677 0.262393
    11 3.518565 0.000000 0.000000 -0.220081 0.055932 0.394029
    12 8.942642 0.000000 0.000000 -0.001055 0.050275 0.253079
    13 3.306641 0.000001 0.000000 3.138800 0.000567 0.400476
    14 3.593712 -0.000001 0.000000 0.476907 0.017687 1.018937
    15 2.033346 1.000768 1.101697 1.848180 -1.411864 2.688434
    16 6.809416 0.000001 0.000000 -1.557235 -0.523895 -1.376174
    17 12.391796 0.000000 0.000001 0.000000 0.000000 -1.832478
    18 9.337076 0.000000 -0.000031 -0.005735 0.407744 0.184509
    19 4.454020 -0.070210 0.572073 0.096293 -0.007832 -0.804082
    20 1.426597 -0.000001 0.000000 0.023861 -0.079623 -1.125947
    21 1.322468 -0.000002 0.000000 0.009312 -0.033625 -0.575065
    22 4.477066 -0.028570 1.582474 0.476656 -0.055423 -1.136099
    23 1.344418 0.000000 0.000000 0.023466 -0.208305 -0.755723
    24 1.224671 0.000000 0.000000 0.026043 -0.124620 -0.538676
    25 2.630323 -0.345015 1.907214 -0.354022 -0.915164 -1.788195
    26 1.059292 0.000000 0.000001 0.000551 0.000004 0.000021
    27 0.781203 0.000000 0.000000 -0.000467 0.006940 -0.135953
    28 2.033353 1.000771 -1.101647 -2.784590 1.401436 1.822280
    29 6.809417 0.000001 0.000000 1.400681 0.372327 -0.872532
    30 12.391794 0.000000 0.000001 0.000000 0.000000 -1.969234
    31 9.337102 0.000000 0.000003 -1.393914 -0.434039 0.011382
    32 4.453986 -0.073766 -0.571672 0.047699 -0.153453 -0.767464
    33 1.426599 0.000002 0.000000 -0.053883 0.078890 -1.553256
    34 1.322465 -0.000001 0.000000 -0.013603 0.036958 -0.732277
    35 4.477036 -0.043465 -1.581290 -0.332128 -0.154804 0.170747
    36 1.344414 0.000000 0.000000 -0.042629 0.220735 -0.851579
    37 1.224670 0.000001 0.000000 0.008150 -0.000004 -0.000025
    38 2.630291 -0.359835 -1.904289 0.415078 0.423437 -0.720800
    39 1.059293 0.000000 0.000000 0.015101 0.038905 0.767148
    40 0.781204 0.000000 0.000000 0.004782 0.022537 0.418308
    41 -0.044717 2.528787 4.661499 0.007514 0.000699 0.005170
  time 2
    0 -0.307046 -15.181277 38.093488 1.493656 -0.015291 -0.020870
    1 3.890452 -0.000004 -0.000003 -1.894047 -0.612677 -1.431693
    2 17.848177 0.000000 0.000000 0.000000 0.000000 1.525056
    3 15.638507 0.000000 0.000000 0.420279 -0.162429 -1.386925
    4 7.109929 0.000000 0.000000 -0.007119 -0.003131 -0.631738
    5 -3.890452 0.000004 0.000007 -1.269038 0.798089 -1.529856
    6 17.848173 0.000000 0.000000 0.000000 0.000000 0.089589
    7 15.638511 0.000000 0.000000 -0.049313 -0.159916 -0.315945
    8 7.109930 0.000000 0.000000 -0.075641 -0.003119 -0.624577
    9 0.046881 3.345128 -2.981901 1.627163 0.020297 1.541183
    10 4.018331 0.000000 0.000000 -0.228770 0.010379 0.276725
    11 3.518565 0.000000 0.000000 -0.220081 0.055932 0.394029
    12 8.942642 0.000000 0.000000 -0.000819 0.050239 0.258004
    13 3.306641 0.000001 0.000000 3.138800 0.000567 0.400476
    14 3.593712 -0.000001 0.000000 0.455939 0.007344 1.027667
    15 2.033346 1.000768 1.101697 1.848180 -1.411864 2.688434
    16 6.809416 0.000001 0.000000 -1.562686 -0.583741 -1.338498
    17 12.391796 0.000000 0.000001 0.000000 0.000000 -1.819153
    18 9.337076 0.000000 -0.000031 -0.018850 0.407908 0.209434
    19 4.454020 -0.070210 0.572073 0.096293 -0.007832 -0.804082
    20 1.426597 -0.000001 0.000000 0.023861 -0.079623 -1.125947
    21 1.322468 -0.000002 0.000000 0.009312 -0.033625 -0.575065
    22 4.477066 -0.028570 1.582474 0.476656 -0.055423 -1.136099
    23 1.344418 0.000000 0.000000 0.023466 -0.208305 -0.755723
    24 1.224671 0.000000 0.000000 0.026043 -0.124620 -0.538676
    25 2.630323 -0.345015 1.907214 -0.354022 -0.915164 -1.788195
    26 1.059292 0.000000 0.000001 0.000551 0.000004 0.000021
    27 0.781203 0.000000 0.000000 -0.000467 0.006940 -0.135953
    28 2.033353 1.000771 -1.101647 -2.784590 1.401436 1.822280
    29 6.809417 0.000001 0.000000 1.420463 0.408067 -0.886898
    30 12.391794 0.000000 0.000001 0.000000 0.000000 -1.954151
    31 9.337102 0.000000 0.000003 -1.387065 -0.436361 0.012590
    32 4.453986 -0.073766 -0.571672 0.047699 -0.153453 -0.767464
    33 1.426599 0.000002 0.000000 -0.053883 0.078890 -1.553256
    34 1.322465 -0.000001 0.000000 -0.013603 0.036958 -0.732277
    35 4.477036 -0.043465 -1.581290 -0.332128 -0.154804 0.170747
    36 1.344414 0.000000 0.000000 -0.042629 0.220735 -0.851579
    37 1.224670 0.000001 0.000000 0.008150 -0.000004 -0.000025
    38 2.630291 -0.359835 -1.904289 0.415078 0.423437 -0.720800
    39 1.059293 0.000000 0.000000 0.015101 0.038905 0.767148
    40 0.781204 0.000000 0.000000 0.004782 0.022537 0.418308
    41 -0.044717 2.528787 4.661499 0.018576 -0.036373 -0.018838
  time 3
    0 0.005464 -22.761761 38.566917 1.477769 -0.001016 -0.009864
    1 3.890452 -0.000004 -0.000003 -1.832871 -0.519233 -1.500502
    2 17.848177 0.000000 0.000000 0.000000 0.000000 0.985653
    3 15.638507 0.000000 0.000000 0.384863 -0.104737 -1.306618
    4 7.109929 0.000000 0.000000 -0.007119 -0.003131 -0.631738
    5 -3.890452 0.000004 0.000007 -1.288488 0.749773 -1.551236
    6 17.848173 0.000000 0.000000 0.000000 0.000000 0.353035
    7 15.638511 0.000000 0.000000 -0.047460 -0.045688 -0.231619
    8 7.109930 0.000000 0.000000 -0.081154 -0.003131 -0.631749
    9 0.000005 3.345128 -2.981901 1.645592 0.005351 1.549813
    10 4.018331 0.000000 0.000000 -0.228453 0.011757 0.293945
    11 3.518565 0.000000 0.000000 -0.220081 0.055932 0.394029
    12 8.942642 0.000000 0.000000 -0.000527 0.050179 0.263862
    13 3.306641 0.000001 0.000000 3.138800 0.000567 0.400476
    14 3.593712 -0.000001 0.000000 0.431680 -0.008503 1.041558
    15 2.033346 1.000768 1.101697 1.848180 -1.411864 2.688434
    16 6.809416 0.000001 0.000000 -1.588985 -0.665300 -1.274885
    17 12.391796 0.000000 0.000001 0.000000 0.000000 -1.796997
    18 9.337076 0.000000 -0.000031 -0.042494 0.412215 0.235628
    19 4.454020 -0.070210 0.572073 0.096293 -0.007832 -0.804082
    20 1.426597 -0.000001 0.000000 0.023861 -0.079623 -1.125947
    21 1.322468 -0.000002 0.000000 0.009312 -0.033625 -0.575065
    22 4.477066 -0.028570 1.582474 0.476656 -0.055423 -1.136099
    23 1.344418 0.000000 0.000000 0.023466 -0.208305 -0.755723
    24 1.224671 0.000000 0.000000 0.026043 -0.124620 -0.538676
    25 2.630323 -0.345015 1.907214 -0.354022 -0.915164 -1.788195
    26 1.059292 0.000000 0.000001 0.000551 0.000004 0.000021
    27 0.781203 0.000000 0.000000 -0.000467 0.006940 -0.135953
    28 2.033353 1.000771 -1.101647 -2.784590 1.401436 1.822280
    29 6.809417 0.000001 0.000000 1.441759 0.470612 -0.909695
    30 12.391794 0.000000 0.000001 0.000000 0.000000 -1.924846
    31 9.337102 0.000000 0.000003 -1.381241 -0.441539 0.015872
    32 4.453986 -0.073766 -0.571672 0.047699 -0.153453 -0.767464
    33 1.426599 0.000002 0.000000 -0.053883 0.078890 -1.553256
    34 1.322465 -0.000001 0.000000 -0.013603 0.036958 -0.732277
    35 4.477036 -0.043465 -1.581290 -0.332128 -0.154804 0.170747
    36 1.344414 0.000000 0.000000 -0.042629 0.220735 -0.851579
    37 1.224670 0.000001 0.000000 0.008150 -0.000004 -0.000025
    38 2.630291 -0.359835 -1.904289 0.415078 0.423437 -0.720800
    39 1.059293 0.000000 0.000000 0.015101 0.038905 0.767148
    40 0.781204 0.000000 0.000000 0.004782 0.022537 0.418308
    41 -0.044717 2.528787 4.661499 0.033802 -0.050636 -0.027615
  time 4
    0 0.294535 -30.342245 38.175824 1.455001 0.005220 0.001717
    1 3.890452 -0.000004 -0.000003 -1.800804 -0.370859 -1.553307
    2 17.848177 0.000000 0.000000 0.000000 0.000000 0.486263
    3 15.638507 0.000000 0.000000 0.337451 -0.034518 -1.193721
    4 7.109929 0.000000 0.000000 -0.007119 -0.003131 -0.631738
    5 -3.890452 0.000004 0.000007 -1.322239 0.589276 -1.604590
    6 17.848173 0.000000 0.000000 0.000000 0.000000 0.783501
    7 15.638511 0.000000 0.000000 -0.030042 0.060439 -0.302861
    8 7.109930 0.000000 0.000000 -0.081154 -0.003131 -0.631749
    9 -0.019527 3.345128 -2.981901 1.664507 -0.011098 1.549518
    10 4.018331 0.000000 0.000000 -0.228114 0.012596 0.311634
    11 3.518565 0.000000 0.000000 -0.220081 0.055932 0.394029
    12 8.942642 0.000000 0.000000 -0.000236 0.050132 0.269825
    13 3.306641 0.000001 0.000000 3.138800 0.000567 0.400476
    14 3.593712 -0.000001 0.000000 0.405649 -0.031609 1.064388
    15 2.033346 1.000768 1.101697 1.848180 -1.411864 2.688434
    16 6.809416 0.000001 0.000000 -1.634984 -0.757446 -1.195274
    17 12.391796 0.000000 0.000001 0.000000 0.000000 -1.765221
    18 9.337076 0.000000 -0.000031 -0.066672 0.422869 0.261706
    19 4.454020 -0.070210 0.572073 0.096293 -0.007832 -0.804082
    20 1.426597 -0.000001 0.000000 0.023861 -0.079623 -1.125947
    21 1.322468 -0.000002 0.000000 0.009312 -0.033625 -0.575065
    22 4.477066 -0.028570 1.582474 0.476656 -0.055423 -1.136099
    23 1.344418 0.000000 0.000000 0.023466 -0.208305 -0.755723
    24 1.224671 0.000000 0.000000 0.026043 -0.124620 -0.538676
    25 2.630323 -0.345015 1.907214 -0.354022 -0.915164 -1.788195
    26 1.059292 0.000000 0.000001 0.000551 0.000004 0.000021
    27 0.781203 0.000000 0.000000 -0.000467 0.006940 -0.135953
    28 2.033353 1.000771 -1.101647 -2.784590 1.401436 1.822280
    29 6.809417 0.000001 0.000000 1.463054 0.548004 -0.930685
    30 12.391794 0.000000 0.000001 0.000000 0.000000 -1.885846
    31 9.337102 0.000000 0.000003 -1.371064 -0.445498 0.016562
    32 4.453986 -0.073766 -0.571672 0.047699 -0.153453 -0.767464
    33 1.426599 0.000002 0.000000 -0.053883 0.078890 -1.553256
    34 1.322465 -0.000001 0.000000 -0.013603 0.036958 -0.732277
    35 4.477036 -0.043465 -1.581290 -0.332128 -0.154804 0.170747
    36 1.344414 0.000000 0.000000 -0.042629 0.220735 -0.851579
    37 1.224670 0.000001 0.000000 0.008150 -0.000004 -0.000025
    38 2.630291 -0.359835 -1.904289 0.415078 0.423437 -0.720800
    39 1.059293 0.000000 0.000000 0.015101 0.038905 0.767148
    40 0.781204 0.000000 0.000000 0.004782 0.022537 0.418308
    41 -0.044717 2.528787 4.661499 0.049548 -0.026621 -0.027215
  time 5
    0 0.525011 -37.922729 37.692102 1.434781 -0.008962 0.010522
    1 3.890452 -0.000004 -0.000003 -1.836116 -0.222957 -1.561932
    2 17.848177 0.000000 0.000000 0.000000 0.000000 0.373686
    3 15.638507 0.000000 0.000000 0.260732 0.113671 -1.132880
    4 7.109929 0.000000 0.000000 -0.006760 -0.003574 -0.741716
    5 -3.890452 0.000004 0.000007 -1.333871 0.481278 -1.648484
    6 17.848173 0.000000 0.000000 0.000000 0.000000 1.050846
    7 15.638511 0.000000 0.000000 -0.016793 0.146542 -0.390434
    8 7.109930 0.000000 0.000000 -0.081154 -0.003131 -0.631749
    9 0.027350 3.345128 -2.981901 1.681374 -0.026980 1.528475
    10 4.018331 0.000000 0.000000 -0.227820 0.012692 0.327427
    11 3.518565 0.000000 0.000000 -0.220081 0.055932 0.394029
    12 8.942642 0.000000 0.000000 0.000000 0.050084 0.275103
    13 3.306641 0.000001 0.000000 3.138800 0.000567 0.400476
    14 3.593712 -0.000001 0.000000 0.379365 -0.059319 1.093850
    15 2.033346 1.000768 1.101697 1.848180 -1.411864 2.688434
    16 6.809416 0.000001 0.000000 -1.695614 -0.848415 -1.109699
    17 12.391796 0.000000 0.000001 0.000000 0.000000 -1.726034
    18 9.337076 0.000000 -0.000031 -0.083445 0.439277 0.287035
    19 4.454020 -0.070210 0.572073 0.096293 -0.007832 -0.804082
    20 1.426597 -0.000001 0.000000 0.023861 -0.079623 -1.125947
    21 1.322468 -0.000002 0.000000 0.009312 -0.033625 -0.575065
    22 4.477066 -0.028570 1.582474 0.476656 -0.055423 -1.136099
    23 1.344418 0.000000 0.000000 0.023466 -0.208305 -0.755723
    24 1.224671 0.000000 0.000000 0.026043 -0.124620 -0.538676
    25 2.630323 -0.345015 1.907214 -0.354022 -0.915164 -1.788195
    26 1.059292 0.000000 0.000001 0.000551 0.000004 0.000021
    27 0.781203 0.000000 0.000000 -0.000467 0.006940 -0.135953
    28 2.033353 1.000771 -1.101647 -2.784590 1.401436 1.822280
    29 6.809417 0.000001 0.000000 1.483782 0.627455 -0.942900
    30 12.391794 0.000000 0.000001 0.000000 0.000000 -1.842752
    31 9.337102 0.000000 0.000003 -1.353527 -0.445651 0.011900
    32 4.453986 -0.073766 -0.571672 0.047699 -0.153453 -0.767464
    33 1.426599 0.000002 0.000000 -0.053883 0.078890 -1.553256
    34 1.322465 -0.000001 0.000000 -0.013603 0.036958 -0.732277
    35 4.477036 -0.043465 -1.581290 -0.332128 -0.154804 0.170747
    36 1.344414 0.000000 0.000000 -0.042629 0.220735 -0.851579
    37 1.224670 0.000001 0.000000 0.008150 -0.000004 -0.000025
    38 2.630291 -0.359835 -1.904289 0.415078 0.423437 -0.720800
    39 1.059293 0.000000 0.000000 0.015101 0.038905 0.767148
    40 0.781204 0.000000 0.000000 0.004782 0.022537 0.418308
    41 -0.044717 2.528787 4.661499 0.064774 0.012548 -0.038998
  time 6
    0 0.677359 -45.503213 37.146629 1.462477 -0.007854 0.024879
    1 3.890452 -0.000004 -0.000003 -1.876678 -0.075670 -1.540561
    2 17.848177 0.000000 0.000000 0.000000 0.000000 0.413260
    3 15.638507 0.000000 0.000000 0.213320 0.276442 -1.127048
    4 7.109929 0.000000 0.000000 -0.006340 -0.003982 -0.851658
    5 -3.890452 0.000004 0.000007 -1.337780 0.377364 -1.665701
    6 17.848173 0.000000 0.000000 0.000000 0.000000 1.261570
    7 15.638511 0.000000 0.000000 -0.009196 0.221495 -0.496916
    8 7.109930 0.000000 0.000000 -0.081154 -0.003131 -0.631749
    9 0.027350 3.345128 -2.981901 1.693552 -0.040395 1.523510
    10 4.018331 0.000000 0.000000 -0.227662 0.011841 0.338889
    11 3.518565 0.000000 0.000000 -0.220081 0.055932 0.394029
    12 8.942642 0.000000 0.000000 0.000180 0.050036 0.278867
    13 3.306641 0.000001 0.000000 3.138800 0.000567 0.400476
    14 3.593712 -0.000001 0.000000 0.355317 -0.085166 1.120919
    15 2.033346 1.000768 1.101697 1.848180 -1.411864 2.688434
    16 6.809416 0.000001 0.000000 -1.772502 -0.919436 -1.015888
    17 12.391796 0.000000 0.000001 0.000000 0.000000 -1.690789
    18 9.337076 0.000000 -0.000031 -0.099505 0.461109 0.307575
    19 4.454020 -0.070210 0.572073 0.096293 -0.007832 -0.804082
    20 1.426597 -0.000001 0.000000 0.023861 -0.079623 -1.125947
    21 1.322468 -0.000002 0.000000 0.009312 -0.033625 -0.575065
    22 4.477066 -0.028570 1.582474 0.476656 -0.055423 -1.136099
    23 1.344418 0.000000 0.000000 0.023466 -0.208305 -0.755723
    24 1.224671 0.000000 0.000000 0.026043 -0.124620 -0.538676
    25 2.630323 -0.345015 1.907214 -0.354022 -0.915164 -1.788195
    26 1.059292 0.000000 0.000001 0.000551 0.000004 0.000021
    27 0.781203 0.000000 0.000000 -0.000467 0.006940 -0.135953
    28 2.033353 1.000771 -1.101647 -2.784590 1.401436 1.822280
    29 6.809417 0.000001 0.000000 1.491828 0.698191 -0.958470
    30 12.391794 0.000000 0.000001 0.000000 0.000000 -1.805332
    31 9.337102 0.000000 0.000003 -1.340981 -0.442605 0.013540
    32 4.453986 -0.073766 -0.571672 0.047699 -0.153453 -0.767464
    33 1.426599 0.000002 0.000000 -0.053883 0.078890 -1.553256
    34 1.322465 -0.000001 0.000000 -0.013603 0.036958 -0.732277
    35 4.477036 -0.043465 -1.581290 -0.332128 -0.154804 0.170747
    36 1.344414 0.000000 0.000000 -0.042629 0.220735 -0.851579
    37 1.224670 0.000001 0.000000 0.008150 -0.000004 -0.000025
    38 2.630291 -0.359835 -1.904289 0.415078 0.423437 -0.720800
    39 1.059293 0.000000 0.000000 0.015101 0.038905 0.767148
    40 0.781204 0.000000 0.000000 0.004782 0.022537 0.418308
    41 -0.044717 2.528787 4.661499 0.078048 0.055338 -0.035070
  time 7
    0 0.603138 -53.083697 36.920206 1.496969 -0.005082 0.040097
    1 3.890452 -0.000004 -0.000003 -1.846614 0.140126 -1.541136
    2 17.848177 0.000000 0.000000 0.000000 0.000000 0.335136
    3 15.638507 0.000000 0.000000 0.176480 0.296863 -1.214901
    4 7.109929 0.000000 0.000000 -0.006760 -0.003574 -0.741716
    5 -3.890452 0.000004 0.000007 -1.334347 0.228627 -1.676959
    6 17.848173 0.000000 0.000000 0.000000 0.000000 1.437038
    7 15.638511 0.000000 0.000000 -0.014199 0.238697 -0.643985
    8 7.109930 0.000000 0.000000 -0.081154 -0.003131 -0.631749
    9 0.019537 3.345128 -2.981901 1.698294 -0.049385 1.522919
    10 4.018331 0.000000 0.000000 -0.227662 0.009839 0.343655
    11 3.518565 0.000000 0.000000 -0.220081 0.055932 0.394029
    12 8.942642 0.000000 0.000000 0.000250 0.050024 0.280310
    13 3.306641 0.000001 0.000000 3.138800 0.000567 0.400476
    14 3.593712 -0.000001 0.000000 0.336585 -0.104696 1.139133
    15 2.033346 1.000768 1.101697 1.848180 -1.411864 2.688434
    16 6.809416 0.000001 0.000000 -1.843556 -0.960363 -0.939117
    17 12.391796 0.000000 0.000001 0.000000 0.000000 -1.666740
    18 9.337076 0.000000 -0.000031 -0.108784 0.485277 0.326095
    19 4.454020 -0.070210 0.572073 0.096293 -0.007832 -0.804082
    20 1.426597 -0.000001 0.000000 0.023861 -0.079623 -1.125947
    21 1.322468 -0.000002 0.000000 0.009312 -0.033625 -0.575065
    22 4.477066 -0.028570 1.582474 0.476656 -0.055423 -1.136099
    23 1.344418 0.000000 0.000000 0.023466 -0.208305 -0.755723
    24 1.224671 0.000000 0.000000 0.026043 -0.124620 -0.538676
    25 2.630323 -0.345015 1.907214 -0.354022 -0.915164 -1.788195
    26 1.059292 0.000000 0.000001 0.000551 0.000004 0.000021
    27 0.781203 0.000000 0.000000 -0.000467 0.006940 -0.135953
    28 2.033353 1.000771 -1.101647 -2.784590 1.401436 1.822280
    29 6.809417 0.000001 0.000000 1.484445 0.747201 -0.973525
    30 12.391794 0.000000 0.000001 0.000000 0.000000 -1.778829
    31 9.337102 0.000000 0.000003 -1.330164 -0.433163 0.018721
    32 4.453986 -0.073766 -0.571672 0.047699 -0.153453 -0.767464
    33 1.426599 0.000002 0.000000 -0.053883 0.078890 -1.553256
    34 1.322465 -0.000001 0.000000 -0.013603 0.036958 -0.732277
    35 4.477036 -0.043465 -1.581290 -0.332128 -0.154804 0.170747
    36 1.344414 0.000000 0.000000 -0.042629 0.220735 -0.851579
    37 1.224670 0.000001 0.000000 0.008150 -0.000004 -0.000025
    38 2.630291 -0.359835 -1.904289 0.415078 0.423437 -0.720800
    39 1.059293 0.000000 0.000000 0.015101 0.038905 0.767148
    40 0.781204 0.000000 0.000000 0.004782 0.022537 0.418308
    41 -0.044717 2.528787 4.661499 0.086702 0.093013 -0.037034
  time 8
    0 0.310161 -60.664180 36.930498 1.534095 -0.002033 0.055793
    1 3.890452 -0.000004 -0.000003 -1.784006 0.215259 -1.510853
    2 17.848177 0.000000 0.000000 0.000000 0.000000 0.456930
    3 15.638507 0.000000 0.000000 0.203572 0.237918 -1.092344
    4 7.109929 0.000000 0.000000 -0.005609 -0.004521 -1.022700
    5 -3.890452 0.000004 0.000007 -1.315660 -0.030027 -1.690108
    6 17.848173 0.000000 0.000000 0.000000 0.000000 1.540694
    7 15.638511 0.000000 0.000000 -0.023834 0.108633 -0.883594
    8 7.109930 0.000000 0.000000 -0.081154 -0.003131 -0.631749
    9 0.007818 3.345128 -2.981901 1.662136 -0.039601 1.535036
    10 4.018331 0.000000 0.000000 -0.228498 -0.000839 0.311999
    11 3.518565 0.000000 0.000000 -0.220081 0.055932 0.394029
    12 8.942642 0.000000 0.000000 -0.000291 0.050132 0.268911
    13 3.306641 0.000001 0.000000 3.138800 0.000567 0.400476
    14 3.593712 -0.000001 0.000000 0.355064 -0.088036 1.097585
    15 2.033346 1.000768 1.101697 1.848180 -1.411864 2.688434
    16 6.809416 0.000001 0.000000 -1.840782 -0.874442 -0.991276
    17 12.391796 0.000000 0.000001 0.000000 0.000000 -1.710974
    18 9.337076 0.000000 -0.000031 -0.096114 0.519144 0.353789
    19 4.454020 -0.070210 0.572073 0.096293 -0.007832 -0.804082
    20 1.426597 -0.000001 0.000000 0.023861 -0.079623 -1.125947
    21 1.322468 -0.000002 0.000000 0.009312 -0.033625 -0.575065
    22 4.477066 -0.028570 1.582474 0.476656 -0.055423 -1.136099
    23 1.344418 0.000000 0.000000 0.023466 -0.208305 -0.755723
    24 1.224671 0.000000 0.000000 0.026043 -0.124620 -0.538676
    25 2.630323 -0.345015 1.907214 -0.354022 -0.915164 -1.788195
    26 1.059292 0.000000 0.000001 0.000551 0.000004 0.000021
    27 0.781203 0.000000 0.000000 -0.000467 0.006940 -0.135953
    28 2.033353 1.000771 -1.101647 -2.784590 1.401436 1.822280
    29 6.809417 0.000001 0.000000 1.395192 0.711067 -0.992536
    30 12.391794 0.000000 0.000001 0.000000 0.000000 -1.788740
    31 9.337102 0.000000 0.000003 -1.321716 -0.390638 0.038753
    32 4.453986 -0.073766 -0.571672 0.047699 -0.153453 -0.767464
    33 1.426599 0.000002 0.000000 -0.053883 0.078890 -1.553256
    34 1.322465 -0.000001 0.000000 -0.013603 0.036958 -0.732277
    35 4.477036 -0.043465 -1.581290 -0.332128 -0.154804 0.170747
    36 1.344414 0.000000 0.000000 -0.042629 0.220735 -0.851579
    37 1.224670 0.000001 0.000000 0.008150 -0.000004 -0.000025
    38 2.630291 -0.359835 -1.904289 0.415078 0.423437 -0.720800
    39 1.059293 0.000000 0.000000 0.015101 0.038905 0.767148
    40 0.781204 0.000000 0.000000 0.004782 0.022537 0.418308
    41 -0.044717 2.528787 4.661499 0.074469 0.107753 -0.056193
  time 9
    0 0.017183 -68.244664 37.331884 1.569946 0.000000 0.071585
    1 3.890452 -0.000004 -0.000003 -1.676638 0.543898 -1.554362
    2 17.848177 0.000000 0.000000 0.000000 0.000000 0.104423
    3 15.638507 0.000000 0.000000 0.103622 0.126646 -1.023301
    4 7.109929 0.000000 0.000000 -0.007119 -0.003131 -0.631738
    5 -3.890452 0.000004 0.000007 -1.282195 -0.336062 -1.713569
    6 17.848173 0.000000 0.000000 0.000000 0.000000 1.610231
    7 15.638511 0.000000 0.000000 0.033979 -0.076134 -1.174771
    8 7.109930 0.000000 0.000000 -0.081154 -0.003131 -0.631749
    9 0.000005 3.345128 -2.981901 1.602159 -0.018444 1.552591
    10 4.018331 0.000000 0.000000 -0.229176 -0.016910 0.258862
    11 3.518565 0.000000 0.000000 -0.220081 0.055932 0.394029
    12 8.942642 0.000000 0.000000 -0.001207 0.050299 0.249895
    13 3.306641 0.000001 0.000000 3.138800 0.000567 0.400476
    14 3.593712 -0.000001 0.000000 0.395650 -0.049490 1.020280
    15 2.033346 1.000768 1.101697 1.848180 -1.411864 2.688434
    16 6.809416 0.000001 0.000000 -1.824621 -0.712157 -1.092659
    17 12.391796 0.000000 0.000001 0.000000 0.000000 -1.785879
    18 9.337076 0.000000 -0.000031 -0.071847 0.561133 0.379925
    19 4.454020 -0.070210 0.572073 0.096293 -0.007832 -0.804082
    20 1.426597 -0.000001 0.000000 0.023861 -0.079623 -1.125947
    21 1.322468 -0.000002 0.000000 0.009312 -0.033625 -0.575065
    22 4.477066 -0.028570 1.582474 0.476656 -0.055423 -1.136099
    23 1.344418 0.000000 0.000000 0.023466 -0.208305 -0.755723
    24 1.224671 0.000000 0.000000 0.026043 -0.124620 -0.538676
    25 2.630323 -0.345015 1.907214 -0.354022 -0.915164 -1.788195
    26 1.059292 0.000000 0.000001 0.000551 0.000004 0.000021
    27 0.781203 0.000000 0.000000 -0.000467 0.006940 -0.135953
    28 2.033353 1.000771 -1.101647 -2.784590 1.401436 1.822280
    29 6.809417 0.000001 0.000000 1.262778 0.627105 -1.006902
    30 12.391794 0.000000 0.000001 0.000000 0.000000 -1.817685
    31 9.337102 0.000000 0.000003 -1.312819 -0.328773 0.067161
    32 4.453986 -0.073766 -0.571672 0.047699 -0.153453 -0.767464
    33 1.426599 0.000002 0.000000 -0.053883 0.078890 -1.553256
    34 1.322465 -0.000001 0.000000 -0.013603 0.036958 -0.732277
    35 4.477036 -0.043465 -1.581290 -0.332128 -0.154804 0.170747
    36 1.344414 0.000000 0.000000 -0.042629 0.220735 -0.851579
    37 1.224670 0.000001 0.000000 0.008150 -0.000004 -0.000025
    38 2.630291 -0.359835 -1.904289 0.415078 0.423437 -0.720800
    39 1.059293 0.000000 0.000000 0.015101 0.038905 0.767148
    40 0.781204 0.000000 0.000000 0.004782 0.022537 0.418308
    41 -0.044717 2.528787 4.661499 0.050980 0.114424 -0.075151
  time 10
    0 -0.166416 -75.825148 37.599475 1.554739 0.016770 0.035885
    1 3.890452 -0.000004 -0.000003 -1.727602 0.479126 -1.551966
    2 17.848177 0.000000 0.000000 0.000000 0.000000 0.468780
    3 15.638507 0.000000 0.000000 0.193444 0.118681 -0.938400
    4 7.109929 0.000000 0.000000 -0.007119 -0.003131 -0.631738
    5 -3.890452 0.000004 0.000007 -1.327101 -0.439189 -1.665796
    6 17.848173 0.000000 0.000000 0.000000 0.000000 1.498939
    7 15.638511 0.000000 0.000000 -0.029023 -0.069489 -1.359181
    8 7.109930 0.000000 0.000000 -0.081154 -0.003131 -0.631749
    9 -0.050778 3.345128 -2.981901 1.601404 -0.010474 1.570146
    10 4.018331 0.000000 0.000000 -0.229154 -0.013806 0.257471
    11 3.518565 0.000000 0.000000 -0.220081 0.055932 0.394029
    12 8.942642 0.000000 0.000000 -0.001221 0.050311 0.249684
    13 3.306641 0.000001 0.000000 3.138800 0.000567 0.400476
    14 3.593712 -0.000001 0.000000 0.429148 -0.025977 1.009747
    15 2.033346 1.000768 1.101697 1.848180 -1.411864 2.688434
    16 6.809416 0.000001 0.000000 -1.812858 -0.694169 -1.109036
    17 12.391796 0.000000 0.000001 0.000000 0.000000 -1.792266
    18 9.337076 0.000000 -0.000031 -0.080412 0.542917 0.346000
    19 4.454020 -0.070210 0.572073 0.096293 -0.007832 -0.804082
    20 1.426597 -0.000001 0.000000 0.023861 -0.079623 -1.125947
    21 1.322468 -0.000002 0.000000 0.009312 -0.033625 -0.575065
    22 4.477066 -0.028570 1.582474 0.476656 -0.055423 -1.136099
    23 1.344418 0.000000 0.000000 0.023466 -0.208305 -0.755723
    24 1.224671 0.000000 0.000000 0.026043 -0.124620 -0.538676
    25 2.630323 -0.345015 1.907214 -0.354022 -0.915164 -1.788195
    26 1.059292 0.000000 0.000001 0.000551 0.000004 0.000021
    27 0.781203 0.000000 0.000000 -0.000467 0.006940 -0.135953
    28 2.033353 1.000771 -1.101647 -2.784590 1.401436 1.822280
    29 6.809417 0.000001 0.000000 1.273663 0.622857 -1.001396
    30 12.391794 0.000000 0.000001 0.000000 0.000000 -1.818763
    31 9.337102 0.000000 0.000003 -1.332341 -0.347390 0.062067
    32 4.453986 -0.073766 -0.571672 0.047699 -0.153453 -0.767464
    33 1.426599 0.000002 0.000000 -0.053883 0.078890 -1.553256
    34 1.322465 -0.000001 0.000000 -0.013603 0.036958 -0.732277
    35 4.477036 -0.043465 -1.581290 -0.332128 -0.154804 0.170747
    36 1.344414 0.000000 0.000000 -0.042629 0.220735 -0.851579
    37 1.224670 0.000001 0.000000 0.008150 -0.000004 -0.000025
    38 2.630291 -0.359835 -1.904289 0.415078 0.423437 -0.720800
    39 1.059293 0.000000 0.000000 0.015101 0.038905 0.767148
    40 0.781204 0.000000 0.000000 0.004782 0.022537 0.418308
    41 -0.044717 2.528787 4.661499 0.040048 0.117378 -0.065932
  time 11
    0 -0.365641 -83.405632 38.186115 1.539532 0.034879 -0.000484
    1 3.890452 -0.000004 -0.000003 -1.780761 0.486791 -1.541136
    2 17.848177 0.000000 0.000000 0.000000 0.000000 0.710246
    3 15.638507 0.000000 0.000000 0.275544 0.076493 -0.779280
    4 7.109929 0.000000 0.000000 -0.007119 -0.003131 -0.631738
    5 -3.890452 0.000004 0.000007 -1.355323 -0.509843 -1.609888
    6 17.848173 0.000000 0.000000 0.000000 0.000000 1.318841
    7 15.638511 0.000000 0.000000 -0.091561 -0.085508 -1.470724
    8 7.109930 0.000000 0.000000 -0.081154 -0.003131 -0.631749
    9 -0.113280 3.345128 -2.981901 1.599626 -0.001087 1.590006
    10 4.018331 0.000000 0.000000 -0.229176 -0.010522 0.255088
    11 3.518565 0.000000 0.000000 -0.220081 0.055932 0.394029
    12 8.942642 0.000000 0.000000 -0.001249 0.050311 0.249138
    13 3.306641 0.000001 0.000000 3.138800 0.000567 0.400476
    14 3.593712 -0.000001 0.000000 0.465431 0.000898 0.996904
    15 2.033346 1.000768 1.101697 1.848180 -1.411864 2.688434
    16 6.809416 0.000001 0.000000 -1.803199 -0.673289 -1.125507
    17 12.391796 0.000000 0.000001 0.000000 0.000000 -1.796760
    18 9.337076 0.000000 -0.000031 -0.089869 0.524372 0.307517
    19 4.454020 -0.070210 0.572073 0.096293 -0.007832 -0.804082
    20 1.426597 -0.000001 0.000000 0.023861 -0.079623 -1.125947
    21 1.322468 -0.000002 0.000000 0.009312 -0.033625 -0.575065
    22 4.477066 -0.028570 1.582474 0.476656 -0.055423 -1.136099
    23 1.344418 0.000000 0.000000 0.023466 -0.208305 -0.755723
    24 1.224671 0.000000 0.000000 0.026043 -0.124620 -0.538676
    25 2.630323 -0.345015 1.907214 -0.354022 -0.915164 -1.788195
    26 1.059292 0.000000 0.000001 0.000551 0.000004 0.000021
    27 0.781203 0.000000 0.000000 -0.000467 0.006940 -0.135953
    28 2.033353 1.000771 -1.101647 -2.784590 1.401436 1.822280
    29 6.809417 0.000001 0.000000 1.282749 0.620360 -0.996665
    30 12.391794 0.000000 0.000001 0.000000 0.000000 -1.817470
    31 9.337102 0.000000 0.000003 -1.353270 -0.367149 0.057404
    32 4.453986 -0.073766 -0.571672 0.047699 -0.153453 -0.767464
    33 1.426599 0.000002 0.000000 -0.053883 0.078890 -1.553256
    34 1.322465 -0.000001 0.000000 -0.013603 0.036958 -0.732277
    35 4.477036 -0.043465 -1.581290 -0.332128 -0.154804 0.170747
    36 1.344414 0.000000 0.000000 -0.042629 0.220735 -0.851579
    37 1.224670 0.000001 0.000000 0.008150 -0.000004 -0.000025
    38 2.630291 -0.359835 -1.904289 0.415078 0.423437 -0.720800
    39 1.059293 0.000000 0.000000 0.015101 0.038905 0.767148
    40 0.781204 0.000000 0.000000 0.004782 0.022537 0.418308
    41 -0.044717 2.528787 4.661499 0.026904 0.119634 -0.057355
  time 12
    0 -0.557053 -90.986116 38.525750 1.526279 0.048785 -0.029772
    1 3.890452 -0.000004 -0.000003 -1.802044 0.382275 -1.498490
    2 17.848177 0.000000 0.000000 0.000000 0.000000 0.985800
    3 15.638507 0.000000 0.000000 0.321563 0.009560 -0.799694
    4 7.109929 0.000000 0.000000 -0.007119 -0.003131 -0.631738
    5 -3.890452 0.000004 0.000007 -1.308414 -0.507776 -1.558425
    6 17.848173 0.000000 0.000000 0.000000 0.000000 0.914046
    7 15.638511 0.000000 0.000000 -0.095637 -0.163056 -1.381623
    8 7.109930 0.000000 0.000000 -0.081154 -0.003131 -0.631749
    9 -0.160156 3.345128 -2.981901 1.597524 0.008896 1.606260
    10 4.018331 0.000000 0.000000 -0.229176 -0.007155 0.252322
    11 3.518565 0.000000 0.000000 -0.220081 0.055932 0.394029
    12 8.942642 0.000000 0.000000 -0.001277 0.050311 0.248470
    13 3.306641 0.000001 0.000000 3.138800 0.000567 0.400476
    14 3.593712 -0.000001 0.000000 0.497495 0.025932 0.985321
    15 2.033346 1.000768 1.101697 1.848180 -1.411864 2.688434
    16 6.809416 0.000001 0.000000 -1.792106 -0.651429 -1.144535
    17 12.391796 0.000000 0.000001 0.000000 0.000000 -1.799362
    18 9.337076 0.000000 -0.000031 -0.097185 0.505203 0.267880
    19 4.454020 -0.070210 0.572073 0.096293 -0.007832 -0.804082
    20 1.426597 -0.000001 0.000000 0.023861 -0.079623 -1.125947
    21 1.322468 -0.000002 0.000000 0.009312 -0.033625 -0.575065
    22 4.477066 -0.028570 1.582474 0.476656 -0.055423 -1.136099
    23 1.344418 0.000000 0.000000 0.023466 -0.208305 -0.755723
    24 1.224671 0.000000 0.000000 0.026043 -0.124620 -0.538676
    25 2.630323 -0.345015 1.907214 -0.354022 -0.915164 -1.788195
    26 1.059292 0.000000 0.000001 0.000551 0.000004 0.000021
    27 0.781203 0.000000 0.000000 -0.000467 0.006940 -0.135953
    28 2.033353 1.000771 -1.101647 -2.784590 1.401436 1.822280
    29 6.809417 0.000001 0.000000 1.292119 0.617031 -0.990127
    30 12.391794 0.000000 0.000001 0.000000 0.000000 -1.815962
    31 9.337102 0.000000 0.000003 -1.372984 -0.386983 0.052223
    32 4.453986 -0.073766 -0.571672 0.047699 -0.153453 -0.767464
    33 1.426599 0.000002 0.000000 -0.053883 0.078890 -1.553256
    34 1.322465 -0.000001 0.000000 -0.013603 0.036958 -0.732277
    35 4.477036 -0.043465 -1.581290 -0.332128 -0.154804 0.170747
    36 1.344414 0.000000 0.000000 -0.042629 0.220735 -0.851579
    37 1.224670 0.000001 0.000000 0.008150 -0.000004 -0.000025
    38 2.630291 -0.359835 -1.904289 0.415078 0.423437 -0.720800
    39 1.059293 0.000000 0.000000 0.015101 0.038905 0.767148
    40 0.781204 0.000000 0.000000 0.004782 0.022537 0.418308
    41 -0.044717 2.528787 4.661499 0.016363 0.113121 -0.038517
  time 13
    0 -0.752372 -98.566600 38.175824 1.515489 0.053035 -0.049392
    1 3.890452 -0.000004 -0.000003 -1.821609 0.261248 -1.459677
    2 17.848177 0.000000 0.000000 0.000000 0.000000 1.255721
    3 15.638507 0.000000 0.000000 0.356220 -0.066354 -0.850474
    4 7.109929 0.000000 0.000000 -0.007119 -0.003131 -0.631738
    5 -3.890452 0.000004 0.000007 -1.256453 -0.429988 -1.506774
    6 17.848173 0.000000 0.000000 0.000000 0.000000 0.460266
    7 15.638511 0.000000 0.000000 -0.089522 -0.232775 -1.196354
    8 7.109930 0.000000 0.000000 -0.081154 -0.003131 -0.631749
    9 -0.171875 3.341221 -2.981901 1.595584 0.018596 1.612880
    10 4.018331 0.000000 0.000000 -0.229222 -0.003835 0.249731
    11 3.518565 0.000000 0.000000 -0.220081 0.055932 0.394029
    12 8.942642 0.000000 0.000000 -0.001304 0.050323 0.247872
    13 3.306641 0.000001 0.000000 3.138800 0.000567 0.400476
    14 3.593712 -0.000001 0.000000 0.518463 0.043684 0.978103
    15 2.033346 1.000768 1.101697 1.848180 -1.411864 2.688434
    16 6.809416 0.000001 0.000000 -1.776518 -0.630353 -1.168390
    17 12.391796 0.000000 0.000001 0.000000 0.000000 -1.800387
    18 9.337076 0.000000 -0.000031 -0.099594 0.485606 0.230781
    19 4.454020 -0.070210 0.572073 0.096293 -0.007832 -0.804082
    20 1.426597 -0.000001 0.000000 0.023861 -0.079623 -1.125947
    21 1.322468 -0.000002 0.000000 0.009312 -0.033625 -0.575065
    22 4.477066 -0.028570 1.582474 0.476656 -0.055423 -1.136099
    23 1.344418 0.000000 0.000000 0.023466 -0.208305 -0.755723
    24 1.224671 0.000000 0.000000 0.026043 -0.124620 -0.538676
    25 2.630323 -0.345015 1.907214 -0.354022 -0.915164 -1.788195
    26 1.059292 0.000000 0.000001 0.000551 0.000004 0.000021
    27 0.781203 0.000000 0.000000 -0.000467 0.006940 -0.135953
    28 2.033353 1.000771 -1.101647 -2.784590 1.401436 1.822280
    29 6.809417 0.000001 0.000000 1.303950 0.610067 -0.979116
    30 12.391794 0.000000 0.000001 0.000000 0.000000 -1.816608
    31 9.337102 0.000000 0.000003 -1.389050 -0.405600 0.045575
    32 4.453986 -0.073766 -0.571672 0.047699 -0.153453 -0.767464
    33 1.426599 0.000002 0.000000 -0.053883 0.078890 -1.553256
    34 1.322465 -0.000001 0.000000 -0.013603 0.036958 -0.732277
    35 4.477036 -0.043465 -1.581290 -0.332128 -0.154804 0.170747
    36 1.344414 0.000000 0.000000 -0.042629 0.220735 -0.851579
    37 1.224670 0.000001 0.000000 0.008150 -0.000004 -0.000025
    38 2.630291 -0.359835 -1.904289 0.415078 0.423437 -0.720800
    39 1.059293 0.000000 0.000000 0.015101 0.038905 0.767148
    40 0.781204 0.000000 0.000000 0.004782 0.022537 0.418308
    41 -0.044717 2.528787 4.661499 0.010247 0.098763 -0.007335
  time 14
    0 -0.932065 -106.147083 37.609767 1.506824 0.044858 -0.060877
    1 3.890452 -0.000004 -0.000003 -1.845087 0.138706 -1.434377
    2 17.848177 0.000000 0.000000 0.000000 0.000000 1.493383
    3 15.638507 0.000000 0.000000 0.381255 -0.150446 -0.889917
    4 7.109929 0.000000 0.000000 -0.007119 -0.003131 -0.631738
    5 -3.890452 0.000004 0.000007 -1.291920 -0.139944 -1.451812
    6 17.848173 0.000000 0.000000 0.000000 0.000000 0.224765
    7 15.638511 0.000000 0.000000 -0.254622 -0.082869 -0.955600
    8 7.109930 0.000000 0.000000 -0.080231 -0.004102 -0.886555
    9 -0.148437 3.345128 -2.981901 1.594507 0.027161 1.606615
    10 4.018331 0.000000 0.000000 -0.229244 -0.000647 0.247956
    11 3.518565 0.000000 0.000000 -0.220081 0.055932 0.394029
    12 8.942642 0.000000 0.000000 -0.001332 0.050323 0.247520
    13 3.306641 0.000001 0.000000 3.138800 0.000567 0.400476
    14 3.593712 -0.000001 0.000000 0.524158 0.048802 0.979740
    15 2.033346 1.000768 1.101697 1.848180 -1.411864 2.688434
    16 6.809416 0.000001 0.000000 -1.754045 -0.611139 -1.198208
    17 12.391796 0.000000 0.000001 0.000000 0.000000 -1.800466
    18 9.337076 0.000000 -0.000031 -0.095222 0.466206 0.198991
    19 4.454020 -0.070210 0.572073 0.096293 -0.007832 -0.804082
    20 1.426597 -0.000001 0.000000 0.023861 -0.079623 -1.125947
    21 1.322468 -0.000002 0.000000 0.009312 -0.033625 -0.575065
    22 4.477066 -0.028570 1.582474 0.476656 -0.055423 -1.136099
    23 1.344418 0.000000 0.000000 0.023466 -0.208305 -0.755723
    24 1.224671 0.000000 0.000000 0.026043 -0.124620 -0.538676
    25 2.630323 -0.345015 1.907214 -0.354022 -0.915164 -1.788195
    26 1.059292 0.000000 0.000001 0.000551 0.000004 0.000021
    27 0.781203 0.000000 0.000000 -0.000467 0.006940 -0.135953
    28 2.033353 1.000771 -1.101647 -2.784590 1.401436 1.822280
    29 6.809417 0.000001 0.000000 1.319567 0.596796 -0.962513
    30 12.391794 0.000000 0.000001 0.000000 0.000000 -1.821707
    31 9.337102 0.000000 0.000003 -1.399803 -0.421894 0.036767
    32 4.453986 -0.073766 -0.571672 0.047699 -0.153453 -0.767464
    33 1.426599 0.000002 0.000000 -0.053883 0.078890 -1.553256
    34 1.322465 -0.000001 0.000000 -0.013603 0.036958 -0.732277
    35 4.477036 -0.043465 -1.581290 -0.332128 -0.154804 0.170747
    36 1.344414 0.000000 0.000000 -0.042629 0.220735 -0.851579
    37 1.224670 0.000001 0.000000 0.008150 -0.000004 -0.000025
    38 2.630291 -0.359835 -1.904289 0.415078 0.423437 -0.720800
    39 1.059293 0.000000 0.000000 0.015101 0.038905 0.767148
    40 0.781204 0.000000 0.000000 0.004782 0.022537 0.418308
    41 -0.044717 2.528787 4.661499 0.006148 0.083356 0.018557
  time 15
    0 -1.092226 -113.727567 37.115753 1.500707 0.028458 -0.063557
    1 3.890452 -0.000004 -0.000003 -1.874387 0.022647 -1.419426
    2 17.848177 0.000000 0.000000 0.000000 0.000000 1.672233
    3 15.638507 0.000000 0.000000 0.395244 -0.245339 -0.872784
    4 7.109929 0.000000 0.000000 -0.007119 -0.003131 -0.631738
    5 -3.890452 0.000004 0.000007 -1.303266 -0.062303 -1.512166
    6 17.848173 0.000000 0.000000 0.000000 0.000000 0.548406
    7 15.638511 0.000000 0.000000 -0.213023 -0.098251 -1.245059
    8 7.109930 0.000000 0.000000 -0.080842 -0.003514 -0.726007
    9 -0.093748 3.345128 -2.981901 1.594830 0.033712 1.591543
    10 4.018331 0.000000 0.000000 -0.229244 0.002253 0.247556
    11 3.518565 0.000000 0.000000 -0.220081 0.055932 0.394029
    12 8.942642 0.000000 0.000000 -0.001318 0.050323 0.247625
    13 3.306641 0.000001 0.000000 3.138800 0.000567 0.400476
    14 3.593712 -0.000001 0.000000 0.518336 0.043470 0.989266
    15 2.033346 1.000768 1.101697 1.848180 -1.411864 2.688434
    16 6.809416 0.000001 0.000000 -1.724208 -0.593347 -1.233044
    17 12.391796 0.000000 0.000001 0.000000 0.000000 -1.800939
    18 9.337076 0.000000 -0.000031 -0.084338 0.447793 0.173951
    19 4.454020 -0.070210 0.572073 0.096293 -0.007832 -0.804082
    20 1.426597 -0.000001 0.000000 0.023861 -0.079623 -1.125947
    21 1.322468 -0.000002 0.000000 0.009312 -0.033625 -0.575065
    22 4.477066 -0.028570 1.582474 0.476656 -0.055423 -1.136099
    23 1.344418 0.000000 0.000000 0.023466 -0.208305 -0.755723
    24 1.224671 0.000000 0.000000 0.026043 -0.124620 -0.538676
    25 2.630323 -0.345015 1.907214 -0.354022 -0.915164 -1.788195
    26 1.059292 0.000000 0.000001 0.000551 0.000004 0.000021
    27 0.781203 0.000000 0.000000 -0.000467 0.006940 -0.135953
    28 2.033353 1.000771 -1.101647 -2.784590 1.401436 1.822280
    29 6.809417 0.000001 0.000000 1.338402 0.574371 -0.941782
    30 12.391794 0.000000 0.000001 0.000000 0.000000 -1.833558
    31 9.337102 0.000000 0.000003 -1.405755 -0.435067 0.026924
    32 4.453986 -0.073766 -0.571672 0.047699 -0.153453 -0.767464
    33 1.426599 0.000002 0.000000 -0.053883 0.078890 -1.553256
    34 1.322465 -0.000001 0.000000 -0.013603 0.036958 -0.732277
    35 4.477036 -0.043465 -1.581290 -0.332128 -0.154804 0.170747
    36 1.344414 0.000000 0.000000 -0.042629 0.220735 -0.851579
    37 1.224670 0.000001 0.000000 0.008150 -0.000004 -0.000025
    38 2.630291 -0.359835 -1.904289 0.415078 0.423437 -0.720800
    39 1.059293 0.000000 0.000000 0.015101 0.038905 0.767148
    40 0.781204 0.000000 0.000000 0.004782 0.022537 0.418308
    41 -0.044717 2.528787 4.661499 0.003220 0.066996 0.033427
  time 16
    0 -1.225042 -121.308051 36.683491 1.498753 0.008824 -0.057527
    1 3.890452 -0.000004 -0.000003 -1.903782 -0.116691 -1.407064
    2 17.848177 0.000000 0.000000 0.000000 0.000000 1.804560
    3 15.638507 0.000000 0.000000 0.406385 -0.326288 -0.882335
    4 7.109929 0.000000 0.000000 -0.007119 -0.003131 -0.631738
    5 -3.890452 0.000004 0.000007 -1.313181 0.045547 -1.562304
    6 17.848173 0.000000 0.000000 0.000000 0.000000 0.719000
    7 15.638511 0.000000 0.000000 -0.195698 -0.068898 -1.192630
    8 7.109930 0.000000 0.000000 -0.079596 -0.004557 -1.033164
    9 -0.027340 3.345128 -2.981901 1.597093 0.037427 1.572451
    10 4.018331 0.000000 0.000000 -0.229222 0.004806 0.249139
    11 3.518565 0.000000 0.000000 -0.220081 0.055932 0.394029
    12 8.942642 0.000000 0.000000 -0.001291 0.050311 0.248347
    13 3.306641 0.000001 0.000000 3.138800 0.000567 0.400476
    14 3.593712 -0.000001 0.000000 0.506059 0.033577 1.001731
    15 2.033346 1.000768 1.101697 1.848180 -1.411864 2.688434
    16 6.809416 0.000001 0.000000 -1.663577 -0.558989 -1.293155
    17 12.391796 0.000000 0.000001 0.000000 0.000000 -1.811111
    18 9.337076 0.000000 -0.000031 -0.056947 0.428294 0.161085
    19 4.454020 -0.070210 0.572073 0.096293 -0.007832 -0.804082
    20 1.426597 -0.000001 0.000000 0.023861 -0.079623 -1.125947
    21 1.322468 -0.000002 0.000000 0.009312 -0.033625 -0.575065
    22 4.477066 -0.028570 1.582474 0.476656 -0.055423 -1.136099
    23 1.344418 0.000000 0.000000 0.023466 -0.208305 -0.755723
    24 1.224671 0.000000 0.000000 0.026043 -0.124620 -0.538676
    25 2.630323 -0.345015 1.907214 -0.354022 -0.915164 -1.788195
    26 1.059292 0.000000 0.000001 0.000551 0.000004 0.000021
    27 0.781203 0.000000 0.000000 -0.000467 0.006940 -0.135953
    28 2.033353 1.000771 -1.101647 -2.784590 1.401436 1.822280
    29 6.809417 0.000001 0.000000 1.361402 0.505826 -0.911415
    30 12.391794 0.000000 0.000001 0.000000 0.000000 -1.877443
    31 9.337102 0.000000 0.000003 -1.406651 -0.440207 0.019066
    32 4.453986 -0.073766 -0.571672 0.047699 -0.153453 -0.767464
    33 1.426599 0.000002 0.000000 -0.053883 0.078890 -1.553256
    34 1.322465 -0.000001 0.000000 -0.013603 0.036958 -0.732277
    35 4.477036 -0.043465 -1.581290 -0.332128 -0.154804 0.170747
    36 1.344414 0.000000 0.000000 -0.042629 0.220735 -0.851579
    37 1.224670 0.000001 0.000000 0.008150 -0.000004 -0.000025
    38 2.630291 -0.359835 -1.904289 0.415078 0.423437 -0.720800
    39 1.059293 0.000000 0.000000 0.015101 0.038905 0.767148
    40 0.781204 0.000000 0.000000 0.004782 0.022537 0.418308
    41 -0.044717 2.528787 4.661499 0.001723 0.049429 0.036233
  time 17
    0 -0.916439 -128.888535 36.858455 1.499603 -0.008962 -0.045851
    1 3.890452 -0.000004 -0.000003 -1.922584 -0.357043 -1.394030
    2 17.848177 0.000000 0.000000 0.000000 0.000000 1.856057
    3 15.638507 0.000000 0.000000 0.457310 -0.313691 -1.115674
    4 7.109929 0.000000 0.000000 -0.007119 -0.003131 -0.631738
    5 -3.890452 0.000004 0.000007 -1.315756 0.407230 -1.568926
    6 17.848173 0.000000 0.000000 0.000000 0.000000 0.326959
    7 15.638511 0.000000 0.000000 -0.085353 -0.159142 -0.936405
    8 7.109930 0.000000 0.000000 -0.078697 -0.004976 -1.219932
    9 0.027350 3.345128 -2.981901 1.601889 0.037399 1.554128
    10 4.018331 0.000000 0.000000 -0.229176 0.006867 0.253314
    11 3.518565 0.000000 0.000000 -0.220081 0.055932 0.394029
    12 8.942642 0.000000 0.000000 -0.001207 0.050299 0.249895
    13 3.306641 0.000001 0.000000 3.138800 0.000567 0.400476
    14 3.593712 -0.000001 0.000000 0.492559 0.024818 1.011929
    15 2.033346 1.000768 1.101697 1.848180 -1.411864 2.688434
    16 6.809416 0.000001 0.000000 -1.592428 -0.518503 -1.358567
    17 12.391796 0.000000 0.000001 0.000000 0.000000 -1.827826
    18 9.337076 0.000000 -0.000031 -0.021081 0.413531 0.165124
    19 4.454020 -0.070210 0.572073 0.096293 -0.007832 -0.804082
    20 1.426597 -0.000001 0.000000 0.023861 -0.079623 -1.125947
    21 1.322468 -0.000002 0.000000 0.009312 -0.033625 -0.575065
    22 4.477066 -0.028570 1.582474 0.476656 -0.055423 -1.136099
    23 1.344418 0.000000 0.000000 0.023466 -0.208305 -0.755723
    24 1.224671 0.000000 0.000000 0.026043 -0.124620 -0.538676
    25 2.630323 -0.345015 1.907214 -0.354022 -0.915164 -1.788195
    26 1.059292 0.000000 0.000001 0.000551 0.000004 0.000021
    27 0.781203 0.000000 0.000000 -0.000467 0.006940 -0.135953
    28 2.033353 1.000771 -1.101647 -2.784590 1.401436 1.822280
    29 6.809417 0.000001 0.000000 1.382414 0.410345 -0.881565
    30 12.391794 0.000000 0.000001 0.000000 0.000000 -1.940648
    31 9.337102 0.000000 0.000003 -1.402107 -0.437313 0.014145
    32 4.453986 -0.073766 -0.571672 0.047699 -0.153453 -0.767464
    33 1.426599 0.000002 0.000000 -0.053883 0.078890 -1.553256
    34 1.322465 -0.000001 0.000000 -0.013603 0.036958 -0.732277
    35 4.477036 -0.043465 -1.581290 -0.332128 -0.154804 0.170747
    36 1.344414 0.000000 0.000000 -0.042629 0.220735 -0.851579
    37 1.224670 0.000001 0.000000 0.008150 -0.000004 -0.000025
    38 2.630291 -0.359835 -1.904289 0.415078 0.423437 -0.720800
    39 1.059293 0.000000 0.000000 0.015101 0.038905 0.767148
    40 0.781204 0.000000 0.000000 0.004782 0.022537 0.418308
    41 -0.044717 2.528787 4.661499 0.002504 0.030909 0.028617
end
