// Created by Crowbar 0.68
version 1
nodes
  0 "ValveBiped.Bip01_Pelvis" -1
  1 "ValveBiped.Bip01_L_Thigh" 0
  2 "ValveBiped.Bip01_L_Calf" 1
  3 "ValveBiped.Bip01_L_Foot" 2
  4 "ValveBiped.Bip01_L_Toe0" 3
  5 "ValveBiped.Bip01_R_Thigh" 0
  6 "ValveBiped.Bip01_R_Calf" 5
  7 "ValveBiped.Bip01_R_Foot" 6
  8 "ValveBiped.Bip01_R_Toe0" 7
  9 "ValveBiped.Bip01_Spine" 0
  10 "ValveBiped.Bip01_Spine1" 9
  11 "ValveBiped.Bip01_Spine2" 10
  12 "ValveBiped.Bip01_Spine4" 11
  13 "ValveBiped.Bip01_Neck1" 12
  14 "ValveBiped.Bip01_Head1" 13
  15 "ValveBiped.Bip01_L_Clavicle" 12
  16 "ValveBiped.Bip01_L_UpperArm" 15
  17 "ValveBiped.Bip01_L_Forearm" 16
  18 "ValveBiped.Bip01_L_Hand" 17
  19 "ValveBiped.Bip01_L_Finger2" 18
  20 "ValveBiped.Bip01_L_Finger21" 19
  21 "ValveBiped.Bip01_L_Finger22" 20
  22 "ValveBiped.Bip01_L_Finger1" 18
  23 "ValveBiped.Bip01_L_Finger11" 22
  24 "ValveBiped.Bip01_L_Finger12" 23
  25 "ValveBiped.Bip01_L_Finger0" 18
  26 "ValveBiped.Bip01_L_Finger01" 25
  27 "ValveBiped.Bip01_L_Finger02" 26
  28 "ValveBiped.Bip01_R_Clavicle" 12
  29 "ValveBiped.Bip01_R_UpperArm" 28
  30 "ValveBiped.Bip01_R_Forearm" 29
  31 "ValveBiped.Bip01_R_Hand" 30
  32 "ValveBiped.Bip01_R_Finger2" 31
  33 "ValveBiped.Bip01_R_Finger21" 32
  34 "ValveBiped.Bip01_R_Finger22" 33
  35 "ValveBiped.Bip01_R_Finger1" 31
  36 "ValveBiped.Bip01_R_Finger11" 35
  37 "ValveBiped.Bip01_R_Finger12" 36
  38 "ValveBiped.Bip01_R_Finger0" 31
  39 "ValveBiped.Bip01_R_Finger01" 38
  40 "ValveBiped.Bip01_R_Finger02" 39
  41 "ValveBiped.Cod" 0
end
skeleton
  time 0
    0 -0.021881 -0.010152 36.601156 1.590421 0.013120 -0.122227
    1 3.890452 -0.000004 -0.000003 -1.637985 -0.769048 -1.183577
    2 17.848177 0.000000 0.000000 0.000000 0.000000 1.432010
    3 15.638507 0.000000 0.000000 -0.166953 0.017194 -1.068576
    4 7.109929 0.000000 0.000000 -0.007119 -0.003131 -0.631738
    5 -3.890452 0.000004 0.000007 -1.526939 -0.074948 -1.376227
    6 17.848173 0.000000 0.000000 0.000000 0.000000 0.643126
    7 15.638511 0.000000 0.000000 -0.261108 -0.004366 -1.251840
    8 7.109930 0.000000 0.000000 -0.080710 -0.003670 -0.764373
    9 -0.039059 3.345128 -2.981901 1.567509 0.030110 1.577002
    10 4.018331 0.000000 0.000000 -0.072602 -0.009983 0.091973
    11 3.518565 0.000000 0.000000 -0.058396 -0.015832 0.064294
    12 8.942642 0.000000 0.000000 0.032918 0.007047 0.160532
    13 3.306641 0.000001 0.000000 3.138800 0.000567 0.400476
    14 3.593712 -0.000001 0.000000 0.202297 0.011777 0.512933
    15 2.033346 1.000768 1.101697 1.848180 -1.411864 2.688434
    16 6.809416 0.000001 0.000000 -1.054979 -0.249516 -0.813026
    17 12.391796 0.000000 0.000001 0.000000 0.000000 -1.615962
    18 9.337076 0.000000 -0.000031 -0.912206 -0.150838 0.187798
    19 4.454020 -0.070210 0.572073 0.096293 -0.007832 -0.804082
    20 1.426597 -0.000001 0.000000 0.023861 -0.079623 -1.125947
    21 1.322468 -0.000002 0.000000 0.009312 -0.033625 -0.575065
    22 4.477066 -0.028570 1.582474 0.476656 -0.055423 -1.136099
    23 1.344418 0.000000 0.000000 0.023466 -0.208305 -0.755723
    24 1.224671 0.000000 0.000000 0.026043 -0.124620 -0.538676
    25 2.630323 -0.345015 1.907214 -0.354022 -0.915164 -1.788195
    26 1.059292 0.000000 0.000001 0.000551 0.000004 0.000021
    27 0.781203 0.000000 0.000000 -0.000467 0.006940 -0.135953
    28 2.033353 1.000771 -1.101647 -2.221219 1.324324 2.397426
    29 6.809417 0.000001 0.000000 0.874436 0.467896 -0.821348
    30 12.391794 0.000000 0.000001 0.000000 0.000000 -1.630512
    31 9.337102 0.000000 0.000003 -1.015833 -0.300601 0.061808
    32 4.453986 -0.073766 -0.571672 -0.386562 0.126208 -1.146676
    33 1.426599 0.000002 0.000000 -0.051390 0.078806 -1.521754
    34 1.322465 -0.000001 0.000000 -0.034695 0.051519 -1.200268
    35 4.477036 -0.043465 -1.581290 -0.083016 0.164909 0.067468
    36 1.344414 0.000000 0.000000 0.024521 0.136363 -0.478036
    37 1.224670 0.000001 0.000000 -0.166394 0.224946 -1.318175
    38 2.630291 -0.359835 -1.904289 1.070466 0.381356 -0.978487
    39 1.059293 0.000000 0.000000 0.002193 0.017488 0.317162
    40 0.781204 0.000000 0.000000 0.006472 0.026012 0.488050
    41 -0.044717 2.528787 4.661499 -0.001270 -0.084182 0.087535
  time 1
    0 -5.745810 0.223467 37.311300 1.601125 0.009239 -0.115240
    1 3.890452 -0.000004 -0.000003 -1.719967 -0.772691 -1.309983
    2 17.848177 0.000000 0.000000 0.000000 0.000000 1.347523
    3 15.638507 0.000000 0.000000 -0.151128 0.120123 -1.055671
    4 7.109929 0.000000 0.000000 -0.007119 -0.003131 -0.631738
    5 -3.890452 0.000004 0.000007 -1.362855 0.042890 -1.249369
    6 17.848173 0.000000 0.000000 0.000000 0.000000 0.347349
    7 15.638511 0.000000 0.000000 -0.319569 -0.035084 -0.985491
    8 7.109930 0.000000 0.000000 -0.080710 -0.003670 -0.764373
    9 -0.027340 3.345128 -2.981901 1.566970 0.027047 1.566127
    10 4.018331 0.000000 0.000000 -0.076920 -0.013698 0.091399
    11 3.518565 0.000000 0.000000 -0.062317 -0.018109 0.060747
    12 8.942642 0.000000 0.000000 0.033015 0.012536 0.160392
    13 3.306641 0.000001 0.000000 3.138800 0.000567 0.400476
    14 3.593712 -0.000001 0.000000 0.217570 0.004839 0.510373
    15 2.033346 1.000768 1.101697 1.848180 -1.411864 2.688434
    16 6.809416 0.000001 0.000000 -1.080226 -0.223440 -0.815203
    17 12.391796 0.000000 0.000001 0.000000 0.000000 -1.642140
    18 9.337076 0.000000 -0.000031 -0.891150 -0.132753 0.200895
    19 4.454020 -0.070210 0.572073 0.096293 -0.007832 -0.804082
    20 1.426597 -0.000001 0.000000 0.023861 -0.079623 -1.125947
    21 1.322468 -0.000002 0.000000 0.009312 -0.033625 -0.575065
    22 4.477066 -0.028570 1.582474 0.476656 -0.055423 -1.136099
    23 1.344418 0.000000 0.000000 0.023466 -0.208305 -0.755723
    24 1.224671 0.000000 0.000000 0.026043 -0.124620 -0.538676
    25 2.630323 -0.345015 1.907214 -0.354022 -0.915164 -1.788195
    26 1.059292 0.000000 0.000001 0.000551 0.000004 0.000021
    27 0.781203 0.000000 0.000000 -0.000467 0.006940 -0.135953
    28 2.033353 1.000771 -1.101647 -2.221219 1.324324 2.397426
    29 6.809417 0.000001 0.000000 0.863362 0.471970 -0.832789
    30 12.391794 0.000000 0.000001 0.000000 0.000000 -1.630656
    31 9.337102 0.000000 0.000003 -1.015321 -0.300601 0.061117
    32 4.453986 -0.073766 -0.571672 -0.386562 0.126208 -1.146676
    33 1.426599 0.000002 0.000000 -0.051390 0.078806 -1.521754
    34 1.322465 -0.000001 0.000000 -0.034695 0.051519 -1.200268
    35 4.477036 -0.043465 -1.581290 -0.083016 0.164909 0.067468
    36 1.344414 0.000000 0.000000 0.024521 0.136363 -0.478036
    37 1.224670 0.000001 0.000000 -0.166394 0.224946 -1.318175
    38 2.630291 -0.359835 -1.904289 1.070466 0.381356 -0.978487
    39 1.059293 0.000000 0.000000 0.002193 0.017488 0.317162
    40 0.781204 0.000000 0.000000 0.006472 0.026012 0.488050
    41 -0.044717 2.528787 4.661499 0.000877 -0.087803 0.080241
  time 2
    0 -11.629900 0.375828 38.278743 1.611915 -0.000647 -0.110264
    1 3.890452 -0.000004 -0.000003 -1.864557 -0.695192 -1.424506
    2 17.848177 0.000000 0.000000 0.000000 0.000000 1.120321
    3 15.638507 0.000000 0.000000 -0.180911 0.258126 -0.948425
    4 7.109929 0.000000 0.000000 -0.007119 -0.003131 -0.631738
    5 -3.890452 0.000004 0.000007 -1.259218 -0.003261 -1.169149
    6 17.848173 0.000000 0.000000 0.000000 0.000000 0.329396
    7 15.638511 0.000000 0.000000 -0.172999 -0.130881 -0.527762
    8 7.109930 0.000000 0.000000 -0.080710 -0.003670 -0.764373
    9 0.003911 3.345128 -2.981901 1.566431 0.023956 1.548986
    10 4.018331 0.000000 0.000000 -0.081169 -0.017905 0.090511
    11 3.518565 0.000000 0.000000 -0.066112 -0.020721 0.056915
    12 8.942642 0.000000 0.000000 0.033112 0.018492 0.160110
    13 3.306641 0.000001 0.000000 3.138800 0.000567 0.400476
    14 3.593712 -0.000001 0.000000 0.233264 -0.002892 0.506764
    15 2.033346 1.000768 1.101697 1.848180 -1.411864 2.688434
    16 6.809416 0.000001 0.000000 -1.104994 -0.197561 -0.818422
    17 12.391796 0.000000 0.000001 0.000000 0.000000 -1.668948
    18 9.337076 0.000000 -0.000031 -0.869648 -0.114274 0.216127
    19 4.454020 -0.070210 0.572073 0.096293 -0.007832 -0.804082
    20 1.426597 -0.000001 0.000000 0.023861 -0.079623 -1.125947
    21 1.322468 -0.000002 0.000000 0.009312 -0.033625 -0.575065
    22 4.477066 -0.028570 1.582474 0.476656 -0.055423 -1.136099
    23 1.344418 0.000000 0.000000 0.023466 -0.208305 -0.755723
    24 1.224671 0.000000 0.000000 0.026043 -0.124620 -0.538676
    25 2.630323 -0.345015 1.907214 -0.354022 -0.915164 -1.788195
    26 1.059292 0.000000 0.000001 0.000551 0.000004 0.000021
    27 0.781203 0.000000 0.000000 -0.000467 0.006940 -0.135953
    28 2.033353 1.000771 -1.101647 -2.221219 1.324324 2.397426
    29 6.809417 0.000001 0.000000 0.852477 0.474729 -0.843972
    30 12.391794 0.000000 0.000001 0.000000 0.000000 -1.631159
    31 9.337102 0.000000 0.000003 -1.014041 -0.300639 0.059131
    32 4.453986 -0.073766 -0.571672 -0.386562 0.126208 -1.146676
    33 1.426599 0.000002 0.000000 -0.051390 0.078806 -1.521754
    34 1.322465 -0.000001 0.000000 -0.034695 0.051519 -1.200268
    35 4.477036 -0.043465 -1.581290 -0.083016 0.164909 0.067468
    36 1.344414 0.000000 0.000000 0.024521 0.136363 -0.478036
    37 1.224670 0.000001 0.000000 -0.166394 0.224946 -1.318175
    38 2.630291 -0.359835 -1.904289 1.070466 0.381356 -0.978487
    39 1.059293 0.000000 0.000000 0.002193 0.017488 0.317162
    40 0.781204 0.000000 0.000000 0.006472 0.026012 0.488050
    41 -0.044717 2.528787 4.661499 0.002764 -0.092568 0.068137
  time 3
    0 -17.392893 0.264096 39.019763 1.613954 -0.007207 -0.108158
    1 3.890452 -0.000004 -0.000003 -1.936136 -0.567871 -1.569695
    2 17.848177 0.000000 0.000000 0.000000 0.000000 0.824944
    3 15.638507 0.000000 0.000000 -0.310517 0.366916 -0.816791
    4 7.109929 0.000000 0.000000 -0.007119 -0.003131 -0.631738
    5 -3.890452 0.000004 0.000007 -1.136989 -0.026681 -1.132255
    6 17.848173 0.000000 0.000000 0.000000 0.000000 0.367414
    7 15.638511 0.000000 0.000000 0.077153 -0.310596 -0.406860
    8 7.109930 0.000000 0.000000 -0.080710 -0.003670 -0.764373
    9 0.023443 3.345128 -2.981901 1.565892 0.020865 1.534859
    10 4.018331 0.000000 0.000000 -0.085373 -0.022327 0.089503
    11 3.518565 0.000000 0.000000 -0.069845 -0.023490 0.052978
    12 8.942642 0.000000 0.000000 0.033195 0.024640 0.159776
    13 3.306641 0.000001 0.000000 3.138800 0.000567 0.400476
    14 3.593712 -0.000001 0.000000 0.249212 -0.010944 0.502567
    15 2.033346 1.000768 1.101697 1.848180 -1.411864 2.688434
    16 6.809416 0.000001 0.000000 -1.129858 -0.171535 -0.821262
    17 12.391796 0.000000 0.000001 0.000000 0.000000 -1.695835
    18 9.337076 0.000000 -0.000031 -0.848860 -0.095335 0.231358
    19 4.454020 -0.070210 0.572073 0.096293 -0.007832 -0.804082
    20 1.426597 -0.000001 0.000000 0.023861 -0.079623 -1.125947
    21 1.322468 -0.000002 0.000000 0.009312 -0.033625 -0.575065
    22 4.477066 -0.028570 1.582474 0.476656 -0.055423 -1.136099
    23 1.344418 0.000000 0.000000 0.023466 -0.208305 -0.755723
    24 1.224671 0.000000 0.000000 0.026043 -0.124620 -0.538676
    25 2.630323 -0.345015 1.907214 -0.354022 -0.915164 -1.788195
    26 1.059292 0.000000 0.000001 0.000551 0.000004 0.000021
    27 0.781203 0.000000 0.000000 -0.000467 0.006940 -0.135953
    28 2.033353 1.000771 -1.101647 -2.221219 1.324324 2.397426
    29 6.809417 0.000001 0.000000 0.841120 0.477226 -0.856532
    30 12.391794 0.000000 0.000001 0.000000 0.000000 -1.631446
    31 9.337102 0.000000 0.000003 -1.013209 -0.300677 0.057922
    32 4.453986 -0.073766 -0.571672 -0.386562 0.126208 -1.146676
    33 1.426599 0.000002 0.000000 -0.051390 0.078806 -1.521754
    34 1.322465 -0.000001 0.000000 -0.034695 0.051519 -1.200268
    35 4.477036 -0.043465 -1.581290 -0.083016 0.164909 0.067468
    36 1.344414 0.000000 0.000000 0.024521 0.136363 -0.478036
    37 1.224670 0.000001 0.000000 -0.166394 0.224946 -1.318175
    38 2.630291 -0.359835 -1.904289 1.070466 0.381356 -0.978487
    39 1.059293 0.000000 0.000000 0.002193 0.017488 0.317162
    40 0.781204 0.000000 0.000000 0.006472 0.026012 0.488050
    41 -0.044717 2.528787 4.661499 0.005041 -0.095237 0.056714
  time 4
    0 -22.929316 0.132050 39.297646 1.608177 0.004204 -0.105957
    1 3.890452 -0.000004 -0.000003 -2.016209 -0.451670 -1.652017
    2 17.848177 0.000000 0.000000 0.000000 0.000000 0.615445
    3 15.638507 0.000000 0.000000 -0.376918 0.406078 -0.701816
    4 7.109929 0.000000 0.000000 -0.007119 -0.003131 -0.631738
    5 -3.890452 0.000004 0.000007 -1.010375 0.016813 -1.108605
    6 17.848173 0.000000 0.000000 0.000000 0.000000 0.436870
    7 15.638511 0.000000 0.000000 0.152940 -0.459911 -0.457188
    8 7.109930 0.000000 0.000000 -0.080710 -0.003670 -0.764373
    9 -0.011714 3.345128 -2.981901 1.565407 0.017773 1.538642
    10 4.018331 0.000000 0.000000 -0.089577 -0.026654 0.088598
    11 3.518565 0.000000 0.000000 -0.073598 -0.026198 0.049111
    12 8.942642 0.000000 0.000000 0.033292 0.030693 0.159459
    13 3.306641 0.000001 0.000000 3.138800 0.000567 0.400476
    14 3.593712 -0.000001 0.000000 0.265286 -0.018846 0.498328
    15 2.033346 1.000768 1.101697 1.848180 -1.411864 2.688434
    16 6.809416 0.000001 0.000000 -1.155679 -0.144528 -0.820410
    17 12.391796 0.000000 0.000001 0.000000 0.000000 -1.722170
    18 9.337076 0.000000 -0.000031 -0.831730 -0.075771 0.243763
    19 4.454020 -0.070210 0.572073 0.096293 -0.007832 -0.804082
    20 1.426597 -0.000001 0.000000 0.023861 -0.079623 -1.125947
    21 1.322468 -0.000002 0.000000 0.009312 -0.033625 -0.575065
    22 4.477066 -0.028570 1.582474 0.476656 -0.055423 -1.136099
    23 1.344418 0.000000 0.000000 0.023466 -0.208305 -0.755723
    24 1.224671 0.000000 0.000000 0.026043 -0.124620 -0.538676
    25 2.630323 -0.345015 1.907214 -0.354022 -0.915164 -1.788195
    26 1.059292 0.000000 0.000001 0.000551 0.000004 0.000021
    27 0.781203 0.000000 0.000000 -0.000467 0.006940 -0.135953
    28 2.033353 1.000771 -1.101647 -2.221219 1.324324 2.397426
    29 6.809417 0.000001 0.000000 0.827396 0.480817 -0.873737
    30 12.391794 0.000000 0.000001 0.000000 0.000000 -1.630872
    31 9.337102 0.000000 0.000003 -1.014745 -0.300639 0.060253
    32 4.453986 -0.073766 -0.571672 -0.386562 0.126208 -1.146676
    33 1.426599 0.000002 0.000000 -0.051390 0.078806 -1.521754
    34 1.322465 -0.000001 0.000000 -0.034695 0.051519 -1.200268
    35 4.477036 -0.043465 -1.581290 -0.083016 0.164909 0.067468
    36 1.344414 0.000000 0.000000 0.024521 0.136363 -0.478036
    37 1.224670 0.000001 0.000000 -0.166394 0.224946 -1.318175
    38 2.630291 -0.359835 -1.904289 1.070466 0.381356 -0.978487
    39 1.059293 0.000000 0.000000 0.002193 0.017488 0.317162
    40 0.781204 0.000000 0.000000 0.006472 0.026012 0.488050
    41 -0.044717 2.528787 4.661499 0.008425 -0.092568 0.056754
  time 5
    0 -28.305579 -0.020311 39.050639 1.595773 0.031460 -0.102320
    1 3.890452 -0.000004 -0.000003 -2.076526 -0.399672 -1.633521
    2 17.848177 0.000000 0.000000 0.000000 0.000000 0.618809
    3 15.638507 0.000000 0.000000 -0.340236 0.372281 -0.658327
    4 7.109929 0.000000 0.000000 -0.007119 -0.003131 -0.631738
    5 -3.890452 0.000004 0.000007 -0.777931 -0.001047 -1.193555
    6 17.848173 0.000000 0.000000 0.000000 0.000000 0.747026
    7 15.638511 0.000000 0.000000 -0.054779 -0.413719 -0.466643
    8 7.109930 0.000000 0.000000 -0.080710 -0.003670 -0.764373
    9 -0.105467 3.345128 -2.981901 1.564976 0.014682 1.558620
    10 4.018331 0.000000 0.000000 -0.093850 -0.030573 0.087955
    11 3.518565 0.000000 0.000000 -0.077435 -0.028667 0.045493
    12 8.942642 0.000000 0.000000 0.033375 0.036373 0.159266
    13 3.306641 0.000001 0.000000 3.138800 0.000567 0.400476
    14 3.593712 -0.000001 0.000000 0.281402 -0.026148 0.494593
    15 2.033346 1.000768 1.101697 1.848180 -1.411864 2.688434
    16 6.809416 0.000001 0.000000 -1.182264 -0.116884 -0.816812
    17 12.391796 0.000000 0.000001 0.000000 0.000000 -1.747086
    18 9.337076 0.000000 -0.000031 -0.817811 -0.055943 0.252533
    19 4.454020 -0.070210 0.572073 0.096293 -0.007832 -0.804082
    20 1.426597 -0.000001 0.000000 0.023861 -0.079623 -1.125947
    21 1.322468 -0.000002 0.000000 0.009312 -0.033625 -0.575065
    22 4.477066 -0.028570 1.582474 0.476656 -0.055423 -1.136099
    23 1.344418 0.000000 0.000000 0.023466 -0.208305 -0.755723
    24 1.224671 0.000000 0.000000 0.026043 -0.124620 -0.538676
    25 2.630323 -0.345015 1.907214 -0.354022 -0.915164 -1.788195
    26 1.059292 0.000000 0.000001 0.000551 0.000004 0.000021
    27 0.781203 0.000000 0.000000 -0.000467 0.006940 -0.135953
    28 2.033353 1.000771 -1.101647 -2.221219 1.324324 2.397426
    29 6.809417 0.000001 0.000000 0.811873 0.485547 -0.894554
    30 12.391794 0.000000 0.000001 0.000000 0.000000 -1.629363
    31 9.337102 0.000000 0.000003 -1.018521 -0.300486 0.065693
    32 4.453986 -0.073766 -0.571672 -0.386562 0.126208 -1.146676
    33 1.426599 0.000002 0.000000 -0.051390 0.078806 -1.521754
    34 1.322465 -0.000001 0.000000 -0.034695 0.051519 -1.200268
    35 4.477036 -0.043465 -1.581290 -0.083016 0.164909 0.067468
    36 1.344414 0.000000 0.000000 0.024521 0.136363 -0.478036
    37 1.224670 0.000001 0.000000 -0.166394 0.224946 -1.318175
    38 2.630291 -0.359835 -1.904289 1.070466 0.381356 -0.978487
    39 1.059293 0.000000 0.000000 0.002193 0.017488 0.317162
    40 0.781204 0.000000 0.000000 0.006472 0.026012 0.488050
    41 -0.044717 2.528787 4.661499 0.012850 -0.084436 0.066173
  time 6
    0 -33.591994 -0.152357 38.330203 1.580481 0.055252 -0.099640
    1 3.890452 -0.000004 -0.000003 -2.019072 -0.379659 -1.573145
    2 17.848177 0.000000 0.000000 0.000000 0.000000 0.720121
    3 15.638507 0.000000 0.000000 -0.238988 0.378922 -0.933078
    4 7.109929 0.000000 0.000000 -0.007119 -0.003131 -0.631738
    5 -3.890452 0.000004 0.000007 -0.712526 -0.075096 -1.348699
    6 17.848173 0.000000 0.000000 0.000000 0.000000 1.196744
    7 15.638511 0.000000 0.000000 -0.111665 -0.224311 -0.670248
    8 7.109930 0.000000 0.000000 -0.080710 -0.003670 -0.764373
    9 -0.183594 3.341221 -2.981901 1.564599 0.011591 1.575643
    10 4.018331 0.000000 0.000000 -0.098257 -0.033785 0.087763
    11 3.518565 0.000000 0.000000 -0.081461 -0.030681 0.042264
    12 8.942642 0.000000 0.000000 0.033459 0.041395 0.159248
    13 3.306641 0.000001 0.000000 3.138800 0.000567 0.400476
    14 3.593712 -0.000001 0.000000 0.297434 -0.032337 0.491907
    15 2.033346 1.000768 1.101697 1.848180 -1.411864 2.688434
    16 6.809416 0.000001 0.000000 -1.208754 -0.090515 -0.815960
    17 12.391796 0.000000 0.000001 0.000000 0.000000 -1.770031
    18 9.337076 0.000000 -0.000031 -0.803358 -0.036577 0.260149
    19 4.454020 -0.070210 0.572073 0.096293 -0.007832 -0.804082
    20 1.426597 -0.000001 0.000000 0.023861 -0.079623 -1.125947
    21 1.322468 -0.000002 0.000000 0.009312 -0.033625 -0.575065
    22 4.477066 -0.028570 1.582474 0.476656 -0.055423 -1.136099
    23 1.344418 0.000000 0.000000 0.023466 -0.208305 -0.755723
    24 1.224671 0.000000 0.000000 0.026043 -0.124620 -0.538676
    25 2.630323 -0.345015 1.907214 -0.354022 -0.915164 -1.788195
    26 1.059292 0.000000 0.000001 0.000551 0.000004 0.000021
    27 0.781203 0.000000 0.000000 -0.000467 0.006940 -0.135953
    28 2.033353 1.000771 -1.101647 -2.221219 1.324324 2.397426
    29 6.809417 0.000001 0.000000 0.797203 0.490497 -0.913222
    30 12.391794 0.000000 0.000001 0.000000 0.000000 -1.627855
    31 9.337102 0.000000 0.000003 -1.021914 -0.300372 0.070183
    32 4.453986 -0.073766 -0.571672 -0.386562 0.126208 -1.146676
    33 1.426599 0.000002 0.000000 -0.051390 0.078806 -1.521754
    34 1.322465 -0.000001 0.000000 -0.034695 0.051519 -1.200268
    35 4.477036 -0.043465 -1.581290 -0.083016 0.164909 0.067468
    36 1.344414 0.000000 0.000000 0.024521 0.136363 -0.478036
    37 1.224670 0.000001 0.000000 -0.166394 0.224946 -1.318175
    38 2.630291 -0.359835 -1.904289 1.070466 0.381356 -0.978487
    39 1.059293 0.000000 0.000000 0.002193 0.017488 0.317162
    40 0.781204 0.000000 0.000000 0.006472 0.026012 0.488050
    41 -0.044717 2.528787 4.661499 0.017534 -0.073635 0.068898
  time 7
    0 -38.819815 -0.192986 37.373052 1.565529 0.079090 -0.102032
    1 3.890452 -0.000004 -0.000003 -1.861407 -0.343133 -1.508073
    2 17.848177 0.000000 0.000000 0.000000 0.000000 0.795904
    3 15.638507 0.000000 0.000000 -0.177809 0.038796 -1.242022
    4 7.109929 0.000000 0.000000 -0.007119 -0.003131 -0.631738
    5 -3.890452 0.000004 0.000007 -0.721297 -0.164299 -1.496652
    6 17.848173 0.000000 0.000000 0.000000 0.000000 1.538988
    7 15.638511 0.000000 0.000000 -0.109905 -0.001226 -0.859241
    8 7.109930 0.000000 0.000000 -0.080710 -0.003670 -0.764373
    9 -0.261722 3.337315 -2.981901 1.564276 0.008528 1.593611
    10 4.018331 0.000000 0.000000 -0.102823 -0.036002 0.088198
    11 3.518565 0.000000 0.000000 -0.085739 -0.032047 0.039639
    12 8.942642 0.000000 0.000000 0.033528 0.045482 0.159494
    13 3.306641 0.000001 0.000000 3.138800 0.000567 0.400476
    14 3.593712 -0.000001 0.000000 0.313255 -0.037027 0.490816
    15 2.033346 1.000768 1.101697 1.848180 -1.411864 2.688434
    16 6.809416 0.000001 0.000000 -1.235627 -0.065224 -0.817380
    17 12.391796 0.000000 0.000001 0.000000 0.000000 -1.790452
    18 9.337076 0.000000 -0.000031 -0.788815 -0.017802 0.265226
    19 4.454020 -0.070210 0.572073 0.096293 -0.007832 -0.804082
    20 1.426597 -0.000001 0.000000 0.023861 -0.079623 -1.125947
    21 1.322468 -0.000002 0.000000 0.009312 -0.033625 -0.575065
    22 4.477066 -0.028570 1.582474 0.476656 -0.055423 -1.136099
    23 1.344418 0.000000 0.000000 0.023466 -0.208305 -0.755723
    24 1.224671 0.000000 0.000000 0.026043 -0.124620 -0.538676
    25 2.630323 -0.345015 1.907214 -0.354022 -0.915164 -1.788195
    26 1.059292 0.000000 0.000001 0.000551 0.000004 0.000021
    27 0.781203 0.000000 0.000000 -0.000467 0.006940 -0.135953
    28 2.033353 1.000771 -1.101647 -2.221219 1.324324 2.397426
    29 6.809417 0.000001 0.000000 0.783100 0.496409 -0.930082
    30 12.391794 0.000000 0.000001 0.000000 0.000000 -1.625988
    31 9.337102 0.000000 0.000003 -1.025434 -0.300220 0.074500
    32 4.453986 -0.073766 -0.571672 -0.386562 0.126208 -1.146676
    33 1.426599 0.000002 0.000000 -0.051390 0.078806 -1.521754
    34 1.322465 -0.000001 0.000000 -0.034695 0.051519 -1.200268
    35 4.477036 -0.043465 -1.581290 -0.083016 0.164909 0.067468
    36 1.344414 0.000000 0.000000 0.024521 0.136363 -0.478036
    37 1.224670 0.000001 0.000000 -0.166394 0.224946 -1.318175
    38 2.630291 -0.359835 -1.904289 1.070466 0.381356 -0.978487
    39 1.059293 0.000000 0.000000 0.002193 0.017488 0.317162
    40 0.781204 0.000000 0.000000 0.006472 0.026012 0.488050
    41 -0.044717 2.528787 4.661499 0.022154 -0.061278 0.070060
  time 8
    0 -44.039822 -0.274246 36.621740 1.553805 0.093319 -0.112943
    1 3.890452 -0.000004 -0.000003 -1.741536 -0.267573 -1.412239
    2 17.848177 0.000000 0.000000 0.000000 0.000000 0.771179
    3 15.638507 0.000000 0.000000 -0.120871 -0.079401 -1.362829
    4 7.109929 0.000000 0.000000 -0.007119 -0.003131 -0.631738
    5 -3.890452 0.000004 0.000007 -0.743321 -0.257093 -1.673175
    6 17.848173 0.000000 0.000000 0.000000 0.000000 1.749062
    7 15.638511 0.000000 0.000000 -0.140016 0.161469 -0.984155
    8 7.109930 0.000000 0.000000 -0.080710 -0.003670 -0.764373
    9 -0.308598 3.333409 -2.981901 1.564060 0.005521 1.603305
    10 4.018331 0.000000 0.000000 -0.107615 -0.036889 0.089468
    11 3.518565 0.000000 0.000000 -0.090373 -0.032574 0.037724
    12 8.942642 0.000000 0.000000 0.033584 0.048346 0.160093
    13 3.306641 0.000001 0.000000 3.138800 0.000567 0.400476
    14 3.593712 -0.000001 0.000000 0.328780 -0.039746 0.491949
    15 2.033346 1.000768 1.101697 1.848180 -1.411864 2.688434
    16 6.809416 0.000001 0.000000 -1.262882 -0.042285 -0.824291
    17 12.391796 0.000000 0.000001 0.000000 0.000000 -1.808351
    18 9.337076 0.000000 -0.000031 -0.771863 0.000020 0.269149
    19 4.454020 -0.070210 0.572073 0.096293 -0.007832 -0.804082
    20 1.426597 -0.000001 0.000000 0.023861 -0.079623 -1.125947
    21 1.322468 -0.000002 0.000000 0.009312 -0.033625 -0.575065
    22 4.477066 -0.028570 1.582474 0.476656 -0.055423 -1.136099
    23 1.344418 0.000000 0.000000 0.023466 -0.208305 -0.755723
    24 1.224671 0.000000 0.000000 0.026043 -0.124620 -0.538676
    25 2.630323 -0.345015 1.907214 -0.354022 -0.915164 -1.788195
    26 1.059292 0.000000 0.000001 0.000551 0.000004 0.000021
    27 0.781203 0.000000 0.000000 -0.000467 0.006940 -0.135953
    28 2.033353 1.000771 -1.101647 -2.221219 1.324324 2.397426
    29 6.809417 0.000001 0.000000 0.770985 0.503373 -0.941696
    30 12.391794 0.000000 0.000001 0.000000 0.000000 -1.624838
    31 9.337102 0.000000 0.000003 -1.027610 -0.300144 0.077004
    32 4.453986 -0.073766 -0.571672 -0.386562 0.126208 -1.146676
    33 1.426599 0.000002 0.000000 -0.051390 0.078806 -1.521754
    34 1.322465 -0.000001 0.000000 -0.034695 0.051519 -1.200268
    35 4.477036 -0.043465 -1.581290 -0.083016 0.164909 0.067468
    36 1.344414 0.000000 0.000000 0.024521 0.136363 -0.478036
    37 1.224670 0.000001 0.000000 -0.166394 0.224946 -1.318175
    38 2.630291 -0.359835 -1.904289 1.070466 0.381356 -0.978487
    39 1.059293 0.000000 0.000000 0.002193 0.017488 0.317162
    40 0.781204 0.000000 0.000000 0.006472 0.026012 0.488050
    41 -0.044717 2.528787 4.661499 0.026579 -0.048317 0.061884
  time 9
    0 -49.326238 -0.355505 36.508528 1.548877 0.087128 -0.132181
    1 3.890452 -0.000004 -0.000003 -1.700020 -0.173278 -1.279220
    2 17.848177 0.000000 0.000000 0.000000 0.000000 0.641925
    3 15.638507 0.000000 0.000000 -0.223891 -0.028941 -1.310555
    4 7.109929 0.000000 0.000000 -0.007119 -0.003131 -0.631738
    5 -3.890452 0.000004 0.000007 -0.770780 -0.344672 -1.869279
    6 17.848173 0.000000 0.000000 0.000000 0.000000 1.792442
    7 15.638511 0.000000 0.000000 -0.148076 0.239517 -1.052914
    8 7.109930 0.000000 0.000000 -0.080710 -0.003670 -0.764373
    9 -0.289066 3.333409 -2.981901 1.564006 0.001778 1.593907
    10 4.018331 0.000000 0.000000 -0.114034 -0.035474 0.092564
    11 3.518565 0.000000 0.000000 -0.096831 -0.031591 0.036766
    12 8.942642 0.000000 0.000000 0.033625 0.049616 0.161482
    13 3.306641 0.000001 0.000000 3.138800 0.000567 0.400476
    14 3.593712 -0.000001 0.000000 0.346669 -0.039446 0.497783
    15 2.033346 1.000768 1.101697 1.848180 -1.411864 2.688434
    16 6.809416 0.000001 0.000000 -1.293197 -0.019690 -0.840289
    17 12.391796 0.000000 0.000001 0.000000 0.000000 -1.826644
    18 9.337076 0.000000 -0.000031 -0.748755 0.015638 0.273188
    19 4.454020 -0.070210 0.572073 0.096293 -0.007832 -0.804082
    20 1.426597 -0.000001 0.000000 0.023861 -0.079623 -1.125947
    21 1.322468 -0.000002 0.000000 0.009312 -0.033625 -0.575065
    22 4.477066 -0.028570 1.582474 0.476656 -0.055423 -1.136099
    23 1.344418 0.000000 0.000000 0.023466 -0.208305 -0.755723
    24 1.224671 0.000000 0.000000 0.026043 -0.124620 -0.538676
    25 2.630323 -0.345015 1.907214 -0.354022 -0.915164 -1.788195
    26 1.059292 0.000000 0.000001 0.000551 0.000004 0.000021
    27 0.781203 0.000000 0.000000 -0.000467 0.006940 -0.135953
    28 2.033353 1.000771 -1.101647 -2.221219 1.324324 2.397426
    29 6.809417 0.000001 0.000000 0.760858 0.514367 -0.944190
    30 12.391794 0.000000 0.000001 0.000000 0.000000 -1.625341
    31 9.337102 0.000000 0.000003 -1.026650 -0.300182 0.075968
    32 4.453986 -0.073766 -0.571672 -0.386562 0.126208 -1.146676
    33 1.426599 0.000002 0.000000 -0.051390 0.078806 -1.521754
    34 1.322465 -0.000001 0.000000 -0.034695 0.051519 -1.200268
    35 4.477036 -0.043465 -1.581290 -0.083016 0.164909 0.067468
    36 1.344414 0.000000 0.000000 0.024521 0.136363 -0.478036
    37 1.224670 0.000001 0.000000 -0.166394 0.224946 -1.318175
    38 2.630291 -0.359835 -1.904289 1.070466 0.381356 -0.978487
    39 1.059293 0.000000 0.000000 0.002193 0.017488 0.317162
    40 0.781204 0.000000 0.000000 0.006472 0.026012 0.488050
    41 -0.044717 2.528787 4.661499 0.031329 -0.035579 0.034990
  time 10
    0 -54.722032 -0.355505 37.023126 1.552106 0.072345 -0.155151
    1 3.890452 -0.000004 -0.000003 -1.698684 -0.055231 -1.147160
    2 17.848177 0.000000 0.000000 0.000000 0.000000 0.413040
    3 15.638507 0.000000 0.000000 -0.365018 0.061556 -1.035695
    4 7.109929 0.000000 0.000000 -0.007119 -0.003131 -0.631738
    5 -3.890452 0.000004 0.000007 -0.773068 -0.390873 -2.030760
    6 17.848173 0.000000 0.000000 0.000000 0.000000 1.647681
    7 15.638511 0.000000 0.000000 -0.102678 0.287802 -1.076121
    8 7.109930 0.000000 0.000000 -0.080710 -0.003670 -0.764373
    9 -0.242190 3.337315 -2.981901 1.564006 -0.002788 1.577120
    10 4.018331 0.000000 0.000000 -0.122307 -0.031615 0.097660
    11 3.518565 0.000000 0.000000 -0.105365 -0.029015 0.036695
    12 8.942642 0.000000 0.000000 0.033667 0.049269 0.163769
    13 3.306641 0.000001 0.000000 3.138800 0.000567 0.400476
    14 3.593712 -0.000001 0.000000 0.367299 -0.036191 0.508694
    15 2.033346 1.000768 1.101697 1.848180 -1.411864 2.688434
    16 6.809416 0.000001 0.000000 -1.327720 0.004082 -0.863008
    17 12.391796 0.000000 0.000001 0.000000 0.000000 -1.845646
    18 9.337076 0.000000 -0.000031 -0.721633 0.029580 0.274573
    19 4.454020 -0.070210 0.572073 0.096293 -0.007832 -0.804082
    20 1.426597 -0.000001 0.000000 0.023861 -0.079623 -1.125947
    21 1.322468 -0.000002 0.000000 0.009312 -0.033625 -0.575065
    22 4.477066 -0.028570 1.582474 0.476656 -0.055423 -1.136099
    23 1.344418 0.000000 0.000000 0.023466 -0.208305 -0.755723
    24 1.224671 0.000000 0.000000 0.026043 -0.124620 -0.538676
    25 2.630323 -0.345015 1.907214 -0.354022 -0.915164 -1.788195
    26 1.059292 0.000000 0.000001 0.000551 0.000004 0.000021
    27 0.781203 0.000000 0.000000 -0.000467 0.006940 -0.135953
    28 2.033353 1.000771 -1.101647 -2.221219 1.324324 2.397426
    29 6.809417 0.000001 0.000000 0.750730 0.530704 -0.941265
    30 12.391794 0.000000 0.000001 0.000000 0.000000 -1.626490
    31 9.337102 0.000000 0.000003 -1.024474 -0.300258 0.073378
    32 4.453986 -0.073766 -0.571672 -0.386562 0.126208 -1.146676
    33 1.426599 0.000002 0.000000 -0.051390 0.078806 -1.521754
    34 1.322465 -0.000001 0.000000 -0.034695 0.051519 -1.200268
    35 4.477036 -0.043465 -1.581290 -0.083016 0.164909 0.067468
    36 1.344414 0.000000 0.000000 0.024521 0.136363 -0.478036
    37 1.224670 0.000001 0.000000 -0.166394 0.224946 -1.318175
    38 2.630291 -0.359835 -1.904289 1.070466 0.381356 -0.978487
    39 1.059293 0.000000 0.000000 0.002193 0.017488 0.317162
    40 0.781204 0.000000 0.000000 0.006472 0.026012 0.488050
    41 -0.044717 2.528787 4.661499 0.036534 -0.023920 0.002485
  time 11
    0 -60.250643 -0.446922 37.825897 1.559922 0.060565 -0.174102
    1 3.890452 -0.000004 -0.000003 -1.721399 -0.025850 -1.036280
    2 17.848177 0.000000 0.000000 0.000000 0.000000 0.322116
    3 15.638507 0.000000 0.000000 -0.532288 0.152621 -0.712351
    4 7.109929 0.000000 0.000000 -0.007119 -0.003131 -0.631738
    5 -3.890452 0.000004 0.000007 -0.749233 -0.375571 -2.112589
    6 17.848173 0.000000 0.000000 0.000000 0.000000 1.345567
    7 15.638511 0.000000 0.000000 -0.089800 0.328669 -1.029135
    8 7.109930 0.000000 0.000000 -0.080710 -0.003670 -0.764373
    9 -0.203126 3.341221 -2.981901 1.564168 -0.007326 1.564590
    10 4.018331 0.000000 0.000000 -0.130806 -0.026258 0.103574
    11 3.518565 0.000000 0.000000 -0.114276 -0.025491 0.037404
    12 8.942642 0.000000 0.000000 0.033681 0.047579 0.166425
    13 3.306641 0.000001 0.000000 3.138800 0.000567 0.400476
    14 3.593712 -0.000001 0.000000 0.387465 -0.031095 0.522334
    15 2.033346 1.000768 1.101697 1.848180 -1.411864 2.688434
    16 6.809416 0.000001 0.000000 -1.363964 0.025991 -0.888851
    17 12.391796 0.000000 0.000001 0.000000 0.000000 -1.861494
    18 9.337076 0.000000 -0.000031 -0.694510 0.043653 0.271746
    19 4.454020 -0.070210 0.572073 0.096293 -0.007832 -0.804082
    20 1.426597 -0.000001 0.000000 0.023861 -0.079623 -1.125947
    21 1.322468 -0.000002 0.000000 0.009312 -0.033625 -0.575065
    22 4.477066 -0.028570 1.582474 0.476656 -0.055423 -1.136099
    23 1.344418 0.000000 0.000000 0.023466 -0.208305 -0.755723
    24 1.224671 0.000000 0.000000 0.026043 -0.124620 -0.538676
    25 2.630323 -0.345015 1.907214 -0.354022 -0.915164 -1.788195
    26 1.059292 0.000000 0.000001 0.000551 0.000004 0.000021
    27 0.781203 0.000000 0.000000 -0.000467 0.006940 -0.135953
    28 2.033353 1.000771 -1.101647 -2.221219 1.324324 2.397426
    29 6.809417 0.000001 0.000000 0.741265 0.549362 -0.936448
    30 12.391794 0.000000 0.000001 0.000000 0.000000 -1.627424
    31 9.337102 0.000000 0.000003 -1.022746 -0.300334 0.071306
    32 4.453986 -0.073766 -0.571672 -0.386562 0.126208 -1.146676
    33 1.426599 0.000002 0.000000 -0.051390 0.078806 -1.521754
    34 1.322465 -0.000001 0.000000 -0.034695 0.051519 -1.200268
    35 4.477036 -0.043465 -1.581290 -0.083016 0.164909 0.067468
    36 1.344414 0.000000 0.000000 0.024521 0.136363 -0.478036
    37 1.224670 0.000001 0.000000 -0.166394 0.224946 -1.318175
    38 2.630291 -0.359835 -1.904289 1.070466 0.381356 -0.978487
    39 1.059293 0.000000 0.000000 0.002193 0.017488 0.317162
    40 0.781204 0.000000 0.000000 0.006472 0.026012 0.488050
    41 -0.044717 2.528787 4.661499 0.041349 -0.014168 -0.022485
  time 12
    0 -65.978478 -0.558653 38.505166 1.565444 0.057239 -0.181472
    1 3.890452 -0.000004 -0.000003 -1.708801 -0.055799 -0.953574
    2 17.848177 0.000000 0.000000 0.000000 0.000000 0.331259
    3 15.638507 0.000000 0.000000 -0.452688 -0.004006 -0.510034
    4 7.109929 0.000000 0.000000 -0.007119 -0.003131 -0.631738
    5 -3.890452 0.000004 0.000007 -0.722155 -0.306443 -2.107575
    6 17.848173 0.000000 0.000000 0.000000 0.000000 0.971316
    7 15.638511 0.000000 0.000000 -0.152523 0.305323 -0.888751
    8 7.109930 0.000000 0.000000 -0.080710 -0.003670 -0.764373
    9 -0.191407 3.341221 -2.981901 1.564329 -0.010928 1.561930
    10 4.018331 0.000000 0.000000 -0.137858 -0.020398 0.109192
    11 3.518565 0.000000 0.000000 -0.121846 -0.021656 0.038788
    12 8.942642 0.000000 0.000000 0.033667 0.044846 0.168941
    13 3.306641 0.000001 0.000000 3.138800 0.000567 0.400476
    14 3.593712 -0.000001 0.000000 0.403708 -0.025034 0.536183
    15 2.033346 1.000768 1.101697 1.848180 -1.411864 2.688434
    16 6.809416 0.000001 0.000000 -1.398678 0.042705 -0.915072
    17 12.391796 0.000000 0.000001 0.000000 0.000000 -1.871272
    18 9.337076 0.000000 -0.000031 -0.670242 0.058877 0.264707
    19 4.454020 -0.070210 0.572073 0.096293 -0.007832 -0.804082
    20 1.426597 -0.000001 0.000000 0.023861 -0.079623 -1.125947
    21 1.322468 -0.000002 0.000000 0.009312 -0.033625 -0.575065
    22 4.477066 -0.028570 1.582474 0.476656 -0.055423 -1.136099
    23 1.344418 0.000000 0.000000 0.023466 -0.208305 -0.755723
    24 1.224671 0.000000 0.000000 0.026043 -0.124620 -0.538676
    25 2.630323 -0.345015 1.907214 -0.354022 -0.915164 -1.788195
    26 1.059292 0.000000 0.000001 0.000551 0.000004 0.000021
    27 0.781203 0.000000 0.000000 -0.000467 0.006940 -0.135953
    28 2.033353 1.000771 -1.101647 -2.221219 1.324324 2.397426
    29 6.809417 0.000001 0.000000 0.733788 0.566926 -0.931287
    30 12.391794 0.000000 0.000001 0.000000 0.000000 -1.627639
    31 9.337102 0.000000 0.000003 -1.022298 -0.300334 0.070615
    32 4.453986 -0.073766 -0.571672 -0.386562 0.126208 -1.146676
    33 1.426599 0.000002 0.000000 -0.051390 0.078806 -1.521754
    34 1.322465 -0.000001 0.000000 -0.034695 0.051519 -1.200268
    35 4.477036 -0.043465 -1.581290 -0.083016 0.164909 0.067468
    36 1.344414 0.000000 0.000000 0.024521 0.136363 -0.478036
    37 1.224670 0.000001 0.000000 -0.166394 0.224946 -1.318175
    38 2.630291 -0.359835 -1.904289 1.070466 0.381356 -0.978487
    39 1.059293 0.000000 0.000000 0.002193 0.017488 0.317162
    40 0.781204 0.000000 0.000000 0.006472 0.026012 0.488050
    41 -0.044717 2.528787 4.661499 0.045123 -0.007338 -0.033267
  time 13
    0 -71.917258 -0.690699 38.721297 1.562725 0.057932 -0.175059
    1 3.890452 -0.000004 -0.000003 -1.709182 -0.098807 -0.885532
    2 17.848177 0.000000 0.000000 0.000000 0.000000 0.413991
    3 15.638507 0.000000 0.000000 -0.301718 -0.045367 -0.528735
    4 7.109929 0.000000 0.000000 -0.007119 -0.003131 -0.631738
    5 -3.890452 0.000004 0.000007 -0.799669 -0.229688 -2.032936
    6 17.848173 0.000000 0.000000 0.000000 0.000000 0.637521
    7 15.638511 0.000000 0.000000 -0.173833 0.223179 -0.680848
    8 7.109930 0.000000 0.000000 -0.080710 -0.003670 -0.764373
    9 -0.195313 3.341221 -2.981901 1.564545 -0.012771 1.565004
    10 4.018331 0.000000 0.000000 -0.141837 -0.015053 0.113436
    11 3.518565 0.000000 0.000000 -0.126354 -0.018169 0.040703
    12 8.942642 0.000000 0.000000 0.033625 0.041359 0.170858
    13 3.306641 0.000001 0.000000 3.138800 0.000567 0.400476
    14 3.593712 -0.000001 0.000000 0.412568 -0.018760 0.547724
    15 2.033346 1.000768 1.101697 1.848180 -1.411864 2.688434
    16 6.809416 0.000001 0.000000 -1.427942 0.049959 -0.941199
    17 12.391796 0.000000 0.000001 0.000000 0.000000 -1.871981
    18 9.337076 0.000000 -0.000031 -0.648829 0.075810 0.255879
    19 4.454020 -0.070210 0.572073 0.096293 -0.007832 -0.804082
    20 1.426597 -0.000001 0.000000 0.023861 -0.079623 -1.125947
    21 1.322468 -0.000002 0.000000 0.009312 -0.033625 -0.575065
    22 4.477066 -0.028570 1.582474 0.476656 -0.055423 -1.136099
    23 1.344418 0.000000 0.000000 0.023466 -0.208305 -0.755723
    24 1.224671 0.000000 0.000000 0.026043 -0.124620 -0.538676
    25 2.630323 -0.345015 1.907214 -0.354022 -0.915164 -1.788195
    26 1.059292 0.000000 0.000001 0.000551 0.000004 0.000021
    27 0.781203 0.000000 0.000000 -0.000467 0.006940 -0.135953
    28 2.033353 1.000771 -1.101647 -2.221219 1.324324 2.397426
    29 6.809417 0.000001 0.000000 0.731517 0.579583 -0.924491
    30 12.391794 0.000000 0.000001 0.000000 0.000000 -1.627568
    31 9.337102 0.000000 0.000003 -1.022362 -0.300334 0.070787
    32 4.453986 -0.073766 -0.571672 -0.386562 0.126208 -1.146647
    33 1.426599 0.000002 0.000000 -0.051390 0.078806 -1.521754
    34 1.322465 -0.000001 0.000000 -0.034695 0.051519 -1.200268
    35 4.477036 -0.043465 -1.581290 -0.083016 0.164909 0.067468
    36 1.344414 0.000000 0.000000 0.024521 0.136363 -0.478036
    37 1.224670 0.000001 0.000000 -0.166394 0.224946 -1.318175
    38 2.630291 -0.359835 -1.904289 1.070466 0.381356 -0.978487
    39 1.059293 0.000000 0.000000 0.002193 0.017488 0.317162
    40 0.781204 0.000000 0.000000 0.006472 0.026012 0.488050
    41 -0.044717 2.528787 4.661499 0.047075 -0.004447 -0.033066
  time 14
    0 -77.957603 -0.731329 38.371370 1.550322 0.054883 -0.159650
    1 3.890452 -0.000004 -0.000003 -1.611835 -0.232940 -0.872211
    2 17.848177 0.000000 0.000000 0.000000 0.000000 0.681937
    3 15.638507 0.000000 0.000000 -0.244369 -0.043807 -0.666201
    4 7.109929 0.000000 0.000000 -0.007119 -0.003131 -0.631738
    5 -3.890452 0.000004 0.000007 -1.038787 -0.183044 -1.965392
    6 17.848173 0.000000 0.000000 0.000000 0.000000 0.519567
    7 15.638511 0.000000 0.000000 -0.062376 0.076731 -0.593180
    8 7.109930 0.000000 0.000000 -0.080710 -0.003670 -0.764373
    9 -0.183594 3.341221 -2.981901 1.564761 -0.011921 1.566008
    10 4.018331 0.000000 0.000000 -0.141181 -0.011277 0.115227
    11 3.518565 0.000000 0.000000 -0.126102 -0.015688 0.043116
    12 8.942642 0.000000 0.000000 0.033556 0.037380 0.171632
    13 3.306641 0.000001 0.000000 3.138800 0.000567 0.400476
    14 3.593712 -0.000001 0.000000 0.410543 -0.012850 0.554271
    15 2.033346 1.000768 1.101697 1.848180 -1.411864 2.688434
    16 6.809416 0.000001 0.000000 -1.447737 0.043832 -0.967989
    17 12.391796 0.000000 0.000001 0.000000 0.000000 -1.860943
    18 9.337076 0.000000 -0.000031 -0.628577 0.094618 0.248436
    19 4.454020 -0.070210 0.572073 0.096293 -0.007832 -0.804082
    20 1.426597 -0.000001 0.000000 0.023861 -0.079623 -1.125947
    21 1.322468 -0.000002 0.000000 0.009312 -0.033625 -0.575065
    22 4.477066 -0.028570 1.582474 0.476656 -0.055423 -1.136099
    23 1.344418 0.000000 0.000000 0.023466 -0.208305 -0.755723
    24 1.224671 0.000000 0.000000 0.026043 -0.124620 -0.538676
    25 2.630323 -0.345015 1.907214 -0.354022 -0.915164 -1.788195
    26 1.059292 0.000000 0.000001 0.000551 0.000004 0.000021
    27 0.781203 0.000000 0.000000 -0.000467 0.006940 -0.135953
    28 2.033353 1.000771 -1.101647 -2.221219 1.324324 2.397426
    29 6.809417 0.000001 0.000000 0.738047 0.583219 -0.913480
    30 12.391794 0.000000 0.000001 0.000000 0.000000 -1.627855
    31 9.337102 0.000000 0.000003 -1.021914 -0.300372 0.070097
    32 4.453986 -0.073766 -0.571672 -0.386562 0.126208 -1.146676
    33 1.426599 0.000002 0.000000 -0.051390 0.078806 -1.521754
    34 1.322465 -0.000001 0.000000 -0.034695 0.051519 -1.200268
    35 4.477036 -0.043465 -1.581290 -0.083016 0.164909 0.067468
    36 1.344414 0.000000 0.000000 0.024521 0.136363 -0.478036
    37 1.224670 0.000001 0.000000 -0.166394 0.224946 -1.318175
    38 2.630291 -0.359835 -1.904289 1.070466 0.381356 -0.978487
    39 1.059293 0.000000 0.000000 0.002193 0.017488 0.317162
    40 0.781204 0.000000 0.000000 0.006472 0.026012 0.488050
    41 -0.044717 2.528787 4.661499 0.046360 -0.009975 -0.024048
  time 15
    0 -83.939352 -0.650070 37.548015 1.533330 0.052804 -0.142613
    1 3.890452 -0.000004 -0.000003 -1.655832 -0.374975 -0.853715
    2 17.848177 0.000000 0.000000 0.000000 0.000000 0.960124
    3 15.638507 0.000000 0.000000 -0.165719 -0.010340 -0.816244
    4 7.109929 0.000000 0.000000 -0.007119 -0.003131 -0.631738
    5 -3.890452 0.000004 0.000007 -1.285342 -0.168678 -1.888483
    6 17.848173 0.000000 0.000000 0.000000 0.000000 0.621274
    7 15.638511 0.000000 0.000000 0.079747 -0.074040 -0.845107
    8 7.109930 0.000000 0.000000 -0.080111 -0.004197 -0.914478
    9 -0.171875 3.341221 -2.981901 1.565084 -0.005936 1.571683
    10 4.018331 0.000000 0.000000 -0.131688 -0.009720 0.112792
    11 3.518565 0.000000 0.000000 -0.116876 -0.014657 0.046911
    12 8.942642 0.000000 0.000000 0.033417 0.031747 0.170436
    13 3.306641 0.000001 0.000000 3.138800 0.000567 0.400476
    14 3.593712 -0.000001 0.000000 0.382867 -0.006490 0.552215
    15 2.033346 1.000768 1.101697 1.848180 -1.411864 2.688434
    16 6.809416 0.000001 0.000000 -1.448789 0.013688 -0.994873
    17 12.391796 0.000000 0.000001 0.000000 0.000000 -1.825224
    18 9.337076 0.000000 -0.000031 -0.611625 0.115892 0.239667
    19 4.454020 -0.070210 0.572073 0.096293 -0.007832 -0.804082
    20 1.426597 -0.000001 0.000000 0.023861 -0.079623 -1.125947
    21 1.322468 -0.000002 0.000000 0.009312 -0.033625 -0.575065
    22 4.477066 -0.028570 1.582474 0.476656 -0.055423 -1.136099
    23 1.344418 0.000000 0.000000 0.023466 -0.208305 -0.755723
    24 1.224671 0.000000 0.000000 0.026043 -0.124620 -0.538676
    25 2.630323 -0.345015 1.907214 -0.354022 -0.915164 -1.788195
    26 1.059292 0.000000 0.000001 0.000551 0.000004 0.000021
    27 0.781203 0.000000 0.000000 -0.000467 0.006940 -0.135953
    28 2.033353 1.000771 -1.101647 -2.221219 1.324324 2.397426
    29 6.809417 0.000001 0.000000 0.760195 0.570517 -0.895673
    30 12.391794 0.000000 0.000001 0.000000 0.000000 -1.628070
    31 9.337102 0.000000 0.000003 -1.021401 -0.300372 0.069492
    32 4.453986 -0.073766 -0.571672 -0.386562 0.126208 -1.146676
    33 1.426599 0.000002 0.000000 -0.051390 0.078806 -1.521754
    34 1.322465 -0.000001 0.000000 -0.034695 0.051519 -1.200268
    35 4.477036 -0.043465 -1.581290 -0.083016 0.164909 0.067468
    36 1.344414 0.000000 0.000000 0.024521 0.136363 -0.478036
    37 1.224670 0.000001 0.000000 -0.166394 0.224946 -1.318175
    38 2.630291 -0.359835 -1.904289 1.070466 0.381356 -0.978487
    39 1.059293 0.000000 0.000000 0.002193 0.017488 0.317162
    40 0.781204 0.000000 0.000000 0.006472 0.026012 0.488050
    41 -0.044717 2.528787 4.661499 0.040178 -0.024746 0.001924
  time 16
    0 -89.745315 -0.345349 36.632032 1.515405 0.058486 -0.129980
    1 3.890452 -0.000004 -0.000003 -1.716817 -0.506175 -0.855823
    2 17.848177 0.000000 0.000000 0.000000 0.000000 1.203419
    3 15.638507 0.000000 0.000000 -0.149546 -0.008095 -0.950758
    4 7.109929 0.000000 0.000000 -0.007119 -0.003131 -0.631738
    5 -3.890452 0.000004 0.000007 -1.366382 -0.126512 -1.750462
    6 17.848173 0.000000 0.000000 0.000000 0.000000 0.715182
    7 15.638511 0.000000 0.000000 0.038889 -0.162965 -1.174485
    8 7.109930 0.000000 0.000000 -0.080710 -0.003670 -0.764373
    9 -0.183594 3.341221 -2.981901 1.565677 0.005096 1.589356
    10 4.018331 0.000000 0.000000 -0.113673 -0.009648 0.106618
    11 3.518565 0.000000 0.000000 -0.099074 -0.014717 0.052410
    12 8.942642 0.000000 0.000000 0.033237 0.023945 0.167481
    13 3.306641 0.000001 0.000000 3.138800 0.000567 0.400476
    14 3.593712 -0.000001 0.000000 0.327979 0.000513 0.541975
    15 2.033346 1.000768 1.101697 1.848180 -1.411864 2.688434
    16 6.809416 0.000001 0.000000 -1.431958 -0.037433 -1.022230
    17 12.391796 0.000000 0.000001 0.000000 0.000000 -1.762698
    18 9.337076 0.000000 -0.000031 -0.599045 0.139600 0.225185
    19 4.454020 -0.070210 0.572073 0.096293 -0.007832 -0.804082
    20 1.426597 -0.000001 0.000000 0.023861 -0.079623 -1.125947
    21 1.322468 -0.000002 0.000000 0.009312 -0.033625 -0.575065
    22 4.477066 -0.028570 1.582474 0.476656 -0.055423 -1.136099
    23 1.344418 0.000000 0.000000 0.023466 -0.208305 -0.755723
    24 1.224671 0.000000 0.000000 0.026043 -0.124620 -0.538676
    25 2.630323 -0.345015 1.907214 -0.354022 -0.915164 -1.788195
    26 1.059292 0.000000 0.000001 0.000551 0.000004 0.000021
    27 0.781203 0.000000 0.000000 -0.000467 0.006940 -0.135953
    28 2.033353 1.000771 -1.101647 -2.221219 1.324324 2.397426
    29 6.809417 0.000001 0.000000 0.795404 0.542048 -0.873995
    30 12.391794 0.000000 0.000001 0.000000 0.000000 -1.627855
    31 9.337102 0.000000 0.000003 -1.021914 -0.300372 0.070183
    32 4.453986 -0.073766 -0.571672 -0.386562 0.126208 -1.146676
    33 1.426599 0.000002 0.000000 -0.051390 0.078806 -1.521754
    34 1.322465 -0.000001 0.000000 -0.034695 0.051519 -1.200268
    35 4.477036 -0.043465 -1.581290 -0.083016 0.164909 0.067468
    36 1.344414 0.000000 0.000000 0.024521 0.136363 -0.478036
    37 1.224670 0.000001 0.000000 -0.166394 0.224946 -1.318175
    38 2.630291 -0.359835 -1.904289 1.070466 0.381356 -0.978487
    39 1.059293 0.000000 0.000000 0.002193 0.017488 0.317162
    40 0.781204 0.000000 0.000000 0.006472 0.026012 0.488050
    41 -0.044717 2.528787 4.661499 0.028206 -0.044505 0.046894
  time 17
    0 -95.402836 -0.010155 36.426193 1.548368 0.038251 -0.124524
    1 3.890452 -0.000004 -0.000003 -1.698875 -0.640355 -0.995550
    2 17.848177 0.000000 0.000000 0.000000 0.000000 1.329236
    3 15.638507 0.000000 0.000000 -0.152806 0.004030 -1.015645
    4 7.109929 0.000000 0.000000 -0.007119 -0.003131 -0.631738
    5 -3.890452 0.000004 0.000007 -1.450951 -0.156820 -1.585292
    6 17.848173 0.000000 0.000000 0.000000 0.000000 0.805921
    7 15.638511 0.000000 0.000000 -0.053760 -0.058340 -1.300258
    8 7.109930 0.000000 0.000000 -0.080710 -0.003670 -0.764373
    9 -0.117186 3.345128 -2.981901 1.566539 0.018114 1.585809
    10 4.018331 0.000000 0.000000 -0.092290 -0.010031 0.098912
    11 3.518565 0.000000 0.000000 -0.077876 -0.015328 0.058512
    12 8.942642 0.000000 0.000000 0.033056 0.015280 0.163839
    13 3.306641 0.000001 0.000000 3.138800 0.000567 0.400476
    14 3.593712 -0.000001 0.000000 0.262375 0.006787 0.527328
    15 2.033346 1.000768 1.101697 1.848180 -1.411864 2.688434
    16 6.809416 0.000001 0.000000 -1.407094 -0.096004 -1.058676
    17 12.391796 0.000000 0.000001 0.000000 0.000000 -1.687871
    18 9.337076 0.000000 -0.000031 -0.581736 0.164260 0.210357
    19 4.454020 -0.070210 0.572073 0.096293 -0.007832 -0.804082
    20 1.426597 -0.000001 0.000000 0.023861 -0.079623 -1.125947
    21 1.322468 -0.000002 0.000000 0.009312 -0.033625 -0.575065
    22 4.477066 -0.028570 1.582474 0.476656 -0.055423 -1.136099
    23 1.344418 0.000000 0.000000 0.023466 -0.208305 -0.755723
    24 1.224671 0.000000 0.000000 0.026043 -0.124620 -0.538676
    25 2.630323 -0.345015 1.907214 -0.354022 -0.915164 -1.788195
    26 1.059292 0.000000 0.000001 0.000551 0.000004 0.000021
    27 0.781203 0.000000 0.000000 -0.000467 0.006940 -0.135953
    28 2.033353 1.000771 -1.101647 -2.221219 1.324324 2.397426
    29 6.809417 0.000001 0.000000 0.837428 0.504425 -0.845951
    30 12.391794 0.000000 0.000001 0.000000 0.000000 -1.629148
    31 9.337102 0.000000 0.000003 -1.019161 -0.300448 0.066470
    32 4.453986 -0.073766 -0.571672 -0.386562 0.126208 -1.146676
    33 1.426599 0.000002 0.000000 -0.051390 0.078806 -1.521754
    34 1.322465 -0.000001 0.000000 -0.034695 0.051519 -1.200268
    35 4.477036 -0.043465 -1.581290 -0.083016 0.164909 0.067468
    36 1.344414 0.000000 0.000000 0.024521 0.136363 -0.478036
    37 1.224670 0.000001 0.000000 -0.166394 0.224946 -1.318175
    38 2.630291 -0.359835 -1.904289 1.070466 0.381356 -0.978487
    39 1.059293 0.000000 0.000000 0.002193 0.017488 0.317162
    40 0.781204 0.000000 0.000000 0.006472 0.026012 0.488050
    41 -0.044717 2.528787 4.661499 0.013240 -0.065408 0.071944
  time 18
    0 -101.013481 -0.010155 36.601156 1.590421 0.013120 -0.122227
    1 3.890452 -0.000004 -0.000003 -1.637985 -0.769048 -1.183577
    2 17.848177 0.000000 0.000000 0.000000 0.000000 1.432010
    3 15.638507 0.000000 0.000000 -0.166953 0.017194 -1.068576
    4 7.109929 0.000000 0.000000 -0.007119 -0.003131 -0.631738
    5 -3.890452 0.000004 0.000007 -1.526939 -0.074948 -1.376227
    6 17.848173 0.000000 0.000000 0.000000 0.000000 0.643126
    7 15.638511 0.000000 0.000000 -0.261108 -0.004366 -1.251840
    8 7.109930 0.000000 0.000000 -0.080710 -0.003670 -0.764373
    9 -0.121092 3.345128 -2.981901 1.567509 0.030110 1.577002
    10 4.018331 0.000000 0.000000 -0.072602 -0.009983 0.091973
    11 3.518565 0.000000 0.000000 -0.058396 -0.015832 0.064294
    12 8.942642 0.000000 0.000000 0.032918 0.007047 0.160532
    13 3.306641 0.000001 0.000000 3.138800 0.000567 0.400476
    14 3.593712 -0.000001 0.000000 0.202297 0.011777 0.512933
    15 2.033346 1.000768 1.101697 1.848180 -1.411864 2.688434
    16 6.809416 0.000001 0.000000 -1.054979 -0.249516 -0.813026
    17 12.391796 0.000000 0.000001 0.000000 0.000000 -1.615962
    18 9.337076 0.000000 -0.000031 -0.912206 -0.150838 0.187798
    19 4.454020 -0.070210 0.572073 0.096293 -0.007832 -0.804082
    20 1.426597 -0.000001 0.000000 0.023861 -0.079623 -1.125947
    21 1.322468 -0.000002 0.000000 0.009312 -0.033625 -0.575065
    22 4.477066 -0.028570 1.582474 0.476656 -0.055423 -1.136099
    23 1.344418 0.000000 0.000000 0.023466 -0.208305 -0.755723
    24 1.224671 0.000000 0.000000 0.026043 -0.124620 -0.538676
    25 2.630323 -0.345015 1.907214 -0.354022 -0.915164 -1.788195
    26 1.059292 0.000000 0.000001 0.000551 0.000004 0.000021
    27 0.781203 0.000000 0.000000 -0.000467 0.006940 -0.135953
    28 2.033353 1.000771 -1.101647 -2.221219 1.324324 2.397426
    29 6.809417 0.000001 0.000000 0.874436 0.467896 -0.821348
    30 12.391794 0.000000 0.000001 0.000000 0.000000 -1.630512
    31 9.337102 0.000000 0.000003 -1.015833 -0.300601 0.061808
    32 4.453986 -0.073766 -0.571672 -0.386562 0.126208 -1.146676
    33 1.426599 0.000002 0.000000 -0.051390 0.078806 -1.521754
    34 1.322465 -0.000001 0.000000 -0.034695 0.051519 -1.200268
    35 4.477036 -0.043465 -1.581290 -0.083016 0.164909 0.067468
    36 1.344414 0.000000 0.000000 0.024521 0.136363 -0.478036
    37 1.224670 0.000001 0.000000 -0.166394 0.224946 -1.318175
    38 2.630291 -0.359835 -1.904289 1.070466 0.381356 -0.978487
    39 1.059293 0.000000 0.000000 0.002193 0.017488 0.317162
    40 0.781204 0.000000 0.000000 0.006472 0.026012 0.488050
    41 -0.044717 2.528787 4.661499 -0.001270 -0.084182 0.087535
end
