// Created by Crowbar 0.68
version 1
nodes
  0 "ValveBiped.Bip01_Pelvis" -1
  1 "ValveBiped.Bip01_L_Thigh" 0
  2 "ValveBiped.Bip01_L_Calf" 1
  3 "ValveBiped.Bip01_L_Foot" 2
  4 "ValveBiped.Bip01_L_Toe0" 3
  5 "ValveBiped.Bip01_R_Thigh" 0
  6 "ValveBiped.Bip01_R_Calf" 5
  7 "ValveBiped.Bip01_R_Foot" 6
  8 "ValveBiped.Bip01_R_Toe0" 7
  9 "ValveBiped.Bip01_Spine" 0
  10 "ValveBiped.Bip01_Spine1" 9
  11 "ValveBiped.Bip01_Spine2" 10
  12 "ValveBiped.Bip01_Spine4" 11
  13 "ValveBiped.Bip01_Neck1" 12
  14 "ValveBiped.Bip01_Head1" 13
  15 "ValveBiped.Bip01_L_Clavicle" 12
  16 "ValveBiped.Bip01_L_UpperArm" 15
  17 "ValveBiped.Bip01_L_Forearm" 16
  18 "ValveBiped.Bip01_L_Hand" 17
  19 "ValveBiped.Bip01_L_Finger2" 18
  20 "ValveBiped.Bip01_L_Finger21" 19
  21 "ValveBiped.Bip01_L_Finger22" 20
  22 "ValveBiped.Bip01_L_Finger1" 18
  23 "ValveBiped.Bip01_L_Finger11" 22
  24 "ValveBiped.Bip01_L_Finger12" 23
  25 "ValveBiped.Bip01_L_Finger0" 18
  26 "ValveBiped.Bip01_L_Finger01" 25
  27 "ValveBiped.Bip01_L_Finger02" 26
  28 "ValveBiped.Bip01_R_Clavicle" 12
  29 "ValveBiped.Bip01_R_UpperArm" 28
  30 "ValveBiped.Bip01_R_Forearm" 29
  31 "ValveBiped.Bip01_R_Hand" 30
  32 "ValveBiped.Bip01_R_Finger2" 31
  33 "ValveBiped.Bip01_R_Finger21" 32
  34 "ValveBiped.Bip01_R_Finger22" 33
  35 "ValveBiped.Bip01_R_Finger1" 31
  36 "ValveBiped.Bip01_R_Finger11" 35
  37 "ValveBiped.Bip01_R_Finger12" 36
  38 "ValveBiped.Bip01_R_Finger0" 31
  39 "ValveBiped.Bip01_R_Finger01" 38
  40 "ValveBiped.Bip01_R_Finger02" 39
  41 "ValveBiped.Cod" 0
end
skeleton
  time 0
    0 0.000000 0.000000 0.915039 -0.009809 -0.189285 -1.653607
    1 3.888672 -0.000004 -0.000003 -2.224977 -0.369162 -1.240836
    2 17.843750 0.000000 0.000000 0.000000 0.000000 0.664593
    3 15.632813 0.000001 0.000000 0.332971 0.405224 -1.082830
    4 7.109375 -0.000001 0.000000 -0.007119 -0.003132 -0.631765
    5 -3.888672 0.000004 0.000008 -1.503498 -0.122362 -1.536122
    6 17.843750 0.000000 0.000000 0.000000 0.000000 0.561671
    7 15.632813 0.000001 0.000000 0.225162 0.246268 -1.336158
    8 7.109375 -0.000001 0.000000 -0.081150 -0.003134 -0.631763
    9 0.000005 3.343750 -2.980469 1.570793 0.086297 1.570793
    10 4.015625 0.000000 0.000000 -0.011813 -0.120115 0.193937
    11 3.517578 0.000000 0.000001 -0.039220 -0.083509 0.333410
    12 8.937500 0.000000 0.000000 -0.078843 0.112912 0.222369
    13 3.306641 0.000001 0.000000 3.138800 0.000567 0.400476
    14 3.591797 0.000000 -0.000001 0.443865 -0.456856 0.638585
    15 2.033203 1.000000 1.100586 3.050306 -1.224267 1.477080
    16 6.808594 0.000001 0.000000 -2.820017 -1.052740 0.490032
    17 12.390625 -0.000001 0.000001 0.000000 0.000000 -0.798596
    18 9.328125 0.000001 -0.000031 -0.096255 0.569181 0.186792
    19 4.453125 -0.071045 0.573730 0.095492 -0.008588 -0.706365
    20 1.425781 0.000001 0.000000 0.055915 -0.087980 -1.504210
    21 1.324219 0.000002 0.000001 0.009318 -0.033630 -0.575090
    22 4.476563 -0.026367 1.583008 0.481657 -0.035384 -1.246105
    23 1.341797 -0.000001 -0.000002 0.023476 -0.208311 -0.755744
    24 1.225586 0.000003 0.000000 0.026046 -0.124621 -0.538681
    25 2.630859 -0.344482 1.908203 -0.354025 -0.915165 -1.788207
    26 1.057617 0.000001 0.000000 -0.001070 -0.012853 0.251000
    27 0.778320 -0.000001 0.000000 -0.000101 -0.003216 0.062751
    28 2.033203 1.000000 -1.100586 3.106126 1.193696 1.415604
    29 6.808594 -0.000001 -0.000002 1.802784 0.952322 -0.645490
    30 12.390625 0.000001 0.000002 0.000000 0.000000 -1.834723
    31 9.328125 -0.000001 -0.000001 -0.790528 0.086225 0.716409
    32 4.453125 -0.076355 -0.573242 0.047704 -0.153454 -0.767482
    33 1.425781 0.000000 0.000002 -0.053884 0.078890 -1.553283
    34 1.324219 0.000000 -0.000001 -0.013612 0.036967 -0.732282
    35 4.476563 -0.041046 -1.583008 -0.332627 0.218364 0.154975
    36 1.341797 -0.000001 0.000000 -0.042633 0.220746 -0.851607
    37 1.225586 -0.000001 0.000001 0.008154 0.000000 0.000000
    38 2.630859 -0.362305 -1.904297 0.415058 0.423434 -0.720789
    39 1.057617 0.000000 -0.000003 0.015106 0.038911 0.767156
    40 0.778320 0.000000 0.000000 0.004785 0.022541 0.418309
    41 0.000000 0.000002 0.000000 -0.079822 0.080259 -0.067960
end
