// Created by Crowbar 0.68
version 1
nodes
  0 "ValveBiped.Bip01_Pelvis" -1
  1 "ValveBiped.Bip01_L_Thigh" 0
  2 "ValveBiped.Bip01_L_Calf" 1
  3 "ValveBiped.Bip01_L_Foot" 2
  4 "ValveBiped.Bip01_L_Toe0" 3
  5 "ValveBiped.Bip01_R_Thigh" 0
  6 "ValveBiped.Bip01_R_Calf" 5
  7 "ValveBiped.Bip01_R_Foot" 6
  8 "ValveBiped.Bip01_R_Toe0" 7
  9 "ValveBiped.Bip01_Spine" 0
  10 "ValveBiped.Bip01_Spine1" 9
  11 "ValveBiped.Bip01_Spine2" 10
  12 "ValveBiped.Bip01_Spine4" 11
  13 "ValveBiped.Bip01_Neck1" 12
  14 "ValveBiped.Bip01_Head1" 13
  15 "ValveBiped.Bip01_L_Clavicle" 12
  16 "ValveBiped.Bip01_L_UpperArm" 15
  17 "ValveBiped.Bip01_L_Forearm" 16
  18 "ValveBiped.Bip01_L_Hand" 17
  19 "ValveBiped.Bip01_L_Finger2" 18
  20 "ValveBiped.Bip01_L_Finger21" 19
  21 "ValveBiped.Bip01_L_Finger22" 20
  22 "ValveBiped.Bip01_L_Finger1" 18
  23 "ValveBiped.Bip01_L_Finger11" 22
  24 "ValveBiped.Bip01_L_Finger12" 23
  25 "ValveBiped.Bip01_L_Finger0" 18
  26 "ValveBiped.Bip01_L_Finger01" 25
  27 "ValveBiped.Bip01_L_Finger02" 26
  28 "ValveBiped.Bip01_R_Clavicle" 12
  29 "ValveBiped.Bip01_R_UpperArm" 28
  30 "ValveBiped.Bip01_R_Forearm" 29
  31 "ValveBiped.Bip01_R_Hand" 30
  32 "ValveBiped.Bip01_R_Finger2" 31
  33 "ValveBiped.Bip01_R_Finger21" 32
  34 "ValveBiped.Bip01_R_Finger22" 33
  35 "ValveBiped.Bip01_R_Finger1" 31
  36 "ValveBiped.Bip01_R_Finger11" 35
  37 "ValveBiped.Bip01_R_Finger12" 36
  38 "ValveBiped.Bip01_R_Finger0" 31
  39 "ValveBiped.Bip01_R_Finger01" 38
  40 "ValveBiped.Bip01_R_Finger02" 39
  41 "ValveBiped.Cod" 0
end
skeleton
  time 0
    0 -1.146915 -0.385976 35.849844 1.714797 0.084172 -0.084518
    1 3.890452 -0.000004 -0.000003 -2.268740 -0.583532 -0.926932
    2 17.848177 0.000000 0.000000 0.000000 0.000000 1.469609
    3 15.638507 0.000000 0.000000 -0.043613 0.116578 -1.096317
    4 7.109929 0.000000 0.000000 -0.007119 -0.003131 -0.631738
    5 -3.890452 0.000004 0.000007 -1.613986 -0.490162 -1.559844
    6 17.848173 0.000000 0.000000 0.000000 0.000000 0.823062
    7 15.638511 0.000000 0.000000 0.041113 -0.155410 -1.373506
    8 7.109930 0.000000 0.000000 -0.081154 -0.003131 -0.631749
    9 -0.281254 3.333409 -2.981901 1.589980 0.236293 1.584627
    10 4.018331 0.000000 0.000000 -0.247282 -0.033737 0.048628
    11 3.518565 0.000000 0.000000 -0.254280 0.032155 0.155889
    12 8.942642 0.000000 0.000000 -0.013531 0.045182 0.079614
    13 3.306641 0.000001 -0.000001 3.138800 0.000567 0.400476
    14 3.593712 -0.000001 0.000000 0.377467 0.069146 0.397480
    15 2.033346 1.000768 1.101697 1.848180 -1.411864 2.688434
    16 6.809416 0.000001 0.000000 -1.258865 -0.196140 -0.941956
    17 12.391796 0.000000 0.000001 0.000000 0.000000 -1.550834
    18 9.337076 0.000000 -0.000031 -0.544443 0.062527 -0.133914
    19 4.454020 -0.070210 0.572073 0.096293 -0.007832 -0.804082
    20 1.426597 -0.000001 0.000000 0.023861 -0.079623 -1.125947
    21 1.322468 -0.000002 0.000000 0.009312 -0.033625 -0.575065
    22 4.477066 -0.028570 1.582474 0.476656 -0.055423 -1.136099
    23 1.344418 0.000000 0.000000 0.023466 -0.208305 -0.755723
    24 1.224671 0.000000 0.000000 0.026043 -0.124620 -0.538676
    25 2.630323 -0.345015 1.907214 -0.354022 -0.915164 -1.788195
    26 1.059292 0.000000 0.000001 0.000551 0.000004 0.000021
    27 0.781203 0.000000 0.000000 -0.000467 0.006940 -0.135953
    28 2.033353 1.000771 -1.101647 -2.812926 1.424265 1.792852
    29 6.809417 0.000001 0.000000 0.919583 0.221660 -0.964836
    30 12.391794 0.000000 0.000001 0.000000 0.000000 -1.745718
    31 9.337102 0.000000 0.000003 -1.175335 -0.273989 0.000243
    32 4.453986 -0.073766 -0.571672 0.047699 -0.153453 -0.767464
    33 1.426599 0.000002 0.000000 -0.053883 0.078890 -1.553256
    34 1.322465 -0.000001 0.000000 -0.013603 0.036958 -0.732277
    35 4.477036 -0.043465 -1.581290 -0.332128 -0.154804 0.170747
    36 1.344414 0.000000 0.000000 -0.042629 0.220735 -0.851579
    37 1.224670 0.000001 0.000000 0.008150 -0.000004 -0.000025
    38 2.630291 -0.359835 -1.904289 0.415078 0.423437 -0.720800
    39 1.059293 0.000000 0.000000 0.015101 0.038905 0.767148
    40 0.781204 0.000000 0.000000 0.004782 0.022537 0.418308
    41 -0.044717 2.528787 4.661499 -0.194783 0.010578 0.061724
  time 1
    0 -4.694363 3.106799 36.210062 1.707661 0.112029 -0.107679
    1 3.890452 -0.000004 -0.000003 -2.162612 -0.498936 -1.098860
    2 17.848177 0.000000 0.000000 0.000000 0.000000 1.537199
    3 15.638507 0.000000 0.000000 -0.074156 0.305773 -1.006568
    4 7.109929 0.000000 0.000000 -0.007119 -0.003131 -0.631738
    5 -3.890452 0.000004 0.000007 -1.642112 -0.551418 -1.394579
    6 17.848173 0.000000 0.000000 0.000000 0.000000 0.750194
    7 15.638511 0.000000 0.000000 -0.067194 -0.094792 -1.212398
    8 7.109930 0.000000 0.000000 -0.081154 -0.003131 -0.631749
    9 -0.375006 3.325596 -2.981901 1.586208 0.236208 1.594675
    10 4.018331 0.000000 0.000000 -0.258448 -0.030968 0.046993
    11 3.518565 0.000000 0.000000 -0.264827 0.038195 0.154896
    12 8.942642 0.000000 0.000000 -0.012712 0.051054 0.084433
    13 3.306641 0.000001 -0.000001 3.138800 0.000567 0.400476
    14 3.593712 -0.000001 0.000000 0.428558 0.079382 0.383589
    15 2.033346 1.000768 1.101697 1.848180 -1.411864 2.688434
    16 6.809416 0.000001 0.000000 -1.275409 -0.149871 -0.931922
    17 12.391796 0.000000 0.000001 0.000000 0.000000 -1.602637
    18 9.337076 0.000000 -0.000031 -0.541766 0.071470 -0.104835
    19 4.454020 -0.070210 0.572073 0.096293 -0.007832 -0.804082
    20 1.426597 -0.000001 0.000000 0.023861 -0.079623 -1.125947
    21 1.322468 -0.000002 0.000000 0.009312 -0.033625 -0.575065
    22 4.477066 -0.028570 1.582474 0.476656 -0.055423 -1.136099
    23 1.344418 0.000000 0.000000 0.023466 -0.208305 -0.755723
    24 1.224671 0.000000 0.000000 0.026043 -0.124620 -0.538676
    25 2.630323 -0.345015 1.907214 -0.354022 -0.915164 -1.788195
    26 1.059292 0.000000 0.000001 0.000551 0.000004 0.000021
    27 0.781203 0.000000 0.000000 -0.000467 0.006940 -0.135953
    28 2.033353 1.000771 -1.101647 -2.804215 1.438999 1.801095
    29 6.809417 0.000001 0.000000 0.893460 0.227704 -0.988751
    30 12.391794 0.000000 0.000001 0.000000 0.000000 -1.750530
    31 9.337102 0.000000 0.000003 -1.175207 -0.285791 0.010345
    32 4.453986 -0.073766 -0.571672 0.047699 -0.153453 -0.767464
    33 1.426599 0.000002 0.000000 -0.053883 0.078890 -1.553256
    34 1.322465 -0.000001 0.000000 -0.013603 0.036958 -0.732277
    35 4.477036 -0.043465 -1.581290 -0.332128 -0.154804 0.170747
    36 1.344414 0.000000 0.000000 -0.042629 0.220735 -0.851579
    37 1.224670 0.000001 0.000000 0.008150 -0.000004 -0.000025
    38 2.630291 -0.359835 -1.904289 0.415078 0.423437 -0.720800
    39 1.059293 0.000000 0.000000 0.015101 0.038905 0.767148
    40 0.781204 0.000000 0.000000 0.004782 0.022537 0.418308
    41 -0.044717 2.528787 4.661499 -0.195043 0.003367 0.070702
  time 2
    0 -8.222280 6.569101 36.899622 1.704262 0.137437 -0.130650
    1 3.890452 -0.000004 -0.000003 -2.106685 -0.399625 -1.266954
    2 17.848177 0.000000 0.000000 0.000000 0.000000 1.447006
    3 15.638507 0.000000 0.000000 0.008546 0.451575 -0.839173
    4 7.109929 0.000000 0.000000 -0.007119 -0.003131 -0.631738
    5 -3.890452 0.000004 0.000007 -1.628097 -0.485832 -1.253153
    6 17.848173 0.000000 0.000000 0.000000 0.000000 0.431183
    7 15.638511 0.000000 0.000000 -0.195698 -0.055063 -0.936500
    8 7.109930 0.000000 0.000000 -0.081154 -0.003131 -0.631749
    9 -0.460947 3.313877 -2.981901 1.582597 0.236095 1.603246
    10 4.018331 0.000000 0.000000 -0.266743 -0.030429 0.046054
    11 3.518565 0.000000 0.000000 -0.272166 0.042174 0.154222
    12 8.942642 0.000000 0.000000 -0.011130 0.058581 0.088145
    13 3.306641 0.000001 -0.000001 3.138800 0.000567 0.400476
    14 3.593712 -0.000001 0.000000 0.475767 0.090646 0.369404
    15 2.033346 1.000768 1.101697 1.848180 -1.411864 2.688434
    16 6.809416 0.000001 0.000000 -1.294344 -0.097475 -0.910434
    17 12.391796 0.000000 0.000001 0.000000 0.000000 -1.679987
    18 9.337076 0.000000 -0.000031 -0.542569 0.076468 -0.050428
    19 4.454020 -0.070210 0.572073 0.096293 -0.007832 -0.804082
    20 1.426597 -0.000001 0.000000 0.023861 -0.079623 -1.125947
    21 1.322468 -0.000002 0.000000 0.009312 -0.033625 -0.575065
    22 4.477066 -0.028570 1.582474 0.476656 -0.055423 -1.136099
    23 1.344418 0.000000 0.000000 0.023466 -0.208305 -0.755723
    24 1.224671 0.000000 0.000000 0.026043 -0.124620 -0.538676
    25 2.630323 -0.345015 1.907214 -0.354022 -0.915164 -1.788195
    26 1.059292 0.000000 0.000001 0.000551 0.000004 0.000021
    27 0.781203 0.000000 0.000000 -0.000467 0.006940 -0.135953
    28 2.033353 1.000771 -1.101647 -2.818670 1.453248 1.786142
    29 6.809417 0.000001 0.000000 0.864971 0.239004 -1.013956
    30 12.391794 0.000000 0.000001 0.000000 0.000000 -1.759723
    31 9.337102 0.000000 0.000003 -1.163174 -0.298773 0.017599
    32 4.453986 -0.073766 -0.571672 0.047699 -0.153453 -0.767464
    33 1.426599 0.000002 0.000000 -0.053883 0.078890 -1.553256
    34 1.322465 -0.000001 0.000000 -0.013603 0.036958 -0.732277
    35 4.477036 -0.043465 -1.581290 -0.332128 -0.154804 0.170747
    36 1.344414 0.000000 0.000000 -0.042629 0.220735 -0.851579
    37 1.224670 0.000001 0.000000 0.008150 -0.000004 -0.000025
    38 2.630291 -0.359835 -1.904289 0.415078 0.423437 -0.720800
    39 1.059293 0.000000 0.000000 0.015101 0.038905 0.767148
    40 0.781204 0.000000 0.000000 0.004782 0.022537 0.418308
    41 -0.044717 2.528787 4.661499 -0.195173 -0.001398 0.079439
  time 3
    0 -11.769728 10.193922 37.486263 1.703413 0.156933 -0.152376
    1 3.890452 -0.000004 -0.000003 -2.079771 -0.328466 -1.401697
    2 17.848177 0.000000 0.000000 0.000000 0.000000 1.298074
    3 15.638507 0.000000 0.000000 0.055229 0.466252 -0.722959
    4 7.109929 0.000000 0.000000 -0.007119 -0.003131 -0.631738
    5 -3.890452 0.000004 0.000007 -1.535233 -0.551960 -1.217395
    6 17.848173 0.000000 0.000000 0.000000 0.000000 0.390160
    7 15.638511 0.000000 0.000000 0.220666 -0.322064 -0.764983
    8 7.109930 0.000000 0.000000 -0.081154 -0.003131 -0.631749
    9 -0.523448 3.306064 -2.981901 1.579364 0.235953 1.607974
    10 4.018331 0.000000 0.000000 -0.271332 -0.032370 0.046367
    11 3.518565 0.000000 0.000000 -0.275479 0.043684 0.154293
    12 8.942642 0.000000 0.000000 -0.008757 0.067653 0.089781
    13 3.306641 0.000001 -0.000001 3.138800 0.000567 0.400476
    14 3.593712 -0.000001 0.000000 0.513822 0.101139 0.356981
    15 2.033346 1.000768 1.101697 1.848180 -1.411864 2.688434
    16 6.809416 0.000001 0.000000 -1.311749 -0.048804 -0.881372
    17 12.391796 0.000000 0.000001 0.000000 0.000000 -1.765458
    18 9.337076 0.000000 -0.000031 -0.547833 0.079263 0.017364
    19 4.454020 -0.070210 0.572073 0.096293 -0.007832 -0.804082
    20 1.426597 -0.000001 0.000000 0.023861 -0.079623 -1.125947
    21 1.322468 -0.000002 0.000000 0.009312 -0.033625 -0.575065
    22 4.477066 -0.028570 1.582474 0.476656 -0.055423 -1.136099
    23 1.344418 0.000000 0.000000 0.023466 -0.208305 -0.755723
    24 1.224671 0.000000 0.000000 0.026043 -0.124620 -0.538676
    25 2.630323 -0.345015 1.907214 -0.354022 -0.915164 -1.788195
    26 1.059292 0.000000 0.000001 0.000551 0.000004 0.000021
    27 0.781203 0.000000 0.000000 -0.000467 0.006940 -0.135953
    28 2.033353 1.000771 -1.101647 -2.852941 1.465715 1.751345
    29 6.809417 0.000001 0.000000 0.838375 0.251881 -1.039419
    30 12.391794 0.000000 0.000001 0.000000 0.000000 -1.770569
    31 9.337102 0.000000 0.000003 -1.143332 -0.311527 0.021829
    32 4.453986 -0.073766 -0.571672 0.047699 -0.153453 -0.767464
    33 1.426599 0.000002 0.000000 -0.053883 0.078890 -1.553256
    34 1.322465 -0.000001 0.000000 -0.013603 0.036958 -0.732277
    35 4.477036 -0.043465 -1.581290 -0.332128 -0.154804 0.170747
    36 1.344414 0.000000 0.000000 -0.042629 0.220735 -0.851579
    37 1.224670 0.000001 0.000000 0.008150 -0.000004 -0.000025
    38 2.630291 -0.359835 -1.904289 0.415078 0.423437 -0.720800
    39 1.059293 0.000000 0.000000 0.015101 0.038905 0.767148
    40 0.781204 0.000000 0.000000 0.004782 0.022537 0.418308
    41 -0.044717 2.528787 4.661499 -0.195108 -0.002573 0.085972
  time 4
    0 -15.321082 14.021890 37.640642 1.703498 0.170422 -0.170848
    1 3.890452 -0.000004 -0.000003 -2.058011 -0.296009 -1.488044
    2 17.848177 0.000000 0.000000 0.000000 0.000000 1.163772
    3 15.638507 0.000000 0.000000 0.035321 0.393978 -0.717309
    4 7.109929 0.000000 0.000000 -0.007119 -0.003131 -0.631738
    5 -3.890452 0.000004 0.000007 -1.433885 -0.630240 -1.222881
    6 17.848173 0.000000 0.000000 0.000000 0.000000 0.425335
    7 15.638511 0.000000 0.000000 0.629432 -0.572727 -0.740631
    8 7.109930 0.000000 0.000000 -0.081154 -0.003131 -0.631749
    9 -0.570325 3.298251 -2.981901 1.576670 0.235840 1.609452
    10 4.018331 0.000000 0.000000 -0.272281 -0.036769 0.048419
    11 3.518565 0.000000 0.000000 -0.274787 0.042725 0.155392
    12 8.942642 0.000000 0.000000 -0.005690 0.078355 0.088743
    13 3.306641 0.000001 -0.000001 3.138800 0.000567 0.400476
    14 3.593712 -0.000001 0.000000 0.539642 0.108249 0.346951
    15 2.033346 1.000768 1.101697 1.848180 -1.411864 2.688434
    16 6.809416 0.000001 0.000000 -1.326094 -0.009985 -0.847956
    17 12.391796 0.000000 0.000001 0.000000 0.000000 -1.845804
    18 9.337076 0.000000 -0.000031 -0.557558 0.081828 0.087465
    19 4.454020 -0.070210 0.572073 0.096293 -0.007832 -0.804082
    20 1.426597 -0.000001 0.000000 0.023861 -0.079623 -1.125947
    21 1.322468 -0.000002 0.000000 0.009312 -0.033625 -0.575065
    22 4.477066 -0.028570 1.582474 0.476656 -0.055423 -1.136099
    23 1.344418 0.000000 0.000000 0.023466 -0.208305 -0.755723
    24 1.224671 0.000000 0.000000 0.026043 -0.124620 -0.538676
    25 2.630323 -0.345015 1.907214 -0.354022 -0.915164 -1.788195
    26 1.059292 0.000000 0.000001 0.000551 0.000004 0.000021
    27 0.781203 0.000000 0.000000 -0.000467 0.006940 -0.135953
    28 2.033353 1.000771 -1.101647 -2.898509 1.475227 1.705429
    29 6.809417 0.000001 0.000000 0.816416 0.263312 -1.064022
    30 12.391794 0.000000 0.000001 0.000000 0.000000 -1.780840
    31 9.337102 0.000000 0.000003 -1.120738 -0.322567 0.023470
    32 4.453986 -0.073766 -0.571672 0.047699 -0.153453 -0.767464
    33 1.426599 0.000002 0.000000 -0.053883 0.078890 -1.553256
    34 1.322465 -0.000001 0.000000 -0.013603 0.036958 -0.732277
    35 4.477036 -0.043465 -1.581290 -0.332128 -0.154804 0.170747
    36 1.344414 0.000000 0.000000 -0.042629 0.220735 -0.851579
    37 1.224670 0.000001 0.000000 0.008150 -0.000004 -0.000025
    38 2.630291 -0.359835 -1.904289 0.415078 0.423437 -0.720800
    39 1.059293 0.000000 0.000000 0.015101 0.038905 0.767148
    40 0.781204 0.000000 0.000000 0.004782 0.022537 0.418308
    41 -0.044717 2.528787 4.661499 -0.194848 0.000159 0.091063
  time 5
    0 -17.091133 16.011371 37.537723 1.703922 0.176705 -0.178026
    1 3.890452 -0.000004 -0.000003 -2.042264 -0.269371 -1.530115
    2 17.848177 0.000000 0.000000 0.000000 0.000000 1.106642
    3 15.638507 0.000000 0.000000 0.038360 0.352381 -0.756533
    4 7.109929 0.000000 0.000000 -0.007119 -0.003131 -0.631738
    5 -3.890452 0.000004 0.000007 -1.377728 -0.645738 -1.238017
    6 17.848173 0.000000 0.000000 0.000000 0.000000 0.455879
    7 15.638511 0.000000 0.000000 0.641847 -0.636804 -0.771095
    8 7.109930 0.000000 0.000000 -0.081154 -0.003131 -0.631749
    9 -0.589857 3.294345 -2.981901 1.575538 0.235755 1.610871
    10 4.018331 0.000000 0.000000 -0.271196 -0.039465 0.049811
    11 3.518565 0.000000 0.000000 -0.272879 0.041515 0.156208
    12 8.942642 0.000000 0.000000 -0.004108 0.083605 0.087547
    13 3.306641 0.000001 -0.000001 3.138800 0.000567 0.400476
    14 3.593712 -0.000001 0.000000 0.546941 0.109641 0.342838
    15 2.033346 1.000768 1.101697 1.848180 -1.411864 2.688434
    16 6.809416 0.000001 0.000000 -1.340056 0.019472 -0.818232
    17 12.391796 0.000000 0.000001 0.000000 0.000000 -1.910932
    18 9.337076 0.000000 -0.000031 -0.567372 0.084491 0.145969
    19 4.454020 -0.070210 0.572073 0.096293 -0.007832 -0.804082
    20 1.426597 -0.000001 0.000000 0.023861 -0.079623 -1.125947
    21 1.322468 -0.000002 0.000000 0.009312 -0.033625 -0.575065
    22 4.477066 -0.028570 1.582474 0.476656 -0.055423 -1.136099
    23 1.344418 0.000000 0.000000 0.023466 -0.208305 -0.755723
    24 1.224671 0.000000 0.000000 0.026043 -0.124620 -0.538676
    25 2.630323 -0.345015 1.907214 -0.354022 -0.915164 -1.788195
    26 1.059292 0.000000 0.000001 0.000551 0.000004 0.000021
    27 0.781203 0.000000 0.000000 -0.000467 0.006940 -0.135953
    28 2.033353 1.000771 -1.101647 -2.938524 1.480652 1.665265
    29 6.809417 0.000001 0.000000 0.799096 0.275401 -1.083377
    30 12.391794 0.000000 0.000001 0.000000 0.000000 -1.788166
    31 9.337102 0.000000 0.000003 -1.100192 -0.330410 0.023038
    32 4.453986 -0.073766 -0.571672 0.047699 -0.153453 -0.767464
    33 1.426599 0.000002 0.000000 -0.053883 0.078890 -1.553256
    34 1.322465 -0.000001 0.000000 -0.013603 0.036958 -0.732277
    35 4.477036 -0.043465 -1.581290 -0.332128 -0.154804 0.170747
    36 1.344414 0.000000 0.000000 -0.042629 0.220735 -0.851579
    37 1.224670 0.000001 0.000000 0.008150 -0.000004 -0.000025
    38 2.630291 -0.359835 -1.904289 0.415078 0.423437 -0.720800
    39 1.059293 0.000000 0.000000 0.015101 0.038905 0.767148
    40 0.781204 0.000000 0.000000 0.004782 0.022537 0.418308
    41 -0.044717 2.528787 4.661499 -0.194392 0.007052 0.097235
  time 6
    0 -18.872902 18.000853 37.290716 1.704517 0.181510 -0.182716
    1 3.890452 -0.000004 -0.000003 -2.036728 -0.274907 -1.514590
    2 17.848177 0.000000 0.000000 0.000000 0.000000 1.076358
    3 15.638507 0.000000 0.000000 0.046905 0.320639 -0.835637
    4 7.109929 0.000000 0.000000 -0.007119 -0.003131 -0.631738
    5 -3.890452 0.000004 0.000007 -1.307461 -0.670339 -1.285884
    6 17.848173 0.000000 0.000000 0.000000 0.000000 0.565953
    7 15.638511 0.000000 0.000000 0.481194 -0.642310 -0.812255
    8 7.109930 0.000000 0.000000 -0.081154 -0.003131 -0.631749
    9 -0.605482 3.290439 -2.981901 1.574622 0.235698 1.611698
    10 4.018331 0.000000 0.000000 -0.269207 -0.042773 0.051742
    11 3.518565 0.000000 0.000000 -0.269985 0.039693 0.157343
    12 8.942642 0.000000 0.000000 -0.002387 0.089237 0.085559
    13 3.306641 0.000001 -0.000001 3.138800 0.000567 0.400476
    14 3.593712 -0.000001 0.000000 0.550231 0.109191 0.339565
    15 2.033346 1.000768 1.101697 1.848180 -1.411864 2.688434
    16 6.809416 0.000001 0.000000 -1.351341 0.041283 -0.791348
    17 12.391796 0.000000 0.000001 0.000000 0.000000 -1.954535
    18 9.337076 0.000000 -0.000031 -0.577543 0.088996 0.184163
    19 4.454020 -0.070210 0.572073 0.096293 -0.007832 -0.804082
    20 1.426597 -0.000001 0.000000 0.023861 -0.079623 -1.125947
    21 1.322468 -0.000002 0.000000 0.009312 -0.033625 -0.575065
    22 4.477066 -0.028570 1.582474 0.476656 -0.055423 -1.136099
    23 1.344418 0.000000 0.000000 0.023466 -0.208305 -0.755723
    24 1.224671 0.000000 0.000000 0.026043 -0.124620 -0.538676
    25 2.630323 -0.345015 1.907214 -0.354022 -0.915164 -1.788195
    26 1.059292 0.000000 0.000001 0.000551 0.000004 0.000021
    27 0.781203 0.000000 0.000000 -0.000467 0.006940 -0.135953
    28 2.033353 1.000771 -1.101647 -2.950490 1.481178 1.653283
    29 6.809417 0.000001 0.000000 0.785845 0.281095 -1.101098
    30 12.391794 0.000000 0.000001 0.000000 0.000000 -1.790536
    31 9.337102 0.000000 0.000003 -1.088671 -0.333875 0.022607
    32 4.453986 -0.073766 -0.571672 0.047699 -0.153453 -0.767464
    33 1.426599 0.000002 0.000000 -0.053883 0.078890 -1.553256
    34 1.322465 -0.000001 0.000000 -0.013603 0.036958 -0.732277
    35 4.477036 -0.043465 -1.581290 -0.332128 -0.154804 0.170747
    36 1.344414 0.000000 0.000000 -0.042629 0.220735 -0.851579
    37 1.224670 0.000001 0.000000 0.008150 -0.000004 -0.000025
    38 2.630291 -0.359835 -1.904289 0.415078 0.423437 -0.720800
    39 1.059293 0.000000 0.000000 0.015101 0.038905 0.767148
    40 0.781204 0.000000 0.000000 0.004782 0.022537 0.418308
    41 -0.044717 2.528787 4.661499 -0.193807 0.016042 0.103928
  time 7
    0 -22.435976 21.960867 36.559988 1.705452 0.185806 -0.186544
    1 3.890452 -0.000004 -0.000003 -2.049899 -0.332724 -1.417414
    2 17.848177 0.000000 0.000000 0.000000 0.000000 1.059827
    3 15.638507 0.000000 0.000000 0.053489 0.293908 -0.965558
    4 7.109929 0.000000 0.000000 -0.007119 -0.003131 -0.631738
    5 -3.890452 0.000004 0.000007 -1.060334 -0.807563 -1.506963
    6 17.848173 0.000000 0.000000 0.000000 0.000000 1.008766
    7 15.638511 0.000000 0.000000 0.164243 -0.571134 -0.872038
    8 7.109930 0.000000 0.000000 -0.081154 -0.003131 -0.631749
    9 -0.621108 3.290439 -2.981901 1.573113 0.235613 1.609570
    10 4.018331 0.000000 0.000000 -0.264822 -0.050767 0.056960
    11 3.518565 0.000000 0.000000 -0.263464 0.035043 0.160359
    12 8.942642 0.000000 0.000000 0.001485 0.102217 0.079719
    13 3.306641 0.000001 -0.000001 3.138800 0.000567 0.400476
    14 3.593712 -0.000001 0.000000 0.551877 0.105251 0.334738
    15 2.033346 1.000768 1.101697 1.848180 -1.411864 2.688434
    16 6.809416 0.000001 0.000000 -1.357557 0.052115 -0.761151
    17 12.391796 0.000000 0.000001 0.000000 0.000000 -1.969674
    18 9.337076 0.000000 -0.000031 -0.590837 0.095999 0.195125
    19 4.454020 -0.070210 0.572073 0.096293 -0.007832 -0.804082
    20 1.426597 -0.000001 0.000000 0.023861 -0.079623 -1.125947
    21 1.322468 -0.000002 0.000000 0.009312 -0.033625 -0.575065
    22 4.477066 -0.028570 1.582474 0.476656 -0.055423 -1.136099
    23 1.344418 0.000000 0.000000 0.023466 -0.208305 -0.755723
    24 1.224671 0.000000 0.000000 0.026043 -0.124620 -0.538676
    25 2.630323 -0.345015 1.907214 -0.354022 -0.915164 -1.788195
    26 1.059292 0.000000 0.000001 0.000551 0.000004 0.000021
    27 0.781203 0.000000 0.000000 -0.000467 0.006940 -0.135953
    28 2.033353 1.000771 -1.101647 -2.914974 1.471423 1.689038
    29 6.809417 0.000001 0.000000 0.779030 0.274569 -1.119594
    30 12.391794 0.000000 0.000001 0.000000 0.000000 -1.784646
    31 9.337102 0.000000 0.000003 -1.091680 -0.328925 0.022175
    32 4.453986 -0.073766 -0.571672 0.047699 -0.153453 -0.767464
    33 1.426599 0.000002 0.000000 -0.053883 0.078890 -1.553256
    34 1.322465 -0.000001 0.000000 -0.013603 0.036958 -0.732277
    35 4.477036 -0.043465 -1.581290 -0.332128 -0.154804 0.170747
    36 1.344414 0.000000 0.000000 -0.042629 0.220735 -0.851579
    37 1.224670 0.000001 0.000000 0.008150 -0.000004 -0.000025
    38 2.630291 -0.359835 -1.904289 0.415078 0.423437 -0.720800
    39 1.059293 0.000000 0.000000 0.015101 0.038905 0.767148
    40 0.781204 0.000000 0.000000 0.004782 0.022537 0.418308
    41 -0.044717 2.528787 4.661499 -0.193026 0.025636 0.108658
  time 8
    0 -25.952173 25.798993 35.757216 1.706896 0.141041 -0.151802
    1 3.890452 -0.000004 -0.000003 -2.077863 -0.403268 -1.338255
    2 17.848177 0.000000 0.000000 0.000000 0.000000 1.047684
    3 15.638507 0.000000 0.000000 0.054976 0.269163 -1.115346
    4 7.109929 0.000000 0.000000 -0.007119 -0.003131 -0.631738
    5 -3.890452 0.000004 0.000007 -1.094848 -0.839790 -1.623037
    6 17.848173 0.000000 0.000000 0.000000 0.000000 1.246135
    7 15.638511 0.000000 0.000000 0.088363 -0.414447 -0.974700
    8 7.109930 0.000000 0.000000 -0.081154 -0.003131 -0.631749
    9 -0.472666 3.313877 -2.981901 1.581789 0.236208 1.604546
    10 4.018331 0.000000 0.000000 -0.251622 -0.054206 0.061882
    11 3.518565 0.000000 0.000000 -0.251890 0.025563 0.164509
    12 8.942642 0.000000 0.000000 -0.001860 0.088542 0.072454
    13 3.306641 0.000001 -0.000001 3.138800 0.000567 0.400476
    14 3.593712 -0.000001 0.000000 0.460790 0.079853 0.373055
    15 2.033346 1.000768 1.101697 1.848180 -1.411864 2.688434
    16 6.809416 0.000001 0.000000 -1.365877 0.013345 -0.756986
    17 12.391796 0.000000 0.000001 0.000000 0.000000 -1.935533
    18 9.337076 0.000000 -0.000031 -0.591640 0.099846 0.177124
    19 4.454020 -0.070210 0.572073 0.096293 -0.007832 -0.804082
    20 1.426597 -0.000001 0.000000 0.023861 -0.079623 -1.125947
    21 1.322468 -0.000002 0.000000 0.009312 -0.033625 -0.575065
    22 4.477066 -0.028570 1.582474 0.476656 -0.055423 -1.136099
    23 1.344418 0.000000 0.000000 0.023466 -0.208305 -0.755723
    24 1.224671 0.000000 0.000000 0.026043 -0.124620 -0.538676
    25 2.630323 -0.345015 1.907214 -0.354022 -0.915164 -1.788195
    26 1.059292 0.000000 0.000001 0.000551 0.000004 0.000021
    27 0.781203 0.000000 0.000000 -0.000467 0.006940 -0.135953
    28 2.033353 1.000771 -1.101647 -2.859355 1.450576 1.745306
    29 6.809417 0.000001 0.000000 0.800515 0.284204 -1.102819
    30 12.391794 0.000000 0.000001 0.000000 0.000000 -1.771431
    31 9.337102 0.000000 0.000003 -1.092768 -0.313583 0.010345
    32 4.453986 -0.073766 -0.571672 0.047699 -0.153453 -0.767464
    33 1.426599 0.000002 0.000000 -0.053883 0.078890 -1.553256
    34 1.322465 -0.000001 0.000000 -0.013603 0.036958 -0.732277
    35 4.477036 -0.043465 -1.581290 -0.332128 -0.154804 0.170747
    36 1.344414 0.000000 0.000000 -0.042629 0.220735 -0.851579
    37 1.224670 0.000001 0.000000 0.008150 -0.000004 -0.000025
    38 2.630291 -0.359835 -1.904289 0.415078 0.423437 -0.720800
    39 1.059293 0.000000 0.000000 0.015101 0.038905 0.767148
    40 0.781204 0.000000 0.000000 0.004782 0.022537 0.418308
    41 -0.044717 2.528787 4.661499 -0.191985 0.045649 0.108457
  time 9
    0 -29.441026 29.373026 35.232327 1.708680 0.086990 -0.110072
    1 3.890452 -0.000004 -0.000003 -2.121383 -0.475090 -1.249895
    2 17.848177 0.000000 0.000000 0.000000 0.000000 1.037516
    3 15.638507 0.000000 0.000000 0.051051 0.241061 -1.273372
    4 7.109929 0.000000 0.000000 -0.007119 -0.003131 -0.631738
    5 -3.890452 0.000004 0.000007 -1.191239 -0.858782 -1.709501
    6 17.848173 0.000000 0.000000 0.000000 0.000000 1.444349
    7 15.638511 0.000000 0.000000 0.065757 -0.256577 -1.070009
    8 7.109930 0.000000 0.000000 -0.081154 -0.003131 -0.631749
    9 -0.289066 3.333409 -2.981901 1.592459 0.236464 1.598990
    10 4.018331 0.000000 0.000000 -0.236749 -0.056867 0.066717
    11 3.518565 0.000000 0.000000 -0.239414 0.015137 0.168766
    12 8.942642 0.000000 0.000000 -0.006439 0.069810 0.065031
    13 3.306641 0.000001 -0.000001 3.138800 0.000567 0.400476
    14 3.593712 -0.000001 0.000000 0.350845 0.055141 0.421192
    15 2.033346 1.000768 1.101697 1.848180 -1.411864 2.688434
    16 6.809416 0.000001 0.000000 -1.371806 -0.032041 -0.758879
    17 12.391796 0.000000 0.000001 0.000000 0.000000 -1.886332
    18 9.337076 0.000000 -0.000031 -0.588785 0.101491 0.145103
    19 4.454020 -0.070210 0.572073 0.096293 -0.007832 -0.804082
    20 1.426597 -0.000001 0.000000 0.023861 -0.079623 -1.125947
    21 1.322468 -0.000002 0.000000 0.009312 -0.033625 -0.575065
    22 4.477066 -0.028570 1.582474 0.476656 -0.055423 -1.136099
    23 1.344418 0.000000 0.000000 0.023466 -0.208305 -0.755723
    24 1.224671 0.000000 0.000000 0.026043 -0.124620 -0.538676
    25 2.630323 -0.345015 1.907214 -0.354022 -0.915164 -1.788195
    26 1.059292 0.000000 0.000001 0.000551 0.000004 0.000021
    27 0.781203 0.000000 0.000000 -0.000467 0.006940 -0.135953
    28 2.033353 1.000771 -1.101647 -2.813788 1.424994 1.791893
    29 6.809417 0.000001 0.000000 0.827396 0.292657 -1.077786
    30 12.391794 0.000000 0.000001 0.000000 0.000000 -1.755773
    31 9.337102 0.000000 0.000003 -1.097120 -0.295004 -0.003556
    32 4.453986 -0.073766 -0.571672 0.047699 -0.153453 -0.767464
    33 1.426599 0.000002 0.000000 -0.053883 0.078890 -1.553256
    34 1.322465 -0.000001 0.000000 -0.013603 0.036958 -0.732277
    35 4.477036 -0.043465 -1.581290 -0.332128 -0.154804 0.170747
    36 1.344414 0.000000 0.000000 -0.042629 0.220735 -0.851579
    37 1.224670 0.000001 0.000000 0.008150 -0.000004 -0.000025
    38 2.630291 -0.359835 -1.904289 0.415078 0.423437 -0.720800
    39 1.059293 0.000000 0.000000 0.015101 0.038905 0.767148
    40 0.781204 0.000000 0.000000 0.004782 0.022537 0.418308
    41 -0.044717 2.528787 4.661499 -0.190293 0.067218 0.107255
  time 10
    0 -32.925972 32.896273 34.758898 1.710889 0.032846 -0.068438
    1 3.890452 -0.000004 -0.000003 -2.175115 -0.537260 -1.159906
    2 17.848177 0.000000 0.000000 0.000000 0.000000 1.025593
    3 15.638507 0.000000 0.000000 0.046399 0.205988 -1.426660
    4 7.109929 0.000000 0.000000 -0.007119 -0.003131 -0.631738
    5 -3.890452 0.000004 0.000007 -1.288583 -0.879398 -1.794356
    6 17.848173 0.000000 0.000000 0.000000 0.000000 1.641669
    7 15.638511 0.000000 0.000000 0.051026 -0.108809 -1.153762
    8 7.109930 0.000000 0.000000 -0.081154 -0.003131 -0.631749
    9 -0.105467 3.345128 -2.981901 1.603075 0.236180 1.593375
    10 4.018331 0.000000 0.000000 -0.221921 -0.059575 0.071518
    11 3.518565 0.000000 0.000000 -0.227001 0.004662 0.172881
    12 8.942642 0.000000 0.000000 -0.010866 0.051018 0.057678
    13 3.306641 0.000001 -0.000001 3.138800 0.000567 0.400476
    14 3.593712 -0.000001 0.000000 0.239550 0.035997 0.470798
    15 2.033346 1.000768 1.101697 1.848180 -1.411864 2.688434
    16 6.809416 0.000001 0.000000 -1.374484 -0.076693 -0.762476
    17 12.391796 0.000000 0.000001 0.000000 0.000000 -1.837367
    18 9.337076 0.000000 -0.000031 -0.585216 0.102444 0.114524
    19 4.454020 -0.070210 0.572073 0.096293 -0.007832 -0.804082
    20 1.426597 -0.000001 0.000000 0.023861 -0.079623 -1.125947
    21 1.322468 -0.000002 0.000000 0.009312 -0.033625 -0.575065
    22 4.477066 -0.028570 1.582474 0.476656 -0.055423 -1.136099
    23 1.344418 0.000000 0.000000 0.023466 -0.208305 -0.755723
    24 1.224671 0.000000 0.000000 0.026043 -0.124620 -0.538676
    25 2.630323 -0.345015 1.907214 -0.354022 -0.915164 -1.788195
    26 1.059292 0.000000 0.000001 0.000551 0.000004 0.000021
    27 0.781203 0.000000 0.000000 -0.000467 0.006940 -0.135953
    28 2.033353 1.000771 -1.101647 -2.784590 1.401436 1.822280
    29 6.809417 0.000001 0.000000 0.854749 0.298132 -1.051807
    30 12.391794 0.000000 0.000001 0.000000 0.000000 -1.741911
    31 9.337102 0.000000 0.000003 -1.100192 -0.278481 -0.017199
    32 4.453986 -0.073766 -0.571672 0.047699 -0.153453 -0.767464
    33 1.426599 0.000002 0.000000 -0.053883 0.078890 -1.553256
    34 1.322465 -0.000001 0.000000 -0.013603 0.036958 -0.732277
    35 4.477036 -0.043465 -1.581290 -0.332128 -0.154804 0.170747
    36 1.344414 0.000000 0.000000 -0.042629 0.220735 -0.851579
    37 1.224670 0.000001 0.000000 0.008150 -0.000004 -0.000025
    38 2.630291 -0.359835 -1.904289 0.415078 0.423437 -0.720800
    39 1.059293 0.000000 0.000000 0.015101 0.038905 0.767148
    40 0.781204 0.000000 0.000000 0.004782 0.022537 0.418308
    41 -0.044717 2.528787 4.661499 -0.187951 0.087644 0.105532
  time 11
    0 -36.438263 36.683611 35.417582 1.721933 0.015984 -0.072937
    1 3.890452 -0.000004 -0.000003 -2.092274 -0.588500 -1.128185
    2 17.848177 0.000000 0.000000 0.000000 0.000000 0.810241
    3 15.638507 0.000000 0.000000 -0.065262 0.172285 -1.176479
    4 7.109929 0.000000 0.000000 -0.007119 -0.003131 -0.631738
    5 -3.890452 0.000004 0.000007 -1.377728 -0.795164 -1.884321
    6 17.848173 0.000000 0.000000 0.000000 0.000000 1.637039
    7 15.638511 0.000000 0.000000 0.091328 -0.089468 -1.094265
    8 7.109930 0.000000 0.000000 -0.081154 -0.003131 -0.631749
    9 -0.050778 3.345128 -2.981901 1.602967 0.236208 1.577120
    10 4.018331 0.000000 0.000000 -0.209896 -0.058317 0.066387
    11 3.518565 0.000000 0.000000 -0.215489 0.003332 0.169298
    12 8.942642 0.000000 0.000000 -0.010769 0.046500 0.059701
    13 3.306641 0.000001 -0.000001 3.138800 0.000567 0.400476
    14 3.593712 -0.000001 0.000000 0.227104 0.035590 0.464335
    15 2.033346 1.000768 1.101697 1.848180 -1.411864 2.688434
    16 6.809416 0.000001 0.000000 -1.350671 -0.102033 -0.772037
    17 12.391796 0.000000 0.000001 0.000000 0.000000 -1.835553
    18 9.337076 0.000000 -0.000031 -0.581736 0.038655 0.115505
    19 4.454020 -0.070210 0.572073 0.096293 -0.007832 -0.804082
    20 1.426597 -0.000001 0.000000 0.023861 -0.079623 -1.125947
    21 1.322468 -0.000002 0.000000 0.009312 -0.033625 -0.575065
    22 4.477066 -0.028570 1.582474 0.476656 -0.055423 -1.136099
    23 1.344418 0.000000 0.000000 0.023466 -0.208305 -0.755723
    24 1.224671 0.000000 0.000000 0.026043 -0.124620 -0.538676
    25 2.630323 -0.345015 1.907214 -0.354022 -0.915164 -1.788195
    26 1.059292 0.000000 0.000001 0.000551 0.000004 0.000021
    27 0.781203 0.000000 0.000000 -0.000467 0.006940 -0.135953
    28 2.033353 1.000771 -1.101647 -2.889989 1.367596 1.716357
    29 6.809417 0.000001 0.000000 0.885699 0.311272 -0.975847
    30 12.391794 0.000000 0.000001 0.000000 0.000000 -1.760657
    31 9.337102 0.000000 0.000003 -1.075678 -0.253126 -0.037922
    32 4.453986 -0.073766 -0.571672 0.047699 -0.153453 -0.767464
    33 1.426599 0.000002 0.000000 -0.053883 0.078890 -1.553256
    34 1.322465 -0.000001 0.000000 -0.013603 0.036958 -0.732277
    35 4.477036 -0.043465 -1.581290 -0.332128 -0.154804 0.170747
    36 1.344414 0.000000 0.000000 -0.042629 0.220735 -0.851579
    37 1.224670 0.000001 0.000000 0.008150 -0.000004 -0.000025
    38 2.630291 -0.359835 -1.904289 0.415078 0.423437 -0.720800
    39 1.059293 0.000000 0.000000 0.015101 0.038905 0.767148
    40 0.781204 0.000000 0.000000 0.004782 0.022537 0.418308
    41 -0.044717 2.528787 4.661499 -0.188992 0.079512 0.084329
  time 12
    0 -40.181030 40.481107 36.271814 1.733657 0.014275 -0.069491
    1 3.890452 -0.000004 -0.000003 -2.126918 -0.578564 -1.044042
    2 17.848177 0.000000 0.000000 0.000000 0.000000 0.595548
    3 15.638507 0.000000 0.000000 -0.109414 0.223123 -0.949300
    4 7.109929 0.000000 0.000000 -0.007119 -0.003131 -0.631738
    5 -3.890452 0.000004 0.000007 -1.492901 -0.698532 -1.898227
    6 17.848173 0.000000 0.000000 0.000000 0.000000 1.512668
    7 15.638511 0.000000 0.000000 0.117918 -0.091379 -1.017197
    8 7.109930 0.000000 0.000000 -0.081154 -0.003131 -0.631749
    9 -0.042965 3.345128 -2.981901 1.602374 0.236208 1.573515
    10 4.018331 0.000000 0.000000 -0.203996 -0.056052 0.061117
    11 3.518565 0.000000 0.000000 -0.210163 0.003715 0.165396
    12 8.942642 0.000000 0.000000 -0.011116 0.042282 0.062392
    13 3.306641 0.000001 -0.000001 3.138800 0.000567 0.400476
    14 3.593712 -0.000001 0.000000 0.224193 0.036639 0.453381
    15 2.033346 1.000768 1.101697 1.848180 -1.411864 2.688434
    16 6.809416 0.000001 0.000000 -1.334223 -0.097769 -0.777054
    17 12.391796 0.000000 0.000001 0.000000 0.000000 -1.854477
    18 9.337076 0.000000 -0.000031 -0.576651 -0.028356 0.118275
    19 4.454020 -0.070210 0.572073 0.096293 -0.007832 -0.804082
    20 1.426597 -0.000001 0.000000 0.023861 -0.079623 -1.125947
    21 1.322468 -0.000002 0.000000 0.009312 -0.033625 -0.575065
    22 4.477066 -0.028570 1.582474 0.476656 -0.055423 -1.136099
    23 1.344418 0.000000 0.000000 0.023466 -0.208305 -0.755723
    24 1.224671 0.000000 0.000000 0.026043 -0.124620 -0.538676
    25 2.630323 -0.345015 1.907214 -0.354022 -0.915164 -1.788195
    26 1.059292 0.000000 0.000001 0.000551 0.000004 0.000021
    27 0.781203 0.000000 0.000000 -0.000467 0.006940 -0.135953
    28 2.033353 1.000771 -1.101647 -2.964371 1.332096 1.641013
    29 6.809417 0.000001 0.000000 0.901884 0.324981 -0.905824
    30 12.391794 0.000000 0.000001 0.000000 0.000000 -1.779834
    31 9.337102 0.000000 0.000003 -1.055260 -0.227885 -0.054587
    32 4.453986 -0.073766 -0.571672 0.047699 -0.153453 -0.767464
    33 1.426599 0.000002 0.000000 -0.053883 0.078890 -1.553256
    34 1.322465 -0.000001 0.000000 -0.013603 0.036958 -0.732277
    35 4.477036 -0.043465 -1.581290 -0.332128 -0.154804 0.170747
    36 1.344414 0.000000 0.000000 -0.042629 0.220735 -0.851579
    37 1.224670 0.000001 0.000000 0.008150 -0.000004 -0.000025
    38 2.630291 -0.359835 -1.904289 0.415078 0.423437 -0.720800
    39 1.059293 0.000000 0.000000 0.015101 0.038905 0.767148
    40 0.781204 0.000000 0.000000 0.004782 0.022537 0.418308
    41 -0.044717 2.528787 4.661499 -0.190033 0.070141 0.075511
  time 13
    0 -44.267557 44.217659 36.889330 1.742238 0.023053 -0.060494
    1 3.890452 -0.000004 -0.000003 -2.172538 -0.563850 -0.959900
    2 17.848177 0.000000 0.000000 0.000000 0.000000 0.449176
    3 15.638507 0.000000 0.000000 -0.128625 0.259993 -0.794299
    4 7.109929 0.000000 0.000000 -0.007119 -0.003131 -0.631738
    5 -3.890452 0.000004 0.000007 -1.614558 -0.606721 -1.857360
    6 17.848173 0.000000 0.000000 0.000000 0.000000 1.329401
    7 15.638511 0.000000 0.000000 0.164891 -0.114452 -0.965437
    8 7.109930 0.000000 0.000000 -0.081154 -0.003131 -0.631749
    9 -0.074216 3.345128 -2.981901 1.601189 0.236237 1.577416
    10 4.018331 0.000000 0.000000 -0.204742 -0.052732 0.056716
    11 3.518565 0.000000 0.000000 -0.211463 0.006256 0.161955
    12 8.942642 0.000000 0.000000 -0.011796 0.039285 0.065171
    13 3.306641 0.000001 -0.000001 3.138800 0.000567 0.400476
    14 3.593712 -0.000001 0.000000 0.232378 0.039359 0.441336
    15 2.033346 1.000768 1.101697 1.848180 -1.411864 2.688434
    16 6.809416 0.000001 0.000000 -1.321695 -0.095367 -0.789076
    17 12.391796 0.000000 0.000001 0.000000 0.000000 -1.851244
    18 9.337076 0.000000 -0.000031 -0.570316 -0.062421 0.103504
    19 4.454020 -0.070210 0.572073 0.096293 -0.007832 -0.804082
    20 1.426597 -0.000001 0.000000 0.023861 -0.079623 -1.125947
    21 1.322468 -0.000002 0.000000 0.009312 -0.033625 -0.575065
    22 4.477066 -0.028570 1.582474 0.476656 -0.055423 -1.136099
    23 1.344418 0.000000 0.000000 0.023466 -0.208305 -0.755723
    24 1.224671 0.000000 0.000000 0.026043 -0.124620 -0.538676
    25 2.630323 -0.345015 1.907214 -0.354022 -0.915164 -1.788195
    26 1.059292 0.000000 0.000001 0.000551 0.000004 0.000021
    27 0.781203 0.000000 0.000000 -0.000467 0.006940 -0.135953
    28 2.033353 1.000771 -1.101647 -2.993377 1.317079 1.611297
    29 6.809417 0.000001 0.000000 0.908604 0.326602 -0.870898
    30 12.391794 0.000000 0.000001 0.000000 0.000000 -1.788884
    31 9.337102 0.000000 0.000003 -1.052124 -0.216426 -0.059163
    32 4.453986 -0.073766 -0.571672 0.047699 -0.153453 -0.767464
    33 1.426599 0.000002 0.000000 -0.053883 0.078890 -1.553256
    34 1.322465 -0.000001 0.000000 -0.013603 0.036958 -0.732277
    35 4.477036 -0.043465 -1.581290 -0.332128 -0.154804 0.170747
    36 1.344414 0.000000 0.000000 -0.042629 0.220735 -0.851579
    37 1.224670 0.000001 0.000000 0.008150 -0.000004 -0.000025
    38 2.630291 -0.359835 -1.904289 0.415078 0.423437 -0.720800
    39 1.059293 0.000000 0.000000 0.015101 0.038905 0.767148
    40 0.781204 0.000000 0.000000 0.004782 0.022537 0.418308
    41 -0.044717 2.528787 4.661499 -0.191139 0.059785 0.074068
  time 14
    0 -46.393087 46.075095 37.023126 1.744107 0.025409 -0.056475
    1 3.890452 -0.000004 -0.000003 -2.172252 -0.573833 -0.940349
    2 17.848177 0.000000 0.000000 0.000000 0.000000 0.446396
    3 15.638507 0.000000 0.000000 -0.125903 0.206768 -0.803522
    4 7.109929 0.000000 0.000000 -0.007119 -0.003131 -0.631738
    5 -3.890452 0.000004 0.000007 -1.667378 -0.564998 -1.835507
    6 17.848173 0.000000 0.000000 0.000000 0.000000 1.241180
    7 15.638511 0.000000 0.000000 0.206583 -0.129880 -0.966774
    8 7.109930 0.000000 0.000000 -0.081154 -0.003131 -0.631749
    9 -0.082029 3.345128 -2.981901 1.600326 0.236265 1.576057
    10 4.018331 0.000000 0.000000 -0.207206 -0.050707 0.055012
    11 3.518565 0.000000 0.000000 -0.214147 0.008269 0.160572
    12 8.942642 0.000000 0.000000 -0.012198 0.038339 0.066508
    13 3.306641 0.000001 -0.000001 3.138800 0.000567 0.400476
    14 3.593712 -0.000001 0.000000 0.240478 0.041500 0.435671
    15 2.033346 1.000768 1.101697 1.848180 -1.411864 2.688434
    16 6.809416 0.000001 0.000000 -1.304194 -0.132765 -0.818422
    17 12.391796 0.000000 0.000001 0.000000 0.000000 -1.788560
    18 9.337076 0.000000 -0.000031 -0.564517 -0.052359 0.057636
    19 4.454020 -0.070210 0.572073 0.096293 -0.007832 -0.804082
    20 1.426597 -0.000001 0.000000 0.023861 -0.079623 -1.125947
    21 1.322468 -0.000002 0.000000 0.009312 -0.033625 -0.575065
    22 4.477066 -0.028570 1.582474 0.476656 -0.055423 -1.136099
    23 1.344418 0.000000 0.000000 0.023466 -0.208305 -0.755723
    24 1.224671 0.000000 0.000000 0.026043 -0.124620 -0.538676
    25 2.630323 -0.345015 1.907214 -0.354022 -0.915164 -1.788195
    26 1.059292 0.000000 0.000001 0.000551 0.000004 0.000021
    27 0.781203 0.000000 0.000000 -0.000467 0.006940 -0.135953
    28 2.033353 1.000771 -1.101647 -2.985336 1.327806 1.619541
    29 6.809417 0.000001 0.000000 0.922706 0.306980 -0.868747
    30 12.391794 0.000000 0.000001 0.000000 0.000000 -1.784000
    31 9.337102 0.000000 0.000003 -1.068766 -0.220499 -0.054759
    32 4.453986 -0.073766 -0.571672 0.047699 -0.153453 -0.767464
    33 1.426599 0.000002 0.000000 -0.053883 0.078890 -1.553256
    34 1.322465 -0.000001 0.000000 -0.013603 0.036958 -0.732277
    35 4.477036 -0.043465 -1.581290 -0.332128 -0.154804 0.170747
    36 1.344414 0.000000 0.000000 -0.042629 0.220735 -0.851579
    37 1.224670 0.000001 0.000000 0.008150 -0.000004 -0.000025
    38 2.630291 -0.359835 -1.904289 0.415078 0.423437 -0.720800
    39 1.059293 0.000000 0.000000 0.015101 0.038905 0.767148
    40 0.781204 0.000000 0.000000 0.004782 0.022537 0.418308
    41 -0.044717 2.528787 4.661499 -0.192115 0.049842 0.067415
  time 15
    0 -48.534242 47.932530 36.981958 1.743427 0.026795 -0.054273
    1 3.890452 -0.000004 -0.000003 -2.186186 -0.592805 -0.930095
    2 17.848177 0.000000 0.000000 0.000000 0.000000 0.544270
    3 15.638507 0.000000 0.000000 -0.093240 0.131373 -0.883793
    4 7.109929 0.000000 0.000000 -0.007119 -0.003131 -0.631738
    5 -3.890452 0.000004 0.000007 -1.699031 -0.526670 -1.814885
    6 17.848173 0.000000 0.000000 0.000000 0.000000 1.159376
    7 15.638511 0.000000 0.000000 0.252722 -0.151360 -1.010226
    8 7.109930 0.000000 0.000000 -0.081154 -0.003131 -0.631749
    9 -0.085935 3.345128 -2.981901 1.599303 0.236293 1.572451
    10 4.018331 0.000000 0.000000 -0.211297 -0.048382 0.053707
    11 3.518565 0.000000 0.000000 -0.218404 0.010954 0.159543
    12 8.942642 0.000000 0.000000 -0.012615 0.037991 0.067898
    13 3.306641 0.000001 -0.000001 3.138800 0.000567 0.400476
    14 3.593712 -0.000001 0.000000 0.252629 0.044370 0.430299
    15 2.033346 1.000768 1.101697 1.848180 -1.411864 2.688434
    16 6.809416 0.000001 0.000000 -1.280669 -0.184915 -0.859316
    17 12.391796 0.000000 0.000001 0.000000 0.000000 -1.693233
    18 9.337076 0.000000 -0.000031 -0.559521 -0.023490 -0.008541
    19 4.454020 -0.070210 0.572073 0.096293 -0.007832 -0.804082
    20 1.426597 -0.000001 0.000000 0.023861 -0.079623 -1.125947
    21 1.322468 -0.000002 0.000000 0.009312 -0.033625 -0.575065
    22 4.477066 -0.028570 1.582474 0.476656 -0.055423 -1.136099
    23 1.344418 0.000000 0.000000 0.023466 -0.208305 -0.755723
    24 1.224671 0.000000 0.000000 0.026043 -0.124620 -0.538676
    25 2.630323 -0.345015 1.907214 -0.354022 -0.915164 -1.788195
    26 1.059292 0.000000 0.000001 0.000551 0.000004 0.000021
    27 0.781203 0.000000 0.000000 -0.000467 0.006940 -0.135953
    28 2.033353 1.000771 -1.101647 -2.956043 1.350271 1.649257
    29 6.809417 0.000001 0.000000 0.939081 0.276627 -0.881995
    30 12.391794 0.000000 0.000001 0.000000 0.000000 -1.772221
    31 9.337102 0.000000 0.000003 -1.096416 -0.231388 -0.045261
    32 4.453986 -0.073766 -0.571672 0.047699 -0.153453 -0.767464
    33 1.426599 0.000002 0.000000 -0.053883 0.078890 -1.553256
    34 1.322465 -0.000001 0.000000 -0.013603 0.036958 -0.732277
    35 4.477036 -0.043465 -1.581290 -0.332128 -0.154804 0.170747
    36 1.344414 0.000000 0.000000 -0.042629 0.220735 -0.851579
    37 1.224670 0.000001 0.000000 0.008150 -0.000004 -0.000025
    38 2.630291 -0.359835 -1.904289 0.415078 0.423437 -0.720800
    39 1.059293 0.000000 0.000000 0.015101 0.038905 0.767148
    40 0.781204 0.000000 0.000000 0.004782 0.022537 0.418308
    41 -0.044717 2.528787 4.661499 -0.192896 0.040026 0.058958
  time 16
    0 -52.714522 51.608138 36.580572 1.736461 0.029705 -0.056379
    1 3.890452 -0.000004 -0.000003 -2.330966 -0.617456 -0.857836
    2 17.848177 0.000000 0.000000 0.000000 0.000000 0.866493
    3 15.638507 0.000000 0.000000 0.021142 0.075312 -1.018671
    4 7.109929 0.000000 0.000000 -0.007119 -0.003131 -0.631738
    5 -3.890452 0.000004 0.000007 -1.692357 -0.457394 -1.783667
    6 17.848173 0.000000 0.000000 0.000000 0.000000 1.016158
    7 15.638511 0.000000 0.000000 0.332400 -0.212251 -1.211634
    8 7.109930 0.000000 0.000000 -0.081154 -0.003131 -0.631749
    9 -0.097654 3.345128 -2.981901 1.596716 0.236322 1.562994
    10 4.018331 0.000000 0.000000 -0.221898 -0.043312 0.051811
    11 3.518565 0.000000 0.000000 -0.229223 0.017438 0.158017
    12 8.942642 0.000000 0.000000 -0.013309 0.038554 0.070976
    13 3.306641 0.000001 -0.000001 3.138800 0.000567 0.400476
    14 3.593712 -0.000001 0.000000 0.285157 0.051629 0.420059
    15 2.033346 1.000768 1.101697 1.848180 -1.411864 2.688434
    16 6.809416 0.000001 0.000000 -1.262499 -0.214177 -0.902009
    17 12.391796 0.000000 0.000001 0.000000 0.000000 -1.608550
    18 9.337076 0.000000 -0.000031 -0.552294 0.010772 -0.073218
    19 4.454020 -0.070210 0.572073 0.096293 -0.007832 -0.804082
    20 1.426597 -0.000001 0.000000 0.023861 -0.079623 -1.125947
    21 1.322468 -0.000002 0.000000 0.009312 -0.033625 -0.575065
    22 4.477066 -0.028570 1.582474 0.476656 -0.055423 -1.136099
    23 1.344418 0.000000 0.000000 0.023466 -0.208305 -0.755723
    24 1.224671 0.000000 0.000000 0.026043 -0.124620 -0.538676
    25 2.630323 -0.345015 1.907214 -0.354022 -0.915164 -1.788195
    26 1.059292 0.000000 0.000001 0.000551 0.000004 0.000021
    27 0.781203 0.000000 0.000000 -0.000467 0.006940 -0.135953
    28 2.033353 1.000771 -1.101647 -2.909326 1.377958 1.696419
    29 6.809417 0.000001 0.000000 0.942961 0.249822 -0.906082
    30 12.391794 0.000000 0.000001 0.000000 0.000000 -1.758287
    31 9.337102 0.000000 0.000003 -1.127331 -0.245702 -0.032741
    32 4.453986 -0.073766 -0.571672 0.047699 -0.153453 -0.767464
    33 1.426599 0.000002 0.000000 -0.053883 0.078890 -1.553256
    34 1.322465 -0.000001 0.000000 -0.013603 0.036958 -0.732277
    35 4.477036 -0.043465 -1.581290 -0.332128 -0.154804 0.170747
    36 1.344414 0.000000 0.000000 -0.042629 0.220735 -0.851579
    37 1.224670 0.000001 0.000000 0.008150 -0.000004 -0.000025
    38 2.630291 -0.359835 -1.904289 0.415078 0.423437 -0.720800
    39 1.059293 0.000000 0.000000 0.015101 0.038905 0.767148
    40 0.781204 0.000000 0.000000 0.004782 0.022537 0.418308
    41 -0.044717 2.528787 4.661499 -0.193677 0.029480 0.045411
  time 17
    0 -56.664327 55.243116 36.035099 1.725331 0.050263 -0.066716
    1 3.890452 -0.000004 -0.000003 -2.359980 -0.615894 -0.836273
    2 17.848177 0.000000 0.000000 0.000000 0.000000 1.219073
    3 15.638507 0.000000 0.000000 0.035701 0.039151 -1.098249
    4 7.109929 0.000000 0.000000 -0.007119 -0.003131 -0.631738
    5 -3.890452 0.000004 0.000007 -1.629717 -0.435450 -1.707514
    6 17.848173 0.000000 0.000000 0.000000 0.000000 0.887400
    7 15.638511 0.000000 0.000000 0.325730 -0.284246 -1.384393
    8 7.109930 0.000000 0.000000 -0.080447 -0.003922 -0.834204
    9 -0.164063 3.341221 -2.981901 1.593537 0.236322 1.568077
    10 4.018331 0.000000 0.000000 -0.234533 -0.038147 0.050263
    11 3.518565 0.000000 0.000000 -0.241846 0.024868 0.156918
    12 8.942642 0.000000 0.000000 -0.013683 0.040987 0.074899
    13 3.306641 0.000001 -0.000001 3.138800 0.000567 0.400476
    14 3.593712 -0.000001 0.000000 0.328021 0.060066 0.409483
    15 2.033346 1.000768 1.101697 1.848180 -1.411864 2.688434
    16 6.809416 0.000001 0.000000 -1.253414 -0.220303 -0.932869
    17 12.391796 0.000000 0.000001 0.000000 0.000000 -1.552490
    18 9.337076 0.000000 -0.000031 -0.547565 0.042371 -0.121221
    19 4.454020 -0.070210 0.572073 0.096293 -0.007832 -0.804082
    20 1.426597 -0.000001 0.000000 0.023861 -0.079623 -1.125947
    21 1.322468 -0.000002 0.000000 0.009312 -0.033625 -0.575065
    22 4.477066 -0.028570 1.582474 0.476656 -0.055423 -1.136099
    23 1.344418 0.000000 0.000000 0.023466 -0.208305 -0.755723
    24 1.224671 0.000000 0.000000 0.026043 -0.124620 -0.538676
    25 2.630323 -0.345015 1.907214 -0.354022 -0.915164 -1.788195
    26 1.059292 0.000000 0.000001 0.000551 0.000004 0.000021
    27 0.781203 0.000000 0.000000 -0.000467 0.006940 -0.135953
    28 2.033353 1.000771 -1.101647 -2.853803 1.404512 1.752016
    29 6.809417 0.000001 0.000000 0.936998 0.229456 -0.936018
    30 12.391794 0.000000 0.000001 0.000000 0.000000 -1.748160
    31 9.337102 0.000000 0.000003 -1.156709 -0.260931 -0.015904
    32 4.453986 -0.073766 -0.571672 0.047699 -0.153453 -0.767464
    33 1.426599 0.000002 0.000000 -0.053883 0.078890 -1.553256
    34 1.322465 -0.000001 0.000000 -0.013603 0.036958 -0.732277
    35 4.477036 -0.043465 -1.581290 -0.332128 -0.154804 0.170747
    36 1.344414 0.000000 0.000000 -0.042629 0.220735 -0.851579
    37 1.224670 0.000001 0.000000 0.008150 -0.000004 -0.000025
    38 2.630291 -0.359835 -1.904289 0.415078 0.423437 -0.720800
    39 1.059293 0.000000 0.000000 0.015101 0.038905 0.767148
    40 0.781204 0.000000 0.000000 0.004782 0.022537 0.418308
    41 -0.044717 2.528787 4.661499 -0.194327 0.019473 0.047295
  time 18
    0 -60.360217 58.827306 35.849844 1.714797 0.084172 -0.084518
    1 3.890452 -0.000004 -0.000003 -2.268740 -0.583532 -0.926932
    2 17.848177 0.000000 0.000000 0.000000 0.000000 1.469609
    3 15.638507 0.000000 0.000000 -0.043613 0.116578 -1.096317
    4 7.109929 0.000000 0.000000 -0.007119 -0.003131 -0.631738
    5 -3.890452 0.000004 0.000007 -1.613986 -0.490162 -1.559844
    6 17.848173 0.000000 0.000000 0.000000 0.000000 0.823062
    7 15.638511 0.000000 0.000000 0.041113 -0.155410 -1.373506
    8 7.109930 0.000000 0.000000 -0.081154 -0.003131 -0.631749
    9 -0.281254 3.333409 -2.981901 1.589980 0.236293 1.584627
    10 4.018331 0.000000 0.000000 -0.247282 -0.033737 0.048628
    11 3.518565 0.000000 0.000000 -0.254280 0.032155 0.155889
    12 8.942642 0.000000 0.000000 -0.013531 0.045182 0.079614
    13 3.306641 0.000001 -0.000001 3.138800 0.000567 0.400476
    14 3.593712 -0.000001 0.000000 0.377467 0.069146 0.397480
    15 2.033346 1.000768 1.101697 1.848180 -1.411864 2.688434
    16 6.809416 0.000001 0.000000 -1.258865 -0.196140 -0.941956
    17 12.391796 0.000000 0.000001 0.000000 0.000000 -1.550834
    18 9.337076 0.000000 -0.000031 -0.544443 0.062527 -0.133914
    19 4.454020 -0.070210 0.572073 0.096293 -0.007832 -0.804082
    20 1.426597 -0.000001 0.000000 0.023861 -0.079623 -1.125947
    21 1.322468 -0.000002 0.000000 0.009312 -0.033625 -0.575065
    22 4.477066 -0.028570 1.582474 0.476656 -0.055423 -1.136099
    23 1.344418 0.000000 0.000000 0.023466 -0.208305 -0.755723
    24 1.224671 0.000000 0.000000 0.026043 -0.124620 -0.538676
    25 2.630323 -0.345015 1.907214 -0.354022 -0.915164 -1.788195
    26 1.059292 0.000000 0.000001 0.000551 0.000004 0.000021
    27 0.781203 0.000000 0.000000 -0.000467 0.006940 -0.135953
    28 2.033353 1.000771 -1.101647 -2.812926 1.424265 1.792852
    29 6.809417 0.000001 0.000000 0.919583 0.221660 -0.964836
    30 12.391794 0.000000 0.000001 0.000000 0.000000 -1.745718
    31 9.337102 0.000000 0.000003 -1.175335 -0.273989 0.000243
    32 4.453986 -0.073766 -0.571672 0.047699 -0.153453 -0.767464
    33 1.426599 0.000002 0.000000 -0.053883 0.078890 -1.553256
    34 1.322465 -0.000001 0.000000 -0.013603 0.036958 -0.732277
    35 4.477036 -0.043465 -1.581290 -0.332128 -0.154804 0.170747
    36 1.344414 0.000000 0.000000 -0.042629 0.220735 -0.851579
    37 1.224670 0.000001 0.000000 0.008150 -0.000004 -0.000025
    38 2.630291 -0.359835 -1.904289 0.415078 0.423437 -0.720800
    39 1.059293 0.000000 0.000000 0.015101 0.038905 0.767148
    40 0.781204 0.000000 0.000000 0.004782 0.022537 0.418308
    41 -0.044717 2.528787 4.661499 -0.194783 0.010578 0.061724
end
