// Created by Crowbar 0.68
version 1
nodes
  0 "ValveBiped.Bip01_Pelvis" -1
  1 "ValveBiped.Bip01_L_Thigh" 0
  2 "ValveBiped.Bip01_L_Calf" 1
  3 "ValveBiped.Bip01_L_Foot" 2
  4 "ValveBiped.Bip01_L_Toe0" 3
  5 "ValveBiped.Bip01_R_Thigh" 0
  6 "ValveBiped.Bip01_R_Calf" 5
  7 "ValveBiped.Bip01_R_Foot" 6
  8 "ValveBiped.Bip01_R_Toe0" 7
  9 "ValveBiped.Bip01_Spine" 0
  10 "ValveBiped.Bip01_Spine1" 9
  11 "ValveBiped.Bip01_Spine2" 10
  12 "ValveBiped.Bip01_Spine4" 11
  13 "ValveBiped.Bip01_Neck1" 12
  14 "ValveBiped.Bip01_Head1" 13
  15 "ValveBiped.Bip01_L_Clavicle" 12
  16 "ValveBiped.Bip01_L_UpperArm" 15
  17 "ValveBiped.Bip01_L_Forearm" 16
  18 "ValveBiped.Bip01_L_Hand" 17
  19 "ValveBiped.Bip01_L_Finger2" 18
  20 "ValveBiped.Bip01_L_Finger21" 19
  21 "ValveBiped.Bip01_L_Finger22" 20
  22 "ValveBiped.Bip01_L_Finger1" 18
  23 "ValveBiped.Bip01_L_Finger11" 22
  24 "ValveBiped.Bip01_L_Finger12" 23
  25 "ValveBiped.Bip01_L_Finger0" 18
  26 "ValveBiped.Bip01_L_Finger01" 25
  27 "ValveBiped.Bip01_L_Finger02" 26
  28 "ValveBiped.Bip01_R_Clavicle" 12
  29 "ValveBiped.Bip01_R_UpperArm" 28
  30 "ValveBiped.Bip01_R_Forearm" 29
  31 "ValveBiped.Bip01_R_Hand" 30
  32 "ValveBiped.Bip01_R_Finger2" 31
  33 "ValveBiped.Bip01_R_Finger21" 32
  34 "ValveBiped.Bip01_R_Finger22" 33
  35 "ValveBiped.Bip01_R_Finger1" 31
  36 "ValveBiped.Bip01_R_Finger11" 35
  37 "ValveBiped.Bip01_R_Finger12" 36
  38 "ValveBiped.Bip01_R_Finger0" 31
  39 "ValveBiped.Bip01_R_Finger01" 38
  40 "ValveBiped.Bip01_R_Finger02" 39
  41 "ValveBiped.Cod" 0
  42 "ValveBiped.Anim_Attachment_LH" 18
  43 "ValveBiped.Anim_Attachment_RH" 31
end
skeleton
  time 0
    0 -0.713308 -0.312527 37.695797 1.501016 0.056067 -0.088312
    1 3.890452 -0.000004 -0.000003 -1.725826 -0.414258 -1.285150
    2 17.848175 0.000000 0.000000 0.000000 0.000000 1.199785
    3 16.525249 0.000000 0.000000 0.297600 0.281682 -1.002671
    4 6.879453 0.000000 0.000000 -0.007299 -0.002951 -0.584373
    5 -3.890452 0.000004 0.000007 -1.525269 -0.015788 -1.426099
    6 17.848171 0.000000 0.000000 0.000000 0.000000 0.193799
    7 16.525257 0.000000 0.000000 0.139187 0.213419 -1.087497
    8 6.879454 0.000000 0.000000 -0.081333 -0.002951 -0.584373
    9 -0.187501 3.341221 -2.981901 1.568013 0.068303 1.624882
    10 4.018331 0.000000 0.000000 -0.110012 -0.004734 0.085358
    11 3.518561 0.000000 0.000000 0.011316 -0.020961 0.091971
    12 8.942642 0.000000 0.000000 0.023367 0.001031 0.146078
    13 3.307271 0.000000 0.000000 3.141590 0.000000 0.400478
    14 3.593710 -0.000003 0.000000 0.136191 -0.021833 0.467898
    15 2.033346 1.000767 1.937660 1.802276 -1.395245 2.734682
    16 6.028142 0.000002 0.000000 -1.456478 0.125755 -1.048023
    17 11.692556 0.000000 -0.000001 0.000000 0.000000 -1.646161
    18 11.481671 0.000000 -0.000029 -0.675152 0.259605 -0.101455
    19 3.883691 -0.046771 0.431443 0.096615 -0.011011 -0.677044
    20 1.719575 0.000000 0.000000 0.055915 -0.087978 -1.150781
    21 1.209183 -0.000001 0.000000 0.009316 -0.033629 -0.339470
    22 3.859861 -0.137948 1.332466 0.537935 -0.132420 -0.946691
    23 1.719428 0.000001 0.000000 0.023476 -0.208311 -0.755744
    24 1.099667 0.000000 0.000000 0.026046 -0.124621 -0.538681
    25 0.806048 -0.348922 1.321258 -1.269164 -0.727275 -0.266407
    26 1.789783 0.000001 0.000001 -0.001068 -0.012855 -0.131880
    27 1.207000 0.000000 0.000001 -0.000100 -0.003217 -0.064874
    28 2.033354 1.000771 -1.937610 -2.173105 1.310587 2.445079
    29 6.028142 0.000004 0.000000 0.871444 0.306909 -0.666557
    30 11.692552 0.000000 0.000002 0.000000 0.000000 -1.723743
    31 11.481699 0.000000 0.000004 -1.150728 -0.325587 0.074775
    32 3.883657 -0.050329 -0.431043 0.047704 -0.153454 -0.767482
    33 1.719576 0.000003 0.000000 -0.053884 0.078890 -1.553283
    34 1.209180 -0.000001 0.000000 -0.013612 0.036967 -0.732282
    35 3.859830 -0.148938 -1.331282 -0.332627 0.218364 0.154975
    36 1.719426 0.000000 0.000000 -0.042634 0.220745 -0.851607
    37 1.099666 0.000000 0.000000 0.008154 0.000000 0.000000
    38 0.806017 -0.359836 -1.318334 0.415058 0.423434 -0.720789
    39 1.789784 0.000000 -0.000001 0.015106 0.038911 0.767156
    40 1.206998 0.000000 0.000000 0.004784 0.022539 0.418309
    41 -0.044717 2.313936 4.661499 -0.025123 -0.044022 0.030417
    42 2.676088 -1.712442 0.000000 1.570797 0.000000 1.570797
    43 2.676088 -1.712443 0.000000 -1.570796 0.000000 -1.570796
  time 1
    0 -2.118564 -1.655501 37.766112 1.512657 0.048256 -0.115711
    1 3.890452 -0.000004 -0.000003 -1.635547 -0.476103 -1.416626
    2 17.848175 0.000000 0.000000 0.000000 0.000000 1.124397
    3 16.525249 0.000000 0.000000 0.155331 0.210743 -1.078461
    4 6.879453 0.000000 0.000000 -0.007299 -0.002951 -0.584373
    5 -3.890452 0.000004 0.000007 -1.553640 0.058314 -1.397493
    6 17.848171 0.000000 0.000000 0.000000 0.000000 0.106099
    7 16.525257 0.000000 0.000000 0.140404 0.221601 -1.085788
    8 6.879454 0.000000 0.000000 -0.081333 -0.002951 -0.584373
    9 -0.160156 3.345128 -2.981901 1.567519 0.068337 1.617848
    10 4.018331 0.000000 0.000000 -0.098594 -0.004926 0.079938
    11 3.518561 0.000000 0.000000 0.023237 -0.021357 0.086306
    12 8.942642 0.000000 0.000000 0.025147 0.000276 0.146065
    13 3.307271 0.000000 0.000000 3.141590 0.000000 0.400478
    14 3.593710 -0.000003 0.000000 0.131083 -0.021354 0.466419
    15 2.033346 1.000767 1.937660 1.802276 -1.395245 2.734682
    16 6.028142 0.000002 0.000000 -1.429796 0.094447 -1.045331
    17 11.692556 0.000000 -0.000001 0.000000 0.000000 -1.617460
    18 11.481671 0.000000 -0.000029 -0.681171 0.260767 -0.105644
    19 3.883691 -0.046771 0.431443 0.096615 -0.011011 -0.677044
    20 1.719575 0.000000 0.000000 0.055915 -0.087978 -1.150781
    21 1.209183 -0.000001 0.000000 0.009316 -0.033629 -0.339470
    22 3.859861 -0.137948 1.332466 0.537935 -0.132420 -0.946691
    23 1.719428 0.000001 0.000000 0.023476 -0.208311 -0.755744
    24 1.099667 0.000000 0.000000 0.026046 -0.124621 -0.538681
    25 0.806048 -0.348922 1.321258 -1.269164 -0.727275 -0.266407
    26 1.789783 0.000001 0.000001 -0.001068 -0.012855 -0.131880
    27 1.207000 0.000000 0.000001 -0.000100 -0.003217 -0.064874
    28 2.033354 1.000771 -1.937610 -2.173105 1.310587 2.445079
    29 6.028142 0.000004 0.000000 0.882076 0.284976 -0.660579
    30 11.692552 0.000000 0.000002 0.000000 0.000000 -1.724321
    31 11.481699 0.000000 0.000004 -1.149562 -0.325587 0.073291
    32 3.883657 -0.050329 -0.431043 0.047704 -0.153454 -0.767482
    33 1.719576 0.000003 0.000000 -0.053884 0.078890 -1.553283
    34 1.209180 -0.000001 0.000000 -0.013612 0.036967 -0.732282
    35 3.859830 -0.148938 -1.331282 -0.332627 0.218364 0.154975
    36 1.719426 0.000000 0.000000 -0.042634 0.220745 -0.851607
    37 1.099666 0.000000 0.000000 0.008154 0.000000 0.000000
    38 0.806017 -0.359836 -1.318334 0.415058 0.423434 -0.720789
    39 1.789784 0.000000 -0.000001 0.015106 0.038911 0.767156
    40 1.206998 0.000000 0.000000 0.004784 0.022539 0.418309
    41 -0.044717 2.313936 4.661499 -0.024350 -0.057027 0.014477
    42 2.676088 -1.712442 0.000000 1.570797 0.000000 1.570797
    43 2.676088 -1.712443 0.000000 -1.570796 0.000000 -1.570796
  time 2
    0 -3.480849 -2.992347 37.648921 1.526969 0.044081 -0.146366
    1 3.890452 -0.000004 -0.000003 -1.555602 -0.521592 -1.529308
    2 17.848175 0.000000 0.000000 0.000000 0.000000 0.999055
    3 16.525249 0.000000 0.000000 0.038084 0.094013 -1.112376
    4 6.879453 0.000000 0.000000 -0.007299 -0.002951 -0.584373
    5 -3.890452 0.000004 0.000007 -1.584502 0.120458 -1.370303
    6 17.848171 0.000000 0.000000 0.000000 0.000000 0.042633
    7 16.525257 0.000000 0.000000 0.129925 0.234445 -1.114313
    8 6.879454 0.000000 0.000000 -0.081333 -0.002951 -0.584373
    9 -0.140624 3.345128 -2.981901 1.566933 0.068387 1.613293
    10 4.018331 0.000000 0.000000 -0.086999 -0.004662 0.073682
    11 3.518561 0.000000 0.000000 0.035462 -0.021369 0.079928
    12 8.942642 0.000000 0.000000 0.027332 -0.000791 0.146539
    13 3.307271 0.000000 0.000000 3.141590 0.000000 0.400478
    14 3.593710 -0.000003 0.000000 0.128140 -0.021692 0.467282
    15 2.033346 1.000767 1.937660 1.802276 -1.395245 2.734682
    16 6.028142 0.000002 0.000000 -1.402170 0.062896 -1.042731
    17 11.692556 0.000000 -0.000001 0.000000 0.000000 -1.586788
    18 11.481671 0.000000 -0.000029 -0.688528 0.262428 -0.112047
    19 3.883691 -0.046771 0.431443 0.096615 -0.011011 -0.677044
    20 1.719575 0.000000 0.000000 0.055915 -0.087978 -1.150781
    21 1.209183 -0.000001 0.000000 0.009316 -0.033629 -0.339470
    22 3.859861 -0.137948 1.332466 0.537935 -0.132420 -0.946691
    23 1.719428 0.000001 0.000000 0.023476 -0.208311 -0.755744
    24 1.099667 0.000000 0.000000 0.026046 -0.124621 -0.538681
    25 0.806048 -0.348922 1.321258 -1.269164 -0.727275 -0.266407
    26 1.789783 0.000001 0.000001 -0.001068 -0.012855 -0.131880
    27 1.207000 0.000000 0.000001 -0.000100 -0.003217 -0.064874
    28 2.033354 1.000771 -1.937610 -2.173105 1.310587 2.445079
    29 6.028142 0.000004 0.000000 0.891272 0.262521 -0.654980
    30 11.692552 0.000000 0.000002 0.000000 0.000000 -1.724611
    31 11.481699 0.000000 0.000004 -1.148785 -0.325552 0.072264
    32 3.883657 -0.050329 -0.431043 0.047704 -0.153454 -0.767482
    33 1.719576 0.000003 0.000000 -0.053884 0.078890 -1.553283
    34 1.209180 -0.000001 0.000000 -0.013612 0.036967 -0.732282
    35 3.859830 -0.148938 -1.331282 -0.332627 0.218364 0.154975
    36 1.719426 0.000000 0.000000 -0.042634 0.220745 -0.851607
    37 1.099666 0.000000 0.000000 0.008154 0.000000 0.000000
    38 0.806017 -0.359836 -1.318334 0.415058 0.423434 -0.720789
    39 1.789784 0.000000 -0.000001 0.015106 0.038911 0.767156
    40 1.206998 0.000000 0.000000 0.004784 0.022539 0.418309
    41 -0.044717 2.313936 4.661499 -0.023531 -0.068863 0.002912
    42 2.676088 -1.712442 0.000000 1.570797 0.000000 1.570797
    43 2.676088 -1.712443 0.000000 -1.570796 0.000000 -1.570796
  time 3
    0 -4.804071 -4.329193 37.359849 1.542108 0.045842 -0.178746
    1 3.890452 -0.000004 -0.000003 -1.465941 -0.554016 -1.621959
    2 17.848175 0.000000 0.000000 0.000000 0.000000 0.839777
    3 16.525249 0.000000 0.000000 -0.064166 0.004681 -1.100803
    4 6.879453 0.000000 0.000000 -0.007299 -0.002951 -0.584373
    5 -3.890452 0.000004 0.000007 -1.615844 0.155647 -1.340281
    6 17.848171 0.000000 0.000000 0.000000 0.000000 0.033082
    7 16.525257 0.000000 0.000000 0.139655 0.224398 -1.164472
    8 6.879454 0.000000 0.000000 -0.081333 -0.002951 -0.584373
    9 -0.140624 3.345128 -2.981901 1.566274 0.068420 1.612994
    10 4.018331 0.000000 0.000000 -0.075725 -0.004075 0.067094
    11 3.518561 0.000000 0.000000 0.047437 -0.021093 0.073363
    12 8.942642 0.000000 0.000000 0.029764 -0.001930 0.147408
    13 3.307271 0.000000 0.000000 3.141590 0.000000 0.400478
    14 3.593710 -0.000003 0.000000 0.127307 -0.022369 0.469993
    15 2.033346 1.000767 1.937660 1.802276 -1.395245 2.734682
    16 6.028142 0.000002 0.000000 -1.375394 0.032513 -1.039854
    17 11.692556 0.000000 -0.000001 0.000000 0.000000 -1.556117
    18 11.481671 0.000000 -0.000029 -0.697223 0.264587 -0.120071
    19 3.883691 -0.046771 0.431443 0.096615 -0.011011 -0.677044
    20 1.719575 0.000000 0.000000 0.055915 -0.087978 -1.150781
    21 1.209183 -0.000001 0.000000 0.009316 -0.033629 -0.339470
    22 3.859861 -0.137948 1.332466 0.537935 -0.132420 -0.946691
    23 1.719428 0.000001 0.000000 0.023476 -0.208311 -0.755744
    24 1.099667 0.000000 0.000000 0.026046 -0.124621 -0.538681
    25 0.806048 -0.348922 1.321258 -1.269164 -0.727275 -0.266407
    26 1.789783 0.000001 0.000001 -0.001068 -0.012855 -0.131880
    27 1.207000 0.000000 0.000001 -0.000100 -0.003217 -0.064874
    28 2.033354 1.000771 -1.937610 -2.173105 1.310587 2.445079
    29 6.028142 0.000004 0.000000 0.899031 0.241015 -0.651089
    30 11.692552 0.000000 0.000002 0.000000 0.000000 -1.724611
    31 11.481699 0.000000 0.000004 -1.148785 -0.325552 0.072207
    32 3.883657 -0.050329 -0.431043 0.047704 -0.153454 -0.767482
    33 1.719576 0.000003 0.000000 -0.053884 0.078890 -1.553283
    34 1.209180 -0.000001 0.000000 -0.013612 0.036967 -0.732282
    35 3.859830 -0.148938 -1.331282 -0.332627 0.218364 0.154975
    36 1.719426 0.000000 0.000000 -0.042634 0.220745 -0.851607
    37 1.099666 0.000000 0.000000 0.008154 0.000000 0.000000
    38 0.806017 -0.359836 -1.318334 0.415058 0.423434 -0.720789
    39 1.789784 0.000000 -0.000001 0.015106 0.038911 0.767156
    40 1.206998 0.000000 0.000000 0.004784 0.022539 0.418309
    41 -0.044717 2.313936 4.661499 -0.022758 -0.080184 -0.002181
    42 2.676088 -1.712442 0.000000 1.570797 0.000000 1.570797
    43 2.676088 -1.712443 0.000000 -1.570796 0.000000 -1.570796
  time 4
    0 -6.115574 -5.696680 36.930149 1.555720 0.049136 -0.210647
    1 3.890452 -0.000004 -0.000003 -1.344655 -0.569179 -1.701374
    2 17.848175 0.000000 0.000000 0.000000 0.000000 0.662810
    3 16.525249 0.000000 0.000000 -0.176865 -0.034001 -1.083010
    4 6.879453 0.000000 0.000000 -0.007299 -0.002951 -0.584373
    5 -3.890452 0.000004 0.000007 -1.643064 0.165939 -1.308559
    6 17.848171 0.000000 0.000000 0.000000 0.000000 0.080760
    7 16.525257 0.000000 0.000000 0.123563 0.225237 -1.226597
    8 6.879454 0.000000 0.000000 -0.081333 -0.002951 -0.584373
    9 -0.144531 3.345128 -2.981901 1.565596 0.068454 1.612850
    10 4.018331 0.000000 0.000000 -0.065333 -0.003751 0.060716
    11 3.518561 0.000000 0.000000 0.058592 -0.020937 0.067078
    12 8.942642 0.000000 0.000000 0.032249 -0.002721 0.148489
    13 3.307271 0.000000 0.000000 3.141590 0.000000 0.400478
    14 3.593710 -0.000003 0.000000 0.127974 -0.023214 0.473320
    15 2.033346 1.000767 1.937660 1.802276 -1.395245 2.734682
    16 6.028142 0.000002 0.000000 -1.350786 0.004614 -1.036605
    17 11.692556 0.000000 -0.000001 0.000000 0.000000 -1.528441
    18 11.481671 0.000000 -0.000029 -0.706013 0.267285 -0.127264
    19 3.883691 -0.046771 0.431443 0.096615 -0.011011 -0.677044
    20 1.719575 0.000000 0.000000 0.055915 -0.087978 -1.150781
    21 1.209183 -0.000001 0.000000 0.009316 -0.033629 -0.339470
    22 3.859861 -0.137948 1.332466 0.537935 -0.132420 -0.946691
    23 1.719428 0.000001 0.000000 0.023476 -0.208311 -0.755744
    24 1.099667 0.000000 0.000000 0.026046 -0.124621 -0.538681
    25 0.806048 -0.348922 1.321258 -1.269164 -0.727275 -0.266407
    26 1.789783 0.000001 0.000001 -0.001068 -0.012855 -0.131880
    27 1.207000 0.000000 0.000001 -0.000100 -0.003217 -0.064874
    28 2.033354 1.000771 -1.937610 -2.173105 1.310587 2.445079
    29 6.028142 0.000004 0.000000 0.905736 0.221071 -0.649096
    30 11.692552 0.000000 0.000002 0.000000 0.000000 -1.724611
    31 11.481699 0.000000 0.000004 -1.148914 -0.325552 0.072378
    32 3.883657 -0.050329 -0.431043 0.047704 -0.153454 -0.767482
    33 1.719576 0.000003 0.000000 -0.053884 0.078890 -1.553283
    34 1.209180 -0.000001 0.000000 -0.013612 0.036967 -0.732282
    35 3.859830 -0.148938 -1.331282 -0.332627 0.218364 0.154975
    36 1.719426 0.000000 0.000000 -0.042634 0.220745 -0.851607
    37 1.099666 0.000000 0.000000 0.008154 0.000000 0.000000
    38 0.806017 -0.359836 -1.318334 0.415058 0.423434 -0.720789
    39 1.789784 0.000000 -0.000001 0.015106 0.038911 0.767156
    40 1.206998 0.000000 0.000000 0.004784 0.022539 0.418309
    41 -0.044717 2.313936 4.661499 -0.021939 -0.092238 -0.005561
    42 2.676088 -1.712442 0.000000 1.570797 0.000000 1.570797
    43 2.676088 -1.712443 0.000000 -1.570796 0.000000 -1.570796
  time 5
    0 -7.450515 -7.143831 36.406695 1.566407 0.052822 -0.239866
    1 3.890452 -0.000004 -0.000003 -1.255082 -0.568655 -1.747876
    2 17.848175 0.000000 0.000000 0.000000 0.000000 0.486070
    3 16.525249 0.000000 0.000000 -0.264046 -0.038009 -1.094382
    4 6.879453 0.000000 0.000000 -0.007299 -0.002951 -0.584373
    5 -3.890452 0.000004 0.000007 -1.664246 0.186474 -1.276932
    6 17.848171 0.000000 0.000000 0.000000 0.000000 0.120150
    7 16.525257 0.000000 0.000000 0.117388 0.220785 -1.271468
    8 6.879454 0.000000 0.000000 -0.081333 -0.002951 -0.584373
    9 -0.148437 3.345128 -2.981901 1.564974 0.068487 1.613341
    10 4.018331 0.000000 0.000000 -0.056497 -0.004518 0.054983
    11 3.518561 0.000000 0.000000 0.068304 -0.021644 0.061460
    12 8.942642 0.000000 0.000000 0.034628 -0.002732 0.149464
    13 3.307271 0.000000 0.000000 3.141590 0.000000 0.400478
    14 3.593710 -0.000003 0.000000 0.129306 -0.024538 0.475970
    15 2.033346 1.000767 1.937660 1.802276 -1.395245 2.734682
    16 6.028142 0.000002 0.000000 -1.330703 -0.018952 -1.032706
    17 11.692556 0.000000 -0.000001 0.000000 0.000000 -1.506600
    18 11.481671 0.000000 -0.000029 -0.714612 0.270358 -0.131849
    19 3.883691 -0.046771 0.431443 0.096615 -0.011011 -0.677044
    20 1.719575 0.000000 0.000000 0.055915 -0.087978 -1.150781
    21 1.209183 -0.000001 0.000000 0.009316 -0.033629 -0.339470
    22 3.859861 -0.137948 1.332466 0.537935 -0.132420 -0.946691
    23 1.719428 0.000001 0.000000 0.023476 -0.208311 -0.755744
    24 1.099667 0.000000 0.000000 0.026046 -0.124621 -0.538681
    25 0.806048 -0.348922 1.321258 -1.269164 -0.727275 -0.266407
    26 1.789783 0.000001 0.000001 -0.001068 -0.012855 -0.131880
    27 1.207000 0.000000 0.000001 -0.000100 -0.003217 -0.064874
    28 2.033354 1.000771 -1.937610 -2.173105 1.310587 2.445079
    29 6.028142 0.000004 0.000000 0.911388 0.204065 -0.649761
    30 11.692552 0.000000 0.000002 0.000000 0.000000 -1.724466
    31 11.481699 0.000000 0.000004 -1.149173 -0.325552 0.072721
    32 3.883657 -0.050329 -0.431043 0.047704 -0.153454 -0.767482
    33 1.719576 0.000003 0.000000 -0.053884 0.078890 -1.553283
    34 1.209180 -0.000001 0.000000 -0.013612 0.036967 -0.732282
    35 3.859830 -0.148938 -1.331282 -0.332627 0.218364 0.154975
    36 1.719426 0.000000 0.000000 -0.042634 0.220745 -0.851607
    37 1.099666 0.000000 0.000000 0.008154 0.000000 0.000000
    38 0.806017 -0.359836 -1.318334 0.415058 0.423434 -0.720789
    39 1.789784 0.000000 -0.000001 0.015106 0.038911 0.767156
    40 1.206998 0.000000 0.000000 0.004784 0.022539 0.418309
    41 -0.044717 2.313936 4.661499 -0.021166 -0.104932 -0.007215
    42 2.676088 -1.712442 0.000000 1.570797 0.000000 1.570797
    43 2.676088 -1.712443 0.000000 -1.570796 0.000000 -1.570796
  time 6
    0 -8.844051 -8.707416 35.851991 1.573658 0.057763 -0.264294
    1 3.890452 -0.000004 -0.000003 -1.254817 -0.586679 -1.773995
    2 17.848175 0.000000 0.000000 0.000000 0.000000 0.402255
    3 16.525249 0.000000 0.000000 -0.295144 -0.036005 -1.171309
    4 6.879453 0.000000 0.000000 -0.007299 -0.002951 -0.584373
    5 -3.890452 0.000004 0.000007 -1.675077 0.218625 -1.245399
    6 17.848171 0.000000 0.000000 0.000000 0.000000 0.149673
    7 16.525257 0.000000 0.000000 0.102512 0.220319 -1.290484
    8 6.879454 0.000000 0.000000 -0.081333 -0.002951 -0.584373
    9 -0.167969 3.341221 -2.981901 1.564516 0.068504 1.617284
    10 4.018331 0.000000 0.000000 -0.050067 -0.007167 0.050417
    11 3.518561 0.000000 0.000000 0.075699 -0.023849 0.056975
    12 8.942642 0.000000 0.000000 0.036725 -0.001618 0.150083
    13 3.307271 0.000000 0.000000 3.141590 0.000000 0.400478
    14 3.593710 -0.000003 0.000000 0.131305 -0.026820 0.477017
    15 2.033346 1.000767 1.937660 1.802276 -1.395245 2.734682
    16 6.028142 0.000002 0.000000 -1.317786 -0.035555 -1.027507
    17 11.692556 0.000000 -0.000001 0.000000 0.000000 -1.493511
    18 11.481671 0.000000 -0.000029 -0.722542 0.273513 -0.132560
    19 3.883691 -0.046771 0.431443 0.096615 -0.011011 -0.677044
    20 1.719575 0.000000 0.000000 0.055915 -0.087978 -1.150781
    21 1.209183 -0.000001 0.000000 0.009316 -0.033629 -0.339470
    22 3.859861 -0.137948 1.332466 0.537935 -0.132420 -0.946691
    23 1.719428 0.000001 0.000000 0.023476 -0.208311 -0.755744
    24 1.099667 0.000000 0.000000 0.026046 -0.124621 -0.538681
    25 0.806048 -0.348922 1.321258 -1.269164 -0.727275 -0.266407
    26 1.789783 0.000001 0.000001 -0.001068 -0.012855 -0.131880
    27 1.207000 0.000000 0.000001 -0.000100 -0.003217 -0.064874
    28 2.033354 1.000771 -1.937610 -2.173105 1.310587 2.445079
    29 6.028142 0.000004 0.000000 0.915028 0.192080 -0.653557
    30 11.692552 0.000000 0.000002 0.000000 0.000000 -1.724177
    31 11.481699 0.000000 0.000004 -1.149821 -0.325587 0.073634
    32 3.883657 -0.050329 -0.431043 0.047704 -0.153454 -0.767482
    33 1.719576 0.000003 0.000000 -0.053884 0.078890 -1.553283
    34 1.209180 -0.000001 0.000000 -0.013612 0.036967 -0.732282
    35 3.859830 -0.148938 -1.331282 -0.332627 0.218364 0.154975
    36 1.719426 0.000000 0.000000 -0.042634 0.220745 -0.851607
    37 1.099666 0.000000 0.000000 0.008154 0.000000 0.000000
    38 0.806017 -0.359836 -1.318334 0.415058 0.423434 -0.720789
    39 1.789784 0.000000 -0.000001 0.015106 0.038911 0.767156
    40 1.206998 0.000000 0.000000 0.004784 0.022539 0.418309
    41 -0.044717 2.313936 4.661499 -0.020302 -0.118218 -0.004890
    42 2.676088 -1.712442 0.000000 1.570797 0.000000 1.570797
    43 2.676088 -1.712443 0.000000 -1.570796 0.000000 -1.570796
  time 7
    0 -10.284464 -10.320026 35.746519 1.578366 0.092238 -0.208348
    1 3.890452 -0.000004 -0.000003 -1.316387 -0.598742 -1.779025
    2 17.848175 0.000000 0.000000 0.000000 0.000000 0.449249
    3 16.525249 0.000000 0.000000 -0.235293 -0.229055 -1.264089
    4 6.879453 0.000000 0.000000 -0.007299 -0.002951 -0.584373
    5 -3.890452 0.000004 0.000007 -1.550764 0.211714 -1.193663
    6 17.848171 0.000000 0.000000 0.000000 0.000000 0.361936
    7 16.525257 0.000000 0.000000 0.100079 0.095629 -1.268743
    8 6.879454 0.000000 0.000000 -0.081333 -0.002951 -0.584373
    9 -0.285160 3.333409 -2.981901 1.563967 0.068504 1.650386
    10 4.018331 0.000000 0.000000 -0.072165 -0.012752 0.053676
    11 3.518561 0.000000 0.000000 0.053139 -0.026905 0.064331
    12 8.942642 0.000000 0.000000 0.032919 0.007047 0.160543
    13 3.307271 0.000000 0.000000 3.141590 0.000000 0.400478
    14 3.593710 -0.000003 0.000000 0.193598 -0.034905 0.486199
    15 2.033346 1.000767 1.937660 1.802276 -1.395245 2.734682
    16 6.028142 0.000002 0.000000 -1.368983 0.030176 -1.016461
    17 11.692556 0.000000 -0.000001 0.000000 0.000000 -1.559428
    18 11.481671 0.000000 -0.000029 -0.712510 0.267576 -0.115446
    19 3.883691 -0.046771 0.431443 0.096615 -0.011011 -0.677044
    20 1.719575 0.000000 0.000000 0.055915 -0.087978 -1.150781
    21 1.209183 -0.000001 0.000000 0.009316 -0.033629 -0.339470
    22 3.859861 -0.137948 1.332466 0.537935 -0.132420 -0.946691
    23 1.719428 0.000001 0.000000 0.023476 -0.208311 -0.755744
    24 1.099667 0.000000 0.000000 0.026046 -0.124621 -0.538681
    25 0.806048 -0.348922 1.321258 -1.269164 -0.727275 -0.266407
    26 1.789783 0.000001 0.000001 -0.001068 -0.012855 -0.131880
    27 1.207000 0.000000 0.000001 -0.000100 -0.003217 -0.064874
    28 2.033354 1.000771 -1.937610 -2.173105 1.310587 2.445079
    29 6.028142 0.000004 0.000000 0.885908 0.244757 -0.662192
    30 11.692552 0.000000 0.000002 0.000000 0.000000 -1.721718
    31 11.481699 0.000000 0.000004 -1.155004 -0.325621 0.080081
    32 3.883657 -0.050329 -0.431043 0.047704 -0.153454 -0.767482
    33 1.719576 0.000003 0.000000 -0.053884 0.078890 -1.553283
    34 1.209180 -0.000001 0.000000 -0.013612 0.036967 -0.732282
    35 3.859830 -0.148938 -1.331282 -0.332627 0.218364 0.154975
    36 1.719426 0.000000 0.000000 -0.042634 0.220745 -0.851607
    37 1.099666 0.000000 0.000000 0.008154 0.000000 0.000000
    38 0.806017 -0.359836 -1.318334 0.415058 0.423434 -0.720789
    39 1.789784 0.000000 -0.000001 0.015106 0.038911 0.767156
    40 1.206998 0.000000 0.000000 0.004784 0.022539 0.418309
    41 -0.044717 2.313936 4.661499 -0.018300 -0.146271 0.024473
    42 2.676088 -1.712442 0.000000 1.570797 0.000000 1.570797
    43 2.676088 -1.712443 0.000000 -1.570796 0.000000 -1.570796
  time 8
    0 -11.787379 -12.085838 35.637141 1.575312 0.074511 -0.212084
    1 3.890452 -0.000004 -0.000003 -1.371156 -0.601079 -1.782113
    2 17.848175 0.000000 0.000000 0.000000 0.000000 0.531318
    3 16.525249 0.000000 0.000000 -0.155576 -0.197099 -1.203953
    4 6.879453 0.000000 0.000000 -0.007299 -0.002951 -0.584373
    5 -3.890452 0.000004 0.000007 -1.486068 0.204363 -1.205559
    6 17.848171 0.000000 0.000000 0.000000 0.000000 0.464476
    7 16.525257 0.000000 0.000000 0.186715 -0.012486 -1.183328
    8 6.879454 0.000000 0.000000 -0.081333 -0.002951 -0.584373
    9 -0.234377 3.337315 -2.981901 1.564736 0.068521 1.645376
    10 4.018331 0.000000 0.000000 -0.074266 -0.023921 0.053275
    11 3.518561 0.000000 0.000000 0.052498 -0.037572 0.063322
    12 8.942642 0.000000 0.000000 0.033571 0.008425 0.158738
    13 3.307271 0.000000 0.000000 3.141590 0.000000 0.400478
    14 3.593710 -0.000003 0.000000 0.199872 -0.037355 0.482317
    15 2.033346 1.000767 1.937660 1.802276 -1.395245 2.734682
    16 6.028142 0.000002 0.000000 -1.372188 0.036214 -1.008106
    17 11.692556 0.000000 -0.000001 0.000000 0.000000 -1.576932
    18 11.481671 0.000000 -0.000029 -0.712319 0.269486 -0.096712
    19 3.883691 -0.046771 0.431443 0.096615 -0.011011 -0.677044
    20 1.719575 0.000000 0.000000 0.055915 -0.087978 -1.150781
    21 1.209183 -0.000001 0.000000 0.009316 -0.033629 -0.339470
    22 3.859861 -0.137948 1.332466 0.537935 -0.132420 -0.946691
    23 1.719428 0.000001 0.000000 0.023476 -0.208311 -0.755744
    24 1.099667 0.000000 0.000000 0.026046 -0.124621 -0.538681
    25 0.806048 -0.348922 1.321258 -1.269164 -0.727275 -0.266407
    26 1.789783 0.000001 0.000001 -0.001068 -0.012855 -0.131880
    27 1.207000 0.000000 0.000001 -0.000100 -0.003217 -0.064874
    28 2.033354 1.000771 -1.937610 -2.173105 1.310587 2.445079
    29 6.028142 0.000004 0.000000 0.885525 0.243383 -0.670258
    30 11.692552 0.000000 0.000002 0.000000 0.000000 -1.722803
    31 11.481699 0.000000 0.000004 -1.152736 -0.325587 0.077342
    32 3.883657 -0.050329 -0.431043 0.047704 -0.153454 -0.767482
    33 1.719576 0.000003 0.000000 -0.053884 0.078890 -1.553283
    34 1.209180 -0.000001 0.000000 -0.013612 0.036967 -0.732282
    35 3.859830 -0.148938 -1.331282 -0.332627 0.218364 0.154975
    36 1.719426 0.000000 0.000000 -0.042634 0.220745 -0.851607
    37 1.099666 0.000000 0.000000 0.008154 0.000000 0.000000
    38 0.806017 -0.359836 -1.318334 0.415058 0.423434 -0.720789
    39 1.789784 0.000000 -0.000001 0.015106 0.038911 0.767156
    40 1.206998 0.000000 0.000000 0.004784 0.022539 0.418309
    41 -0.044717 2.313936 4.661499 -0.019847 -0.132065 0.025467
    42 2.676088 -1.712442 0.000000 1.570797 0.000000 1.570797
    43 2.676088 -1.712443 0.000000 -1.570796 0.000000 -1.570796
  time 9
    0 -13.262950 -13.845521 35.676204 1.569206 0.048663 -0.204995
    1 3.890452 -0.000004 -0.000003 -1.389441 -0.587156 -1.785290
    2 17.848175 0.000000 0.000000 0.000000 0.000000 0.593495
    3 16.525249 0.000000 0.000000 -0.132262 -0.164348 -1.130036
    4 6.879453 0.000000 0.000000 -0.007299 -0.002951 -0.584373
    5 -3.890452 0.000004 0.000007 -1.407953 0.121880 -1.259183
    6 17.848171 0.000000 0.000000 0.000000 0.000000 0.670583
    7 16.525257 0.000000 0.000000 0.322470 -0.164193 -1.025105
    8 6.879454 0.000000 0.000000 -0.081333 -0.002951 -0.584373
    9 -0.152343 3.345128 -2.981901 1.565669 0.068521 1.632984
    10 4.018331 0.000000 0.000000 -0.079542 -0.034647 0.055017
    11 3.518561 0.000000 0.000000 0.048470 -0.047914 0.064331
    12 8.942642 0.000000 0.000000 0.033729 0.009408 0.156393
    13 3.307271 0.000000 0.000000 3.141590 0.000000 0.400478
    14 3.593710 -0.000003 0.000000 0.205368 -0.038736 0.478250
    15 2.033346 1.000767 1.937660 1.802276 -1.395245 2.734682
    16 6.028142 0.000002 0.000000 -1.379731 0.049165 -1.002536
    17 11.692556 0.000000 -0.000001 0.000000 0.000000 -1.600271
    18 11.481671 0.000000 -0.000029 -0.707255 0.270358 -0.076712
    19 3.883691 -0.046771 0.431443 0.096615 -0.011011 -0.677044
    20 1.719575 0.000000 0.000000 0.055915 -0.087978 -1.150781
    21 1.209183 -0.000001 0.000000 0.009316 -0.033629 -0.339470
    22 3.859861 -0.137948 1.332466 0.537935 -0.132420 -0.946691
    23 1.719428 0.000001 0.000000 0.023476 -0.208311 -0.755744
    24 1.099667 0.000000 0.000000 0.026046 -0.124621 -0.538681
    25 0.806048 -0.348922 1.321258 -1.269164 -0.727275 -0.266407
    26 1.789783 0.000001 0.000001 -0.001068 -0.012855 -0.131880
    27 1.207000 0.000000 0.000001 -0.000100 -0.003217 -0.064874
    28 2.033354 1.000771 -1.937610 -2.173105 1.310587 2.445079
    29 6.028142 0.000004 0.000000 0.884279 0.246273 -0.675857
    30 11.692552 0.000000 0.000002 0.000000 0.000000 -1.724394
    31 11.481699 0.000000 0.000004 -1.149303 -0.325552 0.072949
    32 3.883657 -0.050329 -0.431043 0.047704 -0.153454 -0.767482
    33 1.719576 0.000003 0.000000 -0.053884 0.078890 -1.553283
    34 1.209180 -0.000001 0.000000 -0.013612 0.036967 -0.732282
    35 3.859830 -0.148938 -1.331282 -0.332627 0.218364 0.154975
    36 1.719426 0.000000 0.000000 -0.042634 0.220745 -0.851607
    37 1.099666 0.000000 0.000000 0.008154 0.000000 0.000000
    38 0.806017 -0.359836 -1.318334 0.415058 0.423434 -0.720789
    39 1.789784 0.000000 -0.000001 0.015106 0.038911 0.767156
    40 1.206998 0.000000 0.000000 0.004784 0.022539 0.418309
    41 -0.044717 2.313936 4.661499 -0.021257 -0.117703 0.019439
    42 2.676088 -1.712442 0.000000 1.570797 0.000000 1.570797
    43 2.676088 -1.712443 0.000000 -1.570796 0.000000 -1.570796
  time 10
    0 -14.660393 -15.550052 35.797302 1.560936 0.020776 -0.188997
    1 3.890452 -0.000004 -0.000003 -1.407639 -0.553635 -1.784496
    2 17.848175 0.000000 0.000000 0.000000 0.000000 0.631531
    3 16.525249 0.000000 0.000000 -0.109480 -0.131514 -1.099064
    4 6.879453 0.000000 0.000000 -0.007299 -0.002951 -0.584373
    5 -3.890452 0.000004 0.000007 -1.287666 0.043268 -1.356802
    6 17.848171 0.000000 0.000000 0.000000 0.000000 0.832800
    7 16.525257 0.000000 0.000000 0.386184 -0.308300 -0.838410
    8 6.879454 0.000000 0.000000 -0.081333 -0.002951 -0.584373
    9 -0.066403 3.345128 -2.981901 1.566640 0.068487 1.617824
    10 4.018331 0.000000 0.000000 -0.087384 -0.043636 0.058642
    11 3.518561 0.000000 0.000000 0.041610 -0.056699 0.067171
    12 8.942642 0.000000 0.000000 0.033412 0.009851 0.153890
    13 3.307271 0.000000 0.000000 3.141590 0.000000 0.400478
    14 3.593710 -0.000003 0.000000 0.210143 -0.038848 0.474306
    15 2.033346 1.000767 1.937660 1.802276 -1.395245 2.734682
    16 6.028142 0.000002 0.000000 -1.390856 0.067521 -1.000587
    17 11.692556 0.000000 -0.000001 0.000000 0.000000 -1.625897
    18 11.481671 0.000000 -0.000029 -0.698560 0.270233 -0.058887
    19 3.883691 -0.046771 0.431443 0.096615 -0.011011 -0.677044
    20 1.719575 0.000000 0.000000 0.055915 -0.087978 -1.150781
    21 1.209183 -0.000001 0.000000 0.009316 -0.033629 -0.339470
    22 3.859861 -0.137948 1.332466 0.537935 -0.132420 -0.946691
    23 1.719428 0.000001 0.000000 0.023476 -0.208311 -0.755744
    24 1.099667 0.000000 0.000000 0.026046 -0.124621 -0.538681
    25 0.806048 -0.348922 1.321258 -1.269164 -0.727275 -0.266407
    26 1.789783 0.000001 0.000001 -0.001068 -0.012855 -0.131880
    27 1.207000 0.000000 0.000001 -0.000100 -0.003217 -0.064874
    28 2.033354 1.000771 -1.937610 -2.173105 1.310587 2.445079
    29 6.028142 0.000004 0.000000 0.881789 0.253568 -0.678798
    30 11.692552 0.000000 0.000002 0.000000 0.000000 -1.725912
    31 11.481699 0.000000 0.000004 -1.145610 -0.325518 0.067814
    32 3.883657 -0.050329 -0.431043 0.047704 -0.153454 -0.767482
    33 1.719576 0.000003 0.000000 -0.053884 0.078890 -1.553283
    34 1.209180 -0.000001 0.000000 -0.013612 0.036967 -0.732282
    35 3.859830 -0.148938 -1.331282 -0.332627 0.218364 0.154975
    36 1.719426 0.000000 0.000000 -0.042634 0.220745 -0.851607
    37 1.099666 0.000000 0.000000 0.008154 0.000000 0.000000
    38 0.806017 -0.359836 -1.318334 0.415058 0.423434 -0.720789
    39 1.789784 0.000000 -0.000001 0.015106 0.038911 0.767156
    40 1.206998 0.000000 0.000000 0.004784 0.022539 0.418309
    41 -0.044717 2.313936 4.661499 -0.022531 -0.103497 0.010918
    42 2.676088 -1.712442 0.000000 1.570797 0.000000 1.570797
    43 2.676088 -1.712443 0.000000 -1.570796 0.000000 -1.570796
  time 11
    0 -15.979708 -17.150406 36.000433 1.551331 -0.004224 -0.166963
    1 3.890452 -0.000004 -0.000003 -1.412232 -0.501708 -1.784054
    2 17.848175 0.000000 0.000000 0.000000 0.000000 0.646411
    3 16.525249 0.000000 0.000000 -0.078667 -0.115783 -1.113714
    4 6.879453 0.000000 0.000000 -0.007299 -0.002951 -0.584373
    5 -3.890452 0.000004 0.000007 -1.254790 -0.054016 -1.427515
    6 17.848171 0.000000 0.000000 0.000000 0.000000 0.993596
    7 16.525257 0.000000 0.000000 0.388242 -0.300771 -0.792952
    8 6.879454 0.000000 0.000000 -0.081333 -0.002951 -0.584373
    9 0.011724 3.345128 -2.981901 1.567482 0.068470 1.603873
    10 4.018331 0.000000 0.000000 -0.096862 -0.049916 0.063644
    11 3.518561 0.000000 0.000000 0.032700 -0.062991 0.071485
    12 8.942642 0.000000 0.000000 0.032778 0.009743 0.151571
    13 3.307271 0.000000 0.000000 3.141590 0.000000 0.400478
    14 3.593710 -0.000003 0.000000 0.214196 -0.037834 0.470917
    15 2.033346 1.000767 1.937660 1.802276 -1.395245 2.734682
    16 6.028142 0.000002 0.000000 -1.405093 0.089140 -1.002536
    17 11.692556 0.000000 -0.000001 0.000000 0.000000 -1.650813
    18 11.481671 0.000000 -0.000029 -0.687668 0.269361 -0.045883
    19 3.883691 -0.046771 0.431443 0.096615 -0.011011 -0.677044
    20 1.719575 0.000000 0.000000 0.055915 -0.087978 -1.150781
    21 1.209183 -0.000001 0.000000 0.009316 -0.033629 -0.339470
    22 3.859861 -0.137948 1.332466 0.537935 -0.132420 -0.946691
    23 1.719428 0.000001 0.000000 0.023476 -0.208311 -0.755744
    24 1.099667 0.000000 0.000000 0.026046 -0.124621 -0.538681
    25 0.806048 -0.348922 1.321258 -1.269164 -0.727275 -0.266407
    26 1.789783 0.000001 0.000001 -0.001068 -0.012855 -0.131880
    27 1.207000 0.000000 0.000001 -0.000100 -0.003217 -0.064874
    28 2.033354 1.000771 -1.937610 -2.173105 1.310587 2.445079
    29 6.028142 0.000004 0.000000 0.878149 0.264701 -0.679273
    30 11.692552 0.000000 0.000002 0.000000 0.000000 -1.727070
    31 11.481699 0.000000 0.000004 -1.142307 -0.325449 0.062907
    32 3.883657 -0.050329 -0.431043 0.047704 -0.153454 -0.767482
    33 1.719576 0.000003 0.000000 -0.053884 0.078890 -1.553283
    34 1.209180 -0.000001 0.000000 -0.013612 0.036967 -0.732282
    35 3.859830 -0.148938 -1.331282 -0.332627 0.218364 0.154975
    36 1.719426 0.000000 0.000000 -0.042634 0.220745 -0.851607
    37 1.099666 0.000000 0.000000 0.008154 0.000000 0.000000
    38 0.806017 -0.359836 -1.318334 0.415058 0.423434 -0.720789
    39 1.789784 0.000000 -0.000001 0.015106 0.038911 0.767156
    40 1.206998 0.000000 0.000000 0.004784 0.022539 0.418309
    41 -0.044717 2.313936 4.661499 -0.023577 -0.089743 0.003763
    42 2.676088 -1.712442 0.000000 1.570797 0.000000 1.570797
    43 2.676088 -1.712443 0.000000 -1.570796 0.000000 -1.570796
  time 12
    0 -17.248241 -18.658838 36.328568 1.540581 -0.020010 -0.141672
    1 3.890452 -0.000004 -0.000003 -1.414440 -0.437480 -1.772142
    2 17.848175 0.000000 0.000000 0.000000 0.000000 0.641476
    3 16.525249 0.000000 0.000000 -0.058089 -0.098186 -1.150304
    4 6.879453 0.000000 0.000000 -0.007299 -0.002951 -0.584373
    5 -3.890452 0.000004 0.000007 -1.256132 -0.164630 -1.472548
    6 17.848171 0.000000 0.000000 0.000000 0.000000 1.141525
    7 16.525257 0.000000 0.000000 0.319382 -0.174217 -0.869499
    8 6.879454 0.000000 0.000000 -0.081333 -0.002951 -0.584373
    9 0.062507 3.345128 -2.981901 1.568141 0.068437 1.596707
    10 4.018331 0.000000 0.000000 -0.107061 -0.053092 0.069377
    11 3.518561 0.000000 0.000000 0.022667 -0.066335 0.076762
    12 8.942642 0.000000 0.000000 0.031896 0.009204 0.149753
    13 3.307271 0.000000 0.000000 3.141590 0.000000 0.400478
    14 3.593710 -0.000003 0.000000 0.217583 -0.036172 0.468452
    15 2.033346 1.000767 1.937660 1.802276 -1.395245 2.734682
    16 6.028142 0.000002 0.000000 -1.422064 0.112121 -1.008013
    17 11.692556 0.000000 -0.000001 0.000000 0.000000 -1.672654
    18 11.481671 0.000000 -0.000029 -0.676967 0.268074 -0.039638
    19 3.883691 -0.046771 0.431443 0.096615 -0.011011 -0.677044
    20 1.719575 0.000000 0.000000 0.055915 -0.087978 -1.150781
    21 1.209183 -0.000001 0.000000 0.009316 -0.033629 -0.339470
    22 3.859861 -0.137948 1.332466 0.537935 -0.132420 -0.946691
    23 1.719428 0.000001 0.000000 0.023476 -0.208311 -0.755744
    24 1.099667 0.000000 0.000000 0.026046 -0.124621 -0.538681
    25 0.806048 -0.348922 1.321258 -1.269164 -0.727275 -0.266407
    26 1.789783 0.000001 0.000001 -0.001068 -0.012855 -0.131880
    27 1.207000 0.000000 0.000001 -0.000100 -0.003217 -0.064874
    28 2.033354 1.000771 -1.937610 -2.173105 1.310587 2.445079
    29 6.028142 0.000004 0.000000 0.873551 0.279102 -0.678514
    30 11.692552 0.000000 0.000002 0.000000 0.000000 -1.727648
    31 11.481699 0.000000 0.000004 -1.140298 -0.325414 0.059712
    32 3.883657 -0.050329 -0.431043 0.047704 -0.153454 -0.767482
    33 1.719576 0.000003 0.000000 -0.053884 0.078890 -1.553283
    34 1.209180 -0.000001 0.000000 -0.013612 0.036967 -0.732282
    35 3.859830 -0.148938 -1.331282 -0.332627 0.218364 0.154975
    36 1.719426 0.000000 0.000000 -0.042634 0.220745 -0.851607
    37 1.099666 0.000000 0.000000 0.008154 0.000000 0.000000
    38 0.806017 -0.359836 -1.318334 0.415058 0.423434 -0.720789
    39 1.789784 0.000000 -0.000001 0.015106 0.038911 0.767156
    40 1.206998 0.000000 0.000000 0.004784 0.022539 0.418309
    41 -0.044717 2.313936 4.661499 -0.024441 -0.076597 0.003440
    42 2.676088 -1.712442 0.000000 1.570797 0.000000 1.570797
    43 2.676088 -1.712443 0.000000 -1.570796 0.000000 -1.570796
  time 13
    0 -18.501148 -20.124374 36.746549 1.529195 -0.023206 -0.115615
    1 3.890452 -0.000004 -0.000003 -1.418327 -0.369341 -1.743641
    2 17.848175 0.000000 0.000000 0.000000 0.000000 0.626748
    3 16.525249 0.000000 0.000000 -0.054499 -0.071886 -1.190975
    4 6.879453 0.000000 0.000000 -0.007299 -0.002951 -0.584373
    5 -3.890452 0.000004 0.000007 -1.259104 -0.255347 -1.503420
    6 17.848171 0.000000 0.000000 0.000000 0.000000 1.215806
    7 16.525257 0.000000 0.000000 0.265679 -0.001950 -0.971207
    8 6.879454 0.000000 0.000000 -0.081333 -0.002951 -0.584373
    9 0.074226 3.345128 -2.981901 1.568599 0.068420 1.599511
    10 4.018331 0.000000 0.000000 -0.117212 -0.053331 0.075163
    11 3.518561 0.000000 0.000000 0.012331 -0.066862 0.082334
    12 8.942642 0.000000 0.000000 0.030910 0.008329 0.148660
    13 3.307271 0.000000 0.000000 3.141590 0.000000 0.400478
    14 3.593710 -0.000003 0.000000 0.220192 -0.034285 0.467343
    15 2.033346 1.000767 1.937660 1.802276 -1.395245 2.734682
    16 6.028142 0.000002 0.000000 -1.441204 0.135152 -1.016182
    17 11.692556 0.000000 -0.000001 0.000000 0.000000 -1.690237
    18 11.481671 0.000000 -0.000029 -0.668082 0.266538 -0.040508
    19 3.883691 -0.046771 0.431443 0.096615 -0.011011 -0.677044
    20 1.719575 0.000000 0.000000 0.055915 -0.087978 -1.150781
    21 1.209183 -0.000001 0.000000 0.009316 -0.033629 -0.339470
    22 3.859861 -0.137948 1.332466 0.537935 -0.132420 -0.946691
    23 1.719428 0.000001 0.000000 0.023476 -0.208311 -0.755744
    24 1.099667 0.000000 0.000000 0.026046 -0.124621 -0.538681
    25 0.806048 -0.348922 1.321258 -1.269164 -0.727275 -0.266407
    26 1.789783 0.000001 0.000001 -0.001068 -0.012855 -0.131880
    27 1.207000 0.000000 0.000001 -0.000100 -0.003217 -0.064874
    28 2.033354 1.000771 -1.937610 -2.173105 1.310587 2.445079
    29 6.028142 0.000004 0.000000 0.867900 0.295587 -0.677375
    30 11.692552 0.000000 0.000002 0.000000 0.000000 -1.727793
    31 11.481699 0.000000 0.000004 -1.139910 -0.325414 0.059085
    32 3.883657 -0.050329 -0.431043 0.047704 -0.153454 -0.767482
    33 1.719576 0.000003 0.000000 -0.053884 0.078890 -1.553283
    34 1.209180 -0.000001 0.000000 -0.013612 0.036967 -0.732282
    35 3.859830 -0.148938 -1.331282 -0.332627 0.218364 0.154975
    36 1.719426 0.000000 0.000000 -0.042634 0.220745 -0.851607
    37 1.099666 0.000000 0.000000 0.008154 0.000000 0.000000
    38 0.806017 -0.359836 -1.318334 0.415058 0.423434 -0.720789
    39 1.789784 0.000000 -0.000001 0.015106 0.038911 0.767156
    40 1.206998 0.000000 0.000000 0.004784 0.022539 0.418309
    41 -0.044717 2.313936 4.661499 -0.025169 -0.064122 0.013063
    42 2.676088 -1.712442 0.000000 1.570797 0.000000 1.570797
    43 2.676088 -1.712443 0.000000 -1.570796 0.000000 -1.570796
  time 14
    0 -19.742336 -21.571525 37.152812 1.518254 -0.017939 -0.090420
    1 3.890452 -0.000004 -0.000003 -1.421507 -0.304970 -1.705169
    2 17.848175 0.000000 0.000000 0.000000 0.000000 0.612551
    3 16.525249 0.000000 0.000000 -0.062460 -0.041550 -1.226027
    4 6.879453 0.000000 0.000000 -0.007299 -0.002951 -0.584373
    5 -3.890452 0.000004 0.000007 -1.262746 -0.321216 -1.537502
    6 17.848171 0.000000 0.000000 0.000000 0.000000 1.211148
    7 16.525257 0.000000 0.000000 0.255669 0.125001 -1.048288
    8 6.879454 0.000000 0.000000 -0.081333 -0.002951 -0.584373
    9 0.054694 3.345128 -2.981901 1.568892 0.068403 1.608559
    10 4.018331 0.000000 0.000000 -0.126738 -0.051258 0.080287
    11 3.518561 0.000000 0.000000 0.002352 -0.065172 0.087533
    12 8.942642 0.000000 0.000000 0.029905 0.007203 0.148449
    13 3.307271 0.000000 0.000000 3.141590 0.000000 0.400478
    14 3.593710 -0.000003 0.000000 0.221802 -0.032454 0.467651
    15 2.033346 1.000767 1.937660 1.802276 -1.395245 2.734682
    16 6.028142 0.000002 0.000000 -1.460721 0.157208 -1.026301
    17 11.692556 0.000000 -0.000001 0.000000 0.000000 -1.703404
    18 11.481671 0.000000 -0.000029 -0.660916 0.264919 -0.046950
    19 3.883691 -0.046771 0.431443 0.096615 -0.011011 -0.677044
    20 1.719575 0.000000 0.000000 0.055915 -0.087978 -1.150781
    21 1.209183 -0.000001 0.000000 0.009316 -0.033629 -0.339470
    22 3.859861 -0.137948 1.332466 0.537935 -0.132420 -0.946691
    23 1.719428 0.000001 0.000000 0.023476 -0.208311 -0.755744
    24 1.099667 0.000000 0.000000 0.026046 -0.124621 -0.538681
    25 0.806048 -0.348922 1.321258 -1.269164 -0.727275 -0.266407
    26 1.789783 0.000001 0.000001 -0.001068 -0.012855 -0.131880
    27 1.207000 0.000000 0.000001 -0.000100 -0.003217 -0.064874
    28 2.033354 1.000771 -1.937610 -2.173105 1.310587 2.445079
    29 6.028142 0.000004 0.000000 0.861386 0.312404 -0.675762
    30 11.692552 0.000000 0.000002 0.000000 0.000000 -1.727576
    31 11.481699 0.000000 0.000004 -1.140622 -0.325414 0.060226
    32 3.883657 -0.050329 -0.431043 0.047704 -0.153454 -0.767482
    33 1.719576 0.000003 0.000000 -0.053884 0.078890 -1.553283
    34 1.209180 -0.000001 0.000000 -0.013612 0.036967 -0.732282
    35 3.859830 -0.148938 -1.331282 -0.332627 0.218364 0.154975
    36 1.719426 0.000000 0.000000 -0.042634 0.220745 -0.851607
    37 1.099666 0.000000 0.000000 0.008154 0.000000 0.000000
    38 0.806017 -0.359836 -1.318334 0.415058 0.423434 -0.720789
    39 1.789784 0.000000 -0.000001 0.015106 0.038911 0.767156
    40 1.206998 0.000000 0.000000 0.004784 0.022539 0.418309
    41 -0.044717 2.313936 4.661499 -0.025715 -0.052318 0.028811
    42 2.676088 -1.712442 0.000000 1.570797 0.000000 1.570797
    43 2.676088 -1.712443 0.000000 -1.570796 0.000000 -1.570796
  time 15
    0 -20.967899 -23.000292 37.449696 1.509095 -0.010975 -0.066758
    1 3.890452 -0.000004 -0.000003 -1.419917 -0.246463 -1.665461
    2 17.848175 0.000000 0.000000 0.000000 0.000000 0.601011
    3 16.525249 0.000000 0.000000 -0.073300 -0.013438 -1.258671
    4 6.879453 0.000000 0.000000 -0.007299 -0.002951 -0.584373
    5 -3.890452 0.000004 0.000007 -1.268688 -0.361502 -1.582158
    6 17.848171 0.000000 0.000000 0.000000 0.000000 1.144051
    7 16.525257 0.000000 0.000000 0.253891 0.173091 -1.104804
    8 6.879454 0.000000 0.000000 -0.081333 -0.002951 -0.584373
    9 0.031256 3.345128 -2.981901 1.569057 0.068387 1.617728
    10 4.018331 0.000000 0.000000 -0.135334 -0.047699 0.084138
    11 3.518561 0.000000 0.000000 -0.006825 -0.062056 0.091800
    12 8.942642 0.000000 0.000000 0.028936 0.005860 0.149147
    13 3.307271 0.000000 0.000000 3.141590 0.000000 0.400478
    14 3.593710 -0.000003 0.000000 0.222302 -0.030904 0.469561
    15 2.033346 1.000767 1.937660 1.802276 -1.395245 2.734682
    16 6.028142 0.000002 0.000000 -1.478446 0.177561 -1.037719
    17 11.692556 0.000000 -0.000001 0.000000 0.000000 -1.712866
    18 11.481671 0.000000 -0.000029 -0.654515 0.263466 -0.056436
    19 3.883691 -0.046771 0.431443 0.096615 -0.011011 -0.677044
    20 1.719575 0.000000 0.000000 0.055915 -0.087978 -1.150781
    21 1.209183 -0.000001 0.000000 0.009316 -0.033629 -0.339470
    22 3.859861 -0.137948 1.332466 0.537935 -0.132420 -0.946691
    23 1.719428 0.000001 0.000000 0.023476 -0.208311 -0.755744
    24 1.099667 0.000000 0.000000 0.026046 -0.124621 -0.538681
    25 0.806048 -0.348922 1.321258 -1.269164 -0.727275 -0.266407
    26 1.789783 0.000001 0.000001 -0.001068 -0.012855 -0.131880
    27 1.207000 0.000000 0.000001 -0.000100 -0.003217 -0.064874
    28 2.033354 1.000771 -1.937610 -2.173105 1.310587 2.445079
    29 6.028142 0.000004 0.000000 0.854681 0.327800 -0.673010
    30 11.692552 0.000000 0.000002 0.000000 0.000000 -1.727287
    31 11.481699 0.000000 0.000004 -1.141529 -0.325449 0.061652
    32 3.883657 -0.050329 -0.431043 0.047704 -0.153454 -0.767482
    33 1.719576 0.000003 0.000000 -0.053884 0.078890 -1.553283
    34 1.209180 -0.000001 0.000000 -0.013612 0.036967 -0.732282
    35 3.859830 -0.148938 -1.331282 -0.332627 0.218364 0.154975
    36 1.719426 0.000000 0.000000 -0.042634 0.220745 -0.851607
    37 1.099666 0.000000 0.000000 0.008154 0.000000 0.000000
    38 0.806017 -0.359836 -1.318334 0.415058 0.423434 -0.720789
    39 1.789784 0.000000 -0.000001 0.015106 0.038911 0.767156
    40 1.206998 0.000000 0.000000 0.004784 0.022539 0.418309
    41 -0.044717 2.313936 4.661499 -0.026124 -0.041215 0.044463
    42 2.676088 -1.712442 0.000000 1.570797 0.000000 1.570797
    43 2.676088 -1.712443 0.000000 -1.570796 0.000000 -1.570796
  time 16
    0 -22.189555 -24.416803 37.590325 1.502543 -0.006719 -0.044628
    1 3.890452 -0.000004 -0.000003 -1.412674 -0.192534 -1.629283
    2 17.848175 0.000000 0.000000 0.000000 0.000000 0.589624
    3 16.525249 0.000000 0.000000 -0.077139 0.006822 -1.293389
    4 6.879453 0.000000 0.000000 -0.007299 -0.002951 -0.584373
    5 -3.890452 0.000004 0.000007 -1.278081 -0.381057 -1.635499
    6 17.848171 0.000000 0.000000 0.000000 0.000000 1.030697
    7 16.525257 0.000000 0.000000 0.241354 0.169245 -1.136695
    8 6.879454 0.000000 0.000000 -0.081333 -0.002951 -0.584373
    9 0.019537 3.345128 -2.981901 1.569148 0.068387 1.623193
    10 4.018331 0.000000 0.000000 -0.142839 -0.043420 0.086421
    11 3.518561 0.000000 0.000000 -0.014987 -0.058257 0.094749
    12 8.942642 0.000000 0.000000 0.028090 0.004350 0.150741
    13 3.307271 0.000000 0.000000 3.141590 0.000000 0.400478
    14 3.593710 -0.000003 0.000000 0.222024 -0.029777 0.473135
    15 2.033346 1.000767 1.937660 1.802276 -1.395245 2.734682
    16 6.028142 0.000002 0.000000 -1.493343 0.196014 -1.049601
    17 11.692556 0.000000 -0.000001 0.000000 0.000000 -1.719253
    18 11.481671 0.000000 -0.000029 -0.648209 0.262386 -0.066792
    19 3.883691 -0.046771 0.431443 0.096615 -0.011011 -0.677044
    20 1.719575 0.000000 0.000000 0.055915 -0.087978 -1.150781
    21 1.209183 -0.000001 0.000000 0.009316 -0.033629 -0.339470
    22 3.859861 -0.137948 1.332466 0.537935 -0.132420 -0.946691
    23 1.719428 0.000001 0.000000 0.023476 -0.208311 -0.755744
    24 1.099667 0.000000 0.000000 0.026046 -0.124621 -0.538681
    25 0.806048 -0.348922 1.321258 -1.269164 -0.727275 -0.266407
    26 1.789783 0.000001 0.000001 -0.001068 -0.012855 -0.131880
    27 1.207000 0.000000 0.000001 -0.000100 -0.003217 -0.064874
    28 2.033354 1.000771 -1.937610 -2.173105 1.310587 2.445079
    29 6.028142 0.000004 0.000000 0.847880 0.340732 -0.669119
    30 11.692552 0.000000 0.000002 0.000000 0.000000 -1.727142
    31 11.481699 0.000000 0.000004 -1.142047 -0.325449 0.062565
    32 3.883657 -0.050329 -0.431043 0.047704 -0.153454 -0.767482
    33 1.719576 0.000003 0.000000 -0.053884 0.078890 -1.553283
    34 1.209180 -0.000001 0.000000 -0.013612 0.036967 -0.732282
    35 3.859830 -0.148938 -1.331282 -0.332627 0.218364 0.154975
    36 1.719426 0.000000 0.000000 -0.042634 0.220745 -0.851607
    37 1.099666 0.000000 0.000000 0.008154 0.000000 0.000000
    38 0.806017 -0.359836 -1.318334 0.415058 0.423434 -0.720789
    39 1.789784 0.000000 -0.000001 0.015106 0.038911 0.767156
    40 1.206998 0.000000 0.000000 0.004784 0.022539 0.418309
    41 -0.044717 2.313936 4.661499 -0.026397 -0.030798 0.056088
    42 2.676088 -1.712442 0.000000 1.570797 0.000000 1.570797
    43 2.676088 -1.712443 0.000000 -1.570796 0.000000 -1.570796
  time 17
    0 -23.434650 -25.845571 37.570793 1.498917 -0.007257 -0.024127
    1 3.890452 -0.000004 -0.000003 -1.404193 -0.142229 -1.596987
    2 17.848175 0.000000 0.000000 0.000000 0.000000 0.578312
    3 16.525249 0.000000 0.000000 -0.071594 0.019862 -1.331718
    4 6.879453 0.000000 0.000000 -0.007299 -0.002951 -0.584373
    5 -3.890452 0.000004 0.000007 -1.289295 -0.384095 -1.693938
    6 17.848171 0.000000 0.000000 0.000000 0.000000 0.883399
    7 16.525257 0.000000 0.000000 0.223016 0.159314 -1.149942
    8 6.879454 0.000000 0.000000 -0.081333 -0.002951 -0.584373
    9 0.019537 3.345128 -2.981901 1.569185 0.068387 1.623205
    10 4.018331 0.000000 0.000000 -0.149237 -0.039046 0.087118
    11 3.518561 0.000000 0.000000 -0.021972 -0.054362 0.096379
    12 8.942642 0.000000 0.000000 0.027403 0.002852 0.153047
    13 3.307271 0.000000 0.000000 3.141590 0.000000 0.400478
    14 3.593710 -0.000003 0.000000 0.221025 -0.029073 0.477880
    15 2.033346 1.000767 1.937660 1.802276 -1.395245 2.734682
    16 6.028142 0.000002 0.000000 -1.504751 0.212374 -1.061019
    17 11.692556 0.000000 -0.000001 0.000000 0.000000 -1.723668
    18 11.481671 0.000000 -0.000029 -0.641616 0.261805 -0.076475
    19 3.883691 -0.046771 0.431443 0.096615 -0.011011 -0.677044
    20 1.719575 0.000000 0.000000 0.055915 -0.087978 -1.150781
    21 1.209183 -0.000001 0.000000 0.009316 -0.033629 -0.339470
    22 3.859861 -0.137948 1.332466 0.537935 -0.132420 -0.946691
    23 1.719428 0.000001 0.000000 0.023476 -0.208311 -0.755744
    24 1.099667 0.000000 0.000000 0.026046 -0.124621 -0.538681
    25 0.806048 -0.348922 1.321258 -1.269164 -0.727275 -0.266407
    26 1.789783 0.000001 0.000001 -0.001068 -0.012855 -0.131880
    27 1.207000 0.000000 0.000001 -0.000100 -0.003217 -0.064874
    28 2.033354 1.000771 -1.937610 -2.173105 1.310587 2.445079
    29 6.028142 0.000004 0.000000 0.841462 0.350822 -0.664280
    30 11.692552 0.000000 0.000002 0.000000 0.000000 -1.727142
    31 11.481699 0.000000 0.000004 -1.141983 -0.325449 0.062451
    32 3.883657 -0.050329 -0.431043 0.047704 -0.153454 -0.767482
    33 1.719576 0.000003 0.000000 -0.053884 0.078890 -1.553283
    34 1.209180 -0.000001 0.000000 -0.013612 0.036967 -0.732282
    35 3.859830 -0.148938 -1.331282 -0.332627 0.218364 0.154975
    36 1.719426 0.000000 0.000000 -0.042634 0.220745 -0.851607
    37 1.099666 0.000000 0.000000 0.008154 0.000000 0.000000
    38 0.806017 -0.359836 -1.318334 0.415058 0.423434 -0.720789
    39 1.789784 0.000000 -0.000001 0.015106 0.038911 0.767156
    40 1.206998 0.000000 0.000000 0.004784 0.022539 0.418309
    41 -0.044717 2.313936 4.661499 -0.026533 -0.021099 0.061864
    42 2.676088 -1.712442 0.000000 1.570797 0.000000 1.570797
    43 2.676088 -1.712443 0.000000 -1.570796 0.000000 -1.570796
  time 18
    0 -24.730527 -27.304978 37.398913 1.497772 -0.011024 -0.005734
    1 3.890452 -0.000004 -0.000003 -1.399953 -0.096883 -1.564604
    2 17.848175 0.000000 0.000000 0.000000 0.000000 0.571555
    3 16.525249 0.000000 0.000000 -0.062602 0.031914 -1.373526
    4 6.879453 0.000000 0.000000 -0.007299 -0.002951 -0.584373
    5 -3.890452 0.000004 0.000007 -1.313544 -0.374832 -1.749545
    6 17.848171 0.000000 0.000000 0.000000 0.000000 0.713999
    7 16.525257 0.000000 0.000000 0.210760 0.161436 -1.161374
    8 6.879454 0.000000 0.000000 -0.081333 -0.002951 -0.584373
    9 0.031256 3.345128 -2.981901 1.569203 0.068387 1.619226
    10 4.018331 0.000000 0.000000 -0.154481 -0.034971 0.086665
    11 3.518561 0.000000 0.000000 -0.027746 -0.050659 0.096922
    12 8.942642 0.000000 0.000000 0.026856 0.001618 0.155708
    13 3.307271 0.000000 0.000000 3.141590 0.000000 0.400478
    14 3.593710 -0.000003 0.000000 0.219415 -0.028707 0.483487
    15 2.033346 1.000767 1.937660 1.802276 -1.395245 2.734682
    16 6.028142 0.000002 0.000000 -1.513237 0.226543 -1.071137
    17 11.692556 0.000000 -0.000001 0.000000 0.000000 -1.726743
    18 11.481671 0.000000 -0.000029 -0.635310 0.261639 -0.084775
    19 3.883691 -0.046771 0.431443 0.096615 -0.011011 -0.677044
    20 1.719575 0.000000 0.000000 0.055915 -0.087978 -1.150781
    21 1.209183 -0.000001 0.000000 0.009316 -0.033629 -0.339470
    22 3.859861 -0.137948 1.332466 0.537935 -0.132420 -0.946691
    23 1.719428 0.000001 0.000000 0.023476 -0.208311 -0.755744
    24 1.099667 0.000000 0.000000 0.026046 -0.124621 -0.538681
    25 0.806048 -0.348922 1.321258 -1.269164 -0.727275 -0.266407
    26 1.789783 0.000001 0.000001 -0.001068 -0.012855 -0.131880
    27 1.207000 0.000000 0.000001 -0.000100 -0.003217 -0.064874
    28 2.033354 1.000771 -1.937610 -2.173105 1.310587 2.445079
    29 6.028142 0.000004 0.000000 0.835523 0.358402 -0.659155
    30 11.692552 0.000000 0.000002 0.000000 0.000000 -1.727287
    31 11.481699 0.000000 0.000004 -1.141529 -0.325449 0.061709
    32 3.883657 -0.050329 -0.431043 0.047704 -0.153454 -0.767482
    33 1.719576 0.000003 0.000000 -0.053884 0.078890 -1.553283
    34 1.209180 -0.000001 0.000000 -0.013612 0.036967 -0.732282
    35 3.859830 -0.148938 -1.331282 -0.332627 0.218364 0.154975
    36 1.719426 0.000000 0.000000 -0.042634 0.220745 -0.851607
    37 1.099666 0.000000 0.000000 0.008154 0.000000 0.000000
    38 0.806017 -0.359836 -1.318334 0.415058 0.423434 -0.720789
    39 1.789784 0.000000 -0.000001 0.015106 0.038911 0.767156
    40 1.206998 0.000000 0.000000 0.004784 0.022539 0.418309
    41 -0.044717 2.313936 4.661499 -0.026579 -0.012179 0.063135
    42 2.676088 -1.712442 0.000000 1.570797 0.000000 1.570797
    43 2.676088 -1.712443 0.000000 -1.570796 0.000000 -1.570796
  time 19
    0 -26.069374 -28.788898 37.090310 1.498217 -0.012883 0.009307
    1 3.890452 -0.000004 -0.000003 -1.404723 -0.059548 -1.525778
    2 17.848175 0.000000 0.000000 0.000000 0.000000 0.577780
    3 16.525249 0.000000 0.000000 -0.057449 0.049209 -1.417810
    4 6.879453 0.000000 0.000000 -0.007299 -0.002951 -0.584373
    5 -3.890452 0.000004 0.000007 -1.388688 -0.352190 -1.788725
    6 17.848171 0.000000 0.000000 0.000000 0.000000 0.526127
    7 16.525257 0.000000 0.000000 0.202340 0.178010 -1.184343
    8 6.879454 0.000000 0.000000 -0.081333 -0.002951 -0.584373
    9 0.039069 3.345128 -2.981901 1.569203 0.068387 1.616038
    10 4.018331 0.000000 0.000000 -0.158523 -0.031340 0.085672
    11 3.518561 0.000000 0.000000 -0.032272 -0.047231 0.096875
    12 8.942642 0.000000 0.000000 0.026433 0.000899 0.158237
    13 3.307271 0.000000 0.000000 3.141590 0.000000 0.400478
    14 3.593710 -0.000003 0.000000 0.216917 -0.028707 0.489341
    15 2.033346 1.000767 1.937660 1.802276 -1.395245 2.734682
    16 6.028142 0.000002 0.000000 -1.519837 0.238521 -1.079028
    17 11.692556 0.000000 -0.000001 0.000000 0.000000 -1.728951
    18 11.481671 0.000000 -0.000029 -0.630820 0.261639 -0.091850
    19 3.883691 -0.046771 0.431443 0.096615 -0.011011 -0.677044
    20 1.719575 0.000000 0.000000 0.055915 -0.087978 -1.150781
    21 1.209183 -0.000001 0.000000 0.009316 -0.033629 -0.339470
    22 3.859861 -0.137948 1.332466 0.537935 -0.132420 -0.946691
    23 1.719428 0.000001 0.000000 0.023476 -0.208311 -0.755744
    24 1.099667 0.000000 0.000000 0.026046 -0.124621 -0.538681
    25 0.806048 -0.348922 1.321258 -1.269164 -0.727275 -0.266407
    26 1.789783 0.000001 0.000001 -0.001068 -0.012855 -0.131880
    27 1.207000 0.000000 0.000001 -0.000100 -0.003217 -0.064874
    28 2.033354 1.000771 -1.937610 -2.173105 1.310587 2.445079
    29 6.028142 0.000004 0.000000 0.829776 0.364276 -0.655360
    30 11.692552 0.000000 0.000002 0.000000 0.000000 -1.727359
    31 11.481699 0.000000 0.000004 -1.141335 -0.325449 0.061367
    32 3.883657 -0.050329 -0.431043 0.047704 -0.153454 -0.767482
    33 1.719576 0.000003 0.000000 -0.053884 0.078890 -1.553283
    34 1.209180 -0.000001 0.000000 -0.013612 0.036967 -0.732282
    35 3.859830 -0.148938 -1.331282 -0.332627 0.218364 0.154975
    36 1.719426 0.000000 0.000000 -0.042634 0.220745 -0.851607
    37 1.099666 0.000000 0.000000 0.008154 0.000000 0.000000
    38 0.806017 -0.359836 -1.318334 0.415058 0.423434 -0.720789
    39 1.789784 0.000000 -0.000001 0.015106 0.038911 0.767156
    40 1.206998 0.000000 0.000000 0.004784 0.022539 0.418309
    41 -0.044717 2.313936 4.661499 -0.026579 -0.004148 0.064585
    42 2.676088 -1.712442 0.000000 1.570797 0.000000 1.570797
    43 2.676088 -1.712443 0.000000 -1.570796 0.000000 -1.570796
  time 20
    0 -27.482443 -30.291202 36.703579 1.498726 -0.012867 0.019270
    1 3.890452 -0.000004 -0.000003 -1.420182 -0.025836 -1.477864
    2 17.848175 0.000000 0.000000 0.000000 0.000000 0.590307
    3 16.525249 0.000000 0.000000 -0.068929 0.083279 -1.455403
    4 6.879453 0.000000 0.000000 -0.007299 -0.002951 -0.584373
    5 -3.890452 0.000004 0.000007 -1.409199 -0.313129 -1.837724
    6 17.848171 0.000000 0.000000 0.000000 0.000000 0.336992
    7 16.525257 0.000000 0.000000 0.154531 0.119569 -1.213136
    8 6.879454 0.000000 0.000000 -0.081333 -0.002951 -0.584373
    9 0.039069 3.345128 -2.981901 1.569185 0.068370 1.612850
    10 4.018331 0.000000 0.000000 -0.161313 -0.028080 0.084852
    11 3.518561 0.000000 0.000000 -0.035480 -0.043959 0.096751
    12 8.942642 0.000000 0.000000 0.026063 0.000839 0.160082
    13 3.307271 0.000000 0.000000 3.141590 0.000000 0.400478
    14 3.593710 -0.000003 0.000000 0.213474 -0.029242 0.494948
    15 2.033346 1.000767 1.937660 1.802276 -1.395245 2.734682
    16 6.028142 0.000002 0.000000 -1.524740 0.247723 -1.084319
    17 11.692556 0.000000 -0.000001 0.000000 0.000000 -1.730765
    18 11.481671 0.000000 -0.000029 -0.627953 0.261681 -0.096988
    19 3.883691 -0.046771 0.431443 0.096615 -0.011011 -0.677044
    20 1.719575 0.000000 0.000000 0.055915 -0.087978 -1.150781
    21 1.209183 -0.000001 0.000000 0.009316 -0.033629 -0.339470
    22 3.859861 -0.137948 1.332466 0.537935 -0.132420 -0.946691
    23 1.719428 0.000001 0.000000 0.023476 -0.208311 -0.755744
    24 1.099667 0.000000 0.000000 0.026046 -0.124621 -0.538681
    25 0.806048 -0.348922 1.321258 -1.269164 -0.727275 -0.266407
    26 1.789783 0.000001 0.000001 -0.001068 -0.012855 -0.131880
    27 1.207000 0.000000 0.000001 -0.000100 -0.003217 -0.064874
    28 2.033354 1.000771 -1.937610 -2.173105 1.310587 2.445079
    29 6.028142 0.000004 0.000000 0.825082 0.368539 -0.653177
    30 11.692552 0.000000 0.000002 0.000000 0.000000 -1.727359
    31 11.481699 0.000000 0.000004 -1.141335 -0.325449 0.061367
    32 3.883657 -0.050329 -0.431043 0.047704 -0.153454 -0.767482
    33 1.719576 0.000003 0.000000 -0.053884 0.078890 -1.553283
    34 1.209180 -0.000001 0.000000 -0.013612 0.036967 -0.732282
    35 3.859830 -0.148938 -1.331282 -0.332627 0.218364 0.154975
    36 1.719426 0.000000 0.000000 -0.042634 0.220745 -0.851607
    37 1.099666 0.000000 0.000000 0.008154 0.000000 0.000000
    38 0.806017 -0.359836 -1.318334 0.415058 0.423434 -0.720789
    39 1.789784 0.000000 -0.000001 0.015106 0.038911 0.767156
    40 1.206998 0.000000 0.000000 0.004784 0.022539 0.418309
    41 -0.044717 2.313936 4.661499 -0.026488 0.002869 0.065304
    42 2.676088 -1.712442 0.000000 1.570797 0.000000 1.570797
    43 2.676088 -1.712443 0.000000 -1.570796 0.000000 -1.570796
  time 21
    0 -29.043953 -31.805763 36.324661 1.498154 -0.012998 0.023102
    1 3.890452 -0.000004 -0.000003 -1.450128 0.010641 -1.419009
    2 17.848175 0.000000 0.000000 0.000000 0.000000 0.598278
    3 16.525249 0.000000 0.000000 -0.096579 0.142083 -1.469852
    4 6.879453 0.000000 0.000000 -0.007299 -0.002951 -0.584373
    5 -3.890452 0.000004 0.000007 -1.430381 -0.336850 -1.875960
    6 17.848171 0.000000 0.000000 0.000000 0.000000 0.325862
    7 16.525257 0.000000 0.000000 0.155373 0.088473 -1.274032
    8 6.879454 0.000000 0.000000 -0.081333 -0.002951 -0.584373
    9 0.039069 3.345128 -2.981901 1.569148 0.068370 1.607217
    10 4.018331 0.000000 0.000000 -0.162772 -0.024964 0.084713
    11 3.518561 0.000000 0.000000 -0.037404 -0.040664 0.096906
    12 8.942642 0.000000 0.000000 0.025729 0.001330 0.160846
    13 3.307271 0.000000 0.000000 3.141590 0.000000 0.400478
    14 3.593710 -0.000003 0.000000 0.209144 -0.030285 0.499755
    15 2.033346 1.000767 1.937660 1.802276 -1.395245 2.734682
    16 6.028142 0.000002 0.000000 -1.528040 0.253858 -1.087197
    17 11.692556 0.000000 -0.000001 0.000000 0.000000 -1.732736
    18 11.481671 0.000000 -0.000029 -0.626234 0.261847 -0.099439
    19 3.883691 -0.046771 0.431443 0.096615 -0.011011 -0.677044
    20 1.719575 0.000000 0.000000 0.055915 -0.087978 -1.150781
    21 1.209183 -0.000001 0.000000 0.009316 -0.033629 -0.339470
    22 3.859861 -0.137948 1.332466 0.537935 -0.132420 -0.946691
    23 1.719428 0.000001 0.000000 0.023476 -0.208311 -0.755744
    24 1.099667 0.000000 0.000000 0.026046 -0.124621 -0.538681
    25 0.806048 -0.348922 1.321258 -1.269164 -0.727275 -0.266407
    26 1.789783 0.000001 0.000001 -0.001068 -0.012855 -0.131880
    27 1.207000 0.000000 0.000001 -0.000100 -0.003217 -0.064874
    28 2.033354 1.000771 -1.937610 -2.173105 1.310587 2.445079
    29 6.028142 0.000004 0.000000 0.822208 0.371002 -0.652608
    30 11.692552 0.000000 0.000002 0.000000 0.000000 -1.727359
    31 11.481699 0.000000 0.000004 -1.141270 -0.325449 0.061310
    32 3.883657 -0.050329 -0.431043 0.047704 -0.153454 -0.767482
    33 1.719576 0.000003 0.000000 -0.053884 0.078890 -1.553283
    34 1.209180 -0.000001 0.000000 -0.013612 0.036967 -0.732282
    35 3.859830 -0.148938 -1.331282 -0.332627 0.218364 0.154975
    36 1.719426 0.000000 0.000000 -0.042634 0.220745 -0.851607
    37 1.099666 0.000000 0.000000 0.008154 0.000000 0.000000
    38 0.806017 -0.359836 -1.318334 0.415058 0.423434 -0.720789
    39 1.789784 0.000000 -0.000001 0.015106 0.038911 0.767156
    40 1.206998 0.000000 0.000000 0.004784 0.022539 0.418309
    41 -0.044717 2.313936 4.661499 -0.026397 0.008748 0.062775
    42 2.676088 -1.712442 0.000000 1.570797 0.000000 1.570797
    43 2.676088 -1.712443 0.000000 -1.570796 0.000000 -1.570796
  time 22
    0 -30.785157 -33.338707 36.035590 1.496436 -0.010519 0.020802
    1 3.890452 -0.000004 -0.000003 -1.501099 0.046546 -1.346212
    2 17.848175 0.000000 0.000000 0.000000 0.000000 0.606705
    3 16.525249 0.000000 0.000000 -0.124585 0.219748 -1.447109
    4 6.879453 0.000000 0.000000 -0.007299 -0.002951 -0.584373
    5 -3.890452 0.000004 0.000007 -1.463544 -0.333566 -1.871333
    6 17.848171 0.000000 0.000000 0.000000 0.000000 0.319626
    7 16.525257 0.000000 0.000000 0.223016 0.116982 -1.235090
    8 6.879454 0.000000 0.000000 -0.081333 -0.002951 -0.584373
    9 0.031256 3.345128 -2.981901 1.569093 0.068353 1.601884
    10 4.018331 0.000000 0.000000 -0.162869 -0.021680 0.085428
    11 3.518561 0.000000 0.000000 -0.038028 -0.037128 0.097496
    12 8.942642 0.000000 0.000000 0.025341 0.002085 0.160398
    13 3.307271 0.000000 0.000000 3.141590 0.000000 0.400478
    14 3.593710 -0.000003 0.000000 0.204091 -0.031383 0.502836
    15 2.033346 1.000767 1.937660 1.802276 -1.395245 2.734682
    16 6.028142 0.000002 0.000000 -1.530208 0.256828 -1.087568
    17 11.692556 0.000000 -0.000001 0.000000 0.000000 -1.734549
    18 11.481671 0.000000 -0.000029 -0.626234 0.261888 -0.099755
    19 3.883691 -0.046771 0.431443 0.096615 -0.011011 -0.677044
    20 1.719575 0.000000 0.000000 0.055915 -0.087978 -1.150781
    21 1.209183 -0.000001 0.000000 0.009316 -0.033629 -0.339470
    22 3.859861 -0.137948 1.332466 0.537935 -0.132420 -0.946691
    23 1.719428 0.000001 0.000000 0.023476 -0.208311 -0.755744
    24 1.099667 0.000000 0.000000 0.026046 -0.124621 -0.538681
    25 0.806048 -0.348922 1.321258 -1.269164 -0.727275 -0.266407
    26 1.789783 0.000001 0.000001 -0.001068 -0.012855 -0.131880
    27 1.207000 0.000000 0.000001 -0.000100 -0.003217 -0.064874
    28 2.033354 1.000771 -1.937610 -2.173105 1.310587 2.445079
    29 6.028142 0.000004 0.000000 0.820771 0.372187 -0.653841
    30 11.692552 0.000000 0.000002 0.000000 0.000000 -1.727287
    31 11.481699 0.000000 0.000004 -1.141594 -0.325449 0.061766
    32 3.883657 -0.050329 -0.431043 0.047704 -0.153454 -0.767482
    33 1.719576 0.000003 0.000000 -0.053884 0.078890 -1.553283
    34 1.209180 -0.000001 0.000000 -0.013612 0.036967 -0.732282
    35 3.859830 -0.148938 -1.331282 -0.332627 0.218364 0.154975
    36 1.719426 0.000000 0.000000 -0.042634 0.220745 -0.851607
    37 1.099666 0.000000 0.000000 0.008154 0.000000 0.000000
    38 0.806017 -0.359836 -1.318334 0.415058 0.423434 -0.720789
    39 1.789784 0.000000 -0.000001 0.015106 0.038911 0.767156
    40 1.206998 0.000000 0.000000 0.004784 0.022539 0.418309
    41 -0.044717 2.313936 4.661499 -0.026306 0.013317 0.059587
    42 2.676088 -1.712442 0.000000 1.570797 0.000000 1.570797
    43 2.676088 -1.712443 0.000000 -1.570796 0.000000 -1.570796
  time 23
    0 -32.694334 -34.859396 35.902774 1.494655 0.001582 0.013809
    1 3.890452 -0.000004 -0.000003 -1.595000 0.066859 -1.251443
    2 17.848175 0.000000 0.000000 0.000000 0.000000 0.641856
    3 16.525249 0.000000 0.000000 -0.112537 0.298950 -1.368376
    4 6.879453 0.000000 0.000000 -0.007299 -0.002951 -0.584373
    5 -3.890452 0.000004 0.000007 -1.503991 -0.368020 -1.826678
    6 17.848171 0.000000 0.000000 0.000000 0.000000 0.430217
    7 16.525257 0.000000 0.000000 0.322564 0.145141 -1.178414
    8 6.879454 0.000000 0.000000 -0.081333 -0.002951 -0.584373
    9 -0.003901 3.345128 -2.981901 1.569020 0.068337 1.604617
    10 4.018331 0.000000 0.000000 -0.161554 -0.018049 0.086874
    11 3.518561 0.000000 0.000000 -0.037368 -0.033329 0.098443
    12 8.942642 0.000000 0.000000 0.024812 0.002709 0.158870
    13 3.307271 0.000000 0.000000 3.141590 0.000000 0.400478
    14 3.593710 -0.000003 0.000000 0.198206 -0.032003 0.503390
    15 2.033346 1.000767 1.937660 1.802276 -1.395245 2.734682
    16 6.028142 0.000002 0.000000 -1.532282 0.256779 -1.084783
    17 11.692556 0.000000 -0.000001 0.000000 0.000000 -1.735574
    18 11.481671 0.000000 -0.000029 -0.629960 0.261515 -0.099716
    19 3.883691 -0.046771 0.431443 0.096615 -0.011011 -0.677044
    20 1.719575 0.000000 0.000000 0.055915 -0.087978 -1.150781
    21 1.209183 -0.000001 0.000000 0.009316 -0.033629 -0.339470
    22 3.859861 -0.137948 1.332466 0.537935 -0.132420 -0.946691
    23 1.719428 0.000001 0.000000 0.023476 -0.208311 -0.755744
    24 1.099667 0.000000 0.000000 0.026046 -0.124621 -0.538681
    25 0.806048 -0.348922 1.321258 -1.269164 -0.727275 -0.266407
    26 1.789783 0.000001 0.000001 -0.001068 -0.012855 -0.131880
    27 1.207000 0.000000 0.000001 -0.000100 -0.003217 -0.064874
    28 2.033354 1.000771 -1.937610 -2.173105 1.310587 2.445079
    29 6.028142 0.000004 0.000000 0.819814 0.373087 -0.658017
    30 11.692552 0.000000 0.000002 0.000000 0.000000 -1.726780
    31 11.481699 0.000000 0.000004 -1.143149 -0.325483 0.064220
    32 3.883657 -0.050329 -0.431043 0.047704 -0.153454 -0.767482
    33 1.719576 0.000003 0.000000 -0.053884 0.078890 -1.553283
    34 1.209180 -0.000001 0.000000 -0.013612 0.036967 -0.732282
    35 3.859830 -0.148938 -1.331282 -0.332627 0.218364 0.154975
    36 1.719426 0.000000 0.000000 -0.042634 0.220745 -0.851607
    37 1.099666 0.000000 0.000000 0.008154 0.000000 0.000000
    38 0.806017 -0.359836 -1.318334 0.415058 0.423434 -0.720789
    39 1.789784 0.000000 -0.000001 0.015106 0.038911 0.767156
    40 1.206998 0.000000 0.000000 0.004784 0.022539 0.418309
    41 -0.044717 2.313936 4.661499 -0.026215 0.016405 0.063410
    42 2.676088 -1.712442 0.000000 1.570797 0.000000 1.570797
    43 2.676088 -1.712443 0.000000 -1.570796 0.000000 -1.570796
  time 24
    0 -34.708983 -36.337188 35.953556 1.493446 0.021527 0.004517
    1 3.890452 -0.000004 -0.000003 -1.755419 0.054652 -1.133908
    2 17.848175 0.000000 0.000000 0.000000 0.000000 0.727796
    3 16.525249 0.000000 0.000000 -0.003321 0.328846 -1.222950
    4 6.879453 0.000000 0.000000 -0.007299 -0.002951 -0.584373
    5 -3.890452 0.000004 0.000007 -1.474470 -0.370716 -1.766256
    6 17.848171 0.000000 0.000000 0.000000 0.000000 0.486737
    7 16.525257 0.000000 0.000000 0.343614 0.105163 -1.102294
    8 6.879454 0.000000 0.000000 -0.081333 -0.002951 -0.584373
    9 -0.070310 3.345128 -2.981901 1.568947 0.068320 1.614540
    10 4.018331 0.000000 0.000000 -0.158715 -0.014154 0.088774
    11 3.518561 0.000000 0.000000 -0.035283 -0.029434 0.099591
    12 8.942642 0.000000 0.000000 0.024054 0.002960 0.156617
    13 3.307271 0.000000 0.000000 3.141590 0.000000 0.400478
    14 3.593710 -0.000003 0.000000 0.191100 -0.031862 0.501357
    15 2.033346 1.000767 1.937660 1.802276 -1.395245 2.734682
    16 6.028142 0.000002 0.000000 -1.533320 0.252982 -1.079399
    17 11.692556 0.000000 -0.000001 0.000000 0.000000 -1.734628
    18 11.481671 0.000000 -0.000029 -0.636648 0.260684 -0.099913
    19 3.883691 -0.046771 0.431443 0.096615 -0.011011 -0.677044
    20 1.719575 0.000000 0.000000 0.055915 -0.087978 -1.150781
    21 1.209183 -0.000001 0.000000 0.009316 -0.033629 -0.339470
    22 3.859861 -0.137948 1.332466 0.537935 -0.132420 -0.946691
    23 1.719428 0.000001 0.000000 0.023476 -0.208311 -0.755744
    24 1.099667 0.000000 0.000000 0.026046 -0.124621 -0.538681
    25 0.806048 -0.348922 1.321258 -1.269164 -0.727275 -0.266407
    26 1.789783 0.000001 0.000001 -0.001068 -0.012855 -0.131880
    27 1.207000 0.000000 0.000001 -0.000100 -0.003217 -0.064874
    28 2.033354 1.000771 -1.937610 -2.173105 1.310587 2.445079
    29 6.028142 0.000004 0.000000 0.819718 0.373276 -0.664090
    30 11.692552 0.000000 0.000002 0.000000 0.000000 -1.725840
    31 11.481699 0.000000 0.000004 -1.145869 -0.325518 0.068156
    32 3.883657 -0.050329 -0.431043 0.047704 -0.153454 -0.767482
    33 1.719576 0.000003 0.000000 -0.053884 0.078890 -1.553283
    34 1.209180 -0.000001 0.000000 -0.013612 0.036967 -0.732282
    35 3.859830 -0.148938 -1.331282 -0.332627 0.218364 0.154975
    36 1.719426 0.000000 0.000000 -0.042634 0.220745 -0.851607
    37 1.099666 0.000000 0.000000 0.008154 0.000000 0.000000
    38 0.806017 -0.359836 -1.318334 0.415058 0.423434 -0.720789
    39 1.789784 0.000000 -0.000001 0.015106 0.038911 0.767156
    40 1.206998 0.000000 0.000000 0.004784 0.022539 0.418309
    41 -0.044717 2.313936 4.661499 -0.026215 0.016264 0.071884
    42 2.676088 -1.712442 0.000000 1.570797 0.000000 1.570797
    43 2.676088 -1.712443 0.000000 -1.570796 0.000000 -1.570796
  time 25
    0 -36.735351 -37.741443 36.164500 1.492365 0.043934 -0.005255
    1 3.890452 -0.000004 -0.000003 -1.955766 0.017603 -1.008609
    2 17.848175 0.000000 0.000000 0.000000 0.000000 0.837423
    3 16.525249 0.000000 0.000000 0.227692 0.248107 -1.000330
    4 6.879453 0.000000 0.000000 -0.007299 -0.002951 -0.584373
    5 -3.890452 0.000004 0.000007 -1.434215 -0.343368 -1.696676
    6 17.848171 0.000000 0.000000 0.000000 0.000000 0.491236
    7 16.525257 0.000000 0.000000 0.310401 0.075605 -1.056889
    8 6.879454 0.000000 0.000000 -0.081333 -0.002951 -0.584373
    9 -0.144531 3.345128 -2.981901 1.568892 0.068303 1.627603
    10 4.018331 0.000000 0.000000 -0.154209 -0.010403 0.090725
    11 3.518561 0.000000 0.000000 -0.031595 -0.025815 0.100631
    12 8.942642 0.000000 0.000000 0.023156 0.002792 0.154035
    13 3.307271 0.000000 0.000000 3.141590 0.000000 0.400478
    14 3.593710 -0.000003 0.000000 0.182328 -0.031045 0.497167
    15 2.033346 1.000767 1.937660 1.802276 -1.395245 2.734682
    16 6.028142 0.000002 0.000000 -1.532000 0.244217 -1.072623
    17 11.692556 0.000000 -0.000001 0.000000 0.000000 -1.730607
    18 11.481671 0.000000 -0.000029 -0.644865 0.259688 -0.100269
    19 3.883691 -0.046771 0.431443 0.096615 -0.011011 -0.677044
    20 1.719575 0.000000 0.000000 0.055915 -0.087978 -1.150781
    21 1.209183 -0.000001 0.000000 0.009316 -0.033629 -0.339470
    22 3.859861 -0.137948 1.332466 0.537935 -0.132420 -0.946691
    23 1.719428 0.000001 0.000000 0.023476 -0.208311 -0.755744
    24 1.099667 0.000000 0.000000 0.026046 -0.124621 -0.538681
    25 0.806048 -0.348922 1.321258 -1.269164 -0.727275 -0.266407
    26 1.789783 0.000001 0.000001 -0.001068 -0.012855 -0.131880
    27 1.207000 0.000000 0.000001 -0.000100 -0.003217 -0.064874
    28 2.033354 1.000771 -1.937610 -2.173105 1.310587 2.445079
    29 6.028142 0.000004 0.000000 0.821729 0.371713 -0.670448
    30 11.692552 0.000000 0.000002 0.000000 0.000000 -1.724538
    31 11.481699 0.000000 0.000004 -1.148979 -0.325552 0.072493
    32 3.883657 -0.050329 -0.431043 0.047704 -0.153454 -0.767482
    33 1.719576 0.000003 0.000000 -0.053884 0.078890 -1.553283
    34 1.209180 -0.000001 0.000000 -0.013612 0.036967 -0.732282
    35 3.859830 -0.148938 -1.331282 -0.332627 0.218364 0.154975
    36 1.719426 0.000000 0.000000 -0.042634 0.220745 -0.851607
    37 1.099666 0.000000 0.000000 0.008154 0.000000 0.000000
    38 0.806017 -0.359836 -1.318334 0.415058 0.423434 -0.720789
    39 1.789784 0.000000 -0.000001 0.015106 0.038911 0.767156
    40 1.206998 0.000000 0.000000 0.004784 0.022539 0.418309
    41 -0.044717 2.313936 4.661499 -0.026261 0.011898 0.080117
    42 2.676088 -1.712442 0.000000 1.570797 0.000000 1.570797
    43 2.676088 -1.712443 0.000000 -1.570796 0.000000 -1.570796
  time 26
    0 -38.644529 -39.084417 36.465291 1.490902 0.063422 -0.015697
    1 3.890452 -0.000004 -0.000003 -2.028821 -0.043812 -0.949930
    2 17.848175 0.000000 0.000000 0.000000 0.000000 0.934068
    3 16.525249 0.000000 0.000000 0.365695 0.094919 -0.878652
    4 6.879453 0.000000 0.000000 -0.007299 -0.002951 -0.584373
    5 -3.890452 0.000004 0.000007 -1.436132 -0.298377 -1.618694
    6 17.848171 0.000000 0.000000 0.000000 0.000000 0.469134
    7 16.525257 0.000000 0.000000 0.235460 0.118684 -1.044549
    8 6.879454 0.000000 0.000000 -0.081333 -0.002951 -0.584373
    9 -0.210939 3.341221 -2.981901 1.568837 0.068286 1.639504
    10 4.018331 0.000000 0.000000 -0.147986 -0.007299 0.092242
    11 3.518561 0.000000 0.000000 -0.026142 -0.022939 0.101267
    12 8.942642 0.000000 0.000000 0.022257 0.002397 0.151519
    13 3.307271 0.000000 0.000000 3.141590 0.000000 0.400478
    14 3.593710 -0.000003 0.000000 0.172223 -0.029637 0.491374
    15 2.033346 1.000767 1.937660 1.802276 -1.395245 2.734682
    16 6.028142 0.000002 0.000000 -1.527002 0.229708 -1.065660
    17 11.692556 0.000000 -0.000001 0.000000 0.000000 -1.722407
    18 11.481671 0.000000 -0.000029 -0.653273 0.258816 -0.100664
    19 3.883691 -0.046771 0.431443 0.096615 -0.011011 -0.677044
    20 1.719575 0.000000 0.000000 0.055915 -0.087978 -1.150781
    21 1.209183 -0.000001 0.000000 0.009316 -0.033629 -0.339470
    22 3.859861 -0.137948 1.332466 0.537935 -0.132420 -0.946691
    23 1.719428 0.000001 0.000000 0.023476 -0.208311 -0.755744
    24 1.099667 0.000000 0.000000 0.026046 -0.124621 -0.538681
    25 0.806048 -0.348922 1.321258 -1.269164 -0.727275 -0.266407
    26 1.789783 0.000001 0.000001 -0.001068 -0.012855 -0.131880
    27 1.207000 0.000000 0.000001 -0.000100 -0.003217 -0.064874
    28 2.033354 1.000771 -1.937610 -2.173105 1.310587 2.445079
    29 6.028142 0.000004 0.000000 0.826902 0.367071 -0.675477
    30 11.692552 0.000000 0.000002 0.000000 0.000000 -1.723309
    31 11.481699 0.000000 0.000004 -1.151765 -0.325587 0.076144
    32 3.883657 -0.050329 -0.431043 0.047704 -0.153454 -0.767482
    33 1.719576 0.000003 0.000000 -0.053884 0.078890 -1.553283
    34 1.209180 -0.000001 0.000000 -0.013612 0.036967 -0.732282
    35 3.859830 -0.148938 -1.331282 -0.332627 0.218364 0.154975
    36 1.719426 0.000000 0.000000 -0.042634 0.220745 -0.851607
    37 1.099666 0.000000 0.000000 0.008154 0.000000 0.000000
    38 0.806017 -0.359836 -1.318334 0.415058 0.423434 -0.720789
    39 1.789784 0.000000 -0.000001 0.015106 0.038911 0.767156
    40 1.206998 0.000000 0.000000 0.004784 0.022539 0.418309
    41 -0.044717 2.313936 4.661499 -0.026352 0.004210 0.084671
    42 2.676088 -1.712442 0.000000 1.570797 0.000000 1.570797
    43 2.676088 -1.712443 0.000000 -1.570796 0.000000 -1.570796
  time 27
    0 -40.374013 -40.402879 36.805145 1.489503 0.075735 -0.028630
    1 3.890452 -0.000004 -0.000003 -1.974405 -0.139893 -0.966695
    2 17.848175 0.000000 0.000000 0.000000 0.000000 1.060929
    3 16.525249 0.000000 0.000000 0.398499 0.058681 -0.876177
    4 6.879453 0.000000 0.000000 -0.007299 -0.002951 -0.584373
    5 -3.890452 0.000004 0.000007 -1.449742 -0.241085 -1.549209
    6 17.848171 0.000000 0.000000 0.000000 0.000000 0.429033
    7 16.525257 0.000000 0.000000 0.175675 0.160457 -1.058331
    8 6.879454 0.000000 0.000000 -0.081333 -0.002951 -0.584373
    9 -0.253909 3.337315 -2.981901 1.568764 0.068270 1.646730
    10 4.018331 0.000000 0.000000 -0.140193 -0.005249 0.092817
    11 3.518561 0.000000 0.000000 -0.018907 -0.021117 0.101019
    12 8.942642 0.000000 0.000000 0.021658 0.001989 0.149345
    13 3.307271 0.000000 0.000000 3.141590 0.000000 0.400478
    14 3.593710 -0.000003 0.000000 0.161730 -0.027721 0.484596
    15 2.033346 1.000767 1.937660 1.802276 -1.395245 2.734682
    16 6.028142 0.000002 0.000000 -1.517291 0.209501 -1.059348
    17 11.692556 0.000000 -0.000001 0.000000 0.000000 -1.709712
    18 11.481671 0.000000 -0.000029 -0.660725 0.258276 -0.100862
    19 3.883691 -0.046771 0.431443 0.096615 -0.011011 -0.677044
    20 1.719575 0.000000 0.000000 0.055915 -0.087978 -1.150781
    21 1.209183 -0.000001 0.000000 0.009316 -0.033629 -0.339470
    22 3.859861 -0.137948 1.332466 0.537935 -0.132420 -0.946691
    23 1.719428 0.000001 0.000000 0.023476 -0.208311 -0.755744
    24 1.099667 0.000000 0.000000 0.026046 -0.124621 -0.538681
    25 0.806048 -0.348922 1.321258 -1.269164 -0.727275 -0.266407
    26 1.789783 0.000001 0.000001 -0.001068 -0.012855 -0.131880
    27 1.207000 0.000000 0.000001 -0.000100 -0.003217 -0.064874
    28 2.033354 1.000771 -1.937610 -2.173105 1.310587 2.445079
    29 6.028142 0.000004 0.000000 0.835236 0.358402 -0.678039
    30 11.692552 0.000000 0.000002 0.000000 0.000000 -1.722441
    31 11.481699 0.000000 0.000004 -1.153578 -0.325621 0.078369
    32 3.883657 -0.050329 -0.431043 0.047704 -0.153454 -0.767482
    33 1.719576 0.000003 0.000000 -0.053884 0.078890 -1.553283
    34 1.209180 -0.000001 0.000000 -0.013612 0.036967 -0.732282
    35 3.859830 -0.148938 -1.331282 -0.332627 0.218364 0.154975
    36 1.719426 0.000000 0.000000 -0.042634 0.220745 -0.851607
    37 1.099666 0.000000 0.000000 0.008154 0.000000 0.000000
    38 0.806017 -0.359836 -1.318334 0.415058 0.423434 -0.720789
    39 1.789784 0.000000 -0.000001 0.015106 0.038911 0.767156
    40 1.206998 0.000000 0.000000 0.004784 0.022539 0.418309
    41 -0.044717 2.313936 4.661499 -0.026352 -0.005926 0.082814
    42 2.676088 -1.712442 0.000000 1.570797 0.000000 1.570797
    43 2.676088 -1.712443 0.000000 -1.570796 0.000000 -1.570796
  time 28
    0 -41.947243 -41.733596 37.144999 1.489757 0.074609 -0.044820
    1 3.890452 -0.000004 -0.000003 -1.897994 -0.242553 -1.037551
    2 17.848175 0.000000 0.000000 0.000000 0.000000 1.175794
    3 16.525249 0.000000 0.000000 0.421529 0.154107 -0.911429
    4 6.879453 0.000000 0.000000 -0.007299 -0.002951 -0.584373
    5 -3.890452 0.000004 0.000007 -1.468145 -0.178304 -1.498794
    6 17.848171 0.000000 0.000000 0.000000 0.000000 0.379382
    7 16.525257 0.000000 0.000000 0.145736 0.183534 -1.080446
    8 6.879454 0.000000 0.000000 -0.081333 -0.002951 -0.584373
    9 -0.250003 3.337315 -2.981901 1.568617 0.068270 1.643111
    10 4.018331 0.000000 0.000000 -0.131068 -0.004374 0.091963
    11 3.518561 0.000000 0.000000 -0.010068 -0.020386 0.099498
    12 8.942642 0.000000 0.000000 0.021587 0.001690 0.147685
    13 3.307271 0.000000 0.000000 3.141590 0.000000 0.400478
    14 3.593710 -0.000003 0.000000 0.151847 -0.025439 0.477695
    15 2.033346 1.000767 1.937660 1.802276 -1.395245 2.734682
    16 6.028142 0.000002 0.000000 -1.501546 0.184426 -1.054706
    17 11.692556 0.000000 -0.000001 0.000000 0.000000 -1.692760
    18 11.481671 0.000000 -0.000029 -0.665980 0.258318 -0.100032
    19 3.883691 -0.046771 0.431443 0.096615 -0.011011 -0.677044
    20 1.719575 0.000000 0.000000 0.055915 -0.087978 -1.150781
    21 1.209183 -0.000001 0.000000 0.009316 -0.033629 -0.339470
    22 3.859861 -0.137948 1.332466 0.537935 -0.132420 -0.946691
    23 1.719428 0.000001 0.000000 0.023476 -0.208311 -0.755744
    24 1.099667 0.000000 0.000000 0.026046 -0.124621 -0.538681
    25 0.806048 -0.348922 1.321258 -1.269164 -0.727275 -0.266407
    26 1.789783 0.000001 0.000001 -0.001068 -0.012855 -0.131880
    27 1.207000 0.000000 0.000001 -0.000100 -0.003217 -0.064874
    28 2.033354 1.000771 -1.937610 -2.173105 1.310587 2.445079
    29 6.028142 0.000004 0.000000 0.846826 0.344806 -0.676521
    30 11.692552 0.000000 0.000002 0.000000 0.000000 -1.722513
    31 11.481699 0.000000 0.000004 -1.153384 -0.325621 0.078141
    32 3.883657 -0.050329 -0.431043 0.047704 -0.153454 -0.767482
    33 1.719576 0.000003 0.000000 -0.053884 0.078890 -1.553283
    34 1.209180 -0.000001 0.000000 -0.013612 0.036967 -0.732282
    35 3.859830 -0.148938 -1.331282 -0.332627 0.218364 0.154975
    36 1.719426 0.000000 0.000000 -0.042634 0.220745 -0.851607
    37 1.099666 0.000000 0.000000 0.008154 0.000000 0.000000
    38 0.806017 -0.359836 -1.318334 0.415058 0.423434 -0.720789
    39 1.789784 0.000000 -0.000001 0.015106 0.038911 0.767156
    40 1.206998 0.000000 0.000000 0.004784 0.022539 0.418309
    41 -0.044717 2.313936 4.661499 -0.026170 -0.017777 0.069091
    42 2.676088 -1.712442 0.000000 1.570797 0.000000 1.570797
    43 2.676088 -1.712443 0.000000 -1.570796 0.000000 -1.570796
  time 29
    0 -43.426719 -43.101083 37.465321 1.493319 0.065085 -0.064650
    1 3.890452 -0.000004 -0.000003 -1.815488 -0.335487 -1.152262
    2 17.848175 0.000000 0.000000 0.000000 0.000000 1.220587
    3 16.525249 0.000000 0.000000 0.400063 0.257139 -0.941933
    4 6.879453 0.000000 0.000000 -0.007299 -0.002951 -0.584373
    5 -3.890452 0.000004 0.000007 -1.501307 -0.107093 -1.459803
    6 17.848171 0.000000 0.000000 0.000000 0.000000 0.309601
    7 16.525257 0.000000 0.000000 0.139936 0.206892 -1.093213
    8 6.879454 0.000000 0.000000 -0.081333 -0.002951 -0.584373
    9 -0.218752 3.341221 -2.981901 1.568379 0.068286 1.633164
    10 4.018331 0.000000 0.000000 -0.120933 -0.004386 0.089471
    11 3.518561 0.000000 0.000000 0.000107 -0.020494 0.096472
    12 8.942642 0.000000 0.000000 0.022151 0.001450 0.146605
    13 3.307271 0.000000 0.000000 3.141590 0.000000 0.400478
    14 3.593710 -0.000003 0.000000 0.143242 -0.023270 0.471841
    15 2.033346 1.000767 1.937660 1.802276 -1.395245 2.734682
    16 6.028142 0.000002 0.000000 -1.480615 0.155991 -1.051179
    17 11.692556 0.000000 -0.000001 0.000000 0.000000 -1.671550
    18 11.481671 0.000000 -0.000029 -0.669993 0.258816 -0.099558
    19 3.883691 -0.046771 0.431443 0.096615 -0.011011 -0.677044
    20 1.719575 0.000000 0.000000 0.055915 -0.087978 -1.150781
    21 1.209183 -0.000001 0.000000 0.009316 -0.033629 -0.339470
    22 3.859861 -0.137948 1.332466 0.537935 -0.132420 -0.946691
    23 1.719428 0.000001 0.000000 0.023476 -0.208311 -0.755744
    24 1.099667 0.000000 0.000000 0.026046 -0.124621 -0.538681
    25 0.806048 -0.348922 1.321258 -1.269164 -0.727275 -0.266407
    26 1.789783 0.000001 0.000001 -0.001068 -0.012855 -0.131880
    27 1.207000 0.000000 0.000001 -0.000100 -0.003217 -0.064874
    28 2.033354 1.000771 -1.937610 -2.173105 1.310587 2.445079
    29 6.028142 0.000004 0.000000 0.859566 0.327136 -0.671966
    30 11.692552 0.000000 0.000002 0.000000 0.000000 -1.723164
    31 11.481699 0.000000 0.000004 -1.152024 -0.325587 0.076429
    32 3.883657 -0.050329 -0.431043 0.047704 -0.153454 -0.767482
    33 1.719576 0.000003 0.000000 -0.053884 0.078890 -1.553283
    34 1.209180 -0.000001 0.000000 -0.013612 0.036967 -0.732282
    35 3.859830 -0.148938 -1.331282 -0.332627 0.218364 0.154975
    36 1.719426 0.000000 0.000000 -0.042634 0.220745 -0.851607
    37 1.099666 0.000000 0.000000 0.008154 0.000000 0.000000
    38 0.806017 -0.359836 -1.318334 0.415058 0.423434 -0.720789
    39 1.789784 0.000000 -0.000001 0.015106 0.038911 0.767156
    40 1.206998 0.000000 0.000000 0.004784 0.022539 0.418309
    41 -0.044717 2.313936 4.661499 -0.025760 -0.030704 0.048729
    42 2.676088 -1.712442 0.000000 1.570797 0.000000 1.570797
    43 2.676088 -1.712443 0.000000 -1.570796 0.000000 -1.570796
  time 30
    0 -44.863226 -44.462441 37.695797 1.501016 0.056067 -0.088312
    1 3.890452 -0.000004 -0.000003 -1.725826 -0.414258 -1.285150
    2 17.848175 0.000000 0.000000 0.000000 0.000000 1.199785
    3 16.525249 0.000000 0.000000 0.297600 0.281682 -1.002671
    4 6.879453 0.000000 0.000000 -0.007299 -0.002951 -0.584373
    5 -3.890452 0.000004 0.000007 -1.525269 -0.015788 -1.426099
    6 17.848171 0.000000 0.000000 0.000000 0.000000 0.193799
    7 16.525257 0.000000 0.000000 0.139187 0.213419 -1.087497
    8 6.879454 0.000000 0.000000 -0.081333 -0.002951 -0.584373
    9 -0.187501 3.341221 -2.981901 1.568013 0.068303 1.624882
    10 4.018331 0.000000 0.000000 -0.110012 -0.004734 0.085358
    11 3.518561 0.000000 0.000000 0.011316 -0.020961 0.091971
    12 8.942642 0.000000 0.000000 0.023367 0.001031 0.146078
    13 3.307271 0.000000 0.000000 3.141590 0.000000 0.400478
    14 3.593710 -0.000003 0.000000 0.136191 -0.021833 0.467898
    15 2.033346 1.000767 1.937660 1.802276 -1.395245 2.734682
    16 6.028142 0.000002 0.000000 -1.456478 0.125755 -1.048023
    17 11.692556 0.000000 -0.000001 0.000000 0.000000 -1.646161
    18 11.481671 0.000000 -0.000029 -0.675152 0.259605 -0.101455
    19 3.883691 -0.046771 0.431443 0.096615 -0.011011 -0.677044
    20 1.719575 0.000000 0.000000 0.055915 -0.087978 -1.150781
    21 1.209183 -0.000001 0.000000 0.009316 -0.033629 -0.339470
    22 3.859861 -0.137948 1.332466 0.537935 -0.132420 -0.946691
    23 1.719428 0.000001 0.000000 0.023476 -0.208311 -0.755744
    24 1.099667 0.000000 0.000000 0.026046 -0.124621 -0.538681
    25 0.806048 -0.348922 1.321258 -1.269164 -0.727275 -0.266407
    26 1.789783 0.000001 0.000001 -0.001068 -0.012855 -0.131880
    27 1.207000 0.000000 0.000001 -0.000100 -0.003217 -0.064874
    28 2.033354 1.000771 -1.937610 -2.173105 1.310587 2.445079
    29 6.028142 0.000004 0.000000 0.871444 0.306909 -0.666557
    30 11.692552 0.000000 0.000002 0.000000 0.000000 -1.723743
    31 11.481699 0.000000 0.000004 -1.150728 -0.325587 0.074775
    32 3.883657 -0.050329 -0.431043 0.047704 -0.153454 -0.767482
    33 1.719576 0.000003 0.000000 -0.053884 0.078890 -1.553283
    34 1.209180 -0.000001 0.000000 -0.013612 0.036967 -0.732282
    35 3.859830 -0.148938 -1.331282 -0.332627 0.218364 0.154975
    36 1.719426 0.000000 0.000000 -0.042634 0.220745 -0.851607
    37 1.099666 0.000000 0.000000 0.008154 0.000000 0.000000
    38 0.806017 -0.359836 -1.318334 0.415058 0.423434 -0.720789
    39 1.789784 0.000000 -0.000001 0.015106 0.038911 0.767156
    40 1.206998 0.000000 0.000000 0.004784 0.022539 0.418309
    41 -0.044717 2.313936 4.661499 -0.025123 -0.044022 0.030417
    42 2.676088 -1.712442 0.000000 1.570797 0.000000 1.570797
    43 2.676088 -1.712443 0.000000 -1.570796 0.000000 -1.570796
end
