// Created by Crowbar 0.68
version 1
nodes
  0 "ValveBiped.Bip01_Pelvis" -1
  1 "ValveBiped.Bip01_L_Thigh" 0
  2 "ValveBiped.Bip01_L_Calf" 1
  3 "ValveBiped.Bip01_L_Foot" 2
  4 "ValveBiped.Bip01_L_Toe0" 3
  5 "ValveBiped.Bip01_R_Thigh" 0
  6 "ValveBiped.Bip01_R_Calf" 5
  7 "ValveBiped.Bip01_R_Foot" 6
  8 "ValveBiped.Bip01_R_Toe0" 7
  9 "ValveBiped.Bip01_Spine" 0
  10 "ValveBiped.Bip01_Spine1" 9
  11 "ValveBiped.Bip01_Spine2" 10
  12 "ValveBiped.Bip01_Spine4" 11
  13 "ValveBiped.Bip01_Neck1" 12
  14 "ValveBiped.Bip01_Head1" 13
  15 "ValveBiped.Bip01_L_Clavicle" 12
  16 "ValveBiped.Bip01_L_UpperArm" 15
  17 "ValveBiped.Bip01_L_Forearm" 16
  18 "ValveBiped.Bip01_L_Hand" 17
  19 "ValveBiped.Bip01_L_Finger2" 18
  20 "ValveBiped.Bip01_L_Finger21" 19
  21 "ValveBiped.Bip01_L_Finger22" 20
  22 "ValveBiped.Bip01_L_Finger1" 18
  23 "ValveBiped.Bip01_L_Finger11" 22
  24 "ValveBiped.Bip01_L_Finger12" 23
  25 "ValveBiped.Bip01_L_Finger0" 18
  26 "ValveBiped.Bip01_L_Finger01" 25
  27 "ValveBiped.Bip01_L_Finger02" 26
  28 "ValveBiped.Bip01_R_Clavicle" 12
  29 "ValveBiped.Bip01_R_UpperArm" 28
  30 "ValveBiped.Bip01_R_Forearm" 29
  31 "ValveBiped.Bip01_R_Hand" 30
  32 "ValveBiped.Bip01_R_Finger2" 31
  33 "ValveBiped.Bip01_R_Finger21" 32
  34 "ValveBiped.Bip01_R_Finger22" 33
  35 "ValveBiped.Bip01_R_Finger1" 31
  36 "ValveBiped.Bip01_R_Finger11" 35
  37 "ValveBiped.Bip01_R_Finger12" 36
  38 "ValveBiped.Bip01_R_Finger0" 31
  39 "ValveBiped.Bip01_R_Finger01" 38
  40 "ValveBiped.Bip01_R_Finger02" 39
  41 "ValveBiped.Cod" 0
end
skeleton
  time 0
    0 -0.400798 -2.965951 38.072904 1.489323 -0.037374 -0.114953
    1 3.890452 -0.000004 -0.000003 -2.030811 -0.305755 -1.422301
    2 17.848177 0.000000 0.000000 0.000000 0.000000 0.882732
    3 15.638507 0.000000 0.000000 0.111724 -0.073894 -0.910331
    4 7.109929 0.000000 0.000000 -0.007119 -0.003131 -0.631738
    5 -3.890452 0.000004 0.000007 -1.447328 -0.112243 -1.572899
    6 17.848173 0.000000 0.000000 0.000000 0.000000 0.383255
    7 15.638511 0.000000 0.000000 -0.138534 -0.090560 -1.131797
    8 7.109930 0.000000 0.000000 -0.081154 -0.003131 -0.631749
    9 0.113290 3.345128 -2.981901 1.637509 0.068341 1.536396
    10 4.018331 0.000000 0.000000 -0.072150 -0.012752 0.053672
    11 3.518565 0.000000 0.000000 -0.020046 -0.019643 0.064471
    12 8.942642 0.000000 0.000000 0.032918 0.007047 0.160532
    13 3.306641 0.000001 0.000000 3.138800 0.000567 0.400476
    14 3.593712 -0.000001 0.000000 0.079484 -0.021523 0.412001
    15 2.033346 1.000768 1.101697 1.848180 -1.411864 2.688434
    16 6.809416 0.000001 0.000000 -1.028393 -0.413761 -1.003771
    17 12.391796 0.000000 0.000001 0.000000 0.000000 -1.048809
    18 9.337076 0.000000 -0.000031 -0.528383 -0.079059 -0.379064
    19 4.454020 -0.070210 0.572073 0.096293 -0.007832 -0.804082
    20 1.426597 -0.000001 0.000000 0.023861 -0.079623 -1.125947
    21 1.322468 -0.000002 0.000000 0.009312 -0.033625 -0.575065
    22 4.477066 -0.028570 1.582474 0.476656 -0.055423 -1.136099
    23 1.344418 0.000000 0.000000 0.023466 -0.208305 -0.755723
    24 1.224671 0.000000 0.000000 0.026043 -0.124620 -0.538676
    25 2.630323 -0.345015 1.907214 -0.354022 -0.915164 -1.788195
    26 1.059292 0.000000 0.000001 0.000551 0.000004 0.000021
    27 0.781203 0.000000 0.000000 -0.000467 0.006940 -0.135953
    28 2.033353 1.000771 -1.101647 -2.208870 1.320965 2.410271
    29 6.809417 0.000001 0.000000 0.950060 0.321652 -0.784702
    30 12.391794 0.000000 0.000001 0.000000 0.000000 -1.600418
    31 9.337102 0.000000 0.000003 -1.059101 -0.301248 0.028219
    32 4.453986 -0.073766 -0.571672 -0.386562 0.126208 -1.146676
    33 1.426599 0.000002 0.000000 -0.051390 0.078806 -1.521754
    34 1.322465 -0.000001 0.000000 -0.034695 0.051519 -1.200268
    35 4.477036 -0.043465 -1.581290 -0.083016 0.164909 0.067468
    36 1.344414 0.000000 0.000000 0.024521 0.136363 -0.478036
    37 1.224670 0.000001 0.000000 -0.166394 0.224946 -1.318175
    38 2.630291 -0.359835 -1.904289 1.070466 0.381356 -0.978487
    39 1.059293 0.000000 0.000000 0.002193 0.017488 0.317162
    40 0.781204 0.000000 0.000000 0.006472 0.026012 0.488050
    41 -0.044717 2.528787 4.661499 -0.025801 0.005114 -0.054950
  time 1
    0 -0.303139 -0.352436 38.093488 1.478788 -0.050725 -0.105669
    1 3.890452 -0.000004 -0.000003 -2.022508 -0.226647 -1.448464
    2 17.848177 0.000000 0.000000 0.000000 0.000000 0.978265
    3 15.638507 0.000000 0.000000 0.118466 -0.034897 -0.881387
    4 7.109929 0.000000 0.000000 -0.007119 -0.003131 -0.631738
    5 -3.890452 0.000004 0.000007 -1.433980 -0.171974 -1.584251
    6 17.848173 0.000000 0.000000 0.000000 0.000000 0.366439
    7 15.638511 0.000000 0.000000 -0.151319 -0.084598 -1.045083
    8 7.109930 0.000000 0.000000 -0.081154 -0.003131 -0.631749
    9 0.164073 3.341221 -2.981901 1.637509 0.068341 1.521383
    10 4.018331 0.000000 0.000000 -0.072150 -0.012752 0.053672
    11 3.518565 0.000000 0.000000 -0.020046 -0.019643 0.064471
    12 8.942642 0.000000 0.000000 0.032918 0.007047 0.160532
    13 3.306641 0.000001 0.000000 3.138800 0.000567 0.400476
    14 3.593712 -0.000001 0.000000 0.076489 -0.020323 0.412085
    15 2.033346 1.000768 1.101697 1.848180 -1.411864 2.688434
    16 6.809416 0.000001 0.000000 -1.014623 -0.428465 -1.026585
    17 12.391796 0.000000 0.000001 0.000000 0.000000 -1.002447
    18 9.337076 0.000000 -0.000031 -0.539536 -0.067945 -0.392969
    19 4.454020 -0.070210 0.572073 0.096293 -0.007832 -0.804082
    20 1.426597 -0.000001 0.000000 0.023861 -0.079623 -1.125947
    21 1.322468 -0.000002 0.000000 0.009312 -0.033625 -0.575065
    22 4.477066 -0.028570 1.582474 0.476656 -0.055423 -1.136099
    23 1.344418 0.000000 0.000000 0.023466 -0.208305 -0.755723
    24 1.224671 0.000000 0.000000 0.026043 -0.124620 -0.538676
    25 2.630323 -0.345015 1.907214 -0.354022 -0.915164 -1.788195
    26 1.059292 0.000000 0.000001 0.000551 0.000004 0.000021
    27 0.781203 0.000000 0.000000 -0.000467 0.006940 -0.135953
    28 2.033353 1.000771 -1.101647 -2.206476 1.320317 2.412668
    29 6.809417 0.000001 0.000000 0.954035 0.316002 -0.776529
    30 12.391794 0.000000 0.000001 0.000000 0.000000 -1.594888
    31 9.337102 0.000000 0.000003 -1.040923 -0.309395 0.030982
    32 4.453986 -0.073766 -0.571672 -0.386562 0.126208 -1.146676
    33 1.426599 0.000002 0.000000 -0.051390 0.078806 -1.521754
    34 1.322465 -0.000001 0.000000 -0.034695 0.051519 -1.200268
    35 4.477036 -0.043465 -1.581290 -0.083016 0.164909 0.067468
    36 1.344414 0.000000 0.000000 0.024521 0.136363 -0.478036
    37 1.224670 0.000001 0.000000 -0.166394 0.224946 -1.318175
    38 2.630291 -0.359835 -1.904289 1.070466 0.381356 -0.978487
    39 1.059293 0.000000 0.000000 0.002193 0.017488 0.317162
    40 0.781204 0.000000 0.000000 0.006472 0.026012 0.488050
    41 -0.044717 2.528787 4.661499 -0.025801 0.005114 -0.069980
  time 2
    0 -0.256263 0.960934 37.867065 1.472841 -0.046521 -0.104330
    1 3.890452 -0.000004 -0.000003 -1.992445 -0.125397 -1.460348
    2 17.848177 0.000000 0.000000 0.000000 0.000000 1.016888
    3 15.638507 0.000000 0.000000 0.141918 0.006677 -0.836877
    4 7.109929 0.000000 0.000000 -0.007119 -0.003131 -0.631738
    5 -3.890452 0.000004 0.000007 -1.428069 -0.213451 -1.578764
    6 17.848173 0.000000 0.000000 0.000000 0.000000 0.382280
    7 15.638511 0.000000 0.000000 -0.160121 -0.080821 -1.013377
    8 7.109930 0.000000 0.000000 -0.081154 -0.003131 -0.631749
    9 0.152353 3.345128 -2.981901 1.637509 0.068341 1.524988
    10 4.018331 0.000000 0.000000 -0.072150 -0.012752 0.053672
    11 3.518565 0.000000 0.000000 -0.020046 -0.019643 0.064471
    12 8.942642 0.000000 0.000000 0.032918 0.007047 0.160532
    13 3.306641 0.000001 0.000000 3.138800 0.000567 0.400476
    14 3.593712 -0.000001 0.000000 0.073494 -0.019124 0.412127
    15 2.033346 1.000768 1.101697 1.848180 -1.411864 2.688434
    16 6.809416 0.000001 0.000000 -1.003434 -0.441356 -1.044287
    17 12.391796 0.000000 0.000001 0.000000 0.000000 -0.960184
    18 9.337076 0.000000 -0.000031 -0.551580 -0.057292 -0.407681
    19 4.454020 -0.070210 0.572073 0.096293 -0.007832 -0.804082
    20 1.426597 -0.000001 0.000000 0.023861 -0.079623 -1.125947
    21 1.322468 -0.000002 0.000000 0.009312 -0.033625 -0.575065
    22 4.477066 -0.028570 1.582474 0.476656 -0.055423 -1.136099
    23 1.344418 0.000000 0.000000 0.023466 -0.208305 -0.755723
    24 1.224671 0.000000 0.000000 0.026043 -0.124620 -0.538676
    25 2.630323 -0.345015 1.907214 -0.354022 -0.915164 -1.788195
    26 1.059292 0.000000 0.000001 0.000551 0.000004 0.000021
    27 0.781203 0.000000 0.000000 -0.000467 0.006940 -0.135953
    28 2.033353 1.000771 -1.101647 -2.204275 1.319710 2.414968
    29 6.809417 0.000001 0.000000 0.956591 0.312323 -0.772744
    30 12.391794 0.000000 0.000001 0.000000 0.000000 -1.590363
    31 9.337102 0.000000 0.000003 -1.026586 -0.316781 0.037544
    32 4.453986 -0.073766 -0.571672 -0.386562 0.126208 -1.146676
    33 1.426599 0.000002 0.000000 -0.051390 0.078806 -1.521754
    34 1.322465 -0.000001 0.000000 -0.034695 0.051519 -1.200268
    35 4.477036 -0.043465 -1.581290 -0.083016 0.164909 0.067468
    36 1.344414 0.000000 0.000000 0.024521 0.136363 -0.478036
    37 1.224670 0.000001 0.000000 -0.166394 0.224946 -1.318175
    38 2.630291 -0.359835 -1.904289 1.070466 0.381356 -0.978487
    39 1.059293 0.000000 0.000000 0.002193 0.017488 0.317162
    40 0.781204 0.000000 0.000000 0.006472 0.026012 0.488050
    41 -0.044717 2.528787 4.661499 -0.025801 0.005114 -0.066373
  time 3
    0 -0.178135 2.345405 37.486263 1.467659 -0.038067 -0.103181
    1 3.890452 -0.000004 -0.000003 -1.946825 -0.009195 -1.469740
    2 17.848177 0.000000 0.000000 0.000000 0.000000 1.015059
    3 15.638507 0.000000 0.000000 0.174486 0.054820 -0.795320
    4 7.109929 0.000000 0.000000 -0.007119 -0.003131 -0.631738
    5 -3.890452 0.000004 0.000007 -1.420537 -0.261472 -1.570250
    6 17.848173 0.000000 0.000000 0.000000 0.000000 0.404620
    7 15.638511 0.000000 0.000000 -0.169571 -0.076998 -0.982436
    8 7.109930 0.000000 0.000000 -0.081154 -0.003131 -0.631749
    9 0.125009 3.345128 -2.981901 1.637509 0.068341 1.533204
    10 4.018331 0.000000 0.000000 -0.072150 -0.012752 0.053672
    11 3.518565 0.000000 0.000000 -0.020046 -0.019643 0.064471
    12 8.942642 0.000000 0.000000 0.032918 0.007047 0.160532
    13 3.306641 0.000001 0.000000 3.138800 0.000567 0.400476
    14 3.593712 -0.000001 0.000000 0.070456 -0.017903 0.412169
    15 2.033346 1.000768 1.101697 1.848180 -1.411864 2.688434
    16 6.809416 0.000001 0.000000 -0.994157 -0.452237 -1.058770
    17 12.391796 0.000000 0.000001 0.000000 0.000000 -0.924308
    18 9.337076 0.000000 -0.000031 -0.562376 -0.047789 -0.420547
    19 4.454020 -0.070210 0.572073 0.096293 -0.007832 -0.804082
    20 1.426597 -0.000001 0.000000 0.023861 -0.079623 -1.125947
    21 1.322468 -0.000002 0.000000 0.009312 -0.033625 -0.575065
    22 4.477066 -0.028570 1.582474 0.476656 -0.055423 -1.136099
    23 1.344418 0.000000 0.000000 0.023466 -0.208305 -0.755723
    24 1.224671 0.000000 0.000000 0.026043 -0.124620 -0.538676
    25 2.630323 -0.345015 1.907214 -0.354022 -0.915164 -1.788195
    26 1.059292 0.000000 0.000001 0.000551 0.000004 0.000021
    27 0.781203 0.000000 0.000000 -0.000467 0.006940 -0.135953
    28 2.033353 1.000771 -1.101647 -2.202264 1.319103 2.417077
    29 6.809417 0.000001 0.000000 0.958578 0.309389 -0.770336
    30 12.391794 0.000000 0.000001 0.000000 0.000000 -1.587274
    31 9.337102 0.000000 0.000003 -1.014937 -0.323100 0.044452
    32 4.453986 -0.073766 -0.571672 -0.386562 0.126208 -1.146676
    33 1.426599 0.000002 0.000000 -0.051390 0.078806 -1.521754
    34 1.322465 -0.000001 0.000000 -0.034695 0.051519 -1.200268
    35 4.477036 -0.043465 -1.581290 -0.083016 0.164909 0.067468
    36 1.344414 0.000000 0.000000 0.024521 0.136363 -0.478036
    37 1.224670 0.000001 0.000000 -0.166394 0.224946 -1.318175
    38 2.630291 -0.359835 -1.904289 1.070466 0.381356 -0.978487
    39 1.059293 0.000000 0.000000 0.002193 0.017488 0.317162
    40 0.781204 0.000000 0.000000 0.006472 0.026012 0.488050
    41 -0.044717 2.528787 4.661499 -0.025801 0.005114 -0.058157
  time 4
    0 0.107030 5.365215 36.642324 1.462477 -0.025547 -0.094184
    1 3.890452 -0.000004 -0.000003 -1.892902 0.098537 -1.479131
    2 17.848177 0.000000 0.000000 0.000000 0.000000 0.983898
    3 15.638507 0.000000 0.000000 0.189393 0.107124 -0.815442
    4 7.109929 0.000000 0.000000 -0.007119 -0.003131 -0.631738
    5 -3.890452 0.000004 0.000007 -1.396987 -0.357662 -1.563534
    6 17.848173 0.000000 0.000000 0.000000 0.000000 0.420217
    7 15.638511 0.000000 0.000000 -0.187730 -0.070354 -0.897154
    8 7.109930 0.000000 0.000000 -0.081154 -0.003131 -0.631749
    9 0.082039 3.345128 -2.981901 1.637509 0.068341 1.545735
    10 4.018331 0.000000 0.000000 -0.072150 -0.012752 0.053672
    11 3.518565 0.000000 0.000000 -0.020046 -0.019643 0.064471
    12 8.942642 0.000000 0.000000 0.032918 0.007047 0.160532
    13 3.306641 0.000001 0.000000 3.138800 0.000567 0.400476
    14 3.593712 -0.000001 0.000000 0.067418 -0.016704 0.412211
    15 2.033346 1.000768 1.101697 1.848180 -1.411864 2.688434
    16 6.809416 0.000001 0.000000 -0.987368 -0.460422 -1.068899
    17 12.391796 0.000000 0.000001 0.000000 0.000000 -0.897500
    18 9.337076 0.000000 -0.000031 -0.571298 -0.039930 -0.430356
    19 4.454020 -0.070210 0.572073 0.096293 -0.007832 -0.804082
    20 1.426597 -0.000001 0.000000 0.023861 -0.079623 -1.125947
    21 1.322468 -0.000002 0.000000 0.009312 -0.033625 -0.575065
    22 4.477066 -0.028570 1.582474 0.476656 -0.055423 -1.136099
    23 1.344418 0.000000 0.000000 0.023466 -0.208305 -0.755723
    24 1.224671 0.000000 0.000000 0.026043 -0.124620 -0.538676
    25 2.630323 -0.345015 1.907214 -0.354022 -0.915164 -1.788195
    26 1.059292 0.000000 0.000001 0.000551 0.000004 0.000021
    27 0.781203 0.000000 0.000000 -0.000467 0.006940 -0.135953
    28 2.033353 1.000771 -1.101647 -2.200445 1.318617 2.418994
    29 6.809417 0.000001 0.000000 0.960187 0.307242 -0.769131
    30 12.391794 0.000000 0.000001 0.000000 0.000000 -1.586053
    31 9.337102 0.000000 0.000003 -1.006424 -0.328088 0.051791
    32 4.453986 -0.073766 -0.571672 -0.386562 0.126208 -1.146676
    33 1.426599 0.000002 0.000000 -0.051390 0.078806 -1.521754
    34 1.322465 -0.000001 0.000000 -0.034695 0.051519 -1.200268
    35 4.477036 -0.043465 -1.581290 -0.083016 0.164909 0.067468
    36 1.344414 0.000000 0.000000 0.024521 0.136363 -0.478036
    37 1.224670 0.000001 0.000000 -0.166394 0.224946 -1.318175
    38 2.630291 -0.359835 -1.904289 1.070466 0.381356 -0.978487
    39 1.059293 0.000000 0.000000 0.002193 0.017488 0.317162
    40 0.781204 0.000000 0.000000 0.006472 0.026012 0.488050
    41 -0.044717 2.528787 4.661499 -0.025801 0.005114 -0.045611
  time 5
    0 0.317973 7.247398 36.210062 1.465790 -0.024808 -0.083082
    1 3.890452 -0.000004 -0.000003 -1.818651 0.192549 -1.522257
    2 17.848177 0.000000 0.000000 0.000000 0.000000 0.881781
    3 15.638507 0.000000 0.000000 0.136506 0.155788 -0.998804
    4 7.109929 0.000000 0.000000 -0.007119 -0.003131 -0.631738
    5 -3.890452 0.000004 0.000007 -1.371626 -0.414883 -1.581319
    6 17.848173 0.000000 0.000000 0.000000 0.000000 0.408356
    7 15.638511 0.000000 0.000000 -0.131955 -0.109219 -0.962190
    8 7.109930 0.000000 0.000000 -0.081154 -0.003131 -0.631749
    9 0.078132 3.345128 -2.981901 1.637509 0.068341 1.547390
    10 4.018331 0.000000 0.000000 -0.072150 -0.012752 0.053672
    11 3.518565 0.000000 0.000000 -0.020046 -0.019643 0.064471
    12 8.942642 0.000000 0.000000 0.032918 0.007047 0.160532
    13 3.306641 0.000001 0.000000 3.138800 0.000567 0.400476
    14 3.593712 -0.000001 0.000000 0.064423 -0.015505 0.412295
    15 2.033346 1.000768 1.101697 1.848180 -1.411864 2.688434
    16 6.809416 0.000001 0.000000 -0.982969 -0.465421 -1.075904
    17 12.391796 0.000000 0.000001 0.000000 0.000000 -0.884648
    18 9.337076 0.000000 -0.000031 -0.575669 -0.034505 -0.432663
    19 4.454020 -0.070210 0.572073 0.096293 -0.007832 -0.804082
    20 1.426597 -0.000001 0.000000 0.023861 -0.079623 -1.125947
    21 1.322468 -0.000002 0.000000 0.009312 -0.033625 -0.575065
    22 4.477066 -0.028570 1.582474 0.476656 -0.055423 -1.136099
    23 1.344418 0.000000 0.000000 0.023466 -0.208305 -0.755723
    24 1.224671 0.000000 0.000000 0.026043 -0.124620 -0.538676
    25 2.630323 -0.345015 1.907214 -0.354022 -0.915164 -1.788195
    26 1.059292 0.000000 0.000001 0.000551 0.000004 0.000021
    27 0.781203 0.000000 0.000000 -0.000467 0.006940 -0.135953
    28 2.033353 1.000771 -1.101647 -2.198722 1.318131 2.420720
    29 6.809417 0.000001 0.000000 0.962553 0.304483 -0.765690
    30 12.391794 0.000000 0.000001 0.000000 0.000000 -1.588136
    31 9.337102 0.000000 0.000003 -0.999640 -0.331095 0.055850
    32 4.453986 -0.073766 -0.571672 -0.386562 0.126208 -1.146676
    33 1.426599 0.000002 0.000000 -0.051390 0.078806 -1.521754
    34 1.322465 -0.000001 0.000000 -0.034695 0.051519 -1.200268
    35 4.477036 -0.043465 -1.581290 -0.083016 0.164909 0.067468
    36 1.344414 0.000000 0.000000 0.024521 0.136363 -0.478036
    37 1.224670 0.000001 0.000000 -0.166394 0.224946 -1.318175
    38 2.630291 -0.359835 -1.904289 1.070466 0.381356 -0.978487
    39 1.059293 0.000000 0.000000 0.002193 0.017488 0.317162
    40 0.781204 0.000000 0.000000 0.006472 0.026012 0.488050
    41 -0.044717 2.528787 4.661499 -0.025801 0.005114 -0.044008
  time 6
    0 0.513292 9.007693 35.891012 1.471652 -0.028458 -0.071501
    1 3.890452 -0.000004 -0.000003 -1.742300 0.263661 -1.571516
    2 17.848177 0.000000 0.000000 0.000000 0.000000 0.742066
    3 15.638507 0.000000 0.000000 0.058616 0.153471 -1.230248
    4 7.109929 0.000000 0.000000 -0.007119 -0.003131 -0.631738
    5 -3.890452 0.000004 0.000007 -1.343119 -0.473729 -1.606671
    6 17.848173 0.000000 0.000000 0.000000 0.000000 0.387398
    7 15.638511 0.000000 0.000000 -0.053204 -0.147992 -1.054156
    8 7.109930 0.000000 0.000000 -0.081154 -0.003131 -0.631749
    9 0.082039 3.345128 -2.981901 1.637509 0.068341 1.545971
    10 4.018331 0.000000 0.000000 -0.072150 -0.012752 0.053672
    11 3.518565 0.000000 0.000000 -0.020046 -0.019643 0.064471
    12 8.942642 0.000000 0.000000 0.032918 0.007047 0.160532
    13 3.306641 0.000001 0.000000 3.138800 0.000567 0.400476
    14 3.593712 -0.000001 0.000000 0.061512 -0.014327 0.412337
    15 2.033346 1.000768 1.101697 1.848180 -1.411864 2.688434
    16 6.809416 0.000001 0.000000 -0.981630 -0.466892 -1.077797
    17 12.391796 0.000000 0.000001 0.000000 0.000000 -0.886934
    18 9.337076 0.000000 -0.000031 -0.576562 -0.031217 -0.427586
    19 4.454020 -0.070210 0.572073 0.096293 -0.007832 -0.804082
    20 1.426597 -0.000001 0.000000 0.023861 -0.079623 -1.125947
    21 1.322468 -0.000002 0.000000 0.009312 -0.033625 -0.575065
    22 4.477066 -0.028570 1.582474 0.476656 -0.055423 -1.136099
    23 1.344418 0.000000 0.000000 0.023466 -0.208305 -0.755723
    24 1.224671 0.000000 0.000000 0.026043 -0.124620 -0.538676
    25 2.630323 -0.345015 1.907214 -0.354022 -0.915164 -1.788195
    26 1.059292 0.000000 0.000001 0.000551 0.000004 0.000021
    27 0.781203 0.000000 0.000000 -0.000467 0.006940 -0.135953
    28 2.033353 1.000771 -1.101647 -2.197095 1.317646 2.422349
    29 6.809417 0.000001 0.000000 0.965204 0.301680 -0.761561
    30 12.391794 0.000000 0.000001 0.000000 0.000000 -1.593667
    31 9.337102 0.000000 0.000003 -0.995479 -0.331933 0.058526
    32 4.453986 -0.073766 -0.571672 -0.386562 0.126208 -1.146676
    33 1.426599 0.000002 0.000000 -0.051390 0.078806 -1.521754
    34 1.322465 -0.000001 0.000000 -0.034695 0.051519 -1.200268
    35 4.477036 -0.043465 -1.581290 -0.083016 0.164909 0.067468
    36 1.344414 0.000000 0.000000 0.024521 0.136363 -0.478036
    37 1.224670 0.000001 0.000000 -0.166394 0.224946 -1.318175
    38 2.630291 -0.359835 -1.904289 1.070466 0.381356 -0.978487
    39 1.059293 0.000000 0.000000 0.002193 0.017488 0.317162
    40 0.781204 0.000000 0.000000 0.006472 0.026012 0.488050
    41 -0.044717 2.528787 4.661499 -0.025801 0.005114 -0.045371
  time 7
    0 0.696891 10.940663 35.613129 1.479468 -0.036912 -0.059537
    1 3.890452 -0.000004 -0.000003 -1.683223 0.300991 -1.608604
    2 17.848177 0.000000 0.000000 0.000000 0.000000 0.603668
    3 15.638507 0.000000 0.000000 0.002944 0.120218 -1.357726
    4 7.109929 0.000000 0.000000 -0.007119 -0.003131 -0.631738
    5 -3.890452 0.000004 0.000007 -1.312609 -0.527162 -1.637605
    6 17.848173 0.000000 0.000000 0.000000 0.000000 0.371638
    7 15.638511 0.000000 0.000000 0.033979 -0.172886 -1.152711
    8 7.109930 0.000000 0.000000 -0.081154 -0.003131 -0.631749
    9 0.093758 3.345128 -2.981901 1.637509 0.068341 1.542129
    10 4.018331 0.000000 0.000000 -0.072150 -0.012752 0.053672
    11 3.518565 0.000000 0.000000 -0.020046 -0.019643 0.064471
    12 8.942642 0.000000 0.000000 0.032918 0.007047 0.160532
    13 3.306641 0.000001 0.000000 3.138800 0.000567 0.400476
    14 3.593712 -0.000001 0.000000 0.058643 -0.013192 0.412379
    15 2.033346 1.000768 1.101697 1.848180 -1.411864 2.688434
    16 6.809416 0.000001 0.000000 -0.982873 -0.465421 -1.075715
    17 12.391796 0.000000 0.000001 0.000000 0.000000 -0.900417
    18 9.337076 0.000000 -0.000031 -0.574599 -0.030000 -0.417259
    19 4.454020 -0.070210 0.572073 0.096293 -0.007832 -0.804082
    20 1.426597 -0.000001 0.000000 0.023861 -0.079623 -1.125947
    21 1.322468 -0.000002 0.000000 0.009312 -0.033625 -0.575065
    22 4.477066 -0.028570 1.582474 0.476656 -0.055423 -1.136099
    23 1.344418 0.000000 0.000000 0.023466 -0.208305 -0.755723
    24 1.224671 0.000000 0.000000 0.026043 -0.124620 -0.538676
    25 2.630323 -0.345015 1.907214 -0.354022 -0.915164 -1.788195
    26 1.059292 0.000000 0.000001 0.000551 0.000004 0.000021
    27 0.781203 0.000000 0.000000 -0.000467 0.006940 -0.135953
    28 2.033353 1.000771 -1.101647 -2.195659 1.317241 2.423883
    29 6.809417 0.000001 0.000000 0.968043 0.299052 -0.757088
    30 12.391794 0.000000 0.000001 0.000000 0.000000 -1.601424
    31 9.337102 0.000000 0.000003 -0.993623 -0.331248 0.060081
    32 4.453986 -0.073766 -0.571672 -0.386562 0.126208 -1.146676
    33 1.426599 0.000002 0.000000 -0.051390 0.078806 -1.521754
    34 1.322465 -0.000001 0.000000 -0.034695 0.051519 -1.200268
    35 4.477036 -0.043465 -1.581290 -0.083016 0.164909 0.067468
    36 1.344414 0.000000 0.000000 0.024521 0.136363 -0.478036
    37 1.224670 0.000001 0.000000 -0.166394 0.224946 -1.318175
    38 2.630291 -0.359835 -1.904289 1.070466 0.381356 -0.978487
    39 1.059293 0.000000 0.000000 0.002193 0.017488 0.317162
    40 0.781204 0.000000 0.000000 0.006472 0.026012 0.488050
    41 -0.044717 2.528787 4.661499 -0.025801 0.005114 -0.049219
  time 8
    0 0.900023 13.300243 35.417582 1.489238 -0.047491 -0.049009
    1 3.890452 -0.000004 -0.000003 -1.643998 0.293421 -1.640325
    2 17.848177 0.000000 0.000000 0.000000 0.000000 0.494675
    3 15.638507 0.000000 0.000000 -0.020319 0.071270 -1.446928
    4 7.109929 0.000000 0.000000 -0.007119 -0.003131 -0.631738
    5 -3.890452 0.000004 0.000007 -1.282767 -0.566966 -1.667972
    6 17.848173 0.000000 0.000000 0.000000 0.000000 0.372694
    7 15.638511 0.000000 0.000000 0.107727 -0.181760 -1.234077
    8 7.109930 0.000000 0.000000 -0.081154 -0.003131 -0.631749
    9 0.105477 3.345128 -2.981901 1.637509 0.068341 1.538760
    10 4.018331 0.000000 0.000000 -0.072150 -0.012752 0.053672
    11 3.518565 0.000000 0.000000 -0.020046 -0.019643 0.064471
    12 8.942642 0.000000 0.000000 0.032918 0.007047 0.160532
    13 3.306641 0.000001 0.000000 3.138800 0.000567 0.400476
    14 3.593712 -0.000001 0.000000 0.055901 -0.012100 0.412379
    15 2.033346 1.000768 1.101697 1.848180 -1.411864 2.688434
    16 6.809416 0.000001 0.000000 -0.985933 -0.461647 -1.070603
    17 12.391796 0.000000 0.000001 0.000000 0.000000 -0.921154
    18 9.337076 0.000000 -0.000031 -0.571030 -0.030691 -0.404277
    19 4.454020 -0.070210 0.572073 0.096293 -0.007832 -0.804082
    20 1.426597 -0.000001 0.000000 0.023861 -0.079623 -1.125947
    21 1.322468 -0.000002 0.000000 0.009312 -0.033625 -0.575065
    22 4.477066 -0.028570 1.582474 0.476656 -0.055423 -1.136099
    23 1.344418 0.000000 0.000000 0.023466 -0.208305 -0.755723
    24 1.224671 0.000000 0.000000 0.026043 -0.124620 -0.538676
    25 2.630323 -0.345015 1.907214 -0.354022 -0.915164 -1.788195
    26 1.059292 0.000000 0.000001 0.000551 0.000004 0.000021
    27 0.781203 0.000000 0.000000 -0.000467 0.006940 -0.135953
    28 2.033353 1.000771 -1.101647 -2.194510 1.316917 2.425033
    29 6.809417 0.000001 0.000000 0.970409 0.296950 -0.753303
    30 12.391794 0.000000 0.000001 0.000000 0.000000 -1.610330
    31 9.337102 0.000000 0.000003 -0.994135 -0.329611 0.061117
    32 4.453986 -0.073766 -0.571672 -0.386562 0.126208 -1.146676
    33 1.426599 0.000002 0.000000 -0.051390 0.078806 -1.521754
    34 1.322465 -0.000001 0.000000 -0.034695 0.051519 -1.200268
    35 4.477036 -0.043465 -1.581290 -0.083016 0.164909 0.067468
    36 1.344414 0.000000 0.000000 0.024521 0.136363 -0.478036
    37 1.224670 0.000001 0.000000 -0.166394 0.224946 -1.318175
    38 2.630291 -0.359835 -1.904289 1.070466 0.381356 -0.978487
    39 1.059293 0.000000 0.000000 0.002193 0.017488 0.317162
    40 0.781204 0.000000 0.000000 0.006472 0.026012 0.488050
    41 -0.044717 2.528787 4.661499 -0.025801 0.005114 -0.052585
  time 9
    0 1.251596 17.518624 35.489626 1.503426 -0.057377 -0.046234
    1 3.890452 -0.000004 -0.000003 -1.676065 0.128960 -1.652304
    2 17.848177 0.000000 0.000000 0.000000 0.000000 0.574408
    3 15.638507 0.000000 0.000000 0.028074 0.036338 -1.503212
    4 7.109929 0.000000 0.000000 -0.007119 -0.003131 -0.631738
    5 -3.890452 0.000004 0.000007 -1.258455 -0.582908 -1.684148
    6 17.848173 0.000000 0.000000 0.000000 0.000000 0.397471
    7 15.638511 0.000000 0.000000 0.144601 -0.182215 -1.272467
    8 7.109930 0.000000 0.000000 -0.081154 -0.003131 -0.631749
    9 0.089851 3.345128 -2.981901 1.637509 0.068341 1.543489
    10 4.018331 0.000000 0.000000 -0.072150 -0.012752 0.053672
    11 3.518565 0.000000 0.000000 -0.020046 -0.019643 0.064471
    12 8.942642 0.000000 0.000000 0.032918 0.007047 0.160532
    13 3.306641 0.000001 0.000000 3.138800 0.000567 0.400476
    14 3.593712 -0.000001 0.000000 0.053327 -0.011072 0.412421
    15 2.033346 1.000768 1.101697 1.848180 -1.411864 2.688434
    16 6.809416 0.000001 0.000000 -0.990810 -0.456011 -1.062178
    17 12.391796 0.000000 0.000001 0.000000 0.000000 -0.945361
    18 9.337076 0.000000 -0.000031 -0.567461 -0.032894 -0.391642
    19 4.454020 -0.070210 0.572073 0.096293 -0.007832 -0.804082
    20 1.426597 -0.000001 0.000000 0.023861 -0.079623 -1.125947
    21 1.322468 -0.000002 0.000000 0.009312 -0.033625 -0.575065
    22 4.477066 -0.028570 1.582474 0.476656 -0.055423 -1.136099
    23 1.344418 0.000000 0.000000 0.023466 -0.208305 -0.755723
    24 1.224671 0.000000 0.000000 0.026043 -0.124620 -0.538676
    25 2.630323 -0.345015 1.907214 -0.354022 -0.915164 -1.788195
    26 1.059292 0.000000 0.000001 0.000551 0.000004 0.000021
    27 0.781203 0.000000 0.000000 -0.000467 0.006940 -0.135953
    28 2.033353 1.000771 -1.101647 -2.193744 1.316674 2.425896
    29 6.809417 0.000001 0.000000 0.971829 0.296205 -0.752098
    30 12.391794 0.000000 0.000001 0.000000 0.000000 -1.619021
    31 9.337102 0.000000 0.000003 -0.997719 -0.327707 0.063448
    32 4.453986 -0.073766 -0.571672 -0.386562 0.126208 -1.146676
    33 1.426599 0.000002 0.000000 -0.051390 0.078806 -1.521754
    34 1.322465 -0.000001 0.000000 -0.034695 0.051519 -1.200268
    35 4.477036 -0.043465 -1.581290 -0.083016 0.164909 0.067468
    36 1.344414 0.000000 0.000000 0.024521 0.136363 -0.478036
    37 1.224670 0.000001 0.000000 -0.166394 0.224946 -1.318175
    38 2.630291 -0.359835 -1.904289 1.070466 0.381356 -0.978487
    39 1.059293 0.000000 0.000000 0.002193 0.017488 0.317162
    40 0.781204 0.000000 0.000000 0.006472 0.026012 0.488050
    41 -0.044717 2.528787 4.661499 -0.025801 0.005114 -0.047856
  time 10
    0 1.380506 19.421122 35.798384 1.509033 -0.055021 -0.052263
    1 3.890452 -0.000004 -0.000003 -1.683128 0.090305 -1.644542
    2 17.848177 0.000000 0.000000 0.000000 0.000000 0.533005
    3 15.638507 0.000000 0.000000 0.034309 0.031611 -1.474997
    4 7.109929 0.000000 0.000000 -0.007119 -0.003131 -0.631738
    5 -3.890452 0.000004 0.000007 -1.239196 -0.575035 -1.694270
    6 17.848173 0.000000 0.000000 0.000000 0.000000 0.465465
    7 15.638511 0.000000 0.000000 0.129963 -0.181032 -1.264636
    8 7.109930 0.000000 0.000000 -0.081154 -0.003131 -0.631749
    9 0.074226 3.345128 -2.981901 1.637509 0.068341 1.547863
    10 4.018331 0.000000 0.000000 -0.072150 -0.012752 0.053672
    11 3.518565 0.000000 0.000000 -0.020046 -0.019643 0.064471
    12 8.942642 0.000000 0.000000 0.032918 0.007047 0.160532
    13 3.306641 0.000001 0.000000 3.138800 0.000567 0.400476
    14 3.593712 -0.000001 0.000000 0.050880 -0.010087 0.412463
    15 2.033346 1.000768 1.101697 1.848180 -1.411864 2.688434
    16 6.809416 0.000001 0.000000 -0.995783 -0.449345 -1.053564
    17 12.391796 0.000000 0.000001 0.000000 0.000000 -0.969094
    18 9.337076 0.000000 -0.000031 -0.563714 -0.036873 -0.380679
    19 4.454020 -0.070210 0.572073 0.096293 -0.007832 -0.804082
    20 1.426597 -0.000001 0.000000 0.023861 -0.079623 -1.125947
    21 1.322468 -0.000002 0.000000 0.009312 -0.033625 -0.575065
    22 4.477066 -0.028570 1.582474 0.476656 -0.055423 -1.136099
    23 1.344418 0.000000 0.000000 0.023466 -0.208305 -0.755723
    24 1.224671 0.000000 0.000000 0.026043 -0.124620 -0.538676
    25 2.630323 -0.345015 1.907214 -0.354022 -0.915164 -1.788195
    26 1.059292 0.000000 0.000001 0.000551 0.000004 0.000021
    27 0.781203 0.000000 0.000000 -0.000467 0.006940 -0.135953
    28 2.033353 1.000771 -1.101647 -2.193361 1.316553 2.426280
    29 6.809417 0.000001 0.000000 0.972586 0.296161 -0.751840
    30 12.391794 0.000000 0.000001 0.000000 0.000000 -1.626418
    31 9.337102 0.000000 0.000003 -1.002840 -0.326184 0.065175
    32 4.453986 -0.073766 -0.571672 -0.386562 0.126208 -1.146676
    33 1.426599 0.000002 0.000000 -0.051390 0.078806 -1.521754
    34 1.322465 -0.000001 0.000000 -0.034695 0.051519 -1.200268
    35 4.477036 -0.043465 -1.581290 -0.083016 0.164909 0.067468
    36 1.344414 0.000000 0.000000 0.024521 0.136363 -0.478036
    37 1.224670 0.000001 0.000000 -0.166394 0.224946 -1.318175
    38 2.630291 -0.359835 -1.904289 1.070466 0.381356 -0.978487
    39 1.059293 0.000000 0.000000 0.002193 0.017488 0.317162
    40 0.781204 0.000000 0.000000 0.006472 0.026012 0.488050
    41 -0.044717 2.528787 4.661499 -0.025801 0.005114 -0.043487
  time 11
    0 1.462540 21.140787 36.292398 1.513196 -0.050170 -0.060399
    1 3.890452 -0.000004 -0.000003 -1.683700 0.077199 -1.635629
    2 17.848177 0.000000 0.000000 0.000000 0.000000 0.444714
    3 15.638507 0.000000 0.000000 0.031080 0.028586 -1.402710
    4 7.109929 0.000000 0.000000 -0.007119 -0.003131 -0.631738
    5 -3.890452 0.000004 0.000007 -1.224418 -0.548023 -1.700892
    6 17.848173 0.000000 0.000000 0.000000 0.000000 0.566846
    7 15.638511 0.000000 0.000000 0.075671 -0.172886 -1.225386
    8 7.109930 0.000000 0.000000 -0.081154 -0.003131 -0.631749
    9 0.066413 3.345128 -2.981901 1.637509 0.068341 1.550286
    10 4.018331 0.000000 0.000000 -0.072150 -0.012752 0.053672
    11 3.518565 0.000000 0.000000 -0.020046 -0.019643 0.064471
    12 8.942642 0.000000 0.000000 0.032918 0.007047 0.160532
    13 3.306641 0.000001 0.000000 3.138800 0.000567 0.400476
    14 3.593712 -0.000001 0.000000 0.048644 -0.009188 0.412463
    15 2.033346 1.000768 1.101697 1.848180 -1.411864 2.688434
    16 6.809416 0.000001 0.000000 -0.999895 -0.442238 -1.046085
    17 12.391796 0.000000 0.000001 0.000000 0.000000 -0.988885
    18 9.337076 0.000000 -0.000031 -0.560234 -0.042660 -0.373121
    19 4.454020 -0.070210 0.572073 0.096293 -0.007832 -0.804082
    20 1.426597 -0.000001 0.000000 0.023861 -0.079623 -1.125947
    21 1.322468 -0.000002 0.000000 0.009312 -0.033625 -0.575065
    22 4.477066 -0.028570 1.582474 0.476656 -0.055423 -1.136099
    23 1.344418 0.000000 0.000000 0.023466 -0.208305 -0.755723
    24 1.224671 0.000000 0.000000 0.026043 -0.124620 -0.538676
    25 2.630323 -0.345015 1.907214 -0.354022 -0.915164 -1.788195
    26 1.059292 0.000000 0.000001 0.000551 0.000004 0.000021
    27 0.781203 0.000000 0.000000 -0.000467 0.006940 -0.135953
    28 2.033353 1.000771 -1.101647 -2.193457 1.316634 2.426088
    29 6.809417 0.000001 0.000000 0.972492 0.296862 -0.752442
    30 12.391794 0.000000 0.000001 0.000000 0.000000 -1.631302
    31 9.337102 0.000000 0.000003 -1.008920 -0.325803 0.065952
    32 4.453986 -0.073766 -0.571672 -0.386562 0.126208 -1.146647
    33 1.426599 0.000002 0.000000 -0.051390 0.078806 -1.521754
    34 1.322465 -0.000001 0.000000 -0.034695 0.051519 -1.200268
    35 4.477036 -0.043465 -1.581290 -0.083016 0.164909 0.067468
    36 1.344414 0.000000 0.000000 0.024521 0.136363 -0.478036
    37 1.224670 0.000001 0.000000 -0.166394 0.224946 -1.318175
    38 2.630291 -0.359835 -1.904289 1.070466 0.381356 -0.978487
    39 1.059293 0.000000 0.000000 0.002193 0.017488 0.317162
    40 0.781204 0.000000 0.000000 0.006472 0.026012 0.488050
    41 -0.044717 2.528787 4.661499 -0.025801 0.005114 -0.041042
  time 12
    0 1.501603 24.272328 37.475971 1.519482 -0.044996 -0.070735
    1 3.890452 -0.000004 -0.000003 -1.674347 0.076347 -1.638696
    2 17.848177 0.000000 0.000000 0.000000 0.000000 0.219707
    3 15.638507 0.000000 0.000000 0.025890 0.008213 -1.184207
    4 7.109929 0.000000 0.000000 -0.007119 -0.003131 -0.631738
    5 -3.890452 0.000004 0.000007 -1.213740 -0.511270 -1.714798
    6 17.848173 0.000000 0.000000 0.000000 0.000000 0.690811
    7 15.638511 0.000000 0.000000 0.003034 -0.150268 -1.170951
    8 7.109930 0.000000 0.000000 -0.081154 -0.003131 -0.631749
    9 0.089851 3.345128 -2.981901 1.637509 0.068341 1.543489
    10 4.018331 0.000000 0.000000 -0.072150 -0.012752 0.053672
    11 3.518565 0.000000 0.000000 -0.020046 -0.019643 0.064471
    12 8.942642 0.000000 0.000000 0.032918 0.007047 0.160532
    13 3.306641 0.000001 0.000000 3.138800 0.000567 0.400476
    14 3.593712 -0.000001 0.000000 0.046619 -0.008374 0.412504
    15 2.033346 1.000768 1.101697 1.848180 -1.411864 2.688434
    16 6.809416 0.000001 0.000000 -1.002573 -0.434004 -1.040974
    17 12.391796 0.000000 0.000001 0.000000 0.000000 -1.005837
    18 9.337076 0.000000 -0.000031 -0.555952 -0.051472 -0.368044
    19 4.454020 -0.070210 0.572073 0.096293 -0.007832 -0.804082
    20 1.426597 -0.000001 0.000000 0.023861 -0.079623 -1.125947
    21 1.322468 -0.000002 0.000000 0.009312 -0.033625 -0.575065
    22 4.477066 -0.028570 1.582474 0.476656 -0.055423 -1.136099
    23 1.344418 0.000000 0.000000 0.023466 -0.208305 -0.755723
    24 1.224671 0.000000 0.000000 0.026043 -0.124620 -0.538676
    25 2.630323 -0.345015 1.907214 -0.354022 -0.915164 -1.788195
    26 1.059292 0.000000 0.000001 0.000551 0.000004 0.000021
    27 0.781203 0.000000 0.000000 -0.000467 0.006940 -0.135953
    28 2.033353 1.000771 -1.101647 -2.194223 1.316836 2.425417
    29 6.809417 0.000001 0.000000 0.972208 0.297607 -0.752270
    30 12.391794 0.000000 0.000001 0.000000 0.000000 -1.634032
    31 9.337102 0.000000 0.000003 -1.015705 -0.327022 0.064225
    32 4.453986 -0.073766 -0.571672 -0.386562 0.126208 -1.146676
    33 1.426599 0.000002 0.000000 -0.051390 0.078806 -1.521754
    34 1.322465 -0.000001 0.000000 -0.034695 0.051519 -1.200268
    35 4.477036 -0.043465 -1.581290 -0.083016 0.164909 0.067468
    36 1.344414 0.000000 0.000000 0.024521 0.136363 -0.478036
    37 1.224670 0.000001 0.000000 -0.166394 0.224946 -1.318175
    38 2.630291 -0.359835 -1.904289 1.070466 0.381356 -0.978487
    39 1.059293 0.000000 0.000000 0.002193 0.017488 0.317162
    40 0.781204 0.000000 0.000000 0.006472 0.026012 0.488050
    41 -0.044717 2.528787 4.661499 -0.025801 0.005114 -0.047856
  time 13
    0 1.454727 25.900577 37.877357 1.523985 -0.039499 -0.070161
    1 3.890452 -0.000004 -0.000003 -1.668048 0.081741 -1.634479
    2 17.848177 0.000000 0.000000 0.000000 0.000000 0.091622
    3 15.638507 0.000000 0.000000 0.023200 0.003817 -1.066170
    4 7.109929 0.000000 0.000000 -0.007119 -0.003131 -0.631738
    5 -3.890452 0.000004 0.000007 -1.209735 -0.467333 -1.719055
    6 17.848173 0.000000 0.000000 0.000000 0.000000 0.812258
    7 15.638511 0.000000 0.000000 -0.065619 -0.112086 -1.110309
    8 7.109930 0.000000 0.000000 -0.081154 -0.003131 -0.631749
    9 0.093758 3.345128 -2.981901 1.637509 0.068341 1.542779
    10 4.018331 0.000000 0.000000 -0.072150 -0.012752 0.053672
    11 3.518565 0.000000 0.000000 -0.020046 -0.019643 0.064471
    12 8.942642 0.000000 0.000000 0.032918 0.007047 0.160532
    13 3.306641 0.000001 0.000000 3.138800 0.000567 0.400476
    14 3.593712 -0.000001 0.000000 0.044847 -0.007667 0.412504
    15 2.033346 1.000768 1.101697 1.848180 -1.411864 2.688434
    16 6.809416 0.000001 0.000000 -1.005920 -0.423368 -1.033969
    17 12.391796 0.000000 0.000001 0.000000 0.000000 -1.023499
    18 9.337076 0.000000 -0.000031 -0.552116 -0.063112 -0.365390
    19 4.454020 -0.070210 0.572073 0.096293 -0.007832 -0.804082
    20 1.426597 -0.000001 0.000000 0.023861 -0.079623 -1.125947
    21 1.322468 -0.000002 0.000000 0.009312 -0.033625 -0.575065
    22 4.477066 -0.028570 1.582474 0.476656 -0.055423 -1.136099
    23 1.344418 0.000000 0.000000 0.023466 -0.208305 -0.755723
    24 1.224671 0.000000 0.000000 0.026043 -0.124620 -0.538676
    25 2.630323 -0.345015 1.907214 -0.354022 -0.915164 -1.788195
    26 1.059292 0.000000 0.000001 0.000551 0.000004 0.000021
    27 0.781203 0.000000 0.000000 -0.000467 0.006940 -0.135953
    28 2.033353 1.000771 -1.101647 -2.195372 1.317160 2.424171
    29 6.809417 0.000001 0.000000 0.970693 0.299709 -0.754593
    30 12.391794 0.000000 0.000001 0.000000 0.000000 -1.635684
    31 9.337102 0.000000 0.000003 -1.025754 -0.329382 0.063793
    32 4.453986 -0.073766 -0.571672 -0.386562 0.126208 -1.146676
    33 1.426599 0.000002 0.000000 -0.051390 0.078806 -1.521754
    34 1.322465 -0.000001 0.000000 -0.034695 0.051519 -1.200268
    35 4.477036 -0.043465 -1.581290 -0.083016 0.164909 0.067468
    36 1.344414 0.000000 0.000000 0.024521 0.136363 -0.478036
    37 1.224670 0.000001 0.000000 -0.166394 0.224946 -1.318175
    38 2.630291 -0.359835 -1.904289 1.070466 0.381356 -0.978487
    39 1.059293 0.000000 0.000000 0.002193 0.017488 0.317162
    40 0.781204 0.000000 0.000000 0.006472 0.026012 0.488050
    41 -0.044717 2.528787 4.661499 -0.025801 0.005114 -0.048577
  time 14
    0 1.372693 27.264733 38.042028 1.529167 -0.033586 -0.065567
    1 3.890452 -0.000004 -0.000003 -1.662226 0.036651 -1.623458
    2 17.848177 0.000000 0.000000 0.000000 0.000000 0.089574
    3 15.638507 0.000000 0.000000 0.021902 0.004195 -1.017541
    4 7.109929 0.000000 0.000000 -0.006880 -0.003107 -0.632900
    5 -3.890452 0.000004 0.000007 -1.211737 -0.425905 -1.721609
    6 17.848173 0.000000 0.000000 0.000000 0.000000 0.921113
    7 15.638511 0.000000 0.000000 -0.110276 -0.071583 -1.055970
    8 7.109930 0.000000 0.000000 -0.081154 -0.003131 -0.631749
    9 0.085945 3.345128 -2.981901 1.637509 0.068341 1.544257
    10 4.018331 0.000000 0.000000 -0.072150 -0.012752 0.053672
    11 3.518565 0.000000 0.000000 -0.020046 -0.019643 0.064471
    12 8.942642 0.000000 0.000000 0.032918 0.007047 0.160532
    13 3.306641 0.000001 0.000000 3.138800 0.000567 0.400476
    14 3.593712 -0.000001 0.000000 0.043328 -0.007068 0.412504
    15 2.033346 1.000768 1.101697 1.848180 -1.411864 2.688434
    16 6.809416 0.000001 0.000000 -1.009458 -0.411261 -1.026206
    17 12.391796 0.000000 0.000001 0.000000 0.000000 -1.041555
    18 9.337076 0.000000 -0.000031 -0.548190 -0.076757 -0.364409
    19 4.454020 -0.070210 0.572073 0.096293 -0.007832 -0.804082
    20 1.426597 -0.000001 0.000000 0.023861 -0.079623 -1.125947
    21 1.322468 -0.000002 0.000000 0.009312 -0.033625 -0.575065
    22 4.477066 -0.028570 1.582474 0.476656 -0.055423 -1.136099
    23 1.344418 0.000000 0.000000 0.023466 -0.208305 -0.755723
    24 1.224671 0.000000 0.000000 0.026043 -0.124620 -0.538676
    25 2.630323 -0.345015 1.907214 -0.354022 -0.915164 -1.788195
    26 1.059292 0.000000 0.000001 0.000551 0.000004 0.000021
    27 0.781203 0.000000 0.000000 -0.000467 0.006940 -0.135953
    28 2.033353 1.000771 -1.101647 -2.196903 1.317605 2.422541
    29 6.809417 0.000001 0.000000 0.968516 0.302731 -0.758378
    30 12.391794 0.000000 0.000001 0.000000 0.000000 -1.636402
    31 9.337102 0.000000 0.000003 -1.037787 -0.332352 0.063534
    32 4.453986 -0.073766 -0.571672 -0.386562 0.126208 -1.146676
    33 1.426599 0.000002 0.000000 -0.051390 0.078806 -1.521754
    34 1.322465 -0.000001 0.000000 -0.034695 0.051519 -1.200268
    35 4.477036 -0.043465 -1.581290 -0.083016 0.164909 0.067468
    36 1.344414 0.000000 0.000000 0.024521 0.136363 -0.478036
    37 1.224670 0.000001 0.000000 -0.166394 0.224946 -1.318175
    38 2.630291 -0.359835 -1.904289 1.070466 0.381356 -0.978487
    39 1.059293 0.000000 0.000000 0.002193 0.017488 0.317162
    40 0.781204 0.000000 0.000000 0.006472 0.026012 0.488050
    41 -0.044717 2.528787 4.661499 -0.025801 0.005114 -0.047054
  time 15
    0 1.271128 28.649204 38.021444 1.535964 -0.025686 -0.057240
    1 3.890452 -0.000004 -0.000003 -1.657264 -0.019983 -1.609562
    2 17.848177 0.000000 0.000000 0.000000 0.000000 0.106618
    3 15.638507 0.000000 0.000000 0.023041 0.008402 -0.990347
    4 7.109929 0.000000 0.000000 -0.007119 -0.003131 -0.631738
    5 -3.890452 0.000004 0.000007 -1.237098 -0.385412 -1.722555
    6 17.848173 0.000000 0.000000 0.000000 0.000000 1.014290
    7 15.638511 0.000000 0.000000 -0.116668 -0.050011 -0.993800
    8 7.109930 0.000000 0.000000 -0.081154 -0.003131 -0.631749
    9 0.070320 3.345128 -2.981901 1.637509 0.068341 1.549340
    10 4.018331 0.000000 0.000000 -0.072150 -0.012752 0.053672
    11 3.518565 0.000000 0.000000 -0.020046 -0.019643 0.064471
    12 8.942642 0.000000 0.000000 0.032918 0.007047 0.160532
    13 3.306641 0.000001 0.000000 3.138800 0.000567 0.400476
    14 3.593712 -0.000001 0.000000 0.042105 -0.006575 0.412504
    15 2.033346 1.000768 1.101697 1.848180 -1.411864 2.688434
    16 6.809416 0.000001 0.000000 -1.013475 -0.398420 -1.017308
    17 12.391796 0.000000 0.000001 0.000000 0.000000 -1.059690
    18 9.337076 0.000000 -0.000031 -0.544086 -0.091356 -0.364813
    19 4.454020 -0.070210 0.572073 0.096293 -0.007832 -0.804082
    20 1.426597 -0.000001 0.000000 0.023861 -0.079623 -1.125947
    21 1.322468 -0.000002 0.000000 0.009312 -0.033625 -0.575065
    22 4.477066 -0.028570 1.582474 0.476656 -0.055423 -1.136099
    23 1.344418 0.000000 0.000000 0.023466 -0.208305 -0.755723
    24 1.224671 0.000000 0.000000 0.026043 -0.124620 -0.538676
    25 2.630323 -0.345015 1.907214 -0.354022 -0.915164 -1.788195
    26 1.059292 0.000000 0.000001 0.000551 0.000004 0.000021
    27 0.781203 0.000000 0.000000 -0.000467 0.006940 -0.135953
    28 2.033353 1.000771 -1.101647 -2.198818 1.318131 2.420624
    29 6.809417 0.000001 0.000000 0.965488 0.306498 -0.763626
    30 12.391794 0.000000 0.000001 0.000000 0.000000 -1.636474
    31 9.337102 0.000000 0.000003 -1.051484 -0.335245 0.063707
    32 4.453986 -0.073766 -0.571672 -0.386562 0.126208 -1.146676
    33 1.426599 0.000002 0.000000 -0.051390 0.078806 -1.521754
    34 1.322465 -0.000001 0.000000 -0.034695 0.051519 -1.200268
    35 4.477036 -0.043465 -1.581290 -0.083016 0.164909 0.067468
    36 1.344414 0.000000 0.000000 0.024521 0.136363 -0.478036
    37 1.224670 0.000001 0.000000 -0.166394 0.224946 -1.318175
    38 2.630291 -0.359835 -1.904289 1.070466 0.381356 -0.978487
    39 1.059293 0.000000 0.000000 0.002193 0.017488 0.317162
    40 0.781204 0.000000 0.000000 0.006472 0.026012 0.488050
    41 -0.044717 2.528787 4.661499 -0.025801 0.005114 -0.042004
  time 16
    0 1.134405 30.318083 37.836189 1.545564 -0.019542 -0.045851
    1 3.890452 -0.000004 -0.000003 -1.652969 -0.140916 -1.592695
    2 17.848177 0.000000 0.000000 0.000000 0.000000 0.235800
    3 15.638507 0.000000 0.000000 0.025637 0.015020 -1.007516
    4 7.109929 0.000000 0.000000 -0.007119 -0.003131 -0.631738
    5 -3.890452 0.000004 0.000007 -1.286390 -0.327403 -1.723785
    6 17.848173 0.000000 0.000000 0.000000 0.000000 1.096662
    7 15.638511 0.000000 0.000000 -0.089337 -0.063254 -0.902980
    8 7.109930 0.000000 0.000000 -0.081154 -0.003131 -0.631749
    9 0.058601 3.345128 -2.981901 1.637509 0.068341 1.553478
    10 4.018331 0.000000 0.000000 -0.072150 -0.012752 0.053672
    11 3.518565 0.000000 0.000000 -0.020046 -0.019643 0.064471
    12 8.942642 0.000000 0.000000 0.032918 0.007047 0.160532
    13 3.306641 0.000001 0.000000 3.138800 0.000567 0.400476
    14 3.593712 -0.000001 0.000000 0.041177 -0.006211 0.412546
    15 2.033346 1.000768 1.101697 1.848180 -1.411864 2.688434
    16 6.809416 0.000001 0.000000 -1.017587 -0.385725 -1.008315
    17 12.391796 0.000000 0.000001 0.000000 0.000000 -1.077983
    18 9.337076 0.000000 -0.000031 -0.539357 -0.106054 -0.365505
    19 4.454020 -0.070210 0.572073 0.096293 -0.007832 -0.804082
    20 1.426597 -0.000001 0.000000 0.023861 -0.079623 -1.125947
    21 1.322468 -0.000002 0.000000 0.009312 -0.033625 -0.575065
    22 4.477066 -0.028570 1.582474 0.476656 -0.055423 -1.136099
    23 1.344418 0.000000 0.000000 0.023466 -0.208305 -0.755723
    24 1.224671 0.000000 0.000000 0.026043 -0.124620 -0.538676
    25 2.630323 -0.345015 1.907214 -0.354022 -0.915164 -1.788195
    26 1.059292 0.000000 0.000001 0.000551 0.000004 0.000021
    27 0.781203 0.000000 0.000000 -0.000467 0.006940 -0.135953
    28 2.033353 1.000771 -1.101647 -2.200828 1.318738 2.418515
    29 6.809417 0.000001 0.000000 0.962364 0.310527 -0.769045
    30 12.391794 0.000000 0.000001 0.000000 0.000000 -1.636115
    31 9.337102 0.000000 0.000003 -1.065501 -0.337491 0.063103
    32 4.453986 -0.073766 -0.571672 -0.386562 0.126208 -1.146676
    33 1.426599 0.000002 0.000000 -0.051390 0.078806 -1.521754
    34 1.322465 -0.000001 0.000000 -0.034695 0.051519 -1.200268
    35 4.477036 -0.043465 -1.581290 -0.083016 0.164909 0.067468
    36 1.344414 0.000000 0.000000 0.024521 0.136363 -0.478036
    37 1.224670 0.000001 0.000000 -0.166394 0.224946 -1.318175
    38 2.630291 -0.359835 -1.904289 1.070466 0.381356 -0.978487
    39 1.059293 0.000000 0.000000 0.002193 0.017488 0.317162
    40 0.781204 0.000000 0.000000 0.006472 0.026012 0.488050
    41 -0.044717 2.528787 4.661499 -0.025801 0.005114 -0.037916
  time 17
    0 0.884397 33.561355 37.270132 1.565019 -0.025409 -0.028049
    1 3.890452 -0.000004 -0.000003 -1.646384 -0.293548 -1.589437
    2 17.848177 0.000000 0.000000 0.000000 0.000000 0.306242
    3 15.638507 0.000000 0.000000 0.030954 0.022843 -0.944415
    4 7.109929 0.000000 0.000000 -0.007119 -0.003131 -0.631738
    5 -3.890452 0.000004 0.000007 -1.370387 -0.206465 -1.732961
    6 17.848173 0.000000 0.000000 0.000000 0.000000 1.149628
    7 15.638511 0.000000 0.000000 -0.010030 -0.177710 -0.745788
    8 7.109930 0.000000 0.000000 -0.081154 -0.003131 -0.631749
    9 0.082039 3.345128 -2.981901 1.637509 0.068341 1.546030
    10 4.018331 0.000000 0.000000 -0.072150 -0.012752 0.053672
    11 3.518565 0.000000 0.000000 -0.020046 -0.019643 0.064471
    12 8.942642 0.000000 0.000000 0.032918 0.007047 0.160532
    13 3.306641 0.000001 0.000000 3.138800 0.000567 0.400476
    14 3.593712 -0.000001 0.000000 0.040628 -0.005976 0.412546
    15 2.033346 1.000768 1.101697 1.848180 -1.411864 2.688434
    16 6.809416 0.000001 0.000000 -1.021125 -0.374256 -1.001310
    17 12.391796 0.000000 0.000001 0.000000 0.000000 -1.096433
    18 9.337076 0.000000 -0.000031 -0.532220 -0.119963 -0.364755
    19 4.454020 -0.070210 0.572073 0.096293 -0.007832 -0.804082
    20 1.426597 -0.000001 0.000000 0.023861 -0.079623 -1.125947
    21 1.322468 -0.000002 0.000000 0.009312 -0.033625 -0.575065
    22 4.477066 -0.028570 1.582474 0.476656 -0.055423 -1.136099
    23 1.344418 0.000000 0.000000 0.023466 -0.208305 -0.755723
    24 1.224671 0.000000 0.000000 0.026043 -0.124620 -0.538676
    25 2.630323 -0.345015 1.907214 -0.354022 -0.915164 -1.788195
    26 1.059292 0.000000 0.000001 0.000551 0.000004 0.000021
    27 0.781203 0.000000 0.000000 -0.000467 0.006940 -0.135953
    28 2.033353 1.000771 -1.101647 -2.203030 1.319346 2.416310
    29 6.809417 0.000001 0.000000 0.959903 0.313593 -0.772056
    30 12.391794 0.000000 0.000001 0.000000 0.000000 -1.635756
    31 9.337102 0.000000 0.000003 -1.077726 -0.338519 0.059131
    32 4.453986 -0.073766 -0.571672 -0.386562 0.126208 -1.146676
    33 1.426599 0.000002 0.000000 -0.051390 0.078806 -1.521754
    34 1.322465 -0.000001 0.000000 -0.034695 0.051519 -1.200268
    35 4.477036 -0.043465 -1.581290 -0.083016 0.164909 0.067468
    36 1.344414 0.000000 0.000000 0.024521 0.136363 -0.478036
    37 1.224670 0.000001 0.000000 -0.166394 0.224946 -1.318175
    38 2.630291 -0.359835 -1.904289 1.070466 0.381356 -0.978487
    39 1.059293 0.000000 0.000000 0.002193 0.017488 0.317162
    40 0.781204 0.000000 0.000000 0.006472 0.026012 0.488050
    41 -0.044717 2.528787 4.661499 -0.025801 0.005114 -0.045331
  time 18
    0 0.712517 35.291177 36.930498 1.575214 -0.033493 -0.026422
    1 3.890452 -0.000004 -0.000003 -1.643807 -0.337219 -1.595187
    2 17.848177 0.000000 0.000000 0.000000 0.000000 0.252039
    3 15.638507 0.000000 0.000000 0.030985 0.025514 -0.843803
    4 7.109929 0.000000 0.000000 -0.007119 -0.003131 -0.631738
    5 -3.890452 0.000004 0.000007 -1.415198 -0.129857 -1.733245
    6 17.848173 0.000000 0.000000 0.000000 0.000000 1.123064
    7 15.638511 0.000000 0.000000 -0.024761 -0.241103 -0.760017
    8 7.109930 0.000000 0.000000 -0.081154 -0.003131 -0.631749
    9 0.109383 3.345128 -2.981901 1.637509 0.068341 1.537814
    10 4.018331 0.000000 0.000000 -0.072150 -0.012752 0.053672
    11 3.518565 0.000000 0.000000 -0.020046 -0.019643 0.064471
    12 8.942642 0.000000 0.000000 0.032918 0.007047 0.160532
    13 3.306641 0.000001 0.000000 3.138800 0.000567 0.400476
    14 3.593712 -0.000001 0.000000 0.040417 -0.005911 0.412546
    15 2.033346 1.000768 1.101697 1.848180 -1.411864 2.688434
    16 6.809416 0.000001 0.000000 -1.025238 -0.364208 -0.994021
    17 12.391796 0.000000 0.000001 0.000000 0.000000 -1.115278
    18 9.337076 0.000000 -0.000031 -0.524368 -0.131866 -0.362967
    19 4.454020 -0.070210 0.572073 0.096293 -0.007832 -0.804082
    20 1.426597 -0.000001 0.000000 0.023861 -0.079623 -1.125947
    21 1.322468 -0.000002 0.000000 0.009312 -0.033625 -0.575065
    22 4.477066 -0.028570 1.582474 0.476656 -0.055423 -1.136099
    23 1.344418 0.000000 0.000000 0.023466 -0.208305 -0.755723
    24 1.224671 0.000000 0.000000 0.026043 -0.124620 -0.538676
    25 2.630323 -0.345015 1.907214 -0.354022 -0.915164 -1.788195
    26 1.059292 0.000000 0.000001 0.000551 0.000004 0.000021
    27 0.781203 0.000000 0.000000 -0.000467 0.006940 -0.135953
    28 2.033353 1.000771 -1.101647 -2.205136 1.319912 2.414106
    29 6.809417 0.000001 0.000000 0.957537 0.316615 -0.774895
    30 12.391794 0.000000 0.000001 0.000000 0.000000 -1.635468
    31 9.337102 0.000000 0.000003 -1.088927 -0.337720 0.054036
    32 4.453986 -0.073766 -0.571672 -0.386562 0.126208 -1.146676
    33 1.426599 0.000002 0.000000 -0.051390 0.078806 -1.521754
    34 1.322465 -0.000001 0.000000 -0.034695 0.051519 -1.200268
    35 4.477036 -0.043465 -1.581290 -0.083016 0.164909 0.067468
    36 1.344414 0.000000 0.000000 0.024521 0.136363 -0.478036
    37 1.224670 0.000001 0.000000 -0.166394 0.224946 -1.318175
    38 2.630291 -0.359835 -1.904289 1.070466 0.381356 -0.978487
    39 1.059293 0.000000 0.000000 0.002193 0.017488 0.317162
    40 0.781204 0.000000 0.000000 0.006472 0.026012 0.488050
    41 -0.044717 2.528787 4.661499 -0.025801 0.005114 -0.053547
  time 19
    0 0.575794 37.153046 36.642324 1.584474 -0.036034 -0.030824
    1 3.890452 -0.000004 -0.000003 -1.652587 -0.373603 -1.590587
    2 17.848177 0.000000 0.000000 0.000000 0.000000 0.203248
    3 15.638507 0.000000 0.000000 0.029688 0.026104 -0.780483
    4 7.109929 0.000000 0.000000 -0.007119 -0.003131 -0.631738
    5 -3.890452 0.000004 0.000007 -1.443800 -0.080065 -1.723123
    6 17.848173 0.000000 0.000000 0.000000 0.000000 1.077897
    7 15.638511 0.000000 0.000000 -0.035415 -0.268864 -0.841001
    8 7.109930 0.000000 0.000000 -0.081154 -0.003131 -0.631749
    9 0.121102 3.345128 -2.981901 1.637509 0.068341 1.534504
    10 4.018331 0.000000 0.000000 -0.072150 -0.012752 0.053672
    11 3.518565 0.000000 0.000000 -0.020046 -0.019643 0.064471
    12 8.942642 0.000000 0.000000 0.032918 0.007047 0.160532
    13 3.306641 0.000001 0.000000 3.138800 0.000567 0.400476
    14 3.593712 -0.000001 0.000000 0.042400 -0.006704 0.412504
    15 2.033346 1.000768 1.101697 1.848180 -1.411864 2.688434
    16 6.809416 0.000001 0.000000 -1.030497 -0.356170 -0.985217
    17 12.391796 0.000000 0.000001 0.000000 0.000000 -1.134596
    18 9.337076 0.000000 -0.000031 -0.516517 -0.140579 -0.360140
    19 4.454020 -0.070210 0.572073 0.096293 -0.007832 -0.804082
    20 1.426597 -0.000001 0.000000 0.023861 -0.079623 -1.125947
    21 1.322468 -0.000002 0.000000 0.009312 -0.033625 -0.575065
    22 4.477066 -0.028570 1.582474 0.476656 -0.055423 -1.136099
    23 1.344418 0.000000 0.000000 0.023466 -0.208305 -0.755723
    24 1.224671 0.000000 0.000000 0.026043 -0.124620 -0.538676
    25 2.630323 -0.345015 1.907214 -0.354022 -0.915164 -1.788195
    26 1.059292 0.000000 0.000001 0.000551 0.000004 0.000021
    27 0.781203 0.000000 0.000000 -0.000467 0.006940 -0.135953
    28 2.033353 1.000771 -1.101647 -2.207242 1.320519 2.411901
    29 6.809417 0.000001 0.000000 0.954887 0.319857 -0.778680
    30 12.391794 0.000000 0.000001 0.000000 0.000000 -1.635396
    31 9.337102 0.000000 0.000003 -1.099296 -0.334408 0.049028
    32 4.453986 -0.073766 -0.571672 -0.386562 0.126208 -1.146676
    33 1.426599 0.000002 0.000000 -0.051390 0.078806 -1.521754
    34 1.322465 -0.000001 0.000000 -0.034695 0.051519 -1.200268
    35 4.477036 -0.043465 -1.581290 -0.083016 0.164909 0.067468
    36 1.344414 0.000000 0.000000 0.024521 0.136363 -0.478036
    37 1.224670 0.000001 0.000000 -0.166394 0.224946 -1.318175
    38 2.630291 -0.359835 -1.904289 1.070466 0.381356 -0.978487
    39 1.059293 0.000000 0.000000 0.002193 0.017488 0.317162
    40 0.781204 0.000000 0.000000 0.006472 0.026012 0.488050
    41 -0.044717 2.528787 4.661499 -0.025801 0.005114 -0.056874
  time 20
    0 0.474228 39.736088 36.385025 1.598067 -0.008500 -0.048339
    1 3.890452 -0.000004 -0.000003 -1.686372 -0.472109 -1.538740
    2 17.848177 0.000000 0.000000 0.000000 0.000000 0.258695
    3 15.638507 0.000000 0.000000 0.026396 0.026293 -0.827253
    4 7.109929 0.000000 0.000000 -0.007119 -0.003131 -0.631738
    5 -3.890452 0.000004 0.000007 -1.458960 -0.061664 -1.678188
    6 17.848173 0.000000 0.000000 0.000000 0.000000 1.026069
    7 15.638511 0.000000 0.000000 -0.015403 -0.258260 -0.978425
    8 7.109930 0.000000 0.000000 -0.081154 -0.003131 -0.631749
    9 0.046881 3.345128 -2.981901 1.637509 0.068341 1.556669
    10 4.018331 0.000000 0.000000 -0.072150 -0.012752 0.053672
    11 3.518565 0.000000 0.000000 -0.020046 -0.019643 0.064471
    12 8.942642 0.000000 0.000000 0.032918 0.007047 0.160532
    13 3.306641 0.000001 0.000000 3.138800 0.000567 0.400476
    14 3.593712 -0.000001 0.000000 0.047758 -0.008845 0.412463
    15 2.033346 1.000768 1.101697 1.848180 -1.411864 2.688434
    16 6.809416 0.000001 0.000000 -1.039200 -0.350043 -0.970166
    17 12.391796 0.000000 0.000001 0.000000 0.000000 -1.155096
    18 9.337076 0.000000 -0.000031 -0.511342 -0.144886 -0.357601
    19 4.454020 -0.070210 0.572073 0.096293 -0.007832 -0.804082
    20 1.426597 -0.000001 0.000000 0.023861 -0.079623 -1.125947
    21 1.322468 -0.000002 0.000000 0.009312 -0.033625 -0.575065
    22 4.477066 -0.028570 1.582474 0.476656 -0.055423 -1.136099
    23 1.344418 0.000000 0.000000 0.023466 -0.208305 -0.755723
    24 1.224671 0.000000 0.000000 0.026043 -0.124620 -0.538676
    25 2.630323 -0.345015 1.907214 -0.354022 -0.915164 -1.788195
    26 1.059292 0.000000 0.000001 0.000551 0.000004 0.000021
    27 0.781203 0.000000 0.000000 -0.000467 0.006940 -0.135953
    28 2.033353 1.000771 -1.101647 -2.209348 1.321086 2.409792
    29 6.809417 0.000001 0.000000 0.950155 0.325550 -0.788401
    30 12.391794 0.000000 0.000001 0.000000 0.000000 -1.634822
    31 9.337102 0.000000 0.000003 -1.111329 -0.327212 0.047820
    32 4.453986 -0.073766 -0.571672 -0.386562 0.126208 -1.146676
    33 1.426599 0.000002 0.000000 -0.051390 0.078806 -1.521754
    34 1.322465 -0.000001 0.000000 -0.034695 0.051519 -1.200268
    35 4.477036 -0.043465 -1.581290 -0.083016 0.164909 0.067468
    36 1.344414 0.000000 0.000000 0.024521 0.136363 -0.478036
    37 1.224670 0.000001 0.000000 -0.166394 0.224946 -1.318175
    38 2.630291 -0.359835 -1.904289 1.070466 0.381356 -0.978487
    39 1.059293 0.000000 0.000000 0.002193 0.017488 0.317162
    40 0.781204 0.000000 0.000000 0.006472 0.026012 0.488050
    41 -0.044717 2.528787 4.661499 -0.025801 0.005114 -0.034710
  time 21
    0 0.376569 42.430862 36.138018 1.584899 0.001340 -0.057719
    1 3.890452 -0.000004 -0.000003 -1.732756 -0.557794 -1.495327
    2 17.848177 0.000000 0.000000 0.000000 0.000000 0.291466
    3 15.638507 0.000000 0.000000 0.022883 0.023906 -0.886235
    4 7.109929 0.000000 0.000000 -0.007119 -0.003131 -0.631738
    5 -3.890452 0.000004 0.000007 -1.466682 -0.060926 -1.649146
    6 17.848173 0.000000 0.000000 0.000000 0.000000 0.978140
    7 15.638511 0.000000 0.000000 0.003682 -0.227860 -1.145453
    8 7.109930 0.000000 0.000000 -0.081154 -0.003131 -0.631749
    9 0.027350 3.345128 -2.981901 1.637509 0.068341 1.562403
    10 4.018331 0.000000 0.000000 -0.072150 -0.012752 0.053672
    11 3.518565 0.000000 0.000000 -0.020046 -0.019643 0.064471
    12 8.942642 0.000000 0.000000 0.032918 0.007047 0.160532
    13 3.306641 0.000001 0.000000 3.138800 0.000567 0.400476
    14 3.593712 -0.000001 0.000000 0.055521 -0.011950 0.412379
    15 2.033346 1.000768 1.101697 1.848180 -1.411864 2.688434
    16 6.809416 0.000001 0.000000 -1.048572 -0.346808 -0.956629
    17 12.391796 0.000000 0.000001 0.000000 0.000000 -1.177726
    18 9.337076 0.000000 -0.000031 -0.502509 -0.145840 -0.350851
    19 4.454020 -0.070210 0.572073 0.096293 -0.007832 -0.804082
    20 1.426597 -0.000001 0.000000 0.023861 -0.079623 -1.125947
    21 1.322468 -0.000002 0.000000 0.009312 -0.033625 -0.575065
    22 4.477066 -0.028570 1.582474 0.476656 -0.055423 -1.136099
    23 1.344418 0.000000 0.000000 0.023466 -0.208305 -0.755723
    24 1.224671 0.000000 0.000000 0.026043 -0.124620 -0.538676
    25 2.630323 -0.345015 1.907214 -0.354022 -0.915164 -1.788195
    26 1.059292 0.000000 0.000001 0.000551 0.000004 0.000021
    27 0.781203 0.000000 0.000000 -0.000467 0.006940 -0.135953
    28 2.033353 1.000771 -1.101647 -2.211550 1.321693 2.407491
    29 6.809417 0.000001 0.000000 0.946558 0.329930 -0.794680
    30 12.391794 0.000000 0.000001 0.000000 0.000000 -1.634175
    31 9.337102 0.000000 0.000003 -1.120098 -0.316210 0.040739
    32 4.453986 -0.073766 -0.571672 -0.386562 0.126208 -1.146676
    33 1.426599 0.000002 0.000000 -0.051390 0.078806 -1.521754
    34 1.322465 -0.000001 0.000000 -0.034695 0.051519 -1.200268
    35 4.477036 -0.043465 -1.581290 -0.083016 0.164909 0.067468
    36 1.344414 0.000000 0.000000 0.024521 0.136363 -0.478036
    37 1.224670 0.000001 0.000000 -0.166394 0.224946 -1.318175
    38 2.630291 -0.359835 -1.904289 1.070466 0.381356 -0.978487
    39 1.059293 0.000000 0.000000 0.002193 0.017488 0.317162
    40 0.781204 0.000000 0.000000 0.006472 0.026012 0.488050
    41 -0.044717 2.528787 4.661499 -0.025801 0.005114 -0.028978
  time 22
    0 0.286723 45.217052 35.901304 1.568927 0.009239 -0.066428
    1 3.890452 -0.000004 -0.000003 -1.782193 -0.613198 -1.453831
    2 17.848177 0.000000 0.000000 0.000000 0.000000 0.324895
    3 15.638507 0.000000 0.000000 0.020288 0.021756 -0.947477
    4 7.109929 0.000000 0.000000 -0.007119 -0.003131 -0.631738
    5 -3.890452 0.000004 0.000007 -1.473356 -0.061467 -1.621523
    6 17.848173 0.000000 0.000000 0.000000 0.000000 0.926231
    7 15.638511 0.000000 0.000000 0.008500 -0.188768 -1.292522
    8 7.109930 0.000000 0.000000 -0.081154 -0.003131 -0.631749
    9 0.011724 3.345128 -2.981901 1.637509 0.068341 1.566422
    10 4.018331 0.000000 0.000000 -0.072150 -0.012752 0.053672
    11 3.518565 0.000000 0.000000 -0.020046 -0.019643 0.064471
    12 8.942642 0.000000 0.000000 0.032918 0.007047 0.160532
    13 3.306641 0.000001 0.000000 3.138800 0.000567 0.400476
    14 3.593712 -0.000001 0.000000 0.064845 -0.015676 0.412253
    15 2.033346 1.000768 1.101697 1.848180 -1.411864 2.688434
    16 6.809416 0.000001 0.000000 -1.058995 -0.345191 -0.942524
    17 12.391796 0.000000 0.000001 0.000000 0.000000 -1.201538
    18 9.337076 0.000000 -0.000031 -0.492695 -0.144262 -0.342254
    19 4.454020 -0.070210 0.572073 0.096293 -0.007832 -0.804082
    20 1.426597 -0.000001 0.000000 0.023861 -0.079623 -1.125947
    21 1.322468 -0.000002 0.000000 0.009312 -0.033625 -0.575065
    22 4.477066 -0.028570 1.582474 0.476656 -0.055423 -1.136099
    23 1.344418 0.000000 0.000000 0.023466 -0.208305 -0.755723
    24 1.224671 0.000000 0.000000 0.026043 -0.124620 -0.538676
    25 2.630323 -0.345015 1.907214 -0.354022 -0.915164 -1.788195
    26 1.059292 0.000000 0.000001 0.000551 0.000004 0.000021
    27 0.781203 0.000000 0.000000 -0.000467 0.006940 -0.135953
    28 2.033353 1.000771 -1.101647 -2.213943 1.322341 2.404999
    29 6.809417 0.000001 0.000000 0.942772 0.334310 -0.800874
    30 12.391794 0.000000 0.000001 0.000000 0.000000 -1.633385
    31 9.337102 0.000000 0.000003 -1.127971 -0.302694 0.031587
    32 4.453986 -0.073766 -0.571672 -0.386562 0.126208 -1.146676
    33 1.426599 0.000002 0.000000 -0.051390 0.078806 -1.521754
    34 1.322465 -0.000001 0.000000 -0.034695 0.051519 -1.200268
    35 4.477036 -0.043465 -1.581290 -0.083016 0.164909 0.067468
    36 1.344414 0.000000 0.000000 0.024521 0.136363 -0.478036
    37 1.224670 0.000001 0.000000 -0.166394 0.224946 -1.318175
    38 2.630291 -0.359835 -1.904289 1.070466 0.381356 -0.978487
    39 1.059293 0.000000 0.000000 0.002193 0.017488 0.317162
    40 0.781204 0.000000 0.000000 0.006472 0.026012 0.488050
    41 -0.044717 2.528787 4.661499 -0.025801 0.005114 -0.024930
  time 23
    0 0.196876 48.033715 35.654297 1.551256 0.015938 -0.074851
    1 3.890452 -0.000004 -0.000003 -1.825713 -0.621525 -1.424218
    2 17.848177 0.000000 0.000000 0.000000 0.000000 0.362494
    3 15.638507 0.000000 0.000000 0.020224 0.020739 -1.006386
    4 7.109929 0.000000 0.000000 -0.007119 -0.003131 -0.631738
    5 -3.890452 0.000004 0.000007 -1.480316 -0.058711 -1.595319
    6 17.848173 0.000000 0.000000 0.000000 0.000000 0.867741
    7 15.638511 0.000000 0.000000 -0.002340 -0.146945 -1.399673
    8 7.109930 0.000000 0.000000 -0.081154 -0.003131 -0.631749
    9 0.003911 3.345128 -2.981901 1.637509 0.068341 1.569496
    10 4.018331 0.000000 0.000000 -0.072150 -0.012752 0.053672
    11 3.518565 0.000000 0.000000 -0.020046 -0.019643 0.064471
    12 8.942642 0.000000 0.000000 0.032918 0.007047 0.160532
    13 3.306641 0.000001 0.000000 3.138800 0.000567 0.400476
    14 3.593712 -0.000001 0.000000 0.074759 -0.019638 0.412085
    15 2.033346 1.000768 1.101697 1.848180 -1.411864 2.688434
    16 6.809416 0.000001 0.000000 -1.070184 -0.344455 -0.928136
    17 12.391796 0.000000 0.000001 0.000000 0.000000 -1.225980
    18 9.337076 0.000000 -0.000031 -0.482346 -0.141335 -0.332677
    19 4.454020 -0.070210 0.572073 0.096293 -0.007832 -0.804082
    20 1.426597 -0.000001 0.000000 0.023861 -0.079623 -1.125947
    21 1.322468 -0.000002 0.000000 0.009312 -0.033625 -0.575065
    22 4.477066 -0.028570 1.582474 0.476656 -0.055423 -1.136099
    23 1.344418 0.000000 0.000000 0.023466 -0.208305 -0.755723
    24 1.224671 0.000000 0.000000 0.026043 -0.124620 -0.538676
    25 2.630323 -0.345015 1.907214 -0.354022 -0.915164 -1.788195
    26 1.059292 0.000000 0.000001 0.000551 0.000004 0.000021
    27 0.781203 0.000000 0.000000 -0.000467 0.006940 -0.135953
    28 2.033353 1.000771 -1.101647 -2.216432 1.322989 2.402507
    29 6.809417 0.000001 0.000000 0.938986 0.338690 -0.806982
    30 12.391794 0.000000 0.000001 0.000000 0.000000 -1.632523
    31 9.337102 0.000000 0.000003 -1.135395 -0.287961 0.021484
    32 4.453986 -0.073766 -0.571672 -0.386562 0.126208 -1.146676
    33 1.426599 0.000002 0.000000 -0.051390 0.078806 -1.521754
    34 1.322465 -0.000001 0.000000 -0.034695 0.051519 -1.200268
    35 4.477036 -0.043465 -1.581290 -0.083016 0.164909 0.067468
    36 1.344414 0.000000 0.000000 0.024521 0.136363 -0.478036
    37 1.224670 0.000001 0.000000 -0.166394 0.224946 -1.318175
    38 2.630291 -0.359835 -1.904289 1.070466 0.381356 -0.978487
    39 1.059293 0.000000 0.000000 0.002193 0.017488 0.317162
    40 0.781204 0.000000 0.000000 0.006472 0.026012 0.488050
    41 -0.044717 2.528787 4.661499 -0.025801 0.005114 -0.021884
  time 24
    0 0.107030 50.860534 35.417582 1.533160 0.022221 -0.083369
    1 3.890452 -0.000004 -0.000003 -1.865225 -0.603782 -1.402560
    2 17.848177 0.000000 0.000000 0.000000 0.000000 0.407554
    3 15.638507 0.000000 0.000000 0.021237 0.020338 -1.071383
    4 7.109929 0.000000 0.000000 -0.007119 -0.003131 -0.631738
    5 -3.890452 0.000004 0.000007 -1.486132 -0.057039 -1.568831
    6 17.848173 0.000000 0.000000 0.000000 0.000000 0.804622
    7 15.638511 0.000000 0.000000 -0.025595 -0.103348 -1.488392
    8 7.109930 0.000000 0.000000 -0.081154 -0.003131 -0.631749
    9 -0.003901 3.345128 -2.981901 1.637509 0.068341 1.572274
    10 4.018331 0.000000 0.000000 -0.072150 -0.012752 0.053672
    11 3.518565 0.000000 0.000000 -0.020046 -0.019643 0.064471
    12 8.942642 0.000000 0.000000 0.032918 0.007047 0.160532
    13 3.306641 0.000001 0.000000 3.138800 0.000567 0.400476
    14 3.593712 -0.000001 0.000000 0.084378 -0.023471 0.411875
    15 2.033346 1.000768 1.101697 1.848180 -1.411864 2.688434
    16 6.809416 0.000001 0.000000 -1.081373 -0.343769 -0.914031
    17 12.391796 0.000000 0.000001 0.000000 0.000000 -1.250187
    18 9.337076 0.000000 -0.000031 -0.471996 -0.138212 -0.323041
    19 4.454020 -0.070210 0.572073 0.096293 -0.007832 -0.804082
    20 1.426597 -0.000001 0.000000 0.023861 -0.079623 -1.125947
    21 1.322468 -0.000002 0.000000 0.009312 -0.033625 -0.575065
    22 4.477066 -0.028570 1.582474 0.476656 -0.055423 -1.136099
    23 1.344418 0.000000 0.000000 0.023466 -0.208305 -0.755723
    24 1.224671 0.000000 0.000000 0.026043 -0.124620 -0.538676
    25 2.630323 -0.345015 1.907214 -0.354022 -0.915164 -1.788195
    26 1.059292 0.000000 0.000001 0.000551 0.000004 0.000021
    27 0.781203 0.000000 0.000000 -0.000467 0.006940 -0.135953
    28 2.033353 1.000771 -1.101647 -2.218826 1.323677 2.399919
    29 6.809417 0.000001 0.000000 0.935295 0.343026 -0.813090
    30 12.391794 0.000000 0.000001 0.000000 0.000000 -1.631662
    31 9.337102 0.000000 0.000003 -1.143012 -0.273266 0.011123
    32 4.453986 -0.073766 -0.571672 -0.386562 0.126208 -1.146676
    33 1.426599 0.000002 0.000000 -0.051390 0.078806 -1.521754
    34 1.322465 -0.000001 0.000000 -0.034695 0.051519 -1.200268
    35 4.477036 -0.043465 -1.581290 -0.083016 0.164909 0.067468
    36 1.344414 0.000000 0.000000 0.024521 0.136363 -0.478036
    37 1.224670 0.000001 0.000000 -0.166394 0.224946 -1.318175
    38 2.630291 -0.359835 -1.904289 1.070466 0.381356 -0.978487
    39 1.059293 0.000000 0.000000 0.002193 0.017488 0.317162
    40 0.781204 0.000000 0.000000 0.006472 0.026012 0.488050
    41 -0.044717 2.528787 4.661499 -0.025801 0.005114 -0.019038
  time 25
    0 0.017183 53.636567 35.160284 1.515829 0.028873 -0.092174
    1 3.890452 -0.000004 -0.000003 -1.904068 -0.585992 -1.381284
    2 17.848177 0.000000 0.000000 0.000000 0.000000 0.453858
    3 15.638507 0.000000 0.000000 0.021554 0.020196 -1.137036
    4 7.109929 0.000000 0.000000 -0.007119 -0.003131 -0.631738
    5 -3.890452 0.000004 0.000007 -1.491948 -0.054825 -1.541871
    6 17.848173 0.000000 0.000000 0.000000 0.000000 0.740608
    7 15.638511 0.000000 0.000000 -0.058022 -0.065575 -1.576824
    8 7.109930 0.000000 0.000000 -0.081154 -0.003131 -0.631749
    9 -0.011714 3.345128 -2.981901 1.637509 0.068341 1.575525
    10 4.018331 0.000000 0.000000 -0.072150 -0.012752 0.053672
    11 3.518565 0.000000 0.000000 -0.020046 -0.019643 0.064471
    12 8.942642 0.000000 0.000000 0.032918 0.007047 0.160532
    13 3.306641 0.000001 0.000000 3.138800 0.000567 0.400476
    14 3.593712 -0.000001 0.000000 0.092816 -0.026833 0.411665
    15 2.033346 1.000768 1.101697 1.848180 -1.411864 2.688434
    16 6.809416 0.000001 0.000000 -1.092084 -0.342250 -0.900400
    17 12.391796 0.000000 0.000001 0.000000 0.000000 -1.273526
    18 9.337076 0.000000 -0.000031 -0.462271 -0.136140 -0.314387
    19 4.454020 -0.070210 0.572073 0.096293 -0.007832 -0.804082
    20 1.426597 -0.000001 0.000000 0.023861 -0.079623 -1.125947
    21 1.322468 -0.000002 0.000000 0.009312 -0.033625 -0.575065
    22 4.477066 -0.028570 1.582474 0.476656 -0.055423 -1.136099
    23 1.344418 0.000000 0.000000 0.023466 -0.208305 -0.755723
    24 1.224671 0.000000 0.000000 0.026043 -0.124620 -0.538676
    25 2.630323 -0.345015 1.907214 -0.354022 -0.915164 -1.788195
    26 1.059292 0.000000 0.000001 0.000551 0.000004 0.000021
    27 0.781203 0.000000 0.000000 -0.000467 0.006940 -0.135953
    28 2.033353 1.000771 -1.101647 -2.221219 1.324324 2.397426
    29 6.809417 0.000001 0.000000 0.931509 0.347318 -0.819111
    30 12.391794 0.000000 0.000001 0.000000 0.000000 -1.630872
    31 9.337102 0.000000 0.000003 -1.151077 -0.260017 0.001625
    32 4.453986 -0.073766 -0.571672 -0.386562 0.126208 -1.146676
    33 1.426599 0.000002 0.000000 -0.051390 0.078806 -1.521754
    34 1.322465 -0.000001 0.000000 -0.034695 0.051519 -1.200268
    35 4.477036 -0.043465 -1.581290 -0.083016 0.164909 0.067468
    36 1.344414 0.000000 0.000000 0.024521 0.136363 -0.478036
    37 1.224670 0.000001 0.000000 -0.166394 0.224946 -1.318175
    38 2.630291 -0.359835 -1.904289 1.070466 0.381356 -0.978487
    39 1.059293 0.000000 0.000000 0.002193 0.017488 0.317162
    40 0.781204 0.000000 0.000000 0.006472 0.026012 0.488050
    41 -0.044717 2.528787 4.661499 -0.025801 0.005114 -0.015752
  time 26
    0 -0.135165 54.878835 35.633713 1.509288 0.014645 -0.109019
    1 3.890452 -0.000004 -0.000003 -1.940240 -0.535887 -1.383968
    2 17.848177 0.000000 0.000000 0.000000 0.000000 0.504258
    3 15.638507 0.000000 0.000000 0.063078 -0.024261 -1.076924
    4 7.109929 0.000000 0.000000 -0.007119 -0.003131 -0.631738
    5 -3.890452 0.000004 0.000007 -1.485179 -0.081443 -1.548114
    6 17.848173 0.000000 0.000000 0.000000 0.000000 0.716644
    7 15.638511 0.000000 0.000000 -0.075996 -0.075815 -1.520957
    8 7.109930 0.000000 0.000000 -0.081154 -0.003131 -0.631749
    9 0.000005 3.345128 -2.981901 1.637509 0.068341 1.570737
    10 4.018331 0.000000 0.000000 -0.072150 -0.012752 0.053672
    11 3.518565 0.000000 0.000000 -0.020046 -0.019643 0.064471
    12 8.942642 0.000000 0.000000 0.032918 0.007047 0.160532
    13 3.306641 0.000001 0.000000 3.138800 0.000567 0.400476
    14 3.593712 -0.000001 0.000000 0.090411 -0.025891 0.411749
    15 2.033346 1.000768 1.101697 1.848180 -1.411864 2.688434
    16 6.809416 0.000001 0.000000 -1.080991 -0.354944 -0.918101
    17 12.391796 0.000000 0.000001 0.000000 0.000000 -1.234338
    18 9.337076 0.000000 -0.000031 -0.475119 -0.125783 -0.324830
    19 4.454020 -0.070210 0.572073 0.096293 -0.007832 -0.804082
    20 1.426597 -0.000001 0.000000 0.023861 -0.079623 -1.125947
    21 1.322468 -0.000002 0.000000 0.009312 -0.033625 -0.575065
    22 4.477066 -0.028570 1.582474 0.476656 -0.055423 -1.136099
    23 1.344418 0.000000 0.000000 0.023466 -0.208305 -0.755723
    24 1.224671 0.000000 0.000000 0.026043 -0.124620 -0.538676
    25 2.630323 -0.345015 1.907214 -0.354022 -0.915164 -1.788195
    26 1.059292 0.000000 0.000001 0.000551 0.000004 0.000021
    27 0.781203 0.000000 0.000000 -0.000467 0.006940 -0.135953
    28 2.033353 1.000771 -1.101647 -2.218826 1.323677 2.399919
    29 6.809417 0.000001 0.000000 0.935011 0.342632 -0.813003
    30 12.391794 0.000000 0.000001 0.000000 0.000000 -1.625557
    31 9.337102 0.000000 0.000003 -1.134051 -0.267479 0.007582
    32 4.453986 -0.073766 -0.571672 -0.386562 0.126208 -1.146676
    33 1.426599 0.000002 0.000000 -0.051390 0.078806 -1.521754
    34 1.322465 -0.000001 0.000000 -0.034695 0.051519 -1.200268
    35 4.477036 -0.043465 -1.581290 -0.083016 0.164909 0.067468
    36 1.344414 0.000000 0.000000 0.024521 0.136363 -0.478036
    37 1.224670 0.000001 0.000000 -0.166394 0.224946 -1.318175
    38 2.630291 -0.359835 -1.904289 1.070466 0.381356 -0.978487
    39 1.059293 0.000000 0.000000 0.002193 0.017488 0.317162
    40 0.781204 0.000000 0.000000 0.006472 0.026012 0.488050
    41 -0.044717 2.528787 4.661499 -0.025801 0.005114 -0.020601
  time 27
    0 -0.287514 56.324251 36.210062 1.503001 0.000323 -0.125769
    1 3.890452 -0.000004 -0.000003 -1.975457 -0.486776 -1.388376
    2 17.848177 0.000000 0.000000 0.000000 0.000000 0.556706
    3 15.638507 0.000000 0.000000 0.101122 -0.077037 -1.022025
    4 7.109929 0.000000 0.000000 -0.007119 -0.003131 -0.631738
    5 -3.890452 0.000004 0.000007 -1.477265 -0.103633 -1.553885
    6 17.848173 0.000000 0.000000 0.000000 0.000000 0.671152
    7 15.638511 0.000000 0.000000 -0.096471 -0.086646 -1.446754
    8 7.109930 0.000000 0.000000 -0.081154 -0.003131 -0.631749
    9 0.015630 3.345128 -2.981901 1.637509 0.068341 1.565890
    10 4.018331 0.000000 0.000000 -0.072150 -0.012752 0.053672
    11 3.518565 0.000000 0.000000 -0.020046 -0.019643 0.064471
    12 8.942642 0.000000 0.000000 0.032918 0.007047 0.160532
    13 3.306641 0.000001 0.000000 3.138800 0.000567 0.400476
    14 3.593712 -0.000001 0.000000 0.087880 -0.024863 0.411791
    15 2.033346 1.000768 1.101697 1.848180 -1.411864 2.688434
    16 6.809416 0.000001 0.000000 -1.068846 -0.368766 -0.937507
    17 12.391796 0.000000 0.000001 0.000000 0.000000 -1.190893
    18 9.337076 0.000000 -0.000031 -0.488948 -0.114537 -0.337119
    19 4.454020 -0.070210 0.572073 0.096293 -0.007832 -0.804082
    20 1.426597 -0.000001 0.000000 0.023861 -0.079623 -1.125947
    21 1.322468 -0.000002 0.000000 0.009312 -0.033625 -0.575065
    22 4.477066 -0.028570 1.582474 0.476656 -0.055423 -1.136099
    23 1.344418 0.000000 0.000000 0.023466 -0.208305 -0.755723
    24 1.224671 0.000000 0.000000 0.026043 -0.124620 -0.538676
    25 2.630323 -0.345015 1.907214 -0.354022 -0.915164 -1.788195
    26 1.059292 0.000000 0.000001 0.000551 0.000004 0.000021
    27 0.781203 0.000000 0.000000 -0.000467 0.006940 -0.135953
    28 2.033353 1.000771 -1.101647 -2.216337 1.322989 2.402507
    29 6.809417 0.000001 0.000000 0.938513 0.337770 -0.806724
    30 12.391794 0.000000 0.000001 0.000000 0.000000 -1.619452
    31 9.337102 0.000000 0.000003 -1.116002 -0.275550 0.013713
    32 4.453986 -0.073766 -0.571672 -0.386562 0.126208 -1.146647
    33 1.426599 0.000002 0.000000 -0.051390 0.078806 -1.521754
    34 1.322465 -0.000001 0.000000 -0.034695 0.051519 -1.200268
    35 4.477036 -0.043465 -1.581290 -0.083016 0.164909 0.067468
    36 1.344414 0.000000 0.000000 0.024521 0.136363 -0.478036
    37 1.224670 0.000001 0.000000 -0.166394 0.224946 -1.318175
    38 2.630291 -0.359835 -1.904289 1.070466 0.381356 -0.978487
    39 1.059293 0.000000 0.000000 0.002193 0.017488 0.317162
    40 0.781204 0.000000 0.000000 0.006472 0.026012 0.488050
    41 -0.044717 2.528787 4.661499 -0.025801 0.005114 -0.025451
  time 28
    0 -0.432049 58.866664 37.373052 1.497309 -0.013443 -0.135818
    1 3.890452 -0.000004 -0.000003 -2.001512 -0.431656 -1.397001
    2 17.848177 0.000000 0.000000 0.000000 0.000000 0.628246
    3 15.638507 0.000000 0.000000 0.120017 -0.111378 -0.976130
    4 7.109929 0.000000 0.000000 -0.007119 -0.003131 -0.631738
    5 -3.890452 0.000004 0.000007 -1.463822 -0.102058 -1.557196
    6 17.848173 0.000000 0.000000 0.000000 0.000000 0.508276
    7 15.638511 0.000000 0.000000 -0.130102 -0.101300 -1.273422
    8 7.109930 0.000000 0.000000 -0.081154 -0.003131 -0.631749
    9 0.035162 3.345128 -2.981901 1.637509 0.068341 1.559388
    10 4.018331 0.000000 0.000000 -0.072150 -0.012752 0.053672
    11 3.518565 0.000000 0.000000 -0.020046 -0.019643 0.064471
    12 8.942642 0.000000 0.000000 0.032918 0.007047 0.160532
    13 3.306641 0.000001 0.000000 3.138800 0.000567 0.400476
    14 3.593712 -0.000001 0.000000 0.085180 -0.023792 0.411875
    15 2.033346 1.000768 1.101697 1.848180 -1.411864 2.688434
    16 6.809416 0.000001 0.000000 -1.055935 -0.383421 -0.958428
    17 12.391796 0.000000 0.000001 0.000000 0.000000 -1.144609
    18 9.337076 0.000000 -0.000031 -0.502777 -0.102766 -0.350678
    19 4.454020 -0.070210 0.572073 0.096293 -0.007832 -0.804082
    20 1.426597 -0.000001 0.000000 0.023861 -0.079623 -1.125947
    21 1.322468 -0.000002 0.000000 0.009312 -0.033625 -0.575065
    22 4.477066 -0.028570 1.582474 0.476656 -0.055423 -1.136099
    23 1.344418 0.000000 0.000000 0.023466 -0.208305 -0.755723
    24 1.224671 0.000000 0.000000 0.026043 -0.124620 -0.538676
    25 2.630323 -0.345015 1.907214 -0.354022 -0.915164 -1.788195
    26 1.059292 0.000000 0.000001 0.000551 0.000004 0.000021
    27 0.781203 0.000000 0.000000 -0.000467 0.006940 -0.135953
    28 2.033353 1.000771 -1.101647 -2.213848 1.322301 2.405095
    29 6.809417 0.000001 0.000000 0.942109 0.332690 -0.800100
    30 12.391794 0.000000 0.000001 0.000000 0.000000 -1.612987
    31 9.337102 0.000000 0.000003 -1.097248 -0.284040 0.019584
    32 4.453986 -0.073766 -0.571672 -0.386562 0.126208 -1.146676
    33 1.426599 0.000002 0.000000 -0.051390 0.078806 -1.521754
    34 1.322465 -0.000001 0.000000 -0.034695 0.051519 -1.200268
    35 4.477036 -0.043465 -1.581290 -0.083016 0.164909 0.067468
    36 1.344414 0.000000 0.000000 0.024521 0.136363 -0.478036
    37 1.224670 0.000001 0.000000 -0.166394 0.224946 -1.318175
    38 2.630291 -0.359835 -1.904289 1.070466 0.381356 -0.978487
    39 1.059293 0.000000 0.000000 0.002193 0.017488 0.317162
    40 0.781204 0.000000 0.000000 0.006472 0.026012 0.488050
    41 -0.044717 2.528787 4.661499 -0.025801 0.005114 -0.031944
  time 29
    0 -0.435956 60.139404 37.815605 1.493571 -0.025640 -0.129023
    1 3.890452 -0.000004 -0.000003 -2.020218 -0.371237 -1.408022
    2 17.848177 0.000000 0.000000 0.000000 0.000000 0.745211
    3 15.638507 0.000000 0.000000 0.116820 -0.106604 -0.939931
    4 7.109929 0.000000 0.000000 -0.007119 -0.003131 -0.631738
    5 -3.890452 0.000004 0.000007 -1.455623 -0.101173 -1.563723
    6 17.848173 0.000000 0.000000 0.000000 0.000000 0.431752
    7 15.638511 0.000000 0.000000 -0.136125 -0.097523 -1.194349
    8 7.109930 0.000000 0.000000 -0.081154 -0.003131 -0.631749
    9 0.070320 3.345128 -2.981901 1.637509 0.068341 1.549104
    10 4.018331 0.000000 0.000000 -0.072150 -0.012752 0.053672
    11 3.518565 0.000000 0.000000 -0.020046 -0.019643 0.064471
    12 8.942642 0.000000 0.000000 0.032918 0.007047 0.160532
    13 3.306641 0.000001 0.000000 3.138800 0.000567 0.400476
    14 3.593712 -0.000001 0.000000 0.082395 -0.022679 0.411959
    15 2.033346 1.000768 1.101697 1.848180 -1.411864 2.688434
    16 6.809416 0.000001 0.000000 -1.042260 -0.398567 -0.980768
    17 12.391796 0.000000 0.000001 0.000000 0.000000 -1.096749
    18 9.337076 0.000000 -0.000031 -0.516071 -0.090797 -0.364755
    19 4.454020 -0.070210 0.572073 0.096293 -0.007832 -0.804082
    20 1.426597 -0.000001 0.000000 0.023861 -0.079623 -1.125947
    21 1.322468 -0.000002 0.000000 0.009312 -0.033625 -0.575065
    22 4.477066 -0.028570 1.582474 0.476656 -0.055423 -1.136099
    23 1.344418 0.000000 0.000000 0.023466 -0.208305 -0.755723
    24 1.224671 0.000000 0.000000 0.026043 -0.124620 -0.538676
    25 2.630323 -0.345015 1.907214 -0.354022 -0.915164 -1.788195
    26 1.059292 0.000000 0.000001 0.000551 0.000004 0.000021
    27 0.781203 0.000000 0.000000 -0.000467 0.006940 -0.135953
    28 2.033353 1.000771 -1.101647 -2.211359 1.321653 2.407683
    29 6.809417 0.000001 0.000000 0.946085 0.327215 -0.792616
    30 12.391794 0.000000 0.000001 0.000000 0.000000 -1.606595
    31 9.337102 0.000000 0.000003 -1.078046 -0.292682 0.024333
    32 4.453986 -0.073766 -0.571672 -0.386562 0.126208 -1.146676
    33 1.426599 0.000002 0.000000 -0.051390 0.078806 -1.521754
    34 1.322465 -0.000001 0.000000 -0.034695 0.051519 -1.200268
    35 4.477036 -0.043465 -1.581290 -0.083016 0.164909 0.067468
    36 1.344414 0.000000 0.000000 0.024521 0.136363 -0.478036
    37 1.224670 0.000001 0.000000 -0.166394 0.224946 -1.318175
    38 2.630291 -0.359835 -1.904289 1.070466 0.381356 -0.978487
    39 1.059293 0.000000 0.000000 0.002193 0.017488 0.317162
    40 0.781204 0.000000 0.000000 0.006472 0.026012 0.488050
    41 -0.044717 2.528787 4.661499 -0.025801 0.005114 -0.042245
  time 30
    0 -0.400798 61.422301 38.072904 1.489323 -0.037374 -0.114953
    1 3.890452 -0.000004 -0.000003 -2.030811 -0.305755 -1.422301
    2 17.848177 0.000000 0.000000 0.000000 0.000000 0.882732
    3 15.638507 0.000000 0.000000 0.111724 -0.073894 -0.910331
    4 7.109929 0.000000 0.000000 -0.007119 -0.003131 -0.631738
    5 -3.890452 0.000004 0.000007 -1.447328 -0.112243 -1.572899
    6 17.848173 0.000000 0.000000 0.000000 0.000000 0.383255
    7 15.638511 0.000000 0.000000 -0.138534 -0.090560 -1.131797
    8 7.109930 0.000000 0.000000 -0.081154 -0.003131 -0.631749
    9 0.113290 3.345128 -2.981901 1.637509 0.068341 1.536396
    10 4.018331 0.000000 0.000000 -0.072150 -0.012752 0.053672
    11 3.518565 0.000000 0.000000 -0.020046 -0.019643 0.064471
    12 8.942642 0.000000 0.000000 0.032918 0.007047 0.160532
    13 3.306641 0.000001 0.000000 3.138800 0.000567 0.400476
    14 3.593712 -0.000001 0.000000 0.079484 -0.021523 0.412001
    15 2.033346 1.000768 1.101697 1.848180 -1.411864 2.688434
    16 6.809416 0.000001 0.000000 -1.028393 -0.413761 -1.003771
    17 12.391796 0.000000 0.000001 0.000000 0.000000 -1.048809
    18 9.337076 0.000000 -0.000031 -0.528383 -0.079059 -0.379064
    19 4.454020 -0.070210 0.572073 0.096293 -0.007832 -0.804082
    20 1.426597 -0.000001 0.000000 0.023861 -0.079623 -1.125947
    21 1.322468 -0.000002 0.000000 0.009312 -0.033625 -0.575065
    22 4.477066 -0.028570 1.582474 0.476656 -0.055423 -1.136099
    23 1.344418 0.000000 0.000000 0.023466 -0.208305 -0.755723
    24 1.224671 0.000000 0.000000 0.026043 -0.124620 -0.538676
    25 2.630323 -0.345015 1.907214 -0.354022 -0.915164 -1.788195
    26 1.059292 0.000000 0.000001 0.000551 0.000004 0.000021
    27 0.781203 0.000000 0.000000 -0.000467 0.006940 -0.135953
    28 2.033353 1.000771 -1.101647 -2.208870 1.320965 2.410271
    29 6.809417 0.000001 0.000000 0.950060 0.321652 -0.784702
    30 12.391794 0.000000 0.000001 0.000000 0.000000 -1.600418
    31 9.337102 0.000000 0.000003 -1.059101 -0.301248 0.028219
    32 4.453986 -0.073766 -0.571672 -0.386562 0.126208 -1.146676
    33 1.426599 0.000002 0.000000 -0.051390 0.078806 -1.521754
    34 1.322465 -0.000001 0.000000 -0.034695 0.051519 -1.200268
    35 4.477036 -0.043465 -1.581290 -0.083016 0.164909 0.067468
    36 1.344414 0.000000 0.000000 0.024521 0.136363 -0.478036
    37 1.224670 0.000001 0.000000 -0.166394 0.224946 -1.318175
    38 2.630291 -0.359835 -1.904289 1.070466 0.381356 -0.978487
    39 1.059293 0.000000 0.000000 0.002193 0.017488 0.317162
    40 0.781204 0.000000 0.000000 0.006472 0.026012 0.488050
    41 -0.044717 2.528787 4.661499 -0.025801 0.005114 -0.054950
end
