// Created by Crowbar 0.68
version 1
nodes
  0 "ValveBiped.Bip01_Pelvis" -1
  1 "ValveBiped.Bip01_L_Thigh" 0
  2 "ValveBiped.Bip01_L_Calf" 1
  3 "ValveBiped.Bip01_L_Foot" 2
  4 "ValveBiped.Bip01_L_Toe0" 3
  5 "ValveBiped.Bip01_R_Thigh" 0
  6 "ValveBiped.Bip01_R_Calf" 5
  7 "ValveBiped.Bip01_R_Foot" 6
  8 "ValveBiped.Bip01_R_Toe0" 7
  9 "ValveBiped.Bip01_Spine" 0
  10 "ValveBiped.Bip01_Spine1" 9
  11 "ValveBiped.Bip01_Spine2" 10
  12 "ValveBiped.Bip01_Spine4" 11
  13 "ValveBiped.Bip01_Neck1" 12
  14 "ValveBiped.Bip01_Head1" 13
  15 "ValveBiped.Bip01_L_Clavicle" 12
  16 "ValveBiped.Bip01_L_UpperArm" 15
  17 "ValveBiped.Bip01_L_Forearm" 16
  18 "ValveBiped.Bip01_L_Hand" 17
  19 "ValveBiped.Bip01_L_Finger2" 18
  20 "ValveBiped.Bip01_L_Finger21" 19
  21 "ValveBiped.Bip01_L_Finger22" 20
  22 "ValveBiped.Bip01_L_Finger1" 18
  23 "ValveBiped.Bip01_L_Finger11" 22
  24 "ValveBiped.Bip01_L_Finger12" 23
  25 "ValveBiped.Bip01_L_Finger0" 18
  26 "ValveBiped.Bip01_L_Finger01" 25
  27 "ValveBiped.Bip01_L_Finger02" 26
  28 "ValveBiped.Bip01_R_Clavicle" 12
  29 "ValveBiped.Bip01_R_UpperArm" 28
  30 "ValveBiped.Bip01_R_Forearm" 29
  31 "ValveBiped.Bip01_R_Hand" 30
  32 "ValveBiped.Bip01_R_Finger2" 31
  33 "ValveBiped.Bip01_R_Finger21" 32
  34 "ValveBiped.Bip01_R_Finger22" 33
  35 "ValveBiped.Bip01_R_Finger1" 31
  36 "ValveBiped.Bip01_R_Finger11" 35
  37 "ValveBiped.Bip01_R_Finger12" 36
  38 "ValveBiped.Bip01_R_Finger0" 31
  39 "ValveBiped.Bip01_R_Finger01" 38
  40 "ValveBiped.Bip01_R_Finger02" 39
  41 "ValveBiped.Cod" 0
  42 "ValveBiped.Anim_Attachment_LH" 18
  43 "ValveBiped.Anim_Attachment_RH" 31
end
skeleton
  time 0
    0 -2.498519 1.280774 37.863771 1.607054 -0.002577 0.036034
    1 3.890452 -0.000004 -0.000003 -2.302222 -0.370867 -1.211294
    2 17.848175 0.000000 0.000000 0.000000 0.000000 0.883582
    3 16.525249 0.000000 0.000000 0.515534 0.022690 -1.194387
    4 6.879453 0.000000 0.000000 -0.007299 -0.002951 -0.584373
    5 -3.890452 0.000004 0.000007 -1.803511 -0.268629 -1.473964
    6 17.848171 0.000000 0.000000 0.000000 0.000000 0.460609
    7 16.525257 0.000000 0.000000 0.098583 0.216030 -1.245614
    8 6.879454 0.000000 0.000000 -0.081333 -0.002951 -0.584373
    9 0.003911 3.345128 -2.981901 1.757513 0.094861 1.557361
    10 4.018331 0.000000 0.000000 -0.315089 -0.013423 0.049389
    11 3.518561 0.000000 0.000000 0.037351 -0.007586 0.065309
    12 8.942642 0.000000 0.000000 0.033430 0.003248 0.188853
    13 3.307271 0.000000 0.000000 3.141590 0.000000 0.400478
    14 3.593710 -0.000003 0.000000 0.063903 -0.011297 0.488294
    15 2.033346 1.000767 1.937660 1.802276 -1.395245 2.734682
    16 6.028142 0.000002 0.000000 -1.366720 0.168310 -0.999380
    17 11.692556 0.000000 -0.000001 0.000000 0.000000 -1.683692
    18 11.481671 0.000000 -0.000029 -0.662349 0.233782 -0.039362
    19 3.883691 -0.046771 0.431443 0.096615 -0.011011 -0.677044
    20 1.719575 0.000000 0.000000 0.055915 -0.087978 -1.150781
    21 1.209183 -0.000001 0.000000 0.009316 -0.033629 -0.339470
    22 3.859861 -0.137948 1.332466 0.537936 -0.132422 -0.946691
    23 1.719428 0.000001 0.000000 0.023476 -0.208311 -0.755744
    24 1.099667 0.000000 0.000000 0.026046 -0.124621 -0.538681
    25 0.806048 -0.348922 1.321258 -1.269164 -0.727275 -0.266407
    26 1.789783 0.000001 0.000001 -0.001067 -0.012843 -0.131867
    27 1.207000 0.000000 0.000001 -0.000100 -0.003217 -0.064874
    28 2.033354 1.000771 -1.937610 -2.173105 1.310587 2.445079
    29 6.028142 0.000004 0.000000 0.889644 0.257074 -0.631256
    30 11.692552 0.000000 0.000002 0.000000 0.000000 -1.830705
    31 11.481699 0.000000 0.000004 -1.097543 -0.405302 0.199955
    32 3.883657 -0.050329 -0.431043 0.047704 -0.153454 -0.767482
    33 1.719576 0.000003 0.000000 -0.053884 0.078890 -1.553283
    34 1.209180 -0.000001 0.000000 -0.013612 0.036967 -0.732282
    35 3.859830 -0.148938 -1.331282 -0.332627 0.218364 0.154975
    36 1.719426 0.000000 0.000000 -0.042633 0.220746 -0.851607
    37 1.099666 0.000000 0.000000 0.008154 0.000000 0.000000
    38 0.806017 -0.359836 -1.318334 0.415058 0.423434 -0.720789
    39 1.789784 0.000000 -0.000001 0.015106 0.038911 0.767156
    40 1.206998 0.000000 0.000000 0.004785 0.022541 0.418309
    41 -0.044717 2.313936 4.661499 -0.048413 0.195673 -0.005321
    42 2.676088 -1.712442 0.000000 1.570797 0.000000 1.570797
    43 2.676088 -1.712443 0.000000 -1.570796 0.000000 -1.570796
  time 1
    0 -3.851628 2.544257 37.844239 1.601965 0.007926 0.071097
    1 3.890452 -0.000004 -0.000003 -2.332168 -0.324234 -1.221000
    2 17.848175 0.000000 0.000000 0.000000 0.000000 1.026310
    3 16.525249 0.000000 0.000000 0.550363 0.090142 -1.172847
    4 6.879453 0.000000 0.000000 -0.007299 -0.002951 -0.584373
    5 -3.890452 0.000004 0.000007 -1.765268 -0.275049 -1.439222
    6 17.848171 0.000000 0.000000 0.000000 0.000000 0.408746
    7 16.525257 0.000000 0.000000 0.076877 0.228501 -1.201704
    8 6.879454 0.000000 0.000000 -0.081333 -0.002951 -0.584373
    9 -0.027340 3.345128 -2.981901 1.757367 0.094844 1.566553
    10 4.018331 0.000000 0.000000 -0.327421 -0.012835 0.048134
    11 3.518561 0.000000 0.000000 0.024395 -0.008138 0.065123
    12 8.942642 0.000000 0.000000 0.031051 -0.000455 0.191843
    13 3.307271 0.000000 0.000000 3.141590 0.000000 0.400478
    14 3.593710 -0.000003 0.000000 0.060961 -0.012452 0.489649
    15 2.033346 1.000767 1.937660 1.802276 -1.395245 2.734682
    16 6.028142 0.000002 0.000000 -1.383879 0.212958 -0.991489
    17 11.692556 0.000000 -0.000001 0.000000 0.000000 -1.717518
    18 11.481671 0.000000 -0.000029 -0.658050 0.230875 -0.033038
    19 3.883691 -0.046771 0.431443 0.096615 -0.011011 -0.677044
    20 1.719575 0.000000 0.000000 0.055915 -0.087978 -1.150781
    21 1.209183 -0.000001 0.000000 0.009316 -0.033629 -0.339470
    22 3.859861 -0.137948 1.332466 0.537936 -0.132422 -0.946691
    23 1.719428 0.000001 0.000000 0.023476 -0.208311 -0.755744
    24 1.099667 0.000000 0.000000 0.026046 -0.124621 -0.538681
    25 0.806048 -0.348922 1.321258 -1.269164 -0.727275 -0.266407
    26 1.789783 0.000001 0.000001 -0.001067 -0.012855 -0.131867
    27 1.207000 0.000000 0.000001 -0.000100 -0.003217 -0.064874
    28 2.033354 1.000771 -1.937610 -2.173105 1.310587 2.445079
    29 6.028142 0.000004 0.000000 0.870390 0.275596 -0.643023
    30 11.692552 0.000000 0.000002 0.000000 0.000000 -1.830199
    31 11.481699 0.000000 0.000004 -1.099162 -0.405302 0.202294
    32 3.883657 -0.050329 -0.431043 0.047704 -0.153454 -0.767482
    33 1.719576 0.000003 0.000000 -0.053884 0.078890 -1.553283
    34 1.209180 -0.000001 0.000000 -0.013612 0.036967 -0.732282
    35 3.859830 -0.148938 -1.331282 -0.332627 0.218364 0.154975
    36 1.719426 0.000000 0.000000 -0.042633 0.220746 -0.851607
    37 1.099666 0.000000 0.000000 0.008154 0.000000 0.000000
    38 0.806017 -0.359836 -1.318334 0.415058 0.423434 -0.720789
    39 1.789784 0.000000 -0.000001 0.015106 0.038911 0.767156
    40 1.206998 0.000000 0.000000 0.004785 0.022541 0.418309
    41 -0.044717 2.313936 4.661499 -0.047731 0.197092 0.007790
    42 2.676088 -1.712442 0.000000 1.570797 0.000000 1.570797
    43 2.676088 -1.712443 0.000000 -1.570796 0.000000 -1.570796
  time 2
    0 -5.150048 3.801612 37.695797 1.594904 0.013438 0.108746
    1 3.890452 -0.000004 -0.000003 -2.309112 -0.269256 -1.254443
    2 17.848175 0.000000 0.000000 0.000000 0.000000 1.117716
    3 16.525249 0.000000 0.000000 0.572967 0.148178 -1.108095
    4 6.879453 0.000000 0.000000 -0.007299 -0.002951 -0.584373
    5 -3.890452 0.000004 0.000007 -1.730764 -0.291908 -1.407028
    6 17.848171 0.000000 0.000000 0.000000 0.000000 0.372119
    7 16.525257 0.000000 0.000000 0.036272 0.250087 -1.140060
    8 6.879454 0.000000 0.000000 -0.081333 -0.002951 -0.584373
    9 -0.046871 3.345128 -2.981901 1.757385 0.094844 1.572438
    10 4.018331 0.000000 0.000000 -0.339801 -0.013243 0.048447
    11 3.518561 0.000000 0.000000 0.011458 -0.009971 0.065945
    12 8.942642 0.000000 0.000000 0.028390 -0.004758 0.193029
    13 3.307271 0.000000 0.000000 3.141590 0.000000 0.400478
    14 3.593710 -0.000003 0.000000 0.057796 -0.015354 0.491683
    15 2.033346 1.000767 1.937660 1.802276 -1.395245 2.734682
    16 6.028142 0.000002 0.000000 -1.401888 0.257802 -0.983970
    17 11.692556 0.000000 -0.000001 0.000000 0.000000 -1.752684
    18 11.481671 0.000000 -0.000029 -0.653464 0.228716 -0.025370
    19 3.883691 -0.046771 0.431443 0.096615 -0.011011 -0.677044
    20 1.719575 0.000000 0.000000 0.055915 -0.087978 -1.150781
    21 1.209183 -0.000001 0.000000 0.009316 -0.033629 -0.339470
    22 3.859861 -0.137948 1.332466 0.537936 -0.132422 -0.946691
    23 1.719428 0.000001 0.000000 0.023476 -0.208311 -0.755744
    24 1.099667 0.000000 0.000000 0.026046 -0.124621 -0.538681
    25 0.806048 -0.348922 1.321258 -1.269164 -0.727275 -0.266407
    26 1.789783 0.000001 0.000001 -0.001067 -0.012843 -0.131867
    27 1.207000 0.000000 0.000001 -0.000100 -0.003217 -0.064874
    28 2.033354 1.000771 -1.937610 -2.173105 1.310587 2.445079
    29 6.028142 0.000004 0.000000 0.852190 0.293597 -0.656119
    30 11.692552 0.000000 0.000002 0.000000 0.000000 -1.829909
    31 11.481699 0.000000 0.000004 -1.100005 -0.405302 0.203549
    32 3.883657 -0.050329 -0.431043 0.047704 -0.153454 -0.767482
    33 1.719576 0.000003 0.000000 -0.053884 0.078890 -1.553283
    34 1.209180 -0.000001 0.000000 -0.013612 0.036967 -0.732282
    35 3.859830 -0.148938 -1.331282 -0.332627 0.218364 0.154975
    36 1.719426 0.000000 0.000000 -0.042633 0.220746 -0.851607
    37 1.099666 0.000000 0.000000 0.008154 0.000000 0.000000
    38 0.806017 -0.359836 -1.318334 0.415058 0.423434 -0.720789
    39 1.789784 0.000000 -0.000001 0.015106 0.038911 0.767156
    40 1.206998 0.000000 0.000000 0.004785 0.022541 0.418309
    41 -0.044717 2.313936 4.661499 -0.047094 0.198651 0.017450
    42 2.676088 -1.712442 0.000000 1.570797 0.000000 1.570797
    43 2.676088 -1.712443 0.000000 -1.570796 0.000000 -1.570796
  time 3
    0 -6.385966 5.089608 37.453602 1.586953 0.011024 0.148789
    1 3.890452 -0.000004 -0.000003 -2.223956 -0.219618 -1.323358
    2 17.848175 0.000000 0.000000 0.000000 0.000000 1.142694
    3 16.525249 0.000000 0.000000 0.560812 0.189796 -0.979526
    4 6.879453 0.000000 0.000000 -0.007299 -0.002951 -0.584373
    5 -3.890452 0.000004 0.000007 -1.696642 -0.320040 -1.385597
    6 17.848171 0.000000 0.000000 0.000000 0.000000 0.348280
    7 16.525257 0.000000 0.000000 -0.014437 0.275379 -1.062711
    8 6.879454 0.000000 0.000000 -0.081333 -0.002951 -0.584373
    9 -0.039059 3.345128 -2.981901 1.757568 0.094861 1.572006
    10 4.018331 0.000000 0.000000 -0.351267 -0.015125 0.050312
    11 3.518561 0.000000 0.000000 -0.000428 -0.013363 0.067792
    12 8.942642 0.000000 0.000000 0.025605 -0.009132 0.192555
    13 3.307271 0.000000 0.000000 3.141590 0.000000 0.400478
    14 3.593710 -0.000003 0.000000 0.053355 -0.020566 0.494394
    15 2.033346 1.000767 1.937660 1.802276 -1.395245 2.734682
    16 6.028142 0.000002 0.000000 -1.419236 0.299237 -0.976544
    17 11.692556 0.000000 -0.000001 0.000000 0.000000 -1.787851
    18 11.481671 0.000000 -0.000029 -0.648495 0.227845 -0.015094
    19 3.883691 -0.046771 0.431443 0.096615 -0.011011 -0.677044
    20 1.719575 0.000000 0.000000 0.055915 -0.087978 -1.150781
    21 1.209183 -0.000001 0.000000 0.009316 -0.033629 -0.339470
    22 3.859861 -0.137948 1.332466 0.537936 -0.132422 -0.946691
    23 1.719428 0.000001 0.000000 0.023476 -0.208311 -0.755744
    24 1.099667 0.000000 0.000000 0.026046 -0.124621 -0.538681
    25 0.806048 -0.348922 1.321258 -1.269164 -0.727275 -0.266407
    26 1.789783 0.000001 0.000001 -0.001067 -0.012843 -0.131867
    27 1.207000 0.000000 0.000001 -0.000100 -0.003217 -0.064874
    28 2.033354 1.000771 -1.937610 -2.173105 1.310587 2.445079
    29 6.028142 0.000004 0.000000 0.837056 0.309751 -0.669594
    30 11.692552 0.000000 0.000002 0.000000 0.000000 -1.830054
    31 11.481699 0.000000 0.000004 -1.099616 -0.405302 0.202979
    32 3.883657 -0.050329 -0.431043 0.047704 -0.153454 -0.767482
    33 1.719576 0.000003 0.000000 -0.053884 0.078890 -1.553283
    34 1.209180 -0.000001 0.000000 -0.013612 0.036967 -0.732282
    35 3.859830 -0.148938 -1.331282 -0.332627 0.218364 0.154975
    36 1.719426 0.000000 0.000000 -0.042633 0.220746 -0.851607
    37 1.099666 0.000000 0.000000 0.008154 0.000000 0.000000
    38 0.806017 -0.359836 -1.318334 0.415058 0.423434 -0.720789
    39 1.789784 0.000000 -0.000001 0.015106 0.038911 0.767156
    40 1.206998 0.000000 0.000000 0.004785 0.022541 0.418309
    41 -0.044717 2.313936 4.661499 -0.046503 0.200304 0.020530
    42 2.676088 -1.712442 0.000000 1.570797 0.000000 1.570797
    43 2.676088 -1.712443 0.000000 -1.570796 0.000000 -1.570796
  time 4
    0 -7.563289 6.457268 37.148905 1.580465 0.001957 0.187875
    1 3.890452 -0.000004 -0.000003 -2.094013 -0.169551 -1.428627
    2 17.848175 0.000000 0.000000 0.000000 0.000000 1.095548
    3 16.525249 0.000000 0.000000 0.513934 0.212665 -0.855975
    4 6.879453 0.000000 0.000000 -0.007299 -0.002951 -0.584373
    5 -3.890452 0.000004 0.000007 -1.658591 -0.355425 -1.375779
    6 17.848171 0.000000 0.000000 0.000000 0.000000 0.326888
    7 16.525257 0.000000 0.000000 -0.064772 0.300904 -0.985095
    8 6.879454 0.000000 0.000000 -0.081333 -0.002951 -0.584373
    9 -0.007808 3.345128 -2.981901 1.757916 0.094861 1.566206
    10 4.018331 0.000000 0.000000 -0.360793 -0.018780 0.053327
    11 3.518561 0.000000 0.000000 -0.010157 -0.018408 0.070399
    12 8.942642 0.000000 0.000000 0.022962 -0.012871 0.190855
    13 3.307271 0.000000 0.000000 3.141590 0.000000 0.400478
    14 3.593710 -0.000003 0.000000 0.046304 -0.028228 0.497352
    15 2.033346 1.000767 1.937660 1.802276 -1.395245 2.734682
    16 6.028142 0.000002 0.000000 -1.434133 0.333661 -0.968189
    17 11.692556 0.000000 -0.000001 0.000000 0.000000 -1.821124
    18 11.481671 0.000000 -0.000029 -0.643718 0.228550 -0.001655
    19 3.883691 -0.046771 0.431443 0.096615 -0.011011 -0.677044
    20 1.719575 0.000000 0.000000 0.055915 -0.087978 -1.150781
    21 1.209183 -0.000001 0.000000 0.009316 -0.033629 -0.339470
    22 3.859861 -0.137948 1.332466 0.537936 -0.132422 -0.946691
    23 1.719428 0.000001 0.000000 0.023476 -0.208311 -0.755744
    24 1.099667 0.000000 0.000000 0.026046 -0.124621 -0.538681
    25 0.806048 -0.348922 1.321258 -1.269164 -0.727275 -0.266407
    26 1.789783 0.000001 0.000001 -0.001067 -0.012843 -0.131867
    27 1.207000 0.000000 0.000001 -0.000100 -0.003217 -0.064874
    28 2.033354 1.000771 -1.937610 -2.173105 1.310587 2.445079
    29 6.028142 0.000004 0.000000 0.825848 0.323062 -0.682594
    30 11.692552 0.000000 0.000002 0.000000 0.000000 -1.830488
    31 11.481699 0.000000 0.000004 -1.098191 -0.405302 0.200868
    32 3.883657 -0.050329 -0.431043 0.047704 -0.153454 -0.767482
    33 1.719576 0.000003 0.000000 -0.053884 0.078890 -1.553283
    34 1.209180 -0.000001 0.000000 -0.013612 0.036967 -0.732282
    35 3.859830 -0.148938 -1.331282 -0.332627 0.218364 0.154975
    36 1.719426 0.000000 0.000000 -0.042633 0.220746 -0.851607
    37 1.099666 0.000000 0.000000 0.008154 0.000000 0.000000
    38 0.806017 -0.359836 -1.318334 0.415058 0.423434 -0.720789
    39 1.789784 0.000000 -0.000001 0.015106 0.038911 0.767156
    40 1.206998 0.000000 0.000000 0.004785 0.022541 0.418309
    41 -0.044717 2.313936 4.661499 -0.045911 0.201988 0.017917
    42 2.676088 -1.712442 0.000000 1.570797 0.000000 1.570797
    43 2.676088 -1.712443 0.000000 -1.570796 0.000000 -1.570796
  time 5
    0 -8.744518 7.929106 36.781707 1.577920 -0.010029 0.220159
    1 3.890452 -0.000004 -0.000003 -1.958328 -0.095262 -1.540867
    2 17.848175 0.000000 0.000000 0.000000 0.000000 1.015909
    3 16.525249 0.000000 0.000000 0.460517 0.248985 -0.927885
    4 6.879453 0.000000 0.000000 -0.007299 -0.002951 -0.584373
    5 -3.890452 0.000004 0.000007 -1.618623 -0.393799 -1.371625
    6 17.848171 0.000000 0.000000 0.000000 0.000000 0.296102
    7 16.525257 0.000000 0.000000 -0.106780 0.319483 -0.909563
    8 6.879454 0.000000 0.000000 -0.081333 -0.002951 -0.584373
    9 0.027350 3.345128 -2.981901 1.758374 0.094878 1.558500
    10 4.018331 0.000000 0.000000 -0.367561 -0.024197 0.056952
    11 3.518561 0.000000 0.000000 -0.016858 -0.024880 0.073348
    12 8.942642 0.000000 0.000000 0.020689 -0.015436 0.188458
    13 3.307271 0.000000 0.000000 3.141590 0.000000 0.400478
    14 3.593710 -0.000003 0.000000 0.035755 -0.038088 0.499939
    15 2.033346 1.000767 1.937660 1.802276 -1.395245 2.734682
    16 6.028142 0.000002 0.000000 -1.445353 0.358347 -0.957792
    17 11.692556 0.000000 -0.000001 0.000000 0.000000 -1.850535
    18 11.481671 0.000000 -0.000029 -0.640565 0.230585 0.014550
    19 3.883691 -0.046771 0.431443 0.096615 -0.011011 -0.677044
    20 1.719575 0.000000 0.000000 0.055915 -0.087978 -1.150781
    21 1.209183 -0.000001 0.000000 0.009316 -0.033629 -0.339470
    22 3.859861 -0.137948 1.332466 0.537936 -0.132422 -0.946691
    23 1.719428 0.000001 0.000000 0.023476 -0.208311 -0.755744
    24 1.099667 0.000000 0.000000 0.026046 -0.124621 -0.538681
    25 0.806048 -0.348922 1.321258 -1.269164 -0.727275 -0.266407
    26 1.789783 0.000001 0.000001 -0.001067 -0.012843 -0.131867
    27 1.207000 0.000000 0.000001 -0.000100 -0.003217 -0.064874
    28 2.033354 1.000771 -1.937610 -2.173105 1.310587 2.445079
    29 6.028142 0.000004 0.000000 0.818760 0.333295 -0.694551
    30 11.692552 0.000000 0.000002 0.000000 0.000000 -1.831066
    31 11.481699 0.000000 0.000004 -1.096377 -0.405302 0.198129
    32 3.883657 -0.050329 -0.431043 0.047704 -0.153454 -0.767482
    33 1.719576 0.000003 0.000000 -0.053884 0.078890 -1.553283
    34 1.209180 -0.000001 0.000000 -0.013612 0.036967 -0.732282
    35 3.859830 -0.148938 -1.331282 -0.332627 0.218364 0.154975
    36 1.719426 0.000000 0.000000 -0.042633 0.220746 -0.851607
    37 1.099666 0.000000 0.000000 0.008154 0.000000 0.000000
    38 0.806017 -0.359836 -1.318334 0.415058 0.423434 -0.720789
    39 1.789784 0.000000 -0.000001 0.015106 0.038911 0.767156
    40 1.206998 0.000000 0.000000 0.004785 0.022541 0.418309
    41 -0.044717 2.313936 4.661499 -0.045411 0.203641 0.013003
    42 2.676088 -1.712442 0.000000 1.570797 0.000000 1.570797
    43 2.676088 -1.712443 0.000000 -1.570796 0.000000 -1.570796
  time 6
    0 -10.054657 9.468353 36.383257 1.580274 -0.018330 0.241044
    1 3.890452 -0.000004 -0.000003 -1.851971 -0.036088 -1.630342
    2 17.848175 0.000000 0.000000 0.000000 0.000000 0.928450
    3 16.525249 0.000000 0.000000 0.424941 0.199734 -1.158733
    4 6.879453 0.000000 0.000000 -0.007299 -0.002951 -0.584373
    5 -3.890452 0.000004 0.000007 -1.591882 -0.415706 -1.361617
    6 17.848171 0.000000 0.000000 0.000000 0.000000 0.217401
    7 16.525257 0.000000 0.000000 -0.120159 0.317851 -0.812556
    8 6.879454 0.000000 0.000000 -0.081333 -0.002951 -0.584373
    9 0.054694 3.345128 -2.981901 1.758887 0.094878 1.555456
    10 4.018331 0.000000 0.000000 -0.371201 -0.030920 0.060716
    11 3.518561 0.000000 0.000000 -0.020172 -0.032239 0.076250
    12 8.942642 0.000000 0.000000 0.018962 -0.016587 0.185731
    13 3.307271 0.000000 0.000000 3.141590 0.000000 0.400478
    14 3.593710 -0.000003 0.000000 0.021653 -0.049300 0.501850
    15 2.033346 1.000767 1.937660 1.802276 -1.395245 2.734682
    16 6.028142 0.000002 0.000000 -1.453178 0.372321 -0.945260
    17 11.692556 0.000000 -0.000001 0.000000 0.000000 -1.874189
    18 11.481671 0.000000 -0.000029 -0.640661 0.233283 0.031743
    19 3.883691 -0.046771 0.431443 0.096615 -0.011011 -0.677044
    20 1.719575 0.000000 0.000000 0.055915 -0.087978 -1.150781
    21 1.209183 -0.000001 0.000000 0.009316 -0.033629 -0.339470
    22 3.859861 -0.137948 1.332466 0.537936 -0.132422 -0.946691
    23 1.719428 0.000001 0.000000 0.023476 -0.208311 -0.755744
    24 1.099667 0.000000 0.000000 0.026046 -0.124621 -0.538681
    25 0.806048 -0.348922 1.321258 -1.269164 -0.727275 -0.266407
    26 1.789783 0.000001 0.000001 -0.001067 -0.012843 -0.131867
    27 1.207000 0.000000 0.000001 -0.000100 -0.003217 -0.064874
    28 2.033354 1.000771 -1.937610 -2.173105 1.310587 2.445079
    29 6.028142 0.000004 0.000000 0.814928 0.340779 -0.705558
    30 11.692552 0.000000 0.000002 0.000000 0.000000 -1.831356
    31 11.481699 0.000000 0.000004 -1.095211 -0.405302 0.196417
    32 3.883657 -0.050329 -0.431043 0.047704 -0.153454 -0.767482
    33 1.719576 0.000003 0.000000 -0.053884 0.078890 -1.553283
    34 1.209180 -0.000001 0.000000 -0.013612 0.036967 -0.732282
    35 3.859830 -0.148938 -1.331282 -0.332627 0.218364 0.154975
    36 1.719426 0.000000 0.000000 -0.042633 0.220746 -0.851607
    37 1.099666 0.000000 0.000000 0.008154 0.000000 0.000000
    38 0.806017 -0.359836 -1.318334 0.415058 0.423434 -0.720789
    39 1.789784 0.000000 -0.000001 0.015106 0.038911 0.767156
    40 1.206998 0.000000 0.000000 0.004785 0.022541 0.418309
    41 -0.044717 2.313936 4.661499 -0.045001 0.205154 0.012260
    42 2.676088 -1.712442 0.000000 1.570797 0.000000 1.570797
    43 2.676088 -1.712443 0.000000 -1.570796 0.000000 -1.570796
  time 7
    0 -11.493706 11.075009 36.016058 1.586190 -0.024723 0.249953
    1 3.890452 -0.000004 -0.000003 -1.766903 0.005730 -1.690080
    2 17.848175 0.000000 0.000000 0.000000 0.000000 0.812066
    3 16.525249 0.000000 0.000000 0.383075 0.050253 -1.382222
    4 6.879453 0.000000 0.000000 -0.007299 -0.002951 -0.584373
    5 -3.890452 0.000004 0.000007 -1.648240 -0.401004 -1.352837
    6 17.848171 0.000000 0.000000 0.000000 0.000000 0.054948
    7 16.525257 0.000000 0.000000 -0.008449 0.291370 -0.650433
    8 6.879454 0.000000 0.000000 -0.081333 -0.002951 -0.584373
    9 0.066413 3.345128 -2.981901 1.759418 0.094878 1.555300
    10 4.018331 0.000000 0.000000 -0.371891 -0.038063 0.064254
    11 3.518561 0.000000 0.000000 -0.020386 -0.039609 0.078780
    12 8.942642 0.000000 0.000000 0.017799 -0.016515 0.182780
    13 3.307271 0.000000 0.000000 3.141590 0.000000 0.400478
    14 3.593710 -0.000003 0.000000 0.005330 -0.060512 0.502774
    15 2.033346 1.000767 1.937660 1.802276 -1.395245 2.734682
    16 6.028142 0.000002 0.000000 -1.457987 0.376119 -0.932635
    17 11.692556 0.000000 -0.000001 0.000000 0.000000 -1.891220
    18 11.481671 0.000000 -0.000029 -0.643145 0.236273 0.048738
    19 3.883691 -0.046771 0.431443 0.096615 -0.011011 -0.677044
    20 1.719575 0.000000 0.000000 0.055915 -0.087978 -1.150781
    21 1.209183 -0.000001 0.000000 0.009316 -0.033629 -0.339470
    22 3.859861 -0.137948 1.332466 0.537936 -0.132422 -0.946691
    23 1.719428 0.000001 0.000000 0.023476 -0.208311 -0.755744
    24 1.099667 0.000000 0.000000 0.026046 -0.124621 -0.538681
    25 0.806048 -0.348922 1.321258 -1.269164 -0.727275 -0.266407
    26 1.789783 0.000001 0.000001 -0.001067 -0.012843 -0.131867
    27 1.207000 0.000000 0.000001 -0.000100 -0.003217 -0.064874
    28 2.033354 1.000771 -1.937610 -2.173105 1.310587 2.445079
    29 6.028142 0.000004 0.000000 0.814258 0.345138 -0.714289
    30 11.692552 0.000000 0.000002 0.000000 0.000000 -1.831500
    31 11.481699 0.000000 0.000004 -1.094563 -0.405302 0.195390
    32 3.883657 -0.050329 -0.431043 0.047704 -0.153454 -0.767482
    33 1.719576 0.000003 0.000000 -0.053884 0.078890 -1.553283
    34 1.209180 -0.000001 0.000000 -0.013612 0.036967 -0.732282
    35 3.859830 -0.148938 -1.331282 -0.332627 0.218364 0.154975
    36 1.719426 0.000000 0.000000 -0.042633 0.220746 -0.851607
    37 1.099666 0.000000 0.000000 0.008154 0.000000 0.000000
    38 0.806017 -0.359836 -1.318334 0.415058 0.423434 -0.720789
    39 1.789784 0.000000 -0.000001 0.015106 0.038911 0.767156
    40 1.206998 0.000000 0.000000 0.004785 0.022541 0.418309
    41 -0.044717 2.313936 4.661499 -0.044638 0.206448 0.013854
    42 2.676088 -1.712442 0.000000 1.570797 0.000000 1.570797
    43 2.676088 -1.712443 0.000000 -1.570796 0.000000 -1.570796
  time 8
    0 -12.948381 12.755201 35.789489 1.593123 -0.034916 0.249282
    1 3.890452 -0.000004 -0.000003 -1.693230 0.015743 -1.724846
    2 17.848175 0.000000 0.000000 0.000000 0.000000 0.707602
    3 16.525249 0.000000 0.000000 0.337121 -0.086162 -1.487713
    4 6.879453 0.000000 0.000000 -0.007299 -0.002951 -0.584373
    5 -3.890452 0.000004 0.000007 -1.646994 -0.432419 -1.372380
    6 17.848171 0.000000 0.000000 0.000000 0.000000 0.000007
    7 16.525257 0.000000 0.000000 0.147888 0.105257 -0.575221
    8 6.879454 0.000000 0.000000 -0.076048 -0.002879 -0.578899
    9 0.093758 3.345128 -2.981901 1.759930 0.094878 1.551693
    10 4.018331 0.000000 0.000000 -0.370207 -0.044547 0.067164
    11 3.518561 0.000000 0.000000 -0.018194 -0.046069 0.080626
    12 8.942642 0.000000 0.000000 0.017076 -0.015688 0.179763
    13 3.307271 0.000000 0.000000 3.141590 0.000000 0.400478
    14 3.593710 -0.000003 0.000000 -0.011160 -0.070203 0.502589
    15 2.033346 1.000767 1.937660 1.802276 -1.395245 2.734682
    16 6.028142 0.000002 0.000000 -1.459212 0.371152 -0.922795
    17 11.692556 0.000000 -0.000001 0.000000 0.000000 -1.900918
    18 11.481671 0.000000 -0.000029 -0.645342 0.239428 0.064509
    19 3.883691 -0.046771 0.431443 0.096615 -0.011011 -0.677044
    20 1.719575 0.000000 0.000000 0.055915 -0.087978 -1.150781
    21 1.209183 -0.000001 0.000000 0.009316 -0.033629 -0.339470
    22 3.859861 -0.137948 1.332466 0.537936 -0.132422 -0.946691
    23 1.719428 0.000001 0.000000 0.023476 -0.208311 -0.755744
    24 1.099667 0.000000 0.000000 0.026046 -0.124621 -0.538681
    25 0.806048 -0.348922 1.321258 -1.269164 -0.727275 -0.266407
    26 1.789783 0.000001 0.000001 -0.001067 -0.012843 -0.131867
    27 1.207000 0.000000 0.000001 -0.000100 -0.003217 -0.064874
    28 2.033354 1.000771 -1.937610 -2.173105 1.310587 2.445079
    29 6.028142 0.000004 0.000000 0.816844 0.345422 -0.719128
    30 11.692552 0.000000 0.000002 0.000000 0.000000 -1.831790
    31 11.481699 0.000000 0.000004 -1.093462 -0.405302 0.193622
    32 3.883657 -0.050329 -0.431043 0.047704 -0.153454 -0.767482
    33 1.719576 0.000003 0.000000 -0.053884 0.078890 -1.553283
    34 1.209180 -0.000001 0.000000 -0.013612 0.036967 -0.732282
    35 3.859830 -0.148938 -1.331282 -0.332627 0.218364 0.154975
    36 1.719426 0.000000 0.000000 -0.042633 0.220746 -0.851607
    37 1.099666 0.000000 0.000000 0.008154 0.000000 0.000000
    38 0.806017 -0.359836 -1.318334 0.415058 0.423434 -0.720789
    39 1.789784 0.000000 -0.000001 0.015106 0.038911 0.767156
    40 1.206998 0.000000 0.000000 0.004785 0.022541 0.418309
    41 -0.044717 2.313936 4.661499 -0.044456 0.207430 0.011313
    42 2.676088 -1.712442 0.000000 1.570797 0.000000 1.570797
    43 2.676088 -1.712443 0.000000 -1.570796 0.000000 -1.570796
  time 9
    0 -14.297584 14.435394 35.777770 1.599420 -0.040167 0.242001
    1 3.890452 -0.000004 -0.000003 -1.626713 -0.013868 -1.734729
    2 17.848175 0.000000 0.000000 0.000000 0.000000 0.656432
    3 16.525249 0.000000 0.000000 0.308653 -0.180792 -1.523434
    4 6.879453 0.000000 0.000000 -0.007299 -0.002951 -0.584373
    5 -3.890452 0.000004 0.000007 -1.634917 -0.468392 -1.405801
    6 17.848171 0.000000 0.000000 0.000000 0.000000 0.000007
    7 16.525257 0.000000 0.000000 0.321909 -0.138621 -0.575168
    8 6.879454 0.000000 0.000000 -0.049646 -0.003982 -0.566106
    9 0.097664 3.345128 -2.981901 1.760351 0.094878 1.552436
    10 4.018331 0.000000 0.000000 -0.366839 -0.049412 0.068942
    11 3.518561 0.000000 0.000000 -0.014399 -0.050791 0.081387
    12 8.942642 0.000000 0.000000 0.016741 -0.014585 0.176931
    13 3.307271 0.000000 0.000000 3.141590 0.000000 0.400478
    14 3.593710 -0.000003 0.000000 -0.025428 -0.077020 0.501172
    15 2.033346 1.000767 1.937660 1.802276 -1.395245 2.734682
    16 6.028142 0.000002 0.000000 -1.458081 0.361025 -0.916204
    17 11.692556 0.000000 -0.000001 0.000000 0.000000 -1.902968
    18 11.481671 0.000000 -0.000029 -0.648686 0.241753 0.075299
    19 3.883691 -0.046771 0.431443 0.096615 -0.011011 -0.677044
    20 1.719575 0.000000 0.000000 0.055915 -0.087978 -1.150781
    21 1.209183 -0.000001 0.000000 0.009316 -0.033629 -0.339470
    22 3.859861 -0.137948 1.332466 0.537936 -0.132422 -0.946691
    23 1.719428 0.000001 0.000000 0.023476 -0.208311 -0.755744
    24 1.099667 0.000000 0.000000 0.026046 -0.124621 -0.538681
    25 0.806048 -0.348922 1.321258 -1.269164 -0.727275 -0.266407
    26 1.789783 0.000001 0.000001 -0.001067 -0.012843 -0.131867
    27 1.207000 0.000000 0.000001 -0.000100 -0.003217 -0.064874
    28 2.033354 1.000771 -1.937610 -2.173105 1.310587 2.445079
    29 6.028142 0.000004 0.000000 0.820484 0.342627 -0.721690
    30 11.692552 0.000000 0.000002 0.000000 0.000000 -1.831862
    31 11.481699 0.000000 0.000004 -1.093138 -0.405302 0.193108
    32 3.883657 -0.050329 -0.431043 0.047704 -0.153454 -0.767482
    33 1.719576 0.000003 0.000000 -0.053884 0.078890 -1.553283
    34 1.209180 -0.000001 0.000000 -0.013612 0.036967 -0.732282
    35 3.859830 -0.148938 -1.331282 -0.332627 0.218364 0.154975
    36 1.719426 0.000000 0.000000 -0.042633 0.220746 -0.851607
    37 1.099666 0.000000 0.000000 0.008154 0.000000 0.000000
    38 0.806017 -0.359836 -1.318334 0.415058 0.423434 -0.720789
    39 1.789784 0.000000 -0.000001 0.015106 0.038911 0.767156
    40 1.206998 0.000000 0.000000 0.004785 0.022541 0.418309
    41 -0.044717 2.313936 4.661499 -0.044365 0.208007 0.012404
    42 2.676088 -1.712442 0.000000 1.570797 0.000000 1.570797
    43 2.676088 -1.712443 0.000000 -1.570796 0.000000 -1.570796
  time 10
    0 -15.510064 16.048178 35.976995 1.604700 -0.041830 0.230218
    1 3.890452 -0.000004 -0.000003 -1.627243 -0.047532 -1.712316
    2 17.848175 0.000000 0.000000 0.000000 0.000000 0.614905
    3 16.525249 0.000000 0.000000 0.243578 -0.170607 -1.494937
    4 6.879453 0.000000 0.000000 -0.007299 -0.002951 -0.584373
    5 -3.890452 0.000004 0.000007 -1.611339 -0.465941 -1.430442
    6 17.848171 0.000000 0.000000 0.000000 0.000000 0.000007
    7 16.525257 0.000000 0.000000 0.433057 -0.259278 -0.632699
    8 6.879454 0.000000 0.000000 -0.049574 -0.004221 -0.571551
    9 0.101571 3.345128 -2.981901 1.760681 0.094878 1.554401
    10 4.018331 0.000000 0.000000 -0.362445 -0.052157 0.069151
    11 3.518561 0.000000 0.000000 -0.009730 -0.053355 0.080797
    12 8.942642 0.000000 0.000000 0.016724 -0.013614 0.174704
    13 3.307271 0.000000 0.000000 3.141590 0.000000 0.400478
    14 3.593710 -0.000003 0.000000 -0.035311 -0.080175 0.498276
    15 2.033346 1.000767 1.937660 1.802276 -1.395245 2.734682
    16 6.028142 0.000002 0.000000 -1.453178 0.347927 -0.912862
    17 11.692556 0.000000 -0.000001 0.000000 0.000000 -1.897843
    18 11.481671 0.000000 -0.000029 -0.651648 0.243206 0.080358
    19 3.883691 -0.046771 0.431443 0.096615 -0.011011 -0.677044
    20 1.719575 0.000000 0.000000 0.055915 -0.087978 -1.150781
    21 1.209183 -0.000001 0.000000 0.009316 -0.033629 -0.339470
    22 3.859861 -0.137948 1.332466 0.537936 -0.132422 -0.946691
    23 1.719428 0.000001 0.000000 0.023476 -0.208311 -0.755744
    24 1.099667 0.000000 0.000000 0.026046 -0.124621 -0.538681
    25 0.806048 -0.348922 1.321258 -1.269164 -0.727275 -0.266407
    26 1.789783 0.000001 0.000001 -0.001067 -0.012843 -0.131867
    27 1.207000 0.000000 0.000001 -0.000100 -0.003217 -0.064874
    28 2.033354 1.000771 -1.937610 -2.173105 1.310587 2.445079
    29 6.028142 0.000004 0.000000 0.824795 0.336658 -0.721311
    30 11.692552 0.000000 0.000002 0.000000 0.000000 -1.831862
    31 11.481699 0.000000 0.000004 -1.093073 -0.405302 0.193051
    32 3.883657 -0.050329 -0.431043 0.047704 -0.153454 -0.767482
    33 1.719576 0.000003 0.000000 -0.053884 0.078890 -1.553283
    34 1.209180 -0.000001 0.000000 -0.013612 0.036967 -0.732282
    35 3.859830 -0.148938 -1.331282 -0.332627 0.218364 0.154975
    36 1.719426 0.000000 0.000000 -0.042633 0.220746 -0.851607
    37 1.099666 0.000000 0.000000 0.008154 0.000000 0.000000
    38 0.806017 -0.359836 -1.318334 0.415058 0.423434 -0.720789
    39 1.789784 0.000000 -0.000001 0.015106 0.038911 0.767156
    40 1.206998 0.000000 0.000000 0.004785 0.022541 0.418309
    41 -0.044717 2.313936 4.661499 -0.044456 0.208039 0.013626
    42 2.676088 -1.712442 0.000000 1.570797 0.000000 1.570797
    43 2.676088 -1.712443 0.000000 -1.570796 0.000000 -1.570796
  time 11
    0 -16.640510 17.526144 36.336381 1.609089 -0.043330 0.215848
    1 3.890452 -0.000004 -0.000003 -1.637843 -0.080909 -1.688050
    2 17.848175 0.000000 0.000000 0.000000 0.000000 0.572694
    3 16.525249 0.000000 0.000000 0.169868 -0.147052 -1.453330
    4 6.879453 0.000000 0.000000 -0.007299 -0.002951 -0.584373
    5 -3.890452 0.000004 0.000007 -1.622361 -0.593072 -1.430347
    6 17.848171 0.000000 0.000000 0.000000 0.000000 0.359884
    7 16.525257 0.000000 0.000000 0.482550 -0.159974 -0.890973
    8 6.879454 0.000000 0.000000 -0.081333 -0.002951 -0.584373
    9 0.109383 3.345128 -2.981901 1.760919 0.094878 1.553610
    10 4.018331 0.000000 0.000000 -0.357442 -0.052780 0.067687
    11 3.518561 0.000000 0.000000 -0.004651 -0.053847 0.078873
    12 8.942642 0.000000 0.000000 0.016988 -0.012967 0.173400
    13 3.307271 0.000000 0.000000 3.141590 0.000000 0.400478
    14 3.593710 -0.000003 0.000000 -0.040196 -0.079809 0.494147
    15 2.033346 1.000767 1.937660 1.802276 -1.395245 2.734682
    16 6.028142 0.000002 0.000000 -1.443844 0.333125 -0.912677
    17 11.692556 0.000000 -0.000001 0.000000 0.000000 -1.886726
    18 11.481671 0.000000 -0.000029 -0.652986 0.243912 0.080556
    19 3.883691 -0.046771 0.431443 0.096615 -0.011011 -0.677044
    20 1.719575 0.000000 0.000000 0.055915 -0.087978 -1.150781
    21 1.209183 -0.000001 0.000000 0.009316 -0.033629 -0.339470
    22 3.859861 -0.137948 1.332466 0.537936 -0.132422 -0.946691
    23 1.719428 0.000001 0.000000 0.023476 -0.208311 -0.755744
    24 1.099667 0.000000 0.000000 0.026046 -0.124621 -0.538681
    25 0.806048 -0.348922 1.321258 -1.269164 -0.727275 -0.266407
    26 1.789783 0.000001 0.000001 -0.001067 -0.012843 -0.131867
    27 1.207000 0.000000 0.000001 -0.000100 -0.003217 -0.064874
    28 2.033354 1.000771 -1.937610 -2.173105 1.310587 2.445079
    29 6.028142 0.000004 0.000000 0.829776 0.327468 -0.717800
    30 11.692552 0.000000 0.000002 0.000000 0.000000 -1.831934
    31 11.481699 0.000000 0.000004 -1.092749 -0.405302 0.192480
    32 3.883657 -0.050329 -0.431043 0.047704 -0.153454 -0.767482
    33 1.719576 0.000003 0.000000 -0.053884 0.078890 -1.553283
    34 1.209180 -0.000001 0.000000 -0.013612 0.036967 -0.732282
    35 3.859830 -0.148938 -1.331282 -0.332627 0.218364 0.154975
    36 1.719426 0.000000 0.000000 -0.042633 0.220746 -0.851607
    37 1.099666 0.000000 0.000000 0.008154 0.000000 0.000000
    38 0.806017 -0.359836 -1.318334 0.415058 0.423434 -0.720789
    39 1.789784 0.000000 -0.000001 0.015106 0.038911 0.767156
    40 1.206998 0.000000 0.000000 0.004785 0.022541 0.418309
    41 -0.044717 2.313936 4.661499 -0.044819 0.207430 0.010834
    42 2.676088 -1.712442 0.000000 1.570797 0.000000 1.570797
    43 2.676088 -1.712443 0.000000 -1.570796 0.000000 -1.570796
  time 12
    0 -17.782675 18.808011 36.812958 1.612142 -0.042678 0.200521
    1 3.890452 -0.000004 -0.000003 -1.650034 -0.111474 -1.662549
    2 17.848175 0.000000 0.000000 0.000000 0.000000 0.528737
    3 16.525249 0.000000 0.000000 0.104047 -0.126929 -1.405970
    4 6.879453 0.000000 0.000000 -0.007299 -0.002951 -0.584373
    5 -3.890452 0.000004 0.000007 -1.478688 -0.649384 -1.470660
    6 17.848171 0.000000 0.000000 0.000000 0.000000 0.630325
    7 16.525257 0.000000 0.000000 0.333323 -0.043280 -1.033225
    8 6.879454 0.000000 0.000000 -0.081333 -0.002951 -0.584373
    9 0.113290 3.345128 -2.981901 1.761047 0.094878 1.552975
    10 4.018331 0.000000 0.000000 -0.352021 -0.051702 0.064881
    11 3.518561 0.000000 0.000000 0.000748 -0.052696 0.075971
    12 8.942642 0.000000 0.000000 0.017517 -0.012680 0.173110
    13 3.307271 0.000000 0.000000 3.141590 0.000000 0.400478
    14 3.593710 -0.000003 0.000000 -0.040641 -0.076654 0.489341
    15 2.033346 1.000767 1.937660 1.802276 -1.395245 2.734682
    16 6.028142 0.000002 0.000000 -1.431964 0.317058 -0.915276
    17 11.692556 0.000000 -0.000001 0.000000 0.000000 -1.870798
    18 11.481671 0.000000 -0.000029 -0.653750 0.243912 0.076287
    19 3.883691 -0.046771 0.431443 0.096615 -0.011011 -0.677044
    20 1.719575 0.000000 0.000000 0.055915 -0.087978 -1.150781
    21 1.209183 -0.000001 0.000000 0.009316 -0.033629 -0.339470
    22 3.859861 -0.137948 1.332466 0.537936 -0.132422 -0.946691
    23 1.719428 0.000001 0.000000 0.023476 -0.208311 -0.755744
    24 1.099667 0.000000 0.000000 0.026046 -0.124621 -0.538681
    25 0.806048 -0.348922 1.321258 -1.269164 -0.727275 -0.266407
    26 1.789783 0.000001 0.000001 -0.001067 -0.012843 -0.131867
    27 1.207000 0.000000 0.000001 -0.000100 -0.003217 -0.064874
    28 2.033354 1.000771 -1.937610 -2.173105 1.310587 2.445079
    29 6.028142 0.000004 0.000000 0.835236 0.316146 -0.712391
    30 11.692552 0.000000 0.000002 0.000000 0.000000 -1.832007
    31 11.481699 0.000000 0.000004 -1.092490 -0.405302 0.192024
    32 3.883657 -0.050329 -0.431043 0.047704 -0.153454 -0.767482
    33 1.719576 0.000003 0.000000 -0.053884 0.078890 -1.553283
    34 1.209180 -0.000001 0.000000 -0.013612 0.036967 -0.732282
    35 3.859830 -0.148938 -1.331282 -0.332627 0.218364 0.154975
    36 1.719426 0.000000 0.000000 -0.042633 0.220746 -0.851607
    37 1.099666 0.000000 0.000000 0.008154 0.000000 0.000000
    38 0.806017 -0.359836 -1.318334 0.415058 0.423434 -0.720789
    39 1.789784 0.000000 -0.000001 0.015106 0.038911 0.767156
    40 1.206998 0.000000 0.000000 0.004785 0.022541 0.418309
    41 -0.044717 2.313936 4.661499 -0.045365 0.206261 0.007143
    42 2.676088 -1.712442 0.000000 1.570797 0.000000 1.570797
    43 2.676088 -1.712443 0.000000 -1.570796 0.000000 -1.570796
  time 13
    0 -18.975623 19.936677 37.324692 1.612906 -0.038177 0.185193
    1 3.890452 -0.000004 -0.000003 -1.673973 -0.128878 -1.627077
    2 17.848175 0.000000 0.000000 0.000000 0.000000 0.478706
    3 16.525249 0.000000 0.000000 0.086099 -0.105241 -1.334862
    4 6.879453 0.000000 0.000000 -0.007299 -0.002951 -0.584373
    5 -3.890452 0.000004 0.000007 -1.390509 -0.645610 -1.520508
    6 17.848171 0.000000 0.000000 0.000000 0.000000 0.808092
    7 16.525257 0.000000 0.000000 0.212725 0.045977 -1.099302
    8 6.879454 0.000000 0.000000 -0.081333 -0.002951 -0.584373
    9 0.109383 3.345128 -2.981901 1.761102 0.094878 1.555875
    10 4.018331 0.000000 0.000000 -0.346072 -0.049544 0.061483
    11 3.518561 0.000000 0.000000 0.006629 -0.050515 0.072727
    12 8.942642 0.000000 0.000000 0.018327 -0.012716 0.173585
    13 3.307271 0.000000 0.000000 3.141590 0.000000 0.400478
    14 3.593710 -0.000003 0.000000 -0.037532 -0.071752 0.484658
    15 2.033346 1.000767 1.937660 1.802276 -1.395245 2.734682
    16 6.028142 0.000002 0.000000 -1.420084 0.298945 -0.920474
    17 11.692556 0.000000 -0.000001 0.000000 0.000000 -1.850850
    18 11.481671 0.000000 -0.000029 -0.655375 0.243372 0.068342
    19 3.883691 -0.046771 0.431443 0.096615 -0.011011 -0.677044
    20 1.719575 0.000000 0.000000 0.055915 -0.087978 -1.150781
    21 1.209183 -0.000001 0.000000 0.009316 -0.033629 -0.339470
    22 3.859861 -0.137948 1.332466 0.537936 -0.132422 -0.946691
    23 1.719428 0.000001 0.000000 0.023476 -0.208311 -0.755744
    24 1.099667 0.000000 0.000000 0.026046 -0.124621 -0.538681
    25 0.806048 -0.348922 1.321258 -1.269164 -0.727275 -0.266407
    26 1.789783 0.000001 0.000001 -0.001067 -0.012843 -0.131867
    27 1.207000 0.000000 0.000001 -0.000100 -0.003217 -0.064874
    28 2.033354 1.000771 -1.937610 -2.173105 1.310587 2.445079
    29 6.028142 0.000004 0.000000 0.841558 0.303877 -0.706128
    30 11.692552 0.000000 0.000002 0.000000 0.000000 -1.831934
    31 11.481699 0.000000 0.000004 -1.092749 -0.405302 0.192480
    32 3.883657 -0.050329 -0.431043 0.047704 -0.153454 -0.767482
    33 1.719576 0.000003 0.000000 -0.053884 0.078890 -1.553283
    34 1.209180 -0.000001 0.000000 -0.013612 0.036967 -0.732282
    35 3.859830 -0.148938 -1.331282 -0.332627 0.218364 0.154975
    36 1.719426 0.000000 0.000000 -0.042633 0.220746 -0.851607
    37 1.099666 0.000000 0.000000 0.008154 0.000000 0.000000
    38 0.806017 -0.359836 -1.318334 0.415058 0.423434 -0.720789
    39 1.789784 0.000000 -0.000001 0.015106 0.038911 0.767156
    40 1.206998 0.000000 0.000000 0.004785 0.022541 0.418309
    41 -0.044717 2.313936 4.661499 -0.046093 0.204686 0.006136
    42 2.676088 -1.712442 0.000000 1.570797 0.000000 1.570797
    43 2.676088 -1.712443 0.000000 -1.570796 0.000000 -1.570796
  time 14
    0 -20.192009 20.997933 37.750486 1.610616 -0.031409 0.169482
    1 3.890452 -0.000004 -0.000003 -1.706481 -0.138748 -1.586840
    2 17.848175 0.000000 0.000000 0.000000 0.000000 0.427309
    3 16.525249 0.000000 0.000000 0.071563 -0.076361 -1.266297
    4 6.879453 0.000000 0.000000 -0.007299 -0.002951 -0.584373
    5 -3.890452 0.000004 0.000007 -1.425301 -0.617479 -1.537880
    6 17.848171 0.000000 0.000000 0.000000 0.000000 0.937708
    7 16.525257 0.000000 0.000000 0.168191 0.091457 -1.103896
    8 6.879454 0.000000 0.000000 -0.081333 -0.002951 -0.584373
    9 0.093758 3.345128 -2.981901 1.761084 0.094878 1.561975
    10 4.018331 0.000000 0.000000 -0.339448 -0.046896 0.058329
    11 3.518561 0.000000 0.000000 0.013187 -0.047878 0.069856
    12 8.942642 0.000000 0.000000 0.019332 -0.012907 0.174388
    13 3.307271 0.000000 0.000000 3.141590 0.000000 0.400478
    14 3.593710 -0.000003 0.000000 -0.032091 -0.066033 0.481146
    15 2.033346 1.000767 1.937660 1.802276 -1.395245 2.734682
    16 6.028142 0.000002 0.000000 -1.409713 0.277473 -0.928458
    17 11.692556 0.000000 -0.000001 0.000000 0.000000 -1.827511
    18 11.481671 0.000000 -0.000029 -0.657954 0.242832 0.057948
    19 3.883691 -0.046771 0.431443 0.096615 -0.011011 -0.677044
    20 1.719575 0.000000 0.000000 0.055915 -0.087978 -1.150781
    21 1.209183 -0.000001 0.000000 0.009316 -0.033629 -0.339470
    22 3.859861 -0.137948 1.332466 0.537936 -0.132422 -0.946691
    23 1.719428 0.000001 0.000000 0.023476 -0.208311 -0.755744
    24 1.099667 0.000000 0.000000 0.026046 -0.124621 -0.538681
    25 0.806048 -0.348922 1.321258 -1.269164 -0.727275 -0.266407
    26 1.789783 0.000001 0.000001 -0.001067 -0.012843 -0.131867
    27 1.207000 0.000000 0.000001 -0.000100 -0.003217 -0.064874
    28 2.033354 1.000771 -1.937610 -2.173105 1.310587 2.445079
    29 6.028142 0.000004 0.000000 0.849795 0.291181 -0.699485
    30 11.692552 0.000000 0.000002 0.000000 0.000000 -1.831790
    31 11.481699 0.000000 0.000004 -1.093397 -0.405302 0.193565
    32 3.883657 -0.050329 -0.431043 0.047704 -0.153454 -0.767482
    33 1.719576 0.000003 0.000000 -0.053884 0.078890 -1.553283
    34 1.209180 -0.000001 0.000000 -0.013612 0.036967 -0.732282
    35 3.859830 -0.148938 -1.331282 -0.332627 0.218364 0.154975
    36 1.719426 0.000000 0.000000 -0.042633 0.220746 -0.851607
    37 1.099666 0.000000 0.000000 0.008154 0.000000 0.000000
    38 0.806017 -0.359836 -1.318334 0.415058 0.423434 -0.720789
    39 1.789784 0.000000 -0.000001 0.015106 0.038911 0.767156
    40 1.206998 0.000000 0.000000 0.004785 0.022541 0.418309
    41 -0.044717 2.313936 4.661499 -0.046866 0.202783 0.007706
    42 2.676088 -1.712442 0.000000 1.570797 0.000000 1.570797
    43 2.676088 -1.712443 0.000000 -1.570796 0.000000 -1.570796
  time 15
    0 -21.412302 22.065318 37.969243 1.604764 -0.026859 0.152142
    1 3.890452 -0.000004 -0.000003 -1.743935 -0.156057 -1.546867
    2 17.848175 0.000000 0.000000 0.000000 0.000000 0.402939
    3 16.525249 0.000000 0.000000 0.060225 -0.045723 -1.212716
    4 6.879453 0.000000 0.000000 -0.007299 -0.002951 -0.584373
    5 -3.890452 0.000004 0.000007 -1.498720 -0.577291 -1.548076
    6 17.848171 0.000000 0.000000 0.000000 0.000000 1.039696
    7 16.525257 0.000000 0.000000 0.150601 0.101434 -1.077348
    8 6.879454 0.000000 0.000000 -0.081333 -0.002951 -0.584373
    9 0.082039 3.345128 -2.981901 1.761029 0.094878 1.567105
    10 4.018331 0.000000 0.000000 -0.332088 -0.044187 0.056255
    11 3.518561 0.000000 0.000000 0.020582 -0.045170 0.068009
    12 8.942642 0.000000 0.000000 0.020565 -0.013111 0.175047
    13 3.307271 0.000000 0.000000 3.141590 0.000000 0.400478
    14 3.593710 -0.000003 0.000000 -0.025206 -0.060117 0.479482
    15 2.033346 1.000767 1.937660 1.802276 -1.395245 2.734682
    16 6.028142 0.000002 0.000000 -1.400756 0.251521 -0.939412
    17 11.692556 0.000000 -0.000001 0.000000 0.000000 -1.801334
    18 11.481671 0.000000 -0.000029 -0.660534 0.242583 0.046604
    19 3.883691 -0.046771 0.431443 0.096615 -0.011011 -0.677044
    20 1.719575 0.000000 0.000000 0.055915 -0.087978 -1.150781
    21 1.209183 -0.000001 0.000000 0.009316 -0.033629 -0.339470
    22 3.859861 -0.137948 1.332466 0.537936 -0.132422 -0.946691
    23 1.719428 0.000001 0.000000 0.023476 -0.208311 -0.755744
    24 1.099667 0.000000 0.000000 0.026046 -0.124621 -0.538681
    25 0.806048 -0.348922 1.321258 -1.269164 -0.727275 -0.266407
    26 1.789783 0.000001 0.000001 -0.001067 -0.012843 -0.131867
    27 1.207000 0.000000 0.000001 -0.000100 -0.003217 -0.064874
    28 2.033354 1.000771 -1.937610 -2.173105 1.310587 2.445079
    29 6.028142 0.000004 0.000000 0.861194 0.277965 -0.691894
    30 11.692552 0.000000 0.000002 0.000000 0.000000 -1.831717
    31 11.481699 0.000000 0.000004 -1.093850 -0.405302 0.194306
    32 3.883657 -0.050329 -0.431043 0.047704 -0.153454 -0.767482
    33 1.719576 0.000003 0.000000 -0.053884 0.078890 -1.553283
    34 1.209180 -0.000001 0.000000 -0.013612 0.036967 -0.732282
    35 3.859830 -0.148938 -1.331282 -0.332627 0.218364 0.154975
    36 1.719426 0.000000 0.000000 -0.042633 0.220746 -0.851607
    37 1.099666 0.000000 0.000000 0.008154 0.000000 0.000000
    38 0.806017 -0.359836 -1.318334 0.415058 0.423434 -0.720789
    39 1.789784 0.000000 -0.000001 0.015106 0.038911 0.767156
    40 1.206998 0.000000 0.000000 0.004785 0.022541 0.418309
    41 -0.044717 2.313936 4.661499 -0.047731 0.200678 0.007862
    42 2.676088 -1.712442 0.000000 1.570797 0.000000 1.570797
    43 2.676088 -1.712443 0.000000 -1.570796 0.000000 -1.570796
  time 16
    0 -22.620876 23.169471 37.930179 1.595095 -0.028702 0.132216
    1 3.890452 -0.000004 -0.000003 -1.788369 -0.186622 -1.508483
    2 17.848175 0.000000 0.000000 0.000000 0.000000 0.417895
    3 16.525249 0.000000 0.000000 0.053259 -0.012862 -1.179470
    4 6.879453 0.000000 0.000000 -0.007299 -0.002951 -0.584373
    5 -3.890452 0.000004 0.000007 -1.568975 -0.528821 -1.570734
    6 17.848171 0.000000 0.000000 0.000000 0.000000 1.122580
    7 16.525257 0.000000 0.000000 0.142088 0.122880 -1.043748
    8 6.879454 0.000000 0.000000 -0.081333 -0.002951 -0.584373
    9 0.093758 3.345128 -2.981901 1.760901 0.094861 1.566841
    10 4.018331 0.000000 0.000000 -0.324133 -0.041646 0.055715
    11 3.518561 0.000000 0.000000 0.028672 -0.042605 0.067512
    12 8.942642 0.000000 0.000000 0.021993 -0.013171 0.175205
    13 3.307271 0.000000 0.000000 3.141590 0.000000 0.400478
    14 3.593710 -0.000003 0.000000 -0.017378 -0.054427 0.480037
    15 2.033346 1.000767 1.937660 1.802276 -1.395245 2.734682
    16 6.028142 0.000002 0.000000 -1.392648 0.221138 -0.953243
    17 11.692556 0.000000 -0.000001 0.000000 0.000000 -1.773106
    18 11.481671 0.000000 -0.000029 -0.662254 0.242832 0.035458
    19 3.883691 -0.046771 0.431443 0.096615 -0.011011 -0.677044
    20 1.719575 0.000000 0.000000 0.055915 -0.087978 -1.150781
    21 1.209183 -0.000001 0.000000 0.009316 -0.033629 -0.339470
    22 3.859861 -0.137948 1.332466 0.537936 -0.132422 -0.946691
    23 1.719428 0.000001 0.000000 0.023476 -0.208311 -0.755744
    24 1.099667 0.000000 0.000000 0.026046 -0.124621 -0.538681
    25 0.806048 -0.348922 1.321258 -1.269164 -0.727275 -0.266407
    26 1.789783 0.000001 0.000001 -0.001067 -0.012843 -0.131867
    27 1.207000 0.000000 0.000001 -0.000100 -0.003217 -0.064874
    28 2.033354 1.000771 -1.937610 -2.173105 1.310587 2.445079
    29 6.028142 0.000004 0.000000 0.876425 0.264132 -0.682974
    30 11.692552 0.000000 0.000002 0.000000 0.000000 -1.831790
    31 11.481699 0.000000 0.000004 -1.093462 -0.405302 0.193622
    32 3.883657 -0.050329 -0.431043 0.047704 -0.153454 -0.767482
    33 1.719576 0.000003 0.000000 -0.053884 0.078890 -1.553283
    34 1.209180 -0.000001 0.000000 -0.013612 0.036967 -0.732282
    35 3.859830 -0.148938 -1.331282 -0.332627 0.218364 0.154975
    36 1.719426 0.000000 0.000000 -0.042633 0.220746 -0.851607
    37 1.099666 0.000000 0.000000 0.008154 0.000000 0.000000
    38 0.806017 -0.359836 -1.318334 0.415058 0.423434 -0.720789
    39 1.789784 0.000000 -0.000001 0.015106 0.038911 0.767156
    40 1.206998 0.000000 0.000000 0.004785 0.022541 0.418309
    41 -0.044717 2.313936 4.661499 -0.048640 0.198464 0.002361
    42 2.676088 -1.712442 0.000000 1.570797 0.000000 1.570797
    43 2.676088 -1.712443 0.000000 -1.570796 0.000000 -1.570796
  time 17
    0 -23.833356 24.285880 37.637202 1.581928 -0.036220 0.109991
    1 3.890452 -0.000004 -0.000003 -1.836865 -0.227152 -1.468688
    2 17.848175 0.000000 0.000000 0.000000 0.000000 0.466179
    3 16.525249 0.000000 0.000000 0.048497 0.020109 -1.163348
    4 6.879453 0.000000 0.000000 -0.007299 -0.002951 -0.584373
    5 -3.890452 0.000004 0.000007 -1.634150 -0.472018 -1.605005
    6 17.848171 0.000000 0.000000 0.000000 0.000000 1.183520
    7 16.525257 0.000000 0.000000 0.142181 0.176681 -1.013620
    8 6.879454 0.000000 0.000000 -0.081333 -0.002951 -0.584373
    9 0.121102 3.345128 -2.981901 1.760736 0.094844 1.561268
    10 4.018331 0.000000 0.000000 -0.315939 -0.039309 0.056690
    11 3.518561 0.000000 0.000000 0.037065 -0.040172 0.068366
    12 8.942642 0.000000 0.000000 0.023632 -0.012991 0.174783
    13 3.307271 0.000000 0.000000 3.141590 0.000000 0.400478
    14 3.593710 -0.000003 0.000000 -0.008495 -0.049215 0.482563
    15 2.033346 1.000767 1.937660 1.802276 -1.395245 2.734682
    16 6.028142 0.000002 0.000000 -1.385576 0.188029 -0.968932
    17 11.692556 0.000000 -0.000001 0.000000 0.000000 -1.744090
    18 11.481671 0.000000 -0.000029 -0.663209 0.243538 0.024707
    19 3.883691 -0.046771 0.431443 0.096615 -0.011011 -0.677044
    20 1.719575 0.000000 0.000000 0.055915 -0.087978 -1.150781
    21 1.209183 -0.000001 0.000000 0.009316 -0.033629 -0.339470
    22 3.859861 -0.137948 1.332466 0.537936 -0.132422 -0.946691
    23 1.719428 0.000001 0.000000 0.023476 -0.208311 -0.755744
    24 1.099667 0.000000 0.000000 0.026046 -0.124621 -0.538681
    25 0.806048 -0.348922 1.321258 -1.269164 -0.727275 -0.266407
    26 1.789783 0.000001 0.000001 -0.001067 -0.012843 -0.131867
    27 1.207000 0.000000 0.000001 -0.000100 -0.003217 -0.064874
    28 2.033354 1.000771 -1.937610 -2.173105 1.310587 2.445079
    29 6.028142 0.000004 0.000000 0.894529 0.250110 -0.673579
    30 11.692552 0.000000 0.000002 0.000000 0.000000 -1.832079
    31 11.481699 0.000000 0.000004 -1.092231 -0.405302 0.191625
    32 3.883657 -0.050329 -0.431043 0.047704 -0.153454 -0.767482
    33 1.719576 0.000003 0.000000 -0.053884 0.078890 -1.553283
    34 1.209180 -0.000001 0.000000 -0.013612 0.036967 -0.732282
    35 3.859830 -0.148938 -1.331282 -0.332627 0.218364 0.154975
    36 1.719426 0.000000 0.000000 -0.042633 0.220746 -0.851607
    37 1.099666 0.000000 0.000000 0.008154 0.000000 0.000000
    38 0.806017 -0.359836 -1.318334 0.415058 0.423434 -0.720789
    39 1.789784 0.000000 -0.000001 0.015106 0.038911 0.767156
    40 1.206998 0.000000 0.000000 0.004785 0.022541 0.418309
    41 -0.044717 2.313936 4.661499 -0.049505 0.196172 -0.008533
    42 2.676088 -1.712442 0.000000 1.570797 0.000000 1.570797
    43 2.676088 -1.712443 0.000000 -1.570796 0.000000 -1.570796
  time 18
    0 -25.069274 25.414546 37.160625 1.566979 -0.045614 0.087095
    1 3.890452 -0.000004 -0.000003 -1.869727 -0.252901 -1.428098
    2 17.848175 0.000000 0.000000 0.000000 0.000000 0.501633
    3 16.525249 0.000000 0.000000 0.037053 0.057720 -1.166158
    4 6.879453 0.000000 0.000000 -0.007299 -0.002951 -0.584373
    5 -3.890452 0.000004 0.000007 -1.694630 -0.406493 -1.648339
    6 17.848171 0.000000 0.000000 0.000000 0.000000 1.209885
    7 16.525257 0.000000 0.000000 0.144427 0.230832 -0.984668
    8 6.879454 0.000000 0.000000 -0.081333 -0.002951 -0.584373
    9 0.152353 3.345128 -2.981901 1.760479 0.094844 1.553310
    10 4.018331 0.000000 0.000000 -0.308113 -0.037128 0.058764
    11 3.518561 0.000000 0.000000 0.045191 -0.037775 0.070135
    12 8.942642 0.000000 0.000000 0.025429 -0.012500 0.173967
    13 3.307271 0.000000 0.000000 3.141590 0.000000 0.400478
    14 3.593710 -0.000003 0.000000 0.001943 -0.044708 0.486507
    15 2.033346 1.000767 1.937660 1.802276 -1.395245 2.734682
    16 6.028142 0.000002 0.000000 -1.379637 0.155066 -0.984620
    17 11.692556 0.000000 -0.000001 0.000000 0.000000 -1.716020
    18 11.481671 0.000000 -0.000029 -0.664069 0.244451 0.014352
    19 3.883691 -0.046771 0.431443 0.096615 -0.011011 -0.677044
    20 1.719575 0.000000 0.000000 0.055915 -0.087978 -1.150781
    21 1.209183 -0.000001 0.000000 0.009316 -0.033629 -0.339470
    22 3.859861 -0.137948 1.332466 0.537936 -0.132422 -0.946691
    23 1.719428 0.000001 0.000000 0.023476 -0.208311 -0.755744
    24 1.099667 0.000000 0.000000 0.026046 -0.124621 -0.538681
    25 0.806048 -0.348922 1.321258 -1.269164 -0.727275 -0.266407
    26 1.789783 0.000001 0.000001 -0.001067 -0.012843 -0.131867
    27 1.207000 0.000000 0.000001 -0.000100 -0.003217 -0.064874
    28 2.033354 1.000771 -1.937610 -2.173105 1.310587 2.445079
    29 6.028142 0.000004 0.000000 0.913591 0.237036 -0.664944
    30 11.692552 0.000000 0.000002 0.000000 0.000000 -1.832368
    31 11.481699 0.000000 0.000004 -1.090806 -0.405302 0.189285
    32 3.883657 -0.050329 -0.431043 0.047704 -0.153454 -0.767482
    33 1.719576 0.000003 0.000000 -0.053884 0.078890 -1.553283
    34 1.209180 -0.000001 0.000000 -0.013612 0.036967 -0.732282
    35 3.859830 -0.148938 -1.331282 -0.332627 0.218364 0.154975
    36 1.719426 0.000000 0.000000 -0.042633 0.220746 -0.851607
    37 1.099666 0.000000 0.000000 0.008154 0.000000 0.000000
    38 0.806017 -0.359836 -1.318334 0.415058 0.423434 -0.720789
    39 1.789784 0.000000 -0.000001 0.015106 0.038911 0.767156
    40 1.206998 0.000000 0.000000 0.004785 0.022541 0.418309
    41 -0.044717 2.313936 4.661499 -0.050369 0.193895 -0.021764
    42 2.676088 -1.712442 0.000000 1.570797 0.000000 1.570797
    43 2.676088 -1.712443 0.000000 -1.570796 0.000000 -1.570796
  time 19
    0 -26.387226 26.592236 36.613733 1.553431 -0.054257 0.065349
    1 3.890452 -0.000004 -0.000003 -1.932622 -0.280223 -1.378772
    2 17.848175 0.000000 0.000000 0.000000 0.000000 0.525396
    3 16.525249 0.000000 0.000000 0.057133 0.084487 -1.145555
    4 6.879453 0.000000 0.000000 -0.007299 -0.002951 -0.584373
    5 -3.890452 0.000004 0.000007 -1.760955 -0.334399 -1.690162
    6 17.848171 0.000000 0.000000 0.000000 0.000000 1.194650
    7 16.525257 0.000000 0.000000 0.143117 0.235331 -0.971581
    8 6.879454 0.000000 0.000000 -0.081333 -0.002951 -0.584373
    9 0.179698 3.341221 -2.981901 1.760150 0.094844 1.544742
    10 4.018331 0.000000 0.000000 -0.301057 -0.034911 0.061117
    11 3.518561 0.000000 0.000000 0.052515 -0.035163 0.072153
    12 8.942642 0.000000 0.000000 0.027297 -0.011541 0.173005
    13 3.307271 0.000000 0.000000 3.141590 0.000000 0.400478
    14 3.593710 -0.000003 0.000000 0.014935 -0.040905 0.490512
    15 2.033346 1.000767 1.937660 1.802276 -1.395245 2.734682
    16 6.028142 0.000002 0.000000 -1.374262 0.125219 -0.998452
    17 11.692556 0.000000 -0.000001 0.000000 0.000000 -1.690552
    18 11.481671 0.000000 -0.000029 -0.665216 0.245365 0.004510
    19 3.883691 -0.046771 0.431443 0.096615 -0.011011 -0.677044
    20 1.719575 0.000000 0.000000 0.055915 -0.087978 -1.150781
    21 1.209183 -0.000001 0.000000 0.009316 -0.033629 -0.339470
    22 3.859861 -0.137948 1.332466 0.537936 -0.132422 -0.946691
    23 1.719428 0.000001 0.000000 0.023476 -0.208311 -0.755744
    24 1.099667 0.000000 0.000000 0.026046 -0.124621 -0.538681
    25 0.806048 -0.348922 1.321258 -1.269164 -0.727275 -0.266407
    26 1.789783 0.000001 0.000001 -0.001067 -0.012843 -0.131867
    27 1.207000 0.000000 0.000001 -0.000100 -0.003217 -0.064874
    28 2.033354 1.000771 -1.937610 -2.173105 1.310587 2.445079
    29 6.028142 0.000004 0.000000 0.930833 0.225714 -0.657542
    30 11.692552 0.000000 0.000002 0.000000 0.000000 -1.832657
    31 11.481699 0.000000 0.000004 -1.089575 -0.405302 0.187174
    32 3.883657 -0.050329 -0.431043 0.047704 -0.153454 -0.767482
    33 1.719576 0.000003 0.000000 -0.053884 0.078890 -1.553283
    34 1.209180 -0.000001 0.000000 -0.013612 0.036967 -0.732282
    35 3.859830 -0.148938 -1.331282 -0.332627 0.218364 0.154975
    36 1.719426 0.000000 0.000000 -0.042633 0.220746 -0.851607
    37 1.099666 0.000000 0.000000 0.008154 0.000000 0.000000
    38 0.806017 -0.359836 -1.318334 0.415058 0.423434 -0.720789
    39 1.789784 0.000000 -0.000001 0.015106 0.038911 0.767156
    40 1.206998 0.000000 0.000000 0.004785 0.022541 0.418309
    41 -0.044717 2.313936 4.661499 -0.051188 0.191665 -0.035379
    42 2.676088 -1.712442 0.000000 1.570797 0.000000 1.570797
    43 2.676088 -1.712443 0.000000 -1.570796 0.000000 -1.570796
  time 20
    0 -27.826275 27.825079 36.430133 1.609280 -0.039156 -0.092527
    1 3.890452 -0.000004 -0.000003 -2.214945 -0.352128 -1.201676
    2 17.848175 0.000000 0.000000 0.000000 0.000000 0.527522
    3 16.525249 0.000000 0.000000 0.280256 0.013575 -0.984008
    4 6.879453 0.000000 0.000000 -0.007299 -0.002951 -0.584373
    5 -3.890452 0.000004 0.000007 -1.886322 -0.245839 -1.779851
    6 17.848171 0.000000 0.000000 0.000000 0.000000 0.882294
    7 16.525257 0.000000 0.000000 0.278216 0.140293 -1.275527
    8 6.879454 0.000000 0.000000 -0.081333 -0.002951 -0.584373
    9 0.125009 3.345128 -2.981901 1.760150 0.094878 1.542896
    10 4.018331 0.000000 0.000000 -0.271501 -0.018456 0.054686
    11 3.518561 0.000000 0.000000 0.081081 -0.012440 0.061367
    12 8.942642 0.000000 0.000000 0.032919 0.007047 0.160543
    13 3.307271 0.000000 0.000000 3.141590 0.000000 0.400478
    14 3.593710 -0.000003 0.000000 0.109485 -0.008875 0.462475
    15 2.033346 1.000767 1.937660 1.802276 -1.395245 2.734682
    16 6.028142 0.000002 0.000000 -1.303644 0.045270 -1.034284
    17 11.692556 0.000000 -0.000001 0.000000 0.000000 -1.564948
    18 11.481671 0.000000 -0.000029 -0.678783 0.245738 -0.071337
    19 3.883691 -0.046771 0.431443 0.096615 -0.011011 -0.677044
    20 1.719575 0.000000 0.000000 0.055915 -0.087978 -1.150781
    21 1.209183 -0.000001 0.000000 0.009316 -0.033629 -0.339470
    22 3.859861 -0.137948 1.332466 0.537936 -0.132422 -0.946691
    23 1.719428 0.000001 0.000000 0.023476 -0.208311 -0.755744
    24 1.099667 0.000000 0.000000 0.026046 -0.124621 -0.538681
    25 0.806048 -0.348922 1.321258 -1.269164 -0.727275 -0.266407
    26 1.789783 0.000001 0.000001 -0.001067 -0.012843 -0.131867
    27 1.207000 0.000000 0.000001 -0.000100 -0.003217 -0.064874
    28 2.033354 1.000771 -1.937610 -2.173105 1.310587 2.445079
    29 6.028142 0.000004 0.000000 0.938209 0.176021 -0.605161
    30 11.692552 0.000000 0.000002 0.000000 0.000000 -1.832151
    31 11.481699 0.000000 0.000004 -1.091907 -0.405302 0.191111
    32 3.883657 -0.050329 -0.431043 0.047704 -0.153454 -0.767482
    33 1.719576 0.000003 0.000000 -0.053884 0.078890 -1.553283
    34 1.209180 -0.000001 0.000000 -0.013612 0.036967 -0.732282
    35 3.859830 -0.148938 -1.331282 -0.332627 0.218364 0.154975
    36 1.719426 0.000000 0.000000 -0.042633 0.220746 -0.851607
    37 1.099666 0.000000 0.000000 0.008154 0.000000 0.000000
    38 0.806017 -0.359836 -1.318334 0.415058 0.423434 -0.720789
    39 1.789784 0.000000 -0.000001 0.015106 0.038911 0.767156
    40 1.206998 0.000000 0.000000 0.004785 0.022541 0.418309
    41 -0.044717 2.313936 4.661499 -0.052598 0.188484 -0.046057
    42 2.676088 -1.712442 0.000000 1.570797 0.000000 1.570797
    43 2.676088 -1.712443 0.000000 -1.570796 0.000000 -1.570796
  time 21
    0 -29.882531 29.572680 36.477010 1.616341 -0.028294 -0.094443
    1 3.890452 -0.000004 -0.000003 -2.203373 -0.370343 -1.163645
    2 17.848175 0.000000 0.000000 0.000000 0.000000 0.410531
    3 16.525249 0.000000 0.000000 0.316934 -0.023980 -0.819987
    4 6.879453 0.000000 0.000000 -0.007299 -0.002951 -0.584373
    5 -3.890452 0.000004 0.000007 -1.971626 -0.211680 -1.730475
    6 17.848171 0.000000 0.000000 0.000000 0.000000 0.776359
    7 16.525257 0.000000 0.000000 0.330516 0.086538 -1.391818
    8 6.879454 0.000000 0.000000 -0.081333 -0.002951 -0.584373
    9 0.089851 3.345128 -2.981901 1.759784 0.094878 1.550818
    10 4.018331 0.000000 0.000000 -0.270571 -0.017066 0.055227
    11 3.518561 0.000000 0.000000 0.082310 -0.010942 0.062717
    12 8.942642 0.000000 0.000000 0.034381 0.006963 0.162940
    13 3.307271 0.000000 0.000000 3.141590 0.000000 0.400478
    14 3.593710 -0.000003 0.000000 0.093662 -0.009466 0.466973
    15 2.033346 1.000767 1.937660 1.802276 -1.395245 2.734682
    16 6.028142 0.000002 0.000000 -1.303832 0.036165 -1.032056
    17 11.692556 0.000000 -0.000001 0.000000 0.000000 -1.560847
    18 11.481671 0.000000 -0.000029 -0.682318 0.246444 -0.074183
    19 3.883691 -0.046771 0.431443 0.096615 -0.011011 -0.677044
    20 1.719575 0.000000 0.000000 0.055915 -0.087978 -1.150781
    21 1.209183 -0.000001 0.000000 0.009316 -0.033629 -0.339470
    22 3.859861 -0.137948 1.332466 0.537936 -0.132422 -0.946691
    23 1.719428 0.000001 0.000000 0.023476 -0.208311 -0.755744
    24 1.099667 0.000000 0.000000 0.026046 -0.124621 -0.538681
    25 0.806048 -0.348922 1.321258 -1.269164 -0.727275 -0.266407
    26 1.789783 0.000001 0.000001 -0.001067 -0.012843 -0.131867
    27 1.207000 0.000000 0.000001 -0.000100 -0.003217 -0.064874
    28 2.033354 1.000771 -1.937610 -2.173105 1.310587 2.445079
    29 6.028142 0.000004 0.000000 0.941082 0.180237 -0.604212
    30 11.692552 0.000000 0.000002 0.000000 0.000000 -1.831790
    31 11.481699 0.000000 0.000004 -1.093591 -0.405302 0.193850
    32 3.883657 -0.050329 -0.431043 0.047704 -0.153454 -0.767482
    33 1.719576 0.000003 0.000000 -0.053884 0.078890 -1.553283
    34 1.209180 -0.000001 0.000000 -0.013612 0.036967 -0.732282
    35 3.859830 -0.148938 -1.331282 -0.332627 0.218364 0.154975
    36 1.719426 0.000000 0.000000 -0.042633 0.220746 -0.851607
    37 1.099666 0.000000 0.000000 0.008154 0.000000 0.000000
    38 0.806017 -0.359836 -1.318334 0.415058 0.423434 -0.720789
    39 1.789784 0.000000 -0.000001 0.015106 0.038911 0.767156
    40 1.206998 0.000000 0.000000 0.004785 0.022541 0.418309
    41 -0.044717 2.313936 4.661499 -0.052098 0.189232 -0.034983
    42 2.676088 -1.712442 0.000000 1.570797 0.000000 1.570797
    43 2.676088 -1.712443 0.000000 -1.570796 0.000000 -1.570796
  time 22
    0 -31.942693 31.399947 36.648890 1.620730 -0.012590 -0.087354
    1 3.890452 -0.000004 -0.000003 -2.145513 -0.362332 -1.161704
    2 17.848175 0.000000 0.000000 0.000000 0.000000 0.248823
    3 16.525249 0.000000 0.000000 0.380125 -0.083993 -0.715232
    4 6.879453 0.000000 0.000000 -0.007299 -0.002951 -0.584373
    5 -3.890452 0.000004 0.000007 -1.973638 -0.213787 -1.663538
    6 17.848171 0.000000 0.000000 0.000000 0.000000 0.700421
    7 16.525257 0.000000 0.000000 0.277187 0.105303 -1.414146
    8 6.879454 0.000000 0.000000 -0.081333 -0.002951 -0.584373
    9 0.035162 3.345128 -2.981901 1.759381 0.094878 1.563545
    10 4.018331 0.000000 0.000000 -0.272527 -0.016491 0.055993
    11 3.518561 0.000000 0.000000 0.080707 -0.010019 0.064424
    12 8.942642 0.000000 0.000000 0.035756 0.007478 0.165865
    13 3.307271 0.000000 0.000000 3.141590 0.000000 0.400478
    14 3.593710 -0.000003 0.000000 0.084890 -0.010340 0.472334
    15 2.033346 1.000767 1.937660 1.802276 -1.395245 2.734682
    16 6.028142 0.000002 0.000000 -1.309489 0.036409 -1.027414
    17 11.692556 0.000000 -0.000001 0.000000 0.000000 -1.565499
    18 11.481671 0.000000 -0.000029 -0.685280 0.246320 -0.074380
    19 3.883691 -0.046771 0.431443 0.096615 -0.011011 -0.677044
    20 1.719575 0.000000 0.000000 0.055915 -0.087978 -1.150781
    21 1.209183 -0.000001 0.000000 0.009316 -0.033629 -0.339470
    22 3.859861 -0.137948 1.332466 0.537936 -0.132422 -0.946691
    23 1.719428 0.000001 0.000000 0.023476 -0.208311 -0.755744
    24 1.099667 0.000000 0.000000 0.026046 -0.124621 -0.538681
    25 0.806048 -0.348922 1.321258 -1.269164 -0.727275 -0.266407
    26 1.789783 0.000001 0.000001 -0.001067 -0.012843 -0.131867
    27 1.207000 0.000000 0.000001 -0.000100 -0.003217 -0.064874
    28 2.033354 1.000771 -1.937610 -2.173105 1.310587 2.445079
    29 6.028142 0.000004 0.000000 0.940316 0.189427 -0.606394
    30 11.692552 0.000000 0.000002 0.000000 0.000000 -1.831139
    31 11.481699 0.000000 0.000004 -1.096053 -0.405302 0.197730
    32 3.883657 -0.050329 -0.431043 0.047704 -0.153454 -0.767482
    33 1.719576 0.000003 0.000000 -0.053884 0.078890 -1.553283
    34 1.209180 -0.000001 0.000000 -0.013612 0.036967 -0.732282
    35 3.859830 -0.148938 -1.331282 -0.332627 0.218364 0.154975
    36 1.719426 0.000000 0.000000 -0.042633 0.220746 -0.851607
    37 1.099666 0.000000 0.000000 0.008154 0.000000 0.000000
    38 0.806017 -0.359836 -1.318334 0.415058 0.423434 -0.720789
    39 1.789784 0.000000 -0.000001 0.015106 0.038911 0.767156
    40 1.206998 0.000000 0.000000 0.004785 0.022541 0.418309
    41 -0.044717 2.313936 4.661499 -0.051552 0.190059 -0.018804
    42 2.676088 -1.712442 0.000000 1.570797 0.000000 1.570797
    43 2.676088 -1.712443 0.000000 -1.570796 0.000000 -1.570796
  time 23
    0 -33.881757 33.141420 36.894991 1.620666 -0.005773 -0.072984
    1 3.890452 -0.000004 -0.000003 -2.153817 -0.332387 -1.184205
    2 17.848175 0.000000 0.000000 0.000000 0.000000 0.142840
    3 16.525249 0.000000 0.000000 0.482659 -0.078639 -0.764800
    4 6.879453 0.000000 0.000000 -0.007299 -0.002951 -0.584373
    5 -3.890452 0.000004 0.000007 -1.943830 -0.226284 -1.602739
    6 17.848171 0.000000 0.000000 0.000000 0.000000 0.644612
    7 16.525257 0.000000 0.000000 0.188119 0.156424 -1.391497
    8 6.879454 0.000000 0.000000 -0.081333 -0.002951 -0.584373
    9 0.007818 3.345128 -2.981901 1.758960 0.094878 1.567237
    10 4.018331 0.000000 0.000000 -0.277178 -0.016323 0.056377
    11 3.518561 0.000000 0.000000 0.076341 -0.009480 0.065992
    12 8.942642 0.000000 0.000000 0.036725 0.008126 0.169540
    13 3.307271 0.000000 0.000000 3.141590 0.000000 0.400478
    14 3.593710 -0.000003 0.000000 0.080115 -0.011100 0.477818
    15 2.033346 1.000767 1.937660 1.802276 -1.395245 2.734682
    16 6.028142 0.000002 0.000000 -1.317975 0.045854 -1.022680
    17 11.692556 0.000000 -0.000001 0.000000 0.000000 -1.578273
    18 11.481671 0.000000 -0.000029 -0.684420 0.245116 -0.070309
    19 3.883691 -0.046771 0.431443 0.096615 -0.011011 -0.677044
    20 1.719575 0.000000 0.000000 0.055915 -0.087978 -1.150781
    21 1.209183 -0.000001 0.000000 0.009316 -0.033629 -0.339470
    22 3.859861 -0.137948 1.332466 0.537936 -0.132422 -0.946691
    23 1.719428 0.000001 0.000000 0.023476 -0.208311 -0.755744
    24 1.099667 0.000000 0.000000 0.026046 -0.124621 -0.538681
    25 0.806048 -0.348922 1.321258 -1.269164 -0.727275 -0.266407
    26 1.789783 0.000001 0.000001 -0.001067 -0.012855 -0.131867
    27 1.207000 0.000000 0.000001 -0.000100 -0.003217 -0.064874
    28 2.033354 1.000771 -1.937610 -2.173105 1.310587 2.445079
    29 6.028142 0.000004 0.000000 0.937347 0.200180 -0.609146
    30 11.692552 0.000000 0.000002 0.000000 0.000000 -1.830777
    31 11.481699 0.000000 0.000004 -1.097219 -0.405302 0.199441
    32 3.883657 -0.050329 -0.431043 0.047704 -0.153454 -0.767482
    33 1.719576 0.000003 0.000000 -0.053884 0.078890 -1.553283
    34 1.209180 -0.000001 0.000000 -0.013612 0.036967 -0.732282
    35 3.859830 -0.148938 -1.331282 -0.332627 0.218364 0.154975
    36 1.719426 0.000000 0.000000 -0.042633 0.220746 -0.851607
    37 1.099666 0.000000 0.000000 0.008154 0.000000 0.000000
    38 0.806017 -0.359836 -1.318334 0.415058 0.423434 -0.720789
    39 1.789784 0.000000 -0.000001 0.015106 0.038911 0.767156
    40 1.206998 0.000000 0.000000 0.004785 0.022541 0.418309
    41 -0.044717 2.313936 4.661499 -0.050960 0.190994 -0.011409
    42 2.676088 -1.712442 0.000000 1.570797 0.000000 1.570797
    43 2.676088 -1.712443 0.000000 -1.570796 0.000000 -1.570796
  time 24
    0 -35.641129 34.735820 37.191875 1.617486 -0.007534 -0.052484
    1 3.890452 -0.000004 -0.000003 -2.086063 -0.364287 -1.198764
    2 17.848175 0.000000 0.000000 0.000000 0.000000 0.273421
    3 16.525249 0.000000 0.000000 0.446799 -0.134204 -0.951498
    4 6.879453 0.000000 0.000000 -0.007299 -0.002951 -0.584373
    5 -3.890452 0.000004 0.000007 -1.913447 -0.237949 -1.559122
    6 17.848171 0.000000 0.000000 0.000000 0.000000 0.596066
    7 16.525257 0.000000 0.000000 0.124873 0.196309 -1.349832
    8 6.879454 0.000000 0.000000 -0.081333 -0.002951 -0.584373
    9 0.015630 3.345128 -2.981901 1.758557 0.094878 1.562251
    10 4.018331 0.000000 0.000000 -0.284138 -0.016095 0.055802
    11 3.518561 0.000000 0.000000 0.069462 -0.009012 0.066876
    12 8.942642 0.000000 0.000000 0.037042 0.008341 0.174059
    13 3.307271 0.000000 0.000000 3.141590 0.000000 0.400478
    14 3.593710 -0.000003 0.000000 0.076007 -0.011495 0.482378
    15 2.033346 1.000767 1.937660 1.802276 -1.395245 2.734682
    16 6.028142 0.000002 0.000000 -1.327969 0.064503 -1.018224
    17 11.692556 0.000000 -0.000001 0.000000 0.000000 -1.597985
    18 11.481671 0.000000 -0.000029 -0.680120 0.242957 -0.062918
    19 3.883691 -0.046771 0.431443 0.096615 -0.011011 -0.677044
    20 1.719575 0.000000 0.000000 0.055915 -0.087978 -1.150781
    21 1.209183 -0.000001 0.000000 0.009316 -0.033629 -0.339470
    22 3.859861 -0.137948 1.332466 0.537936 -0.132422 -0.946691
    23 1.719428 0.000001 0.000000 0.023476 -0.208311 -0.755744
    24 1.099667 0.000000 0.000000 0.026046 -0.124621 -0.538681
    25 0.806048 -0.348922 1.321258 -1.269164 -0.727275 -0.266407
    26 1.789783 0.000001 0.000001 -0.001067 -0.012843 -0.131867
    27 1.207000 0.000000 0.000001 -0.000100 -0.003217 -0.064874
    28 2.033354 1.000771 -1.937610 -2.173105 1.310587 2.445079
    29 6.028142 0.000004 0.000000 0.931503 0.211834 -0.612183
    30 11.692552 0.000000 0.000002 0.000000 0.000000 -1.830849
    31 11.481699 0.000000 0.000004 -1.096960 -0.405302 0.199099
    32 3.883657 -0.050329 -0.431043 0.047704 -0.153454 -0.767482
    33 1.719576 0.000003 0.000000 -0.053884 0.078890 -1.553283
    34 1.209180 -0.000001 0.000000 -0.013612 0.036967 -0.732282
    35 3.859830 -0.148938 -1.331282 -0.332627 0.218364 0.154975
    36 1.719426 0.000000 0.000000 -0.042633 0.220746 -0.851607
    37 1.099666 0.000000 0.000000 0.008154 0.000000 0.000000
    38 0.806017 -0.359836 -1.318334 0.415058 0.423434 -0.720789
    39 1.789784 0.000000 -0.000001 0.015106 0.038911 0.767156
    40 1.206998 0.000000 0.000000 0.004785 0.022541 0.418309
    41 -0.044717 2.313936 4.661499 -0.050369 0.192039 -0.012500
    42 2.676088 -1.712442 0.000000 1.570797 0.000000 1.570797
    43 2.676088 -1.712443 0.000000 -1.570796 0.000000 -1.570796
  time 25
    0 -37.232526 36.201530 37.500479 1.613669 -0.010747 -0.026618
    1 3.890452 -0.000004 -0.000003 -2.138888 -0.395376 -1.209264
    2 17.848175 0.000000 0.000000 0.000000 0.000000 0.486526
    3 16.525249 0.000000 0.000000 0.449855 -0.119023 -1.113179
    4 6.879453 0.000000 0.000000 -0.007299 -0.002951 -0.584373
    5 -3.890452 0.000004 0.000007 -1.882393 -0.249956 -1.528439
    6 17.848171 0.000000 0.000000 0.000000 0.000000 0.552887
    7 16.525257 0.000000 0.000000 0.101202 0.212743 -1.312386
    8 6.879454 0.000000 0.000000 -0.081333 -0.002951 -0.584373
    9 0.027350 3.345128 -2.981901 1.758154 0.094861 1.555504
    10 4.018331 0.000000 0.000000 -0.293022 -0.015472 0.054094
    11 3.518561 0.000000 0.000000 0.060410 -0.008437 0.066845
    12 8.942642 0.000000 0.000000 0.036566 0.007706 0.179223
    13 3.307271 0.000000 0.000000 3.141590 0.000000 0.400478
    14 3.593710 -0.000003 0.000000 0.071288 -0.011438 0.485397
    15 2.033346 1.000767 1.937660 1.802276 -1.395245 2.734682
    16 6.028142 0.000002 0.000000 -1.339189 0.091964 -1.013119
    17 11.692556 0.000000 -0.000001 0.000000 0.000000 -1.622980
    18 11.481671 0.000000 -0.000029 -0.674006 0.240175 -0.054381
    19 3.883691 -0.046771 0.431443 0.096615 -0.011011 -0.677044
    20 1.719575 0.000000 0.000000 0.055915 -0.087978 -1.150781
    21 1.209183 -0.000001 0.000000 0.009316 -0.033629 -0.339470
    22 3.859861 -0.137948 1.332466 0.537936 -0.132422 -0.946691
    23 1.719428 0.000001 0.000000 0.023476 -0.208311 -0.755744
    24 1.099667 0.000000 0.000000 0.026046 -0.124621 -0.538681
    25 0.806048 -0.348922 1.321258 -1.269164 -0.727275 -0.266407
    26 1.789783 0.000001 0.000001 -0.001067 -0.012843 -0.131867
    27 1.207000 0.000000 0.000001 -0.000100 -0.003217 -0.064874
    28 2.033354 1.000771 -1.937610 -2.173105 1.310587 2.445079
    29 6.028142 0.000004 0.000000 0.921541 0.224814 -0.616263
    30 11.692552 0.000000 0.000002 0.000000 0.000000 -1.830994
    31 11.481699 0.000000 0.000004 -1.096442 -0.405302 0.198300
    32 3.883657 -0.050329 -0.431043 0.047704 -0.153454 -0.767482
    33 1.719576 0.000003 0.000000 -0.053884 0.078890 -1.553283
    34 1.209180 -0.000001 0.000000 -0.013612 0.036967 -0.732282
    35 3.859830 -0.148938 -1.331282 -0.332627 0.218364 0.154975
    36 1.719426 0.000000 0.000000 -0.042633 0.220746 -0.851607
    37 1.099666 0.000000 0.000000 0.008154 0.000000 0.000000
    38 0.806017 -0.359836 -1.318334 0.415058 0.423434 -0.720789
    39 1.789784 0.000000 -0.000001 0.015106 0.038911 0.767156
    40 1.206998 0.000000 0.000000 0.004785 0.022541 0.418309
    41 -0.044717 2.313936 4.661499 -0.049732 0.193162 -0.015256
    42 2.676088 -1.712442 0.000000 1.570797 0.000000 1.570797
    43 2.676088 -1.712443 0.000000 -1.570796 0.000000 -1.570796
  time 26
    0 -38.695014 37.569190 37.746580 1.610489 -0.009981 0.003367
    1 3.890452 -0.000004 -0.000003 -2.206642 -0.401432 -1.217912
    2 17.848175 0.000000 0.000000 0.000000 0.000000 0.699327
    3 16.525249 0.000000 0.000000 0.461903 -0.070019 -1.184487
    4 6.879453 0.000000 0.000000 -0.007299 -0.002951 -0.584373
    5 -3.890452 0.000004 0.000007 -1.844917 -0.261179 -1.502948
    6 17.848171 0.000000 0.000000 0.000000 0.000000 0.510102
    7 16.525257 0.000000 0.000000 0.101670 0.213559 -1.279000
    8 6.879454 0.000000 0.000000 -0.081333 -0.002951 -0.584373
    9 0.023443 3.345128 -2.981901 1.757806 0.094861 1.552699
    10 4.018331 0.000000 0.000000 -0.303462 -0.014465 0.051671
    11 3.518561 0.000000 0.000000 0.049539 -0.007838 0.066116
    12 8.942642 0.000000 0.000000 0.035315 0.006028 0.184413
    13 3.307271 0.000000 0.000000 3.141590 0.000000 0.400478
    14 3.593710 -0.000003 0.000000 0.067290 -0.011185 0.487123
    15 2.033346 1.000767 1.937660 1.802276 -1.395245 2.734682
    16 6.028142 0.000002 0.000000 -1.351917 0.127167 -1.006806
    17 11.692556 0.000000 -0.000001 0.000000 0.000000 -1.651917
    18 11.481671 0.000000 -0.000029 -0.667604 0.237020 -0.046279
    19 3.883691 -0.046771 0.431443 0.096615 -0.011011 -0.677044
    20 1.719575 0.000000 0.000000 0.055915 -0.087978 -1.150781
    21 1.209183 -0.000001 0.000000 0.009316 -0.033629 -0.339470
    22 3.859861 -0.137948 1.332466 0.537936 -0.132422 -0.946691
    23 1.719428 0.000001 0.000000 0.023476 -0.208311 -0.755744
    24 1.099667 0.000000 0.000000 0.026046 -0.124621 -0.538681
    25 0.806048 -0.348922 1.321258 -1.269164 -0.727275 -0.266407
    26 1.789783 0.000001 0.000001 -0.001067 -0.012843 -0.131867
    27 1.207000 0.000000 0.000001 -0.000100 -0.003217 -0.064874
    28 2.033354 1.000771 -1.937610 -2.173105 1.310587 2.445079
    29 6.028142 0.000004 0.000000 0.907365 0.239830 -0.622336
    30 11.692552 0.000000 0.000002 0.000000 0.000000 -1.830994
    31 11.481699 0.000000 0.000004 -1.096442 -0.405302 0.198357
    32 3.883657 -0.050329 -0.431043 0.047704 -0.153454 -0.767482
    33 1.719576 0.000003 0.000000 -0.053884 0.078890 -1.553283
    34 1.209180 -0.000001 0.000000 -0.013612 0.036967 -0.732282
    35 3.859830 -0.148938 -1.331282 -0.332627 0.218364 0.154975
    36 1.719426 0.000000 0.000000 -0.042633 0.220746 -0.851607
    37 1.099666 0.000000 0.000000 0.008154 0.000000 0.000000
    38 0.806017 -0.359836 -1.318334 0.415058 0.423434 -0.720789
    39 1.789784 0.000000 -0.000001 0.015106 0.038911 0.767156
    40 1.206998 0.000000 0.000000 0.004785 0.022541 0.418309
    41 -0.044717 2.313936 4.661499 -0.049050 0.194363 -0.014010
    42 2.676088 -1.712442 0.000000 1.570797 0.000000 1.570797
    43 2.676088 -1.712443 0.000000 -1.570796 0.000000 -1.570796
  time 27
    0 -40.087187 38.869442 37.863771 1.607054 -0.002577 0.036034
    1 3.890452 -0.000004 -0.000003 -2.302222 -0.370867 -1.211294
    2 17.848175 0.000000 0.000000 0.000000 0.000000 0.883582
    3 16.525249 0.000000 0.000000 0.515534 0.022690 -1.194387
    4 6.879453 0.000000 0.000000 -0.007299 -0.002951 -0.584373
    5 -3.890452 0.000004 0.000007 -1.803511 -0.268629 -1.473964
    6 17.848171 0.000000 0.000000 0.000000 0.000000 0.460609
    7 16.525257 0.000000 0.000000 0.098583 0.216030 -1.245614
    8 6.879454 0.000000 0.000000 -0.081333 -0.002951 -0.584373
    9 0.003911 3.345128 -2.981901 1.757513 0.094861 1.557361
    10 4.018331 0.000000 0.000000 -0.315089 -0.013423 0.049389
    11 3.518561 0.000000 0.000000 0.037351 -0.007586 0.065309
    12 8.942642 0.000000 0.000000 0.033430 0.003248 0.188853
    13 3.307271 0.000000 0.000000 3.141590 0.000000 0.400478
    14 3.593710 -0.000003 0.000000 0.063903 -0.011297 0.488294
    15 2.033346 1.000767 1.937660 1.802276 -1.395245 2.734682
    16 6.028142 0.000002 0.000000 -1.366720 0.168310 -0.999380
    17 11.692556 0.000000 -0.000001 0.000000 0.000000 -1.683692
    18 11.481671 0.000000 -0.000029 -0.662349 0.233782 -0.039362
    19 3.883691 -0.046771 0.431443 0.096615 -0.011011 -0.677044
    20 1.719575 0.000000 0.000000 0.055915 -0.087978 -1.150781
    21 1.209183 -0.000001 0.000000 0.009316 -0.033629 -0.339470
    22 3.859861 -0.137948 1.332466 0.537936 -0.132422 -0.946691
    23 1.719428 0.000001 0.000000 0.023476 -0.208311 -0.755744
    24 1.099667 0.000000 0.000000 0.026046 -0.124621 -0.538681
    25 0.806048 -0.348922 1.321258 -1.269164 -0.727275 -0.266407
    26 1.789783 0.000001 0.000001 -0.001067 -0.012843 -0.131867
    27 1.207000 0.000000 0.000001 -0.000100 -0.003217 -0.064874
    28 2.033354 1.000771 -1.937610 -2.173105 1.310587 2.445079
    29 6.028142 0.000004 0.000000 0.889644 0.257074 -0.631256
    30 11.692552 0.000000 0.000002 0.000000 0.000000 -1.830705
    31 11.481699 0.000000 0.000004 -1.097543 -0.405302 0.199955
    32 3.883657 -0.050329 -0.431043 0.047704 -0.153454 -0.767482
    33 1.719576 0.000003 0.000000 -0.053884 0.078890 -1.553283
    34 1.209180 -0.000001 0.000000 -0.013612 0.036967 -0.732282
    35 3.859830 -0.148938 -1.331282 -0.332627 0.218364 0.154975
    36 1.719426 0.000000 0.000000 -0.042633 0.220746 -0.851607
    37 1.099666 0.000000 0.000000 0.008154 0.000000 0.000000
    38 0.806017 -0.359836 -1.318334 0.415058 0.423434 -0.720789
    39 1.789784 0.000000 -0.000001 0.015106 0.038911 0.767156
    40 1.206998 0.000000 0.000000 0.004785 0.022541 0.418309
    41 -0.044717 2.313936 4.661499 -0.048413 0.195673 -0.005321
    42 2.676088 -1.712442 0.000000 1.570797 0.000000 1.570797
    43 2.676088 -1.712443 0.000000 -1.570796 0.000000 -1.570796
end
