// Created by Crowbar 0.68
version 1
nodes
  0 "ValveBiped.Bip01_Pelvis" -1
  1 "ValveBiped.Bip01_L_Thigh" 0
  2 "ValveBiped.Bip01_L_Calf" 1
  3 "ValveBiped.Bip01_L_Foot" 2
  4 "ValveBiped.Bip01_L_Toe0" 3
  5 "ValveBiped.Bip01_R_Thigh" 0
  6 "ValveBiped.Bip01_R_Calf" 5
  7 "ValveBiped.Bip01_R_Foot" 6
  8 "ValveBiped.Bip01_R_Toe0" 7
  9 "ValveBiped.Bip01_Spine" 0
  10 "ValveBiped.Bip01_Spine1" 9
  11 "ValveBiped.Bip01_Spine2" 10
  12 "ValveBiped.Bip01_Spine4" 11
  13 "ValveBiped.Bip01_Neck1" 12
  14 "ValveBiped.Bip01_Head1" 13
  15 "ValveBiped.Bip01_L_Clavicle" 12
  16 "ValveBiped.Bip01_L_UpperArm" 15
  17 "ValveBiped.Bip01_L_Forearm" 16
  18 "ValveBiped.Bip01_L_Hand" 17
  19 "ValveBiped.Bip01_L_Finger2" 18
  20 "ValveBiped.Bip01_L_Finger21" 19
  21 "ValveBiped.Bip01_L_Finger22" 20
  22 "ValveBiped.Bip01_L_Finger1" 18
  23 "ValveBiped.Bip01_L_Finger11" 22
  24 "ValveBiped.Bip01_L_Finger12" 23
  25 "ValveBiped.Bip01_L_Finger0" 18
  26 "ValveBiped.Bip01_L_Finger01" 25
  27 "ValveBiped.Bip01_L_Finger02" 26
  28 "ValveBiped.Bip01_R_Clavicle" 12
  29 "ValveBiped.Bip01_R_UpperArm" 28
  30 "ValveBiped.Bip01_R_Forearm" 29
  31 "ValveBiped.Bip01_R_Hand" 30
  32 "ValveBiped.Bip01_R_Finger2" 31
  33 "ValveBiped.Bip01_R_Finger21" 32
  34 "ValveBiped.Bip01_R_Finger22" 33
  35 "ValveBiped.Bip01_R_Finger1" 31
  36 "ValveBiped.Bip01_R_Finger11" 35
  37 "ValveBiped.Bip01_R_Finger12" 36
  38 "ValveBiped.Bip01_R_Finger0" 31
  39 "ValveBiped.Bip01_R_Finger01" 38
  40 "ValveBiped.Bip01_R_Finger02" 39
  41 "ValveBiped.Cod" 0
end
skeleton
  time 0
    0 -0.982847 -0.040625 38.031736 1.522541 -0.001525 0.107094
    1 3.890452 -0.000004 -0.000003 -1.693339 -0.322268 -1.511332
    2 17.848177 0.000000 0.000000 0.000000 0.000000 0.947542
    3 15.638507 0.000000 0.000000 0.136569 0.124377 -1.060046
    4 7.109929 0.000000 0.000000 -0.007119 -0.003131 -0.631738
    5 -3.890452 0.000004 0.000007 -1.267989 -0.014135 -1.517842
    6 17.848173 0.000000 0.000000 0.000000 0.000000 0.327771
    7 15.638511 0.000000 0.000000 -0.149188 0.063306 -1.227774
    8 7.109930 0.000000 0.000000 -0.081154 -0.003131 -0.631749
    9 0.003911 3.345128 -2.981901 1.564599 0.068567 1.479535
    10 4.018331 0.000000 0.000000 -0.049253 0.057526 0.070405
    11 3.518565 0.000000 0.000000 -0.048269 0.047471 0.072524
    12 8.942642 0.000000 0.000000 0.018429 -0.009815 0.134744
    13 3.306641 0.000001 0.000000 3.138800 0.000567 0.400476
    14 3.593712 -0.000001 0.000000 -0.024807 -0.009402 0.398739
    15 2.033346 1.000768 1.101697 1.848180 -1.411864 2.688434
    16 6.809416 0.000001 0.000000 -1.365303 -0.142617 -1.061705
    17 12.391796 0.000000 0.000001 0.000000 0.000000 -1.371139
    18 9.337076 0.000000 -0.000031 -0.657573 0.244621 -0.167436
    19 4.454020 -0.070210 0.572073 0.096293 -0.007832 -0.804082
    20 1.426597 -0.000001 0.000000 0.023861 -0.079623 -1.125947
    21 1.322468 -0.000002 0.000000 0.009312 -0.033625 -0.575065
    22 4.477066 -0.028570 1.582474 0.476656 -0.055423 -1.136099
    23 1.344418 0.000000 0.000000 0.023466 -0.208305 -0.755723
    24 1.224671 0.000000 0.000000 0.026043 -0.124620 -0.538676
    25 2.630323 -0.345015 1.907214 -0.354022 -0.915164 -1.788195
    26 1.059292 0.000000 0.000001 0.000551 0.000004 0.000021
    27 0.781203 0.000000 0.000000 -0.000467 0.006940 -0.135953
    28 2.033353 1.000771 -1.101647 -2.221219 1.324324 2.397426
    29 6.809417 0.000001 0.000000 0.846704 0.388621 -0.810939
    30 12.391794 0.000000 0.000001 0.000000 0.000000 -1.631159
    31 9.337102 0.000000 0.000003 -1.013977 -0.300639 0.059131
    32 4.453986 -0.073766 -0.571672 -0.386562 0.126208 -1.146676
    33 1.426599 0.000002 0.000000 -0.051390 0.078806 -1.521754
    34 1.322465 -0.000001 0.000000 -0.034695 0.051519 -1.200268
    35 4.477036 -0.043465 -1.581290 -0.083016 0.164909 0.067468
    36 1.344414 0.000000 0.000000 0.019235 0.146011 -0.515577
    37 1.224670 0.000001 0.000000 -0.155500 0.221926 -1.269081
    38 2.630291 -0.359835 -1.904289 1.070466 0.381356 -0.978487
    39 1.059293 0.000000 0.000000 0.002193 0.017488 0.317162
    40 0.781204 0.000000 0.000000 0.006472 0.026012 0.488050
    41 -0.044717 2.528787 4.661499 -0.025020 -0.040407 -0.080882
  time 1
    0 -1.049256 -2.454706 38.011152 1.524920 -0.013674 0.108816
    1 3.890452 -0.000004 -0.000003 -1.683986 -0.356759 -1.552253
    2 17.848177 0.000000 0.000000 0.000000 0.000000 0.738994
    3 15.638507 0.000000 0.000000 0.114858 0.110244 -1.038283
    4 7.109929 0.000000 0.000000 -0.007119 -0.003131 -0.631738
    5 -3.890452 0.000004 0.000007 -1.279430 0.066114 -1.511410
    6 17.848173 0.000000 0.000000 0.000000 0.000000 0.294383
    7 15.638511 0.000000 0.000000 -0.156322 0.086971 -1.266737
    8 7.109930 0.000000 0.000000 -0.081154 -0.003131 -0.631749
    9 0.042975 3.345128 -2.981901 1.564761 0.068567 1.471260
    10 4.018331 0.000000 0.000000 -0.042178 0.050120 0.071309
    11 3.518565 0.000000 0.000000 -0.040322 0.039429 0.073234
    12 8.942642 0.000000 0.000000 0.018346 -0.011565 0.134181
    13 3.306641 0.000001 0.000000 3.138800 0.000567 0.400476
    14 3.593712 -0.000001 0.000000 -0.033161 -0.021158 0.404573
    15 2.033346 1.000768 1.101697 1.848180 -1.411864 2.688434
    16 6.809416 0.000001 0.000000 -1.354401 -0.167074 -1.049020
    17 12.391796 0.000000 0.000001 0.000000 0.000000 -1.370982
    18 9.337076 0.000000 -0.000031 -0.662837 0.248337 -0.150819
    19 4.454020 -0.070210 0.572073 0.096293 -0.007832 -0.804082
    20 1.426597 -0.000001 0.000000 0.023861 -0.079623 -1.125947
    21 1.322468 -0.000002 0.000000 0.009312 -0.033625 -0.575065
    22 4.477066 -0.028570 1.582474 0.476656 -0.055423 -1.136099
    23 1.344418 0.000000 0.000000 0.023466 -0.208305 -0.755723
    24 1.224671 0.000000 0.000000 0.026043 -0.124620 -0.538676
    25 2.630323 -0.345015 1.907214 -0.354022 -0.915164 -1.788195
    26 1.059292 0.000000 0.000001 0.000551 0.000004 0.000021
    27 0.781203 0.000000 0.000000 -0.000467 0.006940 -0.135953
    28 2.033353 1.000771 -1.101647 -2.221219 1.324324 2.397426
    29 6.809417 0.000001 0.000000 0.862889 0.382533 -0.816530
    30 12.391794 0.000000 0.000001 0.000000 0.000000 -1.631662
    31 9.337102 0.000000 0.000003 -1.012377 -0.300715 0.056713
    32 4.453986 -0.073766 -0.571672 -0.386562 0.126208 -1.146676
    33 1.426599 0.000002 0.000000 -0.051390 0.078806 -1.521754
    34 1.322465 -0.000001 0.000000 -0.034695 0.051519 -1.200268
    35 4.477036 -0.043465 -1.581290 -0.083016 0.164909 0.067468
    36 1.344414 0.000000 0.000000 0.018876 0.146646 -0.518092
    37 1.224670 0.000001 0.000000 -0.154781 0.221699 -1.265804
    38 2.630291 -0.359835 -1.904289 1.070466 0.381356 -0.978487
    39 1.059293 0.000000 0.000000 0.002193 0.017488 0.317162
    40 0.781204 0.000000 0.000000 0.006472 0.026012 0.488050
    41 -0.044717 2.528787 4.661499 -0.024760 -0.060103 -0.093708
  time 2
    0 -1.111758 -4.919575 37.722978 1.528998 -0.019218 0.106041
    1 3.890452 -0.000004 -0.000003 -1.616034 -0.368067 -1.594804
    2 17.848177 0.000000 0.000000 0.000000 0.000000 0.487141
    3 15.638507 0.000000 0.000000 0.055039 0.088854 -1.003798
    4 7.109929 0.000000 0.000000 -0.007119 -0.003131 -0.631738
    5 -3.890452 0.000004 0.000007 -1.286962 0.130174 -1.503558
    6 17.848173 0.000000 0.000000 0.000000 0.000000 0.294465
    7 15.638511 0.000000 0.000000 -0.155674 0.105857 -1.305319
    8 7.109930 0.000000 0.000000 -0.081154 -0.003131 -0.631749
    9 0.058601 3.345128 -2.981901 1.564868 0.068596 1.469250
    10 4.018331 0.000000 0.000000 -0.035917 0.042749 0.071240
    11 3.518565 0.000000 0.000000 -0.033067 0.031651 0.072985
    12 8.942642 0.000000 0.000000 0.018665 -0.012704 0.133653
    13 3.306641 0.000001 0.000000 3.138800 0.000567 0.400476
    14 3.593712 -0.000001 0.000000 -0.038814 -0.031116 0.411413
    15 2.033346 1.000768 1.101697 1.848180 -1.411864 2.688434
    16 6.809416 0.000001 0.000000 -1.344360 -0.188297 -1.036240
    17 12.391796 0.000000 0.000001 0.000000 0.000000 -1.370193
    18 9.337076 0.000000 -0.000031 -0.669172 0.252315 -0.136684
    19 4.454020 -0.070210 0.572073 0.096293 -0.007832 -0.804082
    20 1.426597 -0.000001 0.000000 0.023861 -0.079623 -1.125947
    21 1.322468 -0.000002 0.000000 0.009312 -0.033625 -0.575065
    22 4.477066 -0.028570 1.582474 0.476656 -0.055423 -1.136099
    23 1.344418 0.000000 0.000000 0.023466 -0.208305 -0.755723
    24 1.224671 0.000000 0.000000 0.026043 -0.124620 -0.538676
    25 2.630323 -0.345015 1.907214 -0.354022 -0.915164 -1.788195
    26 1.059292 0.000000 0.000001 0.000551 0.000004 0.000021
    27 0.781203 0.000000 0.000000 -0.000467 0.006940 -0.135953
    28 2.033353 1.000771 -1.101647 -2.221219 1.324324 2.397426
    29 6.809417 0.000001 0.000000 0.876329 0.375875 -0.824273
    30 12.391794 0.000000 0.000001 0.000000 0.000000 -1.631877
    31 9.337102 0.000000 0.000003 -1.011737 -0.300715 0.055591
    32 4.453986 -0.073766 -0.571672 -0.386562 0.126208 -1.146676
    33 1.426599 0.000002 0.000000 -0.051390 0.078806 -1.521754
    34 1.322465 -0.000001 0.000000 -0.034695 0.051519 -1.200268
    35 4.477036 -0.043465 -1.581290 -0.083016 0.164909 0.067468
    36 1.344414 0.000000 0.000000 0.018504 0.147281 -0.520607
    37 1.224670 0.000001 0.000000 -0.154062 0.221483 -1.262527
    38 2.630291 -0.359835 -1.904289 1.070466 0.381356 -0.978487
    39 1.059293 0.000000 0.000000 0.002193 0.017488 0.317162
    40 0.781204 0.000000 0.000000 0.006472 0.026012 0.488050
    41 -0.044717 2.528787 4.661499 -0.024500 -0.072968 -0.098878
  time 3
    0 -1.135196 -7.425073 37.187797 1.533840 -0.015984 0.097331
    1 3.890452 -0.000004 -0.000003 -1.535770 -0.327425 -1.604483
    2 17.848177 0.000000 0.000000 0.000000 0.000000 0.148386
    3 15.638507 0.000000 0.000000 -0.022819 0.083253 -0.964428
    4 7.109929 0.000000 0.000000 -0.007119 -0.003131 -0.631738
    5 -3.890452 0.000004 0.000007 -1.289060 0.204764 -1.488233
    6 17.848173 0.000000 0.000000 0.000000 0.000000 0.278380
    7 15.638511 0.000000 0.000000 -0.142703 0.105675 -1.347244
    8 7.109930 0.000000 0.000000 -0.081154 -0.003131 -0.631749
    9 0.046881 3.345128 -2.981901 1.564976 0.068596 1.476048
    10 4.018331 0.000000 0.000000 -0.030515 0.035367 0.070648
    11 3.518565 0.000000 0.000000 -0.026525 0.024173 0.072063
    12 8.942642 0.000000 0.000000 0.019456 -0.013015 0.132774
    13 3.306641 0.000001 0.000000 3.138800 0.000567 0.400476
    14 3.593712 -0.000001 0.000000 -0.042231 -0.039040 0.418170
    15 2.033346 1.000768 1.101697 1.848180 -1.411864 2.688434
    16 6.809416 0.000001 0.000000 -1.335179 -0.206335 -1.023177
    17 12.391796 0.000000 0.000001 0.000000 0.000000 -1.368459
    18 9.337076 0.000000 -0.000031 -0.676844 0.256458 -0.125837
    19 4.454020 -0.070210 0.572073 0.096293 -0.007832 -0.804082
    20 1.426597 -0.000001 0.000000 0.023861 -0.079623 -1.125947
    21 1.322468 -0.000002 0.000000 0.009312 -0.033625 -0.575065
    22 4.477066 -0.028570 1.582474 0.476656 -0.055423 -1.136099
    23 1.344418 0.000000 0.000000 0.023466 -0.208305 -0.755723
    24 1.224671 0.000000 0.000000 0.026043 -0.124620 -0.538676
    25 2.630323 -0.345015 1.907214 -0.354022 -0.915164 -1.788195
    26 1.059292 0.000000 0.000001 0.000551 0.000004 0.000021
    27 0.781203 0.000000 0.000000 -0.000467 0.006940 -0.135953
    28 2.033353 1.000771 -1.101647 -2.221219 1.324324 2.397426
    29 6.809417 0.000001 0.000000 0.886835 0.369218 -0.833907
    30 12.391794 0.000000 0.000001 0.000000 0.000000 -1.631733
    31 9.337102 0.000000 0.000003 -1.012185 -0.300715 0.056281
    32 4.453986 -0.073766 -0.571672 -0.386562 0.126208 -1.146676
    33 1.426599 0.000002 0.000000 -0.051390 0.078806 -1.521754
    34 1.322465 -0.000001 0.000000 -0.034695 0.051519 -1.200268
    35 4.477036 -0.043465 -1.581290 -0.083016 0.164909 0.067468
    36 1.344414 0.000000 0.000000 0.018145 0.147916 -0.523086
    37 1.224670 0.000001 0.000000 -0.153343 0.221255 -1.259249
    38 2.630291 -0.359835 -1.904289 1.070466 0.381356 -0.978487
    39 1.059293 0.000000 0.000000 0.002193 0.017488 0.317162
    40 0.781204 0.000000 0.000000 0.006472 0.026012 0.488050
    41 -0.044717 2.528787 4.661499 -0.024434 -0.078623 -0.093988
  time 4
    0 -1.100039 -9.961044 36.529112 1.538003 -0.009009 0.083836
    1 3.890452 -0.000004 -0.000003 -1.582630 -0.399530 -1.588479
    2 17.848177 0.000000 0.000000 0.000000 0.000000 0.089574
    3 15.638507 0.000000 0.000000 -0.031143 0.153542 -1.046704
    4 7.109929 0.000000 0.000000 -0.013999 -0.002879 -0.641563
    5 -3.890452 0.000004 0.000007 -1.285914 0.288653 -1.475746
    6 17.848173 0.000000 0.000000 0.000000 0.000000 0.251897
    7 15.638511 0.000000 0.000000 -0.115557 0.076458 -1.385825
    8 7.109930 0.000000 0.000000 -0.081154 -0.003131 -0.631749
    9 0.023443 3.345128 -2.981901 1.565084 0.068596 1.487041
    10 4.018331 0.000000 0.000000 -0.026175 0.027529 0.070092
    11 3.518565 0.000000 0.000000 -0.020884 0.016623 0.070963
    12 8.942642 0.000000 0.000000 0.020608 -0.012236 0.131296
    13 3.306641 0.000001 0.000000 3.138800 0.000567 0.400476
    14 3.593712 -0.000001 0.000000 -0.043961 -0.045357 0.423962
    15 2.033346 1.000768 1.101697 1.848180 -1.411864 2.688434
    16 6.809416 0.000001 0.000000 -1.327337 -0.221137 -1.011155
    17 12.391796 0.000000 0.000001 0.000000 0.000000 -1.366566
    18 9.337076 0.000000 -0.000031 -0.684339 0.260470 -0.117298
    19 4.454020 -0.070210 0.572073 0.096293 -0.007832 -0.804082
    20 1.426597 -0.000001 0.000000 0.023861 -0.079623 -1.125947
    21 1.322468 -0.000002 0.000000 0.009312 -0.033625 -0.575065
    22 4.477066 -0.028570 1.582474 0.476656 -0.055423 -1.136099
    23 1.344418 0.000000 0.000000 0.023466 -0.208305 -0.755723
    24 1.224671 0.000000 0.000000 0.026043 -0.124620 -0.538676
    25 2.630323 -0.345015 1.907214 -0.354022 -0.915164 -1.788195
    26 1.059292 0.000000 0.000001 0.000551 0.000004 0.000021
    27 0.781203 0.000000 0.000000 -0.000467 0.006940 -0.135953
    28 2.033353 1.000771 -1.101647 -2.221219 1.324324 2.397426
    29 6.809417 0.000001 0.000000 0.895164 0.362955 -0.843800
    30 12.391794 0.000000 0.000001 0.000000 0.000000 -1.631446
    31 9.337102 0.000000 0.000003 -1.013081 -0.300677 0.057749
    32 4.453986 -0.073766 -0.571672 -0.386562 0.126208 -1.146676
    33 1.426599 0.000002 0.000000 -0.051390 0.078806 -1.521754
    34 1.322465 -0.000001 0.000000 -0.034695 0.051519 -1.200268
    35 4.477036 -0.043465 -1.581290 -0.083016 0.164909 0.067468
    36 1.344414 0.000000 0.000000 0.017773 0.148552 -0.525600
    37 1.224670 0.000001 0.000000 -0.152624 0.221027 -1.255972
    38 2.630291 -0.359835 -1.904289 1.070466 0.381356 -0.978487
    39 1.059293 0.000000 0.000000 0.002193 0.017488 0.317162
    40 0.781204 0.000000 0.000000 0.006472 0.026012 0.488050
    41 -0.044717 2.528787 4.661499 -0.024500 -0.079353 -0.084169
  time 5
    0 -1.014098 -12.557958 35.849844 1.539957 -0.003003 0.068331
    1 3.890452 -0.000004 -0.000003 -1.594083 -0.462599 -1.578895
    2 17.848177 0.000000 0.000000 0.000000 0.000000 0.089574
    3 15.638507 0.000000 0.000000 -0.079441 0.128891 -1.155809
    4 7.109929 0.000000 0.000000 -0.014346 -0.002915 -0.646176
    5 -3.890452 0.000004 0.000007 -1.278191 0.370181 -1.476124
    6 17.848173 0.000000 0.000000 0.000000 0.000000 0.240281
    7 15.638511 0.000000 0.000000 -0.067565 0.015704 -1.398336
    8 7.109930 0.000000 0.000000 -0.081154 -0.003131 -0.631749
    9 0.003911 3.345128 -2.981901 1.565246 0.068596 1.498508
    10 4.018331 0.000000 0.000000 -0.023259 0.018792 0.069918
    11 3.518565 0.000000 0.000000 -0.016481 0.008581 0.070076
    12 8.942642 0.000000 0.000000 0.021982 -0.010271 0.129185
    13 3.306641 0.000001 0.000000 3.138800 0.000567 0.400476
    14 3.593712 -0.000001 0.000000 -0.044383 -0.050668 0.428830
    15 2.033346 1.000768 1.101697 1.848180 -1.411864 2.688434
    16 6.809416 0.000001 0.000000 -1.321408 -0.232067 -1.000931
    17 12.391796 0.000000 0.000001 0.000000 0.000000 -1.366093
    18 9.337076 0.000000 -0.000031 -0.690495 0.263988 -0.109913
    19 4.454020 -0.070210 0.572073 0.096293 -0.007832 -0.804082
    20 1.426597 -0.000001 0.000000 0.023861 -0.079623 -1.125947
    21 1.322468 -0.000002 0.000000 0.009312 -0.033625 -0.575065
    22 4.477066 -0.028570 1.582474 0.476656 -0.055423 -1.136099
    23 1.344418 0.000000 0.000000 0.023466 -0.208305 -0.755723
    24 1.224671 0.000000 0.000000 0.026043 -0.124620 -0.538676
    25 2.630323 -0.345015 1.907214 -0.354022 -0.915164 -1.788195
    26 1.059292 0.000000 0.000001 0.000551 0.000004 0.000021
    27 0.781203 0.000000 0.000000 -0.000467 0.006940 -0.135953
    28 2.033353 1.000771 -1.101647 -2.221219 1.324324 2.397426
    29 6.809417 0.000001 0.000000 0.901127 0.357786 -0.852575
    30 12.391794 0.000000 0.000001 0.000000 0.000000 -1.631159
    31 9.337102 0.000000 0.000003 -1.013849 -0.300639 0.058958
    32 4.453986 -0.073766 -0.571672 -0.386562 0.126208 -1.146676
    33 1.426599 0.000002 0.000000 -0.051390 0.078806 -1.521754
    34 1.322465 -0.000001 0.000000 -0.034695 0.051519 -1.200268
    35 4.477036 -0.043465 -1.581290 -0.083016 0.164909 0.067468
    36 1.344414 0.000000 0.000000 0.017402 0.149187 -0.528115
    37 1.224670 0.000001 0.000000 -0.151917 0.220800 -1.252695
    38 2.630291 -0.359835 -1.904289 1.070466 0.381356 -0.978487
    39 1.059293 0.000000 0.000000 0.002193 0.017488 0.317162
    40 0.781204 0.000000 0.000000 0.006472 0.026012 0.488050
    41 -0.044717 2.528787 4.661499 -0.024695 -0.076208 -0.073267
  time 6
    0 -0.885188 -15.297076 35.294079 1.538598 -0.001340 0.054070
    1 3.890452 -0.000004 -0.000003 -1.618611 -0.473576 -1.578991
    2 17.848177 0.000000 0.000000 0.000000 0.000000 0.089574
    3 15.638507 0.000000 0.000000 -0.103210 0.076730 -1.156429
    4 7.109929 0.000000 0.000000 -0.013471 -0.002939 -0.644345
    5 -3.890452 0.000004 0.000007 -1.266559 0.428140 -1.497409
    6 17.848173 0.000000 0.000000 0.000000 0.000000 0.288534
    7 15.638511 0.000000 0.000000 -0.005212 -0.063573 -1.404161
    8 7.109930 0.000000 0.000000 -0.081154 -0.003131 -0.631749
    9 0.000005 3.345128 -2.981901 1.565407 0.068596 1.507906
    10 4.018331 0.000000 0.000000 -0.022084 0.009060 0.070387
    11 3.518565 0.000000 0.000000 -0.013713 -0.000132 0.069651
    12 8.942642 0.000000 0.000000 0.023356 -0.007287 0.126617
    13 3.306641 0.000001 0.000000 3.138800 0.000567 0.400476
    14 3.593712 -0.000001 0.000000 -0.043413 -0.055314 0.432523
    15 2.033346 1.000768 1.101697 1.848180 -1.411864 2.688434
    16 6.809416 0.000001 0.000000 -1.318061 -0.238292 -0.992696
    17 12.391796 0.000000 0.000001 0.000000 0.000000 -1.368853
    18 9.337076 0.000000 -0.000031 -0.694510 0.266619 -0.102412
    19 4.454020 -0.070210 0.572073 0.096293 -0.007832 -0.804082
    20 1.426597 -0.000001 0.000000 0.023861 -0.079623 -1.125947
    21 1.322468 -0.000002 0.000000 0.009312 -0.033625 -0.575065
    22 4.477066 -0.028570 1.582474 0.476656 -0.055423 -1.136099
    23 1.344418 0.000000 0.000000 0.023466 -0.208305 -0.755723
    24 1.224671 0.000000 0.000000 0.026043 -0.124620 -0.538676
    25 2.630323 -0.345015 1.907214 -0.354022 -0.915164 -1.788195
    26 1.059292 0.000000 0.000001 0.000551 0.000004 0.000021
    27 0.781203 0.000000 0.000000 -0.000467 0.006940 -0.135953
    28 2.033353 1.000771 -1.101647 -2.221219 1.324324 2.397426
    29 6.809417 0.000001 0.000000 0.904818 0.354370 -0.859457
    30 12.391794 0.000000 0.000001 0.000000 0.000000 -1.631159
    31 9.337102 0.000000 0.000003 -1.014041 -0.300639 0.059217
    32 4.453986 -0.073766 -0.571672 -0.386562 0.126208 -1.146676
    33 1.426599 0.000002 0.000000 -0.051390 0.078806 -1.521754
    34 1.322465 -0.000001 0.000000 -0.034695 0.051519 -1.200268
    35 4.477036 -0.043465 -1.581290 -0.083016 0.164909 0.067468
    36 1.344414 0.000000 0.000000 0.017018 0.149810 -0.530630
    37 1.224670 0.000001 0.000000 -0.151198 0.220572 -1.249450
    38 2.630291 -0.359835 -1.904289 1.070466 0.381356 -0.978487
    39 1.059293 0.000000 0.000000 0.002193 0.017488 0.317162
    40 0.781204 0.000000 0.000000 0.006472 0.026012 0.488050
    41 -0.044717 2.528787 4.661499 -0.024890 -0.070236 -0.064169
  time 7
    0 -0.728933 -18.168240 34.954445 1.533670 -0.011827 0.043734
    1 3.890452 -0.000004 -0.000003 -1.672343 -0.472014 -1.586849
    2 17.848177 0.000000 0.000000 0.000000 0.000000 0.153799
    3 15.638507 0.000000 0.000000 -0.092069 0.089823 -1.091287
    4 7.109929 0.000000 0.000000 -0.007119 -0.003131 -0.631738
    5 -3.890452 0.000004 0.000007 -1.290013 0.439260 -1.539033
    6 17.848173 0.000000 0.000000 0.000000 0.000000 0.425903
    7 15.638511 0.000000 0.000000 0.048524 -0.080502 -1.386398
    8 7.109930 0.000000 0.000000 -0.081154 -0.003131 -0.631749
    9 0.035162 3.345128 -2.981901 1.565623 0.068567 1.507197
    10 4.018331 0.000000 0.000000 -0.022920 -0.001163 0.071466
    11 3.518565 0.000000 0.000000 -0.012874 -0.009168 0.069828
    12 8.942642 0.000000 0.000000 0.024646 -0.003727 0.123978
    13 3.306641 0.000001 0.000000 3.138800 0.000567 0.400476
    14 3.593712 -0.000001 0.000000 -0.040459 -0.058805 0.434328
    15 2.033346 1.000768 1.101697 1.848180 -1.411864 2.688434
    16 6.809416 0.000001 0.000000 -1.317392 -0.239468 -0.988057
    17 12.391796 0.000000 0.000001 0.000000 0.000000 -1.375949
    18 9.337076 0.000000 -0.000031 -0.694421 0.267934 -0.093239
    19 4.454020 -0.070210 0.572073 0.096293 -0.007832 -0.804082
    20 1.426597 -0.000001 0.000000 0.023861 -0.079623 -1.125947
    21 1.322468 -0.000002 0.000000 0.009312 -0.033625 -0.575065
    22 4.477066 -0.028570 1.582474 0.476656 -0.055423 -1.136099
    23 1.344418 0.000000 0.000000 0.023466 -0.208305 -0.755723
    24 1.224671 0.000000 0.000000 0.026043 -0.124620 -0.538676
    25 2.630323 -0.345015 1.907214 -0.354022 -0.915164 -1.788195
    26 1.059292 0.000000 0.000001 0.000551 0.000004 0.000021
    27 0.781203 0.000000 0.000000 -0.000467 0.006940 -0.135953
    28 2.033353 1.000771 -1.101647 -2.221219 1.324324 2.397426
    29 6.809417 0.000001 0.000000 0.906427 0.352574 -0.862381
    30 12.391794 0.000000 0.000001 0.000000 0.000000 -1.631590
    31 9.337102 0.000000 0.000003 -1.012633 -0.300715 0.056972
    32 4.453986 -0.073766 -0.571672 -0.386562 0.126208 -1.146676
    33 1.426599 0.000002 0.000000 -0.051390 0.078806 -1.521754
    34 1.322465 -0.000001 0.000000 -0.034695 0.051519 -1.200268
    35 4.477036 -0.043465 -1.581290 -0.083016 0.164909 0.067468
    36 1.344414 0.000000 0.000000 0.016647 0.150445 -0.533144
    37 1.224670 0.000001 0.000000 -0.150478 0.220332 -1.246173
    38 2.630291 -0.359835 -1.904289 1.070466 0.381356 -0.978487
    39 1.059293 0.000000 0.000000 0.002193 0.017488 0.317162
    40 0.781204 0.000000 0.000000 0.006472 0.026012 0.488050
    41 -0.044717 2.528787 4.661499 -0.025085 -0.062676 -0.065090
  time 8
    0 -0.553147 -21.100349 34.830941 1.526194 -0.035433 0.038757
    1 3.890452 -0.000004 -0.000003 -1.711950 -0.531014 -1.591641
    2 17.848177 0.000000 0.000000 0.000000 0.000000 0.391096
    3 15.638507 0.000000 0.000000 -0.056653 0.120808 -1.032815
    4 7.109929 0.000000 0.000000 -0.007119 -0.003131 -0.631738
    5 -3.890452 0.000004 0.000007 -1.202394 0.401079 -1.638267
    6 17.848173 0.000000 0.000000 0.000000 0.000000 0.662460
    7 15.638511 0.000000 0.000000 -0.031432 -0.127468 -1.270080
    8 7.109930 0.000000 0.000000 -0.081154 -0.003131 -0.631749
    9 0.117196 3.345128 -2.981901 1.565731 0.068539 1.494430
    10 4.018331 0.000000 0.000000 -0.025678 -0.010798 0.072857
    11 3.518565 0.000000 0.000000 -0.014049 -0.017641 0.070467
    12 8.942642 0.000000 0.000000 0.025798 -0.000228 0.121779
    13 3.306641 0.000001 0.000000 3.138800 0.000567 0.400476
    14 3.593712 -0.000001 0.000000 -0.034933 -0.060197 0.432985
    15 2.033346 1.000768 1.101697 1.848180 -1.411864 2.688434
    16 6.809416 0.000001 0.000000 -1.319209 -0.235645 -0.987679
    17 12.391796 0.000000 0.000001 0.000000 0.000000 -1.386909
    18 9.337076 0.000000 -0.000031 -0.690049 0.267802 -0.082623
    19 4.454020 -0.070210 0.572073 0.096293 -0.007832 -0.804082
    20 1.426597 -0.000001 0.000000 0.023861 -0.079623 -1.125947
    21 1.322468 -0.000002 0.000000 0.009312 -0.033625 -0.575065
    22 4.477066 -0.028570 1.582474 0.476656 -0.055423 -1.136099
    23 1.344418 0.000000 0.000000 0.023466 -0.208305 -0.755723
    24 1.224671 0.000000 0.000000 0.026043 -0.124620 -0.538676
    25 2.630323 -0.345015 1.907214 -0.354022 -0.915164 -1.788195
    26 1.059292 0.000000 0.000001 0.000551 0.000004 0.000021
    27 0.781203 0.000000 0.000000 -0.000467 0.006940 -0.135953
    28 2.033353 1.000771 -1.101647 -2.221219 1.324324 2.397426
    29 6.809417 0.000001 0.000000 0.906048 0.352355 -0.860919
    30 12.391794 0.000000 0.000001 0.000000 0.000000 -1.632452
    31 9.337102 0.000000 0.000003 -1.009496 -0.300791 0.051964
    32 4.453986 -0.073766 -0.571672 -0.386562 0.126208 -1.146676
    33 1.426599 0.000002 0.000000 -0.051390 0.078806 -1.521754
    34 1.322465 -0.000001 0.000000 -0.034695 0.051519 -1.200268
    35 4.477036 -0.043465 -1.581290 -0.083016 0.164909 0.067468
    36 1.344414 0.000000 0.000000 0.016275 0.151068 -0.535623
    37 1.224670 0.000001 0.000000 -0.149771 0.220105 -1.242896
    38 2.630291 -0.359835 -1.904289 1.070466 0.381356 -0.978487
    39 1.059293 0.000000 0.000000 0.002193 0.017488 0.317162
    40 0.781204 0.000000 0.000000 0.006472 0.026012 0.488050
    41 -0.044717 2.528787 4.661499 -0.025215 -0.054607 -0.078117
  time 9
    0 -0.369547 -23.961355 34.913277 1.517698 -0.064538 0.038374
    1 3.890452 -0.000004 -0.000003 -1.766064 -0.509155 -1.605537
    2 17.848177 0.000000 0.000000 0.000000 0.000000 0.486409
    3 15.638507 0.000000 0.000000 0.010793 0.149950 -0.962350
    4 7.109929 0.000000 0.000000 -0.007119 -0.003131 -0.631738
    5 -3.890452 0.000004 0.000007 -1.167499 0.299183 -1.742516
    6 17.848173 0.000000 0.000000 0.000000 0.000000 0.860836
    7 15.638511 0.000000 0.000000 -0.154469 -0.070854 -0.883212
    8 7.109930 0.000000 0.000000 -0.081154 -0.003131 -0.631749
    9 0.214855 3.341221 -2.981901 1.565838 0.068482 1.475516
    10 4.018331 0.000000 0.000000 -0.030017 -0.018516 0.074109
    11 3.518565 0.000000 0.000000 -0.017110 -0.024413 0.071318
    12 8.942642 0.000000 0.000000 0.026784 0.002637 0.120601
    13 3.306641 0.000001 0.000000 3.138800 0.000567 0.400476
    14 3.593712 -0.000001 0.000000 -0.026199 -0.058698 0.427571
    15 2.033346 1.000768 1.101697 1.848180 -1.411864 2.688434
    16 6.809416 0.000001 0.000000 -1.323416 -0.227067 -0.990802
    17 12.391796 0.000000 0.000001 0.000000 0.000000 -1.399840
    18 9.337076 0.000000 -0.000031 -0.682554 0.266388 -0.072930
    19 4.454020 -0.070210 0.572073 0.096293 -0.007832 -0.804082
    20 1.426597 -0.000001 0.000000 0.023861 -0.079623 -1.125947
    21 1.322468 -0.000002 0.000000 0.009312 -0.033625 -0.575065
    22 4.477066 -0.028570 1.582474 0.476656 -0.055423 -1.136099
    23 1.344418 0.000000 0.000000 0.023466 -0.208305 -0.755723
    24 1.224671 0.000000 0.000000 0.026043 -0.124620 -0.538676
    25 2.630323 -0.345015 1.907214 -0.354022 -0.915164 -1.788195
    26 1.059292 0.000000 0.000001 0.000551 0.000004 0.000021
    27 0.781203 0.000000 0.000000 -0.000467 0.006940 -0.135953
    28 2.033353 1.000771 -1.101647 -2.221219 1.324324 2.397426
    29 6.809417 0.000001 0.000000 0.903304 0.353888 -0.856446
    30 12.391794 0.000000 0.000001 0.000000 0.000000 -1.633242
    31 9.337102 0.000000 0.000003 -1.005848 -0.300943 0.045575
    32 4.453986 -0.073766 -0.571672 -0.386562 0.126208 -1.146647
    33 1.426599 0.000002 0.000000 -0.051390 0.078806 -1.521754
    34 1.322465 -0.000001 0.000000 -0.034695 0.051519 -1.200268
    35 4.477036 -0.043465 -1.581290 -0.083016 0.164909 0.067468
    36 1.344414 0.000000 0.000000 0.015892 0.151703 -0.538138
    37 1.224670 0.000001 0.000000 -0.149052 0.219865 -1.239619
    38 2.630291 -0.359835 -1.904289 1.070466 0.381356 -0.978487
    39 1.059293 0.000000 0.000000 0.002193 0.017488 0.317162
    40 0.781204 0.000000 0.000000 0.006472 0.026012 0.488050
    41 -0.044717 2.528787 4.661499 -0.025280 -0.047015 -0.097275
  time 10
    0 -0.197667 -26.670001 35.201451 1.510307 -0.088330 0.039810
    1 3.890452 -0.000004 -0.000003 -1.797463 -0.449635 -1.623842
    2 17.848177 0.000000 0.000000 0.000000 0.000000 0.527373
    3 15.638507 0.000000 0.000000 0.062825 0.157891 -0.969568
    4 7.109929 0.000000 0.000000 -0.007119 -0.003131 -0.631738
    5 -3.890452 0.000004 0.000007 -1.190953 0.197876 -1.797384
    6 17.848173 0.000000 0.000000 0.000000 0.000000 1.011853
    7 15.638511 0.000000 0.000000 -0.187174 -0.018428 -0.756006
    8 7.109930 0.000000 0.000000 -0.081154 -0.003131 -0.631749
    9 0.292983 3.333409 -2.981901 1.565892 0.068454 1.459971
    10 4.018331 0.000000 0.000000 -0.035487 -0.023226 0.074718
    11 3.518565 0.000000 0.000000 -0.021681 -0.028487 0.071992
    12 8.942642 0.000000 0.000000 0.027575 0.004506 0.120812
    13 3.306641 0.000001 0.000000 3.138800 0.000567 0.400476
    14 3.593712 -0.000001 0.000000 -0.014344 -0.054436 0.418338
    15 2.033346 1.000768 1.101697 1.848180 -1.411864 2.688434
    16 6.809416 0.000001 0.000000 -1.330015 -0.214275 -0.995725
    17 12.391796 0.000000 0.000001 0.000000 0.000000 -1.412850
    18 9.337076 0.000000 -0.000031 -0.674525 0.264120 -0.066814
    19 4.454020 -0.070210 0.572073 0.096293 -0.007832 -0.804082
    20 1.426597 -0.000001 0.000000 0.023861 -0.079623 -1.125947
    21 1.322468 -0.000002 0.000000 0.009312 -0.033625 -0.575065
    22 4.477066 -0.028570 1.582474 0.476656 -0.055423 -1.136099
    23 1.344418 0.000000 0.000000 0.023466 -0.208305 -0.755723
    24 1.224671 0.000000 0.000000 0.026043 -0.124620 -0.538676
    25 2.630323 -0.345015 1.907214 -0.354022 -0.915164 -1.788195
    26 1.059292 0.000000 0.000001 0.000551 0.000004 0.000021
    27 0.781203 0.000000 0.000000 -0.000467 0.006940 -0.135953
    28 2.033353 1.000771 -1.101647 -2.221219 1.324324 2.397426
    29 6.809417 0.000001 0.000000 0.897719 0.357480 -0.851370
    30 12.391794 0.000000 0.000001 0.000000 0.000000 -1.633601
    31 9.337102 0.000000 0.000003 -1.002968 -0.301019 0.040221
    32 4.453986 -0.073766 -0.571672 -0.386562 0.126208 -1.146676
    33 1.426599 0.000002 0.000000 -0.051390 0.078806 -1.521754
    34 1.322465 -0.000001 0.000000 -0.034695 0.051519 -1.200268
    35 4.477036 -0.043465 -1.581290 -0.083016 0.164909 0.067468
    36 1.344414 0.000000 0.000000 0.015508 0.152327 -0.540653
    37 1.224670 0.000001 0.000000 -0.148345 0.219625 -1.236374
    38 2.630291 -0.359835 -1.904289 1.070466 0.381356 -0.978487
    39 1.059293 0.000000 0.000000 0.002193 0.017488 0.317162
    40 0.781204 0.000000 0.000000 0.006472 0.026012 0.488050
    41 -0.044717 2.528787 4.661499 -0.025215 -0.040852 -0.113267
  time 11
    0 -0.072663 -29.205972 35.695465 1.505125 -0.100248 0.040384
    1 3.890452 -0.000004 -0.000003 -1.790210 -0.365086 -1.642050
    2 17.848177 0.000000 0.000000 0.000000 0.000000 0.521813
    3 15.638507 0.000000 0.000000 0.070516 0.153022 -1.025561
    4 7.109929 0.000000 0.000000 -0.007119 -0.003131 -0.631738
    5 -3.890452 0.000004 0.000007 -1.213168 0.076397 -1.822169
    6 17.848173 0.000000 0.000000 0.000000 0.000000 1.161488
    7 15.638511 0.000000 0.000000 -0.220157 -0.009417 -0.803947
    8 7.109930 0.000000 0.000000 -0.081154 -0.003131 -0.631749
    9 0.332046 3.329502 -2.981901 1.565892 0.068426 1.453410
    10 4.018331 0.000000 0.000000 -0.041613 -0.024413 0.074336
    11 3.518565 0.000000 0.000000 -0.027468 -0.029350 0.072205
    12 8.942642 0.000000 0.000000 0.028130 0.005345 0.122588
    13 3.306641 0.000001 0.000000 3.138800 0.000567 0.400476
    14 3.593712 -0.000001 0.000000 -0.000338 -0.048076 0.406839
    15 2.033346 1.000768 1.101697 1.848180 -1.411864 2.688434
    16 6.809416 0.000001 0.000000 -1.338526 -0.197757 -1.001310
    17 12.391796 0.000000 0.000001 0.000000 0.000000 -1.424598
    18 9.337076 0.000000 -0.000031 -0.667476 0.261358 -0.065775
    19 4.454020 -0.070210 0.572073 0.096293 -0.007832 -0.804082
    20 1.426597 -0.000001 0.000000 0.023861 -0.079623 -1.125947
    21 1.322468 -0.000002 0.000000 0.009312 -0.033625 -0.575065
    22 4.477066 -0.028570 1.582474 0.476656 -0.055423 -1.136099
    23 1.344418 0.000000 0.000000 0.023466 -0.208305 -0.755723
    24 1.224671 0.000000 0.000000 0.026043 -0.124620 -0.538676
    25 2.630323 -0.345015 1.907214 -0.354022 -0.915164 -1.788195
    26 1.059292 0.000000 0.000001 0.000551 0.000004 0.000021
    27 0.781203 0.000000 0.000000 -0.000467 0.006940 -0.135953
    28 2.033353 1.000771 -1.101647 -2.221219 1.324324 2.397426
    29 6.809417 0.000001 0.000000 0.889201 0.362867 -0.846897
    30 12.391794 0.000000 0.000001 0.000000 0.000000 -1.633673
    31 9.337102 0.000000 0.000003 -1.001560 -0.301057 0.037458
    32 4.453986 -0.073766 -0.571672 -0.386562 0.126208 -1.146676
    33 1.426599 0.000002 0.000000 -0.051390 0.078806 -1.521754
    34 1.322465 -0.000001 0.000000 -0.034695 0.051519 -1.200268
    35 4.477036 -0.043465 -1.581290 -0.083016 0.164909 0.067468
    36 1.344414 0.000000 0.000000 0.015137 0.152962 -0.543167
    37 1.224670 0.000001 0.000000 -0.147626 0.219374 -1.233097
    38 2.630291 -0.359835 -1.904289 1.070466 0.381356 -0.978487
    39 1.059293 0.000000 0.000000 0.002193 0.017488 0.317162
    40 0.781204 0.000000 0.000000 0.006472 0.026012 0.488050
    41 -0.044717 2.528787 4.661499 -0.024955 -0.034912 -0.120161
  time 12
    0 0.009370 -31.650525 36.354149 1.502406 -0.098770 0.039522
    1 3.890452 -0.000004 -0.000003 -1.744208 -0.259625 -1.657192
    2 17.848177 0.000000 0.000000 0.000000 0.000000 0.464318
    3 15.638507 0.000000 0.000000 0.052634 0.117358 -1.078090
    4 7.109929 0.000000 0.000000 -0.007119 -0.003131 -0.631738
    5 -3.890452 0.000004 0.000007 -1.219365 -0.047985 -1.822547
    6 17.848173 0.000000 0.000000 0.000000 0.000000 1.257183
    7 15.638511 0.000000 0.000000 -0.226828 -0.015288 -0.922844
    8 7.109930 0.000000 0.000000 -0.081154 -0.003131 -0.631749
    9 0.328140 3.329502 -2.981901 1.565946 0.068426 1.457252
    10 4.018331 0.000000 0.000000 -0.048123 -0.022279 0.072805
    11 3.518565 0.000000 0.000000 -0.034157 -0.027157 0.071779
    12 8.942642 0.000000 0.000000 0.028449 0.005345 0.125755
    13 3.306641 0.000001 0.000000 3.138800 0.000567 0.400476
    14 3.593712 -0.000001 0.000000 0.014344 -0.040110 0.395382
    15 2.033346 1.000768 1.101697 1.848180 -1.411864 2.688434
    16 6.809416 0.000001 0.000000 -1.348281 -0.177956 -1.007179
    17 12.391796 0.000000 0.000001 0.000000 0.000000 -1.434454
    18 9.337076 0.000000 -0.000031 -0.662212 0.258267 -0.069987
    19 4.454020 -0.070210 0.572073 0.096293 -0.007832 -0.804082
    20 1.426597 -0.000001 0.000000 0.023861 -0.079623 -1.125947
    21 1.322468 -0.000002 0.000000 0.009312 -0.033625 -0.575065
    22 4.477066 -0.028570 1.582474 0.476656 -0.055423 -1.136099
    23 1.344418 0.000000 0.000000 0.023466 -0.208305 -0.755723
    24 1.224671 0.000000 0.000000 0.026043 -0.124620 -0.538676
    25 2.630323 -0.345015 1.907214 -0.354022 -0.915164 -1.788195
    26 1.059292 0.000000 0.000001 0.000551 0.000004 0.000021
    27 0.781203 0.000000 0.000000 -0.000467 0.006940 -0.135953
    28 2.033353 1.000771 -1.101647 -2.221219 1.324324 2.397426
    29 6.809417 0.000001 0.000000 0.877748 0.369612 -0.843628
    30 12.391794 0.000000 0.000001 0.000000 0.000000 -1.633673
    31 9.337102 0.000000 0.000003 -1.001752 -0.301057 0.037803
    32 4.453986 -0.073766 -0.571672 -0.386562 0.126208 -1.146676
    33 1.426599 0.000002 0.000000 -0.051390 0.078806 -1.521754
    34 1.322465 -0.000001 0.000000 -0.034695 0.051519 -1.200268
    35 4.477036 -0.043465 -1.581290 -0.083016 0.164909 0.067468
    36 1.344414 0.000000 0.000000 0.014741 0.153585 -0.545682
    37 1.224670 0.000001 0.000000 -0.146919 0.219134 -1.229819
    38 2.630291 -0.359835 -1.904289 1.070466 0.381356 -0.978487
    39 1.059293 0.000000 0.000000 0.002193 0.017488 0.317162
    40 0.781204 0.000000 0.000000 0.006472 0.026012 0.488050
    41 -0.044717 2.528787 4.661499 -0.024500 -0.027796 -0.116113
  time 13
    0 -0.033600 -34.074765 37.043710 1.501727 -0.088145 0.038278
    1 3.890452 -0.000004 -0.000003 -1.694008 -0.133771 -1.663038
    2 17.848177 0.000000 0.000000 0.000000 0.000000 0.353863
    3 15.638507 0.000000 0.000000 0.030384 0.073728 -1.097702
    4 7.109929 0.000000 0.000000 -0.007119 -0.003131 -0.631738
    5 -3.890452 0.000004 0.000007 -1.207638 -0.158640 -1.807411
    6 17.848173 0.000000 0.000000 0.000000 0.000000 1.267337
    7 15.638511 0.000000 0.000000 -0.212467 -0.009827 -1.032000
    8 7.109930 0.000000 0.000000 -0.081154 -0.003131 -0.631749
    9 0.292983 3.333409 -2.981901 1.565946 0.068454 1.467773
    10 4.018331 0.000000 0.000000 -0.054859 -0.017593 0.070213
    11 3.518565 0.000000 0.000000 -0.041475 -0.022543 0.070644
    12 8.942642 0.000000 0.000000 0.028532 0.004830 0.129941
    13 3.306641 0.000001 0.000000 3.138800 0.000567 0.400476
    14 3.593712 -0.000001 0.000000 0.028014 -0.030923 0.386023
    15 2.033346 1.000768 1.101697 1.848180 -1.411864 2.688434
    16 6.809416 0.000001 0.000000 -1.358800 -0.155507 -1.013900
    17 12.391796 0.000000 0.000001 0.000000 0.000000 -1.442260
    18 9.337076 0.000000 -0.000031 -0.658198 0.254979 -0.078642
    19 4.454020 -0.070210 0.572073 0.096293 -0.007832 -0.804082
    20 1.426597 -0.000001 0.000000 0.023861 -0.079623 -1.125947
    21 1.322468 -0.000002 0.000000 0.009312 -0.033625 -0.575065
    22 4.477066 -0.028570 1.582474 0.476656 -0.055423 -1.136099
    23 1.344418 0.000000 0.000000 0.023466 -0.208305 -0.755723
    24 1.224671 0.000000 0.000000 0.026043 -0.124620 -0.538676
    25 2.630323 -0.345015 1.907214 -0.354022 -0.915164 -1.788195
    26 1.059292 0.000000 0.000001 0.000551 0.000004 0.000021
    27 0.781203 0.000000 0.000000 -0.000467 0.006940 -0.135953
    28 2.033353 1.000771 -1.101647 -2.221219 1.324324 2.397426
    29 6.809417 0.000001 0.000000 0.863930 0.376795 -0.841047
    30 12.391794 0.000000 0.000001 0.000000 0.000000 -1.633601
    31 9.337102 0.000000 0.000003 -1.002968 -0.301019 0.040221
    32 4.453986 -0.073766 -0.571672 -0.386562 0.126208 -1.146676
    33 1.426599 0.000002 0.000000 -0.051390 0.078806 -1.521754
    34 1.322465 -0.000001 0.000000 -0.034695 0.051519 -1.200268
    35 4.477036 -0.043465 -1.581290 -0.083016 0.164909 0.067468
    36 1.344414 0.000000 0.000000 0.014358 0.154208 -0.548197
    37 1.224670 0.000001 0.000000 -0.146212 0.218882 -1.226542
    38 2.630291 -0.359835 -1.904289 1.070466 0.381356 -0.978487
    39 1.059293 0.000000 0.000000 0.002193 0.017488 0.317162
    40 0.781204 0.000000 0.000000 0.006472 0.026012 0.488050
    41 -0.044717 2.528787 4.661499 -0.023979 -0.020045 -0.104890
  time 14
    0 -0.025787 -36.509161 37.578891 1.509373 -0.085835 0.052730
    1 3.890452 -0.000004 -0.000003 -1.634454 0.019382 -1.670705
    2 17.848177 0.000000 0.000000 0.000000 0.000000 0.128270
    3 15.638507 0.000000 0.000000 0.034277 0.046454 -1.016302
    4 7.109929 0.000000 0.000000 -0.007119 -0.003131 -0.631738
    5 -3.890452 0.000004 0.000007 -1.167880 -0.239233 -1.800222
    6 17.848173 0.000000 0.000000 0.000000 0.000000 1.206898
    7 15.638511 0.000000 0.000000 -0.231275 -0.018201 -1.059790
    8 7.109930 0.000000 0.000000 -0.081154 -0.003131 -0.631749
    9 0.285170 3.333409 -2.981901 1.566647 0.068482 1.474334
    10 4.018331 0.000000 0.000000 -0.063335 -0.014957 0.062421
    11 3.518565 0.000000 0.000000 -0.049820 -0.019079 0.067664
    12 8.942642 0.000000 0.000000 0.030544 0.005825 0.144313
    13 3.306641 0.000001 0.000000 3.138800 0.000567 0.400476
    14 3.593712 -0.000001 0.000000 0.035861 -0.011501 0.366760
    15 2.033346 1.000768 1.101697 1.848180 -1.411864 2.688434
    16 6.809416 0.000001 0.000000 -1.370085 -0.135804 -1.027153
    17 12.391796 0.000000 0.000001 0.000000 0.000000 -1.444310
    18 9.337076 0.000000 -0.000031 -0.651060 0.250934 -0.092027
    19 4.454020 -0.070210 0.572073 0.096293 -0.007832 -0.804082
    20 1.426597 -0.000001 0.000000 0.023861 -0.079623 -1.125947
    21 1.322468 -0.000002 0.000000 0.009312 -0.033625 -0.575065
    22 4.477066 -0.028570 1.582474 0.476656 -0.055423 -1.136099
    23 1.344418 0.000000 0.000000 0.023466 -0.208305 -0.755723
    24 1.224671 0.000000 0.000000 0.026043 -0.124620 -0.538676
    25 2.630323 -0.345015 1.907214 -0.354022 -0.915164 -1.788195
    26 1.059292 0.000000 0.000001 0.000551 0.000004 0.000021
    27 0.781203 0.000000 0.000000 -0.000467 0.006940 -0.135953
    28 2.033353 1.000771 -1.101647 -2.221219 1.324324 2.397426
    29 6.809417 0.000001 0.000000 0.852099 0.385905 -0.832187
    30 12.391794 0.000000 0.000001 0.000000 0.000000 -1.633529
    31 9.337102 0.000000 0.000003 -1.003288 -0.301019 0.040826
    32 4.453986 -0.073766 -0.571672 -0.386562 0.126208 -1.146676
    33 1.426599 0.000002 0.000000 -0.051390 0.078806 -1.521754
    34 1.322465 -0.000001 0.000000 -0.034695 0.051519 -1.200268
    35 4.477036 -0.043465 -1.581290 -0.083016 0.164909 0.067468
    36 1.344414 0.000000 0.000000 0.013974 0.154831 -0.550711
    37 1.224670 0.000001 0.000000 -0.145505 0.218631 -1.223298
    38 2.630291 -0.359835 -1.904289 1.070466 0.381356 -0.978487
    39 1.059293 0.000000 0.000000 0.002193 0.017488 0.317162
    40 0.781204 0.000000 0.000000 0.006472 0.026012 0.488050
    41 -0.044717 2.528787 4.661499 -0.023458 -0.011531 -0.097355
  time 15
    0 0.017183 -38.974030 38.134656 1.518378 -0.085188 0.070054
    1 3.890452 -0.000004 -0.000003 -1.572514 0.080747 -1.667638
    2 17.848177 0.000000 0.000000 0.000000 0.000000 0.089574
    3 15.638507 0.000000 0.000000 0.027124 0.031422 -0.997528
    4 7.109929 0.000000 0.000000 -0.006664 -0.003035 -0.636210
    5 -3.890452 0.000004 0.000007 -1.122306 -0.314069 -1.797857
    6 17.848173 0.000000 0.000000 0.000000 0.000000 1.133218
    7 15.638511 0.000000 0.000000 -0.256568 -0.036541 -1.070773
    8 7.109930 0.000000 0.000000 -0.081154 -0.003131 -0.631749
    9 0.281264 3.333409 -2.981901 1.567509 0.068511 1.480185
    10 4.018331 0.000000 0.000000 -0.072150 -0.012752 0.053672
    11 3.518565 0.000000 0.000000 -0.058396 -0.015832 0.064294
    12 8.942642 0.000000 0.000000 0.032918 0.007047 0.160532
    13 3.306641 0.000001 0.000000 3.138800 0.000567 0.400476
    14 3.593712 -0.000001 0.000000 0.041683 0.010321 0.346028
    15 2.033346 1.000768 1.101697 1.848180 -1.411864 2.688434
    16 6.809416 0.000001 0.000000 -1.381656 -0.117178 -1.042299
    17 12.391796 0.000000 0.000001 0.000000 0.000000 -1.444153
    18 9.337076 0.000000 -0.000031 -0.643476 0.247087 -0.107316
    19 4.454020 -0.070210 0.572073 0.096293 -0.007832 -0.804082
    20 1.426597 -0.000001 0.000000 0.023861 -0.079623 -1.125947
    21 1.322468 -0.000002 0.000000 0.009312 -0.033625 -0.575065
    22 4.477066 -0.028570 1.582474 0.476656 -0.055423 -1.136099
    23 1.344418 0.000000 0.000000 0.023466 -0.208305 -0.755723
    24 1.224671 0.000000 0.000000 0.026043 -0.124620 -0.538676
    25 2.630323 -0.345015 1.907214 -0.354022 -0.915164 -1.788195
    26 1.059292 0.000000 0.000001 0.000551 0.000004 0.000021
    27 0.781203 0.000000 0.000000 -0.000467 0.006940 -0.135953
    28 2.033353 1.000771 -1.101647 -2.221219 1.324324 2.397426
    29 6.809417 0.000001 0.000000 0.840741 0.395322 -0.821864
    30 12.391794 0.000000 0.000001 0.000000 0.000000 -1.633529
    31 9.337102 0.000000 0.000003 -1.003416 -0.301019 0.041085
    32 4.453986 -0.073766 -0.571672 -0.386562 0.126208 -1.146676
    33 1.426599 0.000002 0.000000 -0.051390 0.078806 -1.521754
    34 1.322465 -0.000001 0.000000 -0.034695 0.051519 -1.200268
    35 4.477036 -0.043465 -1.581290 -0.083016 0.164909 0.067468
    36 1.344414 0.000000 0.000000 0.024521 0.136363 -0.478036
    37 1.224670 0.000001 0.000000 -0.166394 0.224946 -1.318175
    38 2.630291 -0.359835 -1.904289 1.070466 0.381356 -0.978487
    39 1.059293 0.000000 0.000000 0.002193 0.017488 0.317162
    40 0.781204 0.000000 0.000000 0.006472 0.026012 0.488050
    41 -0.044717 2.528787 4.661499 -0.023003 -0.003304 -0.090381
  time 16
    0 0.126561 -41.459213 38.237575 1.525090 -0.077935 0.077328
    1 3.890452 -0.000004 -0.000003 -1.573182 0.143390 -1.661121
    2 17.848177 0.000000 0.000000 0.000000 0.000000 0.089647
    3 15.638507 0.000000 0.000000 0.017882 0.038394 -1.032924
    4 7.109929 0.000000 0.000000 -0.007203 -0.002975 -0.642267
    5 -3.890452 0.000004 0.000007 -1.101808 -0.384772 -1.784518
    6 17.848173 0.000000 0.000000 0.000000 0.000000 0.987157
    7 15.638511 0.000000 0.000000 -0.227569 -0.057338 -1.093883
    8 7.109930 0.000000 0.000000 -0.081154 -0.003131 -0.631749
    9 0.253919 3.337315 -2.981901 1.567832 0.068567 1.486037
    10 4.018331 0.000000 0.000000 -0.080988 -0.006508 0.049881
    11 3.518565 0.000000 0.000000 -0.067937 -0.009168 0.062059
    12 8.942642 0.000000 0.000000 0.033084 0.007550 0.165159
    13 3.306641 0.000001 0.000000 3.138800 0.000567 0.400476
    14 3.593712 -0.000001 0.000000 0.042738 0.011456 0.358030
    15 2.033346 1.000768 1.101697 1.848180 -1.411864 2.688434
    16 6.809416 0.000001 0.000000 -1.394853 -0.088260 -1.054605
    17 12.391796 0.000000 0.000001 0.000000 0.000000 -1.449987
    18 9.337076 0.000000 -0.000031 -0.637320 0.243766 -0.121336
    19 4.454020 -0.070210 0.572073 0.096293 -0.007832 -0.804082
    20 1.426597 -0.000001 0.000000 0.023861 -0.079623 -1.125947
    21 1.322468 -0.000002 0.000000 0.009312 -0.033625 -0.575065
    22 4.477066 -0.028570 1.582474 0.476656 -0.055423 -1.136099
    23 1.344418 0.000000 0.000000 0.023466 -0.208305 -0.755723
    24 1.224671 0.000000 0.000000 0.026043 -0.124620 -0.538676
    25 2.630323 -0.345015 1.907214 -0.354022 -0.915164 -1.788195
    26 1.059292 0.000000 0.000001 0.000551 0.000004 0.000021
    27 0.781203 0.000000 0.000000 -0.000467 0.006940 -0.135953
    28 2.033353 1.000771 -1.101647 -2.221219 1.324324 2.397426
    29 6.809417 0.000001 0.000000 0.822568 0.402461 -0.817649
    30 12.391794 0.000000 0.000001 0.000000 0.000000 -1.633457
    31 9.337102 0.000000 0.000003 -1.004376 -0.300981 0.042898
    32 4.453986 -0.073766 -0.571672 -0.386562 0.126208 -1.146676
    33 1.426599 0.000002 0.000000 -0.051390 0.078806 -1.521754
    34 1.322465 -0.000001 0.000000 -0.034695 0.051519 -1.200268
    35 4.477036 -0.043465 -1.581290 -0.083016 0.164909 0.067468
    36 1.344414 0.000000 0.000000 0.024185 0.137010 -0.480551
    37 1.224670 0.000001 0.000000 -0.165663 0.224755 -1.314897
    38 2.630291 -0.359835 -1.904289 1.070466 0.381356 -0.978487
    39 1.059293 0.000000 0.000000 0.002193 0.017488 0.317162
    40 0.781204 0.000000 0.000000 0.006472 0.026012 0.488050
    41 -0.044717 2.528787 4.661499 -0.023328 0.007783 -0.080161
  time 17
    0 0.232033 -43.934239 38.000860 1.532481 -0.075209 0.085750
    1 3.890452 -0.000004 -0.000003 -1.561252 0.203715 -1.658917
    2 17.848177 0.000000 0.000000 0.000000 0.000000 0.089647
    3 15.638507 0.000000 0.000000 0.011173 0.011498 -1.080715
    4 7.109929 0.000000 0.000000 -0.006460 -0.002999 -0.645965
    5 -3.890452 0.000004 0.000007 -1.123546 -0.451785 -1.766544
    6 17.848173 0.000000 0.000000 0.000000 0.000000 0.819244
    7 15.638511 0.000000 0.000000 -0.181986 -0.079046 -1.110882
    8 7.109930 0.000000 0.000000 -0.081154 -0.003131 -0.631749
    9 0.238294 3.337315 -2.981901 1.568102 0.068624 1.487455
    10 4.018331 0.000000 0.000000 -0.089600 -0.000791 0.046019
    11 3.518565 0.000000 0.000000 -0.077267 -0.002673 0.059398
    12 8.942642 0.000000 0.000000 0.033112 0.009144 0.168818
    13 3.306641 0.000001 0.000000 3.138800 0.000567 0.400476
    14 3.593712 -0.000001 0.000000 0.043455 0.013447 0.371544
    15 2.033346 1.000768 1.101697 1.848180 -1.411864 2.688434
    16 6.809416 0.000001 0.000000 -1.407763 -0.058656 -1.068331
    17 12.391796 0.000000 0.000001 0.000000 0.000000 -1.454718
    18 9.337076 0.000000 -0.000031 -0.630629 0.240939 -0.135645
    19 4.454020 -0.070210 0.572073 0.096293 -0.007832 -0.804082
    20 1.426597 -0.000001 0.000000 0.023861 -0.079623 -1.125947
    21 1.322468 -0.000002 0.000000 0.009312 -0.033625 -0.575065
    22 4.477066 -0.028570 1.582474 0.476656 -0.055423 -1.136099
    23 1.344418 0.000000 0.000000 0.023466 -0.208305 -0.755723
    24 1.224671 0.000000 0.000000 0.026043 -0.124620 -0.538676
    25 2.630323 -0.345015 1.907214 -0.354022 -0.915164 -1.788195
    26 1.059292 0.000000 0.000001 0.000551 0.000004 0.000021
    27 0.781203 0.000000 0.000000 -0.000467 0.006940 -0.135953
    28 2.033353 1.000771 -1.101647 -2.221219 1.324324 2.397426
    29 6.809417 0.000001 0.000000 0.804017 0.407980 -0.813348
    30 12.391794 0.000000 0.000001 0.000000 0.000000 -1.633385
    31 9.337102 0.000000 0.000003 -1.004888 -0.300943 0.043934
    32 4.453986 -0.073766 -0.571672 -0.386562 0.126208 -1.146676
    33 1.426599 0.000002 0.000000 -0.051390 0.078806 -1.521754
    34 1.322465 -0.000001 0.000000 -0.034695 0.051519 -1.200268
    35 4.477036 -0.043465 -1.581290 -0.083016 0.164909 0.067468
    36 1.344414 0.000000 0.000000 0.023837 0.137658 -0.483030
    37 1.224670 0.000001 0.000000 -0.164932 0.224575 -1.311653
    38 2.630291 -0.359835 -1.904289 1.070466 0.381356 -0.978487
    39 1.059293 0.000000 0.000000 0.002193 0.017488 0.317162
    40 0.781204 0.000000 0.000000 0.006472 0.026012 0.488050
    41 -0.044717 2.528787 4.661499 -0.023524 0.021030 -0.074068
  time 18
    0 0.290629 -46.429580 37.496555 1.539447 -0.076873 0.095608
    1 3.890452 -0.000004 -0.000003 -1.554953 0.267257 -1.657192
    2 17.848177 0.000000 0.000000 0.000000 0.000000 0.089574
    3 15.638507 0.000000 0.000000 -0.026617 0.021850 -1.136125
    4 7.109929 0.000000 0.000000 -0.009421 -0.002951 -0.650965
    5 -3.890452 0.000004 0.000007 -1.242438 -0.513730 -1.733624
    6 17.848173 0.000000 0.000000 0.000000 0.000000 0.641501
    7 15.638511 0.000000 0.000000 -0.082110 -0.056201 -1.156722
    8 7.109930 0.000000 0.000000 -0.081154 -0.003131 -0.631749
    9 0.238294 3.337315 -2.981901 1.568317 0.068653 1.483850
    10 4.018331 0.000000 0.000000 -0.097805 0.004578 0.042419
    11 3.518565 0.000000 0.000000 -0.086242 0.003631 0.056454
    12 8.942642 0.000000 0.000000 0.032890 0.011373 0.170981
    13 3.306641 0.000001 0.000000 3.138800 0.000567 0.400476
    14 3.593712 -0.000001 0.000000 0.044467 0.016253 0.384176
    15 2.033346 1.000768 1.101697 1.848180 -1.411864 2.688434
    16 6.809416 0.000001 0.000000 -1.420291 -0.028954 -1.083004
    17 12.391796 0.000000 0.000001 0.000000 0.000000 -1.458661
    18 9.337076 0.000000 -0.000031 -0.623313 0.238604 -0.149550
    19 4.454020 -0.070210 0.572073 0.096293 -0.007832 -0.804082
    20 1.426597 -0.000001 0.000000 0.023861 -0.079623 -1.125947
    21 1.322468 -0.000002 0.000000 0.009312 -0.033625 -0.575065
    22 4.477066 -0.028570 1.582474 0.476656 -0.055423 -1.136099
    23 1.344418 0.000000 0.000000 0.023466 -0.208305 -0.755723
    24 1.224671 0.000000 0.000000 0.026043 -0.124620 -0.538676
    25 2.630323 -0.345015 1.907214 -0.354022 -0.915164 -1.788195
    26 1.059292 0.000000 0.000001 0.000551 0.000004 0.000021
    27 0.781203 0.000000 0.000000 -0.000467 0.006940 -0.135953
    28 2.033353 1.000771 -1.101647 -2.221219 1.324324 2.397426
    29 6.809417 0.000001 0.000000 0.785277 0.411746 -0.809046
    30 12.391794 0.000000 0.000001 0.000000 0.000000 -1.633385
    31 9.337102 0.000000 0.000003 -1.004888 -0.300943 0.043934
    32 4.453986 -0.073766 -0.571672 -0.386562 0.126208 -1.146676
    33 1.426599 0.000002 0.000000 -0.051390 0.078806 -1.521754
    34 1.322465 -0.000001 0.000000 -0.034695 0.051519 -1.200268
    35 4.477036 -0.043465 -1.581290 -0.083016 0.164909 0.067468
    36 1.344414 0.000000 0.000000 0.023502 0.138305 -0.485544
    37 1.224670 0.000001 0.000000 -0.164201 0.224383 -1.308376
    38 2.630291 -0.359835 -1.904289 1.070466 0.381356 -0.978487
    39 1.059293 0.000000 0.000000 0.002193 0.017488 0.317162
    40 0.781204 0.000000 0.000000 0.006472 0.026012 0.488050
    41 -0.044717 2.528787 4.661499 -0.023589 0.035611 -0.073026
  time 19
    0 0.271097 -48.996023 36.879038 1.544969 -0.073084 0.105945
    1 3.890452 -0.000004 -0.000003 -1.554667 0.334300 -1.640900
    2 17.848177 0.000000 0.000000 0.000000 0.000000 0.089647
    3 15.638507 0.000000 0.000000 -0.046525 0.040403 -1.186868
    4 7.109929 0.000000 0.000000 -0.010835 -0.002963 -0.650895
    5 -3.890452 0.000004 0.000007 -1.326243 -0.535969 -1.714515
    6 17.848173 0.000000 0.000000 0.000000 0.000000 0.441907
    7 15.638511 0.000000 0.000000 -0.005305 -0.034584 -1.217460
    8 7.109930 0.000000 0.000000 -0.081154 -0.003131 -0.631749
    9 0.222668 3.341221 -2.981901 1.568371 0.068681 1.483791
    10 4.018331 0.000000 0.000000 -0.105083 0.010379 0.039323
    11 3.518565 0.000000 0.000000 -0.094461 0.010259 0.053439
    12 8.942642 0.000000 0.000000 0.032293 0.013567 0.171492
    13 3.306641 0.000001 0.000000 3.138800 0.000567 0.400476
    14 3.593712 -0.000001 0.000000 0.046028 0.020150 0.394165
    15 2.033346 1.000768 1.101697 1.848180 -1.411864 2.688434
    16 6.809416 0.000001 0.000000 -1.431862 -0.000330 -1.096067
    17 12.391796 0.000000 0.000001 0.000000 0.000000 -1.461026
    18 9.337076 0.000000 -0.000031 -0.617960 0.236829 -0.164205
    19 4.454020 -0.070210 0.572073 0.096293 -0.007832 -0.804082
    20 1.426597 -0.000001 0.000000 0.023861 -0.079623 -1.125947
    21 1.322468 -0.000002 0.000000 0.009312 -0.033625 -0.575065
    22 4.477066 -0.028570 1.582474 0.476656 -0.055423 -1.136099
    23 1.344418 0.000000 0.000000 0.023466 -0.208305 -0.755723
    24 1.224671 0.000000 0.000000 0.026043 -0.124620 -0.538676
    25 2.630323 -0.345015 1.907214 -0.354022 -0.915164 -1.788195
    26 1.059292 0.000000 0.000001 0.000551 0.000004 0.000021
    27 0.781203 0.000000 0.000000 -0.000467 0.006940 -0.135953
    28 2.033353 1.000771 -1.101647 -2.221219 1.324324 2.397426
    29 6.809417 0.000001 0.000000 0.766537 0.414287 -0.806810
    30 12.391794 0.000000 0.000001 0.000000 0.000000 -1.633314
    31 9.337102 0.000000 0.000003 -1.005464 -0.300943 0.044884
    32 4.453986 -0.073766 -0.571672 -0.386562 0.126208 -1.146676
    33 1.426599 0.000002 0.000000 -0.051390 0.078806 -1.521754
    34 1.322465 -0.000001 0.000000 -0.034695 0.051519 -1.200268
    35 4.477036 -0.043465 -1.581290 -0.083016 0.164909 0.067468
    36 1.344414 0.000000 0.000000 0.023154 0.138952 -0.488023
    37 1.224670 0.000001 0.000000 -0.163470 0.224191 -1.305098
    38 2.630291 -0.359835 -1.904289 1.070466 0.381356 -0.978487
    39 1.059293 0.000000 0.000000 0.002193 0.017488 0.317162
    40 0.781204 0.000000 0.000000 0.006472 0.026012 0.488050
    41 -0.044717 2.528787 4.661499 -0.023589 0.050541 -0.068778
  time 20
    0 0.173438 -51.694511 36.271814 1.548198 -0.074378 0.115325
    1 3.890452 -0.000004 -0.000003 -1.562302 0.405081 -1.621158
    2 17.848177 0.000000 0.000000 0.000000 0.000000 0.089574
    3 15.638507 0.000000 0.000000 -0.078523 0.093865 -1.215812
    4 7.109929 0.000000 0.000000 -0.012548 -0.002963 -0.647233
    5 -3.890452 0.000004 0.000007 -1.240721 -0.532525 -1.728894
    6 17.848173 0.000000 0.000000 0.000000 0.000000 0.281223
    7 15.638511 0.000000 0.000000 0.008315 -0.100526 -1.271608
    8 7.109930 0.000000 0.000000 -0.081154 -0.003131 -0.631749
    9 0.230481 3.337315 -2.981901 1.568263 0.068709 1.475102
    10 4.018331 0.000000 0.000000 -0.110689 0.017498 0.037044
    11 3.518565 0.000000 0.000000 -0.101255 0.017845 0.050743
    12 8.942642 0.000000 0.000000 0.031252 0.014993 0.170401
    13 3.306641 0.000001 0.000000 3.138800 0.000567 0.400476
    14 3.593712 -0.000001 0.000000 0.047885 0.025397 0.400837
    15 2.033346 1.000768 1.101697 1.848180 -1.411864 2.688434
    16 6.809416 0.000001 0.000000 -1.441330 0.024030 -1.109699
    17 12.391796 0.000000 0.000001 0.000000 0.000000 -1.460711
    18 9.337076 0.000000 -0.000031 -0.612071 0.235546 -0.177532
    19 4.454020 -0.070210 0.572073 0.096293 -0.007832 -0.804082
    20 1.426597 -0.000001 0.000000 0.023861 -0.079623 -1.125947
    21 1.322468 -0.000002 0.000000 0.009312 -0.033625 -0.575065
    22 4.477066 -0.028570 1.582474 0.476656 -0.055423 -1.136099
    23 1.344418 0.000000 0.000000 0.023466 -0.208305 -0.755723
    24 1.224671 0.000000 0.000000 0.026043 -0.124620 -0.538676
    25 2.630323 -0.345015 1.907214 -0.354022 -0.915164 -1.788195
    26 1.059292 0.000000 0.000001 0.000551 0.000004 0.000021
    27 0.781203 0.000000 0.000000 -0.000467 0.006940 -0.135953
    28 2.033353 1.000771 -1.101647 -2.221219 1.324324 2.397426
    29 6.809417 0.000001 0.000000 0.750636 0.414856 -0.803197
    30 12.391794 0.000000 0.000001 0.000000 0.000000 -1.633314
    31 9.337102 0.000000 0.000003 -1.005272 -0.300943 0.044538
    32 4.453986 -0.073766 -0.571672 -0.386562 0.126208 -1.146647
    33 1.426599 0.000002 0.000000 -0.051390 0.078806 -1.521754
    34 1.322465 -0.000001 0.000000 -0.034695 0.051519 -1.200268
    35 4.477036 -0.043465 -1.581290 -0.083016 0.164909 0.067468
    36 1.344414 0.000000 0.000000 0.022807 0.139599 -0.490538
    37 1.224670 0.000001 0.000000 -0.162751 0.223988 -1.301821
    38 2.630291 -0.359835 -1.904289 1.070466 0.381356 -0.978487
    39 1.059293 0.000000 0.000000 0.002193 0.017488 0.317162
    40 0.781204 0.000000 0.000000 0.006472 0.026012 0.488050
    41 -0.044717 2.528787 4.661499 -0.023458 0.064868 -0.073588
  time 21
    0 0.028902 -54.535203 35.777800 1.548962 -0.082416 0.122216
    1 3.890452 -0.000004 -0.000003 -1.515919 0.475814 -1.607358
    2 17.848177 0.000000 0.000000 0.000000 0.000000 0.089574
    3 15.638507 0.000000 0.000000 -0.136284 0.106509 -1.197585
    4 7.109929 0.000000 0.000000 -0.015688 -0.002903 -0.646317
    5 -3.890452 0.000004 0.000007 -1.227755 -0.568295 -1.743367
    6 17.848173 0.000000 0.000000 0.000000 0.000000 0.312743
    7 15.638511 0.000000 0.000000 0.047135 -0.057247 -1.342278
    8 7.109930 0.000000 0.000000 -0.081154 -0.003131 -0.631749
    9 0.261732 3.337315 -2.981901 1.567832 0.068709 1.455774
    10 4.018331 0.000000 0.000000 -0.113831 0.026546 0.035879
    11 3.518565 0.000000 0.000000 -0.105910 0.026798 0.048721
    12 8.942642 0.000000 0.000000 0.029767 0.015113 0.167903
    13 3.306641 0.000001 0.000000 3.138800 0.000567 0.400476
    14 3.593712 -0.000001 0.000000 0.049361 0.031671 0.404698
    15 2.033346 1.000768 1.101697 1.848180 -1.411864 2.688434
    16 6.809416 0.000001 0.000000 -1.447642 0.040793 -1.123709
    17 12.391796 0.000000 0.000001 0.000000 0.000000 -1.456532
    18 9.337076 0.000000 -0.000031 -0.605826 0.234691 -0.188783
    19 4.454020 -0.070210 0.572073 0.096293 -0.007832 -0.804082
    20 1.426597 -0.000001 0.000000 0.023861 -0.079623 -1.125947
    21 1.322468 -0.000002 0.000000 0.009312 -0.033625 -0.575065
    22 4.477066 -0.028570 1.582474 0.476656 -0.055423 -1.136099
    23 1.344418 0.000000 0.000000 0.023466 -0.208305 -0.755723
    24 1.224671 0.000000 0.000000 0.026043 -0.124620 -0.538676
    25 2.630323 -0.345015 1.907214 -0.354022 -0.915164 -1.788195
    26 1.059292 0.000000 0.000001 0.000551 0.000004 0.000021
    27 0.781203 0.000000 0.000000 -0.000467 0.006940 -0.135953
    28 2.033353 1.000771 -1.101647 -2.221219 1.324324 2.397426
    29 6.809417 0.000001 0.000000 0.739846 0.413411 -0.797175
    30 12.391794 0.000000 0.000001 0.000000 0.000000 -1.633457
    31 9.337102 0.000000 0.000003 -1.004120 -0.300981 0.042380
    32 4.453986 -0.073766 -0.571672 -0.386562 0.126208 -1.146676
    33 1.426599 0.000002 0.000000 -0.051390 0.078806 -1.521754
    34 1.322465 -0.000001 0.000000 -0.034695 0.051519 -1.200268
    35 4.477036 -0.043465 -1.581290 -0.083016 0.164909 0.067468
    36 1.344414 0.000000 0.000000 0.022459 0.140246 -0.493053
    37 1.224670 0.000001 0.000000 -0.162020 0.223796 -1.298544
    38 2.630291 -0.359835 -1.904289 1.070466 0.381356 -0.978487
    39 1.059293 0.000000 0.000000 0.002193 0.017488 0.317162
    40 0.781204 0.000000 0.000000 0.006472 0.026012 0.488050
    41 -0.044717 2.528787 4.661499 -0.023328 0.077352 -0.089780
  time 22
    0 -0.135165 -57.538413 35.458750 1.547518 -0.070590 0.124991
    1 3.890452 -0.000004 -0.000003 -1.545409 0.514090 -1.572187
    2 17.848177 0.000000 0.000000 0.000000 0.000000 0.150873
    3 15.638507 0.000000 0.000000 -0.164548 0.173065 -1.170828
    4 7.109929 0.000000 0.000000 -0.007119 -0.003131 -0.631738
    5 -3.890452 0.000004 0.000007 -1.199629 -0.596733 -1.740151
    6 17.848173 0.000000 0.000000 0.000000 0.000000 0.443612
    7 15.638511 0.000000 0.000000 0.044818 -0.031853 -1.343233
    8 7.109930 0.000000 0.000000 -0.081154 -0.003131 -0.631749
    9 0.226574 3.337315 -2.981901 1.567239 0.068709 1.454178
    10 4.018331 0.000000 0.000000 -0.113899 0.037368 0.036244
    11 3.518565 0.000000 0.000000 -0.107755 0.036960 0.047869
    12 8.942642 0.000000 0.000000 0.027935 0.013782 0.164209
    13 3.306641 0.000001 0.000000 3.138800 0.000567 0.400476
    14 3.593712 -0.000001 0.000000 0.049699 0.038095 0.406503
    15 2.033346 1.000768 1.101697 1.848180 -1.411864 2.688434
    16 6.809416 0.000001 0.000000 -1.449554 0.048831 -1.130524
    17 12.391796 0.000000 0.000001 0.000000 0.000000 -1.448095
    18 9.337076 0.000000 -0.000031 -0.605736 0.233902 -0.201072
    19 4.454020 -0.070210 0.572073 0.096293 -0.007832 -0.804082
    20 1.426597 -0.000001 0.000000 0.023861 -0.079623 -1.125947
    21 1.322468 -0.000002 0.000000 0.009312 -0.033625 -0.575065
    22 4.477066 -0.028570 1.582474 0.476656 -0.055423 -1.136099
    23 1.344418 0.000000 0.000000 0.023466 -0.208305 -0.755723
    24 1.224671 0.000000 0.000000 0.026043 -0.124620 -0.538676
    25 2.630323 -0.345015 1.907214 -0.354022 -0.915164 -1.788195
    26 1.059292 0.000000 0.000001 0.000551 0.000004 0.000021
    27 0.781203 0.000000 0.000000 -0.000467 0.006940 -0.135953
    28 2.033353 1.000771 -1.101647 -2.221219 1.324324 2.397426
    29 6.809417 0.000001 0.000000 0.732842 0.411834 -0.795541
    30 12.391794 0.000000 0.000001 0.000000 0.000000 -1.633314
    31 9.337102 0.000000 0.000003 -1.005400 -0.300943 0.044711
    32 4.453986 -0.073766 -0.571672 -0.386562 0.126208 -1.146676
    33 1.426599 0.000002 0.000000 -0.051390 0.078806 -1.521754
    34 1.322465 -0.000001 0.000000 -0.034695 0.051519 -1.200268
    35 4.477036 -0.043465 -1.581290 -0.083016 0.164909 0.067468
    36 1.344414 0.000000 0.000000 0.022100 0.140893 -0.495531
    37 1.224670 0.000001 0.000000 -0.161289 0.223592 -1.295267
    38 2.630291 -0.359835 -1.904289 1.070466 0.381356 -0.978487
    39 1.059293 0.000000 0.000000 0.002193 0.017488 0.317162
    40 0.781204 0.000000 0.000000 0.006472 0.026012 0.488050
    41 -0.044717 2.528787 4.661499 -0.023133 0.086596 -0.088938
  time 23
    0 -0.303139 -60.582253 35.324955 1.544205 -0.045412 0.123556
    1 3.890452 -0.000004 -0.000003 -1.662799 0.410096 -1.505198
    2 17.848177 0.000000 0.000000 0.000000 0.000000 0.486117
    3 15.638507 0.000000 0.000000 -0.076055 0.259733 -1.114580
    4 7.109929 0.000000 0.000000 -0.007119 -0.003131 -0.631738
    5 -3.890452 0.000004 0.000007 -1.154151 -0.601358 -1.729934
    6 17.848173 0.000000 0.000000 0.000000 0.000000 0.575863
    7 15.638511 0.000000 0.000000 0.008315 -0.050694 -1.251458
    8 7.109930 0.000000 0.000000 -0.081154 -0.003131 -0.631749
    9 0.144541 3.345128 -2.981901 1.566485 0.068681 1.464758
    10 4.018331 0.000000 0.000000 -0.110667 0.048969 0.038383
    11 3.518565 0.000000 0.000000 -0.106476 0.047411 0.048579
    12 8.942642 0.000000 0.000000 0.025965 0.011218 0.159635
    13 3.306641 0.000001 0.000000 3.138800 0.000567 0.400476
    14 3.593712 -0.000001 0.000000 0.048180 0.043149 0.406713
    15 2.033346 1.000768 1.101697 1.848180 -1.411864 2.688434
    16 6.809416 0.000001 0.000000 -1.446494 0.046479 -1.130903
    17 12.391796 0.000000 0.000001 0.000000 0.000000 -1.435795
    18 9.337076 0.000000 -0.000031 -0.610554 0.233179 -0.212438
    19 4.454020 -0.070210 0.572073 0.096293 -0.007832 -0.804082
    20 1.426597 -0.000001 0.000000 0.023861 -0.079623 -1.125947
    21 1.322468 -0.000002 0.000000 0.009312 -0.033625 -0.575065
    22 4.477066 -0.028570 1.582474 0.476656 -0.055423 -1.136099
    23 1.344418 0.000000 0.000000 0.023466 -0.208305 -0.755723
    24 1.224671 0.000000 0.000000 0.026043 -0.124620 -0.538676
    25 2.630323 -0.345015 1.907214 -0.354022 -0.915164 -1.788195
    26 1.059292 0.000000 0.000001 0.000551 0.000004 0.000021
    27 0.781203 0.000000 0.000000 -0.000467 0.006940 -0.135953
    28 2.033353 1.000771 -1.101647 -2.221219 1.324324 2.397426
    29 6.809417 0.000001 0.000000 0.731611 0.410126 -0.796659
    30 12.391794 0.000000 0.000001 0.000000 0.000000 -1.632739
    31 9.337102 0.000000 0.000003 -1.008408 -0.300829 0.050065
    32 4.453986 -0.073766 -0.571672 -0.386562 0.126208 -1.146676
    33 1.426599 0.000002 0.000000 -0.051390 0.078806 -1.521754
    34 1.322465 -0.000001 0.000000 -0.034695 0.051519 -1.200268
    35 4.477036 -0.043465 -1.581290 -0.083016 0.164909 0.067468
    36 1.344414 0.000000 0.000000 0.021752 0.141529 -0.498046
    37 1.224670 0.000001 0.000000 -0.160569 0.223400 -1.291989
    38 2.630291 -0.359835 -1.904289 1.070466 0.381356 -0.978487
    39 1.059293 0.000000 0.000000 0.002193 0.017488 0.317162
    40 0.781204 0.000000 0.000000 0.006472 0.026012 0.488050
    41 -0.044717 2.528787 4.661499 -0.023133 0.091075 -0.076754
  time 24
    0 -0.459394 -63.494046 35.417582 1.539787 -0.010625 0.118196
    1 3.890452 -0.000004 -0.000003 -1.768545 0.312583 -1.414539
    2 17.848177 0.000000 0.000000 0.000000 0.000000 0.704321
    3 15.638507 0.000000 0.000000 0.076498 0.231300 -0.833596
    4 7.109929 0.000000 0.000000 -0.007119 -0.003131 -0.631738
    5 -3.890452 0.000004 0.000007 -1.118016 -0.567803 -1.698716
    6 17.848173 0.000000 0.000000 0.000000 0.000000 0.638983
    7 15.638511 0.000000 0.000000 -0.050795 -0.067623 -1.143257
    8 7.109930 0.000000 0.000000 -0.081154 -0.003131 -0.631749
    9 0.031256 3.345128 -2.981901 1.565731 0.068624 1.485682
    10 4.018331 0.000000 0.000000 -0.104451 0.059731 0.042297
    11 3.518565 0.000000 0.000000 -0.102073 0.056747 0.050849
    12 8.942642 0.000000 0.000000 0.024064 0.007910 0.154551
    13 3.306641 0.000001 0.000000 3.138800 0.000567 0.400476
    14 3.593712 -0.000001 0.000000 0.044046 0.045162 0.405538
    15 2.033346 1.000768 1.101697 1.848180 -1.411864 2.688434
    16 6.809416 0.000001 0.000000 -1.439130 0.033490 -1.125223
    17 12.391796 0.000000 0.000001 0.000000 0.000000 -1.420735
    18 9.337076 0.000000 -0.000031 -0.619298 0.232718 -0.221670
    19 4.454020 -0.070210 0.572073 0.096293 -0.007832 -0.804082
    20 1.426597 -0.000001 0.000000 0.023861 -0.079623 -1.125947
    21 1.322468 -0.000002 0.000000 0.009312 -0.033625 -0.575065
    22 4.477066 -0.028570 1.582474 0.476656 -0.055423 -1.136099
    23 1.344418 0.000000 0.000000 0.023466 -0.208305 -0.755723
    24 1.224671 0.000000 0.000000 0.026043 -0.124620 -0.538676
    25 2.630323 -0.345015 1.907214 -0.354022 -0.915164 -1.788195
    26 1.059292 0.000000 0.000001 0.000551 0.000004 0.000021
    27 0.781203 0.000000 0.000000 -0.000467 0.006940 -0.135953
    28 2.033353 1.000771 -1.101647 -2.221219 1.324324 2.397426
    29 6.809417 0.000001 0.000000 0.736344 0.408505 -0.800358
    30 12.391794 0.000000 0.000001 0.000000 0.000000 -1.631518
    31 9.337102 0.000000 0.000003 -1.012825 -0.300677 0.057404
    32 4.453986 -0.073766 -0.571672 -0.386562 0.126208 -1.146676
    33 1.426599 0.000002 0.000000 -0.051390 0.078806 -1.521754
    34 1.322465 -0.000001 0.000000 -0.034695 0.051519 -1.200268
    35 4.477036 -0.043465 -1.581290 -0.083016 0.164909 0.067468
    36 1.344414 0.000000 0.000000 0.021405 0.142176 -0.500561
    37 1.224670 0.000001 0.000000 -0.159838 0.223197 -1.288712
    38 2.630291 -0.359835 -1.904289 1.070466 0.381356 -0.978487
    39 1.059293 0.000000 0.000000 0.002193 0.017488 0.317162
    40 0.781204 0.000000 0.000000 0.006472 0.026012 0.488050
    41 -0.044717 2.528787 4.661499 -0.023198 0.089328 -0.055110
  time 25
    0 -0.596117 -66.162063 35.695465 1.534690 0.023976 0.110826
    1 3.890452 -0.000004 -0.000003 -1.779044 0.189048 -1.363076
    2 17.848177 0.000000 0.000000 0.000000 0.000000 0.878343
    3 15.638507 0.000000 0.000000 0.118149 0.158907 -0.675606
    4 7.109929 0.000000 0.000000 -0.007119 -0.003131 -0.631738
    5 -3.890452 0.000004 0.000007 -1.113154 -0.501429 -1.645741
    6 17.848173 0.000000 0.000000 0.000000 0.000000 0.644832
    7 15.638511 0.000000 0.000000 -0.107496 -0.062026 -1.104866
    8 7.109930 0.000000 0.000000 -0.081154 -0.003131 -0.631749
    9 -0.078122 3.345128 -2.981901 1.565138 0.068596 1.509029
    10 4.018331 0.000000 0.000000 -0.095974 0.067977 0.047585
    11 3.518565 0.000000 0.000000 -0.095027 0.063494 0.054468
    12 8.942642 0.000000 0.000000 0.022426 0.004338 0.149432
    13 3.306641 0.000001 0.000000 3.138800 0.000567 0.400476
    14 3.593712 -0.000001 0.000000 0.036662 0.043085 0.402894
    15 2.033346 1.000768 1.101697 1.848180 -1.411864 2.688434
    16 6.809416 0.000001 0.000000 -1.428515 0.011336 -1.115568
    17 12.391796 0.000000 0.000001 0.000000 0.000000 -1.404807
    18 9.337076 0.000000 -0.000031 -0.629647 0.232916 -0.226920
    19 4.454020 -0.070210 0.572073 0.096293 -0.007832 -0.804082
    20 1.426597 -0.000001 0.000000 0.023861 -0.079623 -1.125947
    21 1.322468 -0.000002 0.000000 0.009312 -0.033625 -0.575065
    22 4.477066 -0.028570 1.582474 0.476656 -0.055423 -1.136099
    23 1.344418 0.000000 0.000000 0.023466 -0.208305 -0.755723
    24 1.224671 0.000000 0.000000 0.026043 -0.124620 -0.538676
    25 2.630323 -0.345015 1.907214 -0.354022 -0.915164 -1.788195
    26 1.059292 0.000000 0.000001 0.000551 0.000004 0.000021
    27 0.781203 0.000000 0.000000 -0.000467 0.006940 -0.135953
    28 2.033353 1.000771 -1.101647 -2.221219 1.324324 2.397426
    29 6.809417 0.000001 0.000000 0.747134 0.407016 -0.805089
    30 12.391794 0.000000 0.000001 0.000000 0.000000 -1.629794
    31 9.337102 0.000000 0.000003 -1.017497 -0.300524 0.064312
    32 4.453986 -0.073766 -0.571672 -0.386562 0.126208 -1.146676
    33 1.426599 0.000002 0.000000 -0.051390 0.078806 -1.521754
    34 1.322465 -0.000001 0.000000 -0.034695 0.051519 -1.200268
    35 4.477036 -0.043465 -1.581290 -0.083016 0.164909 0.067468
    36 1.344414 0.000000 0.000000 0.021045 0.142823 -0.503040
    37 1.224670 0.000001 0.000000 -0.159119 0.222981 -1.285435
    38 2.630291 -0.359835 -1.904289 1.070466 0.381356 -0.978487
    39 1.059293 0.000000 0.000000 0.002193 0.017488 0.317162
    40 0.781204 0.000000 0.000000 0.006472 0.026012 0.488050
    41 -0.044717 2.528787 4.661499 -0.023524 0.078305 -0.032185
  time 26
    0 -0.717214 -68.626931 36.138018 1.529677 0.044350 0.104222
    1 3.890452 -0.000004 -0.000003 -1.758429 0.059315 -1.351001
    2 17.848177 0.000000 0.000000 0.000000 0.000000 1.051780
    3 15.638507 0.000000 0.000000 0.156857 0.134729 -0.729485
    4 7.109929 0.000000 0.000000 -0.007119 -0.003131 -0.631738
    5 -3.890452 0.000004 0.000007 -1.151195 -0.419016 -1.590684
    6 17.848173 0.000000 0.000000 0.000000 0.000000 0.620705
    7 15.638511 0.000000 0.000000 -0.129454 -0.035357 -1.128359
    8 7.109930 0.000000 0.000000 -0.081154 -0.003131 -0.631749
    9 -0.148437 3.345128 -2.981901 1.564707 0.068567 1.521915
    10 4.018331 0.000000 0.000000 -0.086164 0.072531 0.053533
    11 3.518565 0.000000 0.000000 -0.086158 0.066622 0.058902
    12 8.942642 0.000000 0.000000 0.021122 0.000887 0.144700
    13 3.306641 0.000001 0.000000 3.138800 0.000567 0.400476
    14 3.593712 -0.000001 0.000000 0.026115 0.037025 0.399243
    15 2.033346 1.000768 1.101697 1.848180 -1.411864 2.688434
    16 6.809416 0.000001 0.000000 -1.416083 -0.017631 -1.104966
    17 12.391796 0.000000 0.000001 0.000000 0.000000 -1.390851
    18 9.337076 0.000000 -0.000031 -0.638569 0.233968 -0.225535
    19 4.454020 -0.070210 0.572073 0.096293 -0.007832 -0.804082
    20 1.426597 -0.000001 0.000000 0.023861 -0.079623 -1.125947
    21 1.322468 -0.000002 0.000000 0.009312 -0.033625 -0.575065
    22 4.477066 -0.028570 1.582474 0.476656 -0.055423 -1.136099
    23 1.344418 0.000000 0.000000 0.023466 -0.208305 -0.755723
    24 1.224671 0.000000 0.000000 0.026043 -0.124620 -0.538676
    25 2.630323 -0.345015 1.907214 -0.354022 -0.915164 -1.788195
    26 1.059292 0.000000 0.000001 0.000551 0.000004 0.000021
    27 0.781203 0.000000 0.000000 -0.000467 0.006940 -0.135953
    28 2.033353 1.000771 -1.101647 -2.221219 1.324324 2.397426
    29 6.809417 0.000001 0.000000 0.763602 0.405045 -0.807842
    30 12.391794 0.000000 0.000001 0.000000 0.000000 -1.628573
    31 9.337102 0.000000 0.000003 -1.020377 -0.300410 0.068197
    32 4.453986 -0.073766 -0.571672 -0.386562 0.126208 -1.146676
    33 1.426599 0.000002 0.000000 -0.051390 0.078806 -1.521754
    34 1.322465 -0.000001 0.000000 -0.034695 0.051519 -1.200268
    35 4.477036 -0.043465 -1.581290 -0.083016 0.164909 0.067468
    36 1.344414 0.000000 0.000000 0.020685 0.143458 -0.505554
    37 1.224670 0.000001 0.000000 -0.158388 0.222777 -1.282157
    38 2.630291 -0.359835 -1.904289 1.070466 0.381356 -0.978487
    39 1.059293 0.000000 0.000000 0.002193 0.017488 0.317162
    40 0.781204 0.000000 0.000000 0.006472 0.026012 0.488050
    41 -0.044717 2.528787 4.661499 -0.024044 0.058737 -0.021082
  time 27
    0 -0.810967 -70.980069 36.714367 1.525684 0.045689 0.100490
    1 3.890452 -0.000004 -0.000003 -1.738482 -0.069330 -1.372180
    2 17.848177 0.000000 0.000000 0.000000 0.000000 1.160919
    3 15.638507 0.000000 0.000000 0.193539 0.138558 -0.842892
    4 7.109929 0.000000 0.000000 -0.007119 -0.003131 -0.631738
    5 -3.890452 0.000004 0.000007 -1.203824 -0.324893 -1.551520
    6 17.848173 0.000000 0.000000 0.000000 0.000000 0.568958
    7 15.638511 0.000000 0.000000 -0.129083 -0.000452 -1.167991
    8 7.109930 0.000000 0.000000 -0.081154 -0.003131 -0.631749
    9 -0.152343 3.345128 -2.981901 1.564491 0.068539 1.520023
    10 4.018331 0.000000 0.000000 -0.075970 0.073058 0.059395
    11 3.518565 0.000000 0.000000 -0.076366 0.065879 0.063443
    12 8.942642 0.000000 0.000000 0.020122 -0.002265 0.140707
    13 3.306641 0.000001 0.000000 3.138800 0.000567 0.400476
    14 3.593712 -0.000001 0.000000 0.013247 0.027774 0.395801
    15 2.033346 1.000768 1.101697 1.848180 -1.411864 2.688434
    16 6.809416 0.000001 0.000000 -1.402886 -0.050275 -1.094647
    17 12.391796 0.000000 0.000001 0.000000 0.000000 -1.380759
    18 9.337076 0.000000 -0.000031 -0.644815 0.235776 -0.216823
    19 4.454020 -0.070210 0.572073 0.096293 -0.007832 -0.804082
    20 1.426597 -0.000001 0.000000 0.023861 -0.079623 -1.125947
    21 1.322468 -0.000002 0.000000 0.009312 -0.033625 -0.575065
    22 4.477066 -0.028570 1.582474 0.476656 -0.055423 -1.136099
    23 1.344418 0.000000 0.000000 0.023466 -0.208305 -0.755723
    24 1.224671 0.000000 0.000000 0.026043 -0.124620 -0.538676
    25 2.630323 -0.345015 1.907214 -0.354022 -0.915164 -1.788195
    26 1.059292 0.000000 0.000001 0.000551 0.000004 0.000021
    27 0.781203 0.000000 0.000000 -0.000467 0.006940 -0.135953
    28 2.033353 1.000771 -1.101647 -2.221219 1.324324 2.397426
    29 6.809417 0.000001 0.000000 0.784236 0.402286 -0.808014
    30 12.391794 0.000000 0.000001 0.000000 0.000000 -1.628501
    31 9.337102 0.000000 0.000003 -1.020569 -0.300410 0.068456
    32 4.453986 -0.073766 -0.571672 -0.386562 0.126208 -1.146676
    33 1.426599 0.000002 0.000000 -0.051390 0.078806 -1.521754
    34 1.322465 -0.000001 0.000000 -0.034695 0.051519 -1.200268
    35 4.477036 -0.043465 -1.581290 -0.083016 0.164909 0.067468
    36 1.344414 0.000000 0.000000 0.020326 0.144093 -0.508069
    37 1.224670 0.000001 0.000000 -0.157669 0.222561 -1.278880
    38 2.630291 -0.359835 -1.904289 1.070466 0.381356 -0.978487
    39 1.059293 0.000000 0.000000 0.002193 0.017488 0.317162
    40 0.781204 0.000000 0.000000 0.006472 0.026012 0.488050
    41 -0.044717 2.528787 4.661499 -0.024565 0.034626 -0.026012
  time 28
    0 -0.877375 -73.282419 37.311300 1.523051 0.033493 0.100394
    1 3.890452 -0.000004 -0.000003 -1.717199 -0.180091 -1.415018
    2 17.848177 0.000000 0.000000 0.000000 0.000000 1.175256
    3 15.638507 0.000000 0.000000 0.189298 0.148579 -0.954112
    4 7.109929 0.000000 0.000000 -0.007119 -0.003131 -0.631738
    5 -3.890452 0.000004 0.000007 -1.232808 -0.222701 -1.533735
    6 17.848173 0.000000 0.000000 0.000000 0.000000 0.496009
    7 15.638511 0.000000 0.000000 -0.137792 0.023804 -1.196354
    8 7.109930 0.000000 0.000000 -0.081154 -0.003131 -0.631749
    9 -0.109373 3.345128 -2.981901 1.564437 0.068539 1.508143
    10 4.018331 0.000000 0.000000 -0.066183 0.070050 0.064404
    11 3.518565 0.000000 0.000000 -0.066448 0.061757 0.067487
    12 8.942642 0.000000 0.000000 0.019373 -0.005117 0.137734
    13 3.306641 0.000001 0.000000 3.138800 0.000567 0.400476
    14 3.593712 -0.000001 0.000000 -0.000548 0.016210 0.394039
    15 2.033346 1.000768 1.101697 1.848180 -1.411864 2.688434
    16 6.809416 0.000001 0.000000 -1.389689 -0.083359 -1.084424
    17 12.391796 0.000000 0.000001 0.000000 0.000000 -1.374688
    18 9.337076 0.000000 -0.000031 -0.649365 0.238242 -0.202515
    19 4.454020 -0.070210 0.572073 0.096293 -0.007832 -0.804082
    20 1.426597 -0.000001 0.000000 0.023861 -0.079623 -1.125947
    21 1.322468 -0.000002 0.000000 0.009312 -0.033625 -0.575065
    22 4.477066 -0.028570 1.582474 0.476656 -0.055423 -1.136099
    23 1.344418 0.000000 0.000000 0.023466 -0.208305 -0.755723
    24 1.224671 0.000000 0.000000 0.026043 -0.124620 -0.538676
    25 2.630323 -0.345015 1.907214 -0.354022 -0.915164 -1.788195
    26 1.059292 0.000000 0.000001 0.000551 0.000004 0.000021
    27 0.781203 0.000000 0.000000 -0.000467 0.006940 -0.135953
    28 2.033353 1.000771 -1.101647 -2.221219 1.324324 2.397426
    29 6.809417 0.000001 0.000000 0.806289 0.398607 -0.807412
    30 12.391794 0.000000 0.000001 0.000000 0.000000 -1.629220
    31 9.337102 0.000000 0.000003 -1.018841 -0.300486 0.066125
    32 4.453986 -0.073766 -0.571672 -0.386562 0.126208 -1.146676
    33 1.426599 0.000002 0.000000 -0.051390 0.078806 -1.521754
    34 1.322465 -0.000001 0.000000 -0.034695 0.051519 -1.200268
    35 4.477036 -0.043465 -1.581290 -0.083016 0.164909 0.067468
    36 1.344414 0.000000 0.000000 0.019966 0.144740 -0.510548
    37 1.224670 0.000001 0.000000 -0.156950 0.222358 -1.275603
    38 2.630291 -0.359835 -1.904289 1.070466 0.381356 -0.978487
    39 1.059293 0.000000 0.000000 0.002193 0.017488 0.317162
    40 0.781204 0.000000 0.000000 0.006472 0.026012 0.488050
    41 -0.044717 2.528787 4.661499 -0.024955 0.008799 -0.042124
  time 29
    0 -0.928158 -75.584770 37.774438 1.522031 0.015384 0.103457
    1 3.890452 -0.000004 -0.000003 -1.701356 -0.264356 -1.465044
    2 17.848177 0.000000 0.000000 0.000000 0.000000 1.098815
    3 15.638507 0.000000 0.000000 0.163187 0.142860 -1.033289
    4 7.109929 0.000000 0.000000 -0.007119 -0.003131 -0.631738
    5 -3.890452 0.000004 0.000007 -1.256644 -0.119427 -1.525221
    6 17.848173 0.000000 0.000000 0.000000 0.000000 0.414774
    7 15.638511 0.000000 0.000000 -0.142332 0.047514 -1.214786
    8 7.109930 0.000000 0.000000 -0.081154 -0.003131 -0.631749
    9 -0.050778 3.345128 -2.981901 1.564491 0.068539 1.492716
    10 4.018331 0.000000 0.000000 -0.057232 0.064477 0.068144
    11 3.518565 0.000000 0.000000 -0.056991 0.055225 0.070608
    12 8.942642 0.000000 0.000000 0.018804 -0.007646 0.135799
    13 3.306641 0.000001 0.000000 3.138800 0.000567 0.400476
    14 3.593712 -0.000001 0.000000 -0.013711 0.003425 0.395004
    15 2.033346 1.000768 1.101697 1.848180 -1.411864 2.688434
    16 6.809416 0.000001 0.000000 -1.377066 -0.114581 -1.073538
    17 12.391796 0.000000 0.000001 0.000000 0.000000 -1.371928
    18 9.337076 0.000000 -0.000031 -0.653201 0.241235 -0.185264
    19 4.454020 -0.070210 0.572073 0.096293 -0.007832 -0.804082
    20 1.426597 -0.000001 0.000000 0.023861 -0.079623 -1.125947
    21 1.322468 -0.000002 0.000000 0.009312 -0.033625 -0.575065
    22 4.477066 -0.028570 1.582474 0.476656 -0.055423 -1.136099
    23 1.344418 0.000000 0.000000 0.023466 -0.208305 -0.755723
    24 1.224671 0.000000 0.000000 0.026043 -0.124620 -0.538676
    25 2.630323 -0.345015 1.907214 -0.354022 -0.915164 -1.788195
    26 1.059292 0.000000 0.000001 0.000551 0.000004 0.000021
    27 0.781203 0.000000 0.000000 -0.000467 0.006940 -0.135953
    28 2.033353 1.000771 -1.101647 -2.221219 1.324324 2.397426
    29 6.809417 0.000001 0.000000 0.827679 0.394008 -0.807928
    30 12.391794 0.000000 0.000001 0.000000 0.000000 -1.630297
    31 9.337102 0.000000 0.000003 -1.016281 -0.300562 0.062498
    32 4.453986 -0.073766 -0.571672 -0.386562 0.126208 -1.146676
    33 1.426599 0.000002 0.000000 -0.051390 0.078806 -1.521754
    34 1.322465 -0.000001 0.000000 -0.034695 0.051519 -1.200268
    35 4.477036 -0.043465 -1.581290 -0.083016 0.164909 0.067468
    36 1.344414 0.000000 0.000000 0.019607 0.145376 -0.513063
    37 1.224670 0.000001 0.000000 -0.156219 0.222142 -1.272326
    38 2.630291 -0.359835 -1.904289 1.070466 0.381356 -0.978487
    39 1.059293 0.000000 0.000000 0.002193 0.017488 0.317162
    40 0.781204 0.000000 0.000000 0.006472 0.026012 0.488050
    41 -0.044717 2.528787 4.661499 -0.025085 -0.016741 -0.062525
  time 30
    0 -0.982847 -77.948065 38.031736 1.522541 -0.001525 0.107094
    1 3.890452 -0.000004 -0.000003 -1.693339 -0.322268 -1.511332
    2 17.848177 0.000000 0.000000 0.000000 0.000000 0.947542
    3 15.638507 0.000000 0.000000 0.136569 0.124377 -1.060046
    4 7.109929 0.000000 0.000000 -0.007119 -0.003131 -0.631738
    5 -3.890452 0.000004 0.000007 -1.267989 -0.014135 -1.517842
    6 17.848173 0.000000 0.000000 0.000000 0.000000 0.327771
    7 15.638511 0.000000 0.000000 -0.149188 0.063306 -1.227774
    8 7.109930 0.000000 0.000000 -0.081154 -0.003131 -0.631749
    9 0.003911 3.345128 -2.981901 1.564599 0.068567 1.479535
    10 4.018331 0.000000 0.000000 -0.049253 0.057526 0.070405
    11 3.518565 0.000000 0.000000 -0.048269 0.047471 0.072524
    12 8.942642 0.000000 0.000000 0.018429 -0.009815 0.134744
    13 3.306641 0.000001 0.000000 3.138800 0.000567 0.400476
    14 3.593712 -0.000001 0.000000 -0.024807 -0.009402 0.398739
    15 2.033346 1.000768 1.101697 1.848180 -1.411864 2.688434
    16 6.809416 0.000001 0.000000 -1.365303 -0.142617 -1.061705
    17 12.391796 0.000000 0.000001 0.000000 0.000000 -1.371139
    18 9.337076 0.000000 -0.000031 -0.657573 0.244621 -0.167436
    19 4.454020 -0.070210 0.572073 0.096293 -0.007832 -0.804082
    20 1.426597 -0.000001 0.000000 0.023861 -0.079623 -1.125947
    21 1.322468 -0.000002 0.000000 0.009312 -0.033625 -0.575065
    22 4.477066 -0.028570 1.582474 0.476656 -0.055423 -1.136099
    23 1.344418 0.000000 0.000000 0.023466 -0.208305 -0.755723
    24 1.224671 0.000000 0.000000 0.026043 -0.124620 -0.538676
    25 2.630323 -0.345015 1.907214 -0.354022 -0.915164 -1.788195
    26 1.059292 0.000000 0.000001 0.000551 0.000004 0.000021
    27 0.781203 0.000000 0.000000 -0.000467 0.006940 -0.135953
    28 2.033353 1.000771 -1.101647 -2.221219 1.324324 2.397426
    29 6.809417 0.000001 0.000000 0.846704 0.388621 -0.810939
    30 12.391794 0.000000 0.000001 0.000000 0.000000 -1.631159
    31 9.337102 0.000000 0.000003 -1.013977 -0.300639 0.059131
    32 4.453986 -0.073766 -0.571672 -0.386562 0.126208 -1.146676
    33 1.426599 0.000002 0.000000 -0.051390 0.078806 -1.521754
    34 1.322465 -0.000001 0.000000 -0.034695 0.051519 -1.200268
    35 4.477036 -0.043465 -1.581290 -0.083016 0.164909 0.067468
    36 1.344414 0.000000 0.000000 0.019235 0.146011 -0.515577
    37 1.224670 0.000001 0.000000 -0.155500 0.221926 -1.269081
    38 2.630291 -0.359835 -1.904289 1.070466 0.381356 -0.978487
    39 1.059293 0.000000 0.000000 0.002193 0.017488 0.317162
    40 0.781204 0.000000 0.000000 0.006472 0.026012 0.488050
    41 -0.044717 2.528787 4.661499 -0.025020 -0.040407 -0.080882
end
