// Created by Crowbar 0.68
version 1
nodes
  0 "ValveBiped.Bip01_Pelvis" -1
  1 "ValveBiped.Bip01_L_Thigh" 0
  2 "ValveBiped.Bip01_L_Calf" 1
  3 "ValveBiped.Bip01_L_Foot" 2
  4 "ValveBiped.Bip01_L_Toe0" 3
  5 "ValveBiped.Bip01_R_Thigh" 0
  6 "ValveBiped.Bip01_R_Calf" 5
  7 "ValveBiped.Bip01_R_Foot" 6
  8 "ValveBiped.Bip01_R_Toe0" 7
  9 "ValveBiped.Bip01_Spine" 0
  10 "ValveBiped.Bip01_Spine1" 9
  11 "ValveBiped.Bip01_Spine2" 10
  12 "ValveBiped.Bip01_Spine4" 11
  13 "ValveBiped.Bip01_Neck1" 12
  14 "ValveBiped.Bip01_Head1" 13
  15 "ValveBiped.Bip01_L_Clavicle" 12
  16 "ValveBiped.Bip01_L_UpperArm" 15
  17 "ValveBiped.Bip01_L_Forearm" 16
  18 "ValveBiped.Bip01_L_Hand" 17
  19 "ValveBiped.Bip01_L_Finger2" 18
  20 "ValveBiped.Bip01_L_Finger21" 19
  21 "ValveBiped.Bip01_L_Finger22" 20
  22 "ValveBiped.Bip01_L_Finger1" 18
  23 "ValveBiped.Bip01_L_Finger11" 22
  24 "ValveBiped.Bip01_L_Finger12" 23
  25 "ValveBiped.Bip01_L_Finger0" 18
  26 "ValveBiped.Bip01_L_Finger01" 25
  27 "ValveBiped.Bip01_L_Finger02" 26
  28 "ValveBiped.Bip01_R_Clavicle" 12
  29 "ValveBiped.Bip01_R_UpperArm" 28
  30 "ValveBiped.Bip01_R_Forearm" 29
  31 "ValveBiped.Bip01_R_Hand" 30
  32 "ValveBiped.Bip01_R_Finger2" 31
  33 "ValveBiped.Bip01_R_Finger21" 32
  34 "ValveBiped.Bip01_R_Finger22" 33
  35 "ValveBiped.Bip01_R_Finger1" 31
  36 "ValveBiped.Bip01_R_Finger11" 35
  37 "ValveBiped.Bip01_R_Finger12" 36
  38 "ValveBiped.Bip01_R_Finger0" 31
  39 "ValveBiped.Bip01_R_Finger01" 38
  40 "ValveBiped.Bip01_R_Finger02" 39
  41 "ValveBiped.Cod" 0
end
skeleton
  time 0
    0 -0.002349 -0.528179 38.361079 1.570796 0.000000 -0.000006
    1 3.890452 -0.000004 -0.000003 -1.570796 0.034333 -1.565574
    2 17.848177 0.000000 0.000000 0.000000 0.000000 0.125783
    3 15.638507 0.000000 0.000000 -0.029814 -0.039174 -1.098322
    4 7.109929 0.000000 0.000000 -0.007119 -0.003131 -0.631738
    5 -3.890452 0.000004 0.000007 -1.570796 0.034329 -1.576021
    6 17.848173 0.000000 0.000000 0.000000 0.000000 0.125739
    7 15.638511 0.000000 0.000000 0.040371 0.039186 -1.098276
    8 7.109930 0.000000 0.000000 -0.081154 -0.003131 -0.631749
    9 0.000005 3.343750 -2.980469 1.570793 0.086297 1.570793
    10 4.015625 0.000000 0.000000 0.000000 0.000000 -0.029243
    11 3.517578 0.000000 0.000000 0.000000 0.000000 0.100334
    12 8.937500 0.000000 0.000000 0.000000 0.000000 0.194095
    13 3.306641 0.000001 0.000000 3.138800 0.000567 0.400476
    14 3.591797 0.000000 0.000000 0.000000 0.000000 0.406586
    15 2.033346 1.000768 1.101697 1.610399 -1.304394 2.928681
    16 6.809416 0.000001 0.000000 -1.578944 0.062114 -0.150009
    17 12.391796 0.000000 0.000001 0.000000 0.000000 -0.125027
    18 9.337076 0.000000 -0.000031 1.598878 -0.132753 0.032942
    19 4.454020 -0.070210 0.572073 0.088455 -0.063632 -0.025690
    20 1.426597 -0.000001 0.000000 0.000000 -0.062952 -0.793904
    21 1.322468 -0.000002 0.000000 0.000000 -0.008805 -0.142858
    22 4.477066 -0.028570 1.582474 0.301297 -0.206745 -0.025938
    23 1.344418 0.000000 0.000000 0.000000 -0.180680 -0.634408
    24 1.224671 0.000000 0.000000 0.000000 -0.063427 -0.263158
    25 2.630323 -0.345015 1.907214 -1.084611 -0.805030 -0.948881
    26 1.059292 0.000000 0.000001 0.000000 0.007543 -0.146407
    27 0.781203 0.000000 0.000000 0.000000 0.000001 0.000010
    28 2.033353 1.000771 -1.101647 -1.682259 1.304409 2.928670
    29 6.809417 0.000001 0.000000 1.649985 -0.051251 -0.153972
    30 12.391794 0.000000 0.000001 0.000000 0.000000 -0.125085
    31 9.337102 0.000000 0.000003 -1.589643 0.132723 0.032968
    32 4.453986 -0.073766 -0.571672 -0.088458 0.063397 -0.026259
    33 1.426599 0.000002 0.000000 0.000000 0.056335 -0.794293
    34 1.322465 -0.000001 0.000000 0.000000 0.007871 -0.142919
    35 4.477036 -0.043465 -1.581290 -0.301675 0.206495 -0.027845
    36 1.344414 0.000000 0.000000 0.000000 0.175289 -0.635745
    37 1.224670 0.000001 0.000000 0.000000 0.061489 -0.263582
    38 2.630291 -0.359835 -1.904289 1.081217 0.797496 -0.954428
    39 1.059293 0.000000 0.000000 0.000000 -0.008183 -0.146366
    40 0.781204 0.000000 0.000000 0.000000 -0.000006 0.000002
    41 -0.044717 2.528787 4.661499 -0.038945 0.037199 0.009860
  time 1
    0 -0.002349 -0.528179 38.361079 1.570796 0.000000 -0.000006
    1 3.890452 -0.000004 -0.000003 -1.570796 0.034333 -1.565574
    2 17.848177 0.000000 0.000000 0.000000 0.000000 0.125783
    3 15.638507 0.000000 0.000000 -0.029814 -0.039174 -1.098322
    4 7.109929 0.000000 0.000000 -0.007119 -0.003131 -0.631738
    5 -3.890452 0.000004 0.000007 -1.570796 0.034329 -1.576021
    6 17.848173 0.000000 0.000000 0.000000 0.000000 0.125739
    7 15.638511 0.000000 0.000000 0.040371 0.039186 -1.098276
    8 7.109930 0.000000 0.000000 -0.081154 -0.003131 -0.631749
    9 0.000005 3.343750 -2.980469 1.570793 0.086297 1.570793
    10 4.015625 0.000000 0.000000 0.000000 0.000000 -0.029243
    11 3.517578 0.000000 0.000000 0.000000 0.000000 0.100334
    12 8.937500 0.000000 0.000000 0.000000 0.000000 0.194095
    13 3.306641 0.000001 0.000000 3.138800 0.000567 0.400476
    14 3.591797 0.000000 0.000000 0.000000 0.000000 0.406586
    15 2.033346 1.000768 1.101697 1.610399 -1.304394 2.928681
    16 6.809416 0.000001 0.000000 -1.578944 0.062114 -0.150009
    17 12.391796 0.000000 0.000001 0.000000 0.000000 -0.125027
    18 9.337076 0.000000 -0.000031 1.598878 -0.132753 0.032942
    19 4.454020 -0.070210 0.572073 0.088455 -0.063632 -0.025690
    20 1.426597 -0.000001 0.000000 0.000000 -0.062952 -0.793904
    21 1.322468 -0.000002 0.000000 0.000000 -0.008805 -0.142858
    22 4.477066 -0.028570 1.582474 0.301297 -0.206745 -0.025938
    23 1.344418 0.000000 0.000000 0.000000 -0.180680 -0.634408
    24 1.224671 0.000000 0.000000 0.000000 -0.063427 -0.263158
    25 2.630323 -0.345015 1.907214 -1.084611 -0.805030 -0.948881
    26 1.059292 0.000000 0.000001 0.000000 0.007543 -0.146407
    27 0.781203 0.000000 0.000000 0.000000 0.000001 0.000010
    28 2.033353 1.000771 -1.101647 -1.682259 1.304409 2.928670
    29 6.809417 0.000001 0.000000 1.649985 -0.051251 -0.153972
    30 12.391794 0.000000 0.000001 0.000000 0.000000 -0.125085
    31 9.337102 0.000000 0.000003 -1.589643 0.132723 0.032968
    32 4.453986 -0.073766 -0.571672 -0.088458 0.063397 -0.026259
    33 1.426599 0.000002 0.000000 0.000000 0.056335 -0.794293
    34 1.322465 -0.000001 0.000000 0.000000 0.007871 -0.142919
    35 4.477036 -0.043465 -1.581290 -0.301675 0.206495 -0.027845
    36 1.344414 0.000000 0.000000 0.000000 0.175289 -0.635745
    37 1.224670 0.000001 0.000000 0.000000 0.061489 -0.263582
    38 2.630291 -0.359835 -1.904289 1.081217 0.797496 -0.954428
    39 1.059293 0.000000 0.000000 0.000000 -0.008183 -0.146366
    40 0.781204 0.000000 0.000000 0.000000 -0.000006 0.000002
    41 -0.044717 2.528787 4.661499 -0.038945 0.037199 0.009860
  time 2
    0 -0.002349 -0.528179 38.361079 1.570796 0.000000 -0.000006
    1 3.890452 -0.000004 -0.000003 -1.570796 0.034333 -1.565574
    2 17.848177 0.000000 0.000000 0.000000 0.000000 0.125783
    3 15.638507 0.000000 0.000000 -0.029814 -0.039174 -1.098322
    4 7.109929 0.000000 0.000000 -0.007119 -0.003131 -0.631738
    5 -3.890452 0.000004 0.000007 -1.570796 0.034329 -1.576021
    6 17.848173 0.000000 0.000000 0.000000 0.000000 0.125739
    7 15.638511 0.000000 0.000000 0.040371 0.039186 -1.098276
    8 7.109930 0.000000 0.000000 -0.081154 -0.003131 -0.631749
    9 0.000005 3.343750 -2.980469 1.570793 0.086297 1.570793
    10 4.015625 0.000000 0.000000 0.000000 0.000000 -0.029243
    11 3.517578 0.000000 0.000000 0.000000 0.000000 0.100334
    12 8.937500 0.000000 0.000000 0.000000 0.000000 0.194095
    13 3.306641 0.000001 0.000000 3.138800 0.000567 0.400476
    14 3.591797 0.000000 0.000000 0.000000 0.000000 0.406586
    15 2.033346 1.000768 1.101697 1.610399 -1.304394 2.928681
    16 6.809416 0.000001 0.000000 -1.578944 0.062114 -0.150009
    17 12.391796 0.000000 0.000001 0.000000 0.000000 -0.125027
    18 9.337076 0.000000 -0.000031 1.598878 -0.132753 0.032942
    19 4.454020 -0.070210 0.572073 0.088455 -0.063632 -0.025690
    20 1.426597 -0.000001 0.000000 0.000000 -0.062952 -0.793904
    21 1.322468 -0.000002 0.000000 0.000000 -0.008805 -0.142858
    22 4.477066 -0.028570 1.582474 0.301297 -0.206745 -0.025938
    23 1.344418 0.000000 0.000000 0.000000 -0.180680 -0.634408
    24 1.224671 0.000000 0.000000 0.000000 -0.063427 -0.263158
    25 2.630323 -0.345015 1.907214 -1.084611 -0.805030 -0.948881
    26 1.059292 0.000000 0.000001 0.000000 0.007543 -0.146407
    27 0.781203 0.000000 0.000000 0.000000 0.000001 0.000010
    28 2.033353 1.000771 -1.101647 -1.682259 1.304409 2.928670
    29 6.809417 0.000001 0.000000 1.649985 -0.051251 -0.153972
    30 12.391794 0.000000 0.000001 0.000000 0.000000 -0.125085
    31 9.337102 0.000000 0.000003 -1.589643 0.132723 0.032968
    32 4.453986 -0.073766 -0.571672 -0.088458 0.063397 -0.026259
    33 1.426599 0.000002 0.000000 0.000000 0.056335 -0.794293
    34 1.322465 -0.000001 0.000000 0.000000 0.007871 -0.142919
    35 4.477036 -0.043465 -1.581290 -0.301675 0.206495 -0.027845
    36 1.344414 0.000000 0.000000 0.000000 0.175289 -0.635745
    37 1.224670 0.000001 0.000000 0.000000 0.061489 -0.263582
    38 2.630291 -0.359835 -1.904289 1.081217 0.797496 -0.954428
    39 1.059293 0.000000 0.000000 0.000000 -0.008183 -0.146366
    40 0.781204 0.000000 0.000000 0.000000 -0.000006 0.000002
    41 -0.044717 2.528787 4.661499 -0.038945 0.037199 0.009860
  time 3
    0 -0.002349 -0.528179 38.361079 1.570796 0.000000 -0.000006
    1 3.890452 -0.000004 -0.000003 -1.570796 0.034333 -1.565574
    2 17.848177 0.000000 0.000000 0.000000 0.000000 0.125783
    3 15.638507 0.000000 0.000000 -0.029814 -0.039174 -1.098322
    4 7.109929 0.000000 0.000000 -0.007119 -0.003131 -0.631738
    5 -3.890452 0.000004 0.000007 -1.570796 0.034329 -1.576021
    6 17.848173 0.000000 0.000000 0.000000 0.000000 0.125739
    7 15.638511 0.000000 0.000000 0.040371 0.039186 -1.098276
    8 7.109930 0.000000 0.000000 -0.081154 -0.003131 -0.631749
    9 0.000005 3.343750 -2.980469 1.570793 0.086297 1.570793
    10 4.015625 0.000000 0.000000 0.000000 0.000000 -0.029243
    11 3.517578 0.000000 0.000000 0.000000 0.000000 0.100334
    12 8.937500 0.000000 0.000000 0.000000 0.000000 0.194095
    13 3.306641 0.000001 0.000000 3.138800 0.000567 0.400476
    14 3.591797 0.000000 0.000000 0.000000 0.000000 0.406586
    15 2.033346 1.000768 1.101697 1.610399 -1.304394 2.928681
    16 6.809416 0.000001 0.000000 -1.578944 0.062114 -0.150009
    17 12.391796 0.000000 0.000001 0.000000 0.000000 -0.125027
    18 9.337076 0.000000 -0.000031 1.598878 -0.132753 0.032942
    19 4.454020 -0.070210 0.572073 0.088455 -0.063632 -0.025690
    20 1.426597 -0.000001 0.000000 0.000000 -0.062952 -0.793904
    21 1.322468 -0.000002 0.000000 0.000000 -0.008805 -0.142858
    22 4.477066 -0.028570 1.582474 0.301297 -0.206745 -0.025938
    23 1.344418 0.000000 0.000000 0.000000 -0.180680 -0.634408
    24 1.224671 0.000000 0.000000 0.000000 -0.063427 -0.263158
    25 2.630323 -0.345015 1.907214 -1.084611 -0.805030 -0.948881
    26 1.059292 0.000000 0.000001 0.000000 0.007543 -0.146407
    27 0.781203 0.000000 0.000000 0.000000 0.000001 0.000010
    28 2.033353 1.000771 -1.101647 -1.682259 1.304409 2.928670
    29 6.809417 0.000001 0.000000 1.649985 -0.051251 -0.153972
    30 12.391794 0.000000 0.000001 0.000000 0.000000 -0.125085
    31 9.337102 0.000000 0.000003 -1.589643 0.132723 0.032968
    32 4.453986 -0.073766 -0.571672 -0.088458 0.063397 -0.026259
    33 1.426599 0.000002 0.000000 0.000000 0.056335 -0.794293
    34 1.322465 -0.000001 0.000000 0.000000 0.007871 -0.142919
    35 4.477036 -0.043465 -1.581290 -0.301675 0.206495 -0.027845
    36 1.344414 0.000000 0.000000 0.000000 0.175289 -0.635745
    37 1.224670 0.000001 0.000000 0.000000 0.061489 -0.263582
    38 2.630291 -0.359835 -1.904289 1.081217 0.797496 -0.954428
    39 1.059293 0.000000 0.000000 0.000000 -0.008183 -0.146366
    40 0.781204 0.000000 0.000000 0.000000 -0.000006 0.000002
    41 -0.044717 2.528787 4.661499 -0.038945 0.037199 0.009860
  time 4
    0 -0.002349 -0.528179 38.361079 1.570796 0.000000 -0.000006
    1 3.890452 -0.000004 -0.000003 -1.570796 0.034333 -1.565574
    2 17.848177 0.000000 0.000000 0.000000 0.000000 0.125783
    3 15.638507 0.000000 0.000000 -0.029814 -0.039174 -1.098322
    4 7.109929 0.000000 0.000000 -0.007119 -0.003131 -0.631738
    5 -3.890452 0.000004 0.000007 -1.570796 0.034329 -1.576021
    6 17.848173 0.000000 0.000000 0.000000 0.000000 0.125739
    7 15.638511 0.000000 0.000000 0.040371 0.039186 -1.098276
    8 7.109930 0.000000 0.000000 -0.081154 -0.003131 -0.631749
    9 0.000005 3.343750 -2.980469 1.570793 0.086297 1.570793
    10 4.015625 0.000000 0.000000 0.000000 0.000000 -0.029243
    11 3.517578 0.000000 0.000000 0.000000 0.000000 0.100334
    12 8.937500 0.000000 0.000000 0.000000 0.000000 0.194095
    13 3.306641 0.000001 0.000000 3.138800 0.000567 0.400476
    14 3.591797 0.000000 0.000000 0.000000 0.000000 0.406586
    15 2.033346 1.000768 1.101697 1.610399 -1.304394 2.928681
    16 6.809416 0.000001 0.000000 -1.578944 0.062114 -0.150009
    17 12.391796 0.000000 0.000001 0.000000 0.000000 -0.125027
    18 9.337076 0.000000 -0.000031 1.598878 -0.132753 0.032942
    19 4.454020 -0.070210 0.572073 0.088455 -0.063632 -0.025690
    20 1.426597 -0.000001 0.000000 0.000000 -0.062952 -0.793904
    21 1.322468 -0.000002 0.000000 0.000000 -0.008805 -0.142858
    22 4.477066 -0.028570 1.582474 0.301297 -0.206745 -0.025938
    23 1.344418 0.000000 0.000000 0.000000 -0.180680 -0.634408
    24 1.224671 0.000000 0.000000 0.000000 -0.063427 -0.263158
    25 2.630323 -0.345015 1.907214 -1.084611 -0.805030 -0.948881
    26 1.059292 0.000000 0.000001 0.000000 0.007543 -0.146407
    27 0.781203 0.000000 0.000000 0.000000 0.000001 0.000010
    28 2.033353 1.000771 -1.101647 -1.682259 1.304409 2.928670
    29 6.809417 0.000001 0.000000 1.649985 -0.051251 -0.153972
    30 12.391794 0.000000 0.000001 0.000000 0.000000 -0.125085
    31 9.337102 0.000000 0.000003 -1.589643 0.132723 0.032968
    32 4.453986 -0.073766 -0.571672 -0.088458 0.063397 -0.026259
    33 1.426599 0.000002 0.000000 0.000000 0.056335 -0.794293
    34 1.322465 -0.000001 0.000000 0.000000 0.007871 -0.142919
    35 4.477036 -0.043465 -1.581290 -0.301675 0.206495 -0.027845
    36 1.344414 0.000000 0.000000 0.000000 0.175289 -0.635745
    37 1.224670 0.000001 0.000000 0.000000 0.061489 -0.263582
    38 2.630291 -0.359835 -1.904289 1.081217 0.797496 -0.954428
    39 1.059293 0.000000 0.000000 0.000000 -0.008183 -0.146366
    40 0.781204 0.000000 0.000000 0.000000 -0.000006 0.000002
    41 -0.044717 2.528787 4.661499 -0.038945 0.037199 0.009860
  time 5
    0 -0.002349 -0.528179 38.361079 1.570796 0.000000 -0.000006
    1 3.890452 -0.000004 -0.000003 -1.570796 0.034333 -1.565574
    2 17.848177 0.000000 0.000000 0.000000 0.000000 0.125783
    3 15.638507 0.000000 0.000000 -0.029814 -0.039174 -1.098322
    4 7.109929 0.000000 0.000000 -0.007119 -0.003131 -0.631738
    5 -3.890452 0.000004 0.000007 -1.570796 0.034329 -1.576021
    6 17.848173 0.000000 0.000000 0.000000 0.000000 0.125739
    7 15.638511 0.000000 0.000000 0.040371 0.039186 -1.098276
    8 7.109930 0.000000 0.000000 -0.081154 -0.003131 -0.631749
    9 0.000005 3.343750 -2.980469 1.570793 0.086297 1.570793
    10 4.015625 0.000000 0.000000 0.000000 0.000000 -0.029243
    11 3.517578 0.000000 0.000000 0.000000 0.000000 0.100334
    12 8.937500 0.000000 0.000000 0.000000 0.000000 0.194095
    13 3.306641 0.000001 0.000000 3.138800 0.000567 0.400476
    14 3.591797 0.000000 0.000000 0.000000 0.000000 0.406586
    15 2.033346 1.000768 1.101697 1.610399 -1.304394 2.928681
    16 6.809416 0.000001 0.000000 -1.578944 0.062114 -0.150009
    17 12.391796 0.000000 0.000001 0.000000 0.000000 -0.125027
    18 9.337076 0.000000 -0.000031 1.598878 -0.132753 0.032942
    19 4.454020 -0.070210 0.572073 0.088455 -0.063632 -0.025690
    20 1.426597 -0.000001 0.000000 0.000000 -0.062952 -0.793904
    21 1.322468 -0.000002 0.000000 0.000000 -0.008805 -0.142858
    22 4.477066 -0.028570 1.582474 0.301297 -0.206745 -0.025938
    23 1.344418 0.000000 0.000000 0.000000 -0.180680 -0.634408
    24 1.224671 0.000000 0.000000 0.000000 -0.063427 -0.263158
    25 2.630323 -0.345015 1.907214 -1.084611 -0.805030 -0.948881
    26 1.059292 0.000000 0.000001 0.000000 0.007543 -0.146407
    27 0.781203 0.000000 0.000000 0.000000 0.000001 0.000010
    28 2.033353 1.000771 -1.101647 -1.682259 1.304409 2.928670
    29 6.809417 0.000001 0.000000 1.649985 -0.051251 -0.153972
    30 12.391794 0.000000 0.000001 0.000000 0.000000 -0.125085
    31 9.337102 0.000000 0.000003 -1.589643 0.132723 0.032968
    32 4.453986 -0.073766 -0.571672 -0.088458 0.063397 -0.026259
    33 1.426599 0.000002 0.000000 0.000000 0.056335 -0.794293
    34 1.322465 -0.000001 0.000000 0.000000 0.007871 -0.142919
    35 4.477036 -0.043465 -1.581290 -0.301675 0.206495 -0.027845
    36 1.344414 0.000000 0.000000 0.000000 0.175289 -0.635745
    37 1.224670 0.000001 0.000000 0.000000 0.061489 -0.263582
    38 2.630291 -0.359835 -1.904289 1.081217 0.797496 -0.954428
    39 1.059293 0.000000 0.000000 0.000000 -0.008183 -0.146366
    40 0.781204 0.000000 0.000000 0.000000 -0.000006 0.000002
    41 -0.044717 2.528787 4.661499 -0.038945 0.037199 0.009860
  time 6
    0 -0.002349 -0.528179 38.361079 1.570796 0.000000 -0.000006
    1 3.890452 -0.000004 -0.000003 -1.570796 0.034333 -1.565574
    2 17.848177 0.000000 0.000000 0.000000 0.000000 0.125783
    3 15.638507 0.000000 0.000000 -0.029814 -0.039174 -1.098322
    4 7.109929 0.000000 0.000000 -0.007119 -0.003131 -0.631738
    5 -3.890452 0.000004 0.000007 -1.570796 0.034329 -1.576021
    6 17.848173 0.000000 0.000000 0.000000 0.000000 0.125739
    7 15.638511 0.000000 0.000000 0.040371 0.039186 -1.098276
    8 7.109930 0.000000 0.000000 -0.081154 -0.003131 -0.631749
    9 0.000005 3.343750 -2.980469 1.570793 0.086297 1.570793
    10 4.015625 0.000000 0.000000 0.000000 0.000000 -0.029243
    11 3.517578 0.000000 0.000000 0.000000 0.000000 0.100334
    12 8.937500 0.000000 0.000000 0.000000 0.000000 0.194095
    13 3.306641 0.000001 0.000000 3.138800 0.000567 0.400476
    14 3.591797 0.000000 0.000000 0.000000 0.000000 0.406586
    15 2.033346 1.000768 1.101697 1.610399 -1.304394 2.928681
    16 6.809416 0.000001 0.000000 -1.578944 0.062114 -0.150009
    17 12.391796 0.000000 0.000001 0.000000 0.000000 -0.125027
    18 9.337076 0.000000 -0.000031 1.598878 -0.132753 0.032942
    19 4.454020 -0.070210 0.572073 0.088455 -0.063632 -0.025690
    20 1.426597 -0.000001 0.000000 0.000000 -0.062952 -0.793904
    21 1.322468 -0.000002 0.000000 0.000000 -0.008805 -0.142858
    22 4.477066 -0.028570 1.582474 0.301297 -0.206745 -0.025938
    23 1.344418 0.000000 0.000000 0.000000 -0.180680 -0.634408
    24 1.224671 0.000000 0.000000 0.000000 -0.063427 -0.263158
    25 2.630323 -0.345015 1.907214 -1.084611 -0.805030 -0.948881
    26 1.059292 0.000000 0.000001 0.000000 0.007543 -0.146407
    27 0.781203 0.000000 0.000000 0.000000 0.000001 0.000010
    28 2.033353 1.000771 -1.101647 -1.682259 1.304409 2.928670
    29 6.809417 0.000001 0.000000 1.649985 -0.051251 -0.153972
    30 12.391794 0.000000 0.000001 0.000000 0.000000 -0.125085
    31 9.337102 0.000000 0.000003 -1.589643 0.132723 0.032968
    32 4.453986 -0.073766 -0.571672 -0.088458 0.063397 -0.026259
    33 1.426599 0.000002 0.000000 0.000000 0.056335 -0.794293
    34 1.322465 -0.000001 0.000000 0.000000 0.007871 -0.142919
    35 4.477036 -0.043465 -1.581290 -0.301675 0.206495 -0.027845
    36 1.344414 0.000000 0.000000 0.000000 0.175289 -0.635745
    37 1.224670 0.000001 0.000000 0.000000 0.061489 -0.263582
    38 2.630291 -0.359835 -1.904289 1.081217 0.797496 -0.954428
    39 1.059293 0.000000 0.000000 0.000000 -0.008183 -0.146366
    40 0.781204 0.000000 0.000000 0.000000 -0.000006 0.000002
    41 -0.044717 2.528787 4.661499 -0.038945 0.037199 0.009860
  time 7
    0 -0.002349 -0.528179 38.361079 1.570796 0.000000 -0.000006
    1 3.890452 -0.000004 -0.000003 -1.570796 0.034333 -1.565574
    2 17.848177 0.000000 0.000000 0.000000 0.000000 0.125783
    3 15.638507 0.000000 0.000000 -0.029814 -0.039174 -1.098322
    4 7.109929 0.000000 0.000000 -0.007119 -0.003131 -0.631738
    5 -3.890452 0.000004 0.000007 -1.570796 0.034329 -1.576021
    6 17.848173 0.000000 0.000000 0.000000 0.000000 0.125739
    7 15.638511 0.000000 0.000000 0.040371 0.039186 -1.098276
    8 7.109930 0.000000 0.000000 -0.081154 -0.003131 -0.631749
    9 0.000005 3.343750 -2.980469 1.570793 0.086297 1.570793
    10 4.015625 0.000000 0.000000 0.000000 0.000000 -0.029243
    11 3.517578 0.000000 0.000000 0.000000 0.000000 0.100334
    12 8.937500 0.000000 0.000000 0.000000 0.000000 0.194095
    13 3.306641 0.000001 0.000000 3.138800 0.000567 0.400476
    14 3.591797 0.000000 0.000000 0.000000 0.000000 0.406586
    15 2.033346 1.000768 1.101697 1.610399 -1.304394 2.928681
    16 6.809416 0.000001 0.000000 -1.578944 0.062114 -0.150009
    17 12.391796 0.000000 0.000001 0.000000 0.000000 -0.125027
    18 9.337076 0.000000 -0.000031 1.598878 -0.132753 0.032942
    19 4.454020 -0.070210 0.572073 0.088455 -0.063632 -0.025690
    20 1.426597 -0.000001 0.000000 0.000000 -0.062952 -0.793904
    21 1.322468 -0.000002 0.000000 0.000000 -0.008805 -0.142858
    22 4.477066 -0.028570 1.582474 0.301297 -0.206745 -0.025938
    23 1.344418 0.000000 0.000000 0.000000 -0.180680 -0.634408
    24 1.224671 0.000000 0.000000 0.000000 -0.063427 -0.263158
    25 2.630323 -0.345015 1.907214 -1.084611 -0.805030 -0.948881
    26 1.059292 0.000000 0.000001 0.000000 0.007543 -0.146407
    27 0.781203 0.000000 0.000000 0.000000 0.000001 0.000010
    28 2.033353 1.000771 -1.101647 -1.682259 1.304409 2.928670
    29 6.809417 0.000001 0.000000 1.649985 -0.051251 -0.153972
    30 12.391794 0.000000 0.000001 0.000000 0.000000 -0.125085
    31 9.337102 0.000000 0.000003 -1.589643 0.132723 0.032968
    32 4.453986 -0.073766 -0.571672 -0.088458 0.063397 -0.026259
    33 1.426599 0.000002 0.000000 0.000000 0.056335 -0.794293
    34 1.322465 -0.000001 0.000000 0.000000 0.007871 -0.142919
    35 4.477036 -0.043465 -1.581290 -0.301675 0.206495 -0.027845
    36 1.344414 0.000000 0.000000 0.000000 0.175289 -0.635745
    37 1.224670 0.000001 0.000000 0.000000 0.061489 -0.263582
    38 2.630291 -0.359835 -1.904289 1.081217 0.797496 -0.954428
    39 1.059293 0.000000 0.000000 0.000000 -0.008183 -0.146366
    40 0.781204 0.000000 0.000000 0.000000 -0.000006 0.000002
    41 -0.044717 2.528787 4.661499 -0.038945 0.037199 0.009860
  time 8
    0 -0.002349 -0.528179 38.361079 1.570796 0.000000 -0.000006
    1 3.890452 -0.000004 -0.000003 -1.570796 0.034333 -1.565574
    2 17.848177 0.000000 0.000000 0.000000 0.000000 0.125783
    3 15.638507 0.000000 0.000000 -0.029814 -0.039174 -1.098322
    4 7.109929 0.000000 0.000000 -0.007119 -0.003131 -0.631738
    5 -3.890452 0.000004 0.000007 -1.570796 0.034329 -1.576021
    6 17.848173 0.000000 0.000000 0.000000 0.000000 0.125739
    7 15.638511 0.000000 0.000000 0.040371 0.039186 -1.098276
    8 7.109930 0.000000 0.000000 -0.081154 -0.003131 -0.631749
    9 0.000005 3.343750 -2.980469 1.570793 0.086297 1.570793
    10 4.015625 0.000000 0.000000 0.000000 0.000000 -0.029243
    11 3.517578 0.000000 0.000000 0.000000 0.000000 0.100334
    12 8.937500 0.000000 0.000000 0.000000 0.000000 0.194095
    13 3.306641 0.000001 0.000000 3.138800 0.000567 0.400476
    14 3.591797 0.000000 0.000000 0.000000 0.000000 0.406586
    15 2.033346 1.000768 1.101697 1.610399 -1.304394 2.928681
    16 6.809416 0.000001 0.000000 -1.578944 0.062114 -0.150009
    17 12.391796 0.000000 0.000001 0.000000 0.000000 -0.125027
    18 9.337076 0.000000 -0.000031 1.598878 -0.132753 0.032942
    19 4.454020 -0.070210 0.572073 0.088455 -0.063632 -0.025690
    20 1.426597 -0.000001 0.000000 0.000000 -0.062952 -0.793904
    21 1.322468 -0.000002 0.000000 0.000000 -0.008805 -0.142858
    22 4.477066 -0.028570 1.582474 0.301297 -0.206745 -0.025938
    23 1.344418 0.000000 0.000000 0.000000 -0.180680 -0.634408
    24 1.224671 0.000000 0.000000 0.000000 -0.063427 -0.263158
    25 2.630323 -0.345015 1.907214 -1.084611 -0.805030 -0.948881
    26 1.059292 0.000000 0.000001 0.000000 0.007543 -0.146407
    27 0.781203 0.000000 0.000000 0.000000 0.000001 0.000010
    28 2.033353 1.000771 -1.101647 -1.682259 1.304409 2.928670
    29 6.809417 0.000001 0.000000 1.649985 -0.051251 -0.153972
    30 12.391794 0.000000 0.000001 0.000000 0.000000 -0.125085
    31 9.337102 0.000000 0.000003 -1.589643 0.132723 0.032968
    32 4.453986 -0.073766 -0.571672 -0.088458 0.063397 -0.026259
    33 1.426599 0.000002 0.000000 0.000000 0.056335 -0.794293
    34 1.322465 -0.000001 0.000000 0.000000 0.007871 -0.142919
    35 4.477036 -0.043465 -1.581290 -0.301675 0.206495 -0.027845
    36 1.344414 0.000000 0.000000 0.000000 0.175289 -0.635745
    37 1.224670 0.000001 0.000000 0.000000 0.061489 -0.263582
    38 2.630291 -0.359835 -1.904289 1.081217 0.797496 -0.954428
    39 1.059293 0.000000 0.000000 0.000000 -0.008183 -0.146366
    40 0.781204 0.000000 0.000000 0.000000 -0.000006 0.000002
    41 -0.044717 2.528787 4.661499 -0.038945 0.037199 0.009860
  time 9
    0 -0.002349 -0.528179 38.361079 1.570796 0.000000 -0.000006
    1 3.890452 -0.000004 -0.000003 -1.570796 0.034333 -1.565574
    2 17.848177 0.000000 0.000000 0.000000 0.000000 0.125783
    3 15.638507 0.000000 0.000000 -0.029814 -0.039174 -1.098322
    4 7.109929 0.000000 0.000000 -0.007119 -0.003131 -0.631738
    5 -3.890452 0.000004 0.000007 -1.570796 0.034329 -1.576021
    6 17.848173 0.000000 0.000000 0.000000 0.000000 0.125739
    7 15.638511 0.000000 0.000000 0.040371 0.039186 -1.098276
    8 7.109930 0.000000 0.000000 -0.081154 -0.003131 -0.631749
    9 0.000005 3.343750 -2.980469 1.570793 0.086297 1.570793
    10 4.015625 0.000000 0.000000 0.000000 0.000000 -0.029243
    11 3.517578 0.000000 0.000000 0.000000 0.000000 0.100334
    12 8.937500 0.000000 0.000000 0.000000 0.000000 0.194095
    13 3.306641 0.000001 0.000000 3.138800 0.000567 0.400476
    14 3.591797 0.000000 0.000000 0.000000 0.000000 0.406586
    15 2.033346 1.000768 1.101697 1.610399 -1.304394 2.928681
    16 6.809416 0.000001 0.000000 -1.578944 0.062114 -0.150009
    17 12.391796 0.000000 0.000001 0.000000 0.000000 -0.125027
    18 9.337076 0.000000 -0.000031 1.598878 -0.132753 0.032942
    19 4.454020 -0.070210 0.572073 0.088455 -0.063632 -0.025690
    20 1.426597 -0.000001 0.000000 0.000000 -0.062952 -0.793904
    21 1.322468 -0.000002 0.000000 0.000000 -0.008805 -0.142858
    22 4.477066 -0.028570 1.582474 0.301297 -0.206745 -0.025938
    23 1.344418 0.000000 0.000000 0.000000 -0.180680 -0.634408
    24 1.224671 0.000000 0.000000 0.000000 -0.063427 -0.263158
    25 2.630323 -0.345015 1.907214 -1.084611 -0.805030 -0.948881
    26 1.059292 0.000000 0.000001 0.000000 0.007543 -0.146407
    27 0.781203 0.000000 0.000000 0.000000 0.000001 0.000010
    28 2.033353 1.000771 -1.101647 -1.682259 1.304409 2.928670
    29 6.809417 0.000001 0.000000 1.649985 -0.051251 -0.153972
    30 12.391794 0.000000 0.000001 0.000000 0.000000 -0.125085
    31 9.337102 0.000000 0.000003 -1.589643 0.132723 0.032968
    32 4.453986 -0.073766 -0.571672 -0.088458 0.063397 -0.026259
    33 1.426599 0.000002 0.000000 0.000000 0.056335 -0.794293
    34 1.322465 -0.000001 0.000000 0.000000 0.007871 -0.142919
    35 4.477036 -0.043465 -1.581290 -0.301675 0.206495 -0.027845
    36 1.344414 0.000000 0.000000 0.000000 0.175289 -0.635745
    37 1.224670 0.000001 0.000000 0.000000 0.061489 -0.263582
    38 2.630291 -0.359835 -1.904289 1.081217 0.797496 -0.954428
    39 1.059293 0.000000 0.000000 0.000000 -0.008183 -0.146366
    40 0.781204 0.000000 0.000000 0.000000 -0.000006 0.000002
    41 -0.044717 2.528787 4.661499 -0.038945 0.037199 0.009860
  time 10
    0 -0.002349 -0.528179 38.361079 1.570796 0.000000 -0.000006
    1 3.890452 -0.000004 -0.000003 -1.570796 0.034333 -1.565574
    2 17.848177 0.000000 0.000000 0.000000 0.000000 0.125783
    3 15.638507 0.000000 0.000000 -0.029814 -0.039174 -1.098322
    4 7.109929 0.000000 0.000000 -0.007119 -0.003131 -0.631738
    5 -3.890452 0.000004 0.000007 -1.570796 0.034329 -1.576021
    6 17.848173 0.000000 0.000000 0.000000 0.000000 0.125739
    7 15.638511 0.000000 0.000000 0.040371 0.039186 -1.098276
    8 7.109930 0.000000 0.000000 -0.081154 -0.003131 -0.631749
    9 0.000005 3.343750 -2.980469 1.570793 0.086297 1.570793
    10 4.015625 0.000000 0.000000 0.000000 0.000000 -0.029243
    11 3.517578 0.000000 0.000000 0.000000 0.000000 0.100334
    12 8.937500 0.000000 0.000000 0.000000 0.000000 0.194095
    13 3.306641 0.000001 0.000000 3.138800 0.000567 0.400476
    14 3.591797 0.000000 0.000000 0.000000 0.000000 0.406586
    15 2.033346 1.000768 1.101697 1.610399 -1.304394 2.928681
    16 6.809416 0.000001 0.000000 -1.578944 0.062114 -0.150009
    17 12.391796 0.000000 0.000001 0.000000 0.000000 -0.125027
    18 9.337076 0.000000 -0.000031 1.598878 -0.132753 0.032942
    19 4.454020 -0.070210 0.572073 0.088455 -0.063632 -0.025690
    20 1.426597 -0.000001 0.000000 0.000000 -0.062952 -0.793904
    21 1.322468 -0.000002 0.000000 0.000000 -0.008805 -0.142858
    22 4.477066 -0.028570 1.582474 0.301297 -0.206745 -0.025938
    23 1.344418 0.000000 0.000000 0.000000 -0.180680 -0.634408
    24 1.224671 0.000000 0.000000 0.000000 -0.063427 -0.263158
    25 2.630323 -0.345015 1.907214 -1.084611 -0.805030 -0.948881
    26 1.059292 0.000000 0.000001 0.000000 0.007543 -0.146407
    27 0.781203 0.000000 0.000000 0.000000 0.000001 0.000010
    28 2.033353 1.000771 -1.101647 -1.682259 1.304409 2.928670
    29 6.809417 0.000001 0.000000 1.649985 -0.051251 -0.153972
    30 12.391794 0.000000 0.000001 0.000000 0.000000 -0.125085
    31 9.337102 0.000000 0.000003 -1.589643 0.132723 0.032968
    32 4.453986 -0.073766 -0.571672 -0.088458 0.063397 -0.026259
    33 1.426599 0.000002 0.000000 0.000000 0.056335 -0.794293
    34 1.322465 -0.000001 0.000000 0.000000 0.007871 -0.142919
    35 4.477036 -0.043465 -1.581290 -0.301675 0.206495 -0.027845
    36 1.344414 0.000000 0.000000 0.000000 0.175289 -0.635745
    37 1.224670 0.000001 0.000000 0.000000 0.061489 -0.263582
    38 2.630291 -0.359835 -1.904289 1.081217 0.797496 -0.954428
    39 1.059293 0.000000 0.000000 0.000000 -0.008183 -0.146366
    40 0.781204 0.000000 0.000000 0.000000 -0.000006 0.000002
    41 -0.044717 2.528787 4.661499 -0.038945 0.037199 0.009860
  time 11
    0 -0.002349 -0.528179 38.361079 1.570796 0.000000 -0.000006
    1 3.890452 -0.000004 -0.000003 -1.570796 0.034333 -1.565574
    2 17.848177 0.000000 0.000000 0.000000 0.000000 0.125783
    3 15.638507 0.000000 0.000000 -0.029814 -0.039174 -1.098322
    4 7.109929 0.000000 0.000000 -0.007119 -0.003131 -0.631738
    5 -3.890452 0.000004 0.000007 -1.570796 0.034329 -1.576021
    6 17.848173 0.000000 0.000000 0.000000 0.000000 0.125739
    7 15.638511 0.000000 0.000000 0.040371 0.039186 -1.098276
    8 7.109930 0.000000 0.000000 -0.081154 -0.003131 -0.631749
    9 0.000005 3.343750 -2.980469 1.570793 0.086297 1.570793
    10 4.015625 0.000000 0.000000 0.000000 0.000000 -0.029243
    11 3.517578 0.000000 0.000000 0.000000 0.000000 0.100334
    12 8.937500 0.000000 0.000000 0.000000 0.000000 0.194095
    13 3.306641 0.000001 0.000000 3.138800 0.000567 0.400476
    14 3.591797 0.000000 0.000000 0.000000 0.000000 0.406586
    15 2.033346 1.000768 1.101697 1.610399 -1.304394 2.928681
    16 6.809416 0.000001 0.000000 -1.578944 0.062114 -0.150009
    17 12.391796 0.000000 0.000001 0.000000 0.000000 -0.125027
    18 9.337076 0.000000 -0.000031 1.598878 -0.132753 0.032942
    19 4.454020 -0.070210 0.572073 0.088455 -0.063632 -0.025690
    20 1.426597 -0.000001 0.000000 0.000000 -0.062952 -0.793904
    21 1.322468 -0.000002 0.000000 0.000000 -0.008805 -0.142858
    22 4.477066 -0.028570 1.582474 0.301297 -0.206745 -0.025938
    23 1.344418 0.000000 0.000000 0.000000 -0.180680 -0.634408
    24 1.224671 0.000000 0.000000 0.000000 -0.063427 -0.263158
    25 2.630323 -0.345015 1.907214 -1.084611 -0.805030 -0.948881
    26 1.059292 0.000000 0.000001 0.000000 0.007543 -0.146407
    27 0.781203 0.000000 0.000000 0.000000 0.000001 0.000010
    28 2.033353 1.000771 -1.101647 -1.682259 1.304409 2.928670
    29 6.809417 0.000001 0.000000 1.649985 -0.051251 -0.153972
    30 12.391794 0.000000 0.000001 0.000000 0.000000 -0.125085
    31 9.337102 0.000000 0.000003 -1.589643 0.132723 0.032968
    32 4.453986 -0.073766 -0.571672 -0.088458 0.063397 -0.026259
    33 1.426599 0.000002 0.000000 0.000000 0.056335 -0.794293
    34 1.322465 -0.000001 0.000000 0.000000 0.007871 -0.142919
    35 4.477036 -0.043465 -1.581290 -0.301675 0.206495 -0.027845
    36 1.344414 0.000000 0.000000 0.000000 0.175289 -0.635745
    37 1.224670 0.000001 0.000000 0.000000 0.061489 -0.263582
    38 2.630291 -0.359835 -1.904289 1.081217 0.797496 -0.954428
    39 1.059293 0.000000 0.000000 0.000000 -0.008183 -0.146366
    40 0.781204 0.000000 0.000000 0.000000 -0.000006 0.000002
    41 -0.044717 2.528787 4.661499 -0.038945 0.037199 0.009860
  time 12
    0 -0.002349 -0.528179 38.361079 1.570796 0.000000 -0.000006
    1 3.890452 -0.000004 -0.000003 -1.570796 0.034333 -1.565574
    2 17.848177 0.000000 0.000000 0.000000 0.000000 0.125783
    3 15.638507 0.000000 0.000000 -0.029814 -0.039174 -1.098322
    4 7.109929 0.000000 0.000000 -0.007119 -0.003131 -0.631738
    5 -3.890452 0.000004 0.000007 -1.570796 0.034329 -1.576021
    6 17.848173 0.000000 0.000000 0.000000 0.000000 0.125739
    7 15.638511 0.000000 0.000000 0.040371 0.039186 -1.098276
    8 7.109930 0.000000 0.000000 -0.081154 -0.003131 -0.631749
    9 0.000005 3.343750 -2.980469 1.570793 0.086297 1.570793
    10 4.015625 0.000000 0.000000 0.000000 0.000000 -0.029243
    11 3.517578 0.000000 0.000000 0.000000 0.000000 0.100334
    12 8.937500 0.000000 0.000000 0.000000 0.000000 0.194095
    13 3.306641 0.000001 0.000000 3.138800 0.000567 0.400476
    14 3.591797 0.000000 0.000000 0.000000 0.000000 0.406586
    15 2.033346 1.000768 1.101697 1.610399 -1.304394 2.928681
    16 6.809416 0.000001 0.000000 -1.578944 0.062114 -0.150009
    17 12.391796 0.000000 0.000001 0.000000 0.000000 -0.125027
    18 9.337076 0.000000 -0.000031 1.598878 -0.132753 0.032942
    19 4.454020 -0.070210 0.572073 0.088455 -0.063632 -0.025690
    20 1.426597 -0.000001 0.000000 0.000000 -0.062952 -0.793904
    21 1.322468 -0.000002 0.000000 0.000000 -0.008805 -0.142858
    22 4.477066 -0.028570 1.582474 0.301297 -0.206745 -0.025938
    23 1.344418 0.000000 0.000000 0.000000 -0.180680 -0.634408
    24 1.224671 0.000000 0.000000 0.000000 -0.063427 -0.263158
    25 2.630323 -0.345015 1.907214 -1.084611 -0.805030 -0.948881
    26 1.059292 0.000000 0.000001 0.000000 0.007543 -0.146407
    27 0.781203 0.000000 0.000000 0.000000 0.000001 0.000010
    28 2.033353 1.000771 -1.101647 -1.682259 1.304409 2.928670
    29 6.809417 0.000001 0.000000 1.649985 -0.051251 -0.153972
    30 12.391794 0.000000 0.000001 0.000000 0.000000 -0.125085
    31 9.337102 0.000000 0.000003 -1.589643 0.132723 0.032968
    32 4.453986 -0.073766 -0.571672 -0.088458 0.063397 -0.026259
    33 1.426599 0.000002 0.000000 0.000000 0.056335 -0.794293
    34 1.322465 -0.000001 0.000000 0.000000 0.007871 -0.142919
    35 4.477036 -0.043465 -1.581290 -0.301675 0.206495 -0.027845
    36 1.344414 0.000000 0.000000 0.000000 0.175289 -0.635745
    37 1.224670 0.000001 0.000000 0.000000 0.061489 -0.263582
    38 2.630291 -0.359835 -1.904289 1.081217 0.797496 -0.954428
    39 1.059293 0.000000 0.000000 0.000000 -0.008183 -0.146366
    40 0.781204 0.000000 0.000000 0.000000 -0.000006 0.000002
    41 -0.044717 2.528787 4.661499 -0.038945 0.037199 0.009860
  time 13
    0 -0.002349 -0.528179 38.361079 1.570796 0.000000 -0.000006
    1 3.890452 -0.000004 -0.000003 -1.570796 0.034333 -1.565574
    2 17.848177 0.000000 0.000000 0.000000 0.000000 0.125783
    3 15.638507 0.000000 0.000000 -0.029814 -0.039174 -1.098322
    4 7.109929 0.000000 0.000000 -0.007119 -0.003131 -0.631738
    5 -3.890452 0.000004 0.000007 -1.570796 0.034329 -1.576021
    6 17.848173 0.000000 0.000000 0.000000 0.000000 0.125739
    7 15.638511 0.000000 0.000000 0.040371 0.039186 -1.098276
    8 7.109930 0.000000 0.000000 -0.081154 -0.003131 -0.631749
    9 0.000005 3.343750 -2.980469 1.570793 0.086297 1.570793
    10 4.015625 0.000000 0.000000 0.000000 0.000000 -0.029243
    11 3.517578 0.000000 0.000000 0.000000 0.000000 0.100334
    12 8.937500 0.000000 0.000000 0.000000 0.000000 0.194095
    13 3.306641 0.000001 0.000000 3.138800 0.000567 0.400476
    14 3.591797 0.000000 0.000000 0.000000 0.000000 0.406586
    15 2.033346 1.000768 1.101697 1.610399 -1.304394 2.928681
    16 6.809416 0.000001 0.000000 -1.578944 0.062114 -0.150009
    17 12.391796 0.000000 0.000001 0.000000 0.000000 -0.125027
    18 9.337076 0.000000 -0.000031 1.598878 -0.132753 0.032942
    19 4.454020 -0.070210 0.572073 0.088455 -0.063632 -0.025690
    20 1.426597 -0.000001 0.000000 0.000000 -0.062952 -0.793904
    21 1.322468 -0.000002 0.000000 0.000000 -0.008805 -0.142858
    22 4.477066 -0.028570 1.582474 0.301297 -0.206745 -0.025938
    23 1.344418 0.000000 0.000000 0.000000 -0.180680 -0.634408
    24 1.224671 0.000000 0.000000 0.000000 -0.063427 -0.263158
    25 2.630323 -0.345015 1.907214 -1.084611 -0.805030 -0.948881
    26 1.059292 0.000000 0.000001 0.000000 0.007543 -0.146407
    27 0.781203 0.000000 0.000000 0.000000 0.000001 0.000010
    28 2.033353 1.000771 -1.101647 -1.682259 1.304409 2.928670
    29 6.809417 0.000001 0.000000 1.649985 -0.051251 -0.153972
    30 12.391794 0.000000 0.000001 0.000000 0.000000 -0.125085
    31 9.337102 0.000000 0.000003 -1.589643 0.132723 0.032968
    32 4.453986 -0.073766 -0.571672 -0.088458 0.063397 -0.026259
    33 1.426599 0.000002 0.000000 0.000000 0.056335 -0.794293
    34 1.322465 -0.000001 0.000000 0.000000 0.007871 -0.142919
    35 4.477036 -0.043465 -1.581290 -0.301675 0.206495 -0.027845
    36 1.344414 0.000000 0.000000 0.000000 0.175289 -0.635745
    37 1.224670 0.000001 0.000000 0.000000 0.061489 -0.263582
    38 2.630291 -0.359835 -1.904289 1.081217 0.797496 -0.954428
    39 1.059293 0.000000 0.000000 0.000000 -0.008183 -0.146366
    40 0.781204 0.000000 0.000000 0.000000 -0.000006 0.000002
    41 -0.044717 2.528787 4.661499 -0.038945 0.037199 0.009860
  time 14
    0 -0.002349 -0.528179 38.361079 1.570796 0.000000 -0.000006
    1 3.890452 -0.000004 -0.000003 -1.570796 0.034333 -1.565574
    2 17.848177 0.000000 0.000000 0.000000 0.000000 0.125783
    3 15.638507 0.000000 0.000000 -0.029814 -0.039174 -1.098322
    4 7.109929 0.000000 0.000000 -0.007119 -0.003131 -0.631738
    5 -3.890452 0.000004 0.000007 -1.570796 0.034329 -1.576021
    6 17.848173 0.000000 0.000000 0.000000 0.000000 0.125739
    7 15.638511 0.000000 0.000000 0.040371 0.039186 -1.098276
    8 7.109930 0.000000 0.000000 -0.081154 -0.003131 -0.631749
    9 0.000005 3.343750 -2.980469 1.570793 0.086297 1.570793
    10 4.015625 0.000000 0.000000 0.000000 0.000000 -0.029243
    11 3.517578 0.000000 0.000000 0.000000 0.000000 0.100334
    12 8.937500 0.000000 0.000000 0.000000 0.000000 0.194095
    13 3.306641 0.000001 0.000000 3.138800 0.000567 0.400476
    14 3.591797 0.000000 0.000000 0.000000 0.000000 0.406586
    15 2.033346 1.000768 1.101697 1.610399 -1.304394 2.928681
    16 6.809416 0.000001 0.000000 -1.578944 0.062114 -0.150009
    17 12.391796 0.000000 0.000001 0.000000 0.000000 -0.125027
    18 9.337076 0.000000 -0.000031 1.598878 -0.132753 0.032942
    19 4.454020 -0.070210 0.572073 0.088455 -0.063632 -0.025690
    20 1.426597 -0.000001 0.000000 0.000000 -0.062952 -0.793904
    21 1.322468 -0.000002 0.000000 0.000000 -0.008805 -0.142858
    22 4.477066 -0.028570 1.582474 0.301297 -0.206745 -0.025938
    23 1.344418 0.000000 0.000000 0.000000 -0.180680 -0.634408
    24 1.224671 0.000000 0.000000 0.000000 -0.063427 -0.263158
    25 2.630323 -0.345015 1.907214 -1.084611 -0.805030 -0.948881
    26 1.059292 0.000000 0.000001 0.000000 0.007543 -0.146407
    27 0.781203 0.000000 0.000000 0.000000 0.000001 0.000010
    28 2.033353 1.000771 -1.101647 -1.682259 1.304409 2.928670
    29 6.809417 0.000001 0.000000 1.649985 -0.051251 -0.153972
    30 12.391794 0.000000 0.000001 0.000000 0.000000 -0.125085
    31 9.337102 0.000000 0.000003 -1.589643 0.132723 0.032968
    32 4.453986 -0.073766 -0.571672 -0.088458 0.063397 -0.026259
    33 1.426599 0.000002 0.000000 0.000000 0.056335 -0.794293
    34 1.322465 -0.000001 0.000000 0.000000 0.007871 -0.142919
    35 4.477036 -0.043465 -1.581290 -0.301675 0.206495 -0.027845
    36 1.344414 0.000000 0.000000 0.000000 0.175289 -0.635745
    37 1.224670 0.000001 0.000000 0.000000 0.061489 -0.263582
    38 2.630291 -0.359835 -1.904289 1.081217 0.797496 -0.954428
    39 1.059293 0.000000 0.000000 0.000000 -0.008183 -0.146366
    40 0.781204 0.000000 0.000000 0.000000 -0.000006 0.000002
    41 -0.044717 2.528787 4.661499 -0.038945 0.037199 0.009860
  time 15
    0 -0.002349 -0.528179 38.361079 1.570796 0.000000 -0.000006
    1 3.890452 -0.000004 -0.000003 -1.570796 0.034333 -1.565574
    2 17.848177 0.000000 0.000000 0.000000 0.000000 0.125783
    3 15.638507 0.000000 0.000000 -0.029814 -0.039174 -1.098322
    4 7.109929 0.000000 0.000000 -0.007119 -0.003131 -0.631738
    5 -3.890452 0.000004 0.000007 -1.570796 0.034329 -1.576021
    6 17.848173 0.000000 0.000000 0.000000 0.000000 0.125739
    7 15.638511 0.000000 0.000000 0.040371 0.039186 -1.098276
    8 7.109930 0.000000 0.000000 -0.081154 -0.003131 -0.631749
    9 0.000005 3.343750 -2.980469 1.570793 0.086297 1.570793
    10 4.015625 0.000000 0.000000 0.000000 0.000000 -0.029243
    11 3.517578 0.000000 0.000000 0.000000 0.000000 0.100334
    12 8.937500 0.000000 0.000000 0.000000 0.000000 0.194095
    13 3.306641 0.000001 0.000000 3.138800 0.000567 0.400476
    14 3.591797 0.000000 0.000000 0.000000 0.000000 0.406586
    15 2.033346 1.000768 1.101697 1.610399 -1.304394 2.928681
    16 6.809416 0.000001 0.000000 -1.578944 0.062114 -0.150009
    17 12.391796 0.000000 0.000001 0.000000 0.000000 -0.125027
    18 9.337076 0.000000 -0.000031 1.598878 -0.132753 0.032942
    19 4.454020 -0.070210 0.572073 0.088455 -0.063632 -0.025690
    20 1.426597 -0.000001 0.000000 0.000000 -0.062952 -0.793904
    21 1.322468 -0.000002 0.000000 0.000000 -0.008805 -0.142858
    22 4.477066 -0.028570 1.582474 0.301297 -0.206745 -0.025938
    23 1.344418 0.000000 0.000000 0.000000 -0.180680 -0.634408
    24 1.224671 0.000000 0.000000 0.000000 -0.063427 -0.263158
    25 2.630323 -0.345015 1.907214 -1.084611 -0.805030 -0.948881
    26 1.059292 0.000000 0.000001 0.000000 0.007543 -0.146407
    27 0.781203 0.000000 0.000000 0.000000 0.000001 0.000010
    28 2.033353 1.000771 -1.101647 -1.682259 1.304409 2.928670
    29 6.809417 0.000001 0.000000 1.649985 -0.051251 -0.153972
    30 12.391794 0.000000 0.000001 0.000000 0.000000 -0.125085
    31 9.337102 0.000000 0.000003 -1.589643 0.132723 0.032968
    32 4.453986 -0.073766 -0.571672 -0.088458 0.063397 -0.026259
    33 1.426599 0.000002 0.000000 0.000000 0.056335 -0.794293
    34 1.322465 -0.000001 0.000000 0.000000 0.007871 -0.142919
    35 4.477036 -0.043465 -1.581290 -0.301675 0.206495 -0.027845
    36 1.344414 0.000000 0.000000 0.000000 0.175289 -0.635745
    37 1.224670 0.000001 0.000000 0.000000 0.061489 -0.263582
    38 2.630291 -0.359835 -1.904289 1.081217 0.797496 -0.954428
    39 1.059293 0.000000 0.000000 0.000000 -0.008183 -0.146366
    40 0.781204 0.000000 0.000000 0.000000 -0.000006 0.000002
    41 -0.044717 2.528787 4.661499 -0.038945 0.037199 0.009860
  time 16
    0 -0.002349 -0.528179 38.361079 1.570796 0.000000 -0.000006
    1 3.890452 -0.000004 -0.000003 -1.570796 0.034333 -1.565574
    2 17.848177 0.000000 0.000000 0.000000 0.000000 0.125783
    3 15.638507 0.000000 0.000000 -0.029814 -0.039174 -1.098322
    4 7.109929 0.000000 0.000000 -0.007119 -0.003131 -0.631738
    5 -3.890452 0.000004 0.000007 -1.570796 0.034329 -1.576021
    6 17.848173 0.000000 0.000000 0.000000 0.000000 0.125739
    7 15.638511 0.000000 0.000000 0.040371 0.039186 -1.098276
    8 7.109930 0.000000 0.000000 -0.081154 -0.003131 -0.631749
    9 0.000005 3.343750 -2.980469 1.570793 0.086297 1.570793
    10 4.015625 0.000000 0.000000 0.000000 0.000000 -0.029243
    11 3.517578 0.000000 0.000000 0.000000 0.000000 0.100334
    12 8.937500 0.000000 0.000000 0.000000 0.000000 0.194095
    13 3.306641 0.000001 0.000000 3.138800 0.000567 0.400476
    14 3.591797 0.000000 0.000000 0.000000 0.000000 0.406586
    15 2.033346 1.000768 1.101697 1.610399 -1.304394 2.928681
    16 6.809416 0.000001 0.000000 -1.578944 0.062114 -0.150009
    17 12.391796 0.000000 0.000001 0.000000 0.000000 -0.125027
    18 9.337076 0.000000 -0.000031 1.598878 -0.132753 0.032942
    19 4.454020 -0.070210 0.572073 0.088455 -0.063632 -0.025690
    20 1.426597 -0.000001 0.000000 0.000000 -0.062952 -0.793904
    21 1.322468 -0.000002 0.000000 0.000000 -0.008805 -0.142858
    22 4.477066 -0.028570 1.582474 0.301297 -0.206745 -0.025938
    23 1.344418 0.000000 0.000000 0.000000 -0.180680 -0.634408
    24 1.224671 0.000000 0.000000 0.000000 -0.063427 -0.263158
    25 2.630323 -0.345015 1.907214 -1.084611 -0.805030 -0.948881
    26 1.059292 0.000000 0.000001 0.000000 0.007543 -0.146407
    27 0.781203 0.000000 0.000000 0.000000 0.000001 0.000010
    28 2.033353 1.000771 -1.101647 -1.682259 1.304409 2.928670
    29 6.809417 0.000001 0.000000 1.649985 -0.051251 -0.153972
    30 12.391794 0.000000 0.000001 0.000000 0.000000 -0.125085
    31 9.337102 0.000000 0.000003 -1.589643 0.132723 0.032968
    32 4.453986 -0.073766 -0.571672 -0.088458 0.063397 -0.026259
    33 1.426599 0.000002 0.000000 0.000000 0.056335 -0.794293
    34 1.322465 -0.000001 0.000000 0.000000 0.007871 -0.142919
    35 4.477036 -0.043465 -1.581290 -0.301675 0.206495 -0.027845
    36 1.344414 0.000000 0.000000 0.000000 0.175289 -0.635745
    37 1.224670 0.000001 0.000000 0.000000 0.061489 -0.263582
    38 2.630291 -0.359835 -1.904289 1.081217 0.797496 -0.954428
    39 1.059293 0.000000 0.000000 0.000000 -0.008183 -0.146366
    40 0.781204 0.000000 0.000000 0.000000 -0.000006 0.000002
    41 -0.044717 2.528787 4.661499 -0.038945 0.037199 0.009860
  time 17
    0 -0.002349 -0.528179 38.361079 1.570796 0.000000 -0.000006
    1 3.890452 -0.000004 -0.000003 -1.570796 0.034333 -1.565574
    2 17.848177 0.000000 0.000000 0.000000 0.000000 0.125783
    3 15.638507 0.000000 0.000000 -0.029814 -0.039174 -1.098322
    4 7.109929 0.000000 0.000000 -0.007119 -0.003131 -0.631738
    5 -3.890452 0.000004 0.000007 -1.570796 0.034329 -1.576021
    6 17.848173 0.000000 0.000000 0.000000 0.000000 0.125739
    7 15.638511 0.000000 0.000000 0.040371 0.039186 -1.098276
    8 7.109930 0.000000 0.000000 -0.081154 -0.003131 -0.631749
    9 0.000005 3.343750 -2.980469 1.570793 0.086297 1.570793
    10 4.015625 0.000000 0.000000 0.000000 0.000000 -0.029243
    11 3.517578 0.000000 0.000000 0.000000 0.000000 0.100334
    12 8.937500 0.000000 0.000000 0.000000 0.000000 0.194095
    13 3.306641 0.000001 0.000000 3.138800 0.000567 0.400476
    14 3.591797 0.000000 0.000000 0.000000 0.000000 0.406586
    15 2.033346 1.000768 1.101697 1.610399 -1.304394 2.928681
    16 6.809416 0.000001 0.000000 -1.578944 0.062114 -0.150009
    17 12.391796 0.000000 0.000001 0.000000 0.000000 -0.125027
    18 9.337076 0.000000 -0.000031 1.598878 -0.132753 0.032942
    19 4.454020 -0.070210 0.572073 0.088455 -0.063632 -0.025690
    20 1.426597 -0.000001 0.000000 0.000000 -0.062952 -0.793904
    21 1.322468 -0.000002 0.000000 0.000000 -0.008805 -0.142858
    22 4.477066 -0.028570 1.582474 0.301297 -0.206745 -0.025938
    23 1.344418 0.000000 0.000000 0.000000 -0.180680 -0.634408
    24 1.224671 0.000000 0.000000 0.000000 -0.063427 -0.263158
    25 2.630323 -0.345015 1.907214 -1.084611 -0.805030 -0.948881
    26 1.059292 0.000000 0.000001 0.000000 0.007543 -0.146407
    27 0.781203 0.000000 0.000000 0.000000 0.000001 0.000010
    28 2.033353 1.000771 -1.101647 -1.682259 1.304409 2.928670
    29 6.809417 0.000001 0.000000 1.649985 -0.051251 -0.153972
    30 12.391794 0.000000 0.000001 0.000000 0.000000 -0.125085
    31 9.337102 0.000000 0.000003 -1.589643 0.132723 0.032968
    32 4.453986 -0.073766 -0.571672 -0.088458 0.063397 -0.026259
    33 1.426599 0.000002 0.000000 0.000000 0.056335 -0.794293
    34 1.322465 -0.000001 0.000000 0.000000 0.007871 -0.142919
    35 4.477036 -0.043465 -1.581290 -0.301675 0.206495 -0.027845
    36 1.344414 0.000000 0.000000 0.000000 0.175289 -0.635745
    37 1.224670 0.000001 0.000000 0.000000 0.061489 -0.263582
    38 2.630291 -0.359835 -1.904289 1.081217 0.797496 -0.954428
    39 1.059293 0.000000 0.000000 0.000000 -0.008183 -0.146366
    40 0.781204 0.000000 0.000000 0.000000 -0.000006 0.000002
    41 -0.044717 2.528787 4.661499 -0.038945 0.037199 0.009860
  time 18
    0 -0.002349 -0.528179 38.361079 1.570796 0.000000 -0.000006
    1 3.890452 -0.000004 -0.000003 -1.570796 0.034333 -1.565574
    2 17.848177 0.000000 0.000000 0.000000 0.000000 0.125783
    3 15.638507 0.000000 0.000000 -0.029814 -0.039174 -1.098322
    4 7.109929 0.000000 0.000000 -0.007119 -0.003131 -0.631738
    5 -3.890452 0.000004 0.000007 -1.570796 0.034329 -1.576021
    6 17.848173 0.000000 0.000000 0.000000 0.000000 0.125739
    7 15.638511 0.000000 0.000000 0.040371 0.039186 -1.098276
    8 7.109930 0.000000 0.000000 -0.081154 -0.003131 -0.631749
    9 0.000005 3.343750 -2.980469 1.570793 0.086297 1.570793
    10 4.015625 0.000000 0.000000 0.000000 0.000000 -0.029243
    11 3.517578 0.000000 0.000000 0.000000 0.000000 0.100334
    12 8.937500 0.000000 0.000000 0.000000 0.000000 0.194095
    13 3.306641 0.000001 0.000000 3.138800 0.000567 0.400476
    14 3.591797 0.000000 0.000000 0.000000 0.000000 0.406586
    15 2.033346 1.000768 1.101697 1.610399 -1.304394 2.928681
    16 6.809416 0.000001 0.000000 -1.578944 0.062114 -0.150009
    17 12.391796 0.000000 0.000001 0.000000 0.000000 -0.125027
    18 9.337076 0.000000 -0.000031 1.598878 -0.132753 0.032942
    19 4.454020 -0.070210 0.572073 0.088455 -0.063632 -0.025690
    20 1.426597 -0.000001 0.000000 0.000000 -0.062952 -0.793904
    21 1.322468 -0.000002 0.000000 0.000000 -0.008805 -0.142858
    22 4.477066 -0.028570 1.582474 0.301297 -0.206745 -0.025938
    23 1.344418 0.000000 0.000000 0.000000 -0.180680 -0.634408
    24 1.224671 0.000000 0.000000 0.000000 -0.063427 -0.263158
    25 2.630323 -0.345015 1.907214 -1.084611 -0.805030 -0.948881
    26 1.059292 0.000000 0.000001 0.000000 0.007543 -0.146407
    27 0.781203 0.000000 0.000000 0.000000 0.000001 0.000010
    28 2.033353 1.000771 -1.101647 -1.682259 1.304409 2.928670
    29 6.809417 0.000001 0.000000 1.649985 -0.051251 -0.153972
    30 12.391794 0.000000 0.000001 0.000000 0.000000 -0.125085
    31 9.337102 0.000000 0.000003 -1.589643 0.132723 0.032968
    32 4.453986 -0.073766 -0.571672 -0.088458 0.063397 -0.026259
    33 1.426599 0.000002 0.000000 0.000000 0.056335 -0.794293
    34 1.322465 -0.000001 0.000000 0.000000 0.007871 -0.142919
    35 4.477036 -0.043465 -1.581290 -0.301675 0.206495 -0.027845
    36 1.344414 0.000000 0.000000 0.000000 0.175289 -0.635745
    37 1.224670 0.000001 0.000000 0.000000 0.061489 -0.263582
    38 2.630291 -0.359835 -1.904289 1.081217 0.797496 -0.954428
    39 1.059293 0.000000 0.000000 0.000000 -0.008183 -0.146366
    40 0.781204 0.000000 0.000000 0.000000 -0.000006 0.000002
    41 -0.044717 2.528787 4.661499 -0.038945 0.037199 0.009860
  time 19
    0 -0.002349 -0.528179 38.361079 1.570796 0.000000 -0.000006
    1 3.890452 -0.000004 -0.000003 -1.570796 0.034333 -1.565574
    2 17.848177 0.000000 0.000000 0.000000 0.000000 0.125783
    3 15.638507 0.000000 0.000000 -0.029814 -0.039174 -1.098322
    4 7.109929 0.000000 0.000000 -0.007119 -0.003131 -0.631738
    5 -3.890452 0.000004 0.000007 -1.570796 0.034329 -1.576021
    6 17.848173 0.000000 0.000000 0.000000 0.000000 0.125739
    7 15.638511 0.000000 0.000000 0.040371 0.039186 -1.098276
    8 7.109930 0.000000 0.000000 -0.081154 -0.003131 -0.631749
    9 0.000005 3.343750 -2.980469 1.570793 0.086297 1.570793
    10 4.015625 0.000000 0.000000 0.000000 0.000000 -0.029243
    11 3.517578 0.000000 0.000000 0.000000 0.000000 0.100334
    12 8.937500 0.000000 0.000000 0.000000 0.000000 0.194095
    13 3.306641 0.000001 0.000000 3.138800 0.000567 0.400476
    14 3.591797 0.000000 0.000000 0.000000 0.000000 0.406586
    15 2.033346 1.000768 1.101697 1.610399 -1.304394 2.928681
    16 6.809416 0.000001 0.000000 -1.578944 0.062114 -0.150009
    17 12.391796 0.000000 0.000001 0.000000 0.000000 -0.125027
    18 9.337076 0.000000 -0.000031 1.598878 -0.132753 0.032942
    19 4.454020 -0.070210 0.572073 0.088455 -0.063632 -0.025690
    20 1.426597 -0.000001 0.000000 0.000000 -0.062952 -0.793904
    21 1.322468 -0.000002 0.000000 0.000000 -0.008805 -0.142858
    22 4.477066 -0.028570 1.582474 0.301297 -0.206745 -0.025938
    23 1.344418 0.000000 0.000000 0.000000 -0.180680 -0.634408
    24 1.224671 0.000000 0.000000 0.000000 -0.063427 -0.263158
    25 2.630323 -0.345015 1.907214 -1.084611 -0.805030 -0.948881
    26 1.059292 0.000000 0.000001 0.000000 0.007543 -0.146407
    27 0.781203 0.000000 0.000000 0.000000 0.000001 0.000010
    28 2.033353 1.000771 -1.101647 -1.682259 1.304409 2.928670
    29 6.809417 0.000001 0.000000 1.649985 -0.051251 -0.153972
    30 12.391794 0.000000 0.000001 0.000000 0.000000 -0.125085
    31 9.337102 0.000000 0.000003 -1.589643 0.132723 0.032968
    32 4.453986 -0.073766 -0.571672 -0.088458 0.063397 -0.026259
    33 1.426599 0.000002 0.000000 0.000000 0.056335 -0.794293
    34 1.322465 -0.000001 0.000000 0.000000 0.007871 -0.142919
    35 4.477036 -0.043465 -1.581290 -0.301675 0.206495 -0.027845
    36 1.344414 0.000000 0.000000 0.000000 0.175289 -0.635745
    37 1.224670 0.000001 0.000000 0.000000 0.061489 -0.263582
    38 2.630291 -0.359835 -1.904289 1.081217 0.797496 -0.954428
    39 1.059293 0.000000 0.000000 0.000000 -0.008183 -0.146366
    40 0.781204 0.000000 0.000000 0.000000 -0.000006 0.000002
    41 -0.044717 2.528787 4.661499 -0.038945 0.037199 0.009860
  time 20
    0 -0.002349 -0.528179 38.361079 1.570796 0.000000 -0.000006
    1 3.890452 -0.000004 -0.000003 -1.570796 0.034333 -1.565574
    2 17.848177 0.000000 0.000000 0.000000 0.000000 0.125783
    3 15.638507 0.000000 0.000000 -0.029814 -0.039174 -1.098322
    4 7.109929 0.000000 0.000000 -0.007119 -0.003131 -0.631738
    5 -3.890452 0.000004 0.000007 -1.570796 0.034329 -1.576021
    6 17.848173 0.000000 0.000000 0.000000 0.000000 0.125739
    7 15.638511 0.000000 0.000000 0.040371 0.039186 -1.098276
    8 7.109930 0.000000 0.000000 -0.081154 -0.003131 -0.631749
    9 0.000005 3.343750 -2.980469 1.570793 0.086297 1.570793
    10 4.015625 0.000000 0.000000 0.000000 0.000000 -0.029243
    11 3.517578 0.000000 0.000000 0.000000 0.000000 0.100334
    12 8.937500 0.000000 0.000000 0.000000 0.000000 0.194095
    13 3.306641 0.000001 0.000000 3.138800 0.000567 0.400476
    14 3.591797 0.000000 0.000000 0.000000 0.000000 0.406586
    15 2.033346 1.000768 1.101697 1.610399 -1.304394 2.928681
    16 6.809416 0.000001 0.000000 -1.578944 0.062114 -0.150009
    17 12.391796 0.000000 0.000001 0.000000 0.000000 -0.125027
    18 9.337076 0.000000 -0.000031 1.598878 -0.132753 0.032942
    19 4.454020 -0.070210 0.572073 0.088455 -0.063632 -0.025690
    20 1.426597 -0.000001 0.000000 0.000000 -0.062952 -0.793904
    21 1.322468 -0.000002 0.000000 0.000000 -0.008805 -0.142858
    22 4.477066 -0.028570 1.582474 0.301297 -0.206745 -0.025938
    23 1.344418 0.000000 0.000000 0.000000 -0.180680 -0.634408
    24 1.224671 0.000000 0.000000 0.000000 -0.063427 -0.263158
    25 2.630323 -0.345015 1.907214 -1.084611 -0.805030 -0.948881
    26 1.059292 0.000000 0.000001 0.000000 0.007543 -0.146407
    27 0.781203 0.000000 0.000000 0.000000 0.000001 0.000010
    28 2.033353 1.000771 -1.101647 -1.682259 1.304409 2.928670
    29 6.809417 0.000001 0.000000 1.649985 -0.051251 -0.153972
    30 12.391794 0.000000 0.000001 0.000000 0.000000 -0.125085
    31 9.337102 0.000000 0.000003 -1.589643 0.132723 0.032968
    32 4.453986 -0.073766 -0.571672 -0.088458 0.063397 -0.026259
    33 1.426599 0.000002 0.000000 0.000000 0.056335 -0.794293
    34 1.322465 -0.000001 0.000000 0.000000 0.007871 -0.142919
    35 4.477036 -0.043465 -1.581290 -0.301675 0.206495 -0.027845
    36 1.344414 0.000000 0.000000 0.000000 0.175289 -0.635745
    37 1.224670 0.000001 0.000000 0.000000 0.061489 -0.263582
    38 2.630291 -0.359835 -1.904289 1.081217 0.797496 -0.954428
    39 1.059293 0.000000 0.000000 0.000000 -0.008183 -0.146366
    40 0.781204 0.000000 0.000000 0.000000 -0.000006 0.000002
    41 -0.044717 2.528787 4.661499 -0.038945 0.037199 0.009860
end
