// Created by Crowbar 0.68
version 1
nodes
  0 "ValveBiped.Bip01_Pelvis" -1
  1 "ValveBiped.Bip01_L_Thigh" 0
  2 "ValveBiped.Bip01_L_Calf" 1
  3 "ValveBiped.Bip01_L_Foot" 2
  4 "ValveBiped.Bip01_L_Toe0" 3
  5 "ValveBiped.Bip01_R_Thigh" 0
  6 "ValveBiped.Bip01_R_Calf" 5
  7 "ValveBiped.Bip01_R_Foot" 6
  8 "ValveBiped.Bip01_R_Toe0" 7
  9 "ValveBiped.Bip01_Spine" 0
  10 "ValveBiped.Bip01_Spine1" 9
  11 "ValveBiped.Bip01_Spine2" 10
  12 "ValveBiped.Bip01_Spine4" 11
  13 "ValveBiped.Bip01_Neck1" 12
  14 "ValveBiped.Bip01_Head1" 13
  15 "ValveBiped.Bip01_L_Clavicle" 12
  16 "ValveBiped.Bip01_L_UpperArm" 15
  17 "ValveBiped.Bip01_L_Forearm" 16
  18 "ValveBiped.Bip01_L_Hand" 17
  19 "ValveBiped.Bip01_L_Finger2" 18
  20 "ValveBiped.Bip01_L_Finger21" 19
  21 "ValveBiped.Bip01_L_Finger22" 20
  22 "ValveBiped.Bip01_L_Finger1" 18
  23 "ValveBiped.Bip01_L_Finger11" 22
  24 "ValveBiped.Bip01_L_Finger12" 23
  25 "ValveBiped.Bip01_L_Finger0" 18
  26 "ValveBiped.Bip01_L_Finger01" 25
  27 "ValveBiped.Bip01_L_Finger02" 26
  28 "ValveBiped.Bip01_R_Clavicle" 12
  29 "ValveBiped.Bip01_R_UpperArm" 28
  30 "ValveBiped.Bip01_R_Forearm" 29
  31 "ValveBiped.Bip01_R_Hand" 30
  32 "ValveBiped.Bip01_R_Finger2" 31
  33 "ValveBiped.Bip01_R_Finger21" 32
  34 "ValveBiped.Bip01_R_Finger22" 33
  35 "ValveBiped.Bip01_R_Finger1" 31
  36 "ValveBiped.Bip01_R_Finger11" 35
  37 "ValveBiped.Bip01_R_Finger12" 36
  38 "ValveBiped.Bip01_R_Finger0" 31
  39 "ValveBiped.Bip01_R_Finger01" 38
  40 "ValveBiped.Bip01_R_Finger02" 39
  41 "ValveBiped.Cod" 0
end
skeleton
  time 0
    0 -0.951596 0.233625 36.364441 1.570626 0.000000 -0.746639
    1 3.890452 -0.000004 -0.000003 -2.211572 -0.286262 -1.275004
    2 17.848177 0.000000 0.000000 0.000000 0.000000 0.694007
    3 15.638507 0.000000 0.000000 0.228734 0.413169 -1.202106
    4 7.109929 0.000000 0.000000 -0.007119 -0.003131 -0.631738
    5 -3.890452 0.000004 0.000007 -1.497383 -0.223439 -1.650471
    6 17.848173 0.000000 0.000000 0.000000 0.000000 0.691299
    7 15.638511 0.000000 0.000000 0.324340 0.301500 -1.334160
    8 7.109930 0.000000 0.000000 -0.081154 -0.003131 -0.631749
    9 0.000005 3.345128 -2.981901 1.570796 0.086293 1.570796
    10 4.018331 0.000000 0.000000 -0.011799 -0.120110 0.193933
    11 3.518565 0.000000 0.000000 -0.039210 -0.083509 0.333403
    12 8.942642 0.000000 0.000000 -0.078838 0.112907 0.222365
    13 3.306641 0.000002 0.000000 3.138800 0.000567 0.400476
    14 3.593712 -0.000001 0.000000 0.332198 -0.192859 0.751981
    15 2.033346 1.000768 1.101697 2.385451 -1.528127 2.146508
    16 6.809416 0.000001 0.000000 -2.696110 -0.976733 0.058723
    17 12.391796 0.000000 0.000001 0.000000 0.000000 -1.218411
    18 9.337076 0.000000 -0.000031 -0.767135 0.970764 0.082561
    19 4.454020 -0.070210 0.572073 0.095490 -0.008587 -0.706335
    20 1.426597 -0.000001 0.000000 0.055908 -0.087976 -1.504206
    21 1.322468 -0.000002 0.000000 0.009312 -0.033625 -0.575065
    22 4.477066 -0.028570 1.582474 0.481653 -0.035390 -1.246096
    23 1.344418 0.000000 0.000000 0.023466 -0.208305 -0.755723
    24 1.224671 0.000000 0.000000 0.026043 -0.124620 -0.538676
    25 2.630323 -0.345015 1.907214 -0.354022 -0.915164 -1.788195
    26 1.059292 0.000000 0.000001 -0.001067 -0.012855 0.250988
    27 0.781203 0.000000 0.000000 -0.000096 -0.003210 0.062757
    28 2.033353 1.000771 -1.101647 -3.176988 1.193701 1.415651
    29 6.809417 0.000001 0.000000 1.431063 1.169641 -0.721560
    30 12.391794 0.000000 0.000001 0.000000 0.000000 -1.834708
    31 9.337102 0.000000 0.000003 -0.790533 0.086238 0.716395
    32 4.453986 -0.073766 -0.571672 0.047699 -0.153453 -0.767464
    33 1.426599 0.000002 0.000000 -0.053883 0.078890 -1.553256
    34 1.322465 -0.000001 0.000000 -0.013603 0.036958 -0.732277
    35 4.477036 -0.043465 -1.581290 -0.332631 0.218360 0.154973
    36 1.344414 0.000000 0.000000 -0.042629 0.220735 -0.851579
    37 1.224670 0.000001 0.000000 0.008150 -0.000004 -0.000025
    38 2.630291 -0.359835 -1.904289 0.415078 0.423437 -0.720800
    39 1.059293 0.000000 0.000000 0.015101 0.038905 0.767148
    40 0.781204 0.000000 0.000000 0.004782 0.022537 0.418308
    41 -0.044717 2.528787 4.661499 -0.042719 0.000000 0.000000
  time 1
    0 -1.310982 -0.223457 36.168894 1.583030 0.009932 -0.658203
    1 3.890452 -0.000004 -0.000003 -2.156504 -0.328040 -1.270212
    2 17.848177 0.000000 0.000000 0.000000 0.000000 0.737970
    3 15.638507 0.000000 0.000000 0.244749 0.435976 -1.225108
    4 7.109929 0.000000 0.000000 -0.007119 -0.003131 -0.631738
    5 -3.890452 0.000004 0.000007 -1.448377 -0.202873 -1.646687
    6 17.848173 0.000000 0.000000 0.000000 0.000000 0.697229
    7 15.638511 0.000000 0.000000 0.351023 0.333038 -1.358608
    8 7.109930 0.000000 0.000000 -0.081094 -0.003215 -0.650932
    9 -0.011714 3.345128 -2.981901 1.570904 0.086492 1.574993
    10 4.018331 0.000000 0.000000 -0.011370 -0.121176 0.195515
    11 3.518565 0.000000 0.000000 -0.039252 -0.084084 0.336702
    12 8.942642 0.000000 0.000000 -0.079962 0.114093 0.223667
    13 3.306641 0.000002 0.000000 3.138800 0.000567 0.400476
    14 3.593712 -0.000001 0.000000 0.336332 -0.193630 0.755590
    15 2.033346 1.000768 1.101697 2.385451 -1.528127 2.146508
    16 6.809416 0.000001 0.000000 -2.476636 -0.896792 -0.205102
    17 12.391796 0.000000 0.000001 0.000000 0.000000 -1.450618
    18 9.337076 0.000000 -0.000031 -0.753216 0.891817 0.202280
    19 4.454020 -0.070210 0.572073 0.095490 -0.008587 -0.706335
    20 1.426597 -0.000001 0.000000 0.055908 -0.087976 -1.504206
    21 1.322468 -0.000002 0.000000 0.009312 -0.033625 -0.575065
    22 4.477066 -0.028570 1.582474 0.481653 -0.035390 -1.246096
    23 1.344418 0.000000 0.000000 0.023466 -0.208305 -0.755723
    24 1.224671 0.000000 0.000000 0.026043 -0.124620 -0.538676
    25 2.630323 -0.345015 1.907214 -0.354022 -0.915164 -1.788195
    26 1.059292 0.000000 0.000001 -0.001067 -0.012855 0.250988
    27 0.781203 0.000000 0.000000 -0.000096 -0.003210 0.062757
    28 2.033353 1.000771 -1.101647 -3.166744 1.200785 1.427058
    29 6.809417 0.000001 0.000000 1.339728 1.108016 -0.737732
    30 12.391794 0.000000 0.000001 0.000000 0.000000 -1.891305
    31 9.337102 0.000000 0.000003 -0.803846 0.079652 0.687728
    32 4.453986 -0.073766 -0.571672 0.042054 -0.148239 -0.772176
    33 1.426599 0.000002 0.000000 -0.053847 0.078878 -1.552814
    34 1.322465 -0.000001 0.000000 -0.013866 0.037245 -0.739164
    35 4.477036 -0.043465 -1.581290 -0.328892 0.211325 0.154017
    36 1.344414 0.000000 0.000000 -0.041407 0.219692 -0.846011
    37 1.224670 0.000001 0.000000 0.008102 0.004478 -0.019000
    38 2.630291 -0.359835 -1.904289 0.424750 0.421710 -0.724293
    39 1.059293 0.000000 0.000000 0.014837 0.038641 0.760516
    40 0.781204 0.000000 0.000000 0.004806 0.022585 0.419329
    41 -0.044717 2.528787 4.661499 -0.043174 0.000127 0.004168
  time 2
    0 -1.752402 -0.670382 35.942471 1.595263 0.018664 -0.568427
    1 3.890452 -0.000004 -0.000003 -2.100577 -0.369297 -1.265037
    2 17.848177 0.000000 0.000000 0.000000 0.000000 0.782883
    3 15.638507 0.000000 0.000000 0.258738 0.462234 -1.248219
    4 7.109929 0.000000 0.000000 -0.007119 -0.003131 -0.631738
    5 -3.890452 0.000004 0.000007 -1.398513 -0.180929 -1.637416
    6 17.848173 0.000000 0.000000 0.000000 0.000000 0.703890
    7 15.638511 0.000000 0.000000 0.375482 0.366714 -1.385348
    8 7.109930 0.000000 0.000000 -0.081034 -0.003287 -0.670115
    9 -0.023433 3.345128 -2.981901 1.571227 0.086945 1.579780
    10 4.018331 0.000000 0.000000 -0.010398 -0.123525 0.199011
    11 3.518565 0.000000 0.000000 -0.039357 -0.085366 0.344010
    12 8.942642 0.000000 0.000000 -0.082446 0.116706 0.226551
    13 3.306641 0.000002 0.000000 3.138800 0.000567 0.400476
    14 3.593712 -0.000001 0.000000 0.345403 -0.195301 0.763480
    15 2.033346 1.000768 1.101697 2.385451 -1.528127 2.146508
    16 6.809416 0.000001 0.000000 -2.307559 -0.790481 -0.420933
    17 12.391796 0.000000 0.000001 0.000000 0.000000 -1.675019
    18 9.337076 0.000000 -0.000031 -0.732607 0.805143 0.320729
    19 4.454020 -0.070210 0.572073 0.095490 -0.008587 -0.706335
    20 1.426597 -0.000001 0.000000 0.055908 -0.087976 -1.504206
    21 1.322468 -0.000002 0.000000 0.009312 -0.033625 -0.575065
    22 4.477066 -0.028570 1.582474 0.481653 -0.035390 -1.246096
    23 1.344418 0.000000 0.000000 0.023466 -0.208305 -0.755723
    24 1.224671 0.000000 0.000000 0.026043 -0.124620 -0.538676
    25 2.630323 -0.345015 1.907214 -0.354022 -0.915164 -1.788195
    26 1.059292 0.000000 0.000001 -0.001067 -0.012855 0.250988
    27 0.781203 0.000000 0.000000 -0.000096 -0.003210 0.062757
    28 2.033353 1.000771 -1.101647 -3.156980 1.207059 1.437794
    29 6.809417 0.000001 0.000000 1.263441 1.046041 -0.727926
    30 12.391794 0.000000 0.000001 0.000000 0.000000 -1.957095
    31 9.337102 0.000000 0.000003 -0.815111 0.072799 0.662083
    32 4.453986 -0.073766 -0.571672 0.036865 -0.143493 -0.776487
    33 1.426599 0.000002 0.000000 -0.053811 0.078878 -1.552373
    34 1.322465 -0.000001 0.000000 -0.014094 0.037497 -0.745475
    35 4.477036 -0.043465 -1.581290 -0.325476 0.205081 0.153140
    36 1.344414 0.000000 0.000000 -0.040292 0.218721 -0.840874
    37 1.224670 0.000001 0.000000 0.007994 0.008589 -0.036402
    38 2.630291 -0.359835 -1.904289 0.433566 0.420148 -0.727511
    39 1.059293 0.000000 0.000000 0.014609 0.038390 0.754441
    40 0.781204 0.000000 0.000000 0.004830 0.022633 0.420276
    41 -0.044717 2.528787 4.661499 -0.043825 0.000445 0.008978
  time 3
    0 -2.213354 -1.107150 35.695465 1.607582 0.026240 -0.478077
    1 3.890452 -0.000004 -0.000003 -2.043600 -0.410034 -1.262066
    2 17.848177 0.000000 0.000000 0.000000 0.000000 0.824944
    3 15.638507 0.000000 0.000000 0.271493 0.489840 -1.269362
    4 7.109929 0.000000 0.000000 -0.007119 -0.003131 -0.631738
    5 -3.890452 0.000004 0.000007 -1.347695 -0.158148 -1.623888
    6 17.848173 0.000000 0.000000 0.000000 0.000000 0.706733
    7 15.638511 0.000000 0.000000 0.398181 0.400618 -1.410464
    8 7.109930 0.000000 0.000000 -0.080998 -0.003346 -0.682934
    9 -0.035152 3.345128 -2.981901 1.571550 0.087371 1.584686
    10 4.018331 0.000000 0.000000 -0.009448 -0.125874 0.202507
    11 3.518565 0.000000 0.000000 -0.039462 -0.086649 0.351318
    12 8.942642 0.000000 0.000000 -0.084903 0.119331 0.229419
    13 3.306641 0.000002 0.000000 3.138800 0.000567 0.400476
    14 3.593712 -0.000001 0.000000 0.354474 -0.197014 0.771412
    15 2.033346 1.000768 1.101697 2.385451 -1.528127 2.146508
    16 6.809416 0.000001 0.000000 -2.175875 -0.677455 -0.597100
    17 12.391796 0.000000 0.000001 0.000000 0.000000 -1.871114
    18 9.337076 0.000000 -0.000031 -0.702183 0.716496 0.426371
    19 4.454020 -0.070210 0.572073 0.095490 -0.008587 -0.706335
    20 1.426597 -0.000001 0.000000 0.055908 -0.087976 -1.504206
    21 1.322468 -0.000002 0.000000 0.009312 -0.033625 -0.575065
    22 4.477066 -0.028570 1.582474 0.481653 -0.035390 -1.246096
    23 1.344418 0.000000 0.000000 0.023466 -0.208305 -0.755723
    24 1.224671 0.000000 0.000000 0.026043 -0.124620 -0.538676
    25 2.630323 -0.345015 1.907214 -0.354022 -0.915164 -1.788195
    26 1.059292 0.000000 0.000001 -0.001067 -0.012843 0.250988
    27 0.781203 0.000000 0.000000 -0.000096 -0.003210 0.062757
    28 2.033353 1.000771 -1.101647 -3.146928 1.213333 1.448914
    29 6.809417 0.000001 0.000000 1.196241 0.984153 -0.708054
    30 12.391794 0.000000 0.000001 0.000000 0.000000 -2.022958
    31 9.337102 0.000000 0.000003 -0.825928 0.065528 0.636784
    32 4.453986 -0.073766 -0.571672 0.031652 -0.138772 -0.780856
    33 1.426599 0.000002 0.000000 -0.053775 0.078878 -1.551971
    34 1.322465 -0.000001 0.000000 -0.014334 0.037761 -0.751786
    35 4.477036 -0.043465 -1.581290 -0.322049 0.198849 0.152211
    36 1.344414 0.000000 0.000000 -0.039190 0.217751 -0.835772
    37 1.224670 0.000001 0.000000 0.007802 0.012699 -0.053772
    38 2.630291 -0.359835 -1.904289 0.442420 0.418627 -0.730760
    39 1.059293 0.000000 0.000000 0.014382 0.038138 0.748365
    40 0.781204 0.000000 0.000000 0.004842 0.022680 0.421211
    41 -0.044717 2.528787 4.661499 -0.044475 0.000762 0.013788
  time 4
    0 -2.635242 -1.564232 35.479334 1.620665 0.032754 -0.388301
    1 3.890452 -0.000004 -0.000003 -1.985096 -0.449966 -1.263791
    2 17.848177 0.000000 0.000000 0.000000 0.000000 0.861080
    3 15.638507 0.000000 0.000000 0.283931 0.516618 -1.286897
    4 7.109929 0.000000 0.000000 -0.007119 -0.003131 -0.631738
    5 -3.890452 0.000004 0.000007 -1.296020 -0.135073 -1.607523
    6 17.848173 0.000000 0.000000 0.000000 0.000000 0.702347
    7 15.638511 0.000000 0.000000 0.420139 0.432793 -1.430328
    8 7.109930 0.000000 0.000000 -0.080962 -0.003382 -0.691719
    9 -0.050778 3.345128 -2.981901 1.571658 0.087598 1.589001
    10 4.018331 0.000000 0.000000 -0.009019 -0.126941 0.204108
    11 3.518565 0.000000 0.000000 -0.039504 -0.087224 0.354617
    12 8.942642 0.000000 0.000000 -0.086027 0.120517 0.230721
    13 3.306641 0.000002 0.000000 3.138800 0.000567 0.400476
    14 3.593712 -0.000001 0.000000 0.358608 -0.197785 0.774979
    15 2.033346 1.000768 1.101697 2.385451 -1.528127 2.146508
    16 6.809416 0.000001 0.000000 -2.066377 -0.570507 -0.744585
    17 12.391796 0.000000 0.000001 0.000000 0.000000 -2.024867
    18 9.337076 0.000000 -0.000031 -0.661320 0.632880 0.509453
    19 4.454020 -0.070210 0.572073 0.095490 -0.008587 -0.706335
    20 1.426597 -0.000001 0.000000 0.055908 -0.087976 -1.504206
    21 1.322468 -0.000002 0.000000 0.009312 -0.033625 -0.575065
    22 4.477066 -0.028570 1.582474 0.481653 -0.035390 -1.246096
    23 1.344418 0.000000 0.000000 0.023466 -0.208305 -0.755723
    24 1.224671 0.000000 0.000000 0.026043 -0.124620 -0.538676
    25 2.630323 -0.345015 1.907214 -0.354022 -0.915164 -1.788195
    26 1.059292 0.000000 0.000001 -0.001067 -0.012855 0.250988
    27 0.781203 0.000000 0.000000 -0.000096 -0.003210 0.062757
    28 2.033353 1.000771 -1.101647 -3.135249 1.220255 1.461567
    29 6.809417 0.000001 0.000000 1.134435 0.922659 -0.691021
    30 12.391794 0.000000 0.000001 0.000000 0.000000 -2.079842
    31 9.337102 0.000000 0.000003 -0.837705 0.057609 0.609067
    32 4.453986 -0.073766 -0.571672 0.025947 -0.133630 -0.785624
    33 1.426599 0.000002 0.000000 -0.053739 0.078878 -1.551490
    34 1.322465 -0.000001 0.000000 -0.014597 0.038036 -0.758674
    35 4.477036 -0.043465 -1.581290 -0.318309 0.191814 0.151202
    36 1.344414 0.000000 0.000000 -0.037979 0.216684 -0.830204
    37 1.224670 0.000001 0.000000 0.007526 0.017170 -0.072780
    38 2.630291 -0.359835 -1.904289 0.452092 0.416982 -0.734285
    39 1.059293 0.000000 0.000000 0.014130 0.037874 0.741734
    40 0.781204 0.000000 0.000000 0.004866 0.022740 0.422245
    41 -0.044717 2.528787 4.661499 -0.044931 0.000889 0.018116
  time 5
    0 -2.955564 -2.031472 35.294079 1.635023 0.038205 -0.299865
    1 3.890452 -0.000004 -0.000003 -1.924397 -0.488338 -1.272799
    2 17.848177 0.000000 0.000000 0.000000 0.000000 0.888950
    3 15.638507 0.000000 0.000000 0.297003 0.540323 -1.299765
    4 7.109929 0.000000 0.000000 -0.007119 -0.003131 -0.631738
    5 -3.890452 0.000004 0.000007 -1.243677 -0.111899 -1.590305
    6 17.848173 0.000000 0.000000 0.000000 0.000000 0.687805
    7 15.638511 0.000000 0.000000 0.442745 0.461373 -1.441693
    8 7.109930 0.000000 0.000000 -0.080938 -0.003406 -0.698039
    9 -0.062497 3.345128 -2.981901 1.571497 0.087314 1.592193
    10 4.018331 0.000000 0.000000 -0.009629 -0.125443 0.201881
    11 3.518565 0.000000 0.000000 -0.039441 -0.086409 0.349970
    12 8.942642 0.000000 0.000000 -0.084459 0.118851 0.228891
    13 3.306641 0.000002 0.000000 3.138800 0.000567 0.400476
    14 3.593712 -0.000001 0.000000 0.352828 -0.196693 0.769943
    15 2.033346 1.000768 1.101697 2.385451 -1.528127 2.146508
    16 6.809416 0.000001 0.000000 -1.972276 -0.477773 -0.865848
    17 12.391796 0.000000 0.000001 0.000000 0.000000 -2.126108
    18 9.337076 0.000000 -0.000031 -0.614034 0.562580 0.561725
    19 4.454020 -0.070210 0.572073 0.095490 -0.008587 -0.706335
    20 1.426597 -0.000001 0.000000 0.055908 -0.087976 -1.504206
    21 1.322468 -0.000002 0.000000 0.009312 -0.033625 -0.575065
    22 4.477066 -0.028570 1.582474 0.481653 -0.035390 -1.246096
    23 1.344418 0.000000 0.000000 0.023466 -0.208305 -0.755723
    24 1.224671 0.000000 0.000000 0.026043 -0.124620 -0.538676
    25 2.630323 -0.345015 1.907214 -0.354022 -0.915164 -1.788195
    26 1.059292 0.000000 0.000001 -0.001067 -0.012855 0.250988
    27 0.781203 0.000000 0.000000 -0.000096 -0.003210 0.062757
    28 2.033353 1.000771 -1.101647 -3.120794 1.228512 1.477192
    29 6.809417 0.000001 0.000000 1.075942 0.861472 -0.688010
    30 12.391794 0.000000 0.000001 0.000000 0.000000 -2.118555
    31 9.337102 0.000000 0.000003 -0.852171 0.048624 0.576083
    32 4.453986 -0.073766 -0.571672 0.019260 -0.127674 -0.791220
    33 1.426599 0.000002 0.000000 -0.053691 0.078878 -1.550928
    34 1.322465 -0.000001 0.000000 -0.014909 0.038360 -0.766714
    35 4.477036 -0.043465 -1.581290 -0.313923 0.183197 0.150007
    36 1.344414 0.000000 0.000000 -0.036589 0.215426 -0.823666
    37 1.224670 0.000001 0.000000 0.007083 0.022395 -0.094967
    38 2.630291 -0.359835 -1.904289 0.463364 0.415091 -0.738453
    39 1.059293 0.000000 0.000000 0.013830 0.037551 0.733990
    40 0.781204 0.000000 0.000000 0.004902 0.022800 0.423441
    41 -0.044717 2.528787 4.661499 -0.044866 0.000699 0.021323
  time 6
    0 -3.115725 -2.519026 35.191159 1.651250 0.042409 -0.213917
    1 3.890452 -0.000004 -0.000003 -1.861407 -0.523681 -1.291583
    2 17.848177 0.000000 0.000000 0.000000 0.000000 0.906652
    3 15.638507 0.000000 0.000000 0.312480 0.559231 -1.306654
    4 7.109929 0.000000 0.000000 -0.007119 -0.003131 -0.631738
    5 -3.890452 0.000004 0.000007 -1.193050 -0.088380 -1.573372
    6 17.848173 0.000000 0.000000 0.000000 0.000000 0.660429
    7 15.638511 0.000000 0.000000 0.468594 0.486221 -1.440929
    8 7.109930 0.000000 0.000000 -0.080926 -0.003418 -0.702790
    9 -0.074216 3.345128 -2.981901 1.570796 0.086293 1.593670
    10 4.018331 0.000000 0.000000 -0.011799 -0.120110 0.193933
    11 3.518565 0.000000 0.000000 -0.039210 -0.083509 0.333403
    12 8.942642 0.000000 0.000000 -0.078838 0.112907 0.222365
    13 3.306641 0.000002 0.000000 3.138800 0.000567 0.400476
    14 3.593712 -0.000001 0.000000 0.332198 -0.192859 0.751981
    15 2.033346 1.000768 1.101697 2.385451 -1.528127 2.146508
    16 6.809416 0.000001 0.000000 -1.892041 -0.406850 -0.955493
    17 12.391796 0.000000 0.000001 0.000000 0.000000 -2.166636
    18 9.337076 0.000000 -0.000031 -0.569603 0.513489 0.577880
    19 4.454020 -0.070210 0.572073 0.095490 -0.008587 -0.706335
    20 1.426597 -0.000001 0.000000 0.055908 -0.087976 -1.504206
    21 1.322468 -0.000002 0.000000 0.009312 -0.033625 -0.575065
    22 4.477066 -0.028570 1.582474 0.481653 -0.035390 -1.246096
    23 1.344418 0.000000 0.000000 0.023466 -0.208305 -0.755723
    24 1.224671 0.000000 0.000000 0.026043 -0.124620 -0.538676
    25 2.630323 -0.345015 1.907214 -0.354022 -0.915164 -1.788195
    26 1.059292 0.000000 0.000001 -0.001067 -0.012855 0.250988
    27 0.781203 0.000000 0.000000 -0.000096 -0.003210 0.062757
    28 2.033353 1.000771 -1.101647 -3.101839 1.238753 1.497610
    29 6.809417 0.000001 0.000000 1.020857 0.799804 -0.708140
    30 12.391794 0.000000 0.000001 0.000000 0.000000 -2.129903
    31 9.337102 0.000000 0.000003 -0.870924 0.037964 0.535069
    32 4.453986 -0.073766 -0.571672 0.011074 -0.120459 -0.798102
    33 1.426599 0.000002 0.000000 -0.053643 0.078878 -1.550286
    34 1.322465 -0.000001 0.000000 -0.015280 0.038743 -0.776515
    35 4.477036 -0.043465 -1.581290 -0.308578 0.172195 0.148519
    36 1.344414 0.000000 0.000000 -0.034899 0.213891 -0.815762
    37 1.224670 0.000001 0.000000 0.006400 0.028747 -0.122004
    38 2.630291 -0.359835 -1.904289 0.477090 0.412850 -0.743540
    39 1.059293 0.000000 0.000000 0.013483 0.037155 0.724556
    40 0.781204 0.000000 0.000000 0.004926 0.022872 0.424898
    41 -0.044717 2.528787 4.661499 -0.044085 0.000000 0.022886
  time 7
    0 -3.053223 -3.047210 35.180867 1.670025 0.045273 -0.131224
    1 3.890452 -0.000004 -0.000003 -1.794218 -0.553725 -1.322921
    2 17.848177 0.000000 0.000000 0.000000 0.000000 0.911772
    3 15.638507 0.000000 0.000000 0.330805 0.570434 -1.306946
    4 7.109929 0.000000 0.000000 -0.007119 -0.003131 -0.631738
    5 -3.890452 0.000004 0.000007 -1.143568 -0.062943 -1.558425
    6 17.848173 0.000000 0.000000 0.000000 0.000000 0.616156
    7 15.638511 0.000000 0.000000 0.498890 0.504834 -1.424121
    8 7.109930 0.000000 0.000000 -0.080914 -0.003442 -0.706510
    9 -0.085935 3.345128 -2.981901 1.569449 0.084336 1.592961
    10 4.018331 0.000000 0.000000 -0.016048 -0.109683 0.178052
    11 3.518565 0.000000 0.000000 -0.038833 -0.077708 0.300873
    12 8.942642 0.000000 0.000000 -0.067778 0.101509 0.209787
    13 3.306641 0.000002 0.000000 3.138800 0.000567 0.400476
    14 3.593712 -0.000001 0.000000 0.297138 -0.184658 0.712699
    15 2.033346 1.000768 1.101697 2.385451 -1.528127 2.146508
    16 6.809416 0.000001 0.000000 -1.812189 -0.341711 -1.028289
    17 12.391796 0.000000 0.000001 0.000000 0.000000 -2.161432
    18 9.337076 0.000000 -0.000031 -0.530435 0.478997 0.565591
    19 4.454020 -0.070210 0.572073 0.095490 -0.008587 -0.706335
    20 1.426597 -0.000001 0.000000 0.055908 -0.087976 -1.504206
    21 1.322468 -0.000002 0.000000 0.009312 -0.033625 -0.575065
    22 4.477066 -0.028570 1.582474 0.481653 -0.035390 -1.246096
    23 1.344418 0.000000 0.000000 0.023466 -0.208305 -0.755723
    24 1.224671 0.000000 0.000000 0.026043 -0.124620 -0.538676
    25 2.630323 -0.345015 1.907214 -0.354022 -0.915164 -1.788195
    26 1.059292 0.000000 0.000001 -0.001067 -0.012855 0.250988
    27 0.781203 0.000000 0.000000 -0.000096 -0.003210 0.062757
    28 2.033353 1.000771 -1.101647 -3.077524 1.250694 1.523491
    29 6.809417 0.000001 0.000000 0.960850 0.726090 -0.750120
    30 12.391794 0.000000 0.000001 0.000000 0.000000 -2.119130
    31 9.337102 0.000000 0.000003 -0.892814 0.025020 0.486111
    32 4.453986 -0.073766 -0.571672 0.001199 -0.111890 -0.806411
    33 1.426599 0.000002 0.000000 -0.053583 0.078878 -1.549483
    34 1.322465 -0.000001 0.000000 -0.015736 0.039199 -0.788257
    35 4.477036 -0.043465 -1.581290 -0.302166 0.159288 0.146634
    36 1.344414 0.000000 0.000000 -0.032886 0.212022 -0.806242
    37 1.224670 0.000001 0.000000 0.005333 0.036321 -0.154417
    38 2.630291 -0.359835 -1.904289 0.493533 0.410260 -0.749670
    39 1.059293 0.000000 0.000000 0.013063 0.036676 0.713239
    40 0.781204 0.000000 0.000000 0.004974 0.022956 0.426655
    41 -0.044717 2.528787 4.661499 -0.042458 -0.001334 0.022285
  time 8
    0 -2.447736 -3.646496 35.427874 1.695087 0.046475 -0.054465
    1 3.890452 -0.000004 -0.000003 -1.763296 -0.499645 -1.340650
    2 17.848177 0.000000 0.000000 0.000000 0.000000 0.883903
    3 15.638507 0.000000 0.000000 0.278646 0.494448 -1.317846
    4 7.109929 0.000000 0.000000 -0.007072 -0.003203 -0.649169
    5 -3.890452 0.000004 0.000007 -1.111914 -0.028354 -1.546128
    6 17.848173 0.000000 0.000000 0.000000 0.000000 0.523304
    7 15.638511 0.000000 0.000000 0.549291 0.523857 -1.361091
    8 7.109930 0.000000 0.000000 -0.080806 -0.003562 -0.736764
    9 -0.097654 3.345128 -2.981901 1.567563 0.081528 1.590360
    10 4.018331 0.000000 0.000000 -0.022242 -0.095026 0.155284
    11 3.518565 0.000000 0.000000 -0.038560 -0.069403 0.254756
    12 8.942642 0.000000 0.000000 -0.051916 0.085666 0.192038
    13 3.306641 0.000002 0.000000 3.138800 0.000567 0.400476
    14 3.593712 -0.000001 0.000000 0.253177 -0.173479 0.652350
    15 2.033346 1.000768 1.101697 2.385451 -1.528127 2.146508
    16 6.809416 0.000001 0.000000 -1.728894 -0.263583 -1.096730
    17 12.391796 0.000000 0.000001 0.000000 0.000000 -2.135649
    18 9.337076 0.000000 -0.000031 -0.493320 0.448944 0.539628
    19 4.454020 -0.070210 0.572073 0.095490 -0.008587 -0.706335
    20 1.426597 -0.000001 0.000000 0.055908 -0.087976 -1.504206
    21 1.322468 -0.000002 0.000000 0.009312 -0.033625 -0.575065
    22 4.477066 -0.028570 1.582474 0.481653 -0.035390 -1.246096
    23 1.344418 0.000000 0.000000 0.023466 -0.208305 -0.755723
    24 1.224671 0.000000 0.000000 0.026043 -0.124620 -0.538676
    25 2.630323 -0.345015 1.907214 -0.354022 -0.915164 -1.788195
    26 1.059292 0.000000 0.000001 -0.001067 -0.012855 0.250988
    27 0.781203 0.000000 0.000000 -0.000096 -0.003210 0.062757
    28 2.033353 1.000771 -1.101647 -3.048326 1.263486 1.554262
    29 6.809417 0.000001 0.000000 0.895353 0.634069 -0.799154
    30 12.391794 0.000000 0.000001 0.000000 0.000000 -2.098804
    31 9.337102 0.000000 0.000003 -0.915216 0.009792 0.432317
    32 4.453986 -0.073766 -0.571672 -0.010031 -0.102302 -0.815919
    33 1.426599 0.000002 0.000000 -0.053511 0.078878 -1.548601
    34 1.322465 -0.000001 0.000000 -0.016263 0.039714 -0.801547
    35 4.477036 -0.043465 -1.581290 -0.294916 0.145565 0.144403
    36 1.344414 0.000000 0.000000 -0.030645 0.209901 -0.795537
    37 1.224670 0.000001 0.000000 0.003847 0.044842 -0.191056
    38 2.630291 -0.359835 -1.904289 0.512133 0.407443 -0.756658
    39 1.059293 0.000000 0.000000 0.012596 0.036136 0.700468
    40 0.781204 0.000000 0.000000 0.005010 0.023064 0.428636
    41 -0.044717 2.528787 4.661499 -0.039986 -0.003208 0.019840
  time 9
    0 -1.271919 -4.316883 35.932179 1.726521 0.040561 0.014542
    1 3.890452 -0.000004 -0.000003 -1.737528 -0.435630 -1.362884
    2 17.848177 0.000000 0.000000 0.000000 0.000000 0.848352
    3 15.638507 0.000000 0.000000 0.217308 0.407449 -1.327469
    4 7.109929 0.000000 0.000000 -0.006916 -0.003394 -0.694774
    5 -3.890452 0.000004 0.000007 -1.084932 0.033247 -1.537519
    6 17.848173 0.000000 0.000000 0.000000 0.000000 0.348324
    7 15.638511 0.000000 0.000000 0.613497 0.530774 -1.237801
    8 7.109930 0.000000 0.000000 -0.080650 -0.003730 -0.780823
    9 -0.089841 3.345128 -2.981901 1.565407 0.078210 1.581258
    10 4.018331 0.000000 0.000000 -0.029950 -0.078044 0.128603
    11 3.518565 0.000000 0.000000 -0.038728 -0.059611 0.200764
    12 8.942642 0.000000 0.000000 -0.032862 0.067341 0.170823
    13 3.306641 0.000002 0.000000 3.138800 0.000567 0.400476
    14 3.593712 -0.000001 0.000000 0.203436 -0.162815 0.579704
    15 2.033346 1.000768 1.101697 2.385451 -1.528127 2.146508
    16 6.809416 0.000001 0.000000 -1.650189 -0.179916 -1.155799
    17 12.391796 0.000000 0.000001 0.000000 0.000000 -2.097092
    18 9.337076 0.000000 -0.000031 -0.458167 0.423132 0.509280
    19 4.454020 -0.070210 0.572073 0.095490 -0.008587 -0.706366
    20 1.426597 -0.000001 0.000000 0.055908 -0.087976 -1.504206
    21 1.322468 -0.000002 0.000000 0.009312 -0.033625 -0.575065
    22 4.477066 -0.028570 1.582474 0.481653 -0.035390 -1.246096
    23 1.344418 0.000000 0.000000 0.023466 -0.208305 -0.755723
    24 1.224671 0.000000 0.000000 0.026043 -0.124620 -0.538676
    25 2.630323 -0.345015 1.907214 -0.354022 -0.915164 -1.788195
    26 1.059292 0.000000 0.000001 -0.001067 -0.012855 0.250988
    27 0.781203 0.000000 0.000000 -0.000096 -0.003210 0.062757
    28 2.033353 1.000771 -1.101647 -3.014055 1.276762 1.590208
    29 6.809417 0.000001 0.000000 0.834494 0.529959 -0.844746
    30 12.391794 0.000000 0.000001 0.000000 0.000000 -2.071152
    31 9.337102 0.000000 0.000003 -0.937234 -0.007531 0.373861
    32 4.453986 -0.073766 -0.571672 -0.022315 -0.092020 -0.826341
    33 1.426599 0.000002 0.000000 -0.053427 0.078878 -1.547638
    34 1.322465 -0.000001 0.000000 -0.016838 0.040265 -0.815959
    35 4.477036 -0.043465 -1.581290 -0.287030 0.131184 0.141854
    36 1.344414 0.000000 0.000000 -0.028236 0.207564 -0.783897
    37 1.224670 0.000001 0.000000 0.001882 0.054022 -0.230908
    38 2.630291 -0.359835 -1.904289 0.532332 0.404524 -0.764289
    39 1.059293 0.000000 0.000000 0.012104 0.035537 0.686585
    40 0.781204 0.000000 0.000000 0.005069 0.023172 0.430779
    41 -0.044717 2.528787 4.661499 -0.037123 -0.005400 0.010902
  time 10
    0 0.060153 -5.038057 36.487944 1.759059 0.027072 0.076084
    1 3.890452 -0.000004 -0.000003 -1.715959 -0.364329 -1.388089
    2 17.848177 0.000000 0.000000 0.000000 0.000000 0.807462
    3 15.638507 0.000000 0.000000 0.153914 0.317425 -1.326631
    4 7.109929 0.000000 0.000000 -0.006724 -0.003610 -0.751118
    5 -3.890452 0.000004 0.000007 -1.056044 0.128944 -1.516613
    6 17.848173 0.000000 0.000000 0.000000 0.000000 0.089589
    7 15.638511 0.000000 0.000000 0.679833 0.530410 -1.064279
    8 7.109930 0.000000 0.000000 -0.077582 -0.003586 -0.847471
    9 -0.062497 3.345128 -2.981901 1.563090 0.074722 1.565772
    10 4.018331 0.000000 0.000000 -0.038629 -0.060570 0.101017
    11 3.518565 0.000000 0.000000 -0.039546 -0.049460 0.144431
    12 8.942642 0.000000 0.000000 -0.012351 0.048370 0.147920
    13 3.306641 0.000002 0.000000 3.138800 0.000567 0.400476
    14 3.593712 -0.000001 0.000000 0.151079 -0.155127 0.503784
    15 2.033346 1.000768 1.101697 2.385451 -1.528127 2.146508
    16 6.809416 0.000001 0.000000 -1.580474 -0.097622 -1.203415
    17 12.391796 0.000000 0.000001 0.000000 0.000000 -2.052779
    18 9.337076 0.000000 -0.000031 -0.425424 0.400806 0.480028
    19 4.454020 -0.070210 0.572073 0.095490 -0.008587 -0.706335
    20 1.426597 -0.000001 0.000000 0.055908 -0.087976 -1.504206
    21 1.322468 -0.000002 0.000000 0.009312 -0.033625 -0.575065
    22 4.477066 -0.028570 1.582474 0.481653 -0.035390 -1.246096
    23 1.344418 0.000000 0.000000 0.023466 -0.208305 -0.755723
    24 1.224671 0.000000 0.000000 0.026043 -0.124620 -0.538676
    25 2.630323 -0.345015 1.907214 -0.354022 -0.915164 -1.788195
    26 1.059292 0.000000 0.000001 -0.001067 -0.012855 0.250988
    27 0.781203 0.000000 0.000000 -0.000096 -0.003210 0.062757
    28 2.033353 1.000771 -1.101647 -2.974423 1.290120 1.631331
    29 6.809417 0.000001 0.000000 0.783100 0.422083 -0.882511
    30 12.391794 0.000000 0.000001 0.000000 0.000000 -2.037753
    31 9.337102 0.000000 0.000003 -0.958356 -0.026794 0.311692
    32 4.453986 -0.073766 -0.571672 -0.035354 -0.081329 -0.837419
    33 1.426599 0.000002 0.000000 -0.053355 0.078878 -1.546594
    34 1.322465 -0.000001 0.000000 -0.017450 0.040841 -0.831130
    35 4.477036 -0.043465 -1.581290 -0.278700 0.116287 0.139039
    36 1.344414 0.000000 0.000000 -0.025731 0.205071 -0.771647
    37 1.224670 0.000001 0.000000 -0.000575 0.063598 -0.272824
    38 2.630291 -0.359835 -1.904289 0.553611 0.401605 -0.772380
    39 1.059293 0.000000 0.000000 0.011589 0.034902 0.671995
    40 0.781204 0.000000 0.000000 0.005117 0.023280 0.433046
    41 -0.044717 2.528787 4.661499 -0.034130 -0.007719 -0.004449
  time 11
    0 1.157843 -5.769389 36.899622 1.787604 0.019311 0.133701
    1 3.890452 -0.000004 -0.000003 -1.697825 -0.291561 -1.399397
    2 17.848177 0.000000 0.000000 0.000000 0.000000 0.770741
    3 15.638507 0.000000 0.000000 0.092608 0.234515 -1.312451
    4 7.109929 0.000000 0.000000 -0.006556 -0.003790 -0.796722
    5 -3.890452 0.000004 0.000007 -1.041266 0.137653 -1.530424
    6 17.848173 0.000000 0.000000 0.000000 0.000000 0.120946
    7 15.638511 0.000000 0.000000 0.608586 0.402848 -1.087485
    8 7.109930 0.000000 0.000000 -0.080279 -0.004066 -0.873826
    9 -0.054684 3.345128 -2.981901 1.560827 0.071347 1.557083
    10 4.018331 0.000000 0.000000 -0.047535 -0.044367 0.075518
    11 3.518565 0.000000 0.000000 -0.040993 -0.040041 0.091396
    12 8.942642 0.000000 0.000000 0.007716 0.030501 0.125245
    13 3.306641 0.000002 0.000000 3.138800 0.000567 0.400476
    14 3.593712 -0.000001 0.000000 0.098976 -0.151444 0.434118
    15 2.033346 1.000768 1.101697 2.385451 -1.528127 2.146508
    16 6.809416 0.000001 0.000000 -1.521947 -0.022778 -1.235789
    17 12.391796 0.000000 0.000001 0.000000 0.000000 -2.007915
    18 9.337076 0.000000 -0.000031 -0.399461 0.381242 0.451641
    19 4.454020 -0.070210 0.572073 0.095490 -0.008587 -0.706335
    20 1.426597 -0.000001 0.000000 0.055908 -0.087976 -1.504206
    21 1.322468 -0.000002 0.000000 0.009312 -0.033625 -0.575065
    22 4.477066 -0.028570 1.582474 0.481653 -0.035390 -1.246096
    23 1.344418 0.000000 0.000000 0.023466 -0.208305 -0.755723
    24 1.224671 0.000000 0.000000 0.026043 -0.124620 -0.538676
    25 2.630323 -0.345015 1.907214 -0.354022 -0.915164 -1.788195
    26 1.059292 0.000000 0.000001 -0.001067 -0.012855 0.250988
    27 0.781203 0.000000 0.000000 -0.000096 -0.003210 0.062757
    28 2.033353 1.000771 -1.101647 -2.929621 1.303357 1.677535
    29 6.809417 0.000001 0.000000 0.742780 0.320820 -0.914512
    30 12.391794 0.000000 0.000001 0.000000 0.000000 -1.999256
    31 9.337102 0.000000 0.000003 -0.979542 -0.047848 0.249869
    32 4.453986 -0.073766 -0.571672 -0.048825 -0.070519 -0.848926
    33 1.426599 0.000002 0.000000 -0.053272 0.078866 -1.545551
    34 1.322465 -0.000001 0.000000 -0.018097 0.041416 -0.846695
    35 4.477036 -0.043465 -1.581290 -0.270143 0.101031 0.136038
    36 1.344414 0.000000 0.000000 -0.023190 0.202482 -0.759145
    37 1.224670 0.000001 0.000000 -0.003511 0.073281 -0.315888
    38 2.630291 -0.359835 -1.904289 0.575373 0.398768 -0.780716
    39 1.059293 0.000000 0.000000 0.011074 0.034243 0.657020
    40 0.781204 0.000000 0.000000 0.005165 0.023400 0.435363
    41 -0.044717 2.528787 4.661499 -0.031267 -0.009943 -0.012986
  time 12
    0 1.177375 -6.663238 36.457069 1.796950 0.034787 0.151503
    1 3.890452 -0.000004 -0.000003 -1.681219 -0.222815 -1.383872
    2 17.848177 0.000000 0.000000 0.000000 0.000000 0.747333
    3 15.638507 0.000000 0.000000 0.037220 0.168858 -1.283543
    4 7.109929 0.000000 0.000000 -0.006484 -0.003850 -0.814154
    5 -3.890452 0.000004 0.000007 -1.028680 0.127075 -1.535627
    6 17.848173 0.000000 0.000000 0.000000 0.000000 0.208761
    7 15.638511 0.000000 0.000000 0.515011 0.256218 -1.133038
    8 7.109930 0.000000 0.000000 -0.080015 -0.004269 -0.938771
    9 -0.105467 3.345128 -2.981901 1.558833 0.068426 1.565713
    10 4.018331 0.000000 0.000000 -0.055718 -0.031100 0.055185
    11 3.518565 0.000000 0.000000 -0.042796 -0.032490 0.047195
    12 8.942642 0.000000 0.000000 0.025285 0.015328 0.104821
    13 3.306641 0.000002 0.000000 3.138800 0.000567 0.400476
    14 3.593712 -0.000001 0.000000 0.049446 -0.151679 0.380357
    15 2.033346 1.000768 1.101697 2.385451 -1.528127 2.146508
    16 6.809416 0.000001 0.000000 -1.474610 0.037558 -1.252639
    17 12.391796 0.000000 0.000001 0.000000 0.000000 -1.965889
    18 9.337076 0.000000 -0.000031 -0.381706 0.364111 0.423370
    19 4.454020 -0.070210 0.572073 0.095490 -0.008587 -0.706335
    20 1.426597 -0.000001 0.000000 0.055908 -0.087976 -1.504206
    21 1.322468 -0.000002 0.000000 0.009312 -0.033625 -0.575065
    22 4.477066 -0.028570 1.582474 0.481653 -0.035390 -1.246096
    23 1.344418 0.000000 0.000000 0.023466 -0.208305 -0.755723
    24 1.224671 0.000000 0.000000 0.026043 -0.124620 -0.538676
    25 2.630323 -0.345015 1.907214 -0.354022 -0.915164 -1.788195
    26 1.059292 0.000000 0.000001 -0.001067 -0.012855 0.250988
    27 0.781203 0.000000 0.000000 -0.000096 -0.003210 0.062757
    28 2.033353 1.000771 -1.101647 -2.879746 1.316107 1.728627
    29 6.809417 0.000001 0.000000 0.715521 0.235544 -0.942814
    30 12.391794 0.000000 0.000001 0.000000 0.000000 -1.956808
    31 9.337102 0.000000 0.000003 -1.001688 -0.070652 0.191585
    32 4.453986 -0.073766 -0.571672 -0.062391 -0.059889 -0.860547
    33 1.426599 0.000002 0.000000 -0.053188 0.078866 -1.544507
    34 1.322465 -0.000001 0.000000 -0.018744 0.041979 -0.862230
    35 4.477036 -0.043465 -1.581290 -0.261550 0.085559 0.132930
    36 1.344414 0.000000 0.000000 -0.020697 0.199870 -0.746644
    37 1.224670 0.000001 0.000000 -0.006879 0.082833 -0.358984
    38 2.630291 -0.359835 -1.904289 0.597172 0.396096 -0.789114
    39 1.059293 0.000000 0.000000 0.010558 0.033572 0.642067
    40 0.781204 0.000000 0.000000 0.005225 0.023507 0.437681
    41 -0.044717 2.528787 4.661499 -0.028989 -0.011913 -0.004289
  time 13
    0 1.193000 -7.577403 35.767508 1.799753 0.057701 0.163850
    1 3.890452 -0.000004 -0.000003 -1.668239 -0.135853 -1.298483
    2 17.848177 0.000000 0.000000 0.000000 0.000000 0.759841
    3 15.638507 0.000000 0.000000 0.067668 0.203624 -1.107326
    4 7.109929 0.000000 0.000000 -0.005957 -0.004293 -0.943747
    5 -3.890452 0.000004 0.000007 -1.017049 0.088008 -1.549439
    6 17.848173 0.000000 0.000000 0.000000 0.000000 0.372532
    7 15.638511 0.000000 0.000000 0.415136 0.111636 -1.210775
    8 7.109930 0.000000 0.000000 -0.079728 -0.004473 -1.003717
    9 -0.179688 3.341221 -2.981901 1.557971 0.068397 1.585336
    10 4.018331 0.000000 0.000000 -0.058430 -0.037835 0.078597
    11 3.518565 0.000000 0.000000 -0.044977 -0.039729 0.068019
    12 8.942642 0.000000 0.000000 0.023633 0.014393 0.096976
    13 3.306641 0.000002 0.000000 3.138800 0.000567 0.400476
    14 3.593712 -0.000001 0.000000 0.015526 -0.173522 0.440833
    15 2.033346 1.000768 1.101697 2.385451 -1.528127 2.146508
    16 6.809416 0.000001 0.000000 -1.472410 -0.001506 -1.236547
    17 12.391796 0.000000 0.000001 0.000000 0.000000 -1.958083
    18 9.337076 0.000000 -0.000031 -0.367966 0.349380 0.418928
    19 4.454020 -0.070210 0.572073 0.095490 -0.008587 -0.706335
    20 1.426597 -0.000001 0.000000 0.055908 -0.087976 -1.504206
    21 1.322468 -0.000002 0.000000 0.009312 -0.033625 -0.575065
    22 4.477066 -0.028570 1.582474 0.481653 -0.035390 -1.246096
    23 1.344418 0.000000 0.000000 0.023466 -0.208305 -0.755723
    24 1.224671 0.000000 0.000000 0.026043 -0.124620 -0.538676
    25 2.630323 -0.345015 1.907214 -0.354022 -0.915164 -1.788195
    26 1.059292 0.000000 0.000001 -0.001067 -0.012855 0.250988
    27 0.781203 0.000000 0.000000 -0.000096 -0.003210 0.062757
    28 2.033353 1.000771 -1.101647 -2.825371 1.328089 1.784129
    29 6.809417 0.000001 0.000000 0.745335 0.257881 -0.954771
    30 12.391794 0.000000 0.000001 0.000000 0.000000 -1.912924
    31 9.337102 0.000000 0.000003 -1.024218 -0.094751 0.135979
    32 4.453986 -0.073766 -0.571672 -0.075742 -0.049666 -0.872025
    33 1.426599 0.000002 0.000000 -0.053104 0.078866 -1.543504
    34 1.322465 -0.000001 0.000000 -0.019379 0.042519 -0.877371
    35 4.477036 -0.043465 -1.581290 -0.253137 0.070027 0.129770
    36 1.344414 0.000000 0.000000 -0.018288 0.197293 -0.734465
    37 1.224670 0.000001 0.000000 -0.010558 0.092001 -0.401097
    38 2.630291 -0.359835 -1.904289 0.618376 0.393670 -0.797327
    39 1.059293 0.000000 0.000000 0.010079 0.032913 0.627499
    40 0.781204 0.000000 0.000000 0.005273 0.023627 0.439936
    41 -0.044717 2.528787 4.661499 -0.029640 -0.012834 0.015391
  time 14
    0 1.247689 -8.379836 34.697146 1.800773 0.060934 0.169688
    1 3.890452 -0.000004 -0.000003 -1.663753 -0.141483 -1.282862
    2 17.848177 0.000000 0.000000 0.000000 0.000000 0.850985
    3 15.638507 0.000000 0.000000 0.062256 0.213763 -1.194778
    4 7.109929 0.000000 0.000000 -0.005382 -0.004653 -1.073304
    5 -3.890452 0.000004 0.000007 -1.002843 0.044908 -1.590495
    6 17.848173 0.000000 0.000000 0.000000 0.000000 0.552224
    7 15.638511 0.000000 0.000000 0.327212 -0.014196 -1.292331
    8 7.109930 0.000000 0.000000 -0.079608 -0.004545 -1.030609
    9 -0.187501 3.341221 -2.981901 1.557540 0.068397 1.585986
    10 4.018331 0.000000 0.000000 -0.063606 -0.043372 0.108444
    11 3.518565 0.000000 0.000000 -0.049736 -0.045757 0.094412
    12 8.942642 0.000000 0.000000 0.021927 0.013722 0.086562
    13 3.306641 0.000002 0.000000 3.138800 0.000567 0.400476
    14 3.593712 -0.000001 0.000000 -0.015188 -0.191232 0.510247
    15 2.033346 1.000768 1.101697 2.385451 -1.528127 2.146508
    16 6.809416 0.000001 0.000000 -1.476331 -0.044981 -1.231719
    17 12.391796 0.000000 0.000001 0.000000 0.000000 -1.951775
    18 9.337076 0.000000 -0.000031 -0.343699 0.335471 0.416389
    19 4.454020 -0.070210 0.572073 0.095490 -0.008587 -0.706335
    20 1.426597 -0.000001 0.000000 0.055908 -0.087976 -1.504206
    21 1.322468 -0.000002 0.000000 0.009312 -0.033625 -0.575065
    22 4.477066 -0.028570 1.582474 0.481653 -0.035390 -1.246096
    23 1.344418 0.000000 0.000000 0.023466 -0.208305 -0.755723
    24 1.224671 0.000000 0.000000 0.026043 -0.124620 -0.538676
    25 2.630323 -0.345015 1.907214 -0.354022 -0.915164 -1.788195
    26 1.059292 0.000000 0.000001 -0.001067 -0.012855 0.250988
    27 0.781203 0.000000 0.000000 -0.000096 -0.003210 0.062757
    28 2.033353 1.000771 -1.101647 -2.767167 1.339059 1.843177
    29 6.809417 0.000001 0.000000 0.778462 0.288190 -0.957954
    30 12.391794 0.000000 0.000001 0.000000 0.000000 -1.871409
    31 9.337102 0.000000 0.000003 -1.043355 -0.119040 0.078645
    32 4.453986 -0.073766 -0.571672 -0.088494 -0.040102 -0.883018
    33 1.426599 0.000002 0.000000 -0.053032 0.078866 -1.542501
    34 1.322465 -0.000001 0.000000 -0.020002 0.043022 -0.891753
    35 4.477036 -0.043465 -1.581290 -0.245096 0.054554 0.126636
    36 1.344414 0.000000 0.000000 -0.016047 0.194824 -0.722898
    37 1.224670 0.000001 0.000000 -0.014393 0.100546 -0.441079
    38 2.630291 -0.359835 -1.904289 0.638538 0.391512 -0.805204
    39 1.059293 0.000000 0.000000 0.009624 0.032277 0.613658
    40 0.781204 0.000000 0.000000 0.005333 0.023735 0.442079
    41 -0.044717 2.528787 4.661499 -0.030291 -0.013247 0.016112
  time 15
    0 1.337536 -8.999436 33.245982 1.805190 0.052388 0.178206
    1 3.890452 -0.000004 -0.000003 -1.645525 -0.165897 -1.282287
    2 17.848177 0.000000 0.000000 0.000000 0.000000 0.975120
    3 15.638507 0.000000 0.000000 0.049691 0.216481 -1.303264
    4 7.109929 0.000000 0.000000 -0.004962 -0.004857 -1.159723
    5 -3.890452 0.000004 0.000007 -0.977768 0.012434 -1.648768
    6 17.848173 0.000000 0.000000 0.000000 0.000000 0.741989
    7 15.638511 0.000000 0.000000 0.333234 -0.045734 -1.429373
    8 7.109930 0.000000 0.000000 -0.079787 -0.004425 -0.989150
    9 -0.156250 3.345128 -2.981901 1.557701 0.068397 1.577534
    10 4.018331 0.000000 0.000000 -0.071178 -0.046320 0.142535
    11 3.518565 0.000000 0.000000 -0.057054 -0.049257 0.124104
    12 8.942642 0.000000 0.000000 0.020275 0.013207 0.073474
    13 3.306641 0.000002 0.000000 3.138800 0.000567 0.400476
    14 3.593712 -0.000001 0.000000 -0.041345 -0.202560 0.583523
    15 2.033346 1.000768 1.101697 2.385451 -1.528127 2.146508
    16 6.809416 0.000001 0.000000 -1.484842 -0.086447 -1.238156
    17 12.391796 0.000000 0.000001 0.000000 0.000000 -1.946335
    18 9.337076 0.000000 -0.000031 -0.311401 0.322944 0.411485
    19 4.454020 -0.070210 0.572073 0.095490 -0.008587 -0.706366
    20 1.426597 -0.000001 0.000000 0.055908 -0.087976 -1.504206
    21 1.322468 -0.000002 0.000000 0.009312 -0.033625 -0.575065
    22 4.477066 -0.028570 1.582474 0.481653 -0.035390 -1.246096
    23 1.344418 0.000000 0.000000 0.023466 -0.208305 -0.755723
    24 1.224671 0.000000 0.000000 0.026043 -0.124620 -0.538676
    25 2.630323 -0.345015 1.907214 -0.354022 -0.915164 -1.788195
    26 1.059292 0.000000 0.000001 -0.001067 -0.012855 0.250988
    27 0.781203 0.000000 0.000000 -0.000096 -0.003210 0.062757
    28 2.033353 1.000771 -1.101647 -2.706570 1.348814 1.904430
    29 6.809417 0.000001 0.000000 0.811684 0.322922 -0.954169
    30 12.391794 0.000000 0.000001 0.000000 0.000000 -1.832912
    31 9.337102 0.000000 0.000003 -1.060189 -0.143139 0.022779
    32 4.453986 -0.073766 -0.571672 -0.100322 -0.031450 -0.893240
    33 1.426599 0.000002 0.000000 -0.052960 0.078866 -1.541618
    34 1.322465 -0.000001 0.000000 -0.020566 0.043477 -0.904982
    35 4.477036 -0.043465 -1.581290 -0.237641 0.039286 0.123662
    36 1.344414 0.000000 0.000000 -0.013998 0.192535 -0.712300
    37 1.224670 0.000001 0.000000 -0.018240 0.108264 -0.477916
    38 2.630291 -0.359835 -1.904289 0.657026 0.389641 -0.812467
    39 1.059293 0.000000 0.000000 0.009216 0.031702 0.600930
    40 0.781204 0.000000 0.000000 0.005381 0.023831 0.444059
    41 -0.044717 2.528787 4.661499 -0.031071 -0.013088 0.007655
  time 16
    0 0.974244 -10.106591 31.743358 1.817339 0.046890 0.196104
    1 3.890452 -0.000004 -0.000003 -1.646288 -0.161733 -1.246828
    2 17.848177 0.000000 0.000000 0.000000 0.000000 1.049366
    3 15.638507 0.000000 0.000000 0.044975 0.257086 -1.396330
    4 7.109929 0.000000 0.000000 -0.005022 -0.004833 -1.146799
    5 -3.890452 0.000004 0.000007 -0.946305 0.022914 -1.663242
    6 17.848173 0.000000 0.000000 0.000000 0.000000 0.847189
    7 15.638511 0.000000 0.000000 0.338423 -0.071037 -1.543495
    8 7.109930 0.000000 0.000000 -0.080051 -0.004245 -0.928687
    9 -0.140624 3.345128 -2.981901 1.558456 0.068426 1.575288
    10 4.018331 0.000000 0.000000 -0.080287 -0.045697 0.177496
    11 3.518565 0.000000 0.000000 -0.066217 -0.049269 0.154222
    12 8.942642 0.000000 0.000000 0.018943 0.012728 0.058803
    13 3.306641 0.000002 0.000000 3.138800 0.000567 0.400476
    14 3.593712 -0.000001 0.000000 -0.061976 -0.205837 0.655329
    15 2.033346 1.000768 1.101697 2.385451 -1.528127 2.146508
    16 6.809416 0.000001 0.000000 -1.495935 -0.120609 -1.253586
    17 12.391796 0.000000 0.000001 0.000000 0.000000 -1.940027
    18 9.337076 0.000000 -0.000031 -0.275892 0.313014 0.399196
    19 4.454020 -0.070210 0.572073 0.095490 -0.008587 -0.706335
    20 1.426597 -0.000001 0.000000 0.055908 -0.087976 -1.504206
    21 1.322468 -0.000002 0.000000 0.009312 -0.033625 -0.575065
    22 4.477066 -0.028570 1.582474 0.481653 -0.035390 -1.246096
    23 1.344418 0.000000 0.000000 0.023466 -0.208305 -0.755723
    24 1.224671 0.000000 0.000000 0.026043 -0.124620 -0.538676
    25 2.630323 -0.345015 1.907214 -0.354022 -0.915164 -1.788195
    26 1.059292 0.000000 0.000001 -0.001067 -0.012855 0.250988
    27 0.781203 0.000000 0.000000 -0.000096 -0.003210 0.062757
    28 2.033353 1.000771 -1.101647 -2.645399 1.357355 1.966067
    29 6.809417 0.000001 0.000000 0.842066 0.357655 -0.946771
    30 12.391794 0.000000 0.000001 0.000000 0.000000 -1.798077
    31 9.337102 0.000000 0.000003 -1.076830 -0.166895 -0.027733
    32 4.453986 -0.073766 -0.571672 -0.110845 -0.023911 -0.902377
    33 1.426599 0.000002 0.000000 -0.052900 0.078866 -1.540856
    34 1.322465 -0.000001 0.000000 -0.021081 0.043873 -0.916663
    35 4.477036 -0.043465 -1.581290 -0.231002 0.024377 0.120927
    36 1.344414 0.000000 0.000000 -0.012224 0.190486 -0.702959
    37 1.224670 0.000001 0.000000 -0.021872 0.114964 -0.510525
    38 2.630291 -0.359835 -1.904289 0.673394 0.388120 -0.818903
    39 1.059293 0.000000 0.000000 0.008869 0.031175 0.589699
    40 0.781204 0.000000 0.000000 0.005417 0.023915 0.445791
    41 -0.044717 2.528787 4.661499 -0.031852 -0.012357 0.005371
  time 17
    0 0.517198 -10.929339 30.621536 1.839173 0.045366 0.221467
    1 3.890452 -0.000004 -0.000003 -1.649438 -0.168499 -1.201307
    2 17.848177 0.000000 0.000000 0.000000 0.000000 1.092671
    3 15.638507 0.000000 0.000000 0.041272 0.303008 -1.458374
    4 7.109929 0.000000 0.000000 -0.005106 -0.004797 -1.131269
    5 -3.890452 0.000004 0.000007 -0.865359 -0.231951 -1.798140
    6 17.848173 0.000000 0.000000 0.000000 0.000000 1.192601
    7 15.638511 0.000000 0.000000 0.183977 -0.134294 -1.701929
    8 7.109930 0.000000 0.000000 -0.080423 -0.003934 -0.838059
    9 -0.140624 3.345128 -2.981901 1.559749 0.068454 1.579721
    10 4.018331 0.000000 0.000000 -0.089374 -0.041335 0.209639
    11 3.518565 0.000000 0.000000 -0.075695 -0.045625 0.181679
    12 8.942642 0.000000 0.000000 0.018235 0.012152 0.044502
    13 3.306641 0.000002 0.000000 3.138800 0.000567 0.400476
    14 3.593712 -0.000001 0.000000 -0.077375 -0.200547 0.720967
    15 2.033346 1.000768 1.101697 2.385451 -1.528127 2.146508
    16 6.809416 0.000001 0.000000 -1.506359 -0.145851 -1.278482
    17 12.391796 0.000000 0.000001 0.000000 0.000000 -1.930723
    18 9.337076 0.000000 -0.000031 -0.238598 0.306372 0.378368
    19 4.454020 -0.070210 0.572073 0.095490 -0.008587 -0.706366
    20 1.426597 -0.000001 0.000000 0.055908 -0.087976 -1.504206
    21 1.322468 -0.000002 0.000000 0.009312 -0.033625 -0.575065
    22 4.477066 -0.028570 1.582474 0.481653 -0.035390 -1.246096
    23 1.344418 0.000000 0.000000 0.023466 -0.208305 -0.755723
    24 1.224671 0.000000 0.000000 0.026043 -0.124620 -0.538676
    25 2.630323 -0.345015 1.907214 -0.354022 -0.915164 -1.788195
    26 1.059292 0.000000 0.000001 -0.001067 -0.012855 0.250988
    27 0.781203 0.000000 0.000000 -0.000096 -0.003210 0.062757
    28 2.033353 1.000771 -1.101647 -2.585950 1.364560 2.025882
    29 6.809417 0.000001 0.000000 0.869609 0.386781 -0.935674
    30 12.391794 0.000000 0.000001 0.000000 0.000000 -1.768917
    31 9.337102 0.000000 0.000003 -1.093792 -0.189814 -0.071338
    32 4.453986 -0.073766 -0.571672 -0.119678 -0.017667 -0.910029
    33 1.426599 0.000002 0.000000 -0.052840 0.078854 -1.540173
    34 1.322465 -0.000001 0.000000 -0.021512 0.044196 -0.926433
    35 4.477036 -0.043465 -1.581290 -0.225369 0.009948 0.118537
    36 1.344414 0.000000 0.000000 -0.010750 0.188760 -0.695128
    37 1.224670 0.000001 0.000000 -0.025072 0.120465 -0.537791
    38 2.630291 -0.359835 -1.904289 0.687084 0.386907 -0.824297
    39 1.059293 0.000000 0.000000 0.008581 0.030743 0.580308
    40 0.781204 0.000000 0.000000 0.005453 0.023999 0.447249
    41 -0.044717 2.528787 4.661499 -0.032633 -0.011023 0.009699
  time 18
    0 0.064059 -11.985707 30.127522 1.870437 0.041301 0.245969
    1 3.890452 -0.000004 -0.000003 -1.656214 -0.154211 -1.164506
    2 17.848177 0.000000 0.000000 0.000000 0.000000 1.053463
    3 15.638507 0.000000 0.000000 0.037759 0.344061 -1.468800
    4 7.109929 0.000000 0.000000 -0.005190 -0.004749 -1.112253
    5 -3.890452 0.000004 0.000007 -0.750377 -0.457099 -1.943918
    6 17.848173 0.000000 0.000000 0.000000 0.000000 1.455478
    7 15.638511 0.000000 0.000000 0.043429 -0.189451 -1.807265
    8 7.109930 0.000000 0.000000 -0.080770 -0.003598 -0.747386
    9 -0.136718 3.345128 -2.981901 1.561473 0.068511 1.583563
    10 4.018331 0.000000 0.000000 -0.096404 -0.033952 0.236077
    11 3.518565 0.000000 0.000000 -0.083348 -0.039010 0.204170
    12 8.942642 0.000000 0.000000 0.018429 0.011182 0.032417
    13 3.306641 0.000002 0.000000 3.138800 0.000567 0.400476
    14 3.593712 -0.000001 0.000000 -0.089230 -0.187206 0.777204
    15 2.033346 1.000768 1.101697 2.385451 -1.528127 2.146508
    16 6.809416 0.000001 0.000000 -1.511332 -0.164673 -1.313223
    17 12.391796 0.000000 0.000001 0.000000 0.000000 -1.915190
    18 9.337076 0.000000 -0.000031 -0.199698 0.303018 0.350674
    19 4.454020 -0.070210 0.572073 0.095490 -0.008587 -0.706366
    20 1.426597 -0.000001 0.000000 0.055908 -0.087976 -1.504206
    21 1.322468 -0.000002 0.000000 0.009312 -0.033625 -0.575065
    22 4.477066 -0.028570 1.582474 0.481653 -0.035390 -1.246096
    23 1.344418 0.000000 0.000000 0.023466 -0.208305 -0.755723
    24 1.224671 0.000000 0.000000 0.026043 -0.124620 -0.538676
    25 2.630323 -0.345015 1.907214 -0.354022 -0.915164 -1.788195
    26 1.059292 0.000000 0.000001 -0.001067 -0.012855 0.250988
    27 0.781203 0.000000 0.000000 -0.000096 -0.003210 0.062757
    28 2.033353 1.000771 -1.101647 -2.530714 1.370551 2.081288
    29 6.809417 0.000001 0.000000 0.896678 0.404958 -0.919501
    30 12.391794 0.000000 0.000001 0.000000 0.000000 -1.747298
    31 9.337102 0.000000 0.000003 -1.110433 -0.211134 -0.108294
    32 4.453986 -0.073766 -0.571672 -0.126461 -0.012957 -0.915940
    33 1.426599 0.000002 0.000000 -0.052804 0.078854 -1.539692
    34 1.322465 -0.000001 0.000000 -0.021836 0.044436 -0.933897
    35 4.477036 -0.043465 -1.581290 -0.220983 -0.003882 0.116625
    36 1.344414 0.000000 0.000000 -0.009636 0.187442 -0.689164
    37 1.224670 0.000001 0.000000 -0.027624 0.124599 -0.558635
    38 2.630291 -0.359835 -1.904289 0.697500 0.386023 -0.828435
    39 1.059293 0.000000 0.000000 0.008353 0.030396 0.573141
    40 0.781204 0.000000 0.000000 0.005477 0.024047 0.448358
    41 -0.044717 2.528787 4.661499 -0.033414 -0.009308 0.013387
  time 19
    0 -0.303139 -13.803879 30.261318 1.908327 0.024854 0.257358
    1 3.890452 -0.000004 -0.000003 -1.668239 -0.077326 -1.160290
    2 17.848177 0.000000 0.000000 0.000000 0.000000 0.877904
    3 15.638507 0.000000 0.000000 0.034087 0.372446 -1.410219
    4 7.109929 0.000000 0.000000 -0.005310 -0.004689 -1.088447
    5 -3.890452 0.000004 0.000007 -0.663234 -0.554026 -2.021017
    6 17.848173 0.000000 0.000000 0.000000 0.000000 1.484885
    7 15.638511 0.000000 0.000000 -0.022352 -0.220806 -1.832381
    8 7.109930 0.000000 0.000000 -0.080830 -0.003538 -0.730444
    9 -0.093748 3.345128 -2.981901 1.563360 0.068539 1.575879
    10 4.018331 0.000000 0.000000 -0.099071 -0.025000 0.255523
    11 3.518565 0.000000 0.000000 -0.086829 -0.030884 0.220772
    12 8.942642 0.000000 0.000000 0.019553 0.009468 0.023604
    13 3.306641 0.000002 0.000000 3.138800 0.000567 0.400476
    14 3.593712 -0.000001 0.000000 -0.100326 -0.167355 0.822697
    15 2.033346 1.000768 1.101697 2.385451 -1.528127 2.146508
    16 6.809416 0.000001 0.000000 -1.505499 -0.182710 -1.355632
    17 12.391796 0.000000 0.000001 0.000000 0.000000 -1.890826
    18 9.337076 0.000000 -0.000031 -0.160353 0.301538 0.319806
    19 4.454020 -0.070210 0.572073 0.095490 -0.008587 -0.706335
    20 1.426597 -0.000001 0.000000 0.055908 -0.087976 -1.504206
    21 1.322468 -0.000002 0.000000 0.009312 -0.033625 -0.575065
    22 4.477066 -0.028570 1.582474 0.481653 -0.035390 -1.246096
    23 1.344418 0.000000 0.000000 0.023466 -0.208305 -0.755723
    24 1.224671 0.000000 0.000000 0.026043 -0.124620 -0.538676
    25 2.630323 -0.345015 1.907214 -0.354022 -0.915164 -1.788195
    26 1.059292 0.000000 0.000001 -0.001067 -0.012855 0.250988
    27 0.781203 0.000000 0.000000 -0.000096 -0.003210 0.062757
    28 2.033353 1.000771 -1.101647 -2.482370 1.375489 2.129600
    29 6.809417 0.000001 0.000000 0.927439 0.408067 -0.896963
    30 12.391794 0.000000 0.000001 0.000000 0.000000 -1.735088
    31 9.337102 0.000000 0.000003 -1.125475 -0.229789 -0.139810
    32 4.453986 -0.073766 -0.571672 -0.130811 -0.009961 -0.919709
    33 1.426599 0.000002 0.000000 -0.052780 0.078854 -1.539371
    34 1.322465 -0.000001 0.000000 -0.022052 0.044592 -0.938661
    35 4.477036 -0.043465 -1.581290 -0.218058 -0.016958 0.115297
    36 1.344414 0.000000 0.000000 -0.008928 0.186591 -0.685356
    37 1.224670 0.000001 0.000000 -0.029302 0.127224 -0.571973
    38 2.630291 -0.359835 -1.904289 0.704196 0.385488 -0.831071
    39 1.059293 0.000000 0.000000 0.008221 0.030180 0.568563
    40 0.781204 0.000000 0.000000 0.005501 0.024083 0.449068
    41 -0.044717 2.528787 4.661499 -0.034130 -0.007433 0.005611
  time 20
    0 -0.494551 -16.901880 30.796499 1.948002 -0.003742 0.246160
    1 3.890452 -0.000004 -0.000003 -1.693626 0.001923 -1.199007
    2 17.848177 0.000000 0.000000 0.000000 0.000000 0.727217
    3 15.638507 0.000000 0.000000 0.078555 0.252548 -1.068612
    4 7.109929 0.000000 0.000000 -0.004782 -0.004928 -1.197685
    5 -3.890452 0.000004 0.000007 -0.581144 -0.620596 -2.093007
    6 17.848173 0.000000 0.000000 0.000000 0.000000 1.448898
    7 15.638511 0.000000 0.000000 -0.068306 -0.252799 -1.833336
    8 7.109930 0.000000 0.000000 -0.080974 -0.003370 -0.689567
    9 -0.007808 3.345128 -2.981901 1.565138 0.068539 1.554778
    10 4.018331 0.000000 0.000000 -0.095613 -0.016299 0.268446
    11 3.518565 0.000000 0.000000 -0.084187 -0.023070 0.231875
    12 8.942642 0.000000 0.000000 0.021385 0.006592 0.017904
    13 3.306641 0.000002 0.000000 3.138800 0.000567 0.400476
    14 3.593712 -0.000001 0.000000 -0.104545 -0.141101 0.858075
    15 2.033346 1.000768 1.101697 2.385451 -1.528127 2.146508
    16 6.809416 0.000001 0.000000 -1.484651 -0.211334 -1.391699
    17 12.391796 0.000000 0.000001 0.000000 0.000000 -1.865910
    18 9.337076 0.000000 -0.000031 -0.129750 0.301111 0.296555
    19 4.454020 -0.070210 0.572073 0.095490 -0.008587 -0.706366
    20 1.426597 -0.000001 0.000000 0.055908 -0.087976 -1.504206
    21 1.322468 -0.000002 0.000000 0.009312 -0.033625 -0.575065
    22 4.477066 -0.028570 1.582474 0.481653 -0.035390 -1.246096
    23 1.344418 0.000000 0.000000 0.023466 -0.208305 -0.755723
    24 1.224671 0.000000 0.000000 0.026043 -0.124620 -0.538676
    25 2.630323 -0.345015 1.907214 -0.354022 -0.915164 -1.788195
    26 1.059292 0.000000 0.000001 -0.001067 -0.012855 0.250988
    27 0.781203 0.000000 0.000000 -0.000096 -0.003210 0.062757
    28 2.033353 1.000771 -1.101647 -2.454130 1.379294 2.157686
    29 6.809417 0.000001 0.000000 0.967002 0.395190 -0.872790
    30 12.391794 0.000000 0.000001 0.000000 0.000000 -1.742917
    31 9.337102 0.000000 0.000003 -1.142692 -0.241629 -0.155870
    32 4.453986 -0.073766 -0.571672 -0.129685 -0.010740 -0.918738
    33 1.426599 0.000002 0.000000 -0.052792 0.078854 -1.539451
    34 1.322465 -0.000001 0.000000 -0.021992 0.044556 -0.937417
    35 4.477036 -0.043465 -1.581290 -0.218454 -0.028750 0.115429
    36 1.344414 0.000000 0.000000 -0.009108 0.186818 -0.686362
    37 1.224670 0.000001 0.000000 -0.028859 0.126553 -0.568532
    38 2.630291 -0.359835 -1.904289 0.702448 0.385632 -0.830396
    39 1.059293 0.000000 0.000000 0.008257 0.030240 0.569740
    40 0.781204 0.000000 0.000000 0.005489 0.024071 0.448893
    41 -0.044717 2.528787 4.661499 -0.034715 -0.005686 -0.015631
  time 21
    0 -0.545334 -20.924204 31.424307 1.983429 -0.014367 0.218308
    1 3.890452 -0.000004 -0.000003 -1.731420 0.027662 -1.243187
    2 17.848177 0.000000 0.000000 0.000000 0.000000 0.621443
    3 15.638507 0.000000 0.000000 0.111693 0.124472 -0.736520
    4 7.109929 0.000000 0.000000 -0.004231 -0.005120 -1.306889
    5 -3.890452 0.000004 0.000007 -0.518886 -0.664189 -2.125171
    6 17.848173 0.000000 0.000000 0.000000 0.000000 1.375462
    7 15.638511 0.000000 0.000000 -0.101196 -0.287568 -1.817674
    8 7.109930 0.000000 0.000000 -0.081106 -0.003203 -0.648691
    9 0.023443 3.345128 -2.981901 1.566754 0.068567 1.549399
    10 4.018331 0.000000 0.000000 -0.085260 -0.009791 0.276412
    11 3.518565 0.000000 0.000000 -0.074584 -0.017557 0.238722
    12 8.942642 0.000000 0.000000 0.023425 0.002409 0.014421
    13 3.306641 0.000002 0.000000 3.138800 0.000567 0.400476
    14 3.593712 -0.000001 0.000000 -0.100157 -0.110564 0.884263
    15 2.033346 1.000768 1.101697 2.385451 -1.528127 2.146508
    16 6.809416 0.000001 0.000000 -1.448215 -0.259907 -1.401828
    17 12.391796 0.000000 0.000001 0.000000 0.000000 -1.845567
    18 9.337076 0.000000 -0.000031 -0.125111 0.300946 0.284266
    19 4.454020 -0.070210 0.572073 0.095490 -0.008587 -0.706366
    20 1.426597 -0.000001 0.000000 0.055908 -0.087976 -1.504206
    21 1.322468 -0.000002 0.000000 0.009312 -0.033625 -0.575065
    22 4.477066 -0.028570 1.582474 0.481653 -0.035390 -1.246096
    23 1.344418 0.000000 0.000000 0.023466 -0.208305 -0.755723
    24 1.224671 0.000000 0.000000 0.026043 -0.124620 -0.538676
    25 2.630323 -0.345015 1.907214 -0.354022 -0.915164 -1.788195
    26 1.059292 0.000000 0.000001 -0.001067 -0.012855 0.250988
    27 0.781203 0.000000 0.000000 -0.000096 -0.003210 0.062757
    28 2.033353 1.000771 -1.101647 -2.453460 1.382168 2.158165
    29 6.809417 0.000001 0.000000 1.015178 0.369437 -0.860575
    30 12.391794 0.000000 0.000001 0.000000 0.000000 -1.774591
    31 9.337102 0.000000 0.000003 -1.169318 -0.245626 -0.144559
    32 4.453986 -0.073766 -0.571672 -0.121583 -0.016337 -0.911685
    33 1.426599 0.000002 0.000000 -0.052840 0.078854 -1.540053
    34 1.322465 -0.000001 0.000000 -0.021596 0.044268 -0.928527
    35 4.477036 -0.043465 -1.581290 -0.223104 -0.039069 0.117448
    36 1.344414 0.000000 0.000000 -0.010439 0.188388 -0.693475
    37 1.224670 0.000001 0.000000 -0.025779 0.121627 -0.543658
    38 2.630291 -0.359835 -1.904289 0.690023 0.386660 -0.825462
    39 1.059293 0.000000 0.000000 0.008509 0.030648 0.578297
    40 0.781204 0.000000 0.000000 0.005465 0.024011 0.447560
    41 -0.044717 2.528787 4.661499 -0.035171 -0.004066 -0.021162
  time 22
    0 -0.576585 -25.169990 31.887445 2.009510 0.000139 0.180216
    1 3.890452 -0.000004 -0.000003 -1.772936 -0.140679 -1.246732
    2 17.848177 0.000000 0.000000 0.000000 0.000000 0.921062
    3 15.638507 0.000000 0.000000 0.177081 0.037638 -0.443907
    4 7.109929 0.000000 0.000000 -0.005070 -0.004809 -1.138101
    5 -3.890452 0.000004 0.000007 -0.484658 -0.691693 -2.113819
    6 17.848173 0.000000 0.000000 0.000000 0.000000 1.299832
    7 15.638511 0.000000 0.000000 -0.127601 -0.326251 -1.794659
    8 7.109930 0.000000 0.000000 -0.081154 -0.003131 -0.631749
    9 -0.019527 3.345128 -2.981901 1.568371 0.068596 1.567604
    10 4.018331 0.000000 0.000000 -0.068782 -0.007191 0.281073
    11 3.518565 0.000000 0.000000 -0.058648 -0.016083 0.242553
    12 8.942642 0.000000 0.000000 0.025035 -0.002960 0.012082
    13 3.306641 0.000002 0.000000 3.138800 0.000567 0.400476
    14 3.593712 -0.000001 0.000000 -0.094546 -0.081119 0.901302
    15 2.033346 1.000768 1.101697 2.385451 -1.528127 2.146508
    16 6.809416 0.000001 0.000000 -1.399730 -0.331614 -1.386114
    17 12.391796 0.000000 0.000001 0.000000 0.000000 -1.822859
    18 9.337076 0.000000 -0.000031 -0.148129 0.301604 0.279419
    19 4.454020 -0.070210 0.572073 0.095490 -0.008587 -0.706335
    20 1.426597 -0.000001 0.000000 0.055908 -0.087976 -1.504206
    21 1.322468 -0.000002 0.000000 0.009312 -0.033625 -0.575065
    22 4.477066 -0.028570 1.582474 0.481653 -0.035390 -1.246096
    23 1.344418 0.000000 0.000000 0.023466 -0.208305 -0.755723
    24 1.224671 0.000000 0.000000 0.026043 -0.124620 -0.538676
    25 2.630323 -0.345015 1.907214 -0.354022 -0.915164 -1.788195
    26 1.059292 0.000000 0.000001 -0.001067 -0.012855 0.250988
    27 0.781203 0.000000 0.000000 -0.000096 -0.003210 0.062757
    28 2.033353 1.000771 -1.101647 -2.473755 1.384394 2.137556
    29 6.809417 0.000001 0.000000 1.070263 0.334398 -0.866338
    30 12.391794 0.000000 0.000001 0.000000 0.000000 -1.821564
    31 9.337102 0.000000 0.000003 -1.203881 -0.244446 -0.111402
    32 4.453986 -0.073766 -0.571672 -0.108496 -0.025577 -0.900321
    33 1.426599 0.000002 0.000000 -0.052912 0.078866 -1.541016
    34 1.322465 -0.000001 0.000000 -0.020961 0.043777 -0.914084
    35 4.477036 -0.043465 -1.581290 -0.230882 -0.048297 0.120927
    36 1.344414 0.000000 0.000000 -0.012620 0.190941 -0.705043
    37 1.224670 0.000001 0.000000 -0.021045 0.113478 -0.503249
    38 2.630291 -0.359835 -1.904289 0.669749 0.388449 -0.817463
    39 1.059293 0.000000 0.000000 0.008941 0.031295 0.592202
    40 0.781204 0.000000 0.000000 0.005405 0.023903 0.445405
    41 -0.044717 2.528787 4.661499 -0.035431 -0.002446 -0.003046
  time 23
    0 -0.584398 -29.588452 32.185911 2.024717 0.006375 0.123747
    1 3.890452 -0.000004 -0.000003 -1.812924 -0.347675 -1.253153
    2 17.848177 0.000000 0.000000 0.000000 0.000000 1.288272
    3 15.638507 0.000000 0.000000 0.183823 -0.038891 -0.297874
    4 7.109929 0.000000 0.000000 -0.005849 -0.004365 -0.969313
    5 -3.890452 0.000004 0.000007 -0.647216 -0.584531 -1.980055
    6 17.848173 0.000000 0.000000 0.000000 0.000000 1.194145
    7 15.638511 0.000000 0.000000 -0.103142 -0.351645 -1.730483
    8 7.109930 0.000000 0.000000 -0.081154 -0.003131 -0.631749
    9 -0.027340 3.345128 -2.981901 1.570419 0.068653 1.574165
    10 4.018331 0.000000 0.000000 -0.048304 -0.009648 0.283404
    11 3.518565 0.000000 0.000000 -0.038414 -0.019763 0.244185
    12 8.942642 0.000000 0.000000 0.025576 -0.009132 0.010270
    13 3.306641 0.000002 0.000000 3.138800 0.000567 0.400476
    14 3.593712 -0.000001 0.000000 -0.092437 -0.057542 0.908730
    15 2.033346 1.000768 1.101697 2.385451 -1.528127 2.146508
    16 6.809416 0.000001 0.000000 -1.342065 -0.425818 -1.363773
    17 12.391796 0.000000 0.000001 0.000000 0.000000 -1.788560
    18 9.337076 0.000000 -0.000031 -0.184174 0.306306 0.279535
    19 4.454020 -0.070210 0.572073 0.095490 -0.008587 -0.706335
    20 1.426597 -0.000001 0.000000 0.055908 -0.087976 -1.504206
    21 1.322468 -0.000002 0.000000 0.009312 -0.033625 -0.575065
    22 4.477066 -0.028570 1.582474 0.481653 -0.035390 -1.246096
    23 1.344418 0.000000 0.000000 0.023466 -0.208305 -0.755723
    24 1.224671 0.000000 0.000000 0.026043 -0.124620 -0.538676
    25 2.630323 -0.345015 1.907214 -0.354022 -0.915164 -1.788195
    26 1.059292 0.000000 0.000001 -0.001067 -0.012855 0.250988
    27 0.781203 0.000000 0.000000 -0.000096 -0.003210 0.062757
    28 2.033353 1.000771 -1.101647 -2.507643 1.386054 2.103239
    29 6.809417 0.000001 0.000000 1.132826 0.291694 -0.882769
    30 12.391794 0.000000 0.000001 0.000000 0.000000 -1.874785
    31 9.337102 0.000000 0.000003 -1.236908 -0.238507 -0.072374
    32 4.453986 -0.073766 -0.571672 -0.092389 -0.037226 -0.886387
    33 1.426599 0.000002 0.000000 -0.053008 0.078866 -1.542220
    34 1.322465 -0.000001 0.000000 -0.020182 0.043166 -0.896122
    35 4.477036 -0.043465 -1.581290 -0.240637 -0.056806 0.125362
    36 1.344414 0.000000 0.000000 -0.015364 0.194069 -0.719413
    37 1.224670 0.000001 0.000000 -0.015640 0.103111 -0.453238
    38 2.630291 -0.359835 -1.904289 0.644639 0.390874 -0.807594
    39 1.059293 0.000000 0.000000 0.009492 0.032086 0.609444
    40 0.781204 0.000000 0.000000 0.005345 0.023771 0.442739
    41 -0.044717 2.528787 4.661499 -0.030876 0.002065 -0.001082
  time 24
    0 -0.568772 -34.179589 32.412334 2.031939 0.006699 0.063450
    1 3.890452 -0.000004 -0.000003 -1.855872 -0.553535 -1.252387
    2 17.848177 0.000000 0.000000 0.000000 0.000000 1.653799
    3 15.638507 0.000000 0.000000 0.173980 -0.039884 -0.550024
    4 7.109929 0.000000 0.000000 -0.006532 -0.003802 -0.800526
    5 -3.890452 0.000004 0.000007 -0.804912 -0.442879 -1.868239
    6 17.848173 0.000000 0.000000 0.000000 0.000000 1.025906
    7 15.638511 0.000000 0.000000 -0.023834 -0.372124 -1.773649
    8 7.109930 0.000000 0.000000 -0.081154 -0.003131 -0.631749
    9 -0.027340 3.345128 -2.981901 1.573059 0.068709 1.579603
    10 4.018331 0.000000 0.000000 -0.026830 -0.017210 0.283561
    11 3.518565 0.000000 0.000000 -0.016879 -0.028607 0.243724
    12 8.942642 0.000000 0.000000 0.024646 -0.015568 0.008968
    13 3.306641 0.000002 0.000000 3.138800 0.000567 0.400476
    14 3.593712 -0.000001 0.000000 -0.095727 -0.043815 0.906128
    15 2.033346 1.000768 1.101697 2.385451 -1.528127 2.146508
    16 6.809416 0.000001 0.000000 -1.283251 -0.532521 -1.340486
    17 12.391796 0.000000 0.000001 0.000000 0.000000 -1.738886
    18 9.337076 0.000000 -0.000031 -0.230568 0.319195 0.275380
    19 4.454020 -0.070210 0.572073 0.095490 -0.008587 -0.706335
    20 1.426597 -0.000001 0.000000 0.055908 -0.087976 -1.504206
    21 1.322468 -0.000002 0.000000 0.009312 -0.033625 -0.575065
    22 4.477066 -0.028570 1.582474 0.481653 -0.035390 -1.246096
    23 1.344418 0.000000 0.000000 0.023466 -0.208305 -0.755723
    24 1.224671 0.000000 0.000000 0.026043 -0.124620 -0.538676
    25 2.630323 -0.345015 1.907214 -0.354022 -0.915164 -1.788195
    26 1.059292 0.000000 0.000001 -0.001067 -0.012855 0.250988
    27 0.781203 0.000000 0.000000 -0.000096 -0.003210 0.062757
    28 2.033353 1.000771 -1.101647 -2.547371 1.387228 2.063075
    29 6.809417 0.000001 0.000000 1.196808 0.246932 -0.912791
    30 12.391794 0.000000 0.000001 0.000000 0.000000 -1.925421
    31 9.337102 0.000000 0.000003 -1.266863 -0.231159 -0.032396
    32 4.453986 -0.073766 -0.571672 -0.075227 -0.050050 -0.871597
    33 1.426599 0.000002 0.000000 -0.053116 0.078866 -1.543544
    34 1.322465 -0.000001 0.000000 -0.019355 0.042495 -0.876794
    35 4.477036 -0.043465 -1.581290 -0.251220 -0.064992 0.130222
    36 1.344414 0.000000 0.000000 -0.018384 0.197389 -0.734932
    37 1.224670 0.000001 0.000000 -0.010403 0.091654 -0.399491
    38 2.630291 -0.359835 -1.904289 0.617557 0.393752 -0.797021
    39 1.059293 0.000000 0.000000 0.010091 0.032937 0.628055
    40 0.781204 0.000000 0.000000 0.005273 0.023627 0.439848
    41 -0.044717 2.528787 4.661499 -0.028208 0.002287 0.008697
  time 25
    0 -0.537521 -38.892615 32.628465 2.033893 -0.000277 0.011958
    1 3.890452 -0.000004 -0.000003 -1.902828 -0.776050 -1.231495
    2 17.848177 0.000000 0.000000 0.000000 0.000000 1.985531
    3 15.638507 0.000000 0.000000 0.183380 -0.030808 -0.906758
    4 7.109929 0.000000 0.000000 -0.007119 -0.003131 -0.631738
    5 -3.890452 0.000004 0.000007 -0.927141 -0.245629 -1.774774
    6 17.848173 0.000000 0.000000 0.000000 0.000000 0.750763
    7 15.638511 0.000000 0.000000 0.052508 -0.377858 -1.752352
    8 7.109930 0.000000 0.000000 -0.081154 -0.003131 -0.631749
    9 -0.027340 3.345128 -2.981901 1.576400 0.068766 1.586046
    10 4.018331 0.000000 0.000000 -0.007595 -0.028703 0.281508
    11 3.518565 0.000000 0.000000 0.002663 -0.041371 0.241276
    12 8.942642 0.000000 0.000000 0.022218 -0.021608 0.008599
    13 3.306641 0.000002 0.000000 3.138800 0.000567 0.400476
    14 3.593712 -0.000001 0.000000 -0.104798 -0.042209 0.893664
    15 2.033346 1.000768 1.101697 2.385451 -1.528127 2.146508
    16 6.809416 0.000001 0.000000 -1.227402 -0.637117 -1.324204
    17 12.391796 0.000000 0.000001 0.000000 0.000000 -1.672575
    18 9.337076 0.000000 -0.000031 -0.280264 0.340732 0.259572
    19 4.454020 -0.070210 0.572073 0.095490 -0.008587 -0.706335
    20 1.426597 -0.000001 0.000000 0.055908 -0.087976 -1.504206
    21 1.322468 -0.000002 0.000000 0.009312 -0.033625 -0.575065
    22 4.477066 -0.028570 1.582474 0.481653 -0.035390 -1.246096
    23 1.344418 0.000000 0.000000 0.023466 -0.208305 -0.755723
    24 1.224671 0.000000 0.000000 0.026043 -0.124620 -0.538676
    25 2.630323 -0.345015 1.907214 -0.354022 -0.915164 -1.788195
    26 1.059292 0.000000 0.000001 -0.001067 -0.012855 0.250988
    27 0.781203 0.000000 0.000000 -0.000096 -0.003210 0.062757
    28 2.033353 1.000771 -1.101647 -2.584993 1.388280 2.025019
    29 6.809417 0.000001 0.000000 1.256721 0.204929 -0.954427
    30 12.391794 0.000000 0.000001 0.000000 0.000000 -1.964565
    31 9.337102 0.000000 0.000003 -1.291633 -0.226096 0.002143
    32 4.453986 -0.073766 -0.571672 -0.058844 -0.062645 -0.857492
    33 1.426599 0.000002 0.000000 -0.053212 0.078866 -1.544788
    34 1.322465 -0.000001 0.000000 -0.018576 0.041823 -0.858164
    35 4.477036 -0.043465 -1.581290 -0.261455 -0.073261 0.134975
    36 1.344414 0.000000 0.000000 -0.021344 0.200553 -0.749877
    37 1.224670 0.000001 0.000000 -0.005968 0.080364 -0.347743
    38 2.630291 -0.359835 -1.904289 0.591480 0.396774 -0.786938
    39 1.059293 0.000000 0.000000 0.010690 0.033752 0.645961
    40 0.781204 0.000000 0.000000 0.005213 0.023483 0.437083
    41 -0.044717 2.528787 4.661499 -0.032308 -0.012325 0.049820
  time 26
    0 -0.494551 -43.727529 32.854888 2.031429 -0.016077 -0.021062
    1 3.890452 -0.000004 -0.000003 -1.945680 -1.053448 -1.167573
    2 17.848177 0.000000 0.000000 0.000000 0.000000 2.100156
    3 15.638507 0.000000 0.000000 0.256016 -0.088996 -1.044480
    4 7.109929 0.000000 0.000000 -0.007119 -0.003131 -0.631738
    5 -3.890452 0.000004 0.000007 -1.022197 -0.117557 -1.743557
    6 17.848173 0.000000 0.000000 0.000000 0.000000 0.616643
    7 15.638511 0.000000 0.000000 -0.014940 -0.321108 -1.470724
    8 7.109930 0.000000 0.000000 -0.079596 -0.004545 -1.032312
    9 -0.023433 3.345128 -2.981901 1.579795 0.068823 1.591070
    10 4.018331 0.000000 0.000000 0.006555 -0.041850 0.277438
    11 3.518565 0.000000 0.000000 0.017278 -0.055716 0.237267
    12 8.942642 0.000000 0.000000 0.018679 -0.026690 0.009513
    13 3.306641 0.000002 0.000000 3.138800 0.000567 0.400476
    14 3.593712 -0.000001 0.000000 -0.119227 -0.053387 0.872302
    15 2.033346 1.000768 1.101697 2.385451 -1.528127 2.146508
    16 6.809416 0.000001 0.000000 -1.174996 -0.723822 -1.320512
    17 12.391796 0.000000 0.000001 0.000000 0.000000 -1.592702
    18 9.337076 0.000000 -0.000031 -0.324963 0.366610 0.230608
    19 4.454020 -0.070210 0.572073 0.095490 -0.008587 -0.706366
    20 1.426597 -0.000001 0.000000 0.055908 -0.087976 -1.504206
    21 1.322468 -0.000002 0.000000 0.009312 -0.033625 -0.575065
    22 4.477066 -0.028570 1.582474 0.481653 -0.035390 -1.246096
    23 1.344418 0.000000 0.000000 0.023466 -0.208305 -0.755723
    24 1.224671 0.000000 0.000000 0.026043 -0.124620 -0.538676
    25 2.630323 -0.345015 1.907214 -0.354022 -0.915164 -1.788195
    26 1.059292 0.000000 0.000001 -0.001067 -0.012855 0.250988
    27 0.781203 0.000000 0.000000 -0.000096 -0.003210 0.062757
    28 2.033353 1.000771 -1.101647 -2.612563 1.389656 1.997029
    29 6.809417 0.000001 0.000000 1.307452 0.169145 -1.001999
    30 12.391794 0.000000 0.000001 0.000000 0.000000 -1.983239
    31 9.337102 0.000000 0.000003 -1.308403 -0.227162 0.024074
    32 4.453986 -0.073766 -0.571672 -0.045038 -0.073539 -0.845699
    33 1.426599 0.000002 0.000000 -0.053295 0.078878 -1.545832
    34 1.322465 -0.000001 0.000000 -0.017917 0.041248 -0.842326
    35 4.477036 -0.043465 -1.581290 -0.270167 -0.082070 0.139145
    36 1.344414 0.000000 0.000000 -0.023897 0.203213 -0.762630
    37 1.224670 0.000001 0.000000 -0.002649 0.070585 -0.303827
    38 2.630291 -0.359835 -1.904289 0.569272 0.399549 -0.778387
    39 1.059293 0.000000 0.000000 0.011218 0.034423 0.661213
    40 0.781204 0.000000 0.000000 0.005153 0.023364 0.434716
    41 -0.044717 2.528787 4.661499 -0.045386 -0.031290 0.149019
  time 27
    0 -0.435956 -48.643702 33.832623 2.025482 -0.058024 -0.039343
    1 3.890452 -0.000004 -0.000003 -2.011246 -1.240762 -1.132977
    2 17.848177 0.000000 0.000000 0.000000 0.000000 2.020204
    3 15.638507 0.000000 0.000000 0.257852 -0.084269 -1.141811
    4 7.109929 0.000000 0.000000 -0.007119 -0.003131 -0.631738
    5 -3.890452 0.000004 0.000007 -1.109626 -0.013839 -1.761625
    6 17.848173 0.000000 0.000000 0.000000 0.000000 0.537439
    7 15.638511 0.000000 0.000000 -0.076181 -0.253027 -1.161975
    8 7.109930 0.000000 0.000000 -0.079056 -0.004833 -1.147905
    9 0.058601 3.345128 -2.981901 1.582490 0.068851 1.570914
    10 4.018331 0.000000 0.000000 0.013359 -0.054039 0.272011
    11 3.518565 0.000000 0.000000 0.024575 -0.068947 0.232336
    12 8.942642 0.000000 0.000000 0.014766 -0.030249 0.011624
    13 3.306641 0.000002 0.000000 3.138800 0.000567 0.400476
    14 3.593712 -0.000001 0.000000 -0.130365 -0.074780 0.842547
    15 2.033346 1.000768 1.101697 2.385451 -1.528127 2.146508
    16 6.809416 0.000001 0.000000 -1.124216 -0.784795 -1.333765
    17 12.391796 0.000000 0.000001 0.000000 0.000000 -1.509360
    18 9.337076 0.000000 -0.000031 -0.355922 0.391139 0.199395
    19 4.454020 -0.070210 0.572073 0.095490 -0.008587 -0.706335
    20 1.426597 -0.000001 0.000000 0.055908 -0.087976 -1.504206
    21 1.322468 -0.000002 0.000000 0.009312 -0.033625 -0.575065
    22 4.477066 -0.028570 1.582474 0.481653 -0.035390 -1.246096
    23 1.344418 0.000000 0.000000 0.023466 -0.208305 -0.755723
    24 1.224671 0.000000 0.000000 0.026043 -0.124620 -0.538676
    25 2.630323 -0.345015 1.907214 -0.354022 -0.915164 -1.788195
    26 1.059292 0.000000 0.000001 -0.001067 -0.012855 0.250988
    27 0.781203 0.000000 0.000000 -0.000096 -0.003210 0.062757
    28 2.033353 1.000771 -1.101647 -2.632762 1.391437 1.976515
    29 6.809417 0.000001 0.000000 1.345974 0.138880 -1.043290
    30 12.391794 0.000000 0.000001 0.000000 0.000000 -1.982377
    31 9.337102 0.000000 0.000003 -1.311603 -0.232187 0.029687
    32 4.453986 -0.073766 -0.571672 -0.033137 -0.083127 -0.835535
    33 1.426599 0.000002 0.000000 -0.053367 0.078878 -1.546795
    34 1.322465 -0.000001 0.000000 -0.017354 0.040745 -0.828581
    35 4.477036 -0.043465 -1.581290 -0.277766 -0.091262 0.142836
    36 1.344414 0.000000 0.000000 -0.026150 0.205490 -0.773731
    37 1.224670 0.000001 0.000000 -0.000132 0.061980 -0.265745
    38 2.630291 -0.359835 -1.904289 0.550002 0.402078 -0.771001
    39 1.059293 0.000000 0.000000 0.011673 0.035010 0.674455
    40 0.781204 0.000000 0.000000 0.005105 0.023256 0.432660
    41 -0.044717 2.528787 4.661499 -0.068160 -0.059404 0.241644
  time 28
    0 -0.373454 -53.620820 34.635394 2.017156 -0.116094 -0.039725
    1 3.890452 -0.000004 -0.000003 -1.867229 -1.150914 -1.399684
    2 17.848177 0.000000 0.000000 0.000000 0.000000 1.455199
    3 15.638507 0.000000 0.000000 0.201104 0.002162 -1.266118
    4 7.109929 0.000000 0.000000 -0.007119 -0.003131 -0.631738
    5 -3.890452 0.000004 0.000007 -1.178272 0.036297 -1.808357
    6 17.848173 0.000000 0.000000 0.000000 0.000000 0.566359
    7 15.638511 0.000000 0.000000 -0.117688 -0.192045 -0.898682
    8 7.109930 0.000000 0.000000 -0.078733 -0.004964 -1.214688
    9 0.191417 3.341221 -2.981901 1.583837 0.068851 1.533736
    10 4.018331 0.000000 0.000000 0.011347 -0.063099 0.266237
    11 3.518565 0.000000 0.000000 0.022981 -0.078787 0.227370
    12 8.942642 0.000000 0.000000 0.011255 -0.031963 0.014280
    13 3.306641 0.000002 0.000000 3.138800 0.000567 0.400476
    14 3.593712 -0.000001 0.000000 -0.125893 -0.100606 0.805742
    15 2.033346 1.000768 1.101697 2.385451 -1.528127 2.146508
    16 6.809416 0.000001 0.000000 -1.085103 -0.818468 -1.351562
    17 12.391796 0.000000 0.000001 0.000000 0.000000 -1.439264
    18 9.337076 0.000000 -0.000031 -0.374926 0.412380 0.176259
    19 4.454020 -0.070210 0.572073 0.095490 -0.008587 -0.706335
    20 1.426597 -0.000001 0.000000 0.055908 -0.087976 -1.504206
    21 1.322468 -0.000002 0.000000 0.009312 -0.033625 -0.575065
    22 4.477066 -0.028570 1.582474 0.481653 -0.035390 -1.246096
    23 1.344418 0.000000 0.000000 0.023466 -0.208305 -0.755723
    24 1.224671 0.000000 0.000000 0.026043 -0.124620 -0.538676
    25 2.630323 -0.345015 1.907214 -0.354022 -0.915164 -1.788195
    26 1.059292 0.000000 0.000001 -0.001067 -0.012855 0.250988
    27 0.781203 0.000000 0.000000 -0.000096 -0.003210 0.062757
    28 2.033353 1.000771 -1.101647 -2.653344 1.393097 1.955618
    29 6.809417 0.000001 0.000000 1.368974 0.115798 -1.077270
    30 12.391794 0.000000 0.000001 0.000000 0.000000 -1.969880
    31 9.337102 0.000000 0.000003 -1.305970 -0.238964 0.027787
    32 4.453986 -0.073766 -0.571672 -0.021332 -0.092835 -0.825484
    33 1.426599 0.000002 0.000000 -0.053439 0.078878 -1.547718
    34 1.322465 -0.000001 0.000000 -0.016790 0.040230 -0.814806
    35 4.477036 -0.043465 -1.581290 -0.285400 -0.100430 0.146581
    36 1.344414 0.000000 0.000000 -0.028427 0.207743 -0.784831
    37 1.224670 0.000001 0.000000 0.002049 0.053291 -0.227729
    38 2.630291 -0.359835 -1.904289 0.530733 0.404750 -0.763676
    39 1.059293 0.000000 0.000000 0.012140 0.035585 0.687697
    40 0.781204 0.000000 0.000000 0.005057 0.023160 0.430617
    41 -0.044717 2.528787 4.661499 -0.063345 -0.047523 0.166614
  time 29
    0 -0.303139 -58.628410 34.625102 2.004922 -0.149865 -0.011012
    1 3.890452 -0.000004 -0.000003 -1.812638 -0.990900 -1.555703
    2 17.848177 0.000000 0.000000 0.000000 0.000000 0.909139
    3 15.638507 0.000000 0.000000 0.119827 0.107077 -1.378395
    4 7.109929 0.000000 0.000000 -0.007119 -0.003131 -0.631738
    5 -3.890452 0.000004 0.000007 -1.206208 -0.000309 -1.819520
    6 17.848173 0.000000 0.000000 0.000000 0.000000 0.773996
    7 15.638511 0.000000 0.000000 -0.154376 -0.126375 -0.677983
    8 7.109930 0.000000 0.000000 -0.079692 -0.004497 -1.012233
    9 0.230481 3.337315 -2.981901 1.583567 0.068851 1.522328
    10 4.018331 0.000000 0.000000 -0.000045 -0.067617 0.261193
    11 3.518565 0.000000 0.000000 0.011889 -0.083748 0.223149
    12 8.942642 0.000000 0.000000 0.008798 -0.031603 0.016409
    13 3.306641 0.000002 0.000000 3.138800 0.000567 0.400476
    14 3.593712 -0.000001 0.000000 -0.102520 -0.125061 0.762935
    15 2.033346 1.000768 1.101697 2.385451 -1.528127 2.146508
    16 6.809416 0.000001 0.000000 -1.075827 -0.822732 -1.353455
    17 12.391796 0.000000 0.000001 0.000000 0.000000 -1.395346
    18 9.337076 0.000000 -0.000031 -0.388487 0.431517 0.162700
    19 4.454020 -0.070210 0.572073 0.095490 -0.008587 -0.706335
    20 1.426597 -0.000001 0.000000 0.055908 -0.087976 -1.504206
    21 1.322468 -0.000002 0.000000 0.009312 -0.033625 -0.575065
    22 4.477066 -0.028570 1.582474 0.481653 -0.035390 -1.246096
    23 1.344418 0.000000 0.000000 0.023466 -0.208305 -0.755723
    24 1.224671 0.000000 0.000000 0.026043 -0.124620 -0.538676
    25 2.630323 -0.345015 1.907214 -0.354022 -0.915164 -1.788195
    26 1.059292 0.000000 0.000001 -0.001067 -0.012855 0.250988
    27 0.781203 0.000000 0.000000 -0.000096 -0.003210 0.062757
    28 2.033353 1.000771 -1.101647 -2.674309 1.394716 1.934242
    29 6.809417 0.000001 0.000000 1.373517 0.104410 -1.112540
    30 12.391794 0.000000 0.000001 0.000000 0.000000 -1.949482
    31 9.337102 0.000000 0.000003 -1.303922 -0.250804 0.030896
    32 4.453986 -0.073766 -0.571672 -0.009623 -0.102650 -0.815547
    33 1.426599 0.000002 0.000000 -0.053511 0.078878 -1.548641
    34 1.322465 -0.000001 0.000000 -0.016239 0.039702 -0.801061
    35 4.477036 -0.043465 -1.581290 -0.293070 -0.109563 0.150431
    36 1.344414 0.000000 0.000000 -0.030728 0.209973 -0.795932
    37 1.224670 0.000001 0.000000 0.003907 0.044530 -0.189713
    38 2.630291 -0.359835 -1.904289 0.511463 0.407546 -0.756382
    39 1.059293 0.000000 0.000000 0.012620 0.036148 0.700939
    40 0.781204 0.000000 0.000000 0.005010 0.023052 0.428561
    41 -0.044717 2.528787 4.661499 -0.052804 -0.024047 0.083087
  time 30
    0 -0.236731 -63.646157 34.357512 1.924469 -0.130092 0.013872
    1 3.890452 -0.000004 -0.000003 -1.832203 -0.802451 -1.566820
    2 17.848177 0.000000 0.000000 0.000000 0.000000 0.936716
    3 15.638507 0.000000 0.000000 0.092038 0.157324 -1.388092
    4 7.109929 0.000000 0.000000 -0.007119 -0.003131 -0.631738
    5 -3.890452 0.000004 0.000007 -1.226420 -0.049166 -1.802492
    6 17.848173 0.000000 0.000000 0.000000 0.000000 1.003810
    7 15.638511 0.000000 0.000000 -0.157712 -0.061161 -0.473041
    8 7.109930 0.000000 0.000000 -0.081238 -0.003023 -0.607321
    9 0.191417 3.341221 -2.981901 1.586639 0.053196 1.526643
    10 4.018331 0.000000 0.000000 -0.042246 -0.059036 0.261088
    11 3.518565 0.000000 0.000000 -0.032836 -0.062248 0.255608
    12 8.942642 0.000000 0.000000 0.005315 -0.016850 0.058434
    13 3.306641 0.000002 0.000000 3.138800 0.000567 0.400476
    14 3.593712 -0.000001 0.000000 -0.012235 -0.117416 0.806833
    15 2.033346 1.000768 1.101697 2.385451 -1.528127 2.146508
    16 6.809416 0.000001 0.000000 -1.177196 -0.812880 -1.323258
    17 12.391796 0.000000 0.000001 0.000000 0.000000 -1.453535
    18 9.337076 0.000000 -0.000031 -0.349676 0.437567 0.191433
    19 4.454020 -0.070210 0.572073 0.095490 -0.008587 -0.706335
    20 1.426597 -0.000001 0.000000 0.055908 -0.087976 -1.504206
    21 1.322468 -0.000002 0.000000 0.009312 -0.033625 -0.575065
    22 4.477066 -0.028570 1.582474 0.481653 -0.035390 -1.246096
    23 1.344418 0.000000 0.000000 0.023466 -0.208305 -0.755723
    24 1.224671 0.000000 0.000000 0.026043 -0.124620 -0.538676
    25 2.630323 -0.345015 1.907214 -0.354022 -0.915164 -1.788195
    26 1.059292 0.000000 0.000001 -0.001067 -0.012855 0.250988
    27 0.781203 0.000000 0.000000 -0.000096 -0.003210 0.062757
    28 2.033353 1.000771 -1.101647 -2.695657 1.396214 1.912578
    29 6.809417 0.000001 0.000000 1.356954 0.200855 -1.094474
    30 12.391794 0.000000 0.000001 0.000000 0.000000 -1.924487
    31 9.337102 0.000000 0.000003 -1.305266 -0.266146 0.038235
    32 4.453986 -0.073766 -0.571672 0.002014 -0.112597 -0.805725
    33 1.426599 0.000002 0.000000 -0.053583 0.078878 -1.549564
    34 1.322465 -0.000001 0.000000 -0.015700 0.039163 -0.787286
    35 4.477036 -0.043465 -1.581290 -0.300788 -0.118671 0.154335
    36 1.344414 0.000000 0.000000 -0.033053 0.212178 -0.807033
    37 1.224670 0.000001 0.000000 0.005441 0.035698 -0.151762
    38 2.630291 -0.359835 -1.904289 0.492194 0.410465 -0.749149
    39 1.059293 0.000000 0.000000 0.013099 0.036712 0.714181
    40 0.781204 0.000000 0.000000 0.004962 0.022944 0.426505
    41 -0.044717 2.528787 4.661499 -0.028534 0.000731 0.016433
  time 31
    0 -0.166416 -68.643590 34.357512 1.837729 -0.102466 0.035024
    1 3.890452 -0.000004 -0.000003 -1.793359 -0.541565 -1.553787
    2 17.848177 0.000000 0.000000 0.000000 0.000000 0.910748
    3 15.638507 0.000000 0.000000 0.059217 0.178642 -1.541051
    4 7.109929 0.000000 0.000000 -0.007119 -0.003131 -0.631738
    5 -3.890452 0.000004 0.000007 -1.243486 -0.108750 -1.782626
    6 17.848173 0.000000 0.000000 0.000000 0.000000 1.209823
    7 15.638511 0.000000 0.000000 -0.127786 -0.035585 -0.407338
    8 7.109930 0.000000 0.000000 -0.081741 -0.002100 -0.404910
    9 0.148447 3.345128 -2.981901 1.590142 0.035924 1.532554
    10 4.018331 0.000000 0.000000 -0.087634 -0.049077 0.261088
    11 3.518565 0.000000 0.000000 -0.080035 -0.036397 0.290727
    12 8.942642 0.000000 0.000000 0.002456 -0.000599 0.104558
    13 3.306641 0.000002 0.000000 3.138800 0.000567 0.400476
    14 3.593712 -0.000001 0.000000 0.084463 -0.105488 0.856313
    15 2.033346 1.000768 1.101697 2.385451 -1.528127 2.146508
    16 6.809416 0.000001 0.000000 -1.290137 -0.794990 -1.307354
    17 12.391796 0.000000 0.000001 0.000000 0.000000 -1.520793
    18 9.337076 0.000000 -0.000031 -0.298643 0.453087 0.225531
    19 4.454020 -0.070210 0.572073 0.095490 -0.008587 -0.706335
    20 1.426597 -0.000001 0.000000 0.055908 -0.087976 -1.504206
    21 1.322468 -0.000002 0.000000 0.009312 -0.033625 -0.575065
    22 4.477066 -0.028570 1.582474 0.481653 -0.035390 -1.246096
    23 1.344418 0.000000 0.000000 0.023466 -0.208305 -0.755723
    24 1.224671 0.000000 0.000000 0.026043 -0.124620 -0.538676
    25 2.630323 -0.345015 1.907214 -0.354022 -0.915164 -1.788195
    26 1.059292 0.000000 0.000001 -0.001067 -0.012855 0.250988
    27 0.781203 0.000000 0.000000 -0.000096 -0.003210 0.062757
    28 2.033353 1.000771 -1.101647 -2.717388 1.397671 1.890531
    29 6.809417 0.000001 0.000000 1.337456 0.306586 -1.072710
    30 12.391794 0.000000 0.000001 0.000000 0.000000 -1.896332
    31 9.337102 0.000000 0.000003 -1.305970 -0.282403 0.044970
    32 4.453986 -0.073766 -0.571672 0.013555 -0.122640 -0.796017
    33 1.426599 0.000002 0.000000 -0.053655 0.078878 -1.550487
    34 1.322465 -0.000001 0.000000 -0.015161 0.038624 -0.773541
    35 4.477036 -0.043465 -1.581290 -0.308554 -0.127755 0.158319
    36 1.344414 0.000000 0.000000 -0.035414 0.214359 -0.818169
    37 1.224670 0.000001 0.000000 0.006628 0.026817 -0.113811
    38 2.630291 -0.359835 -1.904289 0.472924 0.413528 -0.741977
    39 1.059293 0.000000 0.000000 0.013591 0.037275 0.727422
    40 0.781204 0.000000 0.000000 0.004914 0.022848 0.424462
    41 -0.044717 2.528787 4.661499 -0.006215 0.022999 -0.030902
  time 32
    0 -0.103914 -73.610550 34.872109 1.747845 -0.069666 0.051582
    1 3.890452 -0.000004 -0.000003 -1.746022 -0.196982 -1.547941
    2 17.848177 0.000000 0.000000 0.000000 0.000000 0.681279
    3 15.638507 0.000000 0.000000 0.020952 0.180084 -1.574479
    4 7.109929 0.000000 0.000000 -0.007119 -0.003131 -0.631738
    5 -3.890452 0.000004 0.000007 -1.257788 -0.178124 -1.760490
    6 17.848173 0.000000 0.000000 0.000000 0.000000 1.360189
    7 15.638511 0.000000 0.000000 -0.081462 -0.052833 -0.567108
    8 7.109930 0.000000 0.000000 -0.081621 -0.002364 -0.461609
    9 0.097664 3.345128 -2.981901 1.594022 0.017773 1.539292
    10 4.018331 0.000000 0.000000 -0.134830 -0.038327 0.260845
    11 3.518565 0.000000 0.000000 -0.127947 -0.007203 0.326557
    12 8.942642 0.000000 0.000000 0.000402 0.016455 0.153021
    13 3.306641 0.000002 0.000000 3.138800 0.000567 0.400476
    14 3.593712 -0.000001 0.000000 0.186012 -0.089706 0.909402
    15 2.033346 1.000768 1.101697 2.385451 -1.528127 2.146508
    16 6.809416 0.000001 0.000000 -1.409389 -0.771268 -1.313886
    17 12.391796 0.000000 0.000001 0.000000 0.000000 -1.595935
    18 9.337076 0.000000 -0.000031 -0.234762 0.482515 0.265630
    19 4.454020 -0.070210 0.572073 0.095490 -0.008587 -0.706335
    20 1.426597 -0.000001 0.000000 0.055908 -0.087976 -1.504206
    21 1.322468 -0.000002 0.000000 0.009312 -0.033625 -0.575065
    22 4.477066 -0.028570 1.582474 0.481653 -0.035390 -1.246096
    23 1.344418 0.000000 0.000000 0.023466 -0.208305 -0.755723
    24 1.224671 0.000000 0.000000 0.026043 -0.124620 -0.538676
    25 2.630323 -0.345015 1.907214 -0.354022 -0.915164 -1.788195
    26 1.059292 0.000000 0.000001 -0.001067 -0.012855 0.250988
    27 0.781203 0.000000 0.000000 -0.000096 -0.003210 0.062757
    28 2.033353 1.000771 -1.101647 -2.739406 1.399007 1.868100
    29 6.809417 0.000001 0.000000 1.315214 0.416301 -1.049570
    30 12.391794 0.000000 0.000001 0.000000 0.000000 -1.867603
    31 9.337102 0.000000 0.000003 -1.306930 -0.298811 0.051705
    32 4.453986 -0.073766 -0.571672 0.025024 -0.132803 -0.786395
    33 1.426599 0.000002 0.000000 -0.053727 0.078878 -1.551410
    34 1.322465 -0.000001 0.000000 -0.014633 0.038084 -0.759766
    35 4.477036 -0.043465 -1.581290 -0.316368 -0.136804 0.162382
    36 1.344414 0.000000 0.000000 -0.037787 0.216516 -0.829306
    37 1.224670 0.000001 0.000000 0.007466 0.017901 -0.075860
    38 2.630291 -0.359835 -1.904289 0.453654 0.416715 -0.734867
    39 1.059293 0.000000 0.000000 0.014082 0.037826 0.740664
    40 0.781204 0.000000 0.000000 0.004878 0.022740 0.422407
    41 -0.044717 2.528787 4.661499 0.014476 0.044855 -0.060040
  time 33
    0 -0.053132 -78.496251 35.644005 1.657706 -0.034509 0.063546
    1 3.890452 -0.000004 -0.000003 -1.701738 0.060308 -1.525707
    2 17.848177 0.000000 0.000000 0.000000 0.000000 0.552609
    3 15.638507 0.000000 0.000000 0.047792 0.168598 -1.367532
    4 7.109929 0.000000 0.000000 -0.006472 -0.003862 -0.816760
    5 -3.890452 0.000004 0.000007 -1.269419 -0.256995 -1.737218
    6 17.848173 0.000000 0.000000 0.000000 0.000000 1.484642
    7 15.638511 0.000000 0.000000 -0.023464 -0.074040 -0.869555
    8 7.109930 0.000000 0.000000 -0.081333 -0.002891 -0.575050
    9 0.046881 3.345128 -2.981901 1.598063 -0.000576 1.546208
    10 4.018331 0.000000 0.000000 -0.182455 -0.027397 0.260149
    11 3.518565 0.000000 0.000000 -0.175063 0.024065 0.361499
    12 8.942642 0.000000 0.000000 -0.000777 0.033653 0.202030
    13 3.306641 0.000002 0.000000 3.138800 0.000567 0.400476
    14 3.593712 -0.000001 0.000000 0.290388 -0.070711 0.964505
    15 2.033346 1.000768 1.101697 2.385451 -1.528127 2.146508
    16 6.809416 0.000001 0.000000 -1.530554 -0.746221 -1.347302
    17 12.391796 0.000000 0.000001 0.000000 0.000000 -1.676596
    18 9.337076 0.000000 -0.000031 -0.158836 0.529042 0.312306
    19 4.454020 -0.070210 0.572073 0.095490 -0.008587 -0.706366
    20 1.426597 -0.000001 0.000000 0.055908 -0.087976 -1.504206
    21 1.322468 -0.000002 0.000000 0.009312 -0.033625 -0.575065
    22 4.477066 -0.028570 1.582474 0.481653 -0.035390 -1.246096
    23 1.344418 0.000000 0.000000 0.023466 -0.208305 -0.755723
    24 1.224671 0.000000 0.000000 0.026043 -0.124620 -0.538676
    25 2.630323 -0.345015 1.907214 -0.354022 -0.915164 -1.788195
    26 1.059292 0.000000 0.000001 -0.001067 -0.012843 0.250988
    27 0.781203 0.000000 0.000000 -0.000096 -0.003210 0.062757
    28 2.033353 1.000771 -1.101647 -2.761806 1.400262 1.845382
    29 6.809417 0.000001 0.000000 1.290321 0.524747 -1.026946
    30 12.391794 0.000000 0.000001 0.000000 0.000000 -1.840597
    31 9.337102 0.000000 0.000003 -1.308915 -0.314496 0.058872
    32 4.453986 -0.073766 -0.571672 0.036398 -0.143074 -0.776887
    33 1.426599 0.000002 0.000000 -0.053799 0.078878 -1.552333
    34 1.322465 -0.000001 0.000000 -0.014118 0.037521 -0.746021
    35 4.477036 -0.043465 -1.581290 -0.324218 -0.145816 0.166525
    36 1.344414 0.000000 0.000000 -0.040196 0.218637 -0.840443
    37 1.224670 0.000001 0.000000 0.007982 0.008948 -0.037942
    38 2.630291 -0.359835 -1.904289 0.434348 0.420024 -0.727818
    39 1.059293 0.000000 0.000000 0.014585 0.038366 0.753906
    40 0.781204 0.000000 0.000000 0.004830 0.022645 0.420351
    41 -0.044717 2.528787 4.661499 0.033606 0.068140 -0.076313
end
