// Created by Crowbar 0.68
version 1
nodes
  0 "ValveBiped.Bip01_Pelvis" -1
  1 "ValveBiped.Bip01_L_Thigh" 0
  2 "ValveBiped.Bip01_L_Calf" 1
  3 "ValveBiped.Bip01_L_Foot" 2
  4 "ValveBiped.Bip01_L_Toe0" 3
  5 "ValveBiped.Bip01_R_Thigh" 0
  6 "ValveBiped.Bip01_R_Calf" 5
  7 "ValveBiped.Bip01_R_Foot" 6
  8 "ValveBiped.Bip01_R_Toe0" 7
  9 "ValveBiped.Bip01_Spine" 0
  10 "ValveBiped.Bip01_Spine1" 9
  11 "ValveBiped.Bip01_Spine2" 10
  12 "ValveBiped.Bip01_Spine4" 11
  13 "ValveBiped.Bip01_Neck1" 12
  14 "ValveBiped.Bip01_Head1" 13
  15 "ValveBiped.Bip01_L_Clavicle" 12
  16 "ValveBiped.Bip01_L_UpperArm" 15
  17 "ValveBiped.Bip01_L_Forearm" 16
  18 "ValveBiped.Bip01_L_Hand" 17
  19 "ValveBiped.Bip01_L_Finger2" 18
  20 "ValveBiped.Bip01_L_Finger21" 19
  21 "ValveBiped.Bip01_L_Finger22" 20
  22 "ValveBiped.Bip01_L_Finger1" 18
  23 "ValveBiped.Bip01_L_Finger11" 22
  24 "ValveBiped.Bip01_L_Finger12" 23
  25 "ValveBiped.Bip01_L_Finger0" 18
  26 "ValveBiped.Bip01_L_Finger01" 25
  27 "ValveBiped.Bip01_L_Finger02" 26
  28 "ValveBiped.Bip01_R_Clavicle" 12
  29 "ValveBiped.Bip01_R_UpperArm" 28
  30 "ValveBiped.Bip01_R_Forearm" 29
  31 "ValveBiped.Bip01_R_Hand" 30
  32 "ValveBiped.Bip01_R_Finger2" 31
  33 "ValveBiped.Bip01_R_Finger21" 32
  34 "ValveBiped.Bip01_R_Finger22" 33
  35 "ValveBiped.Bip01_R_Finger1" 31
  36 "ValveBiped.Bip01_R_Finger11" 35
  37 "ValveBiped.Bip01_R_Finger12" 36
  38 "ValveBiped.Bip01_R_Finger0" 31
  39 "ValveBiped.Bip01_R_Finger01" 38
  40 "ValveBiped.Bip01_R_Finger02" 39
  41 "ValveBiped.Cod" 0
  42 "ValveBiped.Anim_Attachment_LH" 18
  43 "ValveBiped.Anim_Attachment_RH" 31
end
skeleton
  time 0
    0 -0.002349 0.379946 34.539451 1.533393 -0.073305 0.114015
    1 3.890452 -0.000004 -0.000003 -1.588022 -0.192725 -1.721669
    2 17.848175 0.000000 0.000000 0.000000 0.000000 0.935814
    3 16.525249 0.000000 0.000000 -0.009363 -0.126106 -1.481157
    4 6.879453 0.000000 0.000000 -0.005300 -0.003056 -0.797274
    5 -3.890452 0.000004 0.000007 -1.414566 -0.778181 -1.807513
    6 17.848171 0.000000 0.000000 0.000000 0.000000 1.748951
    7 16.525257 0.000000 0.000000 0.152753 -0.129530 -0.779811
    8 6.879454 0.000000 0.000000 -0.080878 -0.003586 -0.695881
    9 0.074226 3.880300 -2.235784 1.469693 -0.449724 1.641877
    10 4.018331 0.000000 0.000000 -0.274704 -0.123138 0.191814
    11 3.518561 0.000000 0.000000 0.059560 0.207876 0.278190
    12 8.942642 0.000000 0.000000 -0.107987 0.028902 0.192532
    13 3.307271 0.000000 0.000000 3.138581 0.000369 0.243536
    14 3.593710 -0.000003 0.000000 0.463639 -0.007603 0.926448
    15 2.033346 1.000767 1.937660 1.610943 -1.389325 2.928279
    16 6.028142 0.000002 0.000000 2.369386 -1.329367 1.516300
    17 11.692556 0.000000 -0.000001 0.000000 0.000000 -0.604047
    18 11.481671 0.000000 -0.000029 -0.474453 0.445054 -0.301610
    19 3.883691 -0.046771 0.431443 0.051679 0.105855 -1.222842
    20 1.719575 0.000000 0.000000 0.000000 -0.042087 -0.822562
    21 1.209183 -0.000001 0.000000 0.000001 -0.015749 -0.401795
    22 3.859861 -0.137948 1.332466 0.356873 -0.322946 -1.012993
    23 1.719428 0.000001 0.000000 0.000000 -0.023172 -0.939253
    24 1.099667 0.000000 0.000000 0.000000 -0.048585 -0.323373
    25 0.806048 -0.348922 1.321258 -1.128462 -0.674204 -0.909169
    26 1.789783 0.000001 0.000001 0.000000 0.029850 0.304195
    27 1.207000 0.000000 0.000001 0.000001 -0.060650 -0.179122
    28 2.033354 1.000771 -1.937610 -2.687427 1.475352 1.919455
    29 6.028142 0.000004 0.000000 1.475011 0.899104 -0.921462
    30 11.692552 0.000000 0.000002 0.000000 0.000000 -2.068811
    31 11.481699 0.000000 0.000004 -1.122202 0.083813 0.698301
    32 3.883657 -0.050329 -0.431043 -0.061447 -0.100578 -1.085197
    33 1.719576 0.000003 0.000000 0.000000 0.041173 -1.040922
    34 1.209180 -0.000001 0.000000 0.000000 0.014977 -1.138950
    35 3.859830 -0.148938 -1.331282 -0.287596 0.134915 -0.509996
    36 1.719426 0.000000 0.000000 -0.000001 0.022873 -0.050927
    37 1.099666 0.000000 0.000000 -0.000001 0.047996 -0.722885
    38 0.806017 -0.359836 -1.318334 0.876234 0.230443 -0.743632
    39 1.789784 0.000000 -0.000001 -0.009077 -0.026971 0.824659
    40 1.206998 0.000000 0.000000 0.033922 0.049330 0.423369
    41 -0.044717 2.313936 4.661499 -0.022985 -0.003306 -0.090400
    42 2.676088 -1.712442 0.000000 1.570797 0.000000 1.570797
    43 2.676088 -1.712443 0.000000 -1.570796 0.000000 -1.570796
  time 1
    0 -0.002349 0.379946 34.539451 1.534284 -0.073305 0.114015
    1 3.890452 -0.000004 -0.000003 -1.589435 -0.129307 -1.716728
    2 17.848175 0.000000 0.000000 0.000000 0.000000 0.840688
    3 16.525249 0.000000 0.000000 -0.016080 -0.120121 -1.416806
    4 6.879453 0.000000 0.000000 -0.005300 -0.003056 -0.797274
    5 -3.890452 0.000004 0.000007 -1.412745 -0.788914 -1.810251
    6 17.848171 0.000000 0.000000 0.000000 0.000000 1.761660
    7 16.525257 0.000000 0.000000 0.154437 -0.127921 -0.795730
    8 6.879454 0.000000 0.000000 -0.080866 -0.003598 -0.696935
    9 0.074226 3.880300 -2.239691 1.469766 -0.448837 1.641853
    10 4.018331 0.000000 0.000000 -0.274704 -0.123138 0.191814
    11 3.518561 0.000000 0.000000 0.059560 0.207876 0.278190
    12 8.942642 0.000000 0.000000 -0.107987 0.028902 0.192532
    13 3.307271 0.000000 0.000000 3.138581 0.000369 0.243536
    14 3.593710 -0.000003 0.000000 0.463639 -0.007603 0.926448
    15 2.033346 1.000767 1.937660 1.610943 -1.389325 2.928279
    16 6.028142 0.000002 0.000000 2.369386 -1.329367 1.516300
    17 11.692556 0.000000 -0.000001 0.000000 0.000000 -0.604047
    18 11.481671 0.000000 -0.000029 -0.474453 0.445054 -0.301610
    19 3.883691 -0.046771 0.431443 0.051679 0.105855 -1.222842
    20 1.719575 0.000000 0.000000 0.000000 -0.042087 -0.822562
    21 1.209183 -0.000001 0.000000 0.000001 -0.015749 -0.401795
    22 3.859861 -0.137948 1.332466 0.356873 -0.322946 -1.012993
    23 1.719428 0.000001 0.000000 0.000000 -0.023172 -0.939253
    24 1.099667 0.000000 0.000000 0.000000 -0.048585 -0.323373
    25 0.806048 -0.348922 1.321258 -1.128462 -0.674204 -0.909169
    26 1.789783 0.000001 0.000001 0.000000 0.029850 0.304195
    27 1.207000 0.000000 0.000001 0.000001 -0.060650 -0.179122
    28 2.033354 1.000771 -1.937610 -2.687427 1.475352 1.919455
    29 6.028142 0.000004 0.000000 1.475011 0.899104 -0.921462
    30 11.692552 0.000000 0.000002 0.000000 0.000000 -2.068811
    31 11.481699 0.000000 0.000004 -1.122202 0.083813 0.698301
    32 3.883657 -0.050329 -0.431043 -0.061447 -0.100578 -1.085197
    33 1.719576 0.000003 0.000000 0.000000 0.041173 -1.040922
    34 1.209180 -0.000001 0.000000 0.000000 0.014977 -1.138950
    35 3.859830 -0.148938 -1.331282 -0.287596 0.134915 -0.509996
    36 1.719426 0.000000 0.000000 -0.000001 0.022873 -0.050927
    37 1.099666 0.000000 0.000000 -0.000001 0.047996 -0.722885
    38 0.806017 -0.359836 -1.318334 0.876234 0.230443 -0.743632
    39 1.789784 0.000000 -0.000001 -0.009077 -0.026971 0.824659
    40 1.206998 0.000000 0.000000 0.033922 0.049330 0.423369
    41 -0.044717 2.313936 4.661499 -0.057783 0.011103 -0.096033
    42 2.676088 -1.712442 0.000000 1.570797 0.000000 1.570797
    43 2.676088 -1.712443 0.000000 -1.570796 0.000000 -1.570796
  time 2
    0 -0.002349 0.379946 34.539451 1.536892 -0.073305 0.114015
    1 3.890452 -0.000004 -0.000003 -1.593587 0.017889 -1.708257
    2 17.848175 0.000000 0.000000 0.000000 0.000000 0.600025
    3 16.525249 0.000000 0.000000 -0.028413 -0.106202 -1.245961
    4 6.879453 0.000000 0.000000 -0.005300 -0.003056 -0.797274
    5 -3.890452 0.000004 0.000007 -1.407282 -0.818810 -1.818370
    6 17.848171 0.000000 0.000000 0.000000 0.000000 1.796471
    7 16.525257 0.000000 0.000000 0.158835 -0.123516 -0.838731
    8 6.879454 0.000000 0.000000 -0.080854 -0.003610 -0.699892
    9 0.074226 3.872488 -2.251410 1.469967 -0.446276 1.641757
    10 4.018331 0.000000 0.000000 -0.274704 -0.123138 0.191814
    11 3.518561 0.000000 0.000000 0.059560 0.207876 0.278190
    12 8.942642 0.000000 0.000000 -0.107987 0.028902 0.192532
    13 3.307271 0.000000 0.000000 3.138581 0.000369 0.243536
    14 3.593710 -0.000003 0.000000 0.463639 -0.007603 0.926448
    15 2.033346 1.000767 1.937660 1.610943 -1.389325 2.928279
    16 6.028142 0.000002 0.000000 2.369386 -1.329367 1.516300
    17 11.692556 0.000000 -0.000001 0.000000 0.000000 -0.604047
    18 11.481671 0.000000 -0.000029 -0.474453 0.445054 -0.301610
    19 3.883691 -0.046771 0.431443 0.051679 0.105855 -1.222842
    20 1.719575 0.000000 0.000000 0.000000 -0.042087 -0.822562
    21 1.209183 -0.000001 0.000000 0.000001 -0.015749 -0.401795
    22 3.859861 -0.137948 1.332466 0.356873 -0.322946 -1.012993
    23 1.719428 0.000001 0.000000 0.000000 -0.023172 -0.939253
    24 1.099667 0.000000 0.000000 0.000000 -0.048585 -0.323373
    25 0.806048 -0.348922 1.321258 -1.128462 -0.674204 -0.909169
    26 1.789783 0.000001 0.000001 0.000000 0.029850 0.304195
    27 1.207000 0.000000 0.000001 0.000001 -0.060650 -0.179122
    28 2.033354 1.000771 -1.937610 -2.687427 1.475352 1.919455
    29 6.028142 0.000004 0.000000 1.475011 0.899104 -0.921462
    30 11.692552 0.000000 0.000002 0.000000 0.000000 -2.068811
    31 11.481699 0.000000 0.000004 -1.122202 0.083813 0.698301
    32 3.883657 -0.050329 -0.431043 -0.061447 -0.100578 -1.085197
    33 1.719576 0.000003 0.000000 0.000000 0.041173 -1.040922
    34 1.209180 -0.000001 0.000000 0.000000 0.014977 -1.138950
    35 3.859830 -0.148938 -1.331282 -0.287596 0.134915 -0.509996
    36 1.719426 0.000000 0.000000 -0.000001 0.022873 -0.050927
    37 1.099666 0.000000 0.000000 -0.000001 0.047996 -0.722885
    38 0.806017 -0.359836 -1.318334 0.876234 0.230443 -0.743632
    39 1.789784 0.000000 -0.000001 -0.009077 -0.026971 0.824659
    40 1.206998 0.000000 0.000000 0.033922 0.049330 0.423369
    41 -0.044717 2.313936 4.661499 -0.149350 0.048700 -0.110690
    42 2.676088 -1.712442 0.000000 1.570797 0.000000 1.570797
    43 2.676088 -1.712443 0.000000 -1.570796 0.000000 -1.570796
  time 3
    0 -0.002349 0.379946 34.539451 1.540963 -0.073305 0.114015
    1 3.890452 -0.000004 -0.000003 -1.600742 0.174574 -1.704463
    2 17.848175 0.000000 0.000000 0.000000 0.000000 0.309938
    3 16.525249 0.000000 0.000000 -0.037831 -0.090883 -1.007421
    4 6.879453 0.000000 0.000000 -0.005300 -0.003056 -0.797274
    5 -3.890452 0.000004 0.000007 -1.397985 -0.864389 -1.831776
    6 17.848171 0.000000 0.000000 0.000000 0.000000 1.848254
    7 16.525257 0.000000 0.000000 0.165103 -0.116849 -0.901283
    8 6.879454 0.000000 0.000000 -0.080830 -0.003634 -0.704605
    9 0.074226 3.864675 -2.267035 1.470278 -0.442160 1.641625
    10 4.018331 0.000000 0.000000 -0.274704 -0.123138 0.191814
    11 3.518561 0.000000 0.000000 0.059560 0.207876 0.278190
    12 8.942642 0.000000 0.000000 -0.107987 0.028902 0.192532
    13 3.307271 0.000000 0.000000 3.138581 0.000369 0.243536
    14 3.593710 -0.000003 0.000000 0.463639 -0.007603 0.926448
    15 2.033346 1.000767 1.937660 1.610943 -1.389325 2.928279
    16 6.028142 0.000002 0.000000 2.369386 -1.329367 1.516300
    17 11.692556 0.000000 -0.000001 0.000000 0.000000 -0.604047
    18 11.481671 0.000000 -0.000029 -0.474453 0.445054 -0.301610
    19 3.883691 -0.046771 0.431443 0.051679 0.105855 -1.222842
    20 1.719575 0.000000 0.000000 0.000000 -0.042087 -0.822562
    21 1.209183 -0.000001 0.000000 0.000001 -0.015749 -0.401795
    22 3.859861 -0.137948 1.332466 0.356873 -0.322946 -1.012993
    23 1.719428 0.000001 0.000000 0.000000 -0.023172 -0.939253
    24 1.099667 0.000000 0.000000 0.000000 -0.048585 -0.323373
    25 0.806048 -0.348922 1.321258 -1.128462 -0.674204 -0.909169
    26 1.789783 0.000001 0.000001 0.000000 0.029850 0.304195
    27 1.207000 0.000000 0.000001 0.000001 -0.060650 -0.179122
    28 2.033354 1.000771 -1.937610 -2.687427 1.475352 1.919455
    29 6.028142 0.000004 0.000000 1.475011 0.899104 -0.921462
    30 11.692552 0.000000 0.000002 0.000000 0.000000 -2.068811
    31 11.481699 0.000000 0.000004 -1.122202 0.083813 0.698301
    32 3.883657 -0.050329 -0.431043 -0.061447 -0.100578 -1.085197
    33 1.719576 0.000003 0.000000 0.000000 0.041173 -1.040922
    34 1.209180 -0.000001 0.000000 0.000000 0.014977 -1.138950
    35 3.859830 -0.148938 -1.331282 -0.287596 0.134915 -0.509996
    36 1.719426 0.000000 0.000000 -0.000001 0.022873 -0.050927
    37 1.099666 0.000000 0.000000 -0.000001 0.047996 -0.722885
    38 0.806017 -0.359836 -1.318334 0.876234 0.230443 -0.743632
    39 1.789784 0.000000 -0.000001 -0.009077 -0.026971 0.824659
    40 1.206998 0.000000 0.000000 0.033922 0.049330 0.423369
    41 -0.044717 2.313936 4.661499 -0.278080 0.100955 -0.131063
    42 2.676088 -1.712442 0.000000 1.570797 0.000000 1.570797
    43 2.676088 -1.712443 0.000000 -1.570796 0.000000 -1.570796
  time 4
    0 -0.002349 0.379946 34.539451 1.546497 -0.073305 0.114015
    1 3.890452 -0.000004 -0.000003 -1.609664 0.185112 -1.705521
    2 17.848175 0.000000 0.000000 0.000000 0.000000 0.262337
    3 16.525249 0.000000 0.000000 -0.041172 -0.080067 -0.844804
    4 6.879453 0.000000 0.000000 -0.005300 -0.003056 -0.797274
    5 -3.890452 0.000004 0.000007 -1.383896 -0.921975 -1.850941
    6 17.848171 0.000000 0.000000 0.000000 0.000000 1.911484
    7 16.525257 0.000000 0.000000 0.172401 -0.108573 -0.975801
    8 6.879454 0.000000 0.000000 -0.080806 -0.003670 -0.710899
    9 0.074226 3.852956 -2.286567 1.470718 -0.436654 1.641433
    10 4.018331 0.000000 0.000000 -0.274704 -0.123138 0.191814
    11 3.518561 0.000000 0.000000 0.059560 0.207876 0.278190
    12 8.942642 0.000000 0.000000 -0.107987 0.028902 0.192532
    13 3.307271 0.000000 0.000000 3.138581 0.000369 0.243536
    14 3.593710 -0.000003 0.000000 0.463639 -0.007603 0.926448
    15 2.033346 1.000767 1.937660 1.610943 -1.389325 2.928279
    16 6.028142 0.000002 0.000000 2.369386 -1.329367 1.516300
    17 11.692556 0.000000 -0.000001 0.000000 0.000000 -0.604047
    18 11.481671 0.000000 -0.000029 -0.474453 0.445054 -0.301610
    19 3.883691 -0.046771 0.431443 0.051679 0.105855 -1.222842
    20 1.719575 0.000000 0.000000 0.000000 -0.042087 -0.822562
    21 1.209183 -0.000001 0.000000 0.000001 -0.015749 -0.401795
    22 3.859861 -0.137948 1.332466 0.356873 -0.322946 -1.012993
    23 1.719428 0.000001 0.000000 0.000000 -0.023172 -0.939253
    24 1.099667 0.000000 0.000000 0.000000 -0.048585 -0.323373
    25 0.806048 -0.348922 1.321258 -1.128462 -0.674204 -0.909169
    26 1.789783 0.000001 0.000001 0.000000 0.029850 0.304195
    27 1.207000 0.000000 0.000001 0.000001 -0.060650 -0.179122
    28 2.033354 1.000771 -1.937610 -2.687427 1.475352 1.919455
    29 6.028142 0.000004 0.000000 1.475011 0.899104 -0.921462
    30 11.692552 0.000000 0.000002 0.000000 0.000000 -2.068811
    31 11.481699 0.000000 0.000004 -1.122202 0.083813 0.698301
    32 3.883657 -0.050329 -0.431043 -0.061447 -0.100578 -1.085197
    33 1.719576 0.000003 0.000000 0.000000 0.041173 -1.040922
    34 1.209180 -0.000001 0.000000 0.000000 0.014977 -1.138950
    35 3.859830 -0.148938 -1.331282 -0.287596 0.134915 -0.509996
    36 1.719426 0.000000 0.000000 -0.000001 0.022873 -0.050927
    37 1.099666 0.000000 0.000000 -0.000001 0.047996 -0.722885
    38 0.806017 -0.359836 -1.318334 0.876234 0.230443 -0.743632
    39 1.789784 0.000000 -0.000001 -0.009077 -0.026971 0.824659
    40 1.206998 0.000000 0.000000 0.033922 0.049330 0.423369
    41 -0.044717 2.313936 4.661499 -0.424596 0.159370 -0.153822
    42 2.676088 -1.712442 0.000000 1.570797 0.000000 1.570797
    43 2.676088 -1.712443 0.000000 -1.570796 0.000000 -1.570796
  time 5
    0 -0.002349 0.379946 34.539451 1.553303 -0.073305 0.114015
    1 3.890452 -0.000004 -0.000003 -1.618851 0.095945 -1.704551
    2 17.848175 0.000000 0.000000 0.000000 0.000000 0.413036
    3 16.525249 0.000000 0.000000 -0.042167 -0.071062 -0.763061
    4 6.879453 0.000000 0.000000 -0.005300 -0.003056 -0.797274
    5 -3.890452 0.000004 0.000007 -1.363960 -0.987746 -1.876998
    6 17.848171 0.000000 0.000000 0.000000 0.000000 1.981107
    7 16.525257 0.000000 0.000000 0.179886 -0.099366 -1.055286
    8 6.879454 0.000000 0.000000 -0.080770 -0.003706 -0.718540
    9 0.074226 3.837330 -2.313912 1.471249 -0.429876 1.641217
    10 4.018331 0.000000 0.000000 -0.274704 -0.123138 0.191814
    11 3.518561 0.000000 0.000000 0.059560 0.207876 0.278190
    12 8.942642 0.000000 0.000000 -0.107987 0.028902 0.192532
    13 3.307271 0.000000 0.000000 3.138581 0.000369 0.243536
    14 3.593710 -0.000003 0.000000 0.463639 -0.007603 0.926448
    15 2.033346 1.000767 1.937660 1.610943 -1.389325 2.928279
    16 6.028142 0.000002 0.000000 2.369386 -1.329367 1.516300
    17 11.692556 0.000000 -0.000001 0.000000 0.000000 -0.604047
    18 11.481671 0.000000 -0.000029 -0.474453 0.445054 -0.301610
    19 3.883691 -0.046771 0.431443 0.051679 0.105855 -1.222842
    20 1.719575 0.000000 0.000000 0.000000 -0.042087 -0.822562
    21 1.209183 -0.000001 0.000000 0.000001 -0.015749 -0.401795
    22 3.859861 -0.137948 1.332466 0.356873 -0.322946 -1.012993
    23 1.719428 0.000001 0.000000 0.000000 -0.023172 -0.939253
    24 1.099667 0.000000 0.000000 0.000000 -0.048585 -0.323373
    25 0.806048 -0.348922 1.321258 -1.128462 -0.674204 -0.909169
    26 1.789783 0.000001 0.000001 0.000000 0.029850 0.304195
    27 1.207000 0.000000 0.000001 0.000001 -0.060650 -0.179122
    28 2.033354 1.000771 -1.937610 -2.687427 1.475352 1.919455
    29 6.028142 0.000004 0.000000 1.475011 0.899104 -0.921462
    30 11.692552 0.000000 0.000002 0.000000 0.000000 -2.068811
    31 11.481699 0.000000 0.000004 -1.122202 0.083813 0.698301
    32 3.883657 -0.050329 -0.431043 -0.061447 -0.100578 -1.085197
    33 1.719576 0.000003 0.000000 0.000000 0.041173 -1.040922
    34 1.209180 -0.000001 0.000000 0.000000 0.014977 -1.138950
    35 3.859830 -0.148938 -1.331282 -0.287596 0.134915 -0.509996
    36 1.719426 0.000000 0.000000 -0.000001 0.022873 -0.050927
    37 1.099666 0.000000 0.000000 -0.000001 0.047996 -0.722885
    38 0.806017 -0.359836 -1.318334 0.876234 0.230443 -0.743632
    39 1.789784 0.000000 -0.000001 -0.009077 -0.026971 0.824659
    40 1.206998 0.000000 0.000000 0.033922 0.049330 0.423369
    41 -0.044717 2.313936 4.661499 -0.569337 0.215399 -0.175670
    42 2.676088 -1.712442 0.000000 1.570797 0.000000 1.570797
    43 2.676088 -1.712443 0.000000 -1.570796 0.000000 -1.570796
  time 6
    0 -0.002349 0.379946 34.539451 1.561191 -0.073305 0.114015
    1 3.890452 -0.000004 -0.000003 -1.628480 -0.014917 -1.702610
    2 17.848175 0.000000 0.000000 0.000000 0.000000 0.608224
    3 16.525249 0.000000 0.000000 -0.042380 -0.064336 -0.686401
    4 6.879453 0.000000 0.000000 -0.005300 -0.003056 -0.797274
    5 -3.890452 0.000004 0.000007 -1.336260 -1.057781 -1.911457
    6 17.848171 0.000000 0.000000 0.000000 0.000000 2.052703
    7 16.525257 0.000000 0.000000 0.187090 -0.090088 -1.133329
    8 6.879454 0.000000 0.000000 -0.080722 -0.003754 -0.727381
    9 0.074226 3.817798 -2.345163 1.471853 -0.421977 1.640966
    10 4.018331 0.000000 0.000000 -0.274704 -0.123138 0.191814
    11 3.518561 0.000000 0.000000 0.059560 0.207876 0.278190
    12 8.942642 0.000000 0.000000 -0.107987 0.028902 0.192532
    13 3.307271 0.000000 0.000000 3.138581 0.000369 0.243536
    14 3.593710 -0.000003 0.000000 0.463639 -0.007603 0.926448
    15 2.033346 1.000767 1.937660 1.610943 -1.389325 2.928279
    16 6.028142 0.000002 0.000000 2.369386 -1.329367 1.516300
    17 11.692556 0.000000 -0.000001 0.000000 0.000000 -0.604047
    18 11.481671 0.000000 -0.000029 -0.474453 0.445054 -0.301610
    19 3.883691 -0.046771 0.431443 0.051679 0.105855 -1.222842
    20 1.719575 0.000000 0.000000 0.000000 -0.042087 -0.822562
    21 1.209183 -0.000001 0.000000 0.000001 -0.015749 -0.401795
    22 3.859861 -0.137948 1.332466 0.356873 -0.322946 -1.012993
    23 1.719428 0.000001 0.000000 0.000000 -0.023172 -0.939253
    24 1.099667 0.000000 0.000000 0.000000 -0.048585 -0.323373
    25 0.806048 -0.348922 1.321258 -1.128462 -0.674204 -0.909169
    26 1.789783 0.000001 0.000001 0.000000 0.029850 0.304195
    27 1.207000 0.000000 0.000001 0.000001 -0.060650 -0.179122
    28 2.033354 1.000771 -1.937610 -2.687427 1.475352 1.919455
    29 6.028142 0.000004 0.000000 1.475011 0.899104 -0.921462
    30 11.692552 0.000000 0.000002 0.000000 0.000000 -2.068811
    31 11.481699 0.000000 0.000004 -1.122202 0.083813 0.698301
    32 3.883657 -0.050329 -0.431043 -0.061447 -0.100578 -1.085197
    33 1.719576 0.000003 0.000000 0.000000 0.041173 -1.040922
    34 1.209180 -0.000001 0.000000 0.000000 0.014977 -1.138950
    35 3.859830 -0.148938 -1.331282 -0.287596 0.134915 -0.509996
    36 1.719426 0.000000 0.000000 -0.000001 0.022873 -0.050927
    37 1.099666 0.000000 0.000000 -0.000001 0.047996 -0.722885
    38 0.806017 -0.359836 -1.318334 0.876234 0.230443 -0.743632
    39 1.789784 0.000000 -0.000001 -0.009077 -0.026971 0.824659
    40 1.206998 0.000000 0.000000 0.033922 0.049330 0.423369
    41 -0.044717 2.313936 4.661499 -0.692836 0.260543 -0.193264
    42 2.676088 -1.712442 0.000000 1.570797 0.000000 1.570797
    43 2.676088 -1.712443 0.000000 -1.570796 0.000000 -1.570796
  time 7
    0 -0.002349 0.379946 34.539451 1.570096 -0.073305 0.114015
    1 3.890452 -0.000004 -0.000003 -1.638550 -0.129689 -1.700315
    2 17.848175 0.000000 0.000000 0.000000 0.000000 0.812901
    3 16.525249 0.000000 0.000000 -0.042416 -0.061426 -0.615829
    4 6.879453 0.000000 0.000000 -0.005300 -0.003056 -0.797274
    5 -3.890452 0.000004 0.000007 -1.298496 -1.127963 -1.956302
    6 17.848171 0.000000 0.000000 0.000000 0.000000 2.122484
    7 16.525257 0.000000 0.000000 0.193452 -0.081743 -1.204642
    8 6.879454 0.000000 0.000000 -0.080674 -0.003814 -0.737217
    9 0.074226 3.798267 -2.376414 1.472530 -0.413108 1.640690
    10 4.018331 0.000000 0.000000 -0.274704 -0.123138 0.191814
    11 3.518561 0.000000 0.000000 0.059560 0.207876 0.278190
    12 8.942642 0.000000 0.000000 -0.107987 0.028902 0.192532
    13 3.307271 0.000000 0.000000 3.138581 0.000369 0.243536
    14 3.593710 -0.000003 0.000000 0.463639 -0.007603 0.926448
    15 2.033346 1.000767 1.937660 1.610943 -1.389325 2.928279
    16 6.028142 0.000002 0.000000 2.369386 -1.329367 1.516300
    17 11.692556 0.000000 -0.000001 0.000000 0.000000 -0.604047
    18 11.481671 0.000000 -0.000029 -0.474453 0.445054 -0.301610
    19 3.883691 -0.046771 0.431443 0.051679 0.105855 -1.222842
    20 1.719575 0.000000 0.000000 0.000000 -0.042087 -0.822562
    21 1.209183 -0.000001 0.000000 0.000001 -0.015749 -0.401795
    22 3.859861 -0.137948 1.332466 0.356873 -0.322946 -1.012993
    23 1.719428 0.000001 0.000000 0.000000 -0.023172 -0.939253
    24 1.099667 0.000000 0.000000 0.000000 -0.048585 -0.323373
    25 0.806048 -0.348922 1.321258 -1.128462 -0.674204 -0.909169
    26 1.789783 0.000001 0.000001 0.000000 0.029850 0.304195
    27 1.207000 0.000000 0.000001 0.000001 -0.060650 -0.179122
    28 2.033354 1.000771 -1.937610 -2.687427 1.475352 1.919455
    29 6.028142 0.000004 0.000000 1.475011 0.899104 -0.921462
    30 11.692552 0.000000 0.000002 0.000000 0.000000 -2.068811
    31 11.481699 0.000000 0.000004 -1.122202 0.083813 0.698301
    32 3.883657 -0.050329 -0.431043 -0.061447 -0.100578 -1.085197
    33 1.719576 0.000003 0.000000 0.000000 0.041173 -1.040922
    34 1.209180 -0.000001 0.000000 0.000000 0.014977 -1.138950
    35 3.859830 -0.148938 -1.331282 -0.287596 0.134915 -0.509996
    36 1.719426 0.000000 0.000000 -0.000001 0.022873 -0.050927
    37 1.099666 0.000000 0.000000 -0.000001 0.047996 -0.722885
    38 0.806017 -0.359836 -1.318334 0.876234 0.230443 -0.743632
    39 1.789784 0.000000 -0.000001 -0.009077 -0.026971 0.824659
    40 1.206998 0.000000 0.000000 0.033922 0.049330 0.423369
    41 -0.044717 2.313936 4.661499 -0.775623 0.286289 -0.203307
    42 2.676088 -1.712442 0.000000 1.570797 0.000000 1.570797
    43 2.676088 -1.712443 0.000000 -1.570796 0.000000 -1.570796
  time 8
    0 -0.002349 0.379946 34.539451 1.579765 -0.073305 0.114015
    1 3.890452 -0.000004 -0.000003 -1.648532 -0.244365 -1.698551
    2 17.848175 0.000000 0.000000 0.000000 0.000000 1.020312
    3 16.525249 0.000000 0.000000 -0.043659 -0.062936 -0.563184
    4 6.879453 0.000000 0.000000 -0.005300 -0.003056 -0.797274
    5 -3.890452 0.000004 0.000007 -1.248465 -1.193979 -2.013608
    6 17.848171 0.000000 0.000000 0.000000 0.000000 2.187608
    7 16.525257 0.000000 0.000000 0.198972 -0.075332 -1.264844
    8 6.879454 0.000000 0.000000 -0.080626 -0.003874 -0.747873
    9 0.074226 3.774828 -2.415477 1.473281 -0.403385 1.640391
    10 4.018331 0.000000 0.000000 -0.274704 -0.123138 0.191814
    11 3.518561 0.000000 0.000000 0.059560 0.207876 0.278190
    12 8.942642 0.000000 0.000000 -0.107987 0.028902 0.192532
    13 3.307271 0.000000 0.000000 3.138581 0.000369 0.243536
    14 3.593710 -0.000003 0.000000 0.463639 -0.007603 0.926448
    15 2.033346 1.000767 1.937660 1.610943 -1.389325 2.928279
    16 6.028142 0.000002 0.000000 2.369386 -1.329367 1.516300
    17 11.692556 0.000000 -0.000001 0.000000 0.000000 -0.604047
    18 11.481671 0.000000 -0.000029 -0.474453 0.445054 -0.301610
    19 3.883691 -0.046771 0.431443 0.051679 0.105855 -1.222842
    20 1.719575 0.000000 0.000000 0.000000 -0.042087 -0.822562
    21 1.209183 -0.000001 0.000000 0.000001 -0.015749 -0.401795
    22 3.859861 -0.137948 1.332466 0.356873 -0.322946 -1.012993
    23 1.719428 0.000001 0.000000 0.000000 -0.023172 -0.939253
    24 1.099667 0.000000 0.000000 0.000000 -0.048585 -0.323373
    25 0.806048 -0.348922 1.321258 -1.128462 -0.674204 -0.909169
    26 1.789783 0.000001 0.000001 0.000000 0.029850 0.304195
    27 1.207000 0.000000 0.000001 0.000001 -0.060650 -0.179122
    28 2.033354 1.000771 -1.937610 -2.687427 1.475352 1.919455
    29 6.028142 0.000004 0.000000 1.475011 0.899104 -0.921462
    30 11.692552 0.000000 0.000002 0.000000 0.000000 -2.068811
    31 11.481699 0.000000 0.000004 -1.122202 0.083813 0.698301
    32 3.883657 -0.050329 -0.431043 -0.061447 -0.100578 -1.085197
    33 1.719576 0.000003 0.000000 0.000000 0.041173 -1.040922
    34 1.209180 -0.000001 0.000000 0.000000 0.014977 -1.138950
    35 3.859830 -0.148938 -1.331282 -0.287596 0.134915 -0.509996
    36 1.719426 0.000000 0.000000 -0.000001 0.022873 -0.050927
    37 1.099666 0.000000 0.000000 -0.000001 0.047996 -0.722885
    38 0.806017 -0.359836 -1.318334 0.876234 0.230443 -0.743632
    39 1.789784 0.000000 -0.000001 -0.009077 -0.026971 0.824659
    40 1.206998 0.000000 0.000000 0.033922 0.049330 0.423369
    41 -0.044717 2.313936 4.661499 -0.827252 0.295723 -0.208041
    42 2.676088 -1.712442 0.000000 1.570797 0.000000 1.570797
    43 2.676088 -1.712443 0.000000 -1.570796 0.000000 -1.570796
  time 9
    0 -0.002349 0.379946 34.539451 1.590261 -0.073305 0.114015
    1 3.890452 -0.000004 -0.000003 -1.657984 -0.357945 -1.698021
    2 17.848175 0.000000 0.000000 0.000000 0.000000 1.229090
    3 16.525249 0.000000 0.000000 -0.047213 -0.068948 -0.543651
    4 6.879453 0.000000 0.000000 -0.005300 -0.003056 -0.797274
    5 -3.890452 0.000004 0.000007 -1.185302 -1.251369 -2.083566
    6 17.848171 0.000000 0.000000 0.000000 0.000000 2.245785
    7 16.525257 0.000000 0.000000 0.203182 -0.071905 -1.310356
    8 6.879454 0.000000 0.000000 -0.080578 -0.003922 -0.759144
    9 0.074226 3.747484 -2.454541 1.474068 -0.392959 1.640091
    10 4.018331 0.000000 0.000000 -0.274704 -0.123138 0.191814
    11 3.518561 0.000000 0.000000 0.059560 0.207876 0.278190
    12 8.942642 0.000000 0.000000 -0.107987 0.028902 0.192532
    13 3.307271 0.000000 0.000000 3.138581 0.000369 0.243536
    14 3.593710 -0.000003 0.000000 0.463639 -0.007603 0.926448
    15 2.033346 1.000767 1.937660 1.610943 -1.389325 2.928279
    16 6.028142 0.000002 0.000000 2.369386 -1.329367 1.516300
    17 11.692556 0.000000 -0.000001 0.000000 0.000000 -0.604047
    18 11.481671 0.000000 -0.000029 -0.474453 0.445054 -0.301610
    19 3.883691 -0.046771 0.431443 0.051679 0.105855 -1.222842
    20 1.719575 0.000000 0.000000 0.000000 -0.042087 -0.822562
    21 1.209183 -0.000001 0.000000 0.000001 -0.015749 -0.401795
    22 3.859861 -0.137948 1.332466 0.356873 -0.322946 -1.012993
    23 1.719428 0.000001 0.000000 0.000000 -0.023172 -0.939253
    24 1.099667 0.000000 0.000000 0.000000 -0.048585 -0.323373
    25 0.806048 -0.348922 1.321258 -1.128462 -0.674204 -0.909169
    26 1.789783 0.000001 0.000001 0.000000 0.029850 0.304195
    27 1.207000 0.000000 0.000001 0.000001 -0.060650 -0.179122
    28 2.033354 1.000771 -1.937610 -2.687427 1.475352 1.919455
    29 6.028142 0.000004 0.000000 1.475011 0.899104 -0.921462
    30 11.692552 0.000000 0.000002 0.000000 0.000000 -2.068811
    31 11.481699 0.000000 0.000004 -1.122202 0.083813 0.698301
    32 3.883657 -0.050329 -0.431043 -0.061447 -0.100578 -1.085197
    33 1.719576 0.000003 0.000000 0.000000 0.041173 -1.040922
    34 1.209180 -0.000001 0.000000 0.000000 0.014977 -1.138950
    35 3.859830 -0.148938 -1.331282 -0.287596 0.134915 -0.509996
    36 1.719426 0.000000 0.000000 -0.000001 0.022873 -0.050927
    37 1.099666 0.000000 0.000000 -0.000001 0.047996 -0.722885
    38 0.806017 -0.359836 -1.318334 0.876234 0.230443 -0.743632
    39 1.789784 0.000000 -0.000001 -0.009077 -0.026971 0.824659
    40 1.206998 0.000000 0.000000 0.033922 0.049330 0.423369
    41 -0.044717 2.313936 4.661499 -0.870147 0.298265 -0.211672
    42 2.676088 -1.712442 0.000000 1.570797 0.000000 1.570797
    43 2.676088 -1.712443 0.000000 -1.570796 0.000000 -1.570796
  time 10
    0 -0.002349 0.379946 34.539451 1.601265 -0.073305 0.114015
    1 3.890452 -0.000004 -0.000003 -1.666376 -0.470238 -1.700315
    2 17.848175 0.000000 0.000000 0.000000 0.000000 1.439613
    3 16.525249 0.000000 0.000000 -0.052651 -0.080067 -0.579774
    4 6.879453 0.000000 0.000000 -0.005300 -0.003056 -0.797274
    5 -3.890452 0.000004 0.000007 -1.114088 -1.295820 -2.160604
    6 17.848171 0.000000 0.000000 0.000000 0.000000 2.294963
    7 16.525257 0.000000 0.000000 0.205895 -0.072442 -1.338293
    8 6.879454 0.000000 0.000000 -0.080519 -0.003982 -0.770854
    9 0.074226 3.720139 -2.493605 1.474892 -0.381981 1.639779
    10 4.018331 0.000000 0.000000 -0.274704 -0.123138 0.191814
    11 3.518561 0.000000 0.000000 0.059560 0.207876 0.278190
    12 8.942642 0.000000 0.000000 -0.107987 0.028902 0.192532
    13 3.307271 0.000000 0.000000 3.138581 0.000369 0.243536
    14 3.593710 -0.000003 0.000000 0.463639 -0.007603 0.926448
    15 2.033346 1.000767 1.937660 1.610943 -1.389325 2.928279
    16 6.028142 0.000002 0.000000 2.369386 -1.329367 1.516300
    17 11.692556 0.000000 -0.000001 0.000000 0.000000 -0.604047
    18 11.481671 0.000000 -0.000029 -0.474453 0.445054 -0.301610
    19 3.883691 -0.046771 0.431443 0.051679 0.105855 -1.222842
    20 1.719575 0.000000 0.000000 0.000000 -0.042087 -0.822562
    21 1.209183 -0.000001 0.000000 0.000001 -0.015749 -0.401795
    22 3.859861 -0.137948 1.332466 0.356873 -0.322946 -1.012993
    23 1.719428 0.000001 0.000000 0.000000 -0.023172 -0.939253
    24 1.099667 0.000000 0.000000 0.000000 -0.048585 -0.323373
    25 0.806048 -0.348922 1.321258 -1.128462 -0.674204 -0.909169
    26 1.789783 0.000001 0.000001 0.000000 0.029850 0.304195
    27 1.207000 0.000000 0.000001 0.000001 -0.060650 -0.179122
    28 2.033354 1.000771 -1.937610 -2.687427 1.475352 1.919455
    29 6.028142 0.000004 0.000000 1.475011 0.899104 -0.921462
    30 11.692552 0.000000 0.000002 0.000000 0.000000 -2.068811
    31 11.481699 0.000000 0.000004 -1.122202 0.083813 0.698301
    32 3.883657 -0.050329 -0.431043 -0.061447 -0.100578 -1.085197
    33 1.719576 0.000003 0.000000 0.000000 0.041173 -1.040922
    34 1.209180 -0.000001 0.000000 0.000000 0.014977 -1.138950
    35 3.859830 -0.148938 -1.331282 -0.287596 0.134915 -0.509996
    36 1.719426 0.000000 0.000000 -0.000001 0.022873 -0.050927
    37 1.099666 0.000000 0.000000 -0.000001 0.047996 -0.722885
    38 0.806017 -0.359836 -1.318334 0.876234 0.230443 -0.743632
    39 1.789784 0.000000 -0.000001 -0.009077 -0.026971 0.824659
    40 1.206998 0.000000 0.000000 0.033922 0.049330 0.423369
    41 -0.044717 2.313936 4.661499 -0.904217 0.294943 -0.213805
    42 2.676088 -1.712442 0.000000 1.570797 0.000000 1.570797
    43 2.676088 -1.712443 0.000000 -1.570796 0.000000 -1.570796
  time 11
    0 -0.002349 0.379946 34.539451 1.612715 -0.073305 0.114015
    1 3.890452 -0.000004 -0.000003 -1.672560 -0.581004 -1.707551
    2 17.848175 0.000000 0.000000 0.000000 0.000000 1.652946
    3 16.525249 0.000000 0.000000 -0.056845 -0.098955 -0.704596
    4 6.879453 0.000000 0.000000 -0.005300 -0.003056 -0.797274
    5 -3.890452 0.000004 0.000007 -1.041532 -1.327677 -2.237170
    6 17.848171 0.000000 0.000000 0.000000 0.000000 2.329853
    7 16.525257 0.000000 0.000000 0.207111 -0.075425 -1.347962
    8 6.879454 0.000000 0.000000 -0.080459 -0.004054 -0.782798
    9 0.074226 3.692795 -2.536575 1.475735 -0.370568 1.639468
    10 4.018331 0.000000 0.000000 -0.274704 -0.123138 0.191814
    11 3.518561 0.000000 0.000000 0.059560 0.207876 0.278190
    12 8.942642 0.000000 0.000000 -0.107987 0.028902 0.192532
    13 3.307271 0.000000 0.000000 3.138581 0.000369 0.243536
    14 3.593710 -0.000003 0.000000 0.463639 -0.007603 0.926448
    15 2.033346 1.000767 1.937660 1.610943 -1.389325 2.928279
    16 6.028142 0.000002 0.000000 2.369386 -1.329367 1.516300
    17 11.692556 0.000000 -0.000001 0.000000 0.000000 -0.604047
    18 11.481671 0.000000 -0.000029 -0.474453 0.445054 -0.301610
    19 3.883691 -0.046771 0.431443 0.051679 0.105855 -1.222842
    20 1.719575 0.000000 0.000000 0.000000 -0.042087 -0.822562
    21 1.209183 -0.000001 0.000000 0.000001 -0.015749 -0.401795
    22 3.859861 -0.137948 1.332466 0.356873 -0.322946 -1.012993
    23 1.719428 0.000001 0.000000 0.000000 -0.023172 -0.939253
    24 1.099667 0.000000 0.000000 0.000000 -0.048585 -0.323373
    25 0.806048 -0.348922 1.321258 -1.128462 -0.674204 -0.909169
    26 1.789783 0.000001 0.000001 0.000000 0.029850 0.304195
    27 1.207000 0.000000 0.000001 0.000001 -0.060650 -0.179122
    28 2.033354 1.000771 -1.937610 -2.687427 1.475352 1.919455
    29 6.028142 0.000004 0.000000 1.475011 0.899104 -0.921462
    30 11.692552 0.000000 0.000002 0.000000 0.000000 -2.068811
    31 11.481699 0.000000 0.000004 -1.122202 0.083813 0.698301
    32 3.883657 -0.050329 -0.431043 -0.061447 -0.100578 -1.085197
    33 1.719576 0.000003 0.000000 0.000000 0.041173 -1.040922
    34 1.209180 -0.000001 0.000000 0.000000 0.014977 -1.138950
    35 3.859830 -0.148938 -1.331282 -0.287596 0.134915 -0.509996
    36 1.719426 0.000000 0.000000 -0.000001 0.022873 -0.050927
    37 1.099666 0.000000 0.000000 -0.000001 0.047996 -0.722885
    38 0.806017 -0.359836 -1.318334 0.876234 0.230443 -0.743632
    39 1.789784 0.000000 -0.000001 -0.009077 -0.026971 0.824659
    40 1.206998 0.000000 0.000000 0.033922 0.049330 0.423369
    41 -0.044717 2.313936 4.661499 -0.929417 0.286757 -0.214033
    42 2.676088 -1.712442 0.000000 1.570797 0.000000 1.570797
    43 2.676088 -1.712443 0.000000 -1.570796 0.000000 -1.570796
  time 12
    0 -0.002349 0.379946 34.539451 1.624419 -0.073305 0.114015
    1 3.890452 -0.000004 -0.000003 -1.675386 -0.686431 -1.723434
    2 17.848175 0.000000 0.000000 0.000000 0.000000 1.867493
    3 16.525249 0.000000 0.000000 -0.053398 -0.129071 -0.937651
    4 6.879453 0.000000 0.000000 -0.005300 -0.003056 -0.797274
    5 -3.890452 0.000004 0.000007 -0.969647 -1.350956 -2.310998
    6 17.848171 0.000000 0.000000 0.000000 0.000000 2.345009
    7 16.525257 0.000000 0.000000 0.207766 -0.076847 -1.346894
    8 6.879454 0.000000 0.000000 -0.080399 -0.004114 -0.794830
    9 0.074226 3.661544 -2.579545 1.476595 -0.358887 1.639156
    10 4.018331 0.000000 0.000000 -0.274704 -0.123138 0.191814
    11 3.518561 0.000000 0.000000 0.059560 0.207876 0.278190
    12 8.942642 0.000000 0.000000 -0.107987 0.028902 0.192532
    13 3.307271 0.000000 0.000000 3.138581 0.000369 0.243536
    14 3.593710 -0.000003 0.000000 0.463639 -0.007603 0.926448
    15 2.033346 1.000767 1.937660 1.610943 -1.389325 2.928279
    16 6.028142 0.000002 0.000000 2.369386 -1.329367 1.516300
    17 11.692556 0.000000 -0.000001 0.000000 0.000000 -0.604047
    18 11.481671 0.000000 -0.000029 -0.474453 0.445054 -0.301610
    19 3.883691 -0.046771 0.431443 0.051679 0.105855 -1.222842
    20 1.719575 0.000000 0.000000 0.000000 -0.042087 -0.822562
    21 1.209183 -0.000001 0.000000 0.000001 -0.015749 -0.401795
    22 3.859861 -0.137948 1.332466 0.356873 -0.322946 -1.012993
    23 1.719428 0.000001 0.000000 0.000000 -0.023172 -0.939253
    24 1.099667 0.000000 0.000000 0.000000 -0.048585 -0.323373
    25 0.806048 -0.348922 1.321258 -1.128462 -0.674204 -0.909169
    26 1.789783 0.000001 0.000001 0.000000 0.029850 0.304195
    27 1.207000 0.000000 0.000001 0.000001 -0.060650 -0.179122
    28 2.033354 1.000771 -1.937610 -2.687427 1.475352 1.919455
    29 6.028142 0.000004 0.000000 1.475011 0.899104 -0.921462
    30 11.692552 0.000000 0.000002 0.000000 0.000000 -2.068811
    31 11.481699 0.000000 0.000004 -1.122202 0.083813 0.698301
    32 3.883657 -0.050329 -0.431043 -0.061447 -0.100578 -1.085197
    33 1.719576 0.000003 0.000000 0.000000 0.041173 -1.040922
    34 1.209180 -0.000001 0.000000 0.000000 0.014977 -1.138950
    35 3.859830 -0.148938 -1.331282 -0.287596 0.134915 -0.509996
    36 1.719426 0.000000 0.000000 -0.000001 0.022873 -0.050927
    37 1.099666 0.000000 0.000000 -0.000001 0.047996 -0.722885
    38 0.806017 -0.359836 -1.318334 0.876234 0.230443 -0.743632
    39 1.789784 0.000000 -0.000001 -0.009077 -0.026971 0.824659
    40 1.206998 0.000000 0.000000 0.033922 0.049330 0.423369
    41 -0.044717 2.313936 4.661499 -0.945565 0.274703 -0.211971
    42 2.676088 -1.712442 0.000000 1.570797 0.000000 1.570797
    43 2.676088 -1.712443 0.000000 -1.570796 0.000000 -1.570796
  time 13
    0 -0.002349 0.379946 34.539451 1.636250 -0.073305 0.114015
    1 3.890452 -0.000004 -0.000003 -1.673355 -0.773833 -1.751671
    2 17.848175 0.000000 0.000000 0.000000 0.000000 2.073233
    3 16.525249 0.000000 0.000000 -0.039608 -0.168630 -1.227566
    4 6.879453 0.000000 0.000000 -0.005300 -0.003056 -0.797274
    5 -3.890452 0.000004 0.000007 -0.922587 -1.362130 -2.357258
    6 17.848171 0.000000 0.000000 0.000000 0.000000 2.343036
    7 16.525257 0.000000 0.000000 0.207766 -0.076638 -1.342300
    8 6.879454 0.000000 0.000000 -0.080339 -0.004173 -0.806715
    9 0.074226 3.630293 -2.622515 1.477456 -0.347056 1.638868
    10 4.018331 0.000000 0.000000 -0.274704 -0.123138 0.191814
    11 3.518561 0.000000 0.000000 0.059560 0.207876 0.278190
    12 8.942642 0.000000 0.000000 -0.107987 0.028902 0.192532
    13 3.307271 0.000000 0.000000 3.138581 0.000369 0.243536
    14 3.593710 -0.000003 0.000000 0.463639 -0.007603 0.926448
    15 2.033346 1.000767 1.937660 1.610943 -1.389325 2.928279
    16 6.028142 0.000002 0.000000 2.369386 -1.329367 1.516300
    17 11.692556 0.000000 -0.000001 0.000000 0.000000 -0.604047
    18 11.481671 0.000000 -0.000029 -0.474453 0.445054 -0.301610
    19 3.883691 -0.046771 0.431443 0.051679 0.105855 -1.222842
    20 1.719575 0.000000 0.000000 0.000000 -0.042087 -0.822562
    21 1.209183 -0.000001 0.000000 0.000001 -0.015749 -0.401795
    22 3.859861 -0.137948 1.332466 0.356873 -0.322946 -1.012993
    23 1.719428 0.000001 0.000000 0.000000 -0.023172 -0.939253
    24 1.099667 0.000000 0.000000 0.000000 -0.048585 -0.323373
    25 0.806048 -0.348922 1.321258 -1.128462 -0.674204 -0.909169
    26 1.789783 0.000001 0.000001 0.000000 0.029850 0.304195
    27 1.207000 0.000000 0.000001 0.000001 -0.060650 -0.179122
    28 2.033354 1.000771 -1.937610 -2.687427 1.475352 1.919455
    29 6.028142 0.000004 0.000000 1.475011 0.899104 -0.921462
    30 11.692552 0.000000 0.000002 0.000000 0.000000 -2.068811
    31 11.481699 0.000000 0.000004 -1.122202 0.083813 0.698301
    32 3.883657 -0.050329 -0.431043 -0.061447 -0.100578 -1.085197
    33 1.719576 0.000003 0.000000 0.000000 0.041173 -1.040922
    34 1.209180 -0.000001 0.000000 0.000000 0.014977 -1.138950
    35 3.859830 -0.148938 -1.331282 -0.287596 0.134915 -0.509996
    36 1.719426 0.000000 0.000000 -0.000001 0.022873 -0.050927
    37 1.099666 0.000000 0.000000 -0.000001 0.047996 -0.722885
    38 0.806017 -0.359836 -1.318334 0.876234 0.230443 -0.743632
    39 1.789784 0.000000 -0.000001 -0.009077 -0.026971 0.824659
    40 1.206998 0.000000 0.000000 0.033922 0.049330 0.423369
    41 -0.044717 2.313936 4.661499 -0.952616 0.259779 -0.207214
    42 2.676088 -1.712442 0.000000 1.570797 0.000000 1.570797
    43 2.676088 -1.712443 0.000000 -1.570796 0.000000 -1.570796
  time 14
    0 -0.002349 0.379946 34.539451 1.648146 -0.073305 0.114015
    1 3.890452 -0.000004 -0.000003 -1.663108 -0.823089 -1.793937
    2 17.848175 0.000000 0.000000 0.000000 0.000000 2.246708
    3 16.525249 0.000000 0.000000 -0.027915 -0.209837 -1.469050
    4 6.879453 0.000000 0.000000 -0.005300 -0.003056 -0.797274
    5 -3.890452 0.000004 0.000007 -0.927092 -1.358112 -2.348950
    6 17.848171 0.000000 0.000000 0.000000 0.000000 2.325275
    7 16.525257 0.000000 0.000000 0.207018 -0.074982 -1.339736
    8 6.879454 0.000000 0.000000 -0.080279 -0.004221 -0.818279
    9 0.074226 3.599042 -2.665485 1.478298 -0.335224 1.638581
    10 4.018331 0.000000 0.000000 -0.274704 -0.123138 0.191814
    11 3.518561 0.000000 0.000000 0.059560 0.207876 0.278190
    12 8.942642 0.000000 0.000000 -0.107987 0.028902 0.192532
    13 3.307271 0.000000 0.000000 3.138581 0.000369 0.243536
    14 3.593710 -0.000003 0.000000 0.463639 -0.007603 0.926448
    15 2.033346 1.000767 1.937660 1.610943 -1.389325 2.928279
    16 6.028142 0.000002 0.000000 2.369386 -1.329367 1.516300
    17 11.692556 0.000000 -0.000001 0.000000 0.000000 -0.604047
    18 11.481671 0.000000 -0.000029 -0.474453 0.445054 -0.301610
    19 3.883691 -0.046771 0.431443 0.051679 0.105855 -1.222842
    20 1.719575 0.000000 0.000000 0.000000 -0.042087 -0.822562
    21 1.209183 -0.000001 0.000000 0.000001 -0.015749 -0.401795
    22 3.859861 -0.137948 1.332466 0.356873 -0.322946 -1.012993
    23 1.719428 0.000001 0.000000 0.000000 -0.023172 -0.939253
    24 1.099667 0.000000 0.000000 0.000000 -0.048585 -0.323373
    25 0.806048 -0.348922 1.321258 -1.128462 -0.674204 -0.909169
    26 1.789783 0.000001 0.000001 0.000000 0.029850 0.304195
    27 1.207000 0.000000 0.000001 0.000001 -0.060650 -0.179122
    28 2.033354 1.000771 -1.937610 -2.687427 1.475352 1.919455
    29 6.028142 0.000004 0.000000 1.475011 0.899104 -0.921462
    30 11.692552 0.000000 0.000002 0.000000 0.000000 -2.068811
    31 11.481699 0.000000 0.000004 -1.122202 0.083813 0.698301
    32 3.883657 -0.050329 -0.431043 -0.061447 -0.100578 -1.085197
    33 1.719576 0.000003 0.000000 0.000000 0.041173 -1.040922
    34 1.209180 -0.000001 0.000000 0.000000 0.014977 -1.138950
    35 3.859830 -0.148938 -1.331282 -0.287596 0.134915 -0.509996
    36 1.719426 0.000000 0.000000 -0.000001 0.022873 -0.050927
    37 1.099666 0.000000 0.000000 -0.000001 0.047996 -0.722885
    38 0.806017 -0.359836 -1.318334 0.876234 0.230443 -0.743632
    39 1.789784 0.000000 -0.000001 -0.009077 -0.026971 0.824659
    40 1.206998 0.000000 0.000000 0.033922 0.049330 0.423369
    41 -0.044717 2.313936 4.661499 -0.950387 0.243016 -0.199364
    42 2.676088 -1.712442 0.000000 1.570797 0.000000 1.570797
    43 2.676088 -1.712443 0.000000 -1.570796 0.000000 -1.570796
  time 15
    0 -0.002349 0.379946 34.539451 1.659850 -0.073305 0.114015
    1 3.890452 -0.000004 -0.000003 -1.647737 -0.845023 -1.832056
    2 17.848175 0.000000 0.000000 0.000000 0.000000 2.332876
    3 16.525249 0.000000 0.000000 -0.035841 -0.237318 -1.540759
    4 6.879453 0.000000 0.000000 -0.005300 -0.003056 -0.797274
    5 -3.890452 0.000004 0.000007 -0.989488 -1.335371 -2.279560
    6 17.848171 0.000000 0.000000 0.000000 0.000000 2.289516
    7 16.525257 0.000000 0.000000 0.205801 -0.071602 -1.342567
    8 6.879454 0.000000 0.000000 -0.080219 -0.004281 -0.829345
    9 0.074226 3.567791 -2.708455 1.479140 -0.323526 1.638305
    10 4.018331 0.000000 0.000000 -0.274704 -0.123138 0.191814
    11 3.518561 0.000000 0.000000 0.059560 0.207876 0.278190
    12 8.942642 0.000000 0.000000 -0.107987 0.028902 0.192532
    13 3.307271 0.000000 0.000000 3.138581 0.000369 0.243536
    14 3.593710 -0.000003 0.000000 0.463639 -0.007603 0.926448
    15 2.033346 1.000767 1.937660 1.610943 -1.389325 2.928279
    16 6.028142 0.000002 0.000000 2.369386 -1.329367 1.516300
    17 11.692556 0.000000 -0.000001 0.000000 0.000000 -0.604047
    18 11.481671 0.000000 -0.000029 -0.474453 0.445054 -0.301610
    19 3.883691 -0.046771 0.431443 0.051679 0.105855 -1.222842
    20 1.719575 0.000000 0.000000 0.000000 -0.042087 -0.822562
    21 1.209183 -0.000001 0.000000 0.000001 -0.015749 -0.401795
    22 3.859861 -0.137948 1.332466 0.356873 -0.322946 -1.012993
    23 1.719428 0.000001 0.000000 0.000000 -0.023172 -0.939253
    24 1.099667 0.000000 0.000000 0.000000 -0.048585 -0.323373
    25 0.806048 -0.348922 1.321258 -1.128462 -0.674204 -0.909169
    26 1.789783 0.000001 0.000001 0.000000 0.029850 0.304195
    27 1.207000 0.000000 0.000001 0.000001 -0.060650 -0.179122
    28 2.033354 1.000771 -1.937610 -2.687427 1.475352 1.919455
    29 6.028142 0.000004 0.000000 1.475011 0.899104 -0.921462
    30 11.692552 0.000000 0.000002 0.000000 0.000000 -2.068811
    31 11.481699 0.000000 0.000004 -1.122202 0.083813 0.698301
    32 3.883657 -0.050329 -0.431043 -0.061447 -0.100578 -1.085197
    33 1.719576 0.000003 0.000000 0.000000 0.041173 -1.040922
    34 1.209180 -0.000001 0.000000 0.000000 0.014977 -1.138950
    35 3.859830 -0.148938 -1.331282 -0.287596 0.134915 -0.509996
    36 1.719426 0.000000 0.000000 -0.000001 0.022873 -0.050927
    37 1.099666 0.000000 0.000000 -0.000001 0.047996 -0.722885
    38 0.806017 -0.359836 -1.318334 0.876234 0.230443 -0.743632
    39 1.789784 0.000000 -0.000001 -0.009077 -0.026971 0.824659
    40 1.206998 0.000000 0.000000 0.033922 0.049330 0.423369
    41 -0.044717 2.313936 4.661499 -0.938787 0.225410 -0.188014
    42 2.676088 -1.712442 0.000000 1.570797 0.000000 1.570797
    43 2.676088 -1.712443 0.000000 -1.570796 0.000000 -1.570796
  time 16
    0 -0.002349 0.379946 34.539451 1.671299 -0.073305 0.114015
    1 3.890452 -0.000004 -0.000003 -1.632455 -0.859805 -1.848116
    2 17.848175 0.000000 0.000000 0.000000 0.000000 2.336521
    3 16.525249 0.000000 0.000000 -0.060719 -0.238471 -1.464768
    4 6.879453 0.000000 0.000000 -0.005300 -0.003056 -0.797274
    5 -3.890452 0.000004 0.000007 -1.077666 -1.294693 -2.180052
    6 17.848171 0.000000 0.000000 0.000000 0.000000 2.207579
    7 16.525257 0.000000 0.000000 0.204959 -0.060623 -1.342834
    8 6.879454 0.000000 0.000000 -0.080171 -0.004329 -0.839708
    9 0.074226 3.536540 -2.747519 1.479946 -0.312113 1.638054
    10 4.018331 0.000000 0.000000 -0.274704 -0.123138 0.191814
    11 3.518561 0.000000 0.000000 0.059560 0.207876 0.278190
    12 8.942642 0.000000 0.000000 -0.107987 0.028902 0.192532
    13 3.307271 0.000000 0.000000 3.138581 0.000369 0.243536
    14 3.593710 -0.000003 0.000000 0.463639 -0.007603 0.926448
    15 2.033346 1.000767 1.937660 1.610943 -1.389325 2.928279
    16 6.028142 0.000002 0.000000 2.369386 -1.329367 1.516300
    17 11.692556 0.000000 -0.000001 0.000000 0.000000 -0.604047
    18 11.481671 0.000000 -0.000029 -0.474453 0.445054 -0.301610
    19 3.883691 -0.046771 0.431443 0.051679 0.105855 -1.222842
    20 1.719575 0.000000 0.000000 0.000000 -0.042087 -0.822562
    21 1.209183 -0.000001 0.000000 0.000001 -0.015749 -0.401795
    22 3.859861 -0.137948 1.332466 0.356873 -0.322946 -1.012993
    23 1.719428 0.000001 0.000000 0.000000 -0.023172 -0.939253
    24 1.099667 0.000000 0.000000 0.000000 -0.048585 -0.323373
    25 0.806048 -0.348922 1.321258 -1.128462 -0.674204 -0.909169
    26 1.789783 0.000001 0.000001 0.000000 0.029850 0.304195
    27 1.207000 0.000000 0.000001 0.000001 -0.060650 -0.179122
    28 2.033354 1.000771 -1.937610 -2.687427 1.475352 1.919455
    29 6.028142 0.000004 0.000000 1.475011 0.899104 -0.921462
    30 11.692552 0.000000 0.000002 0.000000 0.000000 -2.068811
    31 11.481699 0.000000 0.000004 -1.122202 0.083813 0.698301
    32 3.883657 -0.050329 -0.431043 -0.061447 -0.100578 -1.085197
    33 1.719576 0.000003 0.000000 0.000000 0.041173 -1.040922
    34 1.209180 -0.000001 0.000000 0.000000 0.014977 -1.138950
    35 3.859830 -0.148938 -1.331282 -0.287596 0.134915 -0.509996
    36 1.719426 0.000000 0.000000 -0.000001 0.022873 -0.050927
    37 1.099666 0.000000 0.000000 -0.000001 0.047996 -0.722885
    38 0.806017 -0.359836 -1.318334 0.876234 0.230443 -0.743632
    39 1.789784 0.000000 -0.000001 -0.009077 -0.026971 0.824659
    40 1.206998 0.000000 0.000000 0.033922 0.049330 0.423369
    41 -0.044717 2.313936 4.661499 -0.917772 0.207961 -0.172770
    42 2.676088 -1.712442 0.000000 1.570797 0.000000 1.570797
    43 2.676088 -1.712443 0.000000 -1.570796 0.000000 -1.570796
  time 17
    0 -0.002349 0.379946 34.539451 1.682304 -0.073305 0.114015
    1 3.890452 -0.000004 -0.000003 -1.619028 -0.866433 -1.842557
    2 17.848175 0.000000 0.000000 0.000000 0.000000 2.276848
    3 16.525249 0.000000 0.000000 -0.083536 -0.216344 -1.328641
    4 6.879453 0.000000 0.000000 -0.005300 -0.003056 -0.797274
    5 -3.890452 0.000004 0.000007 -1.160861 -1.239459 -2.083283
    6 17.848171 0.000000 0.000000 0.000000 0.000000 2.081121
    7 16.525257 0.000000 0.000000 0.204305 -0.044236 -1.334020
    8 6.879454 0.000000 0.000000 -0.080111 -0.004377 -0.849193
    9 0.074226 3.509195 -2.786582 1.480733 -0.301102 1.637814
    10 4.018331 0.000000 0.000000 -0.274704 -0.123138 0.191814
    11 3.518561 0.000000 0.000000 0.059560 0.207876 0.278190
    12 8.942642 0.000000 0.000000 -0.107987 0.028902 0.192532
    13 3.307271 0.000000 0.000000 3.138581 0.000369 0.243536
    14 3.593710 -0.000003 0.000000 0.463639 -0.007603 0.926448
    15 2.033346 1.000767 1.937660 1.610943 -1.389325 2.928279
    16 6.028142 0.000002 0.000000 2.369386 -1.329367 1.516300
    17 11.692556 0.000000 -0.000001 0.000000 0.000000 -0.604047
    18 11.481671 0.000000 -0.000029 -0.474453 0.445054 -0.301610
    19 3.883691 -0.046771 0.431443 0.051679 0.105855 -1.222842
    20 1.719575 0.000000 0.000000 0.000000 -0.042087 -0.822562
    21 1.209183 -0.000001 0.000000 0.000001 -0.015749 -0.401795
    22 3.859861 -0.137948 1.332466 0.356873 -0.322946 -1.012993
    23 1.719428 0.000001 0.000000 0.000000 -0.023172 -0.939253
    24 1.099667 0.000000 0.000000 0.000000 -0.048585 -0.323373
    25 0.806048 -0.348922 1.321258 -1.128462 -0.674204 -0.909169
    26 1.789783 0.000001 0.000001 0.000000 0.029850 0.304195
    27 1.207000 0.000000 0.000001 0.000001 -0.060650 -0.179122
    28 2.033354 1.000771 -1.937610 -2.687427 1.475352 1.919455
    29 6.028142 0.000004 0.000000 1.475011 0.899104 -0.921462
    30 11.692552 0.000000 0.000002 0.000000 0.000000 -2.068811
    31 11.481699 0.000000 0.000004 -1.122202 0.083813 0.698301
    32 3.883657 -0.050329 -0.431043 -0.061447 -0.100578 -1.085197
    33 1.719576 0.000003 0.000000 0.000000 0.041173 -1.040922
    34 1.209180 -0.000001 0.000000 0.000000 0.014977 -1.138950
    35 3.859830 -0.148938 -1.331282 -0.287596 0.134915 -0.509996
    36 1.719426 0.000000 0.000000 -0.000001 0.022873 -0.050927
    37 1.099666 0.000000 0.000000 -0.000001 0.047996 -0.722885
    38 0.806017 -0.359836 -1.318334 0.876234 0.230443 -0.743632
    39 1.789784 0.000000 -0.000001 -0.009077 -0.026971 0.824659
    40 1.206998 0.000000 0.000000 0.033922 0.049330 0.423369
    41 -0.044717 2.313936 4.661499 -0.873058 0.185833 -0.148165
    42 2.676088 -1.712442 0.000000 1.570797 0.000000 1.570797
    43 2.676088 -1.712443 0.000000 -1.570796 0.000000 -1.570796
  time 18
    0 -0.002349 0.379946 34.539451 1.692800 -0.073305 0.114015
    1 3.890452 -0.000004 -0.000003 -1.606484 -0.858946 -1.827292
    2 17.848175 0.000000 0.000000 0.000000 0.000000 2.182025
    3 16.525249 0.000000 0.000000 -0.086166 -0.191005 -1.252249
    4 6.879453 0.000000 0.000000 -0.005300 -0.003056 -0.797274
    5 -3.890452 0.000004 0.000007 -1.229583 -1.171630 -2.000769
    6 17.848171 0.000000 0.000000 0.000000 0.000000 1.922298
    7 16.525257 0.000000 0.000000 0.203088 -0.026286 -1.315110
    8 6.879454 0.000000 0.000000 -0.080075 -0.004413 -0.857624
    9 0.074226 3.477944 -2.825646 1.481465 -0.290676 1.637610
    10 4.018331 0.000000 0.000000 -0.274704 -0.123138 0.191814
    11 3.518561 0.000000 0.000000 0.059560 0.207876 0.278190
    12 8.942642 0.000000 0.000000 -0.107987 0.028902 0.192532
    13 3.307271 0.000000 0.000000 3.138581 0.000369 0.243536
    14 3.593710 -0.000003 0.000000 0.463639 -0.007603 0.926448
    15 2.033346 1.000767 1.937660 1.610943 -1.389325 2.928279
    16 6.028142 0.000002 0.000000 2.369386 -1.329367 1.516300
    17 11.692556 0.000000 -0.000001 0.000000 0.000000 -0.604047
    18 11.481671 0.000000 -0.000029 -0.474453 0.445054 -0.301610
    19 3.883691 -0.046771 0.431443 0.051679 0.105855 -1.222842
    20 1.719575 0.000000 0.000000 0.000000 -0.042087 -0.822562
    21 1.209183 -0.000001 0.000000 0.000001 -0.015749 -0.401795
    22 3.859861 -0.137948 1.332466 0.356873 -0.322946 -1.012993
    23 1.719428 0.000001 0.000000 0.000000 -0.023172 -0.939253
    24 1.099667 0.000000 0.000000 0.000000 -0.048585 -0.323373
    25 0.806048 -0.348922 1.321258 -1.128462 -0.674204 -0.909169
    26 1.789783 0.000001 0.000001 0.000000 0.029850 0.304195
    27 1.207000 0.000000 0.000001 0.000001 -0.060650 -0.179122
    28 2.033354 1.000771 -1.937610 -2.687427 1.475352 1.919455
    29 6.028142 0.000004 0.000000 1.475011 0.899104 -0.921462
    30 11.692552 0.000000 0.000002 0.000000 0.000000 -2.068811
    31 11.481699 0.000000 0.000004 -1.122202 0.083813 0.698301
    32 3.883657 -0.050329 -0.431043 -0.061447 -0.100578 -1.085197
    33 1.719576 0.000003 0.000000 0.000000 0.041173 -1.040922
    34 1.209180 -0.000001 0.000000 0.000000 0.014977 -1.138950
    35 3.859830 -0.148938 -1.331282 -0.287596 0.134915 -0.509996
    36 1.719426 0.000000 0.000000 -0.000001 0.022873 -0.050927
    37 1.099666 0.000000 0.000000 -0.000001 0.047996 -0.722885
    38 0.806017 -0.359836 -1.318334 0.876234 0.230443 -0.743632
    39 1.789784 0.000000 -0.000001 -0.009077 -0.026971 0.824659
    40 1.206998 0.000000 0.000000 0.033922 0.049330 0.423369
    41 -0.044717 2.313936 4.661499 -0.798003 0.155783 -0.112032
    42 2.676088 -1.712442 0.000000 1.570797 0.000000 1.570797
    43 2.676088 -1.712443 0.000000 -1.570796 0.000000 -1.570796
  time 19
    0 -0.002349 0.379946 34.539451 1.702532 -0.073305 0.114015
    1 3.890452 -0.000004 -0.000003 -1.595972 -0.824663 -1.801261
    2 17.848175 0.000000 0.000000 0.000000 0.000000 2.026771
    3 16.525249 0.000000 0.000000 -0.061963 -0.168328 -1.297536
    4 6.879453 0.000000 0.000000 -0.005300 -0.003056 -0.797274
    5 -3.890452 0.000004 0.000007 -1.282778 -1.093950 -1.934493
    6 17.848171 0.000000 0.000000 0.000000 0.000000 1.742636
    7 16.525257 0.000000 0.000000 0.201124 -0.009106 -1.286478
    8 6.879454 0.000000 0.000000 -0.080027 -0.004449 -0.864797
    9 0.074226 3.450600 -2.856897 1.482143 -0.280920 1.637418
    10 4.018331 0.000000 0.000000 -0.274704 -0.123138 0.191814
    11 3.518561 0.000000 0.000000 0.059560 0.207876 0.278190
    12 8.942642 0.000000 0.000000 -0.107987 0.028902 0.192532
    13 3.307271 0.000000 0.000000 3.138581 0.000369 0.243536
    14 3.593710 -0.000003 0.000000 0.463639 -0.007603 0.926448
    15 2.033346 1.000767 1.937660 1.610943 -1.389325 2.928279
    16 6.028142 0.000002 0.000000 2.369386 -1.329367 1.516300
    17 11.692556 0.000000 -0.000001 0.000000 0.000000 -0.604047
    18 11.481671 0.000000 -0.000029 -0.474453 0.445054 -0.301610
    19 3.883691 -0.046771 0.431443 0.051679 0.105855 -1.222842
    20 1.719575 0.000000 0.000000 0.000000 -0.042087 -0.822562
    21 1.209183 -0.000001 0.000000 0.000001 -0.015749 -0.401795
    22 3.859861 -0.137948 1.332466 0.356873 -0.322946 -1.012993
    23 1.719428 0.000001 0.000000 0.000000 -0.023172 -0.939253
    24 1.099667 0.000000 0.000000 0.000000 -0.048585 -0.323373
    25 0.806048 -0.348922 1.321258 -1.128462 -0.674204 -0.909169
    26 1.789783 0.000001 0.000001 0.000000 0.029850 0.304195
    27 1.207000 0.000000 0.000001 0.000001 -0.060650 -0.179122
    28 2.033354 1.000771 -1.937610 -2.687427 1.475352 1.919455
    29 6.028142 0.000004 0.000000 1.475011 0.899104 -0.921462
    30 11.692552 0.000000 0.000002 0.000000 0.000000 -2.068811
    31 11.481699 0.000000 0.000004 -1.122202 0.083813 0.698301
    32 3.883657 -0.050329 -0.431043 -0.061447 -0.100578 -1.085197
    33 1.719576 0.000003 0.000000 0.000000 0.041173 -1.040922
    34 1.209180 -0.000001 0.000000 0.000000 0.014977 -1.138950
    35 3.859830 -0.148938 -1.331282 -0.287596 0.134915 -0.509996
    36 1.719426 0.000000 0.000000 -0.000001 0.022873 -0.050927
    37 1.099666 0.000000 0.000000 -0.000001 0.047996 -0.722885
    38 0.806017 -0.359836 -1.318334 0.876234 0.230443 -0.743632
    39 1.789784 0.000000 -0.000001 -0.009077 -0.026971 0.824659
    40 1.206998 0.000000 0.000000 0.033922 0.049330 0.423369
    41 -0.044717 2.313936 4.661499 -0.703798 0.121149 -0.068935
    42 2.676088 -1.712442 0.000000 1.570797 0.000000 1.570797
    43 2.676088 -1.712443 0.000000 -1.570796 0.000000 -1.570796
  time 20
    0 -0.002349 0.379946 34.539451 1.711437 -0.073305 0.114015
    1 3.890452 -0.000004 -0.000003 -1.587315 -0.739597 -1.770024
    2 17.848175 0.000000 0.000000 0.000000 0.000000 1.768570
    3 16.525249 0.000000 0.000000 -0.030972 -0.144719 -1.404765
    4 6.879453 0.000000 0.000000 -0.005300 -0.003056 -0.797274
    5 -3.890452 0.000004 0.000007 -1.322266 -1.010683 -1.882851
    6 17.848171 0.000000 0.000000 0.000000 0.000000 1.554922
    7 16.525257 0.000000 0.000000 0.198691 0.005720 -1.249086
    8 6.879454 0.000000 0.000000 -0.080003 -0.004473 -0.870505
    9 0.074226 3.423255 -2.888148 1.482765 -0.272017 1.637251
    10 4.018331 0.000000 0.000000 -0.274704 -0.123138 0.191814
    11 3.518561 0.000000 0.000000 0.059560 0.207876 0.278190
    12 8.942642 0.000000 0.000000 -0.107987 0.028902 0.192532
    13 3.307271 0.000000 0.000000 3.138581 0.000369 0.243536
    14 3.593710 -0.000003 0.000000 0.463639 -0.007603 0.926448
    15 2.033346 1.000767 1.937660 1.610943 -1.389325 2.928279
    16 6.028142 0.000002 0.000000 2.369386 -1.329367 1.516300
    17 11.692556 0.000000 -0.000001 0.000000 0.000000 -0.604047
    18 11.481671 0.000000 -0.000029 -0.474453 0.445054 -0.301610
    19 3.883691 -0.046771 0.431443 0.051679 0.105855 -1.222842
    20 1.719575 0.000000 0.000000 0.000000 -0.042087 -0.822562
    21 1.209183 -0.000001 0.000000 0.000001 -0.015749 -0.401795
    22 3.859861 -0.137948 1.332466 0.356873 -0.322946 -1.012993
    23 1.719428 0.000001 0.000000 0.000000 -0.023172 -0.939253
    24 1.099667 0.000000 0.000000 0.000000 -0.048585 -0.323373
    25 0.806048 -0.348922 1.321258 -1.128462 -0.674204 -0.909169
    26 1.789783 0.000001 0.000001 0.000000 0.029850 0.304195
    27 1.207000 0.000000 0.000001 0.000001 -0.060650 -0.179122
    28 2.033354 1.000771 -1.937610 -2.687427 1.475352 1.919455
    29 6.028142 0.000004 0.000000 1.475011 0.899104 -0.921462
    30 11.692552 0.000000 0.000002 0.000000 0.000000 -2.068811
    31 11.481699 0.000000 0.000004 -1.122202 0.083813 0.698301
    32 3.883657 -0.050329 -0.431043 -0.061447 -0.100578 -1.085197
    33 1.719576 0.000003 0.000000 0.000000 0.041173 -1.040922
    34 1.209180 -0.000001 0.000000 0.000000 0.014977 -1.138950
    35 3.859830 -0.148938 -1.331282 -0.287596 0.134915 -0.509996
    36 1.719426 0.000000 0.000000 -0.000001 0.022873 -0.050927
    37 1.099666 0.000000 0.000000 -0.000001 0.047996 -0.722885
    38 0.806017 -0.359836 -1.318334 0.876234 0.230443 -0.743632
    39 1.789784 0.000000 -0.000001 -0.009077 -0.026971 0.824659
    40 1.206998 0.000000 0.000000 0.033922 0.049330 0.423369
    41 -0.044717 2.313936 4.661499 -0.601633 0.085283 -0.023454
    42 2.676088 -1.712442 0.000000 1.570797 0.000000 1.570797
    43 2.676088 -1.712443 0.000000 -1.570796 0.000000 -1.570796
  time 21
    0 -0.002349 0.379946 34.539451 1.719388 -0.073305 0.114015
    1 3.890452 -0.000004 -0.000003 -1.579541 -0.605084 -1.745759
    2 17.848175 0.000000 0.000000 0.000000 0.000000 1.432401
    3 16.525249 0.000000 0.000000 -0.009576 -0.126874 -1.501158
    4 6.879453 0.000000 0.000000 -0.005300 -0.003056 -0.797274
    5 -3.890452 0.000004 0.000007 -1.350445 -0.928396 -1.844049
    6 17.848171 0.000000 0.000000 0.000000 0.000000 1.375339
    7 16.525257 0.000000 0.000000 0.196258 0.017072 -1.206084
    8 6.879454 0.000000 0.000000 -0.079979 -0.004497 -0.874604
    9 0.074226 3.399817 -2.915493 1.483296 -0.264101 1.637107
    10 4.018331 0.000000 0.000000 -0.274704 -0.123138 0.191814
    11 3.518561 0.000000 0.000000 0.059560 0.207876 0.278190
    12 8.942642 0.000000 0.000000 -0.107987 0.028902 0.192532
    13 3.307271 0.000000 0.000000 3.138581 0.000369 0.243536
    14 3.593710 -0.000003 0.000000 0.463639 -0.007603 0.926448
    15 2.033346 1.000767 1.937660 1.610943 -1.389325 2.928279
    16 6.028142 0.000002 0.000000 2.369386 -1.329367 1.516300
    17 11.692556 0.000000 -0.000001 0.000000 0.000000 -0.604047
    18 11.481671 0.000000 -0.000029 -0.474453 0.445054 -0.301610
    19 3.883691 -0.046771 0.431443 0.051679 0.105855 -1.222842
    20 1.719575 0.000000 0.000000 0.000000 -0.042087 -0.822562
    21 1.209183 -0.000001 0.000000 0.000001 -0.015749 -0.401795
    22 3.859861 -0.137948 1.332466 0.356873 -0.322946 -1.012993
    23 1.719428 0.000001 0.000000 0.000000 -0.023172 -0.939253
    24 1.099667 0.000000 0.000000 0.000000 -0.048585 -0.323373
    25 0.806048 -0.348922 1.321258 -1.128462 -0.674204 -0.909169
    26 1.789783 0.000001 0.000001 0.000000 0.029850 0.304195
    27 1.207000 0.000000 0.000001 0.000001 -0.060650 -0.179122
    28 2.033354 1.000771 -1.937610 -2.687427 1.475352 1.919455
    29 6.028142 0.000004 0.000000 1.475011 0.899104 -0.921462
    30 11.692552 0.000000 0.000002 0.000000 0.000000 -2.068811
    31 11.481699 0.000000 0.000004 -1.122202 0.083813 0.698301
    32 3.883657 -0.050329 -0.431043 -0.061447 -0.100578 -1.085197
    33 1.719576 0.000003 0.000000 0.000000 0.041173 -1.040922
    34 1.209180 -0.000001 0.000000 0.000000 0.014977 -1.138950
    35 3.859830 -0.148938 -1.331282 -0.287596 0.134915 -0.509996
    36 1.719426 0.000000 0.000000 -0.000001 0.022873 -0.050927
    37 1.099666 0.000000 0.000000 -0.000001 0.047996 -0.722885
    38 0.806017 -0.359836 -1.318334 0.876234 0.230443 -0.743632
    39 1.789784 0.000000 -0.000001 -0.009077 -0.026971 0.824659
    40 1.206998 0.000000 0.000000 0.033922 0.049330 0.423369
    41 -0.044717 2.313936 4.661499 -0.502698 0.051554 0.019858
    42 2.676088 -1.712442 0.000000 1.570797 0.000000 1.570797
    43 2.676088 -1.712443 0.000000 -1.570796 0.000000 -1.570796
  time 22
    0 -0.002349 0.379946 34.539451 1.726195 -0.073305 0.114015
    1 3.890452 -0.000004 -0.000003 -1.572828 -0.444060 -1.729787
    2 17.848175 0.000000 0.000000 0.000000 0.000000 1.061309
    3 16.525249 0.000000 0.000000 -0.001437 -0.117431 -1.503098
    4 6.879453 0.000000 0.000000 -0.005300 -0.003056 -0.797274
    5 -3.890452 0.000004 0.000007 -1.368848 -0.857577 -1.817048
    6 17.848171 0.000000 0.000000 0.000000 0.000000 1.228041
    7 16.525257 0.000000 0.000000 0.194387 0.023855 -1.164152
    8 6.879454 0.000000 0.000000 -0.079967 -0.004509 -0.876946
    9 0.074226 3.380285 -2.938931 1.483772 -0.257290 1.636987
    10 4.018331 0.000000 0.000000 -0.274704 -0.123138 0.191814
    11 3.518561 0.000000 0.000000 0.059560 0.207876 0.278190
    12 8.942642 0.000000 0.000000 -0.107987 0.028902 0.192532
    13 3.307271 0.000000 0.000000 3.138581 0.000369 0.243536
    14 3.593710 -0.000003 0.000000 0.463639 -0.007603 0.926448
    15 2.033346 1.000767 1.937660 1.610943 -1.389325 2.928279
    16 6.028142 0.000002 0.000000 2.369386 -1.329367 1.516300
    17 11.692556 0.000000 -0.000001 0.000000 0.000000 -0.604047
    18 11.481671 0.000000 -0.000029 -0.474453 0.445054 -0.301610
    19 3.883691 -0.046771 0.431443 0.051679 0.105855 -1.222842
    20 1.719575 0.000000 0.000000 0.000000 -0.042087 -0.822562
    21 1.209183 -0.000001 0.000000 0.000001 -0.015749 -0.401795
    22 3.859861 -0.137948 1.332466 0.356873 -0.322946 -1.012993
    23 1.719428 0.000001 0.000000 0.000000 -0.023172 -0.939253
    24 1.099667 0.000000 0.000000 0.000000 -0.048585 -0.323373
    25 0.806048 -0.348922 1.321258 -1.128462 -0.674204 -0.909169
    26 1.789783 0.000001 0.000001 0.000000 0.029850 0.304195
    27 1.207000 0.000000 0.000001 0.000001 -0.060650 -0.179122
    28 2.033354 1.000771 -1.937610 -2.687427 1.475352 1.919455
    29 6.028142 0.000004 0.000000 1.475011 0.899104 -0.921462
    30 11.692552 0.000000 0.000002 0.000000 0.000000 -2.068811
    31 11.481699 0.000000 0.000004 -1.122202 0.083813 0.698301
    32 3.883657 -0.050329 -0.431043 -0.061447 -0.100578 -1.085197
    33 1.719576 0.000003 0.000000 0.000000 0.041173 -1.040922
    34 1.209180 -0.000001 0.000000 0.000000 0.014977 -1.138950
    35 3.859830 -0.148938 -1.331282 -0.287596 0.134915 -0.509996
    36 1.719426 0.000000 0.000000 -0.000001 0.022873 -0.050927
    37 1.099666 0.000000 0.000000 -0.000001 0.047996 -0.722885
    38 0.806017 -0.359836 -1.318334 0.876234 0.230443 -0.743632
    39 1.789784 0.000000 -0.000001 -0.009077 -0.026971 0.824659
    40 1.206998 0.000000 0.000000 0.033922 0.049330 0.423369
    41 -0.044717 2.313936 4.661499 -0.418136 0.023297 0.056459
    42 2.676088 -1.712442 0.000000 1.570797 0.000000 1.570797
    43 2.676088 -1.712443 0.000000 -1.570796 0.000000 -1.570796
  time 23
    0 -0.002349 0.379946 34.539451 1.731792 -0.073305 0.114015
    1 3.890452 -0.000004 -0.000003 -1.566379 -0.390608 -1.725287
    2 17.848175 0.000000 0.000000 0.000000 0.000000 0.946443
    3 16.525249 0.000000 0.000000 -0.004920 -0.117458 -1.491258
    4 6.879453 0.000000 0.000000 -0.005300 -0.003056 -0.797274
    5 -3.890452 0.000004 0.000007 -1.377953 -0.813762 -1.802603
    6 17.848171 0.000000 0.000000 0.000000 0.000000 1.145472
    7 16.525257 0.000000 0.000000 0.193639 0.025394 -1.135573
    8 6.879454 0.000000 0.000000 -0.079991 -0.004473 -0.871354
    9 0.074226 3.364660 -2.958463 1.484157 -0.251734 1.636891
    10 4.018331 0.000000 0.000000 -0.274704 -0.123138 0.191814
    11 3.518561 0.000000 0.000000 0.059560 0.207876 0.278190
    12 8.942642 0.000000 0.000000 -0.107987 0.028902 0.192532
    13 3.307271 0.000000 0.000000 3.138581 0.000369 0.243536
    14 3.593710 -0.000003 0.000000 0.463639 -0.007603 0.926448
    15 2.033346 1.000767 1.937660 1.610943 -1.389325 2.928279
    16 6.028142 0.000002 0.000000 2.369386 -1.329367 1.516300
    17 11.692556 0.000000 -0.000001 0.000000 0.000000 -0.604047
    18 11.481671 0.000000 -0.000029 -0.474453 0.445054 -0.301610
    19 3.883691 -0.046771 0.431443 0.051679 0.105855 -1.222842
    20 1.719575 0.000000 0.000000 0.000000 -0.042087 -0.822562
    21 1.209183 -0.000001 0.000000 0.000001 -0.015749 -0.401795
    22 3.859861 -0.137948 1.332466 0.356873 -0.322946 -1.012993
    23 1.719428 0.000001 0.000000 0.000000 -0.023172 -0.939253
    24 1.099667 0.000000 0.000000 0.000000 -0.048585 -0.323373
    25 0.806048 -0.348922 1.321258 -1.128462 -0.674204 -0.909169
    26 1.789783 0.000001 0.000001 0.000000 0.029850 0.304195
    27 1.207000 0.000000 0.000001 0.000001 -0.060650 -0.179122
    28 2.033354 1.000771 -1.937610 -2.687427 1.475352 1.919455
    29 6.028142 0.000004 0.000000 1.475011 0.899104 -0.921462
    30 11.692552 0.000000 0.000002 0.000000 0.000000 -2.068811
    31 11.481699 0.000000 0.000004 -1.122202 0.083813 0.698301
    32 3.883657 -0.050329 -0.431043 -0.061447 -0.100578 -1.085197
    33 1.719576 0.000003 0.000000 0.000000 0.041173 -1.040922
    34 1.209180 -0.000001 0.000000 0.000000 0.014977 -1.138950
    35 3.859830 -0.148938 -1.331282 -0.287596 0.134915 -0.509996
    36 1.719426 0.000000 0.000000 -0.000001 0.022873 -0.050927
    37 1.099666 0.000000 0.000000 -0.000001 0.047996 -0.722885
    38 0.806017 -0.359836 -1.318334 0.876234 0.230443 -0.743632
    39 1.789784 0.000000 -0.000001 -0.009077 -0.026971 0.824659
    40 1.206998 0.000000 0.000000 0.033922 0.049330 0.423369
    41 -0.044717 2.313936 4.661499 -0.359230 0.003883 0.081759
    42 2.676088 -1.712442 0.000000 1.570797 0.000000 1.570797
    43 2.676088 -1.712443 0.000000 -1.570796 0.000000 -1.570796
  time 24
    0 -0.002349 0.379946 34.539451 1.735927 -0.073305 0.114015
    1 3.890452 -0.000004 -0.000003 -1.560461 -0.394756 -1.727052
    2 17.848175 0.000000 0.000000 0.000000 0.000000 0.950846
    3 16.525249 0.000000 0.000000 -0.008048 -0.121054 -1.496610
    4 6.879453 0.000000 0.000000 -0.005300 -0.003056 -0.797274
    5 -3.890452 0.000004 0.000007 -1.378528 -0.808812 -1.800810
    6 17.848171 0.000000 0.000000 0.000000 0.000000 1.131184
    7 16.525257 0.000000 0.000000 0.193545 0.025487 -1.130124
    8 6.879454 0.000000 0.000000 -0.080303 -0.004197 -0.812395
    9 0.074226 3.352941 -2.970182 1.484431 -0.247584 1.636819
    10 4.018331 0.000000 0.000000 -0.274704 -0.123138 0.191814
    11 3.518561 0.000000 0.000000 0.059560 0.207876 0.278190
    12 8.942642 0.000000 0.000000 -0.107987 0.028902 0.192532
    13 3.307271 0.000000 0.000000 3.138581 0.000369 0.243536
    14 3.593710 -0.000003 0.000000 0.463639 -0.007603 0.926448
    15 2.033346 1.000767 1.937660 1.610943 -1.389325 2.928279
    16 6.028142 0.000002 0.000000 2.369386 -1.329367 1.516300
    17 11.692556 0.000000 -0.000001 0.000000 0.000000 -0.604047
    18 11.481671 0.000000 -0.000029 -0.474453 0.445054 -0.301610
    19 3.883691 -0.046771 0.431443 0.051679 0.105855 -1.222842
    20 1.719575 0.000000 0.000000 0.000000 -0.042087 -0.822562
    21 1.209183 -0.000001 0.000000 0.000001 -0.015749 -0.401795
    22 3.859861 -0.137948 1.332466 0.356873 -0.322946 -1.012993
    23 1.719428 0.000001 0.000000 0.000000 -0.023172 -0.939253
    24 1.099667 0.000000 0.000000 0.000000 -0.048585 -0.323373
    25 0.806048 -0.348922 1.321258 -1.128462 -0.674204 -0.909169
    26 1.789783 0.000001 0.000001 0.000000 0.029850 0.304195
    27 1.207000 0.000000 0.000001 0.000001 -0.060650 -0.179122
    28 2.033354 1.000771 -1.937610 -2.687427 1.475352 1.919455
    29 6.028142 0.000004 0.000000 1.475011 0.899104 -0.921462
    30 11.692552 0.000000 0.000002 0.000000 0.000000 -2.068811
    31 11.481699 0.000000 0.000004 -1.122202 0.083813 0.698301
    32 3.883657 -0.050329 -0.431043 -0.061447 -0.100578 -1.085197
    33 1.719576 0.000003 0.000000 0.000000 0.041173 -1.040922
    34 1.209180 -0.000001 0.000000 0.000000 0.014977 -1.138950
    35 3.859830 -0.148938 -1.331282 -0.287596 0.134915 -0.509996
    36 1.719426 0.000000 0.000000 -0.000001 0.022873 -0.050927
    37 1.099666 0.000000 0.000000 -0.000001 0.047996 -0.722885
    38 0.806017 -0.359836 -1.318334 0.876234 0.230443 -0.743632
    39 1.789784 0.000000 -0.000001 -0.009077 -0.026971 0.824659
    40 1.206998 0.000000 0.000000 0.033922 0.049330 0.423369
    41 -0.044717 2.313936 4.661499 -0.337123 -0.003306 0.091203
    42 2.676088 -1.712442 0.000000 1.570797 0.000000 1.570797
    43 2.676088 -1.712443 0.000000 -1.570796 0.000000 -1.570796
  time 25
    0 -0.002349 0.379946 34.539451 1.738535 -0.073305 0.114015
    1 3.890452 -0.000004 -0.000003 -1.556397 -0.396330 -1.729875
    2 17.848175 0.000000 0.000000 0.000000 0.000000 0.942571
    3 16.525249 0.000000 0.000000 -0.009185 -0.124513 -1.487980
    4 6.879453 0.000000 0.000000 -0.005300 -0.003056 -0.797274
    5 -3.890452 0.000004 0.000007 -1.374886 -0.823956 -1.805341
    6 17.848171 0.000000 0.000000 0.000000 0.000000 1.151077
    7 16.525257 0.000000 0.000000 0.193639 0.025394 -1.137656
    8 6.879454 0.000000 0.000000 -0.080686 -0.003802 -0.735373
    9 0.074226 3.345128 -2.981901 1.484615 -0.244973 1.636771
    10 4.018331 0.000000 0.000000 -0.274704 -0.123138 0.191814
    11 3.518561 0.000000 0.000000 0.059560 0.207876 0.278190
    12 8.942642 0.000000 0.000000 -0.107987 0.028902 0.192532
    13 3.307271 0.000000 0.000000 3.138581 0.000369 0.243536
    14 3.593710 -0.000003 0.000000 0.463639 -0.007603 0.926448
    15 2.033346 1.000767 1.937660 1.610943 -1.389325 2.928279
    16 6.028142 0.000002 0.000000 2.369386 -1.329367 1.516300
    17 11.692556 0.000000 -0.000001 0.000000 0.000000 -0.604047
    18 11.481671 0.000000 -0.000029 -0.474453 0.445054 -0.301610
    19 3.883691 -0.046771 0.431443 0.051679 0.105855 -1.222842
    20 1.719575 0.000000 0.000000 0.000000 -0.042087 -0.822562
    21 1.209183 -0.000001 0.000000 0.000001 -0.015749 -0.401795
    22 3.859861 -0.137948 1.332466 0.356873 -0.322946 -1.012993
    23 1.719428 0.000001 0.000000 0.000000 -0.023172 -0.939253
    24 1.099667 0.000000 0.000000 0.000000 -0.048585 -0.323373
    25 0.806048 -0.348922 1.321258 -1.128462 -0.674204 -0.909169
    26 1.789783 0.000001 0.000001 0.000000 0.029850 0.304195
    27 1.207000 0.000000 0.000001 0.000001 -0.060650 -0.179122
    28 2.033354 1.000771 -1.937610 -2.687427 1.475352 1.919455
    29 6.028142 0.000004 0.000000 1.475011 0.899104 -0.921462
    30 11.692552 0.000000 0.000002 0.000000 0.000000 -2.068811
    31 11.481699 0.000000 0.000004 -1.122202 0.083813 0.698301
    32 3.883657 -0.050329 -0.431043 -0.061447 -0.100578 -1.085197
    33 1.719576 0.000003 0.000000 0.000000 0.041173 -1.040922
    34 1.209180 -0.000001 0.000000 0.000000 0.014977 -1.138950
    35 3.859830 -0.148938 -1.331282 -0.287596 0.134915 -0.509996
    36 1.719426 0.000000 0.000000 -0.000001 0.022873 -0.050927
    37 1.099666 0.000000 0.000000 -0.000001 0.047996 -0.722885
    38 0.806017 -0.359836 -1.318334 0.876234 0.230443 -0.743632
    39 1.789784 0.000000 -0.000001 -0.009077 -0.026971 0.824659
    40 1.206998 0.000000 0.000000 0.033922 0.049330 0.423369
    41 -0.044717 2.313936 4.661499 -0.337123 -0.003306 0.091203
    42 2.676088 -1.712442 0.000000 1.570797 0.000000 1.570797
    43 2.676088 -1.712443 0.000000 -1.570796 0.000000 -1.570796
  time 26
    0 -0.002349 0.379946 34.539451 1.739489 -0.073305 0.114015
    1 3.890452 -0.000004 -0.000003 -1.554807 -0.396425 -1.731376
    2 17.848175 0.000000 0.000000 0.000000 0.000000 0.935814
    3 16.525249 0.000000 0.000000 -0.009363 -0.126106 -1.481157
    4 6.879453 0.000000 0.000000 -0.005300 -0.003056 -0.797274
    5 -3.890452 0.000004 0.000007 -1.372394 -0.834689 -1.808740
    6 17.848171 0.000000 0.000000 0.000000 0.000000 1.166548
    7 16.525257 0.000000 0.000000 0.193732 0.025301 -1.143479
    8 6.879454 0.000000 0.000000 -0.080866 -0.003586 -0.695939
    9 0.074226 3.345128 -2.981901 1.484669 -0.244053 1.636759
    10 4.018331 0.000000 0.000000 -0.274704 -0.123138 0.191814
    11 3.518561 0.000000 0.000000 0.059560 0.207876 0.278190
    12 8.942642 0.000000 0.000000 -0.107987 0.028902 0.192532
    13 3.307271 0.000000 0.000000 3.138581 0.000369 0.243536
    14 3.593710 -0.000003 0.000000 0.463639 -0.007603 0.926448
    15 2.033346 1.000767 1.937660 1.610943 -1.389325 2.928279
    16 6.028142 0.000002 0.000000 2.369386 -1.329367 1.516300
    17 11.692556 0.000000 -0.000001 0.000000 0.000000 -0.604047
    18 11.481671 0.000000 -0.000029 -0.474453 0.445054 -0.301610
    19 3.883691 -0.046771 0.431443 0.051679 0.105855 -1.222842
    20 1.719575 0.000000 0.000000 0.000000 -0.042087 -0.822562
    21 1.209183 -0.000001 0.000000 0.000001 -0.015749 -0.401795
    22 3.859861 -0.137948 1.332466 0.356873 -0.322946 -1.012993
    23 1.719428 0.000001 0.000000 0.000000 -0.023172 -0.939253
    24 1.099667 0.000000 0.000000 0.000000 -0.048585 -0.323373
    25 0.806048 -0.348922 1.321258 -1.128462 -0.674204 -0.909169
    26 1.789783 0.000001 0.000001 0.000000 0.029850 0.304195
    27 1.207000 0.000000 0.000001 0.000001 -0.060650 -0.179122
    28 2.033354 1.000771 -1.937610 -2.687427 1.475352 1.919455
    29 6.028142 0.000004 0.000000 1.475011 0.899104 -0.921462
    30 11.692552 0.000000 0.000002 0.000000 0.000000 -2.068811
    31 11.481699 0.000000 0.000004 -1.122202 0.083813 0.698301
    32 3.883657 -0.050329 -0.431043 -0.061447 -0.100578 -1.085197
    33 1.719576 0.000003 0.000000 0.000000 0.041173 -1.040922
    34 1.209180 -0.000001 0.000000 0.000000 0.014977 -1.138950
    35 3.859830 -0.148938 -1.331282 -0.287596 0.134915 -0.509996
    36 1.719426 0.000000 0.000000 -0.000001 0.022873 -0.050927
    37 1.099666 0.000000 0.000000 -0.000001 0.047996 -0.722885
    38 0.806017 -0.359836 -1.318334 0.876234 0.230443 -0.743632
    39 1.789784 0.000000 -0.000001 -0.009077 -0.026971 0.824659
    40 1.206998 0.000000 0.000000 0.033922 0.049330 0.423369
    41 -0.044717 2.313936 4.661499 -0.337123 -0.003306 0.091203
    42 2.676088 -1.712442 0.000000 1.570797 0.000000 1.570797
    43 2.676088 -1.712443 0.000000 -1.570796 0.000000 -1.570796
end
