// Created by Crowbar 0.68
version 1
nodes
  0 "ValveBiped.Bip01_Pelvis" -1
  1 "ValveBiped.Bip01_L_Thigh" 0
  2 "ValveBiped.Bip01_L_Calf" 1
  3 "ValveBiped.Bip01_L_Foot" 2
  4 "ValveBiped.Bip01_L_Toe0" 3
  5 "ValveBiped.Bip01_R_Thigh" 0
  6 "ValveBiped.Bip01_R_Calf" 5
  7 "ValveBiped.Bip01_R_Foot" 6
  8 "ValveBiped.Bip01_R_Toe0" 7
  9 "ValveBiped.Bip01_Spine" 0
  10 "ValveBiped.Bip01_Spine1" 9
  11 "ValveBiped.Bip01_Spine2" 10
  12 "ValveBiped.Bip01_Spine4" 11
  13 "ValveBiped.Bip01_Neck1" 12
  14 "ValveBiped.Bip01_Head1" 13
  15 "ValveBiped.Bip01_L_Clavicle" 12
  16 "ValveBiped.Bip01_L_UpperArm" 15
  17 "ValveBiped.Bip01_L_Forearm" 16
  18 "ValveBiped.Bip01_L_Hand" 17
  19 "ValveBiped.Bip01_L_Finger2" 18
  20 "ValveBiped.Bip01_L_Finger21" 19
  21 "ValveBiped.Bip01_L_Finger22" 20
  22 "ValveBiped.Bip01_L_Finger1" 18
  23 "ValveBiped.Bip01_L_Finger11" 22
  24 "ValveBiped.Bip01_L_Finger12" 23
  25 "ValveBiped.Bip01_L_Finger0" 18
  26 "ValveBiped.Bip01_L_Finger01" 25
  27 "ValveBiped.Bip01_L_Finger02" 26
  28 "ValveBiped.Bip01_R_Clavicle" 12
  29 "ValveBiped.Bip01_R_UpperArm" 28
  30 "ValveBiped.Bip01_R_Forearm" 29
  31 "ValveBiped.Bip01_R_Hand" 30
  32 "ValveBiped.Bip01_R_Finger2" 31
  33 "ValveBiped.Bip01_R_Finger21" 32
  34 "ValveBiped.Bip01_R_Finger22" 33
  35 "ValveBiped.Bip01_R_Finger1" 31
  36 "ValveBiped.Bip01_R_Finger11" 35
  37 "ValveBiped.Bip01_R_Finger12" 36
  38 "ValveBiped.Bip01_R_Finger0" 31
  39 "ValveBiped.Bip01_R_Finger01" 38
  40 "ValveBiped.Bip01_R_Finger02" 39
  41 "ValveBiped.Cod" 0
  42 "ValveBiped.Anim_Attachment_LH" 18
  43 "ValveBiped.Anim_Attachment_RH" 31
end
skeleton
  time 0
    0 1.610982 -0.330911 38.195812 1.511893 -0.019586 0.001068
    1 3.890452 -0.000004 -0.000003 -1.632543 0.207332 -1.564074
    2 17.848175 0.000000 0.000000 0.000000 0.000000 0.000036
    3 16.525249 0.000000 0.000000 -0.219442 -0.263755 -1.095586
    4 6.879453 0.000000 0.000000 -0.007455 -0.002939 -0.584937
    5 -3.890452 0.000004 0.000007 -1.402202 0.214851 -1.679682
    6 17.848171 0.000000 0.000000 0.000000 0.000000 0.000007
    7 16.525257 0.000000 0.000000 0.218806 0.112716 -1.098394
    8 6.879454 0.000000 0.000000 -0.080207 -0.002975 -0.585398
    9 0.062507 3.345128 -2.981901 1.570796 0.066663 1.551165
    10 4.018331 0.000000 0.000000 0.000112 0.000000 -0.127408
    11 3.518561 0.000000 0.000000 0.044443 -0.003020 0.218066
    12 8.942642 0.000000 0.000000 0.000000 0.000000 0.292266
    13 3.307271 0.000000 0.000000 3.064114 0.060330 0.182169
    14 3.593710 -0.000003 0.000000 0.000000 -0.000001 0.229926
    15 2.033346 1.000767 1.937660 1.596637 -1.286515 2.942961
    16 6.028142 0.000002 0.000000 -0.927545 0.002082 -1.034841
    17 11.692556 0.000000 -0.000001 0.000000 0.000000 -0.334447
    18 11.481671 0.000000 -0.000029 1.847967 0.030807 0.044509
    19 3.883691 -0.046771 0.431443 0.085902 0.021830 -0.587867
    20 1.719575 0.000000 0.000000 0.000000 0.005516 -0.366478
    21 1.209183 -0.000001 0.000000 0.000000 0.003084 -0.216400
    22 3.859861 -0.137948 1.332466 0.354449 -0.042750 -0.531718
    23 1.719428 0.000001 0.000000 0.000000 0.004074 -0.363009
    24 1.099667 0.000000 0.000000 0.000000 0.002596 -0.244331
    25 0.806048 -0.348922 1.321258 -1.296888 -0.306559 -0.650551
    26 1.789783 0.000001 0.000001 -0.000001 -0.287136 0.051807
    27 1.207000 0.000000 0.000001 0.000000 0.011267 0.362860
    28 2.033354 1.000771 -1.937610 -1.668474 1.286518 2.942953
    29 6.028142 0.000004 0.000000 1.316958 -0.009202 -1.009029
    30 11.692552 0.000000 0.000002 0.000000 0.000000 -0.612177
    31 11.481699 0.000000 0.000004 -1.767053 0.057956 0.632151
    32 3.883657 -0.050329 -0.431043 -0.402871 0.046270 -0.600258
    33 1.719576 0.000003 0.000000 -0.133822 -0.007106 -0.484256
    34 1.209180 -0.000001 0.000000 -0.232654 0.350095 -0.393094
    35 3.859830 -0.148938 -1.331282 -0.406968 0.238495 -0.306073
    36 1.719426 0.000000 0.000000 0.003474 -0.005625 -0.621715
    37 1.099666 0.000000 0.000000 0.000167 -0.004206 -0.460295
    38 0.806017 -0.359836 -1.318334 0.726502 0.283516 -1.066701
    39 1.789784 0.000000 -0.000001 0.470744 -0.006283 0.346364
    40 1.206998 0.000000 0.000000 -0.006932 -0.006665 0.421832
    41 -0.044717 2.313936 4.661499 -0.039270 0.000000 0.000000
    42 2.676088 -1.712442 0.000000 1.570797 0.000000 1.570797
    43 2.676088 -1.712443 0.000000 -1.570796 0.000000 -1.570796
  time 1
    0 1.610982 -0.330911 38.195812 1.315530 -0.018983 0.004900
    1 3.890452 -0.000004 -0.000003 -1.615406 -0.013629 -1.513248
    2 17.848175 0.000000 0.000000 0.000000 0.000000 0.750572
    3 16.525249 0.000000 0.000000 -0.327876 -0.110293 -0.964007
    4 6.879453 0.000000 0.000000 -0.003716 -0.003155 -1.055591
    5 -3.890452 0.000004 0.000007 -1.439966 0.000679 -1.767955
    6 17.848171 0.000000 0.000000 0.000000 0.000000 0.740601
    7 16.525257 0.000000 0.000000 0.255575 -0.014841 -0.964797
    8 6.879454 0.000000 0.000000 -0.077750 -0.003155 -1.055610
    9 0.062507 3.345128 -2.981901 1.570796 0.066663 1.551165
    10 4.018331 0.000000 0.000000 0.000112 0.000000 -0.343398
    11 3.518561 0.000000 0.000000 0.044443 -0.003020 0.218066
    12 8.942642 0.000000 0.000000 0.000000 0.000000 0.194096
    13 3.307271 0.000000 0.000000 3.064114 0.060330 -0.132003
    14 3.593710 -0.000003 0.000000 0.000000 -0.000001 0.858129
    15 2.033346 1.000767 1.937660 1.596637 -1.286515 2.942961
    16 6.028142 0.000002 0.000000 -1.264516 -0.436712 -0.726738
    17 11.692556 0.000000 -0.000001 0.000000 0.000000 -1.726743
    18 11.481671 0.000000 -0.000029 0.008750 0.167936 -0.034816
    19 3.883691 -0.046771 0.431443 0.085902 0.021830 -0.587867
    20 1.719575 0.000000 0.000000 0.000000 0.005516 -0.366478
    21 1.209183 -0.000001 0.000000 0.000000 0.003084 -0.216400
    22 3.859861 -0.137948 1.332466 0.354449 -0.042750 -0.531718
    23 1.719428 0.000001 0.000000 0.000000 0.004074 -0.363009
    24 1.099667 0.000000 0.000000 0.000000 0.002596 -0.244331
    25 0.806048 -0.348922 1.321258 -1.296888 -0.306559 -0.650551
    26 1.789783 0.000001 0.000001 -0.000001 -0.287136 0.051807
    27 1.207000 0.000000 0.000001 0.000000 0.011267 0.362860
    28 2.033354 1.000771 -1.937610 -1.668474 1.286518 2.942953
    29 6.028142 0.000004 0.000000 1.720038 0.384361 -0.551545
    30 11.692552 0.000000 0.000002 0.000000 0.000000 -1.967463
    31 11.481699 0.000000 0.000004 -0.677763 0.222076 -0.259229
    32 3.883657 -0.050329 -0.431043 -0.402871 0.046270 -0.600258
    33 1.719576 0.000003 0.000000 -0.133822 -0.007106 -0.484256
    34 1.209180 -0.000001 0.000000 -0.232654 0.350095 -0.393094
    35 3.859830 -0.148938 -1.331282 -0.406968 0.238495 -0.306073
    36 1.719426 0.000000 0.000000 0.003474 -0.005625 -0.621715
    37 1.099666 0.000000 0.000000 0.000167 -0.004206 -0.460295
    38 0.806017 -0.359836 -1.318334 0.726502 0.283516 -1.066701
    39 1.789784 0.000000 -0.000001 0.470744 -0.006283 0.346364
    40 1.206998 0.000000 0.000000 -0.006932 -0.006665 0.421832
    41 -0.044717 2.313936 4.661499 -0.039270 0.000000 0.000000
    42 2.676088 -1.712442 0.000000 1.570797 0.000000 1.570797
    43 2.676088 -1.712443 0.000000 -1.570796 0.000000 -1.570796
  time 2
    0 1.610982 3.719750 38.156749 1.826062 -0.018983 -0.004967
    1 3.890452 -0.000004 -0.000003 -1.650741 -0.510482 -1.531955
    2 17.848175 0.000000 0.000000 0.000000 0.000000 0.557206
    3 16.525249 0.000000 0.000000 -0.262375 -0.221340 -1.077926
    4 6.879453 0.000000 0.000000 -0.005633 -0.003047 -0.755591
    5 -3.890452 0.000004 0.000007 -1.351404 -0.499317 -1.751906
    6 17.848171 0.000000 0.000000 0.000000 0.000000 0.559439
    7 16.525257 0.000000 0.000000 0.224326 0.084324 -1.084666
    8 6.879454 0.000000 0.000000 -0.079656 -0.003047 -0.757007
    9 0.062507 3.345128 -2.981901 1.570796 0.066663 1.551165
    10 4.018331 0.000000 0.000000 0.000112 0.000000 0.206371
    11 3.518561 0.000000 0.000000 0.044461 -0.002996 0.453697
    12 8.942642 0.000000 0.000000 0.000000 0.000000 0.292266
    13 3.307271 0.000000 0.000000 3.071819 0.069821 0.457250
    14 3.593710 -0.000003 0.000000 -0.003498 0.005267 0.112234
    15 2.033346 1.000767 1.937660 1.984645 -1.109234 2.506123
    16 6.028142 0.000002 0.000000 -0.912176 -0.278031 -0.296843
    17 11.692556 0.000000 -0.000001 0.000000 0.000000 -2.024631
    18 11.481671 0.000000 -0.000029 1.416109 0.030807 0.044509
    19 3.883691 -0.046771 0.431443 0.085902 0.021830 -0.587867
    20 1.719575 0.000000 0.000000 0.000000 0.005516 -0.366478
    21 1.209183 -0.000001 0.000000 0.000000 0.003084 -0.216400
    22 3.859861 -0.137948 1.332466 0.354449 -0.042750 -0.531718
    23 1.719428 0.000001 0.000000 0.000000 0.004074 -0.363009
    24 1.099667 0.000000 0.000000 0.000000 0.002596 -0.244331
    25 0.806048 -0.348922 1.321258 -1.296888 -0.306559 -0.650551
    26 1.789783 0.000001 0.000001 -0.000001 -0.287136 0.051807
    27 1.207000 0.000000 0.000001 0.000000 0.011267 0.362860
    28 2.033354 1.000771 -1.937610 -1.890489 1.192875 2.728392
    29 6.028142 0.000004 0.000000 1.138216 0.273322 -0.589788
    30 11.692552 0.000000 0.000002 0.000000 0.000000 -1.982289
    31 11.481699 0.000000 0.000004 -1.320778 -0.074512 0.416367
    32 3.883657 -0.050329 -0.431043 -0.402871 0.046270 -0.600258
    33 1.719576 0.000003 0.000000 -0.133822 -0.007106 -0.484256
    34 1.209180 -0.000001 0.000000 -0.232654 0.350095 -0.393094
    35 3.859830 -0.148938 -1.331282 -0.406968 0.238495 -0.306073
    36 1.719426 0.000000 0.000000 0.003474 -0.005625 -0.621715
    37 1.099666 0.000000 0.000000 0.000167 -0.004206 -0.460295
    38 0.806017 -0.359836 -1.318334 0.726502 0.283516 -1.066701
    39 1.789784 0.000000 -0.000001 0.470744 -0.006283 0.346364
    40 1.206998 0.000000 0.000000 -0.006932 -0.006665 0.421832
    41 -0.044717 2.313936 4.661499 -0.039270 0.000000 0.000000
    42 2.676088 -1.712442 0.000000 1.570797 0.000000 1.570797
    43 2.676088 -1.712443 0.000000 -1.570796 0.000000 -1.570796
  time 3
    0 1.610982 -0.330911 35.754332 1.472646 -0.019537 0.728371
    1 3.890452 -0.000004 -0.000003 -0.959861 -0.169122 -1.699874
    2 17.848175 0.000000 0.000000 0.000000 0.000000 0.787089
    3 16.525249 0.000000 0.000000 -0.159912 -0.231772 -1.659695
    4 6.879453 0.000000 0.000000 -0.007839 -0.003299 -0.584373
    5 -3.890452 0.000004 0.000007 -0.856836 0.028320 -1.863875
    6 17.848171 0.000000 0.000000 0.000000 0.000000 0.925236
    7 16.525257 0.000000 0.000000 0.387868 0.088846 -1.296895
    8 6.879454 0.000000 0.000000 -0.078529 -0.003107 -0.918165
    9 0.062507 3.345128 -2.981901 1.747535 0.066613 1.551717
    10 4.018331 0.000000 0.000000 0.176740 0.005681 -0.126903
    11 3.518561 0.000000 0.000000 0.220771 -0.014909 0.216483
    12 8.942642 0.000000 0.000000 0.170796 -0.045553 0.288367
    13 3.307271 0.000000 0.000000 3.203555 -0.048264 0.183007
    14 3.593710 -0.000003 0.000000 0.535102 0.132655 0.266343
    15 2.033346 1.000767 1.937660 1.596637 -1.286515 2.942961
    16 6.028142 0.000002 0.000000 -1.075854 -0.183281 -0.765913
    17 11.692556 0.000000 -0.000001 0.000000 0.000000 -1.451249
    18 11.481671 0.000000 -0.000029 1.621528 -0.382325 0.597970
    19 3.883691 -0.046771 0.431443 0.085902 0.021830 -0.587867
    20 1.719575 0.000000 0.000000 0.000000 0.005516 -0.366478
    21 1.209183 -0.000001 0.000000 0.000000 0.003084 -0.216400
    22 3.859861 -0.137948 1.332466 0.354449 -0.042750 -0.531718
    23 1.719428 0.000001 0.000000 0.000000 0.004074 -0.363009
    24 1.099667 0.000000 0.000000 0.000000 0.002596 -0.244331
    25 0.806048 -0.348922 1.321258 -1.296888 -0.306559 -0.650551
    26 1.789783 0.000001 0.000001 -0.000001 -0.287136 0.051807
    27 1.207000 0.000000 0.000001 0.000000 0.011267 0.362860
    28 2.033354 1.000771 -1.937610 -1.668474 1.286518 2.942953
    29 6.028142 0.000004 0.000000 1.839774 -0.046862 -0.711727
    30 11.692552 0.000000 0.000002 0.000000 0.000000 -2.066108
    31 11.481699 0.000000 0.000004 -0.758998 -0.317622 -0.043102
    32 3.883657 -0.050329 -0.431043 -0.402871 0.046270 -0.600258
    33 1.719576 0.000003 0.000000 -0.133822 -0.007106 -0.484256
    34 1.209180 -0.000001 0.000000 -0.232654 0.350095 -0.393094
    35 3.859830 -0.148938 -1.331282 -0.406968 0.238495 -0.306073
    36 1.719426 0.000000 0.000000 0.003474 -0.005625 -0.621715
    37 1.099666 0.000000 0.000000 0.000167 -0.004206 -0.460295
    38 0.806017 -0.359836 -1.318334 0.726502 0.283516 -1.066701
    39 1.789784 0.000000 -0.000001 0.470744 -0.006283 0.346364
    40 1.206998 0.000000 0.000000 -0.006932 -0.006665 0.421832
    41 -0.044717 2.313936 4.661499 -0.039270 0.000000 0.000000
    42 2.676088 -1.712442 0.000000 1.570797 0.000000 1.570797
    43 2.676088 -1.712443 0.000000 -1.570796 0.000000 -1.570796
  time 4
    0 1.610982 -0.330911 36.277785 1.374433 -0.019243 -0.604859
    1 3.890452 -0.000004 -0.000003 -2.244361 0.066573 -1.361830
    2 17.848175 0.000000 0.000000 0.000000 0.000000 0.888821
    3 16.525249 0.000000 0.000000 -0.291554 -0.104885 -1.267434
    4 6.879453 0.000000 0.000000 -0.004495 -0.003107 -0.918145
    5 -3.890452 0.000004 0.000007 -2.102743 -0.059946 -1.576682
    6 17.848171 0.000000 0.000000 0.000000 0.000000 0.697501
    7 16.525257 0.000000 0.000000 0.240325 0.217615 -1.568844
    8 6.879454 0.000000 0.000000 -0.081741 -0.003227 -0.584373
    9 0.062507 3.345128 -2.981901 1.433330 0.066630 1.550746
    10 4.018331 0.000000 0.000000 -0.137242 -0.004422 -0.127112
    11 3.518561 0.000000 0.000000 -0.092664 0.006292 0.217849
    12 8.942642 0.000000 0.000000 -0.132802 0.035498 0.289908
    13 3.307271 0.000000 0.000000 2.954532 0.144072 0.170973
    14 3.593710 -0.000003 0.000000 -0.266329 -0.068766 0.239107
    15 2.033346 1.000767 1.937660 1.596637 -1.286515 2.942961
    16 6.028142 0.000002 0.000000 -1.932895 -0.104354 -0.556581
    17 11.692556 0.000000 -0.000001 0.000000 0.000000 -1.826723
    18 11.481671 0.000000 -0.000029 0.605134 0.323706 -0.328404
    19 3.883691 -0.046771 0.431443 0.085902 0.021830 -0.587867
    20 1.719575 0.000000 0.000000 0.000000 0.005516 -0.366478
    21 1.209183 -0.000001 0.000000 0.000000 0.003084 -0.216400
    22 3.859861 -0.137948 1.332466 0.354449 -0.042750 -0.531718
    23 1.719428 0.000001 0.000000 0.000000 0.004074 -0.363009
    24 1.099667 0.000000 0.000000 0.000000 0.002596 -0.244331
    25 0.806048 -0.348922 1.321258 -1.296888 -0.306559 -0.650551
    26 1.789783 0.000001 0.000001 -0.000001 -0.287136 0.051807
    27 1.207000 0.000000 0.000001 0.000000 0.011267 0.362860
    28 2.033354 1.000771 -1.937610 -1.625964 1.051553 2.988802
    29 6.028142 0.000004 0.000000 1.487558 -0.117446 -0.506091
    30 11.692552 0.000000 0.000002 0.000000 0.000000 -1.265593
    31 11.481699 0.000000 0.000004 -1.290460 0.308928 0.063934
    32 3.883657 -0.050329 -0.431043 -0.402871 0.046270 -0.600258
    33 1.719576 0.000003 0.000000 -0.133822 -0.007106 -0.484256
    34 1.209180 -0.000001 0.000000 -0.232654 0.350095 -0.393094
    35 3.859830 -0.148938 -1.331282 -0.406968 0.238495 -0.306073
    36 1.719426 0.000000 0.000000 0.003474 -0.005625 -0.621715
    37 1.099666 0.000000 0.000000 0.000167 -0.004206 -0.460295
    38 0.806017 -0.359836 -1.318334 0.726502 0.283516 -1.066701
    39 1.789784 0.000000 -0.000001 0.470744 -0.006283 0.346364
    40 1.206998 0.000000 0.000000 -0.006932 -0.006665 0.421832
    41 -0.044717 2.313936 4.661499 -0.039270 0.000000 0.000000
    42 2.676088 -1.712442 0.000000 1.570797 0.000000 1.570797
    43 2.676088 -1.712443 0.000000 -1.570796 0.000000 -1.570796
  time 5
    0 1.610982 6.152598 36.777800 1.629699 -0.019586 0.784222
    1 3.890452 -0.000004 -0.000003 -1.707983 -0.454598 -1.596105
    2 17.848175 0.000000 0.000000 0.000000 0.000000 0.608831
    3 16.525249 0.000000 0.000000 0.116450 0.121466 -1.408378
    4 6.879453 0.000000 0.000000 -0.007898 -0.003346 -0.584373
    5 -3.890452 0.000004 0.000007 -0.605815 -0.106358 -1.890404
    6 17.848171 0.000000 0.000000 0.000000 0.000000 0.622983
    7 16.525257 0.000000 0.000000 0.234992 0.101760 -1.310783
    8 6.879454 0.000000 0.000000 -0.081333 -0.002951 -0.584373
    9 0.062507 3.345128 -2.981901 1.629715 0.105923 1.551345
    10 4.018331 0.000000 0.000000 0.000112 0.000000 -0.048865
    11 3.518561 0.000000 0.000000 0.044443 -0.003020 0.159170
    12 8.942642 0.000000 0.000000 0.000000 0.000000 0.351166
    13 3.307271 0.000000 0.000000 3.064114 0.060330 0.182169
    14 3.593710 -0.000003 0.000000 -0.400299 -0.101641 0.191661
    15 2.033346 1.000767 1.937660 2.450562 -1.115283 2.037972
    16 6.028142 0.000002 0.000000 -1.400850 0.021850 -0.808614
    17 11.692556 0.000000 -0.000001 0.000000 0.000000 -0.856341
    18 11.481671 0.000000 -0.000029 1.416300 -0.381494 0.043521
    19 3.883691 -0.046771 0.431443 0.085902 0.021830 -0.587867
    20 1.719575 0.000000 0.000000 0.000000 0.005516 -0.366478
    21 1.209183 -0.000001 0.000000 0.000000 0.003084 -0.216400
    22 3.859861 -0.137948 1.332466 0.354449 -0.042750 -0.531718
    23 1.719428 0.000001 0.000000 0.000000 0.004074 -0.363009
    24 1.099667 0.000000 0.000000 0.000000 0.002596 -0.244331
    25 0.806048 -0.348922 1.321258 -1.296888 -0.306559 -0.650551
    26 1.789783 0.000001 0.000001 -0.000001 -0.287136 0.051807
    27 1.207000 0.000000 0.000001 0.000000 0.011267 0.362860
    28 2.033354 1.000771 -1.937610 -1.714913 1.245183 2.893861
    29 6.028142 0.000004 0.000000 1.800692 -0.307264 -1.028957
    30 11.692552 0.000000 0.000002 0.000000 0.000000 -1.580114
    31 11.481699 0.000000 0.000004 -2.231144 0.387471 0.065018
    32 3.883657 -0.050329 -0.431043 -0.402871 0.046270 -0.600258
    33 1.719576 0.000003 0.000000 -0.133822 -0.007106 -0.484256
    34 1.209180 -0.000001 0.000000 -0.232654 0.350095 -0.393094
    35 3.859830 -0.148938 -1.331282 -0.406968 0.238495 -0.306073
    36 1.719426 0.000000 0.000000 0.003474 -0.005625 -0.621715
    37 1.099666 0.000000 0.000000 0.000167 -0.004206 -0.460295
    38 0.806017 -0.359836 -1.318334 0.726502 0.283516 -1.066701
    39 1.789784 0.000000 -0.000001 0.470744 -0.006283 0.346364
    40 1.206998 0.000000 0.000000 -0.006932 -0.006665 0.421832
    41 -0.044717 2.313936 4.661499 -0.039270 0.000000 0.000000
    42 2.676088 -1.712442 0.000000 1.570797 0.000000 1.570797
    43 2.676088 -1.712443 0.000000 -1.570796 0.000000 -1.570796
  time 6
    0 0.610951 5.288539 36.668422 1.511893 -0.019586 -0.529082
    1 3.890452 -0.000004 -0.000003 -2.160177 -0.125254 -1.375419
    2 17.848175 0.000000 0.000000 0.000000 0.000000 0.648613
    3 16.525249 0.000000 0.000000 -0.254059 -0.239624 -1.317804
    4 6.879453 0.000000 0.000000 -0.007299 -0.002951 -0.584373
    5 -3.890452 0.000004 0.000007 -1.269359 -0.330332 -1.716691
    6 17.848171 0.000000 0.000000 0.000000 0.000000 0.679424
    7 16.525257 0.000000 0.000000 -0.080396 -0.217225 -1.425578
    8 6.879454 0.000000 0.000000 -0.081801 -0.003263 -0.584373
    9 0.062507 3.345128 -2.981901 1.570796 0.066663 1.551165
    10 4.018331 0.000000 0.000000 0.000112 0.000000 -0.009619
    11 3.518561 0.000000 0.000000 0.044443 -0.003020 0.218066
    12 8.942642 0.000000 0.000000 0.000000 0.000000 0.292266
    13 3.307271 0.000000 0.000000 3.064114 0.060330 0.182169
    14 3.593710 -0.000003 0.000000 0.218860 0.016225 0.235965
    15 2.033346 1.000767 1.937660 1.596637 -1.286515 2.942961
    16 6.028142 0.000002 0.000000 -1.582253 0.240712 -0.947117
    17 11.692556 0.000000 -0.000001 0.000000 0.000000 -1.282909
    18 11.481671 0.000000 -0.000029 1.847967 0.030807 0.044509
    19 3.883691 -0.046771 0.431443 0.085902 0.021830 -0.587867
    20 1.719575 0.000000 0.000000 0.000000 0.005516 -0.366478
    21 1.209183 -0.000001 0.000000 0.000000 0.003084 -0.216400
    22 3.859861 -0.137948 1.332466 0.354449 -0.042750 -0.531718
    23 1.719428 0.000001 0.000000 0.000000 0.004074 -0.363009
    24 1.099667 0.000000 0.000000 0.000000 0.002596 -0.244331
    25 0.806048 -0.348922 1.321258 -1.296888 -0.306559 -0.650551
    26 1.789783 0.000001 0.000001 -0.000001 -0.287136 0.051807
    27 1.207000 0.000000 0.000001 0.000000 0.011267 0.362860
    28 2.033354 1.000771 -1.937610 -1.668474 1.286518 2.942953
    29 6.028142 0.000004 0.000000 1.100571 0.308567 -0.717800
    30 11.692552 0.000000 0.000002 0.000000 0.000000 -1.643395
    31 11.481699 0.000000 0.000004 -1.767053 0.057956 0.632151
    32 3.883657 -0.050329 -0.431043 -0.402871 0.046270 -0.600258
    33 1.719576 0.000003 0.000000 -0.133822 -0.007106 -0.484256
    34 1.209180 -0.000001 0.000000 -0.232654 0.350095 -0.393094
    35 3.859830 -0.148938 -1.331282 -0.406968 0.238495 -0.306073
    36 1.719426 0.000000 0.000000 0.003474 -0.005625 -0.621715
    37 1.099666 0.000000 0.000000 0.000167 -0.004206 -0.460295
    38 0.806017 -0.359836 -1.318334 0.726502 0.283516 -1.066701
    39 1.789784 0.000000 -0.000001 0.470744 -0.006283 0.346364
    40 1.206998 0.000000 0.000000 -0.006932 -0.006665 0.421832
    41 -0.044717 2.313936 4.661499 -0.039270 0.000000 0.000000
    42 2.676088 -1.712442 0.000000 1.570797 0.000000 1.570797
    43 2.676088 -1.712443 0.000000 -1.570796 0.000000 -1.570796
end
