// Created by Crowbar 0.68
version 1
nodes
  0 "ValveBiped.Bip01_Pelvis" -1
  1 "ValveBiped.Bip01_L_Thigh" 0
  2 "ValveBiped.Bip01_L_Calf" 1
  3 "ValveBiped.Bip01_L_Foot" 2
  4 "ValveBiped.Bip01_L_Toe0" 3
  5 "ValveBiped.Bip01_R_Thigh" 0
  6 "ValveBiped.Bip01_R_Calf" 5
  7 "ValveBiped.Bip01_R_Foot" 6
  8 "ValveBiped.Bip01_R_Toe0" 7
  9 "ValveBiped.Bip01_Spine" 0
  10 "ValveBiped.Bip01_Spine1" 9
  11 "ValveBiped.Bip01_Spine2" 10
  12 "ValveBiped.Bip01_Spine4" 11
  13 "ValveBiped.Bip01_Neck1" 12
  14 "ValveBiped.Bip01_Head1" 13
  15 "ValveBiped.Bip01_L_Clavicle" 12
  16 "ValveBiped.Bip01_L_UpperArm" 15
  17 "ValveBiped.Bip01_L_Forearm" 16
  18 "ValveBiped.Bip01_L_Hand" 17
  19 "ValveBiped.Bip01_L_Finger2" 18
  20 "ValveBiped.Bip01_L_Finger21" 19
  21 "ValveBiped.Bip01_L_Finger22" 20
  22 "ValveBiped.Bip01_L_Finger1" 18
  23 "ValveBiped.Bip01_L_Finger11" 22
  24 "ValveBiped.Bip01_L_Finger12" 23
  25 "ValveBiped.Bip01_L_Finger0" 18
  26 "ValveBiped.Bip01_L_Finger01" 25
  27 "ValveBiped.Bip01_L_Finger02" 26
  28 "ValveBiped.Bip01_R_Clavicle" 12
  29 "ValveBiped.Bip01_R_UpperArm" 28
  30 "ValveBiped.Bip01_R_Forearm" 29
  31 "ValveBiped.Bip01_R_Hand" 30
  32 "ValveBiped.Bip01_R_Finger2" 31
  33 "ValveBiped.Bip01_R_Finger21" 32
  34 "ValveBiped.Bip01_R_Finger22" 33
  35 "ValveBiped.Bip01_R_Finger1" 31
  36 "ValveBiped.Bip01_R_Finger11" 35
  37 "ValveBiped.Bip01_R_Finger12" 36
  38 "ValveBiped.Bip01_R_Finger0" 31
  39 "ValveBiped.Bip01_R_Finger01" 38
  40 "ValveBiped.Bip01_R_Finger02" 39
  41 "ValveBiped.Cod" 0
end
skeleton
  time 0
    0 0.017183 -0.020310 36.364441 1.570626 0.000000 -0.746639
    1 3.890452 -0.000004 -0.000003 -2.211572 -0.286262 -1.275004
    2 17.848177 0.000000 0.000000 0.000000 0.000000 0.694007
    3 15.638507 0.000000 0.000000 0.038170 0.167534 -1.231524
    4 7.109929 0.000000 0.000000 -0.007119 -0.003131 -0.631738
    5 -3.890452 0.000004 0.000007 -1.497383 -0.223439 -1.650471
    6 17.848173 0.000000 0.000000 0.000000 0.000000 0.691299
    7 15.638511 0.000000 0.000000 0.028049 -0.075405 -1.394802
    8 7.109930 0.000000 0.000000 -0.081154 -0.003131 -0.631749
    9 0.000005 3.345128 -2.981901 1.570796 0.086293 1.570796
    10 4.018331 0.000000 0.000000 -0.011799 -0.120110 0.193933
    11 3.518565 0.000000 0.000000 -0.039210 -0.083509 0.333403
    12 8.942642 0.000000 0.000000 -0.078838 0.112907 0.222365
    13 3.306641 0.000002 0.000000 3.138800 0.000567 0.400476
    14 3.593712 -0.000001 0.000000 0.646338 0.007580 0.744721
    15 2.033346 1.000768 1.101697 2.385451 -1.528127 2.146508
    16 6.809416 0.000001 0.000000 -2.427864 -0.866011 -0.286796
    17 12.391796 0.000000 0.000001 0.000000 0.000000 -1.741803
    18 9.337076 0.000000 -0.000031 0.948468 -0.056371 1.195630
    19 4.454020 -0.070210 0.572073 0.095490 -0.008587 -0.706335
    20 1.426597 -0.000001 0.000000 0.055908 -0.087976 -1.504206
    21 1.322468 -0.000002 0.000000 0.009312 -0.033625 -0.575065
    22 4.477066 -0.028570 1.582474 0.481653 -0.035390 -1.246096
    23 1.344418 0.000000 0.000000 0.023466 -0.208305 -0.755723
    24 1.224671 0.000000 0.000000 0.026043 -0.124620 -0.538676
    25 2.630323 -0.345015 1.907214 -0.354022 -0.915164 -1.788195
    26 1.059292 0.000000 0.000001 -0.001067 -0.012855 0.250988
    27 0.781203 0.000000 0.000000 -0.000096 -0.003210 0.062757
    28 2.033353 1.000771 -1.101647 -3.176988 1.193701 1.415651
    29 6.809417 0.000001 0.000000 1.295621 0.979466 -0.810853
    30 12.391794 0.000000 0.000001 0.000000 0.000000 -1.899924
    31 9.337102 0.000000 0.000003 -0.842122 0.065489 0.390440
    32 4.453986 -0.073766 -0.571672 0.047699 -0.153453 -0.767464
    33 1.426599 0.000002 0.000000 -0.053883 0.078890 -1.553256
    34 1.322465 -0.000001 0.000000 -0.013603 0.036958 -0.732277
    35 4.477036 -0.043465 -1.581290 -0.332631 0.218360 0.154973
    36 1.344414 0.000000 0.000000 -0.042629 0.220735 -0.851579
    37 1.224670 0.000001 0.000000 0.008150 -0.000004 -0.000025
    38 2.630291 -0.359835 -1.904289 0.415078 0.423437 -0.720800
    39 1.059293 0.000000 0.000000 0.015101 0.038905 0.767148
    40 0.781204 0.000000 0.000000 0.004782 0.022537 0.418308
    41 -0.044717 2.528787 4.661499 -0.038945 0.037199 0.009860
  time 1
    0 0.013277 -3.748069 31.362556 1.562640 -0.015430 -0.479512
    1 3.890452 -0.000004 -0.000003 -2.287446 -0.433028 -1.133935
    2 17.848177 0.000000 0.000000 0.000000 0.000000 1.261573
    3 15.638507 0.000000 0.000000 0.219144 0.406953 -1.554867
    4 7.109929 0.000000 0.000000 -0.007119 -0.003131 -0.631738
    5 -3.890452 0.000004 0.000007 -1.514639 -0.306590 -1.673080
    6 17.848173 0.000000 0.000000 0.000000 0.000000 1.245404
    7 15.638511 0.000000 0.000000 0.222426 0.117280 -1.696390
    8 7.109930 0.000000 0.000000 -0.080638 -0.003730 -0.782257
    9 0.000005 3.345128 -2.981901 1.713922 -0.133787 1.537933
    10 4.018331 0.000000 0.000000 0.199408 -0.135630 0.280152
    11 3.518565 0.000000 0.000000 -0.166340 -0.079458 0.357277
    12 8.942642 0.000000 0.000000 0.212285 0.056004 0.217879
    13 3.306641 0.000002 0.000000 3.138800 0.000567 0.400476
    14 3.593712 -0.000001 0.000000 0.106739 0.021007 0.698934
    15 2.033346 1.000768 1.101697 2.385451 -1.528127 2.146508
    16 6.809416 0.000001 0.000000 -2.192132 -1.027316 -0.469116
    17 12.391796 0.000000 0.000001 0.000000 0.000000 -1.803462
    18 9.337076 0.000000 -0.000031 1.086401 -0.708269 0.612555
    19 4.454020 -0.070210 0.572073 0.095490 -0.008587 -0.706366
    20 1.426597 -0.000001 0.000000 0.055908 -0.087976 -1.504206
    21 1.322468 -0.000002 0.000000 0.009312 -0.033625 -0.575065
    22 4.477066 -0.028570 1.582474 0.481653 -0.035390 -1.246096
    23 1.344418 0.000000 0.000000 0.023466 -0.208305 -0.755723
    24 1.224671 0.000000 0.000000 0.026043 -0.124620 -0.538676
    25 2.630323 -0.345015 1.907214 -0.354022 -0.915164 -1.788195
    26 1.059292 0.000000 0.000001 -0.001067 -0.012855 0.250988
    27 0.781203 0.000000 0.000000 -0.000096 -0.003210 0.062757
    28 2.033353 1.000771 -1.101647 -3.176988 1.193701 1.415651
    29 6.809417 0.000001 0.000000 1.700622 0.997993 -0.210490
    30 12.391794 0.000000 0.000001 0.000000 0.000000 -1.260548
    31 9.337102 0.000000 0.000003 -1.210474 0.257177 -0.710555
    32 4.453986 -0.073766 -0.571672 0.047699 -0.153453 -0.767464
    33 1.426599 0.000002 0.000000 -0.053883 0.078890 -1.553256
    34 1.322465 -0.000001 0.000000 -0.013603 0.036958 -0.732277
    35 4.477036 -0.043465 -1.581290 -0.332631 0.218360 0.154973
    36 1.344414 0.000000 0.000000 -0.042629 0.220735 -0.851579
    37 1.224670 0.000001 0.000000 0.008150 -0.000004 -0.000025
    38 2.630291 -0.359835 -1.904289 0.415078 0.423437 -0.720800
    39 1.059293 0.000000 0.000000 0.015101 0.038905 0.767148
    40 0.781204 0.000000 0.000000 0.004782 0.022537 0.418308
    41 -0.044717 2.528787 4.661499 0.185215 0.175924 0.004369
  time 2
    0 0.017183 -5.972536 28.429351 1.554145 -0.029289 -0.319102
    1 3.890452 -0.000004 -0.000003 -2.306630 -0.474522 -1.087647
    2 17.848177 0.000000 0.000000 0.000000 0.000000 1.489213
    3 15.638507 0.000000 0.000000 0.325045 0.539449 -1.673524
    4 7.109929 0.000000 0.000000 -0.007119 -0.003131 -0.631738
    5 -3.890452 0.000004 0.000007 -1.503198 -0.182159 -1.676580
    6 17.848173 0.000000 0.000000 0.000000 0.000000 1.440775
    7 15.638511 0.000000 0.000000 0.363530 0.136075 -1.761234
    8 7.109930 0.000000 0.000000 -0.079368 -0.004677 -1.083363
    9 0.000005 3.345128 -2.981901 1.633467 -0.284440 1.472738
    10 4.018331 0.000000 0.000000 0.346601 -0.161313 0.335950
    11 3.518565 0.000000 0.000000 0.304499 -0.128487 0.362776
    12 8.942642 0.000000 0.000000 0.415979 0.018133 0.205161
    13 3.306641 0.000002 0.000000 3.138800 0.000567 0.400476
    14 3.593712 -0.000001 0.000000 -0.649671 0.080817 0.722226
    15 2.033346 1.000768 1.101697 2.385451 -1.528127 2.146508
    16 6.809416 0.000001 0.000000 0.041244 -1.228762 -2.535413
    17 12.391796 0.000000 0.000001 0.000000 0.000000 -0.938580
    18 9.337076 0.000000 -0.000031 1.969228 -0.953034 -1.083588
    19 4.454020 -0.070210 0.572073 0.095490 -0.008587 -0.706335
    20 1.426597 -0.000001 0.000000 0.055908 -0.087976 -1.504206
    21 1.322468 -0.000002 0.000000 0.009312 -0.033625 -0.575065
    22 4.477066 -0.028570 1.582474 0.481653 -0.035390 -1.246096
    23 1.344418 0.000000 0.000000 0.023466 -0.208305 -0.755723
    24 1.224671 0.000000 0.000000 0.026043 -0.124620 -0.538676
    25 2.630323 -0.345015 1.907214 -0.354022 -0.915164 -1.788195
    26 1.059292 0.000000 0.000001 -0.001067 -0.012855 0.250988
    27 0.781203 0.000000 0.000000 -0.000096 -0.003210 0.062757
    28 2.033353 1.000771 -1.101647 -3.176988 1.193701 1.415651
    29 6.809417 0.000001 0.000000 1.638438 0.444158 0.102121
    30 12.391794 0.000000 0.000001 0.000000 0.000000 -0.830108
    31 9.337102 0.000000 0.000003 -1.693652 0.525615 -1.597758
    32 4.453986 -0.073766 -0.571672 0.047699 -0.153453 -0.767464
    33 1.426599 0.000002 0.000000 -0.053883 0.078890 -1.553256
    34 1.322465 -0.000001 0.000000 -0.013603 0.036958 -0.732277
    35 4.477036 -0.043465 -1.581290 -0.332631 0.218360 0.154973
    36 1.344414 0.000000 0.000000 -0.042629 0.220735 -0.851579
    37 1.224670 0.000001 0.000000 0.008150 -0.000004 -0.000025
    38 2.630291 -0.359835 -1.904289 0.415078 0.423437 -0.720800
    39 1.059293 0.000000 0.000000 0.015101 0.038905 0.767148
    40 0.781204 0.000000 0.000000 0.004782 0.022537 0.418308
    41 -0.044717 2.528787 4.661499 0.333896 0.091234 -0.057676
  time 3
    0 0.032809 -5.850648 28.635190 1.549642 -0.045089 -0.325419
    1 3.890452 -0.000004 -0.000003 -2.300808 -0.460328 -1.111031
    2 17.848177 0.000000 0.000000 0.000000 0.000000 1.466098
    3 15.638507 0.000000 0.000000 0.318873 0.536660 -1.664483
    4 7.109929 0.000000 0.000000 -0.007119 -0.003131 -0.631738
    5 -3.890452 0.000004 0.000007 -1.513686 -0.186882 -1.694932
    6 17.848173 0.000000 0.000000 0.000000 0.000000 1.502026
    7 15.638511 0.000000 0.000000 0.391881 0.071042 -1.625434
    8 7.109930 0.000000 0.000000 -0.078637 -0.005000 -1.233872
    9 0.000005 3.345128 -2.981901 1.650119 -0.279420 1.460680
    10 4.018331 0.000000 0.000000 0.329604 -0.150946 0.316382
    11 3.518565 0.000000 0.000000 0.291771 -0.127216 0.341137
    12 8.942642 0.000000 0.000000 0.369878 0.026462 0.208697
    13 3.306641 0.000002 0.000000 3.138800 0.000567 0.400476
    14 3.593712 -0.000001 0.000000 -0.575460 0.034455 0.655204
    15 2.033346 1.000768 1.101697 2.385451 -1.528127 2.146508
    16 6.809416 0.000001 0.000000 0.358262 -1.240869 -2.837955
    17 12.391796 0.000000 0.000001 0.000000 0.000000 -0.090334
    18 9.337076 0.000000 -0.000031 0.407797 -0.879184 -0.260672
    19 4.454020 -0.070210 0.572073 0.095490 -0.008587 -0.706335
    20 1.426597 -0.000001 0.000000 0.055908 -0.087976 -1.504206
    21 1.322468 -0.000002 0.000000 0.009312 -0.033625 -0.575065
    22 4.477066 -0.028570 1.582474 0.481653 -0.035390 -1.246096
    23 1.344418 0.000000 0.000000 0.023466 -0.208305 -0.755723
    24 1.224671 0.000000 0.000000 0.026043 -0.124620 -0.538676
    25 2.630323 -0.345015 1.907214 -0.354022 -0.915164 -1.788195
    26 1.059292 0.000000 0.000001 -0.001067 -0.012855 0.250988
    27 0.781203 0.000000 0.000000 -0.000096 -0.003210 0.062757
    28 2.033353 1.000771 -1.101647 -3.176988 1.193701 1.415651
    29 6.809417 0.000001 0.000000 1.424059 0.175671 0.005344
    30 12.391794 0.000000 0.000001 0.000000 0.000000 -1.549495
    31 9.337102 0.000000 0.000003 -1.110305 0.367544 -0.429500
    32 4.453986 -0.073766 -0.571672 0.047699 -0.153453 -0.767464
    33 1.426599 0.000002 0.000000 -0.053883 0.078890 -1.553256
    34 1.322465 -0.000001 0.000000 -0.013603 0.036958 -0.732277
    35 4.477036 -0.043465 -1.581290 -0.332631 0.218360 0.154973
    36 1.344414 0.000000 0.000000 -0.042629 0.220735 -0.851579
    37 1.224670 0.000001 0.000000 0.008150 -0.000004 -0.000025
    38 2.630291 -0.359835 -1.904289 0.415078 0.423437 -0.720800
    39 1.059293 0.000000 0.000000 0.015101 0.038905 0.767148
    40 0.781204 0.000000 0.000000 0.004782 0.022537 0.418308
    41 -0.044717 2.528787 4.661499 0.329536 0.107435 -0.065531
  time 4
    0 0.052340 -5.556084 29.077744 1.545139 -0.063152 -0.343509
    1 3.890452 -0.000004 -0.000003 -2.293364 -0.441829 -1.141889
    2 17.848177 0.000000 0.000000 0.000000 0.000000 1.421550
    3 15.638507 0.000000 0.000000 0.304789 0.524039 -1.643267
    4 7.109929 0.000000 0.000000 -0.007119 -0.003131 -0.631738
    5 -3.890452 0.000004 0.000007 -1.523125 -0.196427 -1.710352
    6 17.848173 0.000000 0.000000 0.000000 0.000000 1.492765
    7 15.638511 0.000000 0.000000 0.382245 0.069222 -1.604997
    8 7.109930 0.000000 0.000000 -0.078637 -0.005000 -1.231810
    9 0.000005 3.345128 -2.981901 1.672051 -0.270883 1.448208
    10 4.018331 0.000000 0.000000 0.307497 -0.139009 0.292884
    11 3.518565 0.000000 0.000000 0.264282 -0.125179 0.316517
    12 8.942642 0.000000 0.000000 0.313771 0.036805 0.212496
    13 3.306641 0.000002 0.000000 3.138800 0.000567 0.400476
    14 3.593712 -0.000001 0.000000 -0.471422 -0.001736 0.580753
    15 2.033346 1.000768 1.101697 2.385451 -1.528127 2.146508
    16 6.809416 0.000001 0.000000 -1.054310 -1.067409 -1.315022
    17 12.391796 0.000000 0.000001 0.000000 0.000000 -1.269268
    18 9.337076 0.000000 -0.000031 0.560809 -1.020112 0.476797
    19 4.454020 -0.070210 0.572073 0.095490 -0.008587 -0.706366
    20 1.426597 -0.000001 0.000000 0.055908 -0.087976 -1.504206
    21 1.322468 -0.000002 0.000000 0.009312 -0.033625 -0.575065
    22 4.477066 -0.028570 1.582474 0.481653 -0.035390 -1.246096
    23 1.344418 0.000000 0.000000 0.023466 -0.208305 -0.755723
    24 1.224671 0.000000 0.000000 0.026043 -0.124620 -0.538676
    25 2.630323 -0.345015 1.907214 -0.354022 -0.915164 -1.788195
    26 1.059292 0.000000 0.000001 -0.001067 -0.012855 0.250988
    27 0.781203 0.000000 0.000000 -0.000096 -0.003210 0.062757
    28 2.033353 1.000771 -1.101647 -3.176988 1.193701 1.415651
    29 6.809417 0.000001 0.000000 1.310954 0.388314 -0.094186
    30 12.391794 0.000000 0.000001 0.000000 0.000000 -1.505970
    31 9.337102 0.000000 0.000003 -1.177959 0.465234 -0.622828
    32 4.453986 -0.073766 -0.571672 0.047699 -0.153453 -0.767464
    33 1.426599 0.000002 0.000000 -0.053883 0.078890 -1.553256
    34 1.322465 -0.000001 0.000000 -0.013603 0.036958 -0.732277
    35 4.477036 -0.043465 -1.581290 -0.332631 0.218360 0.154973
    36 1.344414 0.000000 0.000000 -0.042629 0.220735 -0.851579
    37 1.224670 0.000001 0.000000 0.008150 -0.000004 -0.000025
    38 2.630291 -0.359835 -1.904289 0.415078 0.423437 -0.720800
    39 1.059293 0.000000 0.000000 0.015101 0.038905 0.767148
    40 0.781204 0.000000 0.000000 0.004782 0.022537 0.418308
    41 -0.044717 2.528787 4.661499 0.321923 0.128909 -0.072946
  time 5
    0 0.071872 -5.129473 29.705553 1.541146 -0.082786 -0.371360
    1 3.890452 -0.000004 -0.000003 -2.284679 -0.419071 -1.178690
    2 17.848177 0.000000 0.000000 0.000000 0.000000 1.357764
    3 15.638507 0.000000 0.000000 0.283773 0.503311 -1.611480
    4 7.109929 0.000000 0.000000 -0.007119 -0.003131 -0.631738
    5 -3.890452 0.000004 0.000007 -1.532754 -0.206563 -1.728326
    6 17.848173 0.000000 0.000000 0.000000 0.000000 1.465958
    7 15.638511 0.000000 0.000000 0.361955 0.064990 -1.580549
    8 7.109930 0.000000 0.000000 -0.078673 -0.004988 -1.225804
    9 0.000005 3.345128 -2.981901 1.697755 -0.259142 1.435973
    10 4.018331 0.000000 0.000000 0.281119 -0.126246 0.266254
    11 3.518565 0.000000 0.000000 0.224610 -0.123154 0.289805
    12 8.942642 0.000000 0.000000 0.249934 0.048813 0.216102
    13 3.306641 0.000002 0.000000 3.138800 0.000567 0.400476
    14 3.593712 -0.000001 0.000000 -0.343589 -0.021180 0.499881
    15 2.033346 1.000768 1.101697 2.385451 -1.528127 2.146508
    16 6.809416 0.000001 0.000000 -1.264221 -0.935072 -1.061137
    17 12.391796 0.000000 0.000001 0.000000 0.000000 -1.776969
    18 9.337076 0.000000 -0.000031 0.958371 -1.154595 0.670770
    19 4.454020 -0.070210 0.572073 0.095490 -0.008587 -0.706335
    20 1.426597 -0.000001 0.000000 0.055908 -0.087976 -1.504206
    21 1.322468 -0.000002 0.000000 0.009312 -0.033625 -0.575065
    22 4.477066 -0.028570 1.582474 0.481653 -0.035390 -1.246096
    23 1.344418 0.000000 0.000000 0.023466 -0.208305 -0.755723
    24 1.224671 0.000000 0.000000 0.026043 -0.124620 -0.538676
    25 2.630323 -0.345015 1.907214 -0.354022 -0.915164 -1.788195
    26 1.059292 0.000000 0.000001 -0.001067 -0.012855 0.250988
    27 0.781203 0.000000 0.000000 -0.000096 -0.003210 0.062757
    28 2.033353 1.000771 -1.101647 -3.176988 1.193701 1.415651
    29 6.809417 0.000001 0.000000 1.213277 0.611075 -0.222190
    30 12.391794 0.000000 0.000001 0.000000 0.000000 -1.374604
    31 9.337102 0.000000 0.000003 -1.320052 0.565094 -0.927542
    32 4.453986 -0.073766 -0.571672 0.047699 -0.153453 -0.767464
    33 1.426599 0.000002 0.000000 -0.053883 0.078890 -1.553256
    34 1.322465 -0.000001 0.000000 -0.013603 0.036958 -0.732277
    35 4.477036 -0.043465 -1.581290 -0.332631 0.218360 0.154973
    36 1.344414 0.000000 0.000000 -0.042629 0.220735 -0.851579
    37 1.224670 0.000001 0.000000 0.008150 -0.000004 -0.000025
    38 2.630291 -0.359835 -1.904289 0.415078 0.423437 -0.720800
    39 1.059293 0.000000 0.000000 0.015101 0.038905 0.767148
    40 0.781204 0.000000 0.000000 0.004782 0.022537 0.418308
    41 -0.044717 2.528787 4.661499 0.311382 0.154323 -0.079920
  time 6
    0 0.095310 -4.580975 30.487740 1.538003 -0.103344 -0.407156
    1 3.890452 -0.000004 -0.000003 -2.274562 -0.391866 -1.220282
    2 17.848177 0.000000 0.000000 0.000000 0.000000 1.276276
    3 15.638507 0.000000 0.000000 0.256712 0.476250 -1.570178
    4 7.109929 0.000000 0.000000 -0.007119 -0.003131 -0.631738
    5 -3.890452 0.000004 0.000007 -1.541526 -0.215124 -1.747435
    6 17.848173 0.000000 0.000000 0.000000 0.000000 1.422091
    7 15.638511 0.000000 0.000000 0.332586 0.058527 -1.552949
    8 7.109930 0.000000 0.000000 -0.078721 -0.004964 -1.216436
    9 0.000005 3.345128 -2.981901 1.725777 -0.244508 1.424565
    10 4.018331 0.000000 0.000000 0.251305 -0.113374 0.237329
    11 3.518565 0.000000 0.000000 0.175356 -0.121811 0.261887
    12 8.942642 0.000000 0.000000 0.180574 0.062104 0.219163
    13 3.306641 0.000002 0.000000 3.138800 0.000567 0.400476
    14 3.593712 -0.000001 0.000000 -0.199175 -0.019081 0.416198
    15 2.033346 1.000768 1.101697 2.385451 -1.528127 2.146508
    16 6.809416 0.000001 0.000000 -1.374292 -0.881647 -0.925107
    17 12.391796 0.000000 0.000001 0.000000 0.000000 -1.874347
    18 9.337076 0.000000 -0.000031 0.862103 -1.092614 0.878245
    19 4.454020 -0.070210 0.572073 0.095490 -0.008587 -0.706335
    20 1.426597 -0.000001 0.000000 0.055908 -0.087976 -1.504206
    21 1.322468 -0.000002 0.000000 0.009312 -0.033625 -0.575065
    22 4.477066 -0.028570 1.582474 0.481653 -0.035390 -1.246096
    23 1.344418 0.000000 0.000000 0.023466 -0.208305 -0.755723
    24 1.224671 0.000000 0.000000 0.026043 -0.124620 -0.538676
    25 2.630323 -0.345015 1.907214 -0.354022 -0.915164 -1.788195
    26 1.059292 0.000000 0.000001 -0.001067 -0.012855 0.250988
    27 0.781203 0.000000 0.000000 -0.000096 -0.003210 0.062757
    28 2.033353 1.000771 -1.101647 -3.176988 1.193701 1.415651
    29 6.809417 0.000001 0.000000 1.150620 0.675503 -0.322580
    30 12.391794 0.000000 0.000001 0.000000 0.000000 -1.383941
    31 9.337102 0.000000 0.000003 -1.288625 0.568939 -0.878670
    32 4.453986 -0.073766 -0.571672 0.047699 -0.153453 -0.767464
    33 1.426599 0.000002 0.000000 -0.053883 0.078890 -1.553256
    34 1.322465 -0.000001 0.000000 -0.013603 0.036958 -0.732277
    35 4.477036 -0.043465 -1.581290 -0.332631 0.218360 0.154973
    36 1.344414 0.000000 0.000000 -0.042629 0.220735 -0.851579
    37 1.224670 0.000001 0.000000 0.008150 -0.000004 -0.000025
    38 2.630291 -0.359835 -1.904289 0.415078 0.423437 -0.720800
    39 1.059293 0.000000 0.000000 0.015101 0.038905 0.767148
    40 0.781204 0.000000 0.000000 0.004782 0.022537 0.418308
    41 -0.044717 2.528787 4.661499 0.298173 0.182214 -0.086533
  time 7
    0 0.118749 -3.951217 31.372848 1.536219 -0.123994 -0.448981
    1 3.890452 -0.000004 -0.000003 -2.263300 -0.359882 -1.265229
    2 17.848177 0.000000 0.000000 0.000000 0.000000 1.178329
    3 15.638507 0.000000 0.000000 0.224841 0.444579 -1.520017
    4 7.109929 0.000000 0.000000 -0.007119 -0.003131 -0.631738
    5 -3.890452 0.000004 0.000007 -1.549058 -0.220044 -1.766355
    6 17.848173 0.000000 0.000000 0.000000 0.000000 1.361895
    7 15.638511 0.000000 0.000000 0.296175 0.049835 -1.522867
    8 7.109930 0.000000 0.000000 -0.078781 -0.004952 -1.204604
    9 0.000005 3.345128 -2.981901 1.754607 -0.227406 1.414517
    10 4.018331 0.000000 0.000000 0.218892 -0.101042 0.206995
    11 3.518565 0.000000 0.000000 0.119204 -0.121644 0.233720
    12 8.942642 0.000000 0.000000 0.107926 0.076234 0.221380
    13 3.306641 0.000002 0.000000 3.138800 0.000567 0.400476
    14 3.593712 -0.000001 0.000000 -0.045944 0.006488 0.335704
    15 2.033346 1.000768 1.101697 2.385451 -1.528127 2.146508
    16 6.809416 0.000001 0.000000 -1.453093 -0.804205 -0.825427
    17 12.391796 0.000000 0.000001 0.000000 0.000000 -1.943496
    18 9.337076 0.000000 -0.000031 0.760750 -1.014818 1.039793
    19 4.454020 -0.070210 0.572073 0.095490 -0.008587 -0.706335
    20 1.426597 -0.000001 0.000000 0.055908 -0.087976 -1.504206
    21 1.322468 -0.000002 0.000000 0.009312 -0.033625 -0.575065
    22 4.477066 -0.028570 1.582474 0.481653 -0.035390 -1.246096
    23 1.344418 0.000000 0.000000 0.023466 -0.208305 -0.755723
    24 1.224671 0.000000 0.000000 0.026043 -0.124620 -0.538676
    25 2.630323 -0.345015 1.907214 -0.354022 -0.915164 -1.788195
    26 1.059292 0.000000 0.000001 -0.001067 -0.012855 0.250988
    27 0.781203 0.000000 0.000000 -0.000096 -0.003210 0.062757
    28 2.033353 1.000771 -1.101647 -3.176988 1.193701 1.415651
    29 6.809417 0.000001 0.000000 1.067045 0.719433 -0.431142
    30 12.391794 0.000000 0.000001 0.000000 0.000000 -1.399814
    31 9.337102 0.000000 0.000003 -1.243629 0.564866 -0.804845
    32 4.453986 -0.073766 -0.571672 0.047699 -0.153453 -0.767464
    33 1.426599 0.000002 0.000000 -0.053883 0.078890 -1.553256
    34 1.322465 -0.000001 0.000000 -0.013603 0.036958 -0.732277
    35 4.477036 -0.043465 -1.581290 -0.332631 0.218360 0.154973
    36 1.344414 0.000000 0.000000 -0.042629 0.220735 -0.851579
    37 1.224670 0.000001 0.000000 0.008150 -0.000004 -0.000025
    38 2.630291 -0.359835 -1.904289 0.415078 0.423437 -0.720800
    39 1.059293 0.000000 0.000000 0.015101 0.038905 0.767148
    40 0.781204 0.000000 0.000000 0.004782 0.022537 0.418308
    41 -0.044717 2.528787 4.661499 0.282492 0.211281 -0.092906
  time 8
    0 0.138281 -3.270672 32.319707 1.535709 -0.144090 -0.494826
    1 3.890452 -0.000004 -0.000003 -2.251084 -0.322599 -1.312763
    2 17.848177 0.000000 0.000000 0.000000 0.000000 1.064581
    3 15.638507 0.000000 0.000000 0.189456 0.409931 -1.461218
    4 7.109929 0.000000 0.000000 -0.007119 -0.003131 -0.631738
    5 -3.890452 0.000004 0.000007 -1.554969 -0.220290 -1.784045
    6 17.848173 0.000000 0.000000 0.000000 0.000000 1.287321
    7 15.638511 0.000000 0.000000 0.255409 0.038913 -1.489538
    8 7.109930 0.000000 0.000000 -0.078841 -0.004916 -1.191516
    9 0.000005 3.345128 -2.981901 1.783006 -0.208319 1.406242
    10 4.018331 0.000000 0.000000 0.184851 -0.089777 0.176191
    11 3.518565 0.000000 0.000000 0.058878 -0.122878 0.206334
    12 8.942642 0.000000 0.000000 0.034166 0.090687 0.222576
    13 3.306641 0.000002 0.000000 3.138800 0.000567 0.400476
    14 3.593712 -0.000001 0.000000 0.108848 0.054156 0.264736
    15 2.033346 1.000768 1.101697 2.385451 -1.528127 2.146508
    16 6.809416 0.000001 0.000000 -1.491919 -0.701129 -0.770617
    17 12.391796 0.000000 0.000001 0.000000 0.000000 -1.989859
    18 9.337076 0.000000 -0.000031 0.665285 -0.934654 1.145030
    19 4.454020 -0.070210 0.572073 0.095490 -0.008587 -0.706366
    20 1.426597 -0.000001 0.000000 0.055908 -0.087976 -1.504206
    21 1.322468 -0.000002 0.000000 0.009312 -0.033625 -0.575065
    22 4.477066 -0.028570 1.582474 0.481653 -0.035390 -1.246096
    23 1.344418 0.000000 0.000000 0.023466 -0.208305 -0.755723
    24 1.224671 0.000000 0.000000 0.026043 -0.124620 -0.538676
    25 2.630323 -0.345015 1.907214 -0.354022 -0.915164 -1.788195
    26 1.059292 0.000000 0.000001 -0.001067 -0.012855 0.250988
    27 0.781203 0.000000 0.000000 -0.000096 -0.003210 0.062757
    28 2.033353 1.000771 -1.101647 -3.176988 1.193701 1.415651
    29 6.809417 0.000001 0.000000 0.968232 0.741551 -0.539447
    30 12.391794 0.000000 0.000001 0.000000 0.000000 -1.421146
    31 9.337102 0.000000 0.000003 -1.189352 0.551731 -0.712282
    32 4.453986 -0.073766 -0.571672 0.047699 -0.153453 -0.767464
    33 1.426599 0.000002 0.000000 -0.053883 0.078890 -1.553256
    34 1.322465 -0.000001 0.000000 -0.013603 0.036958 -0.732277
    35 4.477036 -0.043465 -1.581290 -0.332631 0.218360 0.154973
    36 1.344414 0.000000 0.000000 -0.042629 0.220735 -0.851579
    37 1.224670 0.000001 0.000000 0.008150 -0.000004 -0.000025
    38 2.630291 -0.359835 -1.904289 0.415078 0.423437 -0.720800
    39 1.059293 0.000000 0.000000 0.015101 0.038905 0.767148
    40 0.781204 0.000000 0.000000 0.004782 0.022537 0.418308
    41 -0.044717 2.528787 4.661499 0.264793 0.240125 -0.099039
  time 9
    0 0.157812 -2.559656 33.297441 1.536644 -0.162754 -0.542968
    1 3.890452 -0.000004 -0.000003 -2.238486 -0.279449 -1.361926
    2 17.848177 0.000000 0.000000 0.000000 0.000000 0.935034
    3 15.638507 0.000000 0.000000 0.152078 0.373935 -1.393633
    4 7.109929 0.000000 0.000000 -0.007119 -0.003131 -0.631738
    5 -3.890452 0.000004 0.000007 -1.559450 -0.216157 -1.799370
    6 17.848173 0.000000 0.000000 0.000000 0.000000 1.202674
    7 15.638511 0.000000 0.000000 0.212883 0.025761 -1.450765
    8 7.109930 0.000000 0.000000 -0.078901 -0.004893 -1.178428
    9 0.000005 3.345128 -2.981901 1.809519 -0.187729 1.400095
    10 4.018331 0.000000 0.000000 0.150132 -0.079997 0.145892
    11 3.518565 0.000000 0.000000 -0.002873 -0.125467 0.180650
    12 8.942642 0.000000 0.000000 -0.038510 0.104985 0.222734
    13 3.306641 0.000002 0.000000 3.138800 0.000567 0.400476
    14 3.593712 -0.000001 0.000000 0.259928 0.119320 0.208625
    15 2.033346 1.000768 1.101697 2.385451 -1.528127 2.146508
    16 6.809416 0.000001 0.000000 -1.493353 -0.576389 -0.759826
    17 12.391796 0.000000 0.000001 0.000000 0.000000 -2.015642
    18 9.337076 0.000000 -0.000031 0.578385 -0.864453 1.193841
    19 4.454020 -0.070210 0.572073 0.095490 -0.008587 -0.706335
    20 1.426597 -0.000001 0.000000 0.055908 -0.087976 -1.504206
    21 1.322468 -0.000002 0.000000 0.009312 -0.033625 -0.575065
    22 4.477066 -0.028570 1.582474 0.481653 -0.035390 -1.246096
    23 1.344418 0.000000 0.000000 0.023466 -0.208305 -0.755723
    24 1.224671 0.000000 0.000000 0.026043 -0.124620 -0.538676
    25 2.630323 -0.345015 1.907214 -0.354022 -0.915164 -1.788195
    26 1.059292 0.000000 0.000001 -0.001067 -0.012843 0.250988
    27 0.781203 0.000000 0.000000 -0.000096 -0.003210 0.062757
    28 2.033353 1.000771 -1.101647 -3.176988 1.193701 1.415651
    29 6.809417 0.000001 0.000000 0.864024 0.743697 -0.636224
    30 12.391794 0.000000 0.000001 0.000000 0.000000 -1.447074
    31 9.337102 0.000000 0.000003 -1.130787 0.529003 -0.607372
    32 4.453986 -0.073766 -0.571672 0.047699 -0.153453 -0.767464
    33 1.426599 0.000002 0.000000 -0.053883 0.078890 -1.553256
    34 1.322465 -0.000001 0.000000 -0.013603 0.036958 -0.732277
    35 4.477036 -0.043465 -1.581290 -0.332631 0.218360 0.154973
    36 1.344414 0.000000 0.000000 -0.042629 0.220735 -0.851579
    37 1.224670 0.000001 0.000000 0.008150 -0.000004 -0.000025
    38 2.630291 -0.359835 -1.904289 0.415078 0.423437 -0.720800
    39 1.059293 0.000000 0.000000 0.015101 0.038905 0.767148
    40 0.781204 0.000000 0.000000 0.004782 0.022537 0.418308
    41 -0.044717 2.528787 4.661499 0.245338 0.267444 -0.104810
  time 10
    0 0.177344 -1.858796 34.264884 1.538852 -0.179292 -0.591301
    1 3.890452 -0.000004 -0.000003 -2.225984 -0.229628 -1.412526
    2 17.848177 0.000000 0.000000 0.000000 0.000000 0.788589
    3 15.638507 0.000000 0.000000 0.114225 0.337987 -1.316533
    4 7.109929 0.000000 0.000000 -0.007119 -0.003131 -0.631738
    5 -3.890452 0.000004 0.000007 -1.562692 -0.209958 -1.811668
    6 17.848173 0.000000 0.000000 0.000000 0.000000 1.114940
    7 15.638511 0.000000 0.000000 0.170913 0.010971 -1.404161
    8 7.109930 0.000000 0.000000 -0.078961 -0.004869 -1.166596
    9 0.000005 3.345128 -2.981901 1.832960 -0.166175 1.396371
    10 4.018331 0.000000 0.000000 0.115752 -0.072003 0.117141
    11 3.518565 0.000000 0.000000 -0.063303 -0.129110 0.157627
    12 8.942642 0.000000 0.000000 -0.107939 0.118611 0.221890
    13 3.306641 0.000002 0.000000 3.138800 0.000567 0.400476
    14 3.593712 -0.000001 0.000000 0.403919 0.195192 0.170645
    15 2.033346 1.000768 1.101697 2.385451 -1.528127 2.146508
    16 6.809416 0.000001 0.000000 -1.470115 -0.438464 -0.785952
    17 12.391796 0.000000 0.000001 0.000000 0.000000 -2.019269
    18 9.337076 0.000000 -0.000031 0.504155 -0.810857 1.188418
    19 4.454020 -0.070210 0.572073 0.095490 -0.008587 -0.706335
    20 1.426597 -0.000001 0.000000 0.055908 -0.087976 -1.504206
    21 1.322468 -0.000002 0.000000 0.009312 -0.033625 -0.575065
    22 4.477066 -0.028570 1.582474 0.481653 -0.035390 -1.246096
    23 1.344418 0.000000 0.000000 0.023466 -0.208305 -0.755723
    24 1.224671 0.000000 0.000000 0.026043 -0.124620 -0.538676
    25 2.630323 -0.345015 1.907214 -0.354022 -0.915164 -1.788195
    26 1.059292 0.000000 0.000001 -0.001067 -0.012855 0.250988
    27 0.781203 0.000000 0.000000 -0.000096 -0.003210 0.062757
    28 2.033353 1.000771 -1.101647 -3.176988 1.193701 1.415651
    29 6.809417 0.000001 0.000000 0.764738 0.731127 -0.712441
    30 12.391794 0.000000 0.000001 0.000000 0.000000 -1.476738
    31 9.337102 0.000000 0.000003 -1.072542 0.497176 -0.496763
    32 4.453986 -0.073766 -0.571672 0.047699 -0.153453 -0.767464
    33 1.426599 0.000002 0.000000 -0.053883 0.078890 -1.553256
    34 1.322465 -0.000001 0.000000 -0.013603 0.036958 -0.732277
    35 4.477036 -0.043465 -1.581290 -0.332631 0.218360 0.154973
    36 1.344414 0.000000 0.000000 -0.042629 0.220735 -0.851579
    37 1.224670 0.000001 0.000000 0.008150 -0.000004 -0.000025
    38 2.630291 -0.359835 -1.904289 0.415078 0.423437 -0.720800
    39 1.059293 0.000000 0.000000 0.015101 0.038905 0.767148
    40 0.781204 0.000000 0.000000 0.004782 0.022537 0.418308
    41 -0.044717 2.528787 4.661499 0.224516 0.291905 -0.110141
  time 11
    0 0.192970 -1.188409 35.180867 1.542081 -0.192874 -0.637912
    1 3.890452 -0.000004 -0.000003 -2.214245 -0.171385 -1.465140
    2 17.848177 0.000000 0.000000 0.000000 0.000000 0.621735
    3 15.638507 0.000000 0.000000 0.077574 0.303528 -1.227805
    4 7.109929 0.000000 0.000000 -0.007119 -0.003131 -0.631738
    5 -3.890452 0.000004 0.000007 -1.564789 -0.205923 -1.820277
    6 17.848173 0.000000 0.000000 0.000000 0.000000 1.035005
    7 15.638511 0.000000 0.000000 0.131260 -0.004320 -1.347530
    8 7.109930 0.000000 0.000000 -0.079008 -0.004857 -1.157228
    9 0.000005 3.345128 -2.981901 1.852144 -0.144224 1.395308
    10 4.018331 0.000000 0.000000 0.082706 -0.065951 0.090964
    11 3.518565 0.000000 0.000000 -0.119581 -0.133257 0.138152
    12 8.942642 0.000000 0.000000 -0.171929 0.131075 0.220289
    13 3.306641 0.000002 0.000000 3.138800 0.000567 0.400476
    14 3.593712 -0.000001 0.000000 0.539009 0.273911 0.151759
    15 2.033346 1.000768 1.101697 2.385451 -1.528127 2.146508
    16 6.809416 0.000001 0.000000 -1.439800 -0.299657 -0.838963
    17 12.391796 0.000000 0.000001 0.000000 0.000000 -1.998611
    18 9.337076 0.000000 -0.000031 0.448838 -0.772781 1.133895
    19 4.454020 -0.070210 0.572073 0.095490 -0.008587 -0.706366
    20 1.426597 -0.000001 0.000000 0.055908 -0.087976 -1.504206
    21 1.322468 -0.000002 0.000000 0.009312 -0.033625 -0.575065
    22 4.477066 -0.028570 1.582474 0.481653 -0.035390 -1.246096
    23 1.344418 0.000000 0.000000 0.023466 -0.208305 -0.755723
    24 1.224671 0.000000 0.000000 0.026043 -0.124620 -0.538676
    25 2.630323 -0.345015 1.907214 -0.354022 -0.915164 -1.788195
    26 1.059292 0.000000 0.000001 -0.001067 -0.012855 0.250988
    27 0.781203 0.000000 0.000000 -0.000096 -0.003210 0.062757
    28 2.033353 1.000771 -1.101647 -3.176988 1.193701 1.415651
    29 6.809417 0.000001 0.000000 0.677662 0.710673 -0.764486
    30 12.391794 0.000000 0.000001 0.000000 0.000000 -1.509130
    31 9.337102 0.000000 0.000003 -1.018521 0.457848 -0.385809
    32 4.453986 -0.073766 -0.571672 0.047699 -0.153453 -0.767464
    33 1.426599 0.000002 0.000000 -0.053883 0.078890 -1.553256
    34 1.322465 -0.000001 0.000000 -0.013603 0.036958 -0.732277
    35 4.477036 -0.043465 -1.581290 -0.332631 0.218360 0.154973
    36 1.344414 0.000000 0.000000 -0.042629 0.220735 -0.851579
    37 1.224670 0.000001 0.000000 0.008150 -0.000004 -0.000025
    38 2.630291 -0.359835 -1.904289 0.415078 0.423437 -0.720800
    39 1.059293 0.000000 0.000000 0.015101 0.038905 0.767148
    40 0.781204 0.000000 0.000000 0.004782 0.022537 0.418308
    41 -0.044717 2.528787 4.661499 0.202849 0.312172 -0.114750
  time 12
    0 0.204689 -0.578966 36.004223 1.545819 -0.202853 -0.680694
    1 3.890452 -0.000004 -0.000003 -2.204033 -0.100131 -1.522736
    2 17.848177 0.000000 0.000000 0.000000 0.000000 0.422477
    3 15.638507 0.000000 0.000000 0.043867 0.271786 -1.121142
    4 7.109929 0.000000 0.000000 -0.007119 -0.003131 -0.631738
    5 -3.890452 0.000004 0.000007 -1.565934 -0.211582 -1.825101
    6 17.848173 0.000000 0.000000 0.000000 0.000000 0.978709
    7 15.638511 0.000000 0.000000 0.094849 -0.018474 -1.279248
    8 7.109930 0.000000 0.000000 -0.079032 -0.004845 -1.151222
    9 0.000005 3.345128 -2.981901 1.865831 -0.122414 1.396844
    10 4.018331 0.000000 0.000000 0.052056 -0.061900 0.068457
    11 3.518565 0.000000 0.000000 -0.168898 -0.137200 0.122969
    12 8.942642 0.000000 0.000000 -0.228258 0.141934 0.218213
    13 3.306641 0.000002 0.000000 3.138800 0.000567 0.400476
    14 3.593712 -0.000001 0.000000 0.663762 0.347641 0.150668
    15 2.033346 1.000768 1.101697 2.385451 -1.528127 2.146508
    16 6.809416 0.000001 0.000000 -1.418187 -0.173936 -0.908162
    17 12.391796 0.000000 0.000001 0.000000 0.000000 -1.955087
    18 9.337076 0.000000 -0.000031 0.416719 -0.742564 1.043082
    19 4.454020 -0.070210 0.572073 0.095490 -0.008587 -0.706335
    20 1.426597 -0.000001 0.000000 0.055908 -0.087976 -1.504206
    21 1.322468 -0.000002 0.000000 0.009312 -0.033625 -0.575065
    22 4.477066 -0.028570 1.582474 0.481653 -0.035390 -1.246096
    23 1.344418 0.000000 0.000000 0.023466 -0.208305 -0.755723
    24 1.224671 0.000000 0.000000 0.026043 -0.124620 -0.538676
    25 2.630323 -0.345015 1.907214 -0.354022 -0.915164 -1.788195
    26 1.059292 0.000000 0.000001 -0.001067 -0.012855 0.250988
    27 0.781203 0.000000 0.000000 -0.000096 -0.003210 0.062757
    28 2.033353 1.000771 -1.101647 -3.176988 1.193701 1.415651
    29 6.809417 0.000001 0.000000 0.606959 0.688292 -0.794852
    30 12.391794 0.000000 0.000001 0.000000 0.000000 -1.543462
    31 9.337102 0.000000 0.000003 -0.971413 0.413610 -0.279172
    32 4.453986 -0.073766 -0.571672 0.047699 -0.153453 -0.767464
    33 1.426599 0.000002 0.000000 -0.053883 0.078890 -1.553256
    34 1.322465 -0.000001 0.000000 -0.013603 0.036958 -0.732277
    35 4.477036 -0.043465 -1.581290 -0.332631 0.218360 0.154973
    36 1.344414 0.000000 0.000000 -0.042629 0.220735 -0.851579
    37 1.224670 0.000001 0.000000 0.008150 -0.000004 -0.000025
    38 2.630291 -0.359835 -1.904289 0.415078 0.423437 -0.720800
    39 1.059293 0.000000 0.000000 0.015101 0.038905 0.767148
    40 0.781204 0.000000 0.000000 0.004782 0.022537 0.418308
    41 -0.044717 2.528787 4.661499 0.180725 0.327007 -0.118317
  time 13
    0 0.212502 -0.060939 36.693783 1.549642 -0.208581 -0.717638
    1 3.890452 -0.000004 -0.000003 -2.197352 0.008737 -1.602854
    2 17.848177 0.000000 0.000000 0.000000 0.000000 0.125856
    3 15.638507 0.000000 0.000000 0.014781 0.244039 -0.962131
    4 7.109929 0.000000 0.000000 -0.007119 -0.003131 -0.631738
    5 -3.890452 0.000004 0.000007 -1.567364 -0.312691 -1.824912
    6 17.848173 0.000000 0.000000 0.000000 0.000000 1.081228
    7 15.638511 0.000000 0.000000 0.063163 -0.025482 -1.110118
    8 7.109930 0.000000 0.000000 -0.079044 -0.004833 -1.149160
    9 0.000005 3.345128 -2.981901 1.872890 -0.101229 1.401159
    10 4.018331 0.000000 0.000000 0.024864 -0.059803 0.050698
    11 3.518565 0.000000 0.000000 -0.208423 -0.140172 0.112858
    12 8.942642 0.000000 0.000000 -0.274720 0.150778 0.216050
    13 3.306641 0.000002 0.000000 3.138800 0.000567 0.400476
    14 3.593712 -0.000001 0.000000 0.775522 0.409507 0.164056
    15 2.033346 1.000768 1.101697 2.385451 -1.528127 2.146508
    16 6.809416 0.000001 0.000000 -1.413692 -0.072821 -0.981620
    17 12.391796 0.000000 0.000001 0.000000 0.000000 -1.897134
    18 9.337076 0.000000 -0.000031 0.405924 -0.711261 0.937268
    19 4.454020 -0.070210 0.572073 0.095490 -0.008587 -0.706335
    20 1.426597 -0.000001 0.000000 0.055908 -0.087976 -1.504206
    21 1.322468 -0.000002 0.000000 0.009312 -0.033625 -0.575065
    22 4.477066 -0.028570 1.582474 0.481653 -0.035390 -1.246096
    23 1.344418 0.000000 0.000000 0.023466 -0.208305 -0.755723
    24 1.224671 0.000000 0.000000 0.026043 -0.124620 -0.538676
    25 2.630323 -0.345015 1.907214 -0.354022 -0.915164 -1.788195
    26 1.059292 0.000000 0.000001 -0.001067 -0.012855 0.250988
    27 0.781203 0.000000 0.000000 -0.000096 -0.003210 0.062757
    28 2.033353 1.000771 -1.101647 -3.176988 1.193701 1.415651
    29 6.809417 0.000001 0.000000 0.553862 0.667663 -0.810165
    30 12.391794 0.000000 0.000001 0.000000 0.000000 -1.578727
    31 9.337102 0.000000 0.000003 -0.932562 0.367925 -0.180306
    32 4.453986 -0.073766 -0.571672 0.047699 -0.153453 -0.767464
    33 1.426599 0.000002 0.000000 -0.053883 0.078890 -1.553256
    34 1.322465 -0.000001 0.000000 -0.013603 0.036958 -0.732277
    35 4.477036 -0.043465 -1.581290 -0.332631 0.218360 0.154973
    36 1.344414 0.000000 0.000000 -0.042629 0.220735 -0.851579
    37 1.224670 0.000001 0.000000 0.008150 -0.000004 -0.000025
    38 2.630291 -0.359835 -1.904289 0.415078 0.423437 -0.720800
    39 1.059293 0.000000 0.000000 0.015101 0.038905 0.767148
    40 0.781204 0.000000 0.000000 0.004782 0.022537 0.418308
    41 -0.044717 2.528787 4.661499 0.158732 0.335139 -0.120361
  time 14
    0 0.216408 0.335199 37.218673 1.553125 -0.209413 -0.746543
    1 3.890452 -0.000004 -0.000003 -2.194298 0.019571 -1.608412
    2 17.848177 0.000000 0.000000 0.000000 0.000000 0.089574
    3 15.638507 0.000000 0.000000 0.014591 0.212274 -0.889698
    4 7.109929 0.000000 0.000000 -0.017870 -0.002699 -0.631350
    5 -3.890452 0.000004 0.000007 -1.560594 -0.258372 -1.814506
    6 17.848173 0.000000 0.000000 0.000000 0.000000 0.907872
    7 15.638511 0.000000 0.000000 0.030365 -0.023935 -1.205236
    8 7.109930 0.000000 0.000000 -0.079608 -0.004545 -1.029040
    9 0.000005 3.345128 -2.981901 1.872190 -0.081093 1.408134
    10 4.018331 0.000000 0.000000 0.002102 -0.059575 0.038749
    11 3.518565 0.000000 0.000000 -0.235346 -0.141406 0.108424
    12 8.942642 0.000000 0.000000 -0.309053 0.157250 0.214167
    13 3.306641 0.000002 0.000000 3.138800 0.000567 0.400476
    14 3.593712 -0.000001 0.000000 0.869941 0.454092 0.186886
    15 2.033346 1.000768 1.101697 2.385451 -1.528127 2.146508
    16 6.809416 0.000001 0.000000 -1.425359 -0.001604 -1.046937
    17 12.391796 0.000000 0.000001 0.000000 0.000000 -1.839575
    18 9.337076 0.000000 -0.000031 0.410385 -0.673941 0.841666
    19 4.454020 -0.070210 0.572073 0.095490 -0.008587 -0.706366
    20 1.426597 -0.000001 0.000000 0.055908 -0.087976 -1.504206
    21 1.322468 -0.000002 0.000000 0.009312 -0.033625 -0.575065
    22 4.477066 -0.028570 1.582474 0.481653 -0.035390 -1.246096
    23 1.344418 0.000000 0.000000 0.023466 -0.208305 -0.755723
    24 1.224671 0.000000 0.000000 0.026043 -0.124620 -0.538676
    25 2.630323 -0.345015 1.907214 -0.354022 -0.915164 -1.788195
    26 1.059292 0.000000 0.000001 -0.001067 -0.012855 0.250988
    27 0.781203 0.000000 0.000000 -0.000096 -0.003210 0.062757
    28 2.033353 1.000771 -1.101647 -3.176988 1.193701 1.415651
    29 6.809417 0.000001 0.000000 0.518936 0.649880 -0.818681
    30 12.391794 0.000000 0.000001 0.000000 0.000000 -1.613993
    31 9.337102 0.000000 0.000003 -0.902223 0.324448 -0.091974
    32 4.453986 -0.073766 -0.571672 0.047699 -0.153453 -0.767464
    33 1.426599 0.000002 0.000000 -0.053883 0.078890 -1.553256
    34 1.322465 -0.000001 0.000000 -0.013603 0.036958 -0.732277
    35 4.477036 -0.043465 -1.581290 -0.332631 0.218360 0.154973
    36 1.344414 0.000000 0.000000 -0.042629 0.220735 -0.851579
    37 1.224670 0.000001 0.000000 0.008150 -0.000004 -0.000025
    38 2.630291 -0.359835 -1.904289 0.415078 0.423437 -0.720800
    39 1.059293 0.000000 0.000000 0.015101 0.038905 0.767148
    40 0.781204 0.000000 0.000000 0.004782 0.022537 0.418308
    41 -0.044717 2.528787 4.661499 0.137390 0.335298 -0.120482
  time 15
    0 0.208595 0.548504 37.455387 1.556099 -0.197494 -0.763483
    1 3.890452 -0.000004 -0.000003 -2.191435 0.013610 -1.595187
    2 17.848177 0.000000 0.000000 0.000000 0.000000 0.089574
    3 15.638507 0.000000 0.000000 0.008736 0.194170 -0.871070
    4 7.109929 0.000000 0.000000 -0.019847 -0.002579 -0.629061
    5 -3.890452 0.000004 0.000007 -1.549153 -0.259455 -1.787734
    6 17.848173 0.000000 0.000000 0.000000 0.000000 0.801941
    7 15.638511 0.000000 0.000000 0.003590 -0.021295 -1.319358
    8 7.109930 0.000000 0.000000 -0.080614 -0.003754 -0.788846
    9 0.000005 3.345128 -2.981901 1.852683 -0.060219 1.423265
    10 4.018331 0.000000 0.000000 -0.012364 -0.063159 0.040610
    11 3.518565 0.000000 0.000000 -0.239204 -0.137391 0.118605
    12 8.942642 0.000000 0.000000 -0.316422 0.158628 0.213745
    13 3.306641 0.000002 0.000000 3.138800 0.000567 0.400476
    14 3.593712 -0.000001 0.000000 0.929807 0.456084 0.225622
    15 2.033346 1.000768 1.101697 2.385451 -1.528127 2.146508
    16 6.809416 0.000001 0.000000 -1.444486 0.010846 -1.081963
    17 12.391796 0.000000 0.000001 0.000000 0.000000 -1.790058
    18 9.337076 0.000000 -0.000031 0.417968 -0.622515 0.785643
    19 4.454020 -0.070210 0.572073 0.095490 -0.008587 -0.706366
    20 1.426597 -0.000001 0.000000 0.055908 -0.087976 -1.504206
    21 1.322468 -0.000002 0.000000 0.009312 -0.033625 -0.575065
    22 4.477066 -0.028570 1.582474 0.481653 -0.035390 -1.246096
    23 1.344418 0.000000 0.000000 0.023466 -0.208305 -0.755723
    24 1.224671 0.000000 0.000000 0.026043 -0.124620 -0.538676
    25 2.630323 -0.345015 1.907214 -0.354022 -0.915164 -1.788195
    26 1.059292 0.000000 0.000001 -0.001067 -0.012855 0.250988
    27 0.781203 0.000000 0.000000 -0.000096 -0.003210 0.062757
    28 2.033353 1.000771 -1.101647 -3.176988 1.193701 1.415651
    29 6.809417 0.000001 0.000000 0.525846 0.635164 -0.817133
    30 12.391794 0.000000 0.000001 0.000000 0.000000 -1.652921
    31 9.337102 0.000000 0.000003 -0.879437 0.282836 -0.009946
    32 4.453986 -0.073766 -0.571672 0.047699 -0.153453 -0.767464
    33 1.426599 0.000002 0.000000 -0.053883 0.078890 -1.553256
    34 1.322465 -0.000001 0.000000 -0.013603 0.036958 -0.732277
    35 4.477036 -0.043465 -1.581290 -0.332631 0.218360 0.154973
    36 1.344414 0.000000 0.000000 -0.042629 0.220735 -0.851579
    37 1.224670 0.000001 0.000000 0.008150 -0.000004 -0.000025
    38 2.630291 -0.359835 -1.904289 0.415078 0.423437 -0.720800
    39 1.059293 0.000000 0.000000 0.015101 0.038905 0.767148
    40 0.781204 0.000000 0.000000 0.004782 0.022537 0.418308
    41 -0.044717 2.528787 4.661499 0.114616 0.316651 -0.114029
  time 16
    0 0.181251 0.558661 37.403928 1.558732 -0.168990 -0.768365
    1 3.890452 -0.000004 -0.000003 -2.189622 0.002870 -1.570270
    2 17.848177 0.000000 0.000000 0.000000 0.000000 0.089647
    3 15.638507 0.000000 0.000000 -0.000126 0.188758 -0.890828
    4 7.109929 0.000000 0.000000 -0.015880 -0.002783 -0.630963
    5 -3.890452 0.000004 0.000007 -1.540668 -0.238298 -1.757273
    6 17.848173 0.000000 0.000000 0.000000 0.000000 0.712095
    7 15.638511 0.000000 0.000000 -0.003544 -0.028759 -1.391460
    8 7.109930 0.000000 0.000000 -0.081034 -0.003287 -0.668771
    9 0.000005 3.345128 -2.981901 1.809950 -0.036368 1.448918
    10 4.018331 0.000000 0.000000 -0.017676 -0.071344 0.059760
    11 3.518565 0.000000 0.000000 -0.217062 -0.127037 0.147872
    12 8.942642 0.000000 0.000000 -0.290804 0.153822 0.215188
    13 3.306641 0.000002 0.000000 3.138800 0.000567 0.400476
    14 3.593712 -0.000001 0.000000 0.947105 0.407409 0.283118
    15 2.033346 1.000768 1.101697 2.385451 -1.528127 2.146508
    16 6.809416 0.000001 0.000000 -1.461221 -0.045569 -1.081868
    17 12.391796 0.000000 0.000001 0.000000 0.000000 -1.745430
    18 9.337076 0.000000 -0.000031 0.422251 -0.557378 0.772950
    19 4.454020 -0.070210 0.572073 0.095490 -0.008587 -0.706335
    20 1.426597 -0.000001 0.000000 0.055908 -0.087976 -1.504206
    21 1.322468 -0.000002 0.000000 0.009312 -0.033625 -0.575065
    22 4.477066 -0.028570 1.582474 0.481653 -0.035390 -1.246096
    23 1.344418 0.000000 0.000000 0.023466 -0.208305 -0.755723
    24 1.224671 0.000000 0.000000 0.026043 -0.124620 -0.538676
    25 2.630323 -0.345015 1.907214 -0.354022 -0.915164 -1.788195
    26 1.059292 0.000000 0.000001 -0.001067 -0.012855 0.250988
    27 0.781203 0.000000 0.000000 -0.000096 -0.003210 0.062757
    28 2.033353 1.000771 -1.101647 -3.176988 1.193701 1.415651
    29 6.809417 0.000001 0.000000 0.585379 0.622813 -0.801906
    30 12.391794 0.000000 0.000001 0.000000 0.000000 -1.698099
    31 9.337102 0.000000 0.000003 -0.862988 0.240387 0.071392
    32 4.453986 -0.073766 -0.571672 0.047699 -0.153453 -0.767464
    33 1.426599 0.000002 0.000000 -0.053883 0.078890 -1.553256
    34 1.322465 -0.000001 0.000000 -0.013603 0.036958 -0.732277
    35 4.477036 -0.043465 -1.581290 -0.332631 0.218360 0.154973
    36 1.344414 0.000000 0.000000 -0.042629 0.220735 -0.851579
    37 1.224670 0.000001 0.000000 0.008150 -0.000004 -0.000025
    38 2.630291 -0.359835 -1.904289 0.415078 0.423437 -0.720800
    39 1.059293 0.000000 0.000000 0.015101 0.038905 0.767148
    40 0.781204 0.000000 0.000000 0.004782 0.022537 0.418308
    41 -0.044717 2.528787 4.661499 0.088394 0.274655 -0.098077
  time 17
    0 0.142187 0.446930 37.167213 1.561366 -0.129445 -0.765015
    1 3.890452 -0.000004 -0.000003 -2.188667 -0.044065 -1.515261
    2 17.848177 0.000000 0.000000 0.000000 0.000000 0.175451
    3 15.638507 0.000000 0.000000 -0.006013 0.188593 -0.971646
    4 7.109929 0.000000 0.000000 -0.007119 -0.003131 -0.631738
    5 -3.890452 0.000004 0.000007 -1.532373 -0.234805 -1.730407
    6 17.848173 0.000000 0.000000 0.000000 0.000000 0.704134
    7 15.638511 0.000000 0.000000 0.002571 -0.038543 -1.389263
    8 7.109930 0.000000 0.000000 -0.081058 -0.003263 -0.663347
    9 0.000005 3.345128 -2.981901 1.752398 -0.009113 1.480481
    10 4.018331 0.000000 0.000000 -0.017088 -0.082622 0.090407
    11 3.518565 0.000000 0.000000 -0.177306 -0.113854 0.190299
    12 8.942642 0.000000 0.000000 -0.243245 0.144798 0.217562
    13 3.306641 0.000002 0.000000 3.138800 0.000567 0.400476
    14 3.593712 -0.000001 0.000000 0.932086 0.333208 0.355554
    15 2.033346 1.000768 1.101697 2.385451 -1.528127 2.146508
    16 6.809416 0.000001 0.000000 -1.475853 -0.146881 -1.066627
    17 12.391796 0.000000 0.000001 0.000000 0.000000 -1.695204
    18 9.337076 0.000000 -0.000031 0.428675 -0.487999 0.776065
    19 4.454020 -0.070210 0.572073 0.095490 -0.008587 -0.706335
    20 1.426597 -0.000001 0.000000 0.055908 -0.087976 -1.504206
    21 1.322468 -0.000002 0.000000 0.009312 -0.033625 -0.575065
    22 4.477066 -0.028570 1.582474 0.481653 -0.035390 -1.246096
    23 1.344418 0.000000 0.000000 0.023466 -0.208305 -0.755723
    24 1.224671 0.000000 0.000000 0.026043 -0.124620 -0.538676
    25 2.630323 -0.345015 1.907214 -0.354022 -0.915164 -1.788195
    26 1.059292 0.000000 0.000001 -0.001067 -0.012855 0.250988
    27 0.781203 0.000000 0.000000 -0.000096 -0.003210 0.062757
    28 2.033353 1.000771 -1.101647 -3.176988 1.193701 1.415651
    29 6.809417 0.000001 0.000000 0.678987 0.611250 -0.775497
    30 12.391794 0.000000 0.000001 0.000000 0.000000 -1.747513
    31 9.337102 0.000000 0.000003 -0.851915 0.197329 0.152212
    32 4.453986 -0.073766 -0.571672 0.047699 -0.153453 -0.767464
    33 1.426599 0.000002 0.000000 -0.053883 0.078890 -1.553256
    34 1.322465 -0.000001 0.000000 -0.013603 0.036958 -0.732277
    35 4.477036 -0.043465 -1.581290 -0.332631 0.218360 0.154973
    36 1.344414 0.000000 0.000000 -0.042629 0.220735 -0.851579
    37 1.224670 0.000001 0.000000 0.008150 -0.000004 -0.000025
    38 2.630291 -0.359835 -1.904289 0.415078 0.423437 -0.720800
    39 1.059293 0.000000 0.000000 0.015101 0.038905 0.767148
    40 0.781204 0.000000 0.000000 0.004782 0.022537 0.418308
    41 -0.044717 2.528787 4.661499 0.059178 0.217666 -0.074950
  time 18
    0 0.099217 0.264097 36.848163 1.564254 -0.084449 -0.757741
    1 3.890452 -0.000004 -0.000003 -2.195157 -0.158895 -1.410035
    2 17.848177 0.000000 0.000000 0.000000 0.000000 0.435351
    3 15.638507 0.000000 0.000000 0.009748 0.182589 -1.103499
    4 7.109929 0.000000 0.000000 -0.007119 -0.003131 -0.631738
    5 -3.890452 0.000004 0.000007 -1.518644 -0.232787 -1.702784
    6 17.848173 0.000000 0.000000 0.000000 0.000000 0.703971
    7 15.638511 0.000000 0.000000 0.010816 -0.051377 -1.393274
    8 7.109930 0.000000 0.000000 -0.081094 -0.003203 -0.650260
    9 0.000005 3.345128 -2.981901 1.688217 0.021290 1.513640
    10 4.018331 0.000000 0.000000 -0.013924 -0.095601 0.126794
    11 3.518565 0.000000 0.000000 -0.128555 -0.101042 0.239715
    12 8.942642 0.000000 0.000000 -0.184738 0.133556 0.219867
    13 3.306641 0.000002 0.000000 3.138800 0.000567 0.400476
    14 3.593712 -0.000001 0.000000 0.897870 0.257358 0.440371
    15 2.033346 1.000768 1.101697 2.385451 -1.528127 2.146508
    16 6.809416 0.000001 0.000000 -1.488476 -0.270052 -1.055836
    17 12.391796 0.000000 0.000001 0.000000 0.000000 -1.628657
    18 9.337076 0.000000 -0.000031 0.440363 -0.422467 0.770180
    19 4.454020 -0.070210 0.572073 0.095490 -0.008587 -0.706335
    20 1.426597 -0.000001 0.000000 0.055908 -0.087976 -1.504206
    21 1.322468 -0.000002 0.000000 0.009312 -0.033625 -0.575065
    22 4.477066 -0.028570 1.582474 0.481653 -0.035390 -1.246096
    23 1.344418 0.000000 0.000000 0.023466 -0.208305 -0.755723
    24 1.224671 0.000000 0.000000 0.026043 -0.124620 -0.538676
    25 2.630323 -0.345015 1.907214 -0.354022 -0.915164 -1.788195
    26 1.059292 0.000000 0.000001 -0.001067 -0.012855 0.250988
    27 0.781203 0.000000 0.000000 -0.000096 -0.003210 0.062757
    28 2.033353 1.000771 -1.101647 -3.176988 1.193701 1.415651
    29 6.809417 0.000001 0.000000 0.788495 0.598285 -0.739453
    30 12.391794 0.000000 0.000001 0.000000 0.000000 -1.799011
    31 9.337102 0.000000 0.000003 -0.845322 0.153852 0.232513
    32 4.453986 -0.073766 -0.571672 0.047699 -0.153453 -0.767464
    33 1.426599 0.000002 0.000000 -0.053883 0.078890 -1.553256
    34 1.322465 -0.000001 0.000000 -0.013603 0.036958 -0.732277
    35 4.477036 -0.043465 -1.581290 -0.332631 0.218360 0.154973
    36 1.344414 0.000000 0.000000 -0.042629 0.220735 -0.851579
    37 1.224670 0.000001 0.000000 0.008150 -0.000004 -0.000025
    38 2.630291 -0.359835 -1.904289 0.415078 0.423437 -0.720800
    39 1.059293 0.000000 0.000000 0.015101 0.038905 0.767148
    40 0.781204 0.000000 0.000000 0.004782 0.022537 0.418308
    41 -0.044717 2.528787 4.661499 0.027425 0.153878 -0.047255
  time 19
    0 0.056247 0.091421 36.549696 1.567483 -0.039453 -0.750180
    1 3.890452 -0.000004 -0.000003 -2.203651 -0.234218 -1.333079
    2 17.848177 0.000000 0.000000 0.000000 0.000000 0.592183
    3 15.638507 0.000000 0.000000 0.025953 0.175901 -1.181436
    4 7.109929 0.000000 0.000000 -0.007119 -0.003131 -0.631738
    5 -3.890452 0.000004 0.000007 -1.505105 -0.229737 -1.675729
    6 17.848173 0.000000 0.000000 0.000000 0.000000 0.702428
    7 15.638511 0.000000 0.000000 0.019896 -0.064620 -1.397094
    8 7.109930 0.000000 0.000000 -0.081142 -0.003155 -0.637172
    9 0.000005 3.345128 -2.981901 1.625169 0.053763 1.544789
    10 4.018331 0.000000 0.000000 -0.011211 -0.108700 0.163198
    11 3.518565 0.000000 0.000000 -0.079574 -0.090723 0.289699
    12 8.942642 0.000000 0.000000 -0.126299 0.122195 0.221520
    13 3.306641 0.000002 0.000000 3.138800 0.000567 0.400476
    14 3.593712 -0.000001 0.000000 0.860069 0.196648 0.529846
    15 2.033346 1.000768 1.101697 2.385451 -1.528127 2.146508
    16 6.809416 0.000001 0.000000 -1.495362 -0.391166 -1.061610
    17 12.391796 0.000000 0.000001 0.000000 0.000000 -1.546734
    18 9.337076 0.000000 -0.000031 0.455530 -0.366438 0.745660
    19 4.454020 -0.070210 0.572073 0.095490 -0.008587 -0.706335
    20 1.426597 -0.000001 0.000000 0.055908 -0.087976 -1.504206
    21 1.322468 -0.000002 0.000000 0.009312 -0.033625 -0.575065
    22 4.477066 -0.028570 1.582474 0.481653 -0.035390 -1.246096
    23 1.344418 0.000000 0.000000 0.023466 -0.208305 -0.755723
    24 1.224671 0.000000 0.000000 0.026043 -0.124620 -0.538676
    25 2.630323 -0.345015 1.907214 -0.354022 -0.915164 -1.788195
    26 1.059292 0.000000 0.000001 -0.001067 -0.012855 0.250988
    27 0.781203 0.000000 0.000000 -0.000096 -0.003210 0.062757
    28 2.033353 1.000771 -1.101647 -3.176988 1.193701 1.415651
    29 6.809417 0.000001 0.000000 0.896016 0.581817 -0.698763
    30 12.391794 0.000000 0.000001 0.000000 0.000000 -1.850509
    31 9.337102 0.000000 0.000003 -0.842314 0.109918 0.311951
    32 4.453986 -0.073766 -0.571672 0.047699 -0.153453 -0.767464
    33 1.426599 0.000002 0.000000 -0.053883 0.078890 -1.553256
    34 1.322465 -0.000001 0.000000 -0.013603 0.036958 -0.732277
    35 4.477036 -0.043465 -1.581290 -0.332631 0.218360 0.154973
    36 1.344414 0.000000 0.000000 -0.042629 0.220735 -0.851579
    37 1.224670 0.000001 0.000000 0.008150 -0.000004 -0.000025
    38 2.630291 -0.359835 -1.904289 0.415078 0.423437 -0.720800
    39 1.059293 0.000000 0.000000 0.015101 0.038905 0.767148
    40 0.781204 0.000000 0.000000 0.004782 0.022537 0.418308
    41 -0.044717 2.528787 4.661499 -0.005825 0.091171 -0.017836
  time 20
    0 0.017183 -0.020310 36.364441 1.570626 0.000000 -0.746639
    1 3.890452 -0.000004 -0.000003 -2.211572 -0.286262 -1.275004
    2 17.848177 0.000000 0.000000 0.000000 0.000000 0.694007
    3 15.638507 0.000000 0.000000 0.038170 0.167534 -1.231524
    4 7.109929 0.000000 0.000000 -0.007119 -0.003131 -0.631738
    5 -3.890452 0.000004 0.000007 -1.497383 -0.223439 -1.650471
    6 17.848173 0.000000 0.000000 0.000000 0.000000 0.691299
    7 15.638511 0.000000 0.000000 0.028049 -0.075405 -1.394802
    8 7.109930 0.000000 0.000000 -0.081154 -0.003131 -0.631749
    9 0.000005 3.345128 -2.981901 1.570796 0.086293 1.570796
    10 4.018331 0.000000 0.000000 -0.011799 -0.120110 0.193933
    11 3.518565 0.000000 0.000000 -0.039210 -0.083509 0.333403
    12 8.942642 0.000000 0.000000 -0.078838 0.112907 0.222365
    13 3.306641 0.000002 0.000000 3.138800 0.000567 0.400476
    14 3.593712 -0.000001 0.000000 0.835937 0.157481 0.610676
    15 2.033346 1.000768 1.101697 2.385451 -1.528127 2.146508
    16 6.809416 0.000001 0.000000 -1.493353 -0.487772 -1.087169
    17 12.391796 0.000000 0.000001 0.000000 0.000000 -1.462051
    18 9.337076 0.000000 -0.000031 0.470519 -0.321227 0.707696
    19 4.454020 -0.070210 0.572073 0.095490 -0.008587 -0.706335
    20 1.426597 -0.000001 0.000000 0.055908 -0.087976 -1.504206
    21 1.322468 -0.000002 0.000000 0.009312 -0.033625 -0.575065
    22 4.477066 -0.028570 1.582474 0.481653 -0.035390 -1.246096
    23 1.344418 0.000000 0.000000 0.023466 -0.208305 -0.755723
    24 1.224671 0.000000 0.000000 0.026043 -0.124620 -0.538676
    25 2.630323 -0.345015 1.907214 -0.354022 -0.915164 -1.788195
    26 1.059292 0.000000 0.000001 -0.001067 -0.012855 0.250988
    27 0.781203 0.000000 0.000000 -0.000096 -0.003210 0.062757
    28 2.033353 1.000771 -1.101647 -3.176988 1.193701 1.415651
    29 6.809417 0.000001 0.000000 0.984512 0.561976 -0.662977
    30 12.391794 0.000000 0.000001 0.000000 0.000000 -1.899924
    31 9.337102 0.000000 0.000003 -0.842122 0.065489 0.390440
    32 4.453986 -0.073766 -0.571672 0.047699 -0.153453 -0.767464
    33 1.426599 0.000002 0.000000 -0.053883 0.078890 -1.553256
    34 1.322465 -0.000001 0.000000 -0.013603 0.036958 -0.732277
    35 4.477036 -0.043465 -1.581290 -0.332631 0.218360 0.154973
    36 1.344414 0.000000 0.000000 -0.042629 0.220735 -0.851579
    37 1.224670 0.000001 0.000000 0.008150 -0.000004 -0.000025
    38 2.630291 -0.359835 -1.904289 0.415078 0.423437 -0.720800
    39 1.059293 0.000000 0.000000 0.015101 0.038905 0.767148
    40 0.781204 0.000000 0.000000 0.004782 0.022537 0.418308
    41 -0.044717 2.528787 4.661499 -0.038945 0.037199 0.009860
end
