// Created by Crowbar 0.68
version 1
nodes
  0 "ValveBiped.Bip01_Pelvis" -1
  1 "ValveBiped.Bip01_L_Thigh" 0
  2 "ValveBiped.Bip01_L_Calf" 1
  3 "ValveBiped.Bip01_L_Foot" 2
  4 "ValveBiped.Bip01_L_Toe0" 3
  5 "ValveBiped.Bip01_R_Thigh" 0
  6 "ValveBiped.Bip01_R_Calf" 5
  7 "ValveBiped.Bip01_R_Foot" 6
  8 "ValveBiped.Bip01_R_Toe0" 7
  9 "ValveBiped.Bip01_Spine" 0
  10 "ValveBiped.Bip01_Spine1" 9
  11 "ValveBiped.Bip01_Spine2" 10
  12 "ValveBiped.Bip01_Spine4" 11
  13 "ValveBiped.Bip01_Neck1" 12
  14 "ValveBiped.Bip01_Head1" 13
  15 "ValveBiped.Bip01_L_Clavicle" 12
  16 "ValveBiped.Bip01_L_UpperArm" 15
  17 "ValveBiped.Bip01_L_Forearm" 16
  18 "ValveBiped.Bip01_L_Hand" 17
  19 "ValveBiped.Bip01_L_Finger2" 18
  20 "ValveBiped.Bip01_L_Finger21" 19
  21 "ValveBiped.Bip01_L_Finger22" 20
  22 "ValveBiped.Bip01_L_Finger1" 18
  23 "ValveBiped.Bip01_L_Finger11" 22
  24 "ValveBiped.Bip01_L_Finger12" 23
  25 "ValveBiped.Bip01_L_Finger0" 18
  26 "ValveBiped.Bip01_L_Finger01" 25
  27 "ValveBiped.Bip01_L_Finger02" 26
  28 "ValveBiped.Bip01_R_Clavicle" 12
  29 "ValveBiped.Bip01_R_UpperArm" 28
  30 "ValveBiped.Bip01_R_Forearm" 29
  31 "ValveBiped.Bip01_R_Hand" 30
  32 "ValveBiped.Bip01_R_Finger2" 31
  33 "ValveBiped.Bip01_R_Finger21" 32
  34 "ValveBiped.Bip01_R_Finger22" 33
  35 "ValveBiped.Bip01_R_Finger1" 31
  36 "ValveBiped.Bip01_R_Finger11" 35
  37 "ValveBiped.Bip01_R_Finger12" 36
  38 "ValveBiped.Bip01_R_Finger0" 31
  39 "ValveBiped.Bip01_R_Finger01" 38
  40 "ValveBiped.Bip01_R_Finger02" 39
  41 "ValveBiped.Cod" 0
  42 "ValveBiped.Anim_Attachment_LH" 18
  43 "ValveBiped.Anim_Attachment_RH" 31
end
skeleton
  time 0
    0 -0.088289 -2.806656 34.324600 1.538037 -0.008382 -0.546230
    1 3.890452 -0.000004 -0.000003 -1.570796 0.051839 -1.565574
    2 17.848175 0.000000 0.000000 0.000000 0.000000 0.034200
    3 16.525249 0.000000 0.000000 -0.027915 -0.040782 -1.071638
    4 6.879453 0.000000 0.000000 -0.007299 -0.002951 -0.584373
    5 -3.890452 0.000004 0.000007 -1.570796 0.051845 -1.576021
    6 17.848171 0.000000 0.000000 0.000000 0.000000 0.034187
    7 16.525257 0.000000 0.000000 0.038611 0.040779 -1.071632
    8 6.879454 0.000000 0.000000 -0.081333 -0.002951 -0.584373
    9 0.283203 3.332031 -2.980469 1.518774 -0.175557 1.315727
    10 4.018331 0.000000 0.000000 -0.125006 0.079374 0.191174
    11 3.518561 0.000000 0.000000 -0.099560 0.113590 0.280423
    12 8.942642 0.000000 0.000000 -0.008970 0.018288 0.160674
    13 3.307271 0.000000 0.000000 3.141590 0.000000 0.400478
    14 3.593710 -0.000003 0.000000 0.899257 -0.015889 0.569877
    15 2.033346 1.000767 1.937660 1.917151 -1.451780 2.620575
    16 6.028142 0.000002 0.000000 -2.506519 -0.630012 -0.225178
    17 11.692556 0.000000 -0.000001 0.000000 0.000000 -1.427516
    18 11.481671 0.000000 -0.000029 0.768896 0.114587 0.371179
    19 3.883691 -0.046771 0.431443 0.096615 -0.011011 -0.677044
    20 1.719575 0.000000 0.000000 0.055915 -0.087979 -1.327497
    21 1.209183 -0.000001 0.000000 0.009316 -0.033629 -0.516185
    22 3.859861 -0.137948 1.332466 0.537935 -0.132420 -0.946691
    23 1.719428 0.000001 0.000000 0.023466 -0.208305 -0.932460
    24 1.099667 0.000000 0.000000 0.026046 -0.124620 -0.715397
    25 0.806048 -0.348922 1.321258 -0.985982 -0.350858 -0.739448
    26 1.789783 0.000001 0.000001 -0.001067 -0.012843 0.349165
    27 1.207000 0.000000 0.000001 -0.000102 -0.003216 0.416181
    28 2.033354 1.000771 -1.937610 3.037629 1.090916 1.390771
    29 6.028142 0.000004 0.000000 1.469454 1.175419 -0.673294
    30 11.692552 0.000000 0.000002 0.000000 0.000000 -1.820291
    31 11.481699 0.000000 0.000004 -0.841723 0.040062 0.812275
    32 3.883657 -0.050329 -0.431043 -0.386562 0.126212 -1.146673
    33 1.719576 0.000003 0.000000 -0.051400 0.078807 -1.521771
    34 1.209180 -0.000001 0.000000 -0.034697 0.051520 -1.200274
    35 3.859830 -0.148938 -1.331282 -0.083014 0.164909 0.067474
    36 1.719426 0.000000 0.000000 0.024529 0.136368 -0.478052
    37 1.099666 0.000000 0.000000 -0.166396 0.224946 -1.318203
    38 0.806017 -0.359836 -1.318334 1.070430 0.381350 -0.978489
    39 1.789784 0.000000 -0.000001 0.002198 0.017482 0.317171
    40 1.206998 0.000000 0.000000 0.006478 0.026016 0.488055
    41 -0.044717 2.313936 4.661499 -0.106501 -0.080808 -0.076749
    42 2.676088 -1.712442 0.000000 1.570797 0.000000 1.570797
    43 2.676088 -1.712443 0.000000 -1.570796 0.000000 -1.570796
  time 1
    0 -0.100008 -5.202735 34.371477 1.538928 -0.007844 -0.534734
    1 3.890452 -0.000004 -0.000003 -1.570796 0.051839 -1.565574
    2 17.848175 0.000000 0.000000 0.000000 0.000000 0.034200
    3 16.525249 0.000000 0.000000 -0.027915 -0.040782 -1.071638
    4 6.879453 0.000000 0.000000 -0.007299 -0.002951 -0.584373
    5 -3.890452 0.000004 0.000007 -1.570796 0.051845 -1.576021
    6 17.848171 0.000000 0.000000 0.000000 0.000000 0.034187
    7 16.525257 0.000000 0.000000 0.038611 0.040779 -1.071632
    8 6.879454 0.000000 0.000000 -0.081333 -0.002951 -0.584373
    9 0.283203 3.332031 -2.980469 1.518774 -0.175557 1.315727
    10 4.018331 0.000000 0.000000 -0.131132 0.080956 0.191209
    11 3.518561 0.000000 0.000000 -0.105423 0.116850 0.280392
    12 8.942642 0.000000 0.000000 -0.014750 0.019834 0.160648
    13 3.307271 0.000000 0.000000 3.141590 0.000000 0.400478
    14 3.593710 -0.000003 0.000000 0.906808 -0.014678 0.571417
    15 2.033346 1.000767 1.937660 1.917151 -1.451780 2.620575
    16 6.028142 0.000002 0.000000 -2.511045 -0.617985 -0.221372
    17 11.692556 0.000000 -0.000001 0.000000 0.000000 -1.429960
    18 11.481671 0.000000 -0.000029 0.765456 0.118033 0.371693
    19 3.883691 -0.046771 0.431443 0.096615 -0.011011 -0.677044
    20 1.719575 0.000000 0.000000 0.055915 -0.087979 -1.327497
    21 1.209183 -0.000001 0.000000 0.009316 -0.033629 -0.516185
    22 3.859861 -0.137948 1.332466 0.537935 -0.132420 -0.946691
    23 1.719428 0.000001 0.000000 0.023466 -0.208305 -0.932460
    24 1.099667 0.000000 0.000000 0.026046 -0.124620 -0.715397
    25 0.806048 -0.348922 1.321258 -0.985982 -0.350858 -0.739448
    26 1.789783 0.000001 0.000001 -0.001067 -0.012855 0.349165
    27 1.207000 0.000000 0.000001 -0.000102 -0.003216 0.416181
    28 2.033354 1.000771 -1.937610 3.037629 1.090916 1.390771
    29 6.028142 0.000004 0.000000 1.455565 1.185083 -0.685915
    30 11.692552 0.000000 0.000002 0.000000 0.000000 -1.811323
    31 11.481699 0.000000 0.000004 -0.841140 0.040269 0.807369
    32 3.883657 -0.050329 -0.431043 -0.386562 0.126212 -1.146673
    33 1.719576 0.000003 0.000000 -0.051400 0.078807 -1.521771
    34 1.209180 -0.000001 0.000000 -0.034697 0.051520 -1.200274
    35 3.859830 -0.148938 -1.331282 -0.083014 0.164909 0.067474
    36 1.719426 0.000000 0.000000 0.024529 0.136368 -0.478052
    37 1.099666 0.000000 0.000000 -0.166396 0.224946 -1.318203
    38 0.806017 -0.359836 -1.318334 1.070430 0.381350 -0.978489
    39 1.789784 0.000000 -0.000001 0.002184 0.017482 0.317171
    40 1.206998 0.000000 0.000000 0.006478 0.026016 0.488055
    41 -0.044717 2.313936 4.661499 -0.182420 -0.024919 -0.083748
    42 2.676088 -1.712442 0.000000 1.570797 0.000000 1.570797
    43 2.676088 -1.712443 0.000000 -1.570796 0.000000 -1.570796
  time 2
    0 -0.123446 -7.598815 34.406634 1.540072 -0.007176 -0.519885
    1 3.890452 -0.000004 -0.000003 -1.570796 0.051839 -1.565574
    2 17.848175 0.000000 0.000000 0.000000 0.000000 0.034200
    3 16.525249 0.000000 0.000000 -0.027915 -0.040782 -1.071638
    4 6.879453 0.000000 0.000000 -0.007299 -0.002951 -0.584373
    5 -3.890452 0.000004 0.000007 -1.570796 0.051845 -1.576021
    6 17.848171 0.000000 0.000000 0.000000 0.000000 0.034187
    7 16.525257 0.000000 0.000000 0.038611 0.040779 -1.071632
    8 6.879454 0.000000 0.000000 -0.081333 -0.002951 -0.584373
    9 0.283203 3.332031 -2.980469 1.518774 -0.175557 1.315727
    10 4.018331 0.000000 0.000000 -0.137996 0.082610 0.191227
    11 3.518561 0.000000 0.000000 -0.112034 0.120325 0.280377
    12 8.942642 0.000000 0.000000 -0.021587 0.021680 0.160622
    13 3.307271 0.000000 0.000000 3.141590 0.000000 0.400478
    14 3.593710 -0.000003 0.000000 0.914636 -0.013410 0.573081
    15 2.033346 1.000767 1.937660 1.917151 -1.451780 2.620575
    16 6.028142 0.000002 0.000000 -2.514910 -0.607712 -0.216267
    17 11.692556 0.000000 -0.000001 0.000000 0.000000 -1.430670
    18 11.481671 0.000000 -0.000029 0.763259 0.121064 0.370863
    19 3.883691 -0.046771 0.431443 0.096615 -0.011011 -0.677044
    20 1.719575 0.000000 0.000000 0.055915 -0.087979 -1.327497
    21 1.209183 -0.000001 0.000000 0.009316 -0.033629 -0.516185
    22 3.859861 -0.137948 1.332466 0.537935 -0.132420 -0.946691
    23 1.719428 0.000001 0.000000 0.023466 -0.208305 -0.932422
    24 1.099667 0.000000 0.000000 0.026046 -0.124620 -0.715397
    25 0.806048 -0.348922 1.321258 -0.985982 -0.350858 -0.739448
    26 1.789783 0.000001 0.000001 -0.001067 -0.012843 0.349165
    27 1.207000 0.000000 0.000001 -0.000102 -0.003216 0.416181
    28 2.033354 1.000771 -1.937610 3.037629 1.090916 1.390771
    29 6.028142 0.000004 0.000000 1.438993 1.192520 -0.702237
    30 11.692552 0.000000 0.000002 0.000000 0.000000 -1.802500
    31 11.481699 0.000000 0.000004 -0.841011 0.042820 0.800123
    32 3.883657 -0.050329 -0.431043 -0.386562 0.126212 -1.146673
    33 1.719576 0.000003 0.000000 -0.051400 0.078807 -1.521771
    34 1.209180 -0.000001 0.000000 -0.034697 0.051520 -1.200274
    35 3.859830 -0.148938 -1.331282 -0.083014 0.164909 0.067474
    36 1.719426 0.000000 0.000000 0.024529 0.136368 -0.478052
    37 1.099666 0.000000 0.000000 -0.166396 0.224946 -1.318203
    38 0.806017 -0.359836 -1.318334 1.070430 0.381350 -0.978489
    39 1.789784 0.000000 -0.000001 0.002198 0.017482 0.317171
    40 1.206998 0.000000 0.000000 0.006478 0.026016 0.488055
    41 -0.044717 2.313936 4.661499 -0.286313 0.063233 -0.095182
    42 2.676088 -1.712442 0.000000 1.570797 0.000000 1.570797
    43 2.676088 -1.712443 0.000000 -1.570796 0.000000 -1.570796
  time 3
    0 -0.150791 -9.994895 34.422260 1.541472 -0.006393 -0.501875
    1 3.890452 -0.000004 -0.000003 -1.570796 0.051839 -1.565574
    2 17.848175 0.000000 0.000000 0.000000 0.000000 0.034200
    3 16.525249 0.000000 0.000000 -0.027915 -0.040782 -1.071638
    4 6.879453 0.000000 0.000000 -0.007299 -0.002951 -0.584373
    5 -3.890452 0.000004 0.000007 -1.570796 0.051845 -1.576021
    6 17.848171 0.000000 0.000000 0.000000 0.000000 0.034187
    7 16.525257 0.000000 0.000000 0.038611 0.040779 -1.071632
    8 6.879454 0.000000 0.000000 -0.081333 -0.002951 -0.584373
    9 0.283203 3.332031 -2.980469 1.518774 -0.175557 1.315727
    10 4.018331 0.000000 0.000000 -0.145405 0.084276 0.191262
    11 3.518561 0.000000 0.000000 -0.119144 0.123885 0.280345
    12 8.942642 0.000000 0.000000 -0.029288 0.023741 0.160569
    13 3.307271 0.000000 0.000000 3.141590 0.000000 0.400478
    14 3.593710 -0.000003 0.000000 0.922353 -0.012171 0.574683
    15 2.033346 1.000767 1.937660 1.917151 -1.451780 2.620575
    16 6.028142 0.000002 0.000000 -2.517550 -0.599483 -0.210604
    17 11.692556 0.000000 -0.000001 0.000000 0.000000 -1.430275
    18 11.481671 0.000000 -0.000029 0.762399 0.123430 0.369242
    19 3.883691 -0.046771 0.431443 0.096615 -0.011011 -0.677044
    20 1.719575 0.000000 0.000000 0.055915 -0.087979 -1.327497
    21 1.209183 -0.000001 0.000000 0.009316 -0.033629 -0.516185
    22 3.859861 -0.137948 1.332466 0.537935 -0.132420 -0.946691
    23 1.719428 0.000001 0.000000 0.023466 -0.208305 -0.932460
    24 1.099667 0.000000 0.000000 0.026046 -0.124620 -0.715397
    25 0.806048 -0.348922 1.321258 -0.985982 -0.350858 -0.739448
    26 1.789783 0.000001 0.000001 -0.001067 -0.012843 0.349165
    27 1.207000 0.000000 0.000001 -0.000102 -0.003216 0.416181
    28 2.033354 1.000771 -1.937610 3.037629 1.090916 1.390771
    29 6.028142 0.000004 0.000000 1.420123 1.197021 -0.721880
    30 11.692552 0.000000 0.000002 0.000000 0.000000 -1.794762
    31 11.481699 0.000000 0.000004 -0.841529 0.047233 0.791564
    32 3.883657 -0.050329 -0.431043 -0.386562 0.126212 -1.146673
    33 1.719576 0.000003 0.000000 -0.051400 0.078807 -1.521771
    34 1.209180 -0.000001 0.000000 -0.034697 0.051520 -1.200274
    35 3.859830 -0.148938 -1.331282 -0.083014 0.164909 0.067474
    36 1.719426 0.000000 0.000000 0.024529 0.136368 -0.478052
    37 1.099666 0.000000 0.000000 -0.166396 0.224946 -1.318203
    38 0.806017 -0.359836 -1.318334 1.070430 0.381350 -0.978489
    39 1.789784 0.000000 -0.000001 0.002198 0.017482 0.317171
    40 1.206998 0.000000 0.000000 0.006478 0.026016 0.488055
    41 -0.044717 2.313936 4.661499 -0.407174 0.164204 -0.108317
    42 2.676088 -1.712442 0.000000 1.570797 0.000000 1.570797
    43 2.676088 -1.712443 0.000000 -1.570796 0.000000 -1.570796
  time 4
    0 -0.182042 -12.390974 34.410541 1.543126 -0.005496 -0.481087
    1 3.890452 -0.000004 -0.000003 -1.570796 0.051839 -1.565574
    2 17.848175 0.000000 0.000000 0.000000 0.000000 0.034200
    3 16.525249 0.000000 0.000000 -0.027915 -0.040782 -1.071638
    4 6.879453 0.000000 0.000000 -0.007299 -0.002951 -0.584373
    5 -3.890452 0.000004 0.000007 -1.570796 0.051845 -1.576021
    6 17.848171 0.000000 0.000000 0.000000 0.000000 0.034187
    7 16.525257 0.000000 0.000000 0.038611 0.040779 -1.071632
    8 6.879454 0.000000 0.000000 -0.081333 -0.002951 -0.584373
    9 0.283203 3.332031 -2.980469 1.518774 -0.175557 1.315727
    10 4.018331 0.000000 0.000000 -0.153086 0.085894 0.191279
    11 3.518561 0.000000 0.000000 -0.126557 0.127396 0.280299
    12 8.942642 0.000000 0.000000 -0.037588 0.025971 0.160490
    13 3.307271 0.000000 0.000000 3.141590 0.000000 0.400478
    14 3.593710 -0.000003 0.000000 0.929682 -0.011016 0.576224
    15 2.033346 1.000767 1.937660 1.917151 -1.451780 2.620575
    16 6.028142 0.000002 0.000000 -2.518399 -0.593348 -0.204570
    17 11.692556 0.000000 -0.000001 0.000000 0.000000 -1.429487
    18 11.481671 0.000000 -0.000029 0.762303 0.125008 0.367582
    19 3.883691 -0.046771 0.431443 0.096615 -0.011011 -0.677044
    20 1.719575 0.000000 0.000000 0.055915 -0.087979 -1.327497
    21 1.209183 -0.000001 0.000000 0.009316 -0.033629 -0.516185
    22 3.859861 -0.137948 1.332466 0.537935 -0.132420 -0.946691
    23 1.719428 0.000001 0.000000 0.023466 -0.208305 -0.932460
    24 1.099667 0.000000 0.000000 0.026046 -0.124620 -0.715397
    25 0.806048 -0.348922 1.321258 -0.985982 -0.350858 -0.739448
    26 1.789783 0.000001 0.000001 -0.001067 -0.012843 0.349165
    27 1.207000 0.000000 0.000001 -0.000102 -0.003216 0.416181
    28 2.033354 1.000771 -1.937610 3.037629 1.090916 1.390771
    29 6.028142 0.000004 0.000000 1.400582 1.198300 -0.743516
    30 11.692552 0.000000 0.000002 0.000000 0.000000 -1.789048
    31 11.481699 0.000000 0.000004 -0.842889 0.052853 0.782721
    32 3.883657 -0.050329 -0.431043 -0.386562 0.126212 -1.146673
    33 1.719576 0.000003 0.000000 -0.051400 0.078807 -1.521771
    34 1.209180 -0.000001 0.000000 -0.034697 0.051520 -1.200274
    35 3.859830 -0.148938 -1.331282 -0.083014 0.164909 0.067474
    36 1.719426 0.000000 0.000000 0.024529 0.136368 -0.478052
    37 1.099666 0.000000 0.000000 -0.166396 0.224946 -1.318203
    38 0.806017 -0.359836 -1.318334 1.070430 0.381350 -0.978489
    39 1.789784 0.000000 -0.000001 0.002184 0.017482 0.317171
    40 1.206998 0.000000 0.000000 0.006478 0.026016 0.488055
    41 -0.044717 2.313936 4.661499 -0.536677 0.258516 -0.120469
    42 2.676088 -1.712442 0.000000 1.570797 0.000000 1.570797
    43 2.676088 -1.712443 0.000000 -1.570796 0.000000 -1.570796
  time 5
    0 -0.217199 -14.787054 34.383196 1.544970 -0.004566 -0.457999
    1 3.890452 -0.000004 -0.000003 -1.570796 0.051839 -1.565574
    2 17.848175 0.000000 0.000000 0.000000 0.000000 0.034200
    3 16.525249 0.000000 0.000000 -0.027915 -0.040782 -1.071638
    4 6.879453 0.000000 0.000000 -0.007299 -0.002951 -0.584373
    5 -3.890452 0.000004 0.000007 -1.570796 0.051845 -1.576021
    6 17.848171 0.000000 0.000000 0.000000 0.000000 0.034187
    7 16.525257 0.000000 0.000000 0.038611 0.040779 -1.071632
    8 6.879454 0.000000 0.000000 -0.081333 -0.002951 -0.584373
    9 0.283203 3.332031 -2.980469 1.518774 -0.175557 1.315727
    10 4.018331 0.000000 0.000000 -0.160816 0.087404 0.191314
    11 3.518561 0.000000 0.000000 -0.134059 0.130740 0.280252
    12 8.942642 0.000000 0.000000 -0.046294 0.028296 0.160398
    13 3.307271 0.000000 0.000000 3.141590 0.000000 0.400478
    14 3.593710 -0.000003 0.000000 0.936122 -0.010030 0.577579
    15 2.033346 1.000767 1.937660 1.917151 -1.451780 2.620575
    16 6.028142 0.000002 0.000000 -2.517550 -0.589453 -0.198629
    17 11.692556 0.000000 -0.000001 0.000000 0.000000 -1.428541
    18 11.481671 0.000000 -0.000029 0.763068 0.125672 0.366634
    19 3.883691 -0.046771 0.431443 0.096615 -0.011011 -0.677044
    20 1.719575 0.000000 0.000000 0.055915 -0.087979 -1.327497
    21 1.209183 -0.000001 0.000000 0.009316 -0.033629 -0.516185
    22 3.859861 -0.137948 1.332466 0.537935 -0.132420 -0.946691
    23 1.719428 0.000001 0.000000 0.023466 -0.208305 -0.932460
    24 1.099667 0.000000 0.000000 0.026046 -0.124620 -0.715397
    25 0.806048 -0.348922 1.321258 -0.985982 -0.350858 -0.739448
    26 1.789783 0.000001 0.000001 -0.001067 -0.012843 0.349165
    27 1.207000 0.000000 0.000001 -0.000102 -0.003216 0.416181
    28 2.033354 1.000771 -1.937610 3.037629 1.090916 1.390771
    29 6.028142 0.000004 0.000000 1.382861 1.196452 -0.764962
    30 11.692552 0.000000 0.000002 0.000000 0.000000 -1.785722
    31 11.481699 0.000000 0.000004 -0.844638 0.058370 0.774162
    32 3.883657 -0.050329 -0.431043 -0.386562 0.126212 -1.146673
    33 1.719576 0.000003 0.000000 -0.051400 0.078807 -1.521771
    34 1.209180 -0.000001 0.000000 -0.034697 0.051520 -1.200274
    35 3.859830 -0.148938 -1.331282 -0.083014 0.164909 0.067474
    36 1.719426 0.000000 0.000000 0.024529 0.136368 -0.478052
    37 1.099666 0.000000 0.000000 -0.166396 0.224946 -1.318203
    38 0.806017 -0.359836 -1.318334 1.070430 0.381350 -0.978489
    39 1.789784 0.000000 -0.000001 0.002184 0.017482 0.317171
    40 1.206998 0.000000 0.000000 0.006478 0.026016 0.488055
    41 -0.044717 2.313936 4.661499 -0.610640 0.326677 -0.128918
    42 2.676088 -1.712442 0.000000 1.570797 0.000000 1.570797
    43 2.676088 -1.712443 0.000000 -1.570796 0.000000 -1.570796
  time 6
    0 -0.252356 -17.189261 34.336320 1.546942 -0.003637 -0.434050
    1 3.890452 -0.000004 -0.000003 -1.570796 0.051839 -1.565574
    2 17.848175 0.000000 0.000000 0.000000 0.000000 0.034200
    3 16.525249 0.000000 0.000000 -0.027915 -0.040782 -1.071638
    4 6.879453 0.000000 0.000000 -0.007299 -0.002951 -0.584373
    5 -3.890452 0.000004 0.000007 -1.570796 0.051845 -1.576021
    6 17.848171 0.000000 0.000000 0.000000 0.000000 0.034187
    7 16.525257 0.000000 0.000000 0.038611 0.040779 -1.071632
    8 6.879454 0.000000 0.000000 -0.081333 -0.002951 -0.584373
    9 0.283203 3.332031 -2.980469 1.518774 -0.175557 1.315727
    10 4.018331 0.000000 0.000000 -0.168385 0.088710 0.191349
    11 3.518561 0.000000 0.000000 -0.141401 0.133772 0.280206
    12 8.942642 0.000000 0.000000 -0.055105 0.030657 0.160279
    13 3.307271 0.000000 0.000000 3.141590 0.000000 0.400478
    14 3.593710 -0.000003 0.000000 0.940897 -0.009269 0.578565
    15 2.033346 1.000767 1.937660 1.917151 -1.451780 2.620575
    16 6.028142 0.000002 0.000000 -2.515193 -0.586580 -0.193338
    17 11.692556 0.000000 -0.000001 0.000000 0.000000 -1.428304
    18 11.481671 0.000000 -0.000029 0.763832 0.125506 0.367227
    19 3.883691 -0.046771 0.431443 0.096615 -0.011011 -0.677044
    20 1.719575 0.000000 0.000000 0.055915 -0.087979 -1.327497
    21 1.209183 -0.000001 0.000000 0.009316 -0.033629 -0.516185
    22 3.859861 -0.137948 1.332466 0.537935 -0.132420 -0.946691
    23 1.719428 0.000001 0.000000 0.023466 -0.208305 -0.932460
    24 1.099667 0.000000 0.000000 0.026046 -0.124620 -0.715397
    25 0.806048 -0.348922 1.321258 -0.985982 -0.350858 -0.739448
    26 1.789783 0.000001 0.000001 -0.001067 -0.012843 0.349165
    27 1.207000 0.000000 0.000001 -0.000102 -0.003216 0.416181
    28 2.033354 1.000771 -1.937610 3.037629 1.090916 1.390771
    29 6.028142 0.000004 0.000000 1.368013 1.192615 -0.784510
    30 11.692552 0.000000 0.000002 0.000000 0.000000 -1.784347
    31 11.481699 0.000000 0.000004 -0.846452 0.062439 0.766403
    32 3.883657 -0.050329 -0.431043 -0.386562 0.126212 -1.146673
    33 1.719576 0.000003 0.000000 -0.051400 0.078807 -1.521771
    34 1.209180 -0.000001 0.000000 -0.034697 0.051520 -1.200274
    35 3.859830 -0.148938 -1.331282 -0.083014 0.164909 0.067474
    36 1.719426 0.000000 0.000000 0.024529 0.136368 -0.478052
    37 1.099666 0.000000 0.000000 -0.166396 0.224946 -1.318203
    38 0.806017 -0.359836 -1.318334 1.070430 0.381350 -0.978489
    39 1.789784 0.000000 -0.000001 0.002198 0.017482 0.317171
    40 1.206998 0.000000 0.000000 0.006478 0.026016 0.488055
    41 -0.044717 2.313936 4.661499 -0.620010 0.364118 -0.132609
    42 2.676088 -1.712442 0.000000 1.570797 0.000000 1.570797
    43 2.676088 -1.712443 0.000000 -1.570796 0.000000 -1.570796
  time 7
    0 -0.283607 -19.585341 34.281630 1.548596 -0.002887 -0.413453
    1 3.890452 -0.000004 -0.000003 -1.570796 0.051839 -1.565574
    2 17.848175 0.000000 0.000000 0.000000 0.000000 0.034200
    3 16.525249 0.000000 0.000000 -0.027915 -0.040782 -1.071638
    4 6.879453 0.000000 0.000000 -0.007299 -0.002951 -0.584373
    5 -3.890452 0.000004 0.000007 -1.570796 0.051845 -1.576021
    6 17.848171 0.000000 0.000000 0.000000 0.000000 0.034187
    7 16.525257 0.000000 0.000000 0.038611 0.040779 -1.071632
    8 6.879454 0.000000 0.000000 -0.081333 -0.002951 -0.584373
    9 0.283203 3.332031 -2.980469 1.518774 -0.175557 1.315727
    10 4.018331 0.000000 0.000000 -0.175570 0.089741 0.191401
    11 3.518561 0.000000 0.000000 -0.148404 0.136301 0.280159
    12 8.942642 0.000000 0.000000 -0.063758 0.032970 0.160134
    13 3.307271 0.000000 0.000000 3.141590 0.000000 0.400478
    14 3.593710 -0.000003 0.000000 0.942840 -0.008987 0.578996
    15 2.033346 1.000767 1.937660 1.917151 -1.451780 2.620575
    16 6.028142 0.000002 0.000000 -2.512647 -0.579812 -0.190553
    17 11.692556 0.000000 -0.000001 0.000000 0.000000 -1.431143
    18 11.481671 0.000000 -0.000029 0.763259 0.125506 0.369558
    19 3.883691 -0.046771 0.431443 0.096615 -0.011011 -0.677044
    20 1.719575 0.000000 0.000000 0.055915 -0.087979 -1.327497
    21 1.209183 -0.000001 0.000000 0.009316 -0.033629 -0.516185
    22 3.859861 -0.137948 1.332466 0.537935 -0.132420 -0.946691
    23 1.719428 0.000001 0.000000 0.023466 -0.208305 -0.932460
    24 1.099667 0.000000 0.000000 0.026046 -0.124620 -0.715397
    25 0.806048 -0.348922 1.321258 -0.985982 -0.350858 -0.739448
    26 1.789783 0.000001 0.000001 -0.001067 -0.012843 0.349165
    27 1.207000 0.000000 0.000001 -0.000102 -0.003216 0.416181
    28 2.033354 1.000771 -1.937610 3.037629 1.090916 1.390771
    29 6.028142 0.000004 0.000000 1.351825 1.191005 -0.804153
    30 11.692552 0.000000 0.000002 0.000000 0.000000 -1.781816
    31 11.481699 0.000000 0.000004 -0.847942 0.063749 0.759214
    32 3.883657 -0.050329 -0.431043 -0.386562 0.126212 -1.146673
    33 1.719576 0.000003 0.000000 -0.051400 0.078807 -1.521771
    34 1.209180 -0.000001 0.000000 -0.034697 0.051520 -1.200274
    35 3.859830 -0.148938 -1.331282 -0.083014 0.164909 0.067474
    36 1.719426 0.000000 0.000000 0.024529 0.136368 -0.478052
    37 1.099666 0.000000 0.000000 -0.166396 0.224946 -1.318203
    38 0.806017 -0.359836 -1.318334 1.070430 0.381350 -0.978489
    39 1.789784 0.000000 -0.000001 0.002198 0.017482 0.317171
    40 1.206998 0.000000 0.000000 0.006478 0.026016 0.488055
    41 -0.044717 2.313936 4.661499 -0.597949 0.386605 -0.133365
    42 2.676088 -1.712442 0.000000 1.570797 0.000000 1.570797
    43 2.676088 -1.712443 0.000000 -1.570796 0.000000 -1.570796
  time 8
    0 -0.314858 -21.981420 34.223035 1.549805 -0.002381 -0.399179
    1 3.890452 -0.000004 -0.000003 -1.570796 0.051839 -1.565574
    2 17.848175 0.000000 0.000000 0.000000 0.000000 0.034200
    3 16.525249 0.000000 0.000000 -0.027915 -0.040782 -1.071638
    4 6.879453 0.000000 0.000000 -0.007299 -0.002951 -0.584373
    5 -3.890452 0.000004 0.000007 -1.570796 0.051845 -1.576021
    6 17.848171 0.000000 0.000000 0.000000 0.000000 0.034187
    7 16.525257 0.000000 0.000000 0.038611 0.040779 -1.071632
    8 6.879454 0.000000 0.000000 -0.081333 -0.002951 -0.584373
    9 0.283203 3.332031 -2.980469 1.518774 -0.175557 1.315727
    10 4.018331 0.000000 0.000000 -0.180477 0.090412 0.191418
    11 3.518561 0.000000 0.000000 -0.153198 0.138015 0.280113
    12 8.942642 0.000000 0.000000 -0.070525 0.034779 0.160016
    13 3.307271 0.000000 0.000000 3.141590 0.000000 0.400478
    14 3.593710 -0.000003 0.000000 0.942063 -0.009100 0.578812
    15 2.033346 1.000767 1.937660 1.917151 -1.451780 2.620575
    16 6.028142 0.000002 0.000000 -2.510008 -0.573482 -0.190646
    17 11.692556 0.000000 -0.000001 0.000000 0.000000 -1.435006
    18 11.481671 0.000000 -0.000029 0.762112 0.125257 0.372641
    19 3.883691 -0.046771 0.431443 0.096615 -0.011011 -0.677044
    20 1.719575 0.000000 0.000000 0.055915 -0.087979 -1.327497
    21 1.209183 -0.000001 0.000000 0.009316 -0.033629 -0.516185
    22 3.859861 -0.137948 1.332466 0.537935 -0.132420 -0.946691
    23 1.719428 0.000001 0.000000 0.023466 -0.208305 -0.932460
    24 1.099667 0.000000 0.000000 0.026046 -0.124620 -0.715397
    25 0.806048 -0.348922 1.321258 -0.985982 -0.350858 -0.739448
    26 1.789783 0.000001 0.000001 -0.001067 -0.012843 0.349165
    27 1.207000 0.000000 0.000001 -0.000102 -0.003216 0.416181
    28 2.033354 1.000771 -1.937610 3.037629 1.090916 1.390771
    29 6.028142 0.000004 0.000000 1.340426 1.189962 -0.818008
    30 11.692552 0.000000 0.000002 0.000000 0.000000 -1.780442
    31 11.481699 0.000000 0.000004 -0.849108 0.062783 0.755049
    32 3.883657 -0.050329 -0.431043 -0.386562 0.126212 -1.146673
    33 1.719576 0.000003 0.000000 -0.051400 0.078807 -1.521771
    34 1.209180 -0.000001 0.000000 -0.034697 0.051520 -1.200274
    35 3.859830 -0.148938 -1.331282 -0.083014 0.164909 0.067474
    36 1.719426 0.000000 0.000000 0.024529 0.136368 -0.478052
    37 1.099666 0.000000 0.000000 -0.166396 0.224946 -1.318203
    38 0.806017 -0.359836 -1.318334 1.070430 0.381350 -0.978489
    39 1.789784 0.000000 -0.000001 0.002184 0.017482 0.317171
    40 1.206998 0.000000 0.000000 0.006478 0.026016 0.488055
    41 -0.044717 2.313936 4.661499 -0.560376 0.400000 -0.132801
    42 2.676088 -1.712442 0.000000 1.570797 0.000000 1.570797
    43 2.676088 -1.712443 0.000000 -1.570796 0.000000 -1.570796
  time 9
    0 -0.342203 -24.377500 34.172252 1.550695 -0.001990 -0.388162
    1 3.890452 -0.000004 -0.000003 -1.570796 0.051839 -1.565574
    2 17.848175 0.000000 0.000000 0.000000 0.000000 0.034200
    3 16.525249 0.000000 0.000000 -0.027915 -0.040782 -1.071638
    4 6.879453 0.000000 0.000000 -0.007299 -0.002951 -0.584373
    5 -3.890452 0.000004 0.000007 -1.570796 0.051845 -1.576021
    6 17.848171 0.000000 0.000000 0.000000 0.000000 0.034187
    7 16.525257 0.000000 0.000000 0.038611 0.040779 -1.071632
    8 6.879454 0.000000 0.000000 -0.081333 -0.002951 -0.584373
    9 0.283203 3.332031 -2.980469 1.518774 -0.175557 1.315727
    10 4.018331 0.000000 0.000000 -0.182337 0.090604 0.191436
    11 3.518561 0.000000 0.000000 -0.155016 0.138590 0.280097
    12 8.942642 0.000000 0.000000 -0.074525 0.035858 0.159937
    13 3.307271 0.000000 0.000000 3.141590 0.000000 0.400478
    14 3.593710 -0.000003 0.000000 0.940120 -0.009410 0.578380
    15 2.033346 1.000767 1.937660 1.917151 -1.451780 2.620575
    16 6.028142 0.000002 0.000000 -2.505576 -0.576647 -0.189810
    17 11.692556 0.000000 -0.000001 0.000000 0.000000 -1.435716
    18 11.481671 0.000000 -0.000029 0.762685 0.123223 0.376317
    19 3.883691 -0.046771 0.431443 0.096615 -0.011011 -0.677044
    20 1.719575 0.000000 0.000000 0.055915 -0.087979 -1.327497
    21 1.209183 -0.000001 0.000000 0.009316 -0.033629 -0.516185
    22 3.859861 -0.137948 1.332466 0.537935 -0.132420 -0.946691
    23 1.719428 0.000001 0.000000 0.023466 -0.208305 -0.932460
    24 1.099667 0.000000 0.000000 0.026046 -0.124620 -0.715397
    25 0.806048 -0.348922 1.321258 -0.985982 -0.350858 -0.739448
    26 1.789783 0.000001 0.000001 -0.001067 -0.012843 0.349165
    27 1.207000 0.000000 0.000001 -0.000102 -0.003216 0.416181
    28 2.033354 1.000771 -1.937610 3.037629 1.090916 1.390771
    29 6.028142 0.000004 0.000000 1.344066 1.183472 -0.818767
    30 11.692552 0.000000 0.000002 0.000000 0.000000 -1.785722
    31 11.481699 0.000000 0.000004 -0.850015 0.060749 0.755790
    32 3.883657 -0.050329 -0.431043 -0.386562 0.126212 -1.146673
    33 1.719576 0.000003 0.000000 -0.051400 0.078807 -1.521771
    34 1.209180 -0.000001 0.000000 -0.034697 0.051520 -1.200274
    35 3.859830 -0.148938 -1.331282 -0.083014 0.164909 0.067474
    36 1.719426 0.000000 0.000000 0.024529 0.136368 -0.478052
    37 1.099666 0.000000 0.000000 -0.166396 0.224946 -1.318203
    38 0.806017 -0.359836 -1.318334 1.070430 0.381350 -0.978489
    39 1.789784 0.000000 -0.000001 0.002198 0.017482 0.317171
    40 1.206998 0.000000 0.000000 0.006478 0.026016 0.488055
    41 -0.044717 2.313936 4.661499 -0.519710 0.406970 -0.132574
    42 2.676088 -1.712442 0.000000 1.570797 0.000000 1.570797
    43 2.676088 -1.712443 0.000000 -1.570796 0.000000 -1.570796
  time 10
    0 -0.365641 -26.773579 34.133188 1.551331 -0.001745 -0.380594
    1 3.890452 -0.000004 -0.000003 -1.570796 0.051839 -1.565574
    2 17.848175 0.000000 0.000000 0.000000 0.000000 0.034200
    3 16.525249 0.000000 0.000000 -0.027915 -0.040782 -1.071638
    4 6.879453 0.000000 0.000000 -0.007299 -0.002951 -0.584373
    5 -3.890452 0.000004 0.000007 -1.570796 0.051845 -1.576021
    6 17.848171 0.000000 0.000000 0.000000 0.000000 0.034187
    7 16.525257 0.000000 0.000000 0.038611 0.040779 -1.071632
    8 6.879454 0.000000 0.000000 -0.081333 -0.002951 -0.584373
    9 0.283203 3.332031 -2.980469 1.518774 -0.175557 1.315727
    10 4.018331 0.000000 0.000000 -0.182048 0.090304 0.191436
    11 3.518561 0.000000 0.000000 -0.154748 0.138134 0.280097
    12 8.942642 0.000000 0.000000 -0.076358 0.036337 0.159897
    13 3.307271 0.000000 0.000000 3.141590 0.000000 0.400478
    14 3.593710 -0.000003 0.000000 0.937344 -0.009833 0.577826
    15 2.033346 1.000767 1.937660 1.917151 -1.451780 2.620575
    16 6.028142 0.000002 0.000000 -2.500768 -0.585752 -0.188047
    17 11.692556 0.000000 -0.000001 0.000000 0.000000 -1.434139
    18 11.481671 0.000000 -0.000029 0.764501 0.120192 0.380112
    19 3.883691 -0.046771 0.431443 0.096615 -0.011011 -0.677044
    20 1.719575 0.000000 0.000000 0.055915 -0.087979 -1.327497
    21 1.209183 -0.000001 0.000000 0.009316 -0.033629 -0.516185
    22 3.859861 -0.137948 1.332466 0.537935 -0.132420 -0.946691
    23 1.719428 0.000001 0.000000 0.023466 -0.208305 -0.932460
    24 1.099667 0.000000 0.000000 0.026046 -0.124620 -0.715397
    25 0.806048 -0.348922 1.321258 -0.985982 -0.350858 -0.739448
    26 1.789783 0.000001 0.000001 -0.001067 -0.012855 0.349165
    27 1.207000 0.000000 0.000001 -0.000102 -0.003216 0.416181
    28 2.033354 1.000771 -1.937610 3.037629 1.090916 1.390771
    29 6.028142 0.000004 0.000000 1.357189 1.174140 -0.811365
    30 11.692552 0.000000 0.000002 0.000000 0.000000 -1.794689
    31 11.481699 0.000000 0.000004 -0.850598 0.058060 0.759043
    32 3.883657 -0.050329 -0.431043 -0.386562 0.126212 -1.146673
    33 1.719576 0.000003 0.000000 -0.051400 0.078807 -1.521771
    34 1.209180 -0.000001 0.000000 -0.034697 0.051520 -1.200274
    35 3.859830 -0.148938 -1.331282 -0.083014 0.164909 0.067474
    36 1.719426 0.000000 0.000000 0.024529 0.136368 -0.478052
    37 1.099666 0.000000 0.000000 -0.166396 0.224946 -1.318203
    38 0.806017 -0.359836 -1.318334 1.070430 0.381350 -0.978489
    39 1.789784 0.000000 -0.000001 0.002198 0.017482 0.317171
    40 1.206998 0.000000 0.000000 0.006478 0.026016 0.488055
    41 -0.044717 2.313936 4.661499 -0.494055 0.408997 -0.134311
    42 2.676088 -1.712442 0.000000 1.570797 0.000000 1.570797
    43 2.676088 -1.712443 0.000000 -1.570796 0.000000 -1.570796
  time 11
    0 -0.381267 -29.169659 34.109750 1.551649 -0.001614 -0.376666
    1 3.890452 -0.000004 -0.000003 -1.570796 0.051839 -1.565574
    2 17.848175 0.000000 0.000000 0.000000 0.000000 0.034200
    3 16.525249 0.000000 0.000000 -0.027915 -0.040782 -1.071638
    4 6.879453 0.000000 0.000000 -0.007299 -0.002951 -0.584373
    5 -3.890452 0.000004 0.000007 -1.570796 0.051845 -1.576021
    6 17.848171 0.000000 0.000000 0.000000 0.000000 0.034187
    7 16.525257 0.000000 0.000000 0.038611 0.040779 -1.071632
    8 6.879454 0.000000 0.000000 -0.081333 -0.002951 -0.584373
    9 0.283203 3.332031 -2.980469 1.518774 -0.175557 1.315727
    10 4.018331 0.000000 0.000000 -0.180156 0.089741 0.191418
    11 3.518561 0.000000 0.000000 -0.152949 0.137044 0.280113
    12 8.942642 0.000000 0.000000 -0.076428 0.036361 0.159897
    13 3.307271 0.000000 0.000000 3.141590 0.000000 0.400478
    14 3.593710 -0.000003 0.000000 0.933957 -0.010368 0.577086
    15 2.033346 1.000767 1.937660 1.917151 -1.451780 2.620575
    16 6.028142 0.000002 0.000000 -2.496336 -0.597974 -0.185726
    17 11.692556 0.000000 -0.000001 0.000000 0.000000 -1.430748
    18 11.481671 0.000000 -0.000029 0.766985 0.116829 0.382997
    19 3.883691 -0.046771 0.431443 0.096615 -0.011011 -0.677044
    20 1.719575 0.000000 0.000000 0.055915 -0.087979 -1.327497
    21 1.209183 -0.000001 0.000000 0.009316 -0.033629 -0.516185
    22 3.859861 -0.137948 1.332466 0.537935 -0.132420 -0.946691
    23 1.719428 0.000001 0.000000 0.023466 -0.208305 -0.932460
    24 1.099667 0.000000 0.000000 0.026046 -0.124620 -0.715397
    25 0.806048 -0.348922 1.321258 -0.985982 -0.350858 -0.739448
    26 1.789783 0.000001 0.000001 -0.001067 -0.012855 0.349165
    27 1.207000 0.000000 0.000001 -0.000102 -0.003216 0.416181
    28 2.033354 1.000771 -1.937610 3.037629 1.090916 1.390771
    29 6.028142 0.000004 0.000000 1.374336 1.163955 -0.799883
    30 11.692552 0.000000 0.000002 0.000000 0.000000 -1.804742
    31 11.481699 0.000000 0.000004 -0.850857 0.055646 0.763322
    32 3.883657 -0.050329 -0.431043 -0.386562 0.126212 -1.146673
    33 1.719576 0.000003 0.000000 -0.051400 0.078807 -1.521771
    34 1.209180 -0.000001 0.000000 -0.034697 0.051520 -1.200274
    35 3.859830 -0.148938 -1.331282 -0.083014 0.164909 0.067474
    36 1.719426 0.000000 0.000000 0.024529 0.136368 -0.478052
    37 1.099666 0.000000 0.000000 -0.166396 0.224946 -1.318203
    38 0.806017 -0.359836 -1.318334 1.070430 0.381350 -0.978489
    39 1.789784 0.000000 -0.000001 0.002198 0.017482 0.317171
    40 1.206998 0.000000 0.000000 0.006478 0.026016 0.488055
    41 -0.044717 2.313936 4.661499 -0.489279 0.399579 -0.142581
    42 2.676088 -1.712442 0.000000 1.570797 0.000000 1.570797
    43 2.676088 -1.712443 0.000000 -1.570796 0.000000 -1.570796
  time 12
    0 -0.389079 -31.565738 34.113657 1.551649 -0.001598 -0.376570
    1 3.890452 -0.000004 -0.000003 -1.570796 0.051839 -1.565574
    2 17.848175 0.000000 0.000000 0.000000 0.000000 0.034200
    3 16.525249 0.000000 0.000000 -0.027915 -0.040782 -1.071638
    4 6.879453 0.000000 0.000000 -0.007299 -0.002951 -0.584373
    5 -3.890452 0.000004 0.000007 -1.570796 0.051845 -1.576021
    6 17.848171 0.000000 0.000000 0.000000 0.000000 0.034187
    7 16.525257 0.000000 0.000000 0.038611 0.040779 -1.071632
    8 6.879454 0.000000 0.000000 -0.081333 -0.002951 -0.584373
    9 0.283203 3.332031 -2.980469 1.518774 -0.175557 1.315727
    10 4.018331 0.000000 0.000000 -0.177077 0.088950 0.191401
    11 3.518561 0.000000 0.000000 -0.150008 0.135450 0.280128
    12 8.942642 0.000000 0.000000 -0.075106 0.036002 0.159923
    13 3.307271 0.000000 0.000000 3.141590 0.000000 0.400478
    14 3.593710 -0.000003 0.000000 0.930126 -0.010959 0.576285
    15 2.033346 1.000767 1.937660 1.917151 -1.451780 2.620575
    16 6.028142 0.000002 0.000000 -2.492942 -0.611071 -0.183219
    17 11.692556 0.000000 -0.000001 0.000000 0.000000 -1.426333
    18 11.481671 0.000000 -0.000029 0.770042 0.113799 0.384341
    19 3.883691 -0.046771 0.431443 0.096615 -0.011011 -0.677044
    20 1.719575 0.000000 0.000000 0.055915 -0.087979 -1.327497
    21 1.209183 -0.000001 0.000000 0.009316 -0.033629 -0.516185
    22 3.859861 -0.137948 1.332466 0.537935 -0.132420 -0.946691
    23 1.719428 0.000001 0.000000 0.023466 -0.208305 -0.932460
    24 1.099667 0.000000 0.000000 0.026046 -0.124620 -0.715397
    25 0.806048 -0.348922 1.321258 -0.985982 -0.350858 -0.739448
    26 1.789783 0.000001 0.000001 -0.001067 -0.012843 0.349165
    27 1.207000 0.000000 0.000001 -0.000102 -0.003216 0.416181
    28 2.033354 1.000771 -1.937610 3.037629 1.090916 1.390771
    29 6.028142 0.000004 0.000000 1.391099 1.154149 -0.787831
    30 11.692552 0.000000 0.000002 0.000000 0.000000 -1.814216
    31 11.481699 0.000000 0.000004 -0.850987 0.054715 0.767373
    32 3.883657 -0.050329 -0.431043 -0.386562 0.126212 -1.146673
    33 1.719576 0.000003 0.000000 -0.051400 0.078807 -1.521771
    34 1.209180 -0.000001 0.000000 -0.034697 0.051520 -1.200274
    35 3.859830 -0.148938 -1.331282 -0.083014 0.164909 0.067474
    36 1.719426 0.000000 0.000000 0.024529 0.136368 -0.478052
    37 1.099666 0.000000 0.000000 -0.166396 0.224946 -1.318203
    38 0.806017 -0.359836 -1.318334 1.070430 0.381350 -0.978489
    39 1.789784 0.000000 -0.000001 0.002198 0.017482 0.317171
    40 1.206998 0.000000 0.000000 0.006478 0.026016 0.488055
    41 -0.044717 2.313936 4.661499 -0.485822 0.370558 -0.154913
    42 2.676088 -1.712442 0.000000 1.570797 0.000000 1.570797
    43 2.676088 -1.712443 0.000000 -1.570796 0.000000 -1.570796
  time 13
    0 -0.392986 -33.967946 34.144907 1.551331 -0.001729 -0.380307
    1 3.890452 -0.000004 -0.000003 -1.570796 0.051839 -1.565574
    2 17.848175 0.000000 0.000000 0.000000 0.000000 0.034200
    3 16.525249 0.000000 0.000000 -0.027915 -0.040782 -1.071638
    4 6.879453 0.000000 0.000000 -0.007299 -0.002951 -0.584373
    5 -3.890452 0.000004 0.000007 -1.570796 0.051845 -1.576021
    6 17.848171 0.000000 0.000000 0.000000 0.000000 0.034187
    7 16.525257 0.000000 0.000000 0.038611 0.040779 -1.071632
    8 6.879454 0.000000 0.000000 -0.081333 -0.002951 -0.584373
    9 0.283203 3.332031 -2.980469 1.518774 -0.175557 1.315727
    10 4.018331 0.000000 0.000000 -0.173100 0.087979 0.191384
    11 3.518561 0.000000 0.000000 -0.146177 0.133424 0.280159
    12 8.942642 0.000000 0.000000 -0.072604 0.035343 0.159976
    13 3.307271 0.000000 0.000000 3.141590 0.000000 0.400478
    14 3.593710 -0.000003 0.000000 0.925962 -0.011607 0.575422
    15 2.033346 1.000767 1.937660 1.917151 -1.451780 2.620575
    16 6.028142 0.000002 0.000000 -2.490962 -0.623633 -0.180806
    17 11.692556 0.000000 -0.000001 0.000000 0.000000 -1.421366
    18 11.481671 0.000000 -0.000029 0.773195 0.111349 0.384183
    19 3.883691 -0.046771 0.431443 0.096615 -0.011011 -0.677044
    20 1.719575 0.000000 0.000000 0.055915 -0.087979 -1.327497
    21 1.209183 -0.000001 0.000000 0.009316 -0.033629 -0.516185
    22 3.859861 -0.137948 1.332466 0.537935 -0.132420 -0.946691
    23 1.719428 0.000001 0.000000 0.023466 -0.208305 -0.932422
    24 1.099667 0.000000 0.000000 0.026046 -0.124620 -0.715397
    25 0.806048 -0.348922 1.321258 -0.985982 -0.350858 -0.739448
    26 1.789783 0.000001 0.000001 -0.001067 -0.012843 0.349165
    27 1.207000 0.000000 0.000001 -0.000102 -0.003216 0.416181
    28 2.033354 1.000771 -1.937610 3.037629 1.090916 1.390771
    29 6.028142 0.000004 0.000000 1.405946 1.145717 -0.776444
    30 11.692552 0.000000 0.000002 0.000000 0.000000 -1.822316
    31 11.481699 0.000000 0.000004 -0.850987 0.055164 0.770853
    32 3.883657 -0.050329 -0.431043 -0.386562 0.126212 -1.146673
    33 1.719576 0.000003 0.000000 -0.051400 0.078807 -1.521771
    34 1.209180 -0.000001 0.000000 -0.034697 0.051520 -1.200274
    35 3.859830 -0.148938 -1.331282 -0.083014 0.164909 0.067474
    36 1.719426 0.000000 0.000000 0.024529 0.136368 -0.478052
    37 1.099666 0.000000 0.000000 -0.166396 0.224946 -1.318203
    38 0.806017 -0.359836 -1.318334 1.070430 0.381350 -0.978489
    39 1.789784 0.000000 -0.000001 0.002198 0.017482 0.317171
    40 1.206998 0.000000 0.000000 0.006478 0.026016 0.488055
    41 -0.044717 2.313936 4.661499 -0.478726 0.321718 -0.162703
    42 2.676088 -1.712442 0.000000 1.570797 0.000000 1.570797
    43 2.676088 -1.712443 0.000000 -1.570796 0.000000 -1.570796
  time 14
    0 -0.389079 -36.364026 34.195690 1.550695 -0.001990 -0.387779
    1 3.890452 -0.000004 -0.000003 -1.570796 0.051839 -1.565574
    2 17.848175 0.000000 0.000000 0.000000 0.000000 0.034200
    3 16.525249 0.000000 0.000000 -0.027915 -0.040782 -1.071638
    4 6.879453 0.000000 0.000000 -0.007299 -0.002951 -0.584373
    5 -3.890452 0.000004 0.000007 -1.570796 0.051845 -1.576021
    6 17.848171 0.000000 0.000000 0.000000 0.000000 0.034187
    7 16.525257 0.000000 0.000000 0.038611 0.040779 -1.071632
    8 6.879454 0.000000 0.000000 -0.081333 -0.002951 -0.584373
    9 0.283203 3.332031 -2.980469 1.518774 -0.175557 1.315727
    10 4.018331 0.000000 0.000000 -0.168433 0.086864 0.191366
    11 3.518561 0.000000 0.000000 -0.141686 0.131087 0.280190
    12 8.942642 0.000000 0.000000 -0.069150 0.034420 0.160042
    13 3.307271 0.000000 0.000000 3.141590 0.000000 0.400478
    14 3.593710 -0.000003 0.000000 0.921521 -0.012312 0.574498
    15 2.033346 1.000767 1.937660 1.917151 -1.451780 2.620575
    16 6.028142 0.000002 0.000000 -2.490019 -0.634394 -0.179228
    17 11.692556 0.000000 -0.000001 0.000000 0.000000 -1.417029
    18 11.481671 0.000000 -0.000029 0.776157 0.109481 0.383115
    19 3.883691 -0.046771 0.431443 0.096615 -0.011011 -0.677044
    20 1.719575 0.000000 0.000000 0.055915 -0.087979 -1.327497
    21 1.209183 -0.000001 0.000000 0.009316 -0.033629 -0.516185
    22 3.859861 -0.137948 1.332466 0.537935 -0.132420 -0.946691
    23 1.719428 0.000001 0.000000 0.023466 -0.208305 -0.932460
    24 1.099667 0.000000 0.000000 0.026046 -0.124620 -0.715397
    25 0.806048 -0.348922 1.321258 -0.985982 -0.350858 -0.739448
    26 1.789783 0.000001 0.000001 -0.001067 -0.012843 0.349165
    27 1.207000 0.000000 0.000001 -0.000102 -0.003216 0.416181
    28 2.033354 1.000771 -1.937610 3.037629 1.090916 1.390771
    29 6.028142 0.000004 0.000000 1.418494 1.139275 -0.765721
    30 11.692552 0.000000 0.000002 0.000000 0.000000 -1.828680
    31 11.481699 0.000000 0.000004 -0.850857 0.056198 0.773877
    32 3.883657 -0.050329 -0.431043 -0.386562 0.126212 -1.146673
    33 1.719576 0.000003 0.000000 -0.051400 0.078807 -1.521771
    34 1.209180 -0.000001 0.000000 -0.034697 0.051520 -1.200274
    35 3.859830 -0.148938 -1.331282 -0.083014 0.164909 0.067474
    36 1.719426 0.000000 0.000000 0.024529 0.136368 -0.478052
    37 1.099666 0.000000 0.000000 -0.166396 0.224946 -1.318203
    38 0.806017 -0.359836 -1.318334 1.070430 0.381350 -0.978489
    39 1.789784 0.000000 -0.000001 0.002198 0.017482 0.317171
    40 1.206998 0.000000 0.000000 0.006478 0.026016 0.488055
    41 -0.044717 2.313936 4.661499 -0.463078 0.255772 -0.157382
    42 2.676088 -1.712442 0.000000 1.570797 0.000000 1.570797
    43 2.676088 -1.712443 0.000000 -1.570796 0.000000 -1.570796
  time 15
    0 -0.381267 -38.760105 34.250379 1.549805 -0.002365 -0.398987
    1 3.890452 -0.000004 -0.000003 -1.570796 0.051839 -1.565574
    2 17.848175 0.000000 0.000000 0.000000 0.000000 0.034200
    3 16.525249 0.000000 0.000000 -0.027915 -0.040782 -1.071638
    4 6.879453 0.000000 0.000000 -0.007299 -0.002951 -0.584373
    5 -3.890452 0.000004 0.000007 -1.570796 0.051845 -1.576021
    6 17.848171 0.000000 0.000000 0.000000 0.000000 0.034187
    7 16.525257 0.000000 0.000000 0.038611 0.040779 -1.071632
    8 6.879454 0.000000 0.000000 -0.081333 -0.002951 -0.584373
    9 0.283203 3.332031 -2.980469 1.518774 -0.175557 1.315727
    10 4.018331 0.000000 0.000000 -0.163285 0.085630 0.191331
    11 3.518561 0.000000 0.000000 -0.136732 0.128487 0.280206
    12 8.942642 0.000000 0.000000 -0.064903 0.033281 0.160121
    13 3.307271 0.000000 0.000000 3.141590 0.000000 0.400478
    14 3.593710 -0.000003 0.000000 0.916857 -0.013044 0.573512
    15 2.033346 1.000767 1.937660 1.917151 -1.451780 2.620575
    16 6.028142 0.000002 0.000000 -2.490208 -0.642720 -0.178764
    17 11.692556 0.000000 -0.000001 0.000000 0.000000 -1.413560
    18 11.481671 0.000000 -0.000029 0.778737 0.108235 0.381376
    19 3.883691 -0.046771 0.431443 0.096615 -0.011011 -0.677044
    20 1.719575 0.000000 0.000000 0.055915 -0.087979 -1.327497
    21 1.209183 -0.000001 0.000000 0.009316 -0.033629 -0.516185
    22 3.859861 -0.137948 1.332466 0.537935 -0.132420 -0.946691
    23 1.719428 0.000001 0.000000 0.023466 -0.208305 -0.932460
    24 1.099667 0.000000 0.000000 0.026046 -0.124620 -0.715397
    25 0.806048 -0.348922 1.321258 -0.985982 -0.350858 -0.739448
    26 1.789783 0.000001 0.000001 -0.001067 -0.012843 0.349165
    27 1.207000 0.000000 0.000001 -0.000102 -0.003216 0.416181
    28 2.033354 1.000771 -1.937610 3.037629 1.090916 1.390771
    29 6.028142 0.000004 0.000000 1.428361 1.135248 -0.755947
    30 11.692552 0.000000 0.000002 0.000000 0.000000 -1.833019
    31 11.481699 0.000000 0.000004 -0.850533 0.057577 0.776445
    32 3.883657 -0.050329 -0.431043 -0.386562 0.126212 -1.146673
    33 1.719576 0.000003 0.000000 -0.051400 0.078807 -1.521771
    34 1.209180 -0.000001 0.000000 -0.034697 0.051520 -1.200274
    35 3.859830 -0.148938 -1.331282 -0.083014 0.164909 0.067474
    36 1.719426 0.000000 0.000000 0.024529 0.136368 -0.478052
    37 1.099666 0.000000 0.000000 -0.166396 0.224946 -1.318203
    38 0.806017 -0.359836 -1.318334 1.070430 0.381350 -0.978489
    39 1.789784 0.000000 -0.000001 0.002198 0.017482 0.317171
    40 1.206998 0.000000 0.000000 0.006478 0.026016 0.488055
    41 -0.044717 2.313936 4.661499 -0.438924 0.160196 -0.133017
    42 2.676088 -1.712442 0.000000 1.570797 0.000000 1.570797
    43 2.676088 -1.712443 0.000000 -1.570796 0.000000 -1.570796
  time 16
    0 -0.369547 -41.156185 34.305069 1.548596 -0.002870 -0.413261
    1 3.890452 -0.000004 -0.000003 -1.570796 0.051839 -1.565574
    2 17.848175 0.000000 0.000000 0.000000 0.000000 0.034200
    3 16.525249 0.000000 0.000000 -0.027915 -0.040782 -1.071638
    4 6.879453 0.000000 0.000000 -0.007299 -0.002951 -0.584373
    5 -3.890452 0.000004 0.000007 -1.570796 0.051845 -1.576021
    6 17.848171 0.000000 0.000000 0.000000 0.000000 0.034187
    7 16.525257 0.000000 0.000000 0.038611 0.040779 -1.071632
    8 6.879454 0.000000 0.000000 -0.081333 -0.002951 -0.584373
    9 0.283203 3.332031 -2.980469 1.518774 -0.175557 1.315727
    10 4.018331 0.000000 0.000000 -0.157785 0.084324 0.191314
    11 3.518561 0.000000 0.000000 -0.131458 0.125706 0.280237
    12 8.942642 0.000000 0.000000 -0.060004 0.031975 0.160200
    13 3.307271 0.000000 0.000000 3.141590 0.000000 0.400478
    14 3.593710 -0.000003 0.000000 0.912138 -0.013805 0.572526
    15 2.033346 1.000767 1.937660 1.917151 -1.451780 2.620575
    16 6.028142 0.000002 0.000000 -2.491339 -0.648368 -0.179506
    17 11.692556 0.000000 -0.000001 0.000000 0.000000 -1.411352
    18 11.481671 0.000000 -0.000029 0.780648 0.107654 0.379202
    19 3.883691 -0.046771 0.431443 0.096615 -0.011011 -0.677044
    20 1.719575 0.000000 0.000000 0.055915 -0.087979 -1.327497
    21 1.209183 -0.000001 0.000000 0.009316 -0.033629 -0.516185
    22 3.859861 -0.137948 1.332466 0.537935 -0.132420 -0.946691
    23 1.719428 0.000001 0.000000 0.023466 -0.208305 -0.932422
    24 1.099667 0.000000 0.000000 0.026046 -0.124620 -0.715397
    25 0.806048 -0.348922 1.321258 -0.985982 -0.350858 -0.739448
    26 1.789783 0.000001 0.000001 -0.001067 -0.012843 0.349165
    27 1.207000 0.000000 0.000001 -0.000102 -0.003216 0.416181
    28 2.033354 1.000771 -1.937610 3.037629 1.090916 1.390771
    29 6.028142 0.000004 0.000000 1.435736 1.133590 -0.747122
    30 11.692552 0.000000 0.000002 0.000000 0.000000 -1.835333
    31 11.481699 0.000000 0.000004 -0.850080 0.059094 0.778556
    32 3.883657 -0.050329 -0.431043 -0.386562 0.126212 -1.146673
    33 1.719576 0.000003 0.000000 -0.051400 0.078807 -1.521771
    34 1.209180 -0.000001 0.000000 -0.034697 0.051520 -1.200274
    35 3.859830 -0.148938 -1.331282 -0.083014 0.164909 0.067474
    36 1.719426 0.000000 0.000000 0.024529 0.136368 -0.478052
    37 1.099666 0.000000 0.000000 -0.166396 0.224946 -1.318203
    38 0.806017 -0.359836 -1.318334 1.070430 0.381350 -0.978489
    39 1.789784 0.000000 -0.000001 0.002198 0.017482 0.317171
    40 1.206998 0.000000 0.000000 0.006478 0.026016 0.488055
    41 -0.044717 2.313936 4.661499 -0.409903 0.037347 -0.095901
    42 2.676088 -1.712442 0.000000 1.570797 0.000000 1.570797
    43 2.676088 -1.712443 0.000000 -1.570796 0.000000 -1.570796
  time 17
    0 -0.350016 -43.552264 34.348039 1.547260 -0.003490 -0.430218
    1 3.890452 -0.000004 -0.000003 -1.570796 0.051839 -1.565574
    2 17.848175 0.000000 0.000000 0.000000 0.000000 0.034200
    3 16.525249 0.000000 0.000000 -0.027915 -0.040782 -1.071638
    4 6.879453 0.000000 0.000000 -0.007299 -0.002951 -0.584373
    5 -3.890452 0.000004 0.000007 -1.570796 0.051845 -1.576021
    6 17.848171 0.000000 0.000000 0.000000 0.000000 0.034187
    7 16.525257 0.000000 0.000000 0.038611 0.040779 -1.071632
    8 6.879454 0.000000 0.000000 -0.081333 -0.002951 -0.584373
    9 0.283203 3.332031 -2.980469 1.518774 -0.175557 1.315727
    10 4.018331 0.000000 0.000000 -0.152092 0.082945 0.191296
    11 3.518561 0.000000 0.000000 -0.125969 0.122794 0.280268
    12 8.942642 0.000000 0.000000 -0.054594 0.030525 0.160279
    13 3.307271 0.000000 0.000000 3.141590 0.000000 0.400478
    14 3.593710 -0.000003 0.000000 0.907252 -0.014593 0.571541
    15 2.033346 1.000767 1.937660 1.917151 -1.451780 2.620575
    16 6.028142 0.000002 0.000000 -2.493131 -0.651484 -0.181641
    17 11.692556 0.000000 -0.000001 0.000000 0.000000 -1.410327
    18 11.481671 0.000000 -0.000029 0.781985 0.107654 0.376752
    19 3.883691 -0.046771 0.431443 0.096615 -0.011011 -0.677044
    20 1.719575 0.000000 0.000000 0.055915 -0.087979 -1.327497
    21 1.209183 -0.000001 0.000000 0.009316 -0.033629 -0.516185
    22 3.859861 -0.137948 1.332466 0.537935 -0.132420 -0.946691
    23 1.719428 0.000001 0.000000 0.023466 -0.208305 -0.932460
    24 1.099667 0.000000 0.000000 0.026046 -0.124620 -0.715397
    25 0.806048 -0.348922 1.321258 -0.985982 -0.350858 -0.739448
    26 1.789783 0.000001 0.000001 -0.001067 -0.012843 0.349165
    27 1.207000 0.000000 0.000001 -0.000102 -0.003216 0.416181
    28 2.033354 1.000771 -1.937610 3.037629 1.090916 1.390771
    29 6.028142 0.000004 0.000000 1.440813 1.134159 -0.739056
    30 11.692552 0.000000 0.000002 0.000000 0.000000 -1.835984
    31 11.481699 0.000000 0.000004 -0.849497 0.060577 0.780381
    32 3.883657 -0.050329 -0.431043 -0.386562 0.126212 -1.146673
    33 1.719576 0.000003 0.000000 -0.051400 0.078807 -1.521771
    34 1.209180 -0.000001 0.000000 -0.034697 0.051520 -1.200274
    35 3.859830 -0.148938 -1.331282 -0.083014 0.164909 0.067474
    36 1.719426 0.000000 0.000000 0.024529 0.136368 -0.478052
    37 1.099666 0.000000 0.000000 -0.166396 0.224946 -1.318203
    38 0.806017 -0.359836 -1.318334 1.070430 0.381350 -0.978489
    39 1.789784 0.000000 -0.000001 0.002184 0.017482 0.317171
    40 1.206998 0.000000 0.000000 0.006478 0.026016 0.488055
    41 -0.044717 2.313936 4.661499 -0.376788 -0.087700 -0.055764
    42 2.676088 -1.712442 0.000000 1.570797 0.000000 1.570797
    43 2.676088 -1.712443 0.000000 -1.570796 0.000000 -1.570796
  time 18
    0 -0.326577 -45.948344 34.371477 1.545734 -0.004207 -0.448994
    1 3.890452 -0.000004 -0.000003 -1.570796 0.051839 -1.565574
    2 17.848175 0.000000 0.000000 0.000000 0.000000 0.034200
    3 16.525249 0.000000 0.000000 -0.027915 -0.040782 -1.071638
    4 6.879453 0.000000 0.000000 -0.007299 -0.002951 -0.584373
    5 -3.890452 0.000004 0.000007 -1.570796 0.051845 -1.576021
    6 17.848171 0.000000 0.000000 0.000000 0.000000 0.034187
    7 16.525257 0.000000 0.000000 0.038611 0.040779 -1.071632
    8 6.879454 0.000000 0.000000 -0.081333 -0.002951 -0.584373
    9 0.283203 3.332031 -2.980469 1.518774 -0.175557 1.315727
    10 4.018331 0.000000 0.000000 -0.146319 0.081543 0.191262
    11 3.518561 0.000000 0.000000 -0.120427 0.119834 0.280299
    12 8.942642 0.000000 0.000000 -0.048761 0.028955 0.160358
    13 3.307271 0.000000 0.000000 3.141590 0.000000 0.400478
    14 3.593710 -0.000003 0.000000 0.902422 -0.015382 0.570493
    15 2.033346 1.000767 1.937660 1.917151 -1.451780 2.620575
    16 6.028142 0.000002 0.000000 -2.495205 -0.652604 -0.184890
    17 11.692556 0.000000 -0.000001 0.000000 0.000000 -1.410327
    18 11.481671 0.000000 -0.000029 0.782845 0.107986 0.374262
    19 3.883691 -0.046771 0.431443 0.096615 -0.011011 -0.677044
    20 1.719575 0.000000 0.000000 0.055915 -0.087979 -1.327497
    21 1.209183 -0.000001 0.000000 0.009316 -0.033629 -0.516185
    22 3.859861 -0.137948 1.332466 0.537935 -0.132420 -0.946691
    23 1.719428 0.000001 0.000000 0.023466 -0.208305 -0.932460
    24 1.099667 0.000000 0.000000 0.026046 -0.124620 -0.715397
    25 0.806048 -0.348922 1.321258 -0.985982 -0.350858 -0.739448
    26 1.789783 0.000001 0.000001 -0.001067 -0.012843 0.349165
    27 1.207000 0.000000 0.000001 -0.000102 -0.003216 0.416181
    28 2.033354 1.000771 -1.937610 3.037629 1.090916 1.390771
    29 6.028142 0.000004 0.000000 1.444357 1.136290 -0.731559
    30 11.692552 0.000000 0.000002 0.000000 0.000000 -1.835261
    31 11.481699 0.000000 0.000004 -0.848914 0.061818 0.782150
    32 3.883657 -0.050329 -0.431043 -0.386562 0.126212 -1.146673
    33 1.719576 0.000003 0.000000 -0.051400 0.078807 -1.521771
    34 1.209180 -0.000001 0.000000 -0.034697 0.051520 -1.200274
    35 3.859830 -0.148938 -1.331282 -0.083014 0.164909 0.067474
    36 1.719426 0.000000 0.000000 0.024529 0.136368 -0.478052
    37 1.099666 0.000000 0.000000 -0.166396 0.224946 -1.318203
    38 0.806017 -0.359836 -1.318334 1.070430 0.381350 -0.978489
    39 1.789784 0.000000 -0.000001 0.002198 0.017482 0.317171
    40 1.206998 0.000000 0.000000 0.006478 0.026016 0.488055
    41 -0.044717 2.313936 4.661499 -0.340307 -0.189887 -0.022351
    42 2.676088 -1.712442 0.000000 1.570797 0.000000 1.570797
    43 2.676088 -1.712443 0.000000 -1.570796 0.000000 -1.570796
  time 19
    0 -0.303139 -48.344423 34.371477 1.544144 -0.004990 -0.468729
    1 3.890452 -0.000004 -0.000003 -1.570796 0.051839 -1.565574
    2 17.848175 0.000000 0.000000 0.000000 0.000000 0.034200
    3 16.525249 0.000000 0.000000 -0.027915 -0.040782 -1.071638
    4 6.879453 0.000000 0.000000 -0.007299 -0.002951 -0.584373
    5 -3.890452 0.000004 0.000007 -1.570796 0.051845 -1.576021
    6 17.848171 0.000000 0.000000 0.000000 0.000000 0.034187
    7 16.525257 0.000000 0.000000 0.038611 0.040779 -1.071632
    8 6.879454 0.000000 0.000000 -0.081333 -0.002951 -0.584373
    9 0.283203 3.332031 -2.980469 1.518774 -0.175557 1.315727
    10 4.018331 0.000000 0.000000 -0.140594 0.080153 0.191244
    11 3.518561 0.000000 0.000000 -0.114939 0.116886 0.280314
    12 8.942642 0.000000 0.000000 -0.042646 0.027313 0.160437
    13 3.307271 0.000000 0.000000 3.141590 0.000000 0.400478
    14 3.593710 -0.000003 0.000000 0.897591 -0.016171 0.569507
    15 2.033346 1.000767 1.937660 1.917151 -1.451780 2.620575
    16 6.028142 0.000002 0.000000 -2.497373 -0.652506 -0.188975
    17 11.692556 0.000000 -0.000001 0.000000 0.000000 -1.411115
    18 11.481671 0.000000 -0.000029 0.783323 0.108526 0.371851
    19 3.883691 -0.046771 0.431443 0.096615 -0.011011 -0.677044
    20 1.719575 0.000000 0.000000 0.055915 -0.087979 -1.327497
    21 1.209183 -0.000001 0.000000 0.009316 -0.033629 -0.516185
    22 3.859861 -0.137948 1.332466 0.537935 -0.132420 -0.946691
    23 1.719428 0.000001 0.000000 0.023466 -0.208305 -0.932422
    24 1.099667 0.000000 0.000000 0.026046 -0.124620 -0.715397
    25 0.806048 -0.348922 1.321258 -0.985982 -0.350858 -0.739448
    26 1.789783 0.000001 0.000001 -0.001067 -0.012843 0.349165
    27 1.207000 0.000000 0.000001 -0.000102 -0.003216 0.416181
    28 2.033354 1.000771 -1.937610 3.037629 1.090916 1.390771
    29 6.028142 0.000004 0.000000 1.447039 1.139370 -0.724253
    30 11.692552 0.000000 0.000002 0.000000 0.000000 -1.833959
    31 11.481699 0.000000 0.000004 -0.848201 0.062680 0.784090
    32 3.883657 -0.050329 -0.431043 -0.386562 0.126212 -1.146673
    33 1.719576 0.000003 0.000000 -0.051400 0.078807 -1.521771
    34 1.209180 -0.000001 0.000000 -0.034697 0.051520 -1.200274
    35 3.859830 -0.148938 -1.331282 -0.083014 0.164909 0.067474
    36 1.719426 0.000000 0.000000 0.024529 0.136368 -0.478052
    37 1.099666 0.000000 0.000000 -0.166396 0.224946 -1.318203
    38 0.806017 -0.359836 -1.318334 1.070430 0.381350 -0.978489
    39 1.789784 0.000000 -0.000001 0.002184 0.017482 0.317171
    40 1.206998 0.000000 0.000000 0.006478 0.026016 0.488055
    41 -0.044717 2.313936 4.661499 -0.301188 -0.244170 -0.005381
    42 2.676088 -1.712442 0.000000 1.570797 0.000000 1.570797
    43 2.676088 -1.712443 0.000000 -1.570796 0.000000 -1.570796
  time 20
    0 -0.279701 -50.740503 34.351945 1.542553 -0.005806 -0.488272
    1 3.890452 -0.000004 -0.000003 -1.570796 0.051839 -1.565574
    2 17.848175 0.000000 0.000000 0.000000 0.000000 0.034200
    3 16.525249 0.000000 0.000000 -0.027915 -0.040782 -1.071638
    4 6.879453 0.000000 0.000000 -0.007299 -0.002951 -0.584373
    5 -3.890452 0.000004 0.000007 -1.570796 0.051845 -1.576021
    6 17.848171 0.000000 0.000000 0.000000 0.000000 0.034187
    7 16.525257 0.000000 0.000000 0.038611 0.040779 -1.071632
    8 6.879454 0.000000 0.000000 -0.081333 -0.002951 -0.584373
    9 0.283203 3.332031 -2.980469 1.518774 -0.175557 1.315727
    10 4.018331 0.000000 0.000000 -0.135029 0.078799 0.191227
    11 3.518561 0.000000 0.000000 -0.109610 0.114009 0.280345
    12 8.942642 0.000000 0.000000 -0.036320 0.025623 0.160503
    13 3.307271 0.000000 0.000000 3.141590 0.000000 0.400478
    14 3.593710 -0.000003 0.000000 0.892872 -0.016932 0.568583
    15 2.033346 1.000767 1.937660 1.917151 -1.451780 2.620575
    16 6.028142 0.000002 0.000000 -2.499165 -0.652117 -0.193802
    17 11.692556 0.000000 -0.000001 0.000000 0.000000 -1.412219
    18 11.481671 0.000000 -0.000029 0.783514 0.109024 0.369677
    19 3.883691 -0.046771 0.431443 0.096615 -0.011011 -0.677044
    20 1.719575 0.000000 0.000000 0.055915 -0.087979 -1.327497
    21 1.209183 -0.000001 0.000000 0.009316 -0.033629 -0.516185
    22 3.859861 -0.137948 1.332466 0.537935 -0.132420 -0.946691
    23 1.719428 0.000001 0.000000 0.023466 -0.208305 -0.932460
    24 1.099667 0.000000 0.000000 0.026046 -0.124620 -0.715397
    25 0.806048 -0.348922 1.321258 -0.985982 -0.350858 -0.739448
    26 1.789783 0.000001 0.000001 -0.001067 -0.012855 0.349165
    27 1.207000 0.000000 0.000001 -0.000102 -0.003216 0.416181
    28 2.033354 1.000771 -1.937610 3.037629 1.090916 1.390771
    29 6.028142 0.000004 0.000000 1.449817 1.142543 -0.716756
    30 11.692552 0.000000 0.000002 0.000000 0.000000 -1.832730
    31 11.481699 0.000000 0.000004 -0.847554 0.062990 0.786429
    32 3.883657 -0.050329 -0.431043 -0.386562 0.126212 -1.146673
    33 1.719576 0.000003 0.000000 -0.051400 0.078807 -1.521771
    34 1.209180 -0.000001 0.000000 -0.034697 0.051520 -1.200274
    35 3.859830 -0.148938 -1.331282 -0.083014 0.164909 0.067474
    36 1.719426 0.000000 0.000000 0.024529 0.136368 -0.478052
    37 1.099666 0.000000 0.000000 -0.166396 0.224946 -1.318203
    38 0.806017 -0.359836 -1.318334 1.070430 0.381350 -0.978489
    39 1.789784 0.000000 -0.000001 0.002184 0.017482 0.317171
    40 1.206998 0.000000 0.000000 0.006478 0.026016 0.488055
    41 -0.044717 2.313936 4.661499 -0.252288 -0.241675 -0.007802
    42 2.676088 -1.712442 0.000000 1.570797 0.000000 1.570797
    43 2.676088 -1.712443 0.000000 -1.570796 0.000000 -1.570796
  time 21
    0 -0.252356 -53.142710 34.305069 1.541090 -0.006605 -0.506761
    1 3.890452 -0.000004 -0.000003 -1.570796 0.051839 -1.565574
    2 17.848175 0.000000 0.000000 0.000000 0.000000 0.034200
    3 16.525249 0.000000 0.000000 -0.027915 -0.040782 -1.071638
    4 6.879453 0.000000 0.000000 -0.007299 -0.002951 -0.584373
    5 -3.890452 0.000004 0.000007 -1.570796 0.051845 -1.576021
    6 17.848171 0.000000 0.000000 0.000000 0.000000 0.034187
    7 16.525257 0.000000 0.000000 0.038611 0.040779 -1.071632
    8 6.879454 0.000000 0.000000 -0.081333 -0.002951 -0.584373
    9 0.283203 3.332031 -2.980469 1.518774 -0.175557 1.315727
    10 4.018331 0.000000 0.000000 -0.129785 0.077516 0.191209
    11 3.518561 0.000000 0.000000 -0.104567 0.111301 0.280361
    12 8.942642 0.000000 0.000000 -0.029905 0.023909 0.160569
    13 3.307271 0.000000 0.000000 3.141590 0.000000 0.400478
    14 3.593710 -0.000003 0.000000 0.888375 -0.017692 0.567659
    15 2.033346 1.000767 1.937660 1.917151 -1.451780 2.620575
    16 6.028142 0.000002 0.000000 -2.500296 -0.652214 -0.199000
    17 11.692556 0.000000 -0.000001 0.000000 0.000000 -1.413323
    18 11.481671 0.000000 -0.000029 0.783610 0.109232 0.367938
    19 3.883691 -0.046771 0.431443 0.096615 -0.011011 -0.677044
    20 1.719575 0.000000 0.000000 0.055915 -0.087979 -1.327497
    21 1.209183 -0.000001 0.000000 0.009316 -0.033629 -0.516185
    22 3.859861 -0.137948 1.332466 0.537935 -0.132420 -0.946691
    23 1.719428 0.000001 0.000000 0.023466 -0.208305 -0.932422
    24 1.099667 0.000000 0.000000 0.026046 -0.124620 -0.715397
    25 0.806048 -0.348922 1.321258 -0.985982 -0.350858 -0.739448
    26 1.789783 0.000001 0.000001 -0.001067 -0.012843 0.349165
    27 1.207000 0.000000 0.000001 -0.000102 -0.003216 0.416181
    28 2.033354 1.000771 -1.937610 3.037629 1.090916 1.390771
    29 6.028142 0.000004 0.000000 1.453553 1.145054 -0.708690
    30 11.692552 0.000000 0.000002 0.000000 0.000000 -1.832224
    31 11.481699 0.000000 0.000004 -0.846971 0.062645 0.789396
    32 3.883657 -0.050329 -0.431043 -0.386562 0.126212 -1.146673
    33 1.719576 0.000003 0.000000 -0.051400 0.078807 -1.521771
    34 1.209180 -0.000001 0.000000 -0.034697 0.051520 -1.200274
    35 3.859830 -0.148938 -1.331282 -0.083014 0.164909 0.067474
    36 1.719426 0.000000 0.000000 0.024529 0.136368 -0.478052
    37 1.099666 0.000000 0.000000 -0.166396 0.224946 -1.318203
    38 0.806017 -0.359836 -1.318334 1.070430 0.381350 -0.978489
    39 1.789784 0.000000 -0.000001 0.002184 0.017482 0.317171
    40 1.206998 0.000000 0.000000 0.006478 0.026016 0.488055
    41 -0.044717 2.313936 4.661499 -0.192563 -0.200974 -0.022591
    42 2.676088 -1.712442 0.000000 1.570797 0.000000 1.570797
    43 2.676088 -1.712443 0.000000 -1.570796 0.000000 -1.570796
  time 22
    0 -0.225012 -55.538790 34.242567 1.539818 -0.007339 -0.523430
    1 3.890452 -0.000004 -0.000003 -1.570796 0.051839 -1.565574
    2 17.848175 0.000000 0.000000 0.000000 0.000000 0.034200
    3 16.525249 0.000000 0.000000 -0.027915 -0.040782 -1.071638
    4 6.879453 0.000000 0.000000 -0.007299 -0.002951 -0.584373
    5 -3.890452 0.000004 0.000007 -1.570796 0.051845 -1.576021
    6 17.848171 0.000000 0.000000 0.000000 0.000000 0.034187
    7 16.525257 0.000000 0.000000 0.038611 0.040779 -1.071632
    8 6.879454 0.000000 0.000000 -0.081333 -0.002951 -0.584373
    9 0.283203 3.332031 -2.980469 1.518774 -0.175557 1.315727
    10 4.018331 0.000000 0.000000 -0.124974 0.076378 0.191192
    11 3.518561 0.000000 0.000000 -0.099952 0.108856 0.280377
    12 8.942642 0.000000 0.000000 -0.023491 0.022183 0.160608
    13 3.307271 0.000000 0.000000 3.141590 0.000000 0.400478
    14 3.593710 -0.000003 0.000000 0.884211 -0.018368 0.566796
    15 2.033346 1.000767 1.937660 1.917151 -1.451780 2.620575
    16 6.028142 0.000002 0.000000 -2.500768 -0.653431 -0.204013
    17 11.692556 0.000000 -0.000001 0.000000 0.000000 -1.414111
    18 11.481671 0.000000 -0.000029 0.783705 0.109107 0.366436
    19 3.883691 -0.046771 0.431443 0.096615 -0.011011 -0.677044
    20 1.719575 0.000000 0.000000 0.055915 -0.087979 -1.327497
    21 1.209183 -0.000001 0.000000 0.009316 -0.033629 -0.516185
    22 3.859861 -0.137948 1.332466 0.537935 -0.132420 -0.946691
    23 1.719428 0.000001 0.000000 0.023466 -0.208305 -0.932422
    24 1.099667 0.000000 0.000000 0.026046 -0.124620 -0.715397
    25 0.806048 -0.348922 1.321258 -0.985982 -0.350858 -0.739448
    26 1.789783 0.000001 0.000001 -0.001067 -0.012843 0.349165
    27 1.207000 0.000000 0.000001 -0.000102 -0.003216 0.416181
    28 2.033354 1.000771 -1.937610 3.037629 1.090916 1.390771
    29 6.028142 0.000004 0.000000 1.458534 1.146381 -0.700149
    30 11.692552 0.000000 0.000002 0.000000 0.000000 -1.832730
    31 11.481699 0.000000 0.000004 -0.846517 0.061852 0.792877
    32 3.883657 -0.050329 -0.431043 -0.386562 0.126212 -1.146673
    33 1.719576 0.000003 0.000000 -0.051400 0.078807 -1.521771
    34 1.209180 -0.000001 0.000000 -0.034697 0.051520 -1.200274
    35 3.859830 -0.148938 -1.331282 -0.083014 0.164909 0.067474
    36 1.719426 0.000000 0.000000 0.024529 0.136368 -0.478052
    37 1.099666 0.000000 0.000000 -0.166396 0.224946 -1.318203
    38 0.806017 -0.359836 -1.318334 1.070430 0.381350 -0.978489
    39 1.789784 0.000000 -0.000001 0.002184 0.017482 0.317171
    40 1.206998 0.000000 0.000000 0.006478 0.026016 0.488055
    41 -0.044717 2.313936 4.661499 -0.130928 -0.139441 -0.043995
    42 2.676088 -1.712442 0.000000 1.570797 0.000000 1.570797
    43 2.676088 -1.712443 0.000000 -1.570796 0.000000 -1.570796
  time 23
    0 -0.197667 -57.934870 34.183971 1.538737 -0.007975 -0.537416
    1 3.890452 -0.000004 -0.000003 -1.570796 0.051839 -1.565574
    2 17.848175 0.000000 0.000000 0.000000 0.000000 0.034200
    3 16.525249 0.000000 0.000000 -0.027915 -0.040782 -1.071638
    4 6.879453 0.000000 0.000000 -0.007299 -0.002951 -0.584373
    5 -3.890452 0.000004 0.000007 -1.570796 0.051845 -1.576021
    6 17.848171 0.000000 0.000000 0.000000 0.000000 0.034187
    7 16.525257 0.000000 0.000000 0.038611 0.040779 -1.071632
    8 6.879454 0.000000 0.000000 -0.081333 -0.002951 -0.584373
    9 0.283203 3.332031 -2.980469 1.518774 -0.175557 1.315727
    10 4.018331 0.000000 0.000000 -0.120756 0.075431 0.191174
    11 3.518561 0.000000 0.000000 -0.095889 0.106807 0.280392
    12 8.942642 0.000000 0.000000 -0.017217 0.020506 0.160648
    13 3.307271 0.000000 0.000000 3.141590 0.000000 0.400478
    14 3.593710 -0.000003 0.000000 0.880547 -0.018988 0.566056
    15 2.033346 1.000767 1.937660 1.917151 -1.451780 2.620575
    16 6.028142 0.000002 0.000000 -2.500485 -0.656158 -0.208562
    17 11.692556 0.000000 -0.000001 0.000000 0.000000 -1.414033
    18 11.481671 0.000000 -0.000029 0.783992 0.108651 0.365053
    19 3.883691 -0.046771 0.431443 0.096615 -0.011011 -0.677044
    20 1.719575 0.000000 0.000000 0.055915 -0.087979 -1.327497
    21 1.209183 -0.000001 0.000000 0.009316 -0.033629 -0.516185
    22 3.859861 -0.137948 1.332466 0.537935 -0.132420 -0.946691
    23 1.719428 0.000001 0.000000 0.023466 -0.208305 -0.932422
    24 1.099667 0.000000 0.000000 0.026046 -0.124620 -0.715397
    25 0.806048 -0.348922 1.321258 -0.985982 -0.350858 -0.739448
    26 1.789783 0.000001 0.000001 -0.001067 -0.012843 0.349165
    27 1.207000 0.000000 0.000001 -0.000102 -0.003216 0.416181
    28 2.033354 1.000771 -1.937610 3.037629 1.090916 1.390771
    29 6.028142 0.000004 0.000000 1.464569 1.146333 -0.691419
    30 11.692552 0.000000 0.000002 0.000000 0.000000 -1.834321
    31 11.481699 0.000000 0.000004 -0.846193 0.061025 0.796870
    32 3.883657 -0.050329 -0.431043 -0.386562 0.126212 -1.146673
    33 1.719576 0.000003 0.000000 -0.051400 0.078807 -1.521771
    34 1.209180 -0.000001 0.000000 -0.034697 0.051520 -1.200274
    35 3.859830 -0.148938 -1.331282 -0.083014 0.164909 0.067474
    36 1.719426 0.000000 0.000000 0.024529 0.136368 -0.478052
    37 1.099666 0.000000 0.000000 -0.166396 0.224946 -1.318203
    38 0.806017 -0.359836 -1.318334 1.070430 0.381350 -0.978489
    39 1.789784 0.000000 -0.000001 0.002184 0.017482 0.317171
    40 1.206998 0.000000 0.000000 0.006478 0.026016 0.488055
    41 -0.044717 2.313936 4.661499 -0.076160 -0.074430 -0.066263
    42 2.676088 -1.712442 0.000000 1.570797 0.000000 1.570797
    43 2.676088 -1.712443 0.000000 -1.570796 0.000000 -1.570796
  time 24
    0 -0.170323 -60.330949 34.141001 1.537910 -0.008480 -0.548337
    1 3.890452 -0.000004 -0.000003 -1.570796 0.051839 -1.565574
    2 17.848175 0.000000 0.000000 0.000000 0.000000 0.034200
    3 16.525249 0.000000 0.000000 -0.027915 -0.040782 -1.071638
    4 6.879453 0.000000 0.000000 -0.007299 -0.002951 -0.584373
    5 -3.890452 0.000004 0.000007 -1.570796 0.051845 -1.576021
    6 17.848171 0.000000 0.000000 0.000000 0.000000 0.034187
    7 16.525257 0.000000 0.000000 0.038611 0.040779 -1.071632
    8 6.879454 0.000000 0.000000 -0.081333 -0.002951 -0.584373
    9 0.283203 3.332031 -2.980469 1.518774 -0.175557 1.315727
    10 4.018331 0.000000 0.000000 -0.117324 0.074784 0.191157
    11 3.518561 0.000000 0.000000 -0.092575 0.105333 0.280408
    12 8.942642 0.000000 0.000000 -0.011173 0.018876 0.160661
    13 3.307271 0.000000 0.000000 3.141590 0.000000 0.400478
    14 3.593710 -0.000003 0.000000 0.877771 -0.019467 0.565502
    15 2.033346 1.000767 1.937660 1.917151 -1.451780 2.620575
    16 6.028142 0.000002 0.000000 -2.499636 -0.660248 -0.212646
    17 11.692556 0.000000 -0.000001 0.000000 0.000000 -1.413086
    18 11.481671 0.000000 -0.000029 0.784565 0.108028 0.363472
    19 3.883691 -0.046771 0.431443 0.096615 -0.011011 -0.677044
    20 1.719575 0.000000 0.000000 0.055915 -0.087979 -1.327497
    21 1.209183 -0.000001 0.000000 0.009316 -0.033629 -0.516185
    22 3.859861 -0.137948 1.332466 0.537935 -0.132420 -0.946691
    23 1.719428 0.000001 0.000000 0.023466 -0.208305 -0.932460
    24 1.099667 0.000000 0.000000 0.026046 -0.124620 -0.715397
    25 0.806048 -0.348922 1.321258 -0.985982 -0.350858 -0.739448
    26 1.789783 0.000001 0.000001 -0.001067 -0.012843 0.349165
    27 1.207000 0.000000 0.000001 -0.000102 -0.003216 0.416181
    28 2.033354 1.000771 -1.937610 3.037629 1.090916 1.390771
    29 6.028142 0.000004 0.000000 1.471178 1.145054 -0.682974
    30 11.692552 0.000000 0.000002 0.000000 0.000000 -1.836707
    31 11.481699 0.000000 0.000004 -0.845999 0.060370 0.801207
    32 3.883657 -0.050329 -0.431043 -0.386562 0.126212 -1.146673
    33 1.719576 0.000003 0.000000 -0.051400 0.078807 -1.521771
    34 1.209180 -0.000001 0.000000 -0.034697 0.051520 -1.200274
    35 3.859830 -0.148938 -1.331282 -0.083014 0.164909 0.067474
    36 1.719426 0.000000 0.000000 0.024529 0.136368 -0.478052
    37 1.099666 0.000000 0.000000 -0.166396 0.224946 -1.318203
    38 0.806017 -0.359836 -1.318334 1.070430 0.381350 -0.978489
    39 1.789784 0.000000 -0.000001 0.002184 0.017482 0.317171
    40 1.206998 0.000000 0.000000 0.006478 0.026016 0.488055
    41 -0.044717 2.313936 4.661499 -0.037269 -0.023282 -0.083652
    42 2.676088 -1.712442 0.000000 1.570797 0.000000 1.570797
    43 2.676088 -1.712443 0.000000 -1.570796 0.000000 -1.570796
  time 25
    0 -0.131259 9.173742 34.125376 1.537337 -0.008823 -0.555714
    1 3.890452 -0.000004 -0.000003 -1.570796 0.051839 -1.565574
    2 17.848175 0.000000 0.000000 0.000000 0.000000 0.034200
    3 16.525249 0.000000 0.000000 -0.027915 -0.040782 -1.071638
    4 6.879453 0.000000 0.000000 -0.007299 -0.002951 -0.584373
    5 -3.890452 0.000004 0.000007 -1.570796 0.051845 -1.576021
    6 17.848171 0.000000 0.000000 0.000000 0.000000 0.034187
    7 16.525257 0.000000 0.000000 0.038611 0.040779 -1.071632
    8 6.879454 0.000000 0.000000 -0.081333 -0.002951 -0.584373
    9 0.283203 3.332031 -2.980469 1.518774 -0.175557 1.315727
    10 4.018331 0.000000 0.000000 -0.114967 0.074568 0.191157
    11 3.518561 0.000000 0.000000 -0.090276 0.104697 0.280423
    12 8.942642 0.000000 0.000000 -0.005674 0.017402 0.160674
    13 3.307271 0.000000 0.000000 3.141590 0.000000 0.400478
    14 3.593710 -0.000003 0.000000 0.876549 -0.019664 0.565255
    15 2.033346 1.000767 1.937660 1.917151 -1.451780 2.620575
    16 6.028142 0.000002 0.000000 -2.498316 -0.664922 -0.216360
    17 11.692556 0.000000 -0.000001 0.000000 0.000000 -1.411194
    18 11.481671 0.000000 -0.000029 0.785138 0.107488 0.361416
    19 3.883691 -0.046771 0.431443 0.096615 -0.011011 -0.677044
    20 1.719575 0.000000 0.000000 0.055915 -0.087979 -1.327497
    21 1.209183 -0.000001 0.000000 0.009316 -0.033629 -0.516185
    22 3.859861 -0.137948 1.332466 0.537935 -0.132420 -0.946691
    23 1.719428 0.000001 0.000000 0.023466 -0.208305 -0.932460
    24 1.099667 0.000000 0.000000 0.026046 -0.124620 -0.715397
    25 0.806048 -0.348922 1.321258 -0.985982 -0.350858 -0.739448
    26 1.789783 0.000001 0.000001 -0.001067 -0.012855 0.349165
    27 1.207000 0.000000 0.000001 -0.000102 -0.003216 0.416181
    28 2.033354 1.000771 -1.937610 3.037629 1.090916 1.390771
    29 6.028142 0.000004 0.000000 1.476925 1.143207 -0.675667
    30 11.692552 0.000000 0.000002 0.000000 0.000000 -1.839239
    31 11.481699 0.000000 0.000004 -0.846064 0.060163 0.805657
    32 3.883657 -0.050329 -0.431043 -0.386562 0.126212 -1.146673
    33 1.719576 0.000003 0.000000 -0.051400 0.078807 -1.521771
    34 1.209180 -0.000001 0.000000 -0.034697 0.051520 -1.200274
    35 3.859830 -0.148938 -1.331282 -0.083014 0.164909 0.067474
    36 1.719426 0.000000 0.000000 0.024529 0.136368 -0.478052
    37 1.099666 0.000000 0.000000 -0.166396 0.224946 -1.318203
    38 0.806017 -0.359836 -1.318334 1.070430 0.381350 -0.978489
    39 1.789784 0.000000 -0.000001 0.002184 0.017482 0.317171
    40 1.206998 0.000000 0.000000 0.006478 0.026016 0.488055
    41 -0.044717 2.313936 4.661499 -0.022985 -0.003306 -0.090400
    42 2.676088 -1.712442 0.000000 1.570797 0.000000 1.570797
    43 2.676088 -1.712443 0.000000 -1.570796 0.000000 -1.570796
  time 26
    0 -0.111727 6.777662 34.137095 1.536956 -0.009035 -0.560121
    1 3.890452 -0.000004 -0.000003 -1.570796 0.051839 -1.565574
    2 17.848175 0.000000 0.000000 0.000000 0.000000 0.034200
    3 16.525249 0.000000 0.000000 -0.027915 -0.040782 -1.071638
    4 6.879453 0.000000 0.000000 -0.007299 -0.002951 -0.584373
    5 -3.890452 0.000004 0.000007 -1.570796 0.051845 -1.576021
    6 17.848171 0.000000 0.000000 0.000000 0.000000 0.034187
    7 16.525257 0.000000 0.000000 0.038611 0.040779 -1.071632
    8 6.879454 0.000000 0.000000 -0.081333 -0.002951 -0.584373
    9 0.283203 3.332031 -2.980469 1.518774 -0.175557 1.315727
    10 4.018331 0.000000 0.000000 -0.113283 0.074892 0.191157
    11 3.518561 0.000000 0.000000 -0.088529 0.105009 0.280439
    12 8.942642 0.000000 0.000000 -0.001868 0.016383 0.160688
    13 3.307271 0.000000 0.000000 3.141590 0.000000 0.400478
    14 3.593710 -0.000003 0.000000 0.877826 -0.019439 0.565502
    15 2.033346 1.000767 1.937660 1.917151 -1.451780 2.620575
    16 6.028142 0.000002 0.000000 -2.497185 -0.668136 -0.220073
    17 11.692556 0.000000 -0.000001 0.000000 0.000000 -1.410169
    18 11.481671 0.000000 -0.000029 0.784756 0.107114 0.360389
    19 3.883691 -0.046771 0.431443 0.096615 -0.011011 -0.677044
    20 1.719575 0.000000 0.000000 0.055915 -0.087979 -1.327497
    21 1.209183 -0.000001 0.000000 0.009316 -0.033629 -0.516185
    22 3.859861 -0.137948 1.332466 0.537935 -0.132420 -0.946691
    23 1.719428 0.000001 0.000000 0.023466 -0.208305 -0.932460
    24 1.099667 0.000000 0.000000 0.026046 -0.124620 -0.715397
    25 0.806048 -0.348922 1.321258 -0.985982 -0.350858 -0.739448
    26 1.789783 0.000001 0.000001 -0.001067 -0.012843 0.349165
    27 1.207000 0.000000 0.000001 -0.000102 -0.003216 0.416181
    28 2.033354 1.000771 -1.937610 3.037629 1.090916 1.390771
    29 6.028142 0.000004 0.000000 1.483152 1.142543 -0.668170
    30 11.692552 0.000000 0.000002 0.000000 0.000000 -1.841408
    31 11.481699 0.000000 0.000004 -0.845804 0.058370 0.810678
    32 3.883657 -0.050329 -0.431043 -0.386562 0.126212 -1.146673
    33 1.719576 0.000003 0.000000 -0.051400 0.078807 -1.521771
    34 1.209180 -0.000001 0.000000 -0.034697 0.051520 -1.200274
    35 3.859830 -0.148938 -1.331282 -0.083014 0.164909 0.067474
    36 1.719426 0.000000 0.000000 0.024529 0.136368 -0.478052
    37 1.099666 0.000000 0.000000 -0.166396 0.224946 -1.318203
    38 0.806017 -0.359836 -1.318334 1.070430 0.381350 -0.978489
    39 1.789784 0.000000 -0.000001 0.002184 0.017482 0.317171
    40 1.206998 0.000000 0.000000 0.006478 0.026016 0.488055
    41 -0.044717 2.313936 4.661499 -0.022531 -0.016685 -0.088362
    42 2.676088 -1.712442 0.000000 1.570797 0.000000 1.570797
    43 2.676088 -1.712443 0.000000 -1.570796 0.000000 -1.570796
  time 27
    0 -0.096102 4.381583 34.168346 1.536892 -0.009100 -0.561462
    1 3.890452 -0.000004 -0.000003 -1.570796 0.051839 -1.565574
    2 17.848175 0.000000 0.000000 0.000000 0.000000 0.034200
    3 16.525249 0.000000 0.000000 -0.027915 -0.040782 -1.071638
    4 6.879453 0.000000 0.000000 -0.007299 -0.002951 -0.584373
    5 -3.890452 0.000004 0.000007 -1.570796 0.051845 -1.576021
    6 17.848171 0.000000 0.000000 0.000000 0.000000 0.034187
    7 16.525257 0.000000 0.000000 0.038611 0.040779 -1.071632
    8 6.879454 0.000000 0.000000 -0.081333 -0.002951 -0.584373
    9 0.283203 3.332031 -2.980469 1.518774 -0.175557 1.315727
    10 4.018331 0.000000 0.000000 -0.113748 0.075611 0.191157
    11 3.518561 0.000000 0.000000 -0.088886 0.106219 0.280439
    12 8.942642 0.000000 0.000000 -0.000670 0.016059 0.160688
    13 3.307271 0.000000 0.000000 3.141590 0.000000 0.400478
    14 3.593710 -0.000003 0.000000 0.881158 -0.018875 0.566180
    15 2.033346 1.000767 1.937660 1.917151 -1.451780 2.620575
    16 6.028142 0.000002 0.000000 -2.497562 -0.663997 -0.223508
    17 11.692556 0.000000 -0.000001 0.000000 0.000000 -1.412929
    18 11.481671 0.000000 -0.000029 0.782081 0.107696 0.362207
    19 3.883691 -0.046771 0.431443 0.096615 -0.011011 -0.677044
    20 1.719575 0.000000 0.000000 0.055915 -0.087979 -1.327497
    21 1.209183 -0.000001 0.000000 0.009316 -0.033629 -0.516185
    22 3.859861 -0.137948 1.332466 0.537935 -0.132420 -0.946691
    23 1.719428 0.000001 0.000000 0.023466 -0.208305 -0.932460
    24 1.099667 0.000000 0.000000 0.026046 -0.124620 -0.715397
    25 0.806048 -0.348922 1.321258 -0.985982 -0.350858 -0.739448
    26 1.789783 0.000001 0.000001 -0.001067 -0.012843 0.349165
    27 1.207000 0.000000 0.000001 -0.000102 -0.003216 0.416181
    28 2.033354 1.000771 -1.937610 3.037629 1.090916 1.390771
    29 6.028142 0.000004 0.000000 1.485546 1.146996 -0.663710
    30 11.692552 0.000000 0.000002 0.000000 0.000000 -1.839745
    31 11.481699 0.000000 0.000004 -0.845027 0.053784 0.813987
    32 3.883657 -0.050329 -0.431043 -0.386562 0.126212 -1.146673
    33 1.719576 0.000003 0.000000 -0.051400 0.078807 -1.521771
    34 1.209180 -0.000001 0.000000 -0.034697 0.051520 -1.200274
    35 3.859830 -0.148938 -1.331282 -0.083014 0.164909 0.067474
    36 1.719426 0.000000 0.000000 0.024529 0.136368 -0.478052
    37 1.099666 0.000000 0.000000 -0.166396 0.224946 -1.318203
    38 0.806017 -0.359836 -1.318334 1.070430 0.381350 -0.978489
    39 1.789784 0.000000 -0.000001 0.002184 0.017482 0.317171
    40 1.206998 0.000000 0.000000 0.006478 0.026016 0.488055
    41 -0.044717 2.313936 4.661499 -0.024987 -0.046532 -0.083736
    42 2.676088 -1.712442 0.000000 1.570797 0.000000 1.570797
    43 2.676088 -1.712443 0.000000 -1.570796 0.000000 -1.570796
  time 28
    0 -0.084383 1.985503 34.215222 1.537019 -0.009002 -0.559642
    1 3.890452 -0.000004 -0.000003 -1.570796 0.051839 -1.565574
    2 17.848175 0.000000 0.000000 0.000000 0.000000 0.034200
    3 16.525249 0.000000 0.000000 -0.027915 -0.040782 -1.071638
    4 6.879453 0.000000 0.000000 -0.007299 -0.002951 -0.584373
    5 -3.890452 0.000004 0.000007 -1.570796 0.051845 -1.576021
    6 17.848171 0.000000 0.000000 0.000000 0.000000 0.034187
    7 16.525257 0.000000 0.000000 0.038611 0.040779 -1.071632
    8 6.879454 0.000000 0.000000 -0.081333 -0.002951 -0.584373
    9 0.283203 3.332031 -2.980469 1.518774 -0.175557 1.315727
    10 4.018331 0.000000 0.000000 -0.116041 0.076641 0.191157
    11 3.518561 0.000000 0.000000 -0.091042 0.108137 0.280439
    12 8.942642 0.000000 0.000000 -0.001656 0.016335 0.160688
    13 3.307271 0.000000 0.000000 3.141590 0.000000 0.400478
    14 3.593710 -0.000003 0.000000 0.886099 -0.018058 0.567166
    15 2.033346 1.000767 1.937660 1.917151 -1.451780 2.620575
    16 6.028142 0.000002 0.000000 -2.499353 -0.654795 -0.225921
    17 11.692556 0.000000 -0.000001 0.000000 0.000000 -1.417817
    18 11.481671 0.000000 -0.000029 0.777972 0.109190 0.365448
    19 3.883691 -0.046771 0.431443 0.096615 -0.011011 -0.677044
    20 1.719575 0.000000 0.000000 0.055915 -0.087979 -1.327497
    21 1.209183 -0.000001 0.000000 0.009316 -0.033629 -0.516185
    22 3.859861 -0.137948 1.332466 0.537935 -0.132420 -0.946691
    23 1.719428 0.000001 0.000000 0.023466 -0.208305 -0.932422
    24 1.099667 0.000000 0.000000 0.026046 -0.124620 -0.715397
    25 0.806048 -0.348922 1.321258 -0.985982 -0.350858 -0.739448
    26 1.789783 0.000001 0.000001 -0.001067 -0.012843 0.349165
    27 1.207000 0.000000 0.000001 -0.000102 -0.003216 0.416181
    28 2.033354 1.000771 -1.937610 3.037629 1.090916 1.390771
    29 6.028142 0.000004 0.000000 1.484205 1.154955 -0.662761
    30 11.692552 0.000000 0.000002 0.000000 0.000000 -1.835189
    31 11.481699 0.000000 0.000004 -0.843861 0.048061 0.815413
    32 3.883657 -0.050329 -0.431043 -0.386562 0.126212 -1.146673
    33 1.719576 0.000003 0.000000 -0.051400 0.078807 -1.521771
    34 1.209180 -0.000001 0.000000 -0.034697 0.051520 -1.200274
    35 3.859830 -0.148938 -1.331282 -0.083014 0.164909 0.067474
    36 1.719426 0.000000 0.000000 0.024529 0.136368 -0.478052
    37 1.099666 0.000000 0.000000 -0.166396 0.224946 -1.318203
    38 0.806017 -0.359836 -1.318334 1.070430 0.381350 -0.978489
    39 1.789784 0.000000 -0.000001 0.002184 0.017482 0.317171
    40 1.206998 0.000000 0.000000 0.006478 0.026016 0.488055
    41 -0.044717 2.313936 4.661499 -0.035995 -0.077439 -0.078763
    42 2.676088 -1.712442 0.000000 1.570797 0.000000 1.570797
    43 2.676088 -1.712443 0.000000 -1.570796 0.000000 -1.570796
  time 29
    0 -0.080476 -0.410576 34.269911 1.537401 -0.008774 -0.554564
    1 3.890452 -0.000004 -0.000003 -1.570796 0.051839 -1.565574
    2 17.848175 0.000000 0.000000 0.000000 0.000000 0.034200
    3 16.525249 0.000000 0.000000 -0.027915 -0.040782 -1.071638
    4 6.879453 0.000000 0.000000 -0.007299 -0.002951 -0.584373
    5 -3.890452 0.000004 0.000007 -1.570796 0.051845 -1.576021
    6 17.848171 0.000000 0.000000 0.000000 0.000000 0.034187
    7 16.525257 0.000000 0.000000 0.038611 0.040779 -1.071632
    8 6.879454 0.000000 0.000000 -0.081333 -0.002951 -0.584373
    9 0.283203 3.332031 -2.980469 1.518774 -0.175557 1.315727
    10 4.018331 0.000000 0.000000 -0.119890 0.077912 0.191174
    11 3.518561 0.000000 0.000000 -0.094677 0.110642 0.280423
    12 8.942642 0.000000 0.000000 -0.004529 0.017102 0.160674
    13 3.307271 0.000000 0.000000 3.141590 0.000000 0.400478
    14 3.593710 -0.000003 0.000000 0.892262 -0.017044 0.568460
    15 2.033346 1.000767 1.937660 1.917151 -1.451780 2.620575
    16 6.028142 0.000002 0.000000 -2.502465 -0.642768 -0.226664
    17 11.692556 0.000000 -0.000001 0.000000 0.000000 -1.423179
    18 11.481671 0.000000 -0.000029 0.773291 0.111515 0.368887
    19 3.883691 -0.046771 0.431443 0.096615 -0.011011 -0.677044
    20 1.719575 0.000000 0.000000 0.055915 -0.087979 -1.327497
    21 1.209183 -0.000001 0.000000 0.009316 -0.033629 -0.516185
    22 3.859861 -0.137948 1.332466 0.537935 -0.132420 -0.946691
    23 1.719428 0.000001 0.000000 0.023466 -0.208305 -0.932422
    24 1.099667 0.000000 0.000000 0.026046 -0.124620 -0.715397
    25 0.806048 -0.348922 1.321258 -0.985982 -0.350858 -0.739448
    26 1.789783 0.000001 0.000001 -0.001067 -0.012843 0.349165
    27 1.207000 0.000000 0.000001 -0.000102 -0.003216 0.416181
    28 2.033354 1.000771 -1.937610 3.037629 1.090916 1.390771
    29 6.028142 0.000004 0.000000 1.479033 1.164903 -0.665703
    30 11.692552 0.000000 0.000002 0.000000 0.000000 -1.828535
    31 11.481699 0.000000 0.000004 -0.842695 0.042924 0.814843
    32 3.883657 -0.050329 -0.431043 -0.386562 0.126212 -1.146673
    33 1.719576 0.000003 0.000000 -0.051400 0.078807 -1.521771
    34 1.209180 -0.000001 0.000000 -0.034697 0.051520 -1.200274
    35 3.859830 -0.148938 -1.331282 -0.083014 0.164909 0.067474
    36 1.719426 0.000000 0.000000 0.024529 0.136368 -0.478052
    37 1.099666 0.000000 0.000000 -0.166396 0.224946 -1.318203
    38 0.806017 -0.359836 -1.318334 1.070430 0.381350 -0.978489
    39 1.789784 0.000000 -0.000001 0.002198 0.017482 0.317171
    40 1.206998 0.000000 0.000000 0.006478 0.026016 0.488055
    41 -0.044717 2.313936 4.661499 -0.061241 -0.094000 -0.075683
    42 2.676088 -1.712442 0.000000 1.570797 0.000000 1.570797
    43 2.676088 -1.712443 0.000000 -1.570796 0.000000 -1.570796
  time 30
    0 -0.088289 -2.806656 34.324600 1.538037 -0.008382 -0.546230
    1 3.890452 -0.000004 -0.000003 -1.570796 0.051839 -1.565574
    2 17.848175 0.000000 0.000000 0.000000 0.000000 0.034200
    3 16.525249 0.000000 0.000000 -0.027915 -0.040782 -1.071638
    4 6.879453 0.000000 0.000000 -0.007299 -0.002951 -0.584373
    5 -3.890452 0.000004 0.000007 -1.570796 0.051845 -1.576021
    6 17.848171 0.000000 0.000000 0.000000 0.000000 0.034187
    7 16.525257 0.000000 0.000000 0.038611 0.040779 -1.071632
    8 6.879454 0.000000 0.000000 -0.081333 -0.002951 -0.584373
    9 0.283203 3.332031 -2.980469 1.518774 -0.175557 1.315727
    10 4.018331 0.000000 0.000000 -0.125006 0.079374 0.191174
    11 3.518561 0.000000 0.000000 -0.099560 0.113590 0.280423
    12 8.942642 0.000000 0.000000 -0.008970 0.018288 0.160674
    13 3.307271 0.000000 0.000000 3.141590 0.000000 0.400478
    14 3.593710 -0.000003 0.000000 0.899257 -0.015889 0.569877
    15 2.033346 1.000767 1.937660 1.917151 -1.451780 2.620575
    16 6.028142 0.000002 0.000000 -2.506519 -0.630012 -0.225178
    17 11.692556 0.000000 -0.000001 0.000000 0.000000 -1.427516
    18 11.481671 0.000000 -0.000029 0.768896 0.114587 0.371179
    19 3.883691 -0.046771 0.431443 0.096615 -0.011011 -0.677044
    20 1.719575 0.000000 0.000000 0.055915 -0.087979 -1.327497
    21 1.209183 -0.000001 0.000000 0.009316 -0.033629 -0.516185
    22 3.859861 -0.137948 1.332466 0.537935 -0.132420 -0.946691
    23 1.719428 0.000001 0.000000 0.023466 -0.208305 -0.932460
    24 1.099667 0.000000 0.000000 0.026046 -0.124620 -0.715397
    25 0.806048 -0.348922 1.321258 -0.985982 -0.350858 -0.739448
    26 1.789783 0.000001 0.000001 -0.001067 -0.012843 0.349165
    27 1.207000 0.000000 0.000001 -0.000102 -0.003216 0.416181
    28 2.033354 1.000771 -1.937610 3.037629 1.090916 1.390771
    29 6.028142 0.000004 0.000000 1.469454 1.175419 -0.673294
    30 11.692552 0.000000 0.000002 0.000000 0.000000 -1.820291
    31 11.481699 0.000000 0.000004 -0.841723 0.040062 0.812275
    32 3.883657 -0.050329 -0.431043 -0.386562 0.126212 -1.146673
    33 1.719576 0.000003 0.000000 -0.051400 0.078807 -1.521771
    34 1.209180 -0.000001 0.000000 -0.034697 0.051520 -1.200274
    35 3.859830 -0.148938 -1.331282 -0.083014 0.164909 0.067474
    36 1.719426 0.000000 0.000000 0.024529 0.136368 -0.478052
    37 1.099666 0.000000 0.000000 -0.166396 0.224946 -1.318203
    38 0.806017 -0.359836 -1.318334 1.070430 0.381350 -0.978489
    39 1.789784 0.000000 -0.000001 0.002198 0.017482 0.317171
    40 1.206998 0.000000 0.000000 0.006478 0.026016 0.488055
    41 -0.044717 2.313936 4.661499 -0.106501 -0.080808 -0.076749
    42 2.676088 -1.712442 0.000000 1.570797 0.000000 1.570797
    43 2.676088 -1.712443 0.000000 -1.570796 0.000000 -1.570796
end
