// Created by Crowbar 0.68
version 1
nodes
  0 "ValveBiped.Bip01_Pelvis" -1
  1 "ValveBiped.Bip01_L_Thigh" 0
  2 "ValveBiped.Bip01_L_Calf" 1
  3 "ValveBiped.Bip01_L_Foot" 2
  4 "ValveBiped.Bip01_L_Toe0" 3
  5 "ValveBiped.Bip01_R_Thigh" 0
  6 "ValveBiped.Bip01_R_Calf" 5
  7 "ValveBiped.Bip01_R_Foot" 6
  8 "ValveBiped.Bip01_R_Toe0" 7
  9 "ValveBiped.Bip01_Spine" 0
  10 "ValveBiped.Bip01_Spine1" 9
  11 "ValveBiped.Bip01_Spine2" 10
  12 "ValveBiped.Bip01_Spine4" 11
  13 "ValveBiped.Bip01_Neck1" 12
  14 "ValveBiped.Bip01_Head1" 13
  15 "ValveBiped.Bip01_L_Clavicle" 12
  16 "ValveBiped.Bip01_L_UpperArm" 15
  17 "ValveBiped.Bip01_L_Forearm" 16
  18 "ValveBiped.Bip01_L_Hand" 17
  19 "ValveBiped.Bip01_L_Finger2" 18
  20 "ValveBiped.Bip01_L_Finger21" 19
  21 "ValveBiped.Bip01_L_Finger22" 20
  22 "ValveBiped.Bip01_L_Finger1" 18
  23 "ValveBiped.Bip01_L_Finger11" 22
  24 "ValveBiped.Bip01_L_Finger12" 23
  25 "ValveBiped.Bip01_L_Finger0" 18
  26 "ValveBiped.Bip01_L_Finger01" 25
  27 "ValveBiped.Bip01_L_Finger02" 26
  28 "ValveBiped.Bip01_R_Clavicle" 12
  29 "ValveBiped.Bip01_R_UpperArm" 28
  30 "ValveBiped.Bip01_R_Forearm" 29
  31 "ValveBiped.Bip01_R_Hand" 30
  32 "ValveBiped.Bip01_R_Finger2" 31
  33 "ValveBiped.Bip01_R_Finger21" 32
  34 "ValveBiped.Bip01_R_Finger22" 33
  35 "ValveBiped.Bip01_R_Finger1" 31
  36 "ValveBiped.Bip01_R_Finger11" 35
  37 "ValveBiped.Bip01_R_Finger12" 36
  38 "ValveBiped.Bip01_R_Finger0" 31
  39 "ValveBiped.Bip01_R_Finger01" 38
  40 "ValveBiped.Bip01_R_Finger02" 39
  41 "ValveBiped.Cod" 0
  42 "ValveBiped.Anim_Attachment_LH" 18
  43 "ValveBiped.Anim_Attachment_RH" 31
end
skeleton
  time 0
    0 2.671875 2.228516 38.468750 1.615449 -0.120682 1.477750
    1 3.890452 -0.000004 -0.000003 -1.495975 -0.111601 -1.327566
    2 17.848175 0.000000 0.000000 0.000000 0.000000 0.428530
    3 16.525249 0.000000 0.000000 -0.177272 0.087577 -0.645600
    4 6.879453 0.000000 0.000000 -0.006083 -0.004370 -0.847477
    5 -3.890452 0.000004 0.000007 -1.272183 -0.255838 -1.806183
    6 17.848171 0.000000 0.000000 0.000000 0.000000 0.414381
    7 16.525257 0.000000 0.000000 0.115051 0.107344 -1.116008
    8 6.879454 0.000000 0.000000 -0.081333 -0.002951 -0.584373
    9 0.229614 3.335938 -2.980469 1.575703 0.086151 1.561195
    10 4.018331 0.000000 0.000000 0.038359 0.028743 -0.029230
    11 3.518561 0.000000 0.000000 -0.030744 0.054246 -0.017413
    12 8.942642 0.000000 0.000000 -0.064776 0.042769 0.118018
    13 3.307271 0.000000 0.000000 3.138444 0.000766 0.477052
    14 3.593710 -0.000003 0.000000 -0.798906 -0.265192 0.410848
    15 2.033346 1.000767 1.937660 -0.817167 -1.439999 -0.932429
    16 6.028142 0.000002 0.000000 -1.873000 -0.336551 -1.033135
    17 11.692556 0.000000 -0.000001 0.000000 0.000000 -2.162795
    18 11.481671 0.000000 -0.000029 -0.105881 0.198165 0.519960
    19 3.883691 -0.046771 0.431443 0.096615 -0.011011 -0.677044
    20 1.719575 0.000000 0.000000 0.055915 -0.087978 -1.150781
    21 1.209183 -0.000001 0.000000 0.009316 -0.033629 -0.339470
    22 3.859861 -0.137948 1.332466 0.537935 -0.132420 -0.946691
    23 1.719428 0.000001 0.000000 0.023476 -0.208311 -0.755744
    24 1.099667 0.000000 0.000000 0.026046 -0.124621 -0.538681
    25 0.806048 -0.348922 1.321258 -1.269164 -0.727275 -0.266407
    26 1.789783 0.000001 0.000001 -0.001068 -0.012855 -0.131880
    27 1.207000 0.000000 0.000001 -0.000100 -0.003215 -0.064874
    28 2.033354 1.000771 -1.937610 2.600503 1.538885 0.924627
    29 6.028142 0.000004 0.000000 0.687049 0.762256 -1.097173
    30 11.692552 0.000000 0.000002 0.000000 0.000000 -1.913281
    31 11.481699 0.000000 0.000004 -0.910500 0.131130 -0.031782
    32 3.883657 -0.050329 -0.431043 0.047704 -0.153454 -0.767482
    33 1.719576 0.000003 0.000000 -0.053884 0.078890 -1.553283
    34 1.209180 -0.000001 0.000000 -0.013612 0.036967 -0.732282
    35 3.859830 -0.148938 -1.331282 -0.332627 0.218366 0.154975
    36 1.719426 0.000000 0.000000 -0.042634 0.220745 -0.851607
    37 1.099666 0.000000 0.000000 0.008154 0.000000 0.000000
    38 0.806017 -0.359836 -1.318334 0.415058 0.423434 -0.720789
    39 1.789784 0.000000 -0.000001 0.015106 0.038911 0.767156
    40 1.206998 0.000000 0.000000 0.004785 0.022541 0.418309
    41 -0.044717 2.313936 4.661499 -0.240191 0.315177 -0.030214
    42 2.676088 -1.712442 0.000000 1.570797 0.000000 1.570797
    43 2.676088 -1.712443 0.000000 -1.570796 0.000000 -1.570796
end
