// Created by Crowbar 0.68
version 1
nodes
  0 "ValveBiped.Bip01_Pelvis" -1
  1 "ValveBiped.Bip01_L_Thigh" 0
  2 "ValveBiped.Bip01_L_Calf" 1
  3 "ValveBiped.Bip01_L_Foot" 2
  4 "ValveBiped.Bip01_L_Toe0" 3
  5 "ValveBiped.Bip01_R_Thigh" 0
  6 "ValveBiped.Bip01_R_Calf" 5
  7 "ValveBiped.Bip01_R_Foot" 6
  8 "ValveBiped.Bip01_R_Toe0" 7
  9 "ValveBiped.Bip01_Spine" 0
  10 "ValveBiped.Bip01_Spine1" 9
  11 "ValveBiped.Bip01_Spine2" 10
  12 "ValveBiped.Bip01_Spine4" 11
  13 "ValveBiped.Bip01_Neck1" 12
  14 "ValveBiped.Bip01_Head1" 13
  15 "ValveBiped.Bip01_L_Clavicle" 12
  16 "ValveBiped.Bip01_L_UpperArm" 15
  17 "ValveBiped.Bip01_L_Forearm" 16
  18 "ValveBiped.Bip01_L_Hand" 17
  19 "ValveBiped.Bip01_L_Finger2" 18
  20 "ValveBiped.Bip01_L_Finger21" 19
  21 "ValveBiped.Bip01_L_Finger22" 20
  22 "ValveBiped.Bip01_L_Finger1" 18
  23 "ValveBiped.Bip01_L_Finger11" 22
  24 "ValveBiped.Bip01_L_Finger12" 23
  25 "ValveBiped.Bip01_L_Finger0" 18
  26 "ValveBiped.Bip01_L_Finger01" 25
  27 "ValveBiped.Bip01_L_Finger02" 26
  28 "ValveBiped.Bip01_R_Clavicle" 12
  29 "ValveBiped.Bip01_R_UpperArm" 28
  30 "ValveBiped.Bip01_R_Forearm" 29
  31 "ValveBiped.Bip01_R_Hand" 30
  32 "ValveBiped.Bip01_R_Finger2" 31
  33 "ValveBiped.Bip01_R_Finger21" 32
  34 "ValveBiped.Bip01_R_Finger22" 33
  35 "ValveBiped.Bip01_R_Finger1" 31
  36 "ValveBiped.Bip01_R_Finger11" 35
  37 "ValveBiped.Bip01_R_Finger12" 36
  38 "ValveBiped.Bip01_R_Finger0" 31
  39 "ValveBiped.Bip01_R_Finger01" 38
  40 "ValveBiped.Bip01_R_Finger02" 39
  41 "ValveBiped.Cod" 0
  42 "ValveBiped.Anim_Attachment_LH" 18
  43 "ValveBiped.Anim_Attachment_RH" 31
end
skeleton
  time 0
    0 2.669608 2.224498 33.062843 1.535747 0.074968 -0.578035
    1 3.890452 -0.000004 -0.000003 -2.120690 -0.691485 -1.062082
    2 17.848175 0.000000 0.000000 0.000000 0.000000 0.722786
    3 16.525249 0.000000 0.000000 -0.096828 -0.068839 -0.835171
    4 6.879453 0.000000 0.000000 -0.007299 -0.002951 -0.584373
    5 -3.890452 0.000004 0.000007 -1.426739 -0.102437 -1.812044
    6 17.848171 0.000000 0.000000 0.000000 0.000000 0.882452
    7 16.525257 0.000000 0.000000 0.345111 0.073461 -1.574667
    8 6.879454 0.000000 0.000000 -0.081333 -0.002951 -0.584373
    9 0.000005 3.345128 -2.981901 1.518780 -0.175540 1.400531
    10 4.018331 0.000000 0.000000 -0.113620 0.054662 0.191192
    11 3.518561 0.000000 0.000000 -0.090917 0.084767 0.280299
    12 8.942642 0.000000 0.000000 -0.007137 0.016443 0.141032
    13 3.307271 0.000000 0.000000 3.141590 0.000000 0.400478
    14 3.593710 -0.000003 0.000000 0.887487 0.016873 0.517378
    15 2.033346 1.000767 1.937660 0.194389 -1.479234 4.345117
    16 6.028142 0.000002 0.000000 -2.595712 -0.892694 -0.098559
    17 11.692556 0.000000 -0.000001 0.000000 0.000000 -1.235048
    18 11.423076 1.160192 -0.000029 -0.506326 0.547771 0.020281
    19 3.883691 -0.046771 0.431443 0.096615 -0.011011 -0.677044
    20 1.719575 0.000000 0.000000 0.055915 -0.087978 -1.150781
    21 1.209183 -0.000001 0.000000 0.009316 -0.033629 -0.339470
    22 3.859861 -0.137948 1.332466 0.537935 -0.132420 -0.946691
    23 1.719428 0.000001 0.000000 0.023476 -0.208311 -0.755744
    24 1.099667 0.000000 0.000000 0.026046 -0.124621 -0.538681
    25 0.806048 -0.348922 1.321258 -1.269164 -0.727275 -0.266407
    26 1.789783 0.000001 0.000001 -0.001067 -0.012843 -0.131867
    27 1.207000 0.000000 0.000001 -0.000100 -0.003215 -0.064874
    28 2.033354 1.000771 -1.937610 -3.716262 1.060649 0.927321
    29 6.028142 0.000004 0.000000 1.276439 1.139275 -1.053535
    30 11.692552 0.000000 0.000002 0.000000 0.000000 -1.816964
    31 11.466074 0.613300 0.000004 -0.881887 0.247866 0.591584
    32 3.883657 -0.050329 -0.431043 0.047704 -0.153454 -0.767482
    33 1.719576 0.000003 0.000000 -0.053884 0.078890 -1.553283
    34 1.209180 -0.000001 0.000000 -0.013612 0.036967 -0.732282
    35 3.859830 -0.148938 -1.331282 -0.332627 0.218364 0.154975
    36 1.719426 0.000000 0.000000 -0.042634 0.220745 -0.851607
    37 1.099666 0.000000 0.000000 0.008154 0.000000 0.000000
    38 0.806017 -0.359836 -1.318334 0.415058 0.423434 -0.720789
    39 1.789784 0.000000 -0.000001 0.015106 0.038911 0.767156
    40 1.206998 0.000000 0.000000 0.004785 0.022541 0.418309
    41 -0.044717 2.313936 4.661499 -0.186195 -0.229683 -0.040029
    42 2.676088 -1.712442 0.000000 1.570797 0.000000 1.570797
    43 2.676088 -1.712443 0.000000 -1.570796 0.000000 -1.570796
  time 1
    0 2.353192 3.125326 33.242536 1.531549 0.019162 -0.582058
    1 3.890452 -0.000004 -0.000003 -2.102581 -0.641609 -1.126320
    2 17.848175 0.000000 0.000000 0.000000 0.000000 0.628039
    3 16.525249 0.000000 0.000000 -0.102905 -0.042209 -0.790620
    4 6.879453 0.000000 0.000000 -0.007311 -0.002951 -0.584373
    5 -3.890452 0.000004 0.000007 -1.430956 -0.137920 -1.845937
    6 17.848171 0.000000 0.000000 0.000000 0.000000 0.937550
    7 16.525257 0.000000 0.000000 0.330235 0.104837 -1.575949
    8 6.879454 0.000000 0.000000 -0.081178 -0.002951 -0.598279
    9 0.042975 3.345128 -2.981901 1.512554 -0.130959 1.388211
    10 4.018331 0.000000 0.000000 -0.118335 0.082011 0.150883
    11 3.518561 0.000000 0.000000 -0.090917 0.084755 0.280299
    12 8.942642 0.000000 0.000000 -0.007137 0.016443 0.141032
    13 3.307271 0.000000 0.000000 3.066832 -0.054431 0.467131
    14 3.593710 -0.000003 0.000000 0.887487 0.016873 0.517378
    15 2.033346 1.000767 1.937660 0.194389 -1.479234 4.345117
    16 6.028142 0.000002 0.000000 -2.512836 -0.894496 -0.223229
    17 11.692556 0.000000 -0.000001 0.000000 0.000000 -1.005916
    18 11.481671 0.000000 -0.000029 -0.390718 0.572059 -0.191412
    19 3.883691 -0.046771 0.431443 0.096615 -0.011011 -0.677044
    20 1.719575 0.000000 0.000000 0.055915 -0.087978 -1.150781
    21 1.209183 -0.000001 0.000000 0.009316 -0.033629 -0.339470
    22 3.859861 -0.137948 1.332466 0.537935 -0.132420 -0.946691
    23 1.719428 0.000001 0.000000 0.023476 -0.208311 -0.755744
    24 1.099667 0.000000 0.000000 0.026046 -0.124621 -0.538681
    25 0.806048 -0.348922 1.321258 -1.269164 -0.727275 -0.266407
    26 1.789783 0.000001 0.000001 -0.001067 -0.012843 -0.131867
    27 1.207000 0.000000 0.000001 -0.000100 -0.003215 -0.064874
    28 2.033354 1.000771 -1.937610 -3.716262 1.060649 0.927321
    29 6.028142 0.000004 0.000000 1.186877 1.148986 -1.104398
    30 11.692552 0.000000 0.000002 0.000000 0.000000 -1.592987
    31 11.481699 0.000000 0.000004 -0.838808 0.237074 0.454366
    32 3.883657 -0.050329 -0.431043 0.047704 -0.153454 -0.767482
    33 1.719576 0.000003 0.000000 -0.053884 0.078890 -1.553283
    34 1.209180 -0.000001 0.000000 -0.013612 0.036967 -0.732282
    35 3.859830 -0.148938 -1.331282 -0.332627 0.218364 0.154975
    36 1.719426 0.000000 0.000000 -0.042634 0.220745 -0.851607
    37 1.099666 0.000000 0.000000 0.008154 0.000000 0.000000
    38 0.806017 -0.359836 -1.318334 0.415058 0.423434 -0.720789
    39 1.789784 0.000000 -0.000001 0.015106 0.038911 0.767156
    40 1.206998 0.000000 0.000000 0.004785 0.022541 0.418309
    41 -0.044717 2.313936 4.661499 -0.204572 -0.229683 -0.040029
    42 2.676088 -1.712442 0.000000 1.570797 0.000000 1.570797
    43 2.676088 -1.712443 0.000000 -1.570796 0.000000 -1.570796
  time 2
    0 2.079746 4.026154 33.406604 1.529068 -0.059296 -0.594321
    1 3.890452 -0.000004 -0.000003 -2.094631 -0.582387 -1.202558
    2 17.848175 0.000000 0.000000 0.000000 0.000000 0.561761
    3 16.525249 0.000000 0.000000 -0.101128 0.006822 -0.793162
    4 6.879453 0.000000 0.000000 -0.007359 -0.002987 -0.584373
    5 -3.890452 0.000004 0.000007 -1.443895 -0.180950 -1.903621
    6 17.848171 0.000000 0.000000 0.000000 0.000000 1.003226
    7 16.525257 0.000000 0.000000 0.322189 0.149943 -1.567455
    8 6.879454 0.000000 0.000000 -0.080902 -0.002975 -0.622489
    9 0.144541 3.341221 -2.981901 1.515356 -0.085323 1.350220
    10 4.018331 0.000000 0.000000 -0.123178 0.108844 0.113468
    11 3.518561 0.000000 0.000000 -0.096014 0.086337 0.216669
    12 8.942642 0.000000 0.000000 -0.023825 -0.002337 0.129993
    13 3.307271 0.000000 0.000000 3.010999 -0.103414 0.605532
    14 3.593710 -0.000003 0.000000 0.839795 -0.076682 0.640554
    15 2.033346 1.000767 1.937660 0.194389 -1.479234 4.345117
    16 6.028142 0.000002 0.000000 -2.378481 -0.850869 -0.340009
    17 11.692556 0.000000 -0.000001 0.000000 0.000000 -0.838680
    18 11.481671 0.000000 -0.000029 -0.197338 0.602864 -0.332396
    19 3.883691 -0.046771 0.431443 0.096615 -0.011011 -0.677044
    20 1.719575 0.000000 0.000000 0.055915 -0.087978 -1.150781
    21 1.209183 -0.000001 0.000000 0.009316 -0.033629 -0.339470
    22 3.859861 -0.137948 1.332466 0.537935 -0.132420 -0.946691
    23 1.719428 0.000001 0.000000 0.023476 -0.208311 -0.755744
    24 1.099667 0.000000 0.000000 0.026046 -0.124621 -0.538681
    25 0.806048 -0.348922 1.321258 -1.269164 -0.727275 -0.266407
    26 1.789783 0.000001 0.000001 -0.001067 -0.012843 -0.131867
    27 1.207000 0.000000 0.000001 -0.000100 -0.003215 -0.064874
    28 2.033354 1.000771 -1.937610 -3.716262 1.060649 0.927321
    29 6.028142 0.000004 0.000000 0.958133 1.138659 -1.327304
    30 11.692552 0.000000 0.000002 0.000000 0.000000 -1.318676
    31 11.481699 0.000000 0.000004 -0.792360 0.222007 0.289760
    32 3.883657 -0.050329 -0.431043 0.047704 -0.153454 -0.767482
    33 1.719576 0.000003 0.000000 -0.053884 0.078890 -1.553283
    34 1.209180 -0.000001 0.000000 -0.013612 0.036967 -0.732282
    35 3.859830 -0.148938 -1.331282 -0.332627 0.218364 0.154975
    36 1.719426 0.000000 0.000000 -0.042634 0.220745 -0.851607
    37 1.099666 0.000000 0.000000 0.008154 0.000000 0.000000
    38 0.806017 -0.359836 -1.318334 0.415058 0.423434 -0.720789
    39 1.789784 0.000000 -0.000001 0.015106 0.038911 0.767156
    40 1.206998 0.000000 0.000000 0.004785 0.022541 0.418309
    41 -0.044717 2.313936 4.661499 -0.248922 -0.229683 -0.040029
    42 2.676088 -1.712442 0.000000 1.570797 0.000000 1.570797
    43 2.676088 -1.712443 0.000000 -1.570796 0.000000 -1.570796
  time 3
    0 1.841457 4.926982 33.562858 1.529895 -0.144881 -0.609744
    1 3.890452 -0.000004 -0.000003 -2.091628 -0.519256 -1.284532
    2 17.848175 0.000000 0.000000 0.000000 0.000000 0.496926
    3 16.525249 0.000000 0.000000 -0.100169 0.060246 -0.809016
    4 6.879453 0.000000 0.000000 -0.007419 -0.003023 -0.584373
    5 -3.890452 0.000004 0.000007 -1.459614 -0.227412 -1.968292
    6 17.848171 0.000000 0.000000 0.000000 0.000000 1.067245
    7 16.525257 0.000000 0.000000 0.324809 0.197824 -1.553994
    8 6.879454 0.000000 0.000000 -0.080626 -0.002987 -0.649890
    9 0.265638 3.325596 -2.993620 1.521453 -0.039369 1.304630
    10 4.018331 0.000000 0.000000 -0.127925 0.134683 0.079781
    11 3.518561 0.000000 0.000000 -0.101128 0.087919 0.153133
    12 8.942642 0.000000 0.000000 -0.040373 -0.020805 0.119059
    13 3.307271 0.000000 0.000000 2.955779 -0.153144 0.739700
    14 3.593710 -0.000003 0.000000 0.792714 -0.174293 0.767427
    15 2.033346 1.000767 1.937660 0.138877 -1.369083 4.402666
    16 6.028142 0.000002 0.000000 -1.905081 -0.707283 -0.773803
    17 11.692556 0.000000 -0.000001 0.000000 0.000000 -1.065446
    18 11.481671 0.000000 -0.000029 0.064834 0.526930 -0.237340
    19 3.883691 -0.046771 0.431443 0.096615 -0.011011 -0.677044
    20 1.719575 0.000000 0.000000 0.055915 -0.087978 -1.150781
    21 1.209183 -0.000001 0.000000 0.009316 -0.033629 -0.339470
    22 3.859861 -0.137948 1.332466 0.537935 -0.132420 -0.946691
    23 1.719428 0.000001 0.000000 0.023476 -0.208311 -0.755744
    24 1.099667 0.000000 0.000000 0.026046 -0.124621 -0.538681
    25 0.806048 -0.348922 1.321258 -1.269164 -0.727275 -0.266407
    26 1.789783 0.000001 0.000001 -0.001067 -0.012843 -0.131867
    27 1.207000 0.000000 0.000001 -0.000100 -0.003215 -0.064874
    28 2.033354 1.000771 -1.937610 -3.694025 1.066928 0.947048
    29 6.028142 0.000004 0.000000 0.926618 0.862483 -1.314683
    30 11.692552 0.000000 0.000002 0.000000 0.000000 -1.351437
    31 11.481699 0.000000 0.000004 -0.800393 0.155083 0.207258
    32 3.883657 -0.050329 -0.431043 0.047704 -0.153454 -0.767482
    33 1.719576 0.000003 0.000000 -0.053884 0.078890 -1.553283
    34 1.209180 -0.000001 0.000000 -0.013612 0.036967 -0.732282
    35 3.859830 -0.148938 -1.331282 -0.332627 0.218364 0.154975
    36 1.719426 0.000000 0.000000 -0.042634 0.220745 -0.851607
    37 1.099666 0.000000 0.000000 0.008154 0.000000 0.000000
    38 0.806017 -0.359836 -1.318334 0.415058 0.423434 -0.720789
    39 1.789784 0.000000 -0.000001 0.015106 0.038911 0.767156
    40 1.206998 0.000000 0.000000 0.004785 0.022541 0.418309
    41 -0.044717 2.313936 4.661499 -0.313287 -0.229683 -0.040029
    42 2.676088 -1.712442 0.000000 1.570797 0.000000 1.570797
    43 2.676088 -1.712443 0.000000 -1.570796 0.000000 -1.570796
  time 4
    0 1.650045 5.821682 33.707394 1.535047 -0.220044 -0.623922
    1 3.890452 -0.000004 -0.000003 -2.088978 -0.456410 -1.365095
    2 17.848175 0.000000 0.000000 0.000000 0.000000 0.401648
    3 16.525249 0.000000 0.000000 -0.104576 0.098844 -0.799785
    4 6.879453 0.000000 0.000000 -0.007467 -0.003059 -0.584373
    5 -3.890452 0.000004 0.000007 -1.472074 -0.273187 -2.022388
    6 17.848171 0.000000 0.000000 0.000000 0.000000 1.120133
    7 16.525257 0.000000 0.000000 0.339498 0.240250 -1.539144
    8 6.879454 0.000000 0.000000 -0.080387 -0.002999 -0.674247
    9 0.367204 3.306064 -3.005339 1.525957 0.002585 1.268652
    10 4.018331 0.000000 0.000000 -0.132319 0.158089 0.053362
    11 3.518561 0.000000 0.000000 -0.105868 0.089357 0.094811
    12 8.942642 0.000000 0.000000 -0.055405 -0.037380 0.109099
    13 3.307271 0.000000 0.000000 2.903031 -0.201108 0.856450
    14 3.593710 -0.000003 0.000000 0.749520 -0.269764 0.889740
    15 2.033346 1.000767 1.937660 0.120979 -1.263581 4.423541
    16 6.028142 0.000002 0.000000 -1.601770 -0.495919 -0.968560
    17 11.692556 0.000000 -0.000001 0.000000 0.000000 -1.238990
    18 11.481671 0.000000 -0.000029 0.308088 0.444105 -0.181768
    19 3.883691 -0.046771 0.431443 0.096615 -0.011011 -0.677044
    20 1.719575 0.000000 0.000000 0.055915 -0.087978 -1.150781
    21 1.209183 -0.000001 0.000000 0.009316 -0.033629 -0.339470
    22 3.859861 -0.137948 1.332466 0.537935 -0.132420 -0.946691
    23 1.719428 0.000001 0.000000 0.023476 -0.208311 -0.755744
    24 1.099667 0.000000 0.000000 0.026046 -0.124621 -0.538681
    25 0.806048 -0.348922 1.321258 -1.269164 -0.727275 -0.266407
    26 1.789783 0.000001 0.000001 -0.001067 -0.012843 -0.131867
    27 1.207000 0.000000 0.000001 -0.000100 -0.003215 -0.064874
    28 2.033354 1.000771 -1.937610 -3.670806 1.073175 0.967856
    29 6.028142 0.000004 0.000000 0.893954 0.635194 -1.283652
    30 11.692552 0.000000 0.000002 0.000000 0.000000 -1.366697
    31 11.481699 0.000000 0.000004 -0.808620 0.079333 0.138677
    32 3.883657 -0.050329 -0.431043 0.047704 -0.153454 -0.767482
    33 1.719576 0.000003 0.000000 -0.053884 0.078890 -1.553283
    34 1.209180 -0.000001 0.000000 -0.013612 0.036967 -0.732282
    35 3.859830 -0.148938 -1.331282 -0.332627 0.218364 0.154975
    36 1.719426 0.000000 0.000000 -0.042634 0.220745 -0.851607
    37 1.099666 0.000000 0.000000 0.008154 0.000000 0.000000
    38 0.806017 -0.359836 -1.318334 0.415058 0.423434 -0.720789
    39 1.789784 0.000000 -0.000001 0.015106 0.038911 0.767156
    40 1.206998 0.000000 0.000000 0.004785 0.022541 0.418309
    41 -0.044717 2.313936 4.661499 -0.392754 -0.229683 -0.040029
    42 2.676088 -1.712442 0.000000 1.570797 0.000000 1.570797
    43 2.676088 -1.712443 0.000000 -1.570796 0.000000 -1.570796
  time 5
    0 1.583637 6.305800 33.773802 1.538419 -0.250948 -0.630245
    1 3.890452 -0.000004 -0.000003 -2.087034 -0.423557 -1.403479
    2 17.848175 0.000000 0.000000 0.000000 0.000000 0.336586
    3 16.525249 0.000000 0.000000 -0.108592 0.111116 -0.781322
    4 6.879453 0.000000 0.000000 -0.007503 -0.003083 -0.584373
    5 -3.890452 0.000004 0.000007 -1.476771 -0.298524 -2.042498
    6 17.848171 0.000000 0.000000 0.000000 0.000000 1.143578
    7 16.525257 0.000000 0.000000 0.343053 0.256474 -1.532146
    8 6.879454 0.000000 0.000000 -0.080303 -0.003011 -0.683293
    9 0.410174 3.294345 -3.009246 1.528447 0.018651 1.252965
    10 4.018331 0.000000 0.000000 -0.134436 0.169906 0.039211
    11 3.518561 0.000000 0.000000 -0.109789 0.090508 0.047710
    12 8.942642 0.000000 0.000000 -0.067264 -0.050120 0.101182
    13 3.307271 0.000000 0.000000 2.883984 -0.225989 0.931739
    14 3.593710 -0.000003 0.000000 0.711377 -0.360220 1.003735
    15 2.033346 1.000767 1.937660 0.111600 -1.169366 4.436085
    16 6.028142 0.000002 0.000000 -1.396325 -0.287916 -1.010705
    17 11.692556 0.000000 -0.000001 0.000000 0.000000 -1.439658
    18 11.481671 0.000000 -0.000029 0.533667 0.355591 -0.118371
    19 3.883691 -0.046771 0.431443 0.096615 -0.011011 -0.677044
    20 1.719575 0.000000 0.000000 0.055915 -0.087978 -1.150781
    21 1.209183 -0.000001 0.000000 0.009316 -0.033629 -0.339470
    22 3.859861 -0.137948 1.332466 0.537935 -0.132420 -0.946691
    23 1.719428 0.000001 0.000000 0.023476 -0.208311 -0.755744
    24 1.099667 0.000000 0.000000 0.026046 -0.124621 -0.538681
    25 0.806048 -0.348922 1.321258 -1.269164 -0.727275 -0.266407
    26 1.789783 0.000001 0.000001 -0.001067 -0.012843 -0.131867
    27 1.207000 0.000000 0.000001 -0.000100 -0.003215 -0.064874
    28 2.033354 1.000771 -1.937610 -3.648033 1.078905 0.988213
    29 6.028142 0.000004 0.000000 0.883130 0.439312 -1.228424
    30 11.692552 0.000000 0.000002 0.000000 0.000000 -1.419129
    31 11.481699 0.000000 0.000004 -0.832848 0.009582 0.092519
    32 3.883657 -0.050329 -0.431043 0.047704 -0.153454 -0.767482
    33 1.719576 0.000003 0.000000 -0.053884 0.078890 -1.553283
    34 1.209180 -0.000001 0.000000 -0.013612 0.036967 -0.732282
    35 3.859830 -0.148938 -1.331282 -0.332627 0.218364 0.154975
    36 1.719426 0.000000 0.000000 -0.042634 0.220745 -0.851607
    37 1.099666 0.000000 0.000000 0.008154 0.000000 0.000000
    38 0.806017 -0.359836 -1.318334 0.415058 0.423434 -0.720789
    39 1.789784 0.000000 -0.000001 0.015106 0.038911 0.767156
    40 1.206998 0.000000 0.000000 0.004785 0.022541 0.418309
    41 -0.044717 2.313936 4.661499 -0.482274 -0.229683 -0.040029
    42 2.676088 -1.712442 0.000000 1.570797 0.000000 1.570797
    43 2.676088 -1.712443 0.000000 -1.570796 0.000000 -1.570796
  time 6
    0 1.564105 6.275160 33.785522 1.536892 -0.249872 -0.629575
    1 3.890452 -0.000004 -0.000003 -2.086681 -0.425130 -1.401185
    2 17.848175 0.000000 0.000000 0.000000 0.000000 0.348808
    3 16.525249 0.000000 0.000000 -0.110404 0.107986 -0.790219
    4 6.879453 0.000000 0.000000 -0.007503 -0.003083 -0.584373
    5 -3.890452 0.000004 0.000007 -1.476771 -0.295682 -2.041554
    6 17.848171 0.000000 0.000000 0.000000 0.000000 1.141367
    7 16.525257 0.000000 0.000000 0.340527 0.253653 -1.532787
    8 6.879454 0.000000 0.000000 -0.080303 -0.003011 -0.682795
    9 0.406267 3.294345 -3.009246 1.528740 0.014400 1.253947
    10 4.018331 0.000000 0.000000 -0.135013 0.172207 0.033669
    11 3.518561 0.000000 0.000000 -0.112301 0.091059 0.023065
    12 8.942642 0.000000 0.000000 -0.072569 -0.055285 0.097467
    13 3.307271 0.000000 0.000000 2.885149 -0.232306 0.961405
    14 3.593710 -0.000003 0.000000 0.681397 -0.437605 1.099860
    15 2.033346 1.000767 1.937660 0.105379 -1.088513 4.445469
    16 6.028142 0.000002 0.000000 -1.238493 -0.130355 -0.990097
    17 11.692556 0.000000 -0.000001 0.000000 0.000000 -1.621639
    18 11.481671 0.000000 -0.000029 0.741475 0.270067 -0.073590
    19 3.883691 -0.046771 0.431443 0.096615 -0.011011 -0.677044
    20 1.719575 0.000000 0.000000 0.055915 -0.087978 -1.150781
    21 1.209183 -0.000001 0.000000 0.009316 -0.033629 -0.339470
    22 3.859861 -0.137948 1.332466 0.537935 -0.132420 -0.946691
    23 1.719428 0.000001 0.000000 0.023476 -0.208311 -0.755744
    24 1.099667 0.000000 0.000000 0.026046 -0.124621 -0.538681
    25 0.806048 -0.348922 1.321258 -1.269164 -0.727275 -0.266407
    26 1.789783 0.000001 0.000001 -0.001067 -0.012843 -0.131867
    27 1.207000 0.000000 0.000001 -0.000100 -0.003215 -0.064874
    28 2.033354 1.000771 -1.937610 -3.626688 1.083986 1.007399
    29 6.028142 0.000004 0.000000 0.886387 0.281612 -1.155546
    30 11.692552 0.000000 0.000002 0.000000 0.000000 -1.493185
    31 11.481699 0.000000 0.000004 -0.865109 -0.041515 0.061994
    32 3.883657 -0.050329 -0.431043 0.047704 -0.153454 -0.767482
    33 1.719576 0.000003 0.000000 -0.053884 0.078890 -1.553283
    34 1.209180 -0.000001 0.000000 -0.013612 0.036967 -0.732282
    35 3.859830 -0.148938 -1.331282 -0.332627 0.218364 0.154975
    36 1.719426 0.000000 0.000000 -0.042634 0.220745 -0.851607
    37 1.099666 0.000000 0.000000 0.008154 0.000000 0.000000
    38 0.806017 -0.359836 -1.318334 0.415058 0.423434 -0.720789
    39 1.789784 0.000000 -0.000001 0.015106 0.038911 0.767156
    40 1.206998 0.000000 0.000000 0.004785 0.022541 0.418309
    41 -0.044717 2.313936 4.661499 -0.573704 -0.229683 -0.040029
    42 2.676088 -1.712442 0.000000 1.570797 0.000000 1.570797
    43 2.676088 -1.712443 0.000000 -1.570796 0.000000 -1.570796
  time 7
    0 1.587543 5.993268 33.762083 1.535493 -0.239321 -0.627563
    1 3.890452 -0.000004 -0.000003 -2.089154 -0.441533 -1.386272
    2 17.848175 0.000000 0.000000 0.000000 0.000000 0.389273
    3 16.525249 0.000000 0.000000 -0.110013 0.098790 -0.807812
    4 6.879453 0.000000 0.000000 -0.007491 -0.003071 -0.584373
    5 -3.890452 0.000004 0.000007 -1.475716 -0.283086 -2.036550
    6 17.848171 0.000000 0.000000 0.000000 0.000000 1.129527
    7 16.525257 0.000000 0.000000 0.336878 0.242651 -1.538236
    8 6.879454 0.000000 0.000000 -0.080351 -0.002999 -0.677438
    9 0.394548 3.298251 -3.005339 1.529655 0.003037 1.256908
    10 4.018331 0.000000 0.000000 -0.134580 0.168228 0.034924
    11 3.518561 0.000000 0.000000 -0.113299 0.091107 0.017928
    12 8.942642 0.000000 0.000000 -0.072992 -0.056304 0.097256
    13 3.307271 0.000000 0.000000 2.898780 -0.225570 0.956836
    14 3.593710 -0.000003 0.000000 0.667073 -0.482200 1.154331
    15 2.033346 1.000767 1.937660 0.101646 -1.042331 4.451023
    16 6.028142 0.000002 0.000000 -1.148546 -0.030881 -0.977936
    17 11.692556 0.000000 -0.000001 0.000000 0.000000 -1.740936
    18 11.481671 0.000000 -0.000029 0.915364 0.216137 -0.054579
    19 3.883691 -0.046771 0.431443 0.096615 -0.011011 -0.677044
    20 1.719575 0.000000 0.000000 0.055915 -0.087978 -1.150781
    21 1.209183 -0.000001 0.000000 0.009316 -0.033629 -0.339470
    22 3.859861 -0.137948 1.332466 0.537935 -0.132420 -0.946691
    23 1.719428 0.000001 0.000000 0.023476 -0.208311 -0.755744
    24 1.099667 0.000000 0.000000 0.026046 -0.124621 -0.538681
    25 0.806048 -0.348922 1.321258 -1.269164 -0.727275 -0.266407
    26 1.789783 0.000001 0.000001 -0.001067 -0.012843 -0.131867
    27 1.207000 0.000000 0.000001 -0.000100 -0.003215 -0.064874
    28 2.033354 1.000771 -1.937610 -3.613828 1.086900 1.018929
    29 6.028142 0.000004 0.000000 0.889644 0.189996 -1.101361
    30 11.692552 0.000000 0.000002 0.000000 0.000000 -1.546268
    31 11.481699 0.000000 0.000004 -0.890179 -0.053997 0.026791
    32 3.883657 -0.050329 -0.431043 0.047704 -0.153454 -0.767482
    33 1.719576 0.000003 0.000000 -0.053884 0.078890 -1.553283
    34 1.209180 -0.000001 0.000000 -0.013612 0.036967 -0.732282
    35 3.859830 -0.148938 -1.331282 -0.332627 0.218364 0.154975
    36 1.719426 0.000000 0.000000 -0.042634 0.220745 -0.851607
    37 1.099666 0.000000 0.000000 0.008154 0.000000 0.000000
    38 0.806017 -0.359836 -1.318334 0.415058 0.423434 -0.720789
    39 1.789784 0.000000 -0.000001 0.015106 0.038911 0.767156
    40 1.206998 0.000000 0.000000 0.004785 0.022541 0.418309
    41 -0.044717 2.313936 4.661499 -0.637114 -0.229683 -0.040029
    42 2.676088 -1.712442 0.000000 1.570797 0.000000 1.570797
    43 2.676088 -1.712443 0.000000 -1.570796 0.000000 -1.570796
  time 8
    0 1.646139 5.643967 33.719113 1.535047 -0.221887 -0.624880
    1 3.890452 -0.000004 -0.000003 -2.092776 -0.464182 -1.364124
    2 17.848175 0.000000 0.000000 0.000000 0.000000 0.435660
    3 16.525249 0.000000 0.000000 -0.107703 0.088248 -0.825739
    4 6.879453 0.000000 0.000000 -0.007479 -0.003059 -0.584373
    5 -3.890452 0.000004 0.000007 -1.473416 -0.268335 -2.026920
    6 17.848171 0.000000 0.000000 0.000000 0.000000 1.113502
    7 16.525257 0.000000 0.000000 0.332668 0.229293 -1.544753
    8 6.879454 0.000000 0.000000 -0.080423 -0.002999 -0.669680
    9 0.375016 3.302158 -3.005339 1.530259 -0.010183 1.262193
    10 4.018331 0.000000 0.000000 -0.133361 0.160522 0.041616
    11 3.518561 0.000000 0.000000 -0.112693 0.090855 0.027395
    12 8.942642 0.000000 0.000000 -0.070736 -0.054446 0.098995
    13 3.307271 0.000000 0.000000 2.919687 -0.210510 0.929490
    14 3.593710 -0.000003 0.000000 0.665185 -0.493891 1.169982
    15 2.033346 1.000767 1.937660 0.098966 -1.033844 4.453800
    16 6.028142 0.000002 0.000000 -1.118753 0.008899 -0.991768
    17 11.692556 0.000000 -0.000001 0.000000 0.000000 -1.792345
    18 11.481671 0.000000 -0.000029 1.000780 0.189068 -0.054144
    19 3.883691 -0.046771 0.431443 0.096615 -0.011011 -0.677044
    20 1.719575 0.000000 0.000000 0.055915 -0.087978 -1.150781
    21 1.209183 -0.000001 0.000000 0.009316 -0.033629 -0.339470
    22 3.859861 -0.137948 1.332466 0.537935 -0.132420 -0.946691
    23 1.719428 0.000001 0.000000 0.023476 -0.208311 -0.755744
    24 1.099667 0.000000 0.000000 0.026046 -0.124621 -0.538681
    25 0.806048 -0.348922 1.321258 -1.269164 -0.727275 -0.266407
    26 1.789783 0.000001 0.000001 -0.001067 -0.012843 -0.131867
    27 1.207000 0.000000 0.000001 -0.000100 -0.003215 -0.064874
    28 2.033354 1.000771 -1.937610 -3.612667 1.087159 1.019920
    29 6.028142 0.000004 0.000000 0.897403 0.157309 -1.073652
    30 11.692552 0.000000 0.000002 0.000000 0.000000 -1.594506
    31 11.481699 0.000000 0.000004 -0.906180 -0.034999 0.013041
    32 3.883657 -0.050329 -0.431043 0.047704 -0.153454 -0.767482
    33 1.719576 0.000003 0.000000 -0.053884 0.078890 -1.553283
    34 1.209180 -0.000001 0.000000 -0.013612 0.036967 -0.732282
    35 3.859830 -0.148938 -1.331282 -0.332627 0.218364 0.154975
    36 1.719426 0.000000 0.000000 -0.042634 0.220745 -0.851607
    37 1.099666 0.000000 0.000000 0.008154 0.000000 0.000000
    38 0.806017 -0.359836 -1.318334 0.415058 0.423434 -0.720789
    39 1.789784 0.000000 -0.000001 0.015106 0.038911 0.767156
    40 1.206998 0.000000 0.000000 0.004785 0.022541 0.418309
    41 -0.044717 2.313936 4.661499 -0.660904 -0.229683 -0.040029
    42 2.676088 -1.712442 0.000000 1.570797 0.000000 1.570797
    43 2.676088 -1.712443 0.000000 -1.570796 0.000000 -1.570796
  time 9
    0 1.716454 5.288539 33.668330 1.534984 -0.201225 -0.621623
    1 3.890452 -0.000004 -0.000003 -2.096133 -0.487451 -1.339858
    2 17.848175 0.000000 0.000000 0.000000 0.000000 0.478174
    3 16.525249 0.000000 0.000000 -0.105429 0.076168 -0.839385
    4 6.879453 0.000000 0.000000 -0.007455 -0.003059 -0.584373
    5 -3.890452 0.000004 0.000007 -1.470349 -0.253436 -2.014458
    6 17.848171 0.000000 0.000000 0.000000 0.000000 1.096294
    7 16.525257 0.000000 0.000000 0.329300 0.215144 -1.550949
    8 6.879454 0.000000 0.000000 -0.080507 -0.002999 -0.661483
    9 0.351578 3.309970 -3.001433 1.530259 -0.024040 1.269851
    10 4.018331 0.000000 0.000000 -0.131950 0.152312 0.050957
    11 3.518561 0.000000 0.000000 -0.111339 0.090496 0.043551
    12 8.942642 0.000000 0.000000 -0.067370 -0.050455 0.101340
    13 3.307271 0.000000 0.000000 2.940880 -0.193563 0.892312
    14 3.593710 -0.000003 0.000000 0.670459 -0.476143 1.153961
    15 2.033346 1.000767 1.937660 0.097052 -1.047026 4.454853
    16 6.028142 0.000002 0.000000 -1.140155 0.015667 -1.000122
    17 11.692556 0.000000 -0.000001 0.000000 0.000000 -1.835632
    18 11.481671 0.000000 -0.000029 1.032501 0.187698 -0.047978
    19 3.883691 -0.046771 0.431443 0.096615 -0.011011 -0.677044
    20 1.719575 0.000000 0.000000 0.055915 -0.087978 -1.150781
    21 1.209183 -0.000001 0.000000 0.009316 -0.033629 -0.339470
    22 3.859861 -0.137948 1.332466 0.537935 -0.132420 -0.946691
    23 1.719428 0.000001 0.000000 0.023476 -0.208311 -0.755744
    24 1.099667 0.000000 0.000000 0.026046 -0.124621 -0.538681
    25 0.806048 -0.348922 1.321258 -1.269164 -0.727275 -0.266407
    26 1.789783 0.000001 0.000001 -0.001067 -0.012843 -0.131867
    27 1.207000 0.000000 0.000001 -0.000100 -0.003215 -0.064874
    28 2.033354 1.000771 -1.937610 -3.618026 1.085961 1.015146
    29 6.028142 0.000004 0.000000 0.912346 0.159962 -1.060936
    30 11.692552 0.000000 0.000002 0.000000 0.000000 -1.646505
    31 11.481699 0.000000 0.000004 -0.915185 -0.003106 0.020971
    32 3.883657 -0.050329 -0.431043 0.047704 -0.153454 -0.767482
    33 1.719576 0.000003 0.000000 -0.053884 0.078890 -1.553283
    34 1.209180 -0.000001 0.000000 -0.013612 0.036967 -0.732282
    35 3.859830 -0.148938 -1.331282 -0.332627 0.218364 0.154975
    36 1.719426 0.000000 0.000000 -0.042634 0.220745 -0.851607
    37 1.099666 0.000000 0.000000 0.008154 0.000000 0.000000
    38 0.806017 -0.359836 -1.318334 0.415058 0.423434 -0.720789
    39 1.789784 0.000000 -0.000001 0.015106 0.038911 0.767156
    40 1.206998 0.000000 0.000000 0.004785 0.022541 0.418309
    41 -0.044717 2.313936 4.661499 -0.654990 -0.229683 -0.040029
    42 2.676088 -1.712442 0.000000 1.570797 0.000000 1.570797
    43 2.676088 -1.712443 0.000000 -1.570796 0.000000 -1.570796
  time 10
    0 1.798487 4.933110 33.609735 1.535111 -0.178133 -0.617791
    1 3.890452 -0.000004 -0.000003 -2.099313 -0.510768 -1.314093
    2 17.848175 0.000000 0.000000 0.000000 0.000000 0.516286
    3 16.525249 0.000000 0.000000 -0.103296 0.062826 -0.848951
    4 6.879453 0.000000 0.000000 -0.007443 -0.003047 -0.584373
    5 -3.890452 0.000004 0.000007 -1.466611 -0.238586 -1.999730
    6 17.848171 0.000000 0.000000 0.000000 0.000000 1.077980
    7 16.525257 0.000000 0.000000 0.327054 0.200481 -1.556558
    8 6.879454 0.000000 0.000000 -0.080590 -0.002987 -0.653110
    9 0.324234 3.313877 -2.997526 1.529692 -0.038181 1.279535
    10 4.018331 0.000000 0.000000 -0.130442 0.143863 0.061518
    11 3.518561 0.000000 0.000000 -0.109896 0.090112 0.060855
    12 8.942642 0.000000 0.000000 -0.063529 -0.045901 0.103922
    13 3.307271 0.000000 0.000000 2.962114 -0.175929 0.852622
    14 3.593710 -0.000003 0.000000 0.679842 -0.443718 1.121365
    15 2.033346 1.000767 1.937660 0.096382 -1.073706 4.454087
    16 6.028142 0.000002 0.000000 -1.186354 0.003835 -1.011912
    17 11.692556 0.000000 -0.000001 0.000000 0.000000 -1.870956
    18 11.481671 0.000000 -0.000029 1.026577 0.196292 -0.031536
    19 3.883691 -0.046771 0.431443 0.096615 -0.011011 -0.677044
    20 1.719575 0.000000 0.000000 0.055915 -0.087978 -1.150781
    21 1.209183 -0.000001 0.000000 0.009316 -0.033629 -0.339470
    22 3.859861 -0.137948 1.332466 0.537935 -0.132420 -0.946691
    23 1.719428 0.000001 0.000000 0.023476 -0.208311 -0.755744
    24 1.099667 0.000000 0.000000 0.026046 -0.124621 -0.538681
    25 0.806048 -0.348922 1.321258 -1.269164 -0.727275 -0.266407
    26 1.789783 0.000001 0.000001 -0.001067 -0.012843 -0.131867
    27 1.207000 0.000000 0.000001 -0.000100 -0.003215 -0.064874
    28 2.033354 1.000771 -1.937610 -3.625795 1.084181 1.008120
    29 6.028142 0.000004 0.000000 0.933036 0.179005 -1.056097
    30 11.692552 0.000000 0.000002 0.000000 0.000000 -1.694019
    31 11.481699 0.000000 0.000004 -0.921339 0.028373 0.034151
    32 3.883657 -0.050329 -0.431043 0.047704 -0.153454 -0.767482
    33 1.719576 0.000003 0.000000 -0.053884 0.078890 -1.553283
    34 1.209180 -0.000001 0.000000 -0.013612 0.036967 -0.732282
    35 3.859830 -0.148938 -1.331282 -0.332627 0.218364 0.154975
    36 1.719426 0.000000 0.000000 -0.042634 0.220745 -0.851607
    37 1.099666 0.000000 0.000000 0.008154 0.000000 0.000000
    38 0.806017 -0.359836 -1.318334 0.415058 0.423434 -0.720789
    39 1.789784 0.000000 -0.000001 0.015106 0.038911 0.767156
    40 1.206998 0.000000 0.000000 0.004785 0.022541 0.418309
    41 -0.044717 2.313936 4.661499 -0.633930 -0.229683 -0.040029
    42 2.676088 -1.712442 0.000000 1.570797 0.000000 1.570797
    43 2.676088 -1.712443 0.000000 -1.570796 0.000000 -1.570796
  time 11
    0 1.888334 4.589937 33.547233 1.535493 -0.153263 -0.613672
    1 3.890452 -0.000004 -0.000003 -2.102316 -0.533799 -1.287533
    2 17.848175 0.000000 0.000000 0.000000 0.000000 0.550146
    3 16.525249 0.000000 0.000000 -0.101413 0.048633 -0.854771
    4 6.879453 0.000000 0.000000 -0.007419 -0.003035 -0.584373
    5 -3.890452 0.000004 0.000007 -1.462394 -0.223785 -1.983303
    6 17.848171 0.000000 0.000000 0.000000 0.000000 1.058877
    7 16.525257 0.000000 0.000000 0.325932 0.185539 -1.561473
    8 6.879454 0.000000 0.000000 -0.080674 -0.002987 -0.644709
    9 0.292983 3.321690 -2.993620 1.528648 -0.052338 1.290860
    10 4.018331 0.000000 0.000000 -0.128903 0.135330 0.072723
    11 3.518561 0.000000 0.000000 -0.108381 0.089705 0.078764
    12 8.942642 0.000000 0.000000 -0.059352 -0.041059 0.106689
    13 3.307271 0.000000 0.000000 2.983001 -0.157965 0.811855
    14 3.593710 -0.000003 0.000000 0.692612 -0.409237 1.084332
    15 2.033346 1.000767 1.937660 0.095425 -1.103636 4.453608
    16 6.028142 0.000002 0.000000 -1.243962 -0.032390 -1.024351
    17 11.692556 0.000000 -0.000001 0.000000 0.000000 -1.887199
    18 11.481671 0.000000 -0.000029 0.980047 0.211861 -0.012841
    19 3.883691 -0.046771 0.431443 0.096615 -0.011011 -0.677044
    20 1.719575 0.000000 0.000000 0.055915 -0.087978 -1.150781
    21 1.209183 -0.000001 0.000000 0.009316 -0.033629 -0.339470
    22 3.859861 -0.137948 1.332466 0.537935 -0.132420 -0.946691
    23 1.719428 0.000001 0.000000 0.023476 -0.208311 -0.755744
    24 1.099667 0.000000 0.000000 0.026046 -0.124621 -0.538681
    25 0.806048 -0.348922 1.321258 -1.269164 -0.727275 -0.266407
    26 1.789783 0.000001 0.000001 -0.001067 -0.012843 -0.131867
    27 1.207000 0.000000 0.000001 -0.000100 -0.003215 -0.064874
    28 2.033354 1.000771 -1.937610 -3.634637 1.082141 1.000193
    29 6.028142 0.000004 0.000000 0.956887 0.211787 -1.057046
    30 11.692552 0.000000 0.000002 0.000000 0.000000 -1.737122
    31 11.481699 0.000000 0.000004 -0.925420 0.056508 0.058970
    32 3.883657 -0.050329 -0.431043 0.047704 -0.153454 -0.767482
    33 1.719576 0.000003 0.000000 -0.053884 0.078890 -1.553283
    34 1.209180 -0.000001 0.000000 -0.013612 0.036967 -0.732282
    35 3.859830 -0.148938 -1.331282 -0.332627 0.218364 0.154975
    36 1.719426 0.000000 0.000000 -0.042634 0.220745 -0.851607
    37 1.099666 0.000000 0.000000 0.008154 0.000000 0.000000
    38 0.806017 -0.359836 -1.318334 0.415058 0.423434 -0.720789
    39 1.789784 0.000000 -0.000001 0.015106 0.038911 0.767156
    40 1.206998 0.000000 0.000000 0.004785 0.022541 0.418309
    41 -0.044717 2.313936 4.661499 -0.606728 -0.229683 -0.040029
    42 2.676088 -1.712442 0.000000 1.570797 0.000000 1.570797
    43 2.676088 -1.712443 0.000000 -1.570796 0.000000 -1.570796
  time 12
    0 1.982087 4.259021 33.488637 1.536065 -0.127203 -0.609361
    1 3.890452 -0.000004 -0.000003 -2.105143 -0.556353 -1.260531
    2 17.848175 0.000000 0.000000 0.000000 0.000000 0.580058
    3 16.525249 0.000000 0.000000 -0.099813 0.033891 -0.857580
    4 6.879453 0.000000 0.000000 -0.007407 -0.003023 -0.584373
    5 -3.890452 0.000004 0.000007 -1.457889 -0.209131 -1.965460
    6 17.848171 0.000000 0.000000 0.000000 0.000000 1.039064
    7 16.525257 0.000000 0.000000 0.325745 0.170574 -1.565693
    8 6.879454 0.000000 0.000000 -0.080758 -0.002975 -0.636424
    9 0.257825 3.325596 -2.993620 1.527202 -0.066312 1.303420
    10 4.018331 0.000000 0.000000 -0.127347 0.126833 0.084190
    11 3.518561 0.000000 0.000000 -0.106848 0.089273 0.096999
    12 8.942642 0.000000 0.000000 -0.054982 -0.036026 0.109587
    13 3.307271 0.000000 0.000000 3.003233 -0.140000 0.770897
    14 3.593710 -0.000003 0.000000 0.708102 -0.373376 1.044033
    15 2.033346 1.000767 1.937660 0.093798 -1.134289 4.453800
    16 6.028142 0.000002 0.000000 -1.309301 -0.091695 -1.033448
    17 11.692556 0.000000 -0.000001 0.000000 0.000000 -1.885622
    18 11.481671 0.000000 -0.000029 0.899122 0.233242 0.007633
    19 3.883691 -0.046771 0.431443 0.096615 -0.011011 -0.677044
    20 1.719575 0.000000 0.000000 0.055915 -0.087978 -1.150781
    21 1.209183 -0.000001 0.000000 0.009316 -0.033629 -0.339470
    22 3.859861 -0.137948 1.332466 0.537935 -0.132420 -0.946691
    23 1.719428 0.000001 0.000000 0.023476 -0.208311 -0.755744
    24 1.099667 0.000000 0.000000 0.026046 -0.124621 -0.538681
    25 0.806048 -0.348922 1.321258 -1.269164 -0.727275 -0.266407
    26 1.789783 0.000001 0.000001 -0.001067 -0.012855 -0.131867
    27 1.207000 0.000000 0.000001 -0.000100 -0.003215 -0.064874
    28 2.033354 1.000771 -1.937610 -3.644014 1.079876 0.991816
    29 6.028142 0.000004 0.000000 0.983325 0.257311 -1.062265
    30 11.692552 0.000000 0.000002 0.000000 0.000000 -1.775235
    31 11.481699 0.000000 0.000004 -0.927364 0.080885 0.094060
    32 3.883657 -0.050329 -0.431043 0.047704 -0.153454 -0.767482
    33 1.719576 0.000003 0.000000 -0.053884 0.078890 -1.553283
    34 1.209180 -0.000001 0.000000 -0.013612 0.036967 -0.732282
    35 3.859830 -0.148938 -1.331282 -0.332627 0.218364 0.154975
    36 1.719426 0.000000 0.000000 -0.042634 0.220745 -0.851607
    37 1.099666 0.000000 0.000000 0.008154 0.000000 0.000000
    38 0.806017 -0.359836 -1.318334 0.415058 0.423434 -0.720789
    39 1.789784 0.000000 -0.000001 0.015106 0.038911 0.767156
    40 1.206998 0.000000 0.000000 0.004785 0.022541 0.418309
    41 -0.044717 2.313936 4.661499 -0.574159 -0.229683 -0.040029
    42 2.676088 -1.712442 0.000000 1.570797 0.000000 1.570797
    43 2.676088 -1.712443 0.000000 -1.570796 0.000000 -1.570796
  time 13
    0 2.079746 3.934233 33.426136 1.536701 -0.100490 -0.604859
    1 3.890452 -0.000004 -0.000003 -2.107793 -0.578096 -1.233442
    2 17.848175 0.000000 0.000000 0.000000 0.000000 0.606326
    3 16.525249 0.000000 0.000000 -0.098534 0.018956 -0.857848
    4 6.879453 0.000000 0.000000 -0.007395 -0.003011 -0.584373
    5 -3.890452 0.000004 0.000007 -1.453192 -0.194722 -1.946767
    6 17.848171 0.000000 0.000000 0.000000 0.000000 1.018698
    7 16.525257 0.000000 0.000000 0.326587 0.155818 -1.569165
    8 6.879454 0.000000 0.000000 -0.080842 -0.002975 -0.628344
    9 0.222668 3.333409 -2.989714 1.525462 -0.079884 1.316819
    10 4.018331 0.000000 0.000000 -0.125824 0.118492 0.095692
    11 3.518561 0.000000 0.000000 -0.105280 0.088842 0.115359
    12 8.942642 0.000000 0.000000 -0.050453 -0.030896 0.112564
    13 3.307271 0.000000 0.000000 3.022627 -0.122336 0.730249
    14 3.593710 -0.000003 0.000000 0.725535 -0.336670 1.001270
    15 2.033346 1.000767 1.937660 0.091501 -1.165122 4.454661
    16 6.028142 0.000002 0.000000 -1.380202 -0.170037 -1.035583
    17 11.692556 0.000000 -0.000001 0.000000 0.000000 -1.867171
    18 11.481671 0.000000 -0.000029 0.790871 0.258941 0.027869
    19 3.883691 -0.046771 0.431443 0.096615 -0.011011 -0.677044
    20 1.719575 0.000000 0.000000 0.055915 -0.087978 -1.150781
    21 1.209183 -0.000001 0.000000 0.009316 -0.033629 -0.339470
    22 3.859861 -0.137948 1.332466 0.537935 -0.132420 -0.946691
    23 1.719428 0.000001 0.000000 0.023476 -0.208311 -0.755744
    24 1.099667 0.000000 0.000000 0.026046 -0.124621 -0.538681
    25 0.806048 -0.348922 1.321258 -1.269164 -0.727275 -0.266407
    26 1.789783 0.000001 0.000001 -0.001067 -0.012843 -0.131867
    27 1.207000 0.000000 0.000001 -0.000100 -0.003215 -0.064874
    28 2.033354 1.000771 -1.937610 -3.653570 1.077545 0.983169
    29 6.028142 0.000004 0.000000 1.011391 0.314630 -1.070236
    30 11.692552 0.000000 0.000002 0.000000 0.000000 -1.807418
    31 11.481699 0.000000 0.000004 -0.927104 0.101469 0.137365
    32 3.883657 -0.050329 -0.431043 0.047704 -0.153454 -0.767482
    33 1.719576 0.000003 0.000000 -0.053884 0.078890 -1.553283
    34 1.209180 -0.000001 0.000000 -0.013612 0.036967 -0.732282
    35 3.859830 -0.148938 -1.331282 -0.332627 0.218364 0.154975
    36 1.719426 0.000000 0.000000 -0.042634 0.220745 -0.851607
    37 1.099666 0.000000 0.000000 0.008154 0.000000 0.000000
    38 0.806017 -0.359836 -1.318334 0.415058 0.423434 -0.720789
    39 1.789784 0.000000 -0.000001 0.015106 0.038911 0.767156
    40 1.206998 0.000000 0.000000 0.004785 0.022541 0.418309
    41 -0.044717 2.313936 4.661499 -0.537314 -0.229683 -0.040029
    42 2.676088 -1.712442 0.000000 1.570797 0.000000 1.570797
    43 2.676088 -1.712443 0.000000 -1.570796 0.000000 -1.570796
  time 14
    0 2.177405 3.633957 33.363634 1.537401 -0.073647 -0.600260
    1 3.890452 -0.000004 -0.000003 -2.110355 -0.598790 -1.206705
    2 17.848175 0.000000 0.000000 0.000000 0.000000 0.629329
    3 16.525249 0.000000 0.000000 -0.097610 0.004159 -0.856176
    4 6.879453 0.000000 0.000000 -0.007371 -0.002999 -0.584373
    5 -3.890452 0.000004 0.000007 -1.448496 -0.180656 -1.927507
    6 17.848171 0.000000 0.000000 0.000000 0.000000 0.998253
    7 16.525257 0.000000 0.000000 0.328084 0.141528 -1.571942
    8 6.879454 0.000000 0.000000 -0.080926 -0.002963 -0.620586
    9 0.187511 3.337315 -2.985807 1.523540 -0.092920 1.330637
    10 4.018331 0.000000 0.000000 -0.124332 0.110378 0.107072
    11 3.518561 0.000000 0.000000 -0.103694 0.088398 0.133749
    12 8.942642 0.000000 0.000000 -0.045836 -0.025731 0.115607
    13 3.307271 0.000000 0.000000 3.041000 -0.105150 0.690440
    14 3.593710 -0.000003 0.000000 0.744467 -0.299512 0.956596
    15 2.033346 1.000767 1.937660 0.088725 -1.195820 4.456193
    16 6.028142 0.000002 0.000000 -1.455441 -0.262402 -1.027414
    17 11.692556 0.000000 -0.000001 0.000000 0.000000 -1.832636
    18 11.481671 0.000000 -0.000029 0.662651 0.287379 0.045102
    19 3.883691 -0.046771 0.431443 0.096615 -0.011011 -0.677044
    20 1.719575 0.000000 0.000000 0.055915 -0.087978 -1.150781
    21 1.209183 -0.000001 0.000000 0.009316 -0.033629 -0.339470
    22 3.859861 -0.137948 1.332466 0.537935 -0.132420 -0.946691
    23 1.719428 0.000001 0.000000 0.023476 -0.208311 -0.755744
    24 1.099667 0.000000 0.000000 0.026046 -0.124621 -0.538681
    25 0.806048 -0.348922 1.321258 -1.269164 -0.727275 -0.266407
    26 1.789783 0.000001 0.000001 -0.001067 -0.012843 -0.131867
    27 1.207000 0.000000 0.000001 -0.000100 -0.003215 -0.064874
    28 2.033354 1.000771 -1.937610 -3.663215 1.075117 0.974611
    29 6.028142 0.000004 0.000000 1.040320 0.382561 -1.079630
    30 11.692552 0.000000 0.000002 0.000000 0.000000 -1.832874
    31 11.481699 0.000000 0.000004 -0.924578 0.118329 0.186718
    32 3.883657 -0.050329 -0.431043 0.047704 -0.153454 -0.767482
    33 1.719576 0.000003 0.000000 -0.053884 0.078890 -1.553283
    34 1.209180 -0.000001 0.000000 -0.013612 0.036967 -0.732282
    35 3.859830 -0.148938 -1.331282 -0.332627 0.218364 0.154975
    36 1.719426 0.000000 0.000000 -0.042634 0.220745 -0.851607
    37 1.099666 0.000000 0.000000 0.008154 0.000000 0.000000
    38 0.806017 -0.359836 -1.318334 0.415058 0.423434 -0.720789
    39 1.789784 0.000000 -0.000001 0.015106 0.038911 0.767156
    40 1.206998 0.000000 0.000000 0.004785 0.022541 0.418309
    41 -0.044717 2.313936 4.661499 -0.497148 -0.229683 -0.040029
    42 2.676088 -1.712442 0.000000 1.570797 0.000000 1.570797
    43 2.676088 -1.712443 0.000000 -1.570796 0.000000 -1.570796
  time 15
    0 2.271158 3.345937 33.305038 1.538037 -0.047212 -0.595853
    1 3.890452 -0.000004 -0.000003 -2.112652 -0.618197 -1.180763
    2 17.848175 0.000000 0.000000 0.000000 0.000000 0.649372
    3 16.525249 0.000000 0.000000 -0.096970 -0.010172 -0.853165
    4 6.879453 0.000000 0.000000 -0.007359 -0.002987 -0.584373
    5 -3.890452 0.000004 0.000007 -1.443895 -0.167032 -1.908153
    6 17.848171 0.000000 0.000000 0.000000 0.000000 0.977887
    7 16.525257 0.000000 0.000000 0.330329 0.127915 -1.573972
    8 6.879454 0.000000 0.000000 -0.081010 -0.002963 -0.613297
    9 0.152353 3.341221 -2.985807 1.521544 -0.105287 1.344419
    10 4.018331 0.000000 0.000000 -0.122873 0.102588 0.118155
    11 3.518561 0.000000 0.000000 -0.102108 0.087955 0.152016
    12 8.942642 0.000000 0.000000 -0.041166 -0.020554 0.118677
    13 3.307271 0.000000 0.000000 3.058249 -0.088713 0.651754
    14 3.593710 -0.000003 0.000000 0.764288 -0.262158 0.910444
    15 2.033346 1.000767 1.937660 0.085375 -1.226247 4.458396
    16 6.028142 0.000002 0.000000 -1.534922 -0.363239 -1.006621
    17 11.692556 0.000000 -0.000001 0.000000 0.000000 -1.782962
    18 11.481671 0.000000 -0.000029 0.521055 0.317064 0.056920
    19 3.883691 -0.046771 0.431443 0.096615 -0.011011 -0.677044
    20 1.719575 0.000000 0.000000 0.055915 -0.087978 -1.150781
    21 1.209183 -0.000001 0.000000 0.009316 -0.033629 -0.339470
    22 3.859861 -0.137948 1.332466 0.537935 -0.132420 -0.946691
    23 1.719428 0.000001 0.000000 0.023476 -0.208311 -0.755744
    24 1.099667 0.000000 0.000000 0.026046 -0.124621 -0.538681
    25 0.806048 -0.348922 1.321258 -1.269164 -0.727275 -0.266407
    26 1.789783 0.000001 0.000001 -0.001067 -0.012843 -0.131867
    27 1.207000 0.000000 0.000001 -0.000100 -0.003215 -0.064874
    28 2.033354 1.000771 -1.937610 -3.672592 1.072722 0.966234
    29 6.028142 0.000004 0.000000 1.069344 0.459398 -1.088740
    30 11.692552 0.000000 0.000002 0.000000 0.000000 -1.850882
    31 11.481699 0.000000 0.000004 -0.920173 0.131879 0.239723
    32 3.883657 -0.050329 -0.431043 0.047704 -0.153454 -0.767482
    33 1.719576 0.000003 0.000000 -0.053884 0.078890 -1.553283
    34 1.209180 -0.000001 0.000000 -0.013612 0.036967 -0.732282
    35 3.859830 -0.148938 -1.331282 -0.332627 0.218364 0.154975
    36 1.719426 0.000000 0.000000 -0.042634 0.220745 -0.851607
    37 1.099666 0.000000 0.000000 0.008154 0.000000 0.000000
    38 0.806017 -0.359836 -1.318334 0.415058 0.423434 -0.720789
    39 1.789784 0.000000 -0.000001 0.015106 0.038911 0.767156
    40 1.206998 0.000000 0.000000 0.004785 0.022541 0.418309
    41 -0.044717 2.313936 4.661499 -0.454845 -0.229683 -0.040029
    42 2.676088 -1.712442 0.000000 1.570797 0.000000 1.570797
    43 2.676088 -1.712443 0.000000 -1.570796 0.000000 -1.570796
  time 16
    0 2.364911 3.088558 33.250349 1.538609 -0.021706 -0.591638
    1 3.890452 -0.000004 -0.000003 -2.114772 -0.635983 -1.155880
    2 17.848175 0.000000 0.000000 0.000000 0.000000 0.666681
    3 16.525249 0.000000 0.000000 -0.096579 -0.023706 -0.849419
    4 6.879453 0.000000 0.000000 -0.007347 -0.002975 -0.584373
    5 -3.890452 0.000004 0.000007 -1.439582 -0.153995 -1.889082
    6 17.848171 0.000000 0.000000 0.000000 0.000000 0.958074
    7 16.525257 0.000000 0.000000 0.333042 0.115257 -1.575361
    8 6.879454 0.000000 0.000000 -0.081082 -0.002963 -0.606534
    9 0.117196 3.341221 -2.981901 1.519585 -0.116851 1.357746
    10 4.018331 0.000000 0.000000 -0.121494 0.095170 0.128838
    11 3.518561 0.000000 0.000000 -0.100540 0.087511 0.170065
    12 8.942642 0.000000 0.000000 -0.036496 -0.015424 0.121759
    13 3.307271 0.000000 0.000000 3.074271 -0.073234 0.614600
    14 3.593710 -0.000003 0.000000 0.784497 -0.224973 0.863244
    15 2.033346 1.000767 1.937660 0.081547 -1.256178 4.461173
    16 6.028142 0.000002 0.000000 -1.619401 -0.466949 -0.971067
    17 11.692556 0.000000 -0.000001 0.000000 0.000000 -1.720041
    18 11.481671 0.000000 -0.000029 0.372676 0.346624 0.061623
    19 3.883691 -0.046771 0.431443 0.096615 -0.011011 -0.677044
    20 1.719575 0.000000 0.000000 0.055915 -0.087978 -1.150781
    21 1.209183 -0.000001 0.000000 0.009316 -0.033629 -0.339470
    22 3.859861 -0.137948 1.332466 0.537935 -0.132420 -0.946691
    23 1.719428 0.000001 0.000000 0.023476 -0.208311 -0.755744
    24 1.099667 0.000000 0.000000 0.026046 -0.124621 -0.538681
    25 0.806048 -0.348922 1.321258 -1.269164 -0.727275 -0.266407
    26 1.789783 0.000001 0.000001 -0.001067 -0.012843 -0.131867
    27 1.207000 0.000000 0.000001 -0.000100 -0.003215 -0.064874
    28 2.033354 1.000771 -1.937610 -3.681612 1.070327 0.958218
    29 6.028142 0.000004 0.000000 1.097985 0.543056 -1.096142
    30 11.692552 0.000000 0.000002 0.000000 0.000000 -1.861152
    31 11.481699 0.000000 0.000004 -0.913954 0.142430 0.293982
    32 3.883657 -0.050329 -0.431043 0.047704 -0.153454 -0.767482
    33 1.719576 0.000003 0.000000 -0.053884 0.078890 -1.553283
    34 1.209180 -0.000001 0.000000 -0.013612 0.036967 -0.732282
    35 3.859830 -0.148938 -1.331282 -0.332627 0.218364 0.154975
    36 1.719426 0.000000 0.000000 -0.042634 0.220745 -0.851607
    37 1.099666 0.000000 0.000000 0.008154 0.000000 0.000000
    38 0.806017 -0.359836 -1.318334 0.415058 0.423434 -0.720789
    39 1.789784 0.000000 -0.000001 0.015106 0.038911 0.767156
    40 1.206998 0.000000 0.000000 0.004785 0.022541 0.418309
    41 -0.044717 2.313936 4.661499 -0.411632 -0.229683 -0.040029
    42 2.676088 -1.712442 0.000000 1.570797 0.000000 1.570797
    43 2.676088 -1.712443 0.000000 -1.570796 0.000000 -1.570796
  time 17
    0 2.446945 2.849563 33.199566 1.538928 0.002299 -0.587806
    1 3.890452 -0.000004 -0.000003 -2.116715 -0.651909 -1.132585
    2 17.848175 0.000000 0.000000 0.000000 0.000000 0.681637
    3 16.525249 0.000000 0.000000 -0.096437 -0.036087 -0.845339
    4 6.879453 0.000000 0.000000 -0.007335 -0.002963 -0.584373
    5 -3.890452 0.000004 0.000007 -1.435748 -0.141694 -1.870767
    6 17.848171 0.000000 0.000000 0.000000 0.000000 0.939208
    7 16.525257 0.000000 0.000000 0.335849 0.103765 -1.576109
    8 6.879454 0.000000 0.000000 -0.081154 -0.002951 -0.600445
    9 0.085945 3.345128 -2.981901 1.517791 -0.127495 1.370162
    10 4.018331 0.000000 0.000000 -0.120195 0.088231 0.138998
    11 3.518561 0.000000 0.000000 -0.098972 0.087068 0.187788
    12 8.942642 0.000000 0.000000 -0.031844 -0.010355 0.124816
    13 3.307271 0.000000 0.000000 3.088945 -0.058862 0.579264
    14 3.593710 -0.000003 0.000000 0.804429 -0.188153 0.815181
    15 2.033346 1.000767 1.937660 0.077336 -1.285476 4.464524
    16 6.028142 0.000002 0.000000 -1.710573 -0.568224 -0.919360
    17 11.692556 0.000000 -0.000001 0.000000 0.000000 -1.646476
    18 11.481671 0.000000 -0.000029 0.223246 0.375021 0.058698
    19 3.883691 -0.046771 0.431443 0.096615 -0.011011 -0.677044
    20 1.719575 0.000000 0.000000 0.055915 -0.087978 -1.150781
    21 1.209183 -0.000001 0.000000 0.009316 -0.033629 -0.339470
    22 3.859861 -0.137948 1.332466 0.537935 -0.132420 -0.946691
    23 1.719428 0.000001 0.000000 0.023476 -0.208311 -0.755744
    24 1.099667 0.000000 0.000000 0.026046 -0.124621 -0.538681
    25 0.806048 -0.348922 1.321258 -1.269164 -0.727275 -0.266407
    26 1.789783 0.000001 0.000001 -0.001067 -0.012843 -0.131867
    27 1.207000 0.000000 0.000001 -0.000100 -0.003215 -0.064874
    28 2.033354 1.000771 -1.937610 -3.690096 1.068029 0.950561
    29 6.028142 0.000004 0.000000 1.126242 0.630693 -1.100317
    30 11.692552 0.000000 0.000002 0.000000 0.000000 -1.864189
    31 11.481699 0.000000 0.000004 -0.906504 0.150360 0.347101
    32 3.883657 -0.050329 -0.431043 0.047704 -0.153454 -0.767482
    33 1.719576 0.000003 0.000000 -0.053884 0.078890 -1.553283
    34 1.209180 -0.000001 0.000000 -0.013612 0.036967 -0.732282
    35 3.859830 -0.148938 -1.331282 -0.332627 0.218364 0.154975
    36 1.719426 0.000000 0.000000 -0.042634 0.220745 -0.851607
    37 1.099666 0.000000 0.000000 0.008154 0.000000 0.000000
    38 0.806017 -0.359836 -1.318334 0.415058 0.423434 -0.720789
    39 1.789784 0.000000 -0.000001 0.015106 0.038911 0.767156
    40 1.206998 0.000000 0.000000 0.004785 0.022541 0.418309
    41 -0.044717 2.313936 4.661499 -0.368782 -0.229683 -0.040029
    42 2.676088 -1.712442 0.000000 1.570797 0.000000 1.570797
    43 2.676088 -1.712443 0.000000 -1.570796 0.000000 -1.570796
  time 18
    0 2.521166 2.647336 33.156596 1.538991 0.024250 -0.584453
    1 3.890452 -0.000004 -0.000003 -2.118305 -0.665546 -1.111319
    2 17.848175 0.000000 0.000000 0.000000 0.000000 0.694468
    3 16.525249 0.000000 0.000000 -0.096437 -0.046931 -0.841593
    4 6.879453 0.000000 0.000000 -0.007311 -0.002963 -0.584373
    5 -3.890452 0.000004 0.000007 -1.432394 -0.130373 -1.853585
    6 17.848171 0.000000 0.000000 0.000000 0.000000 0.921920
    7 16.525257 0.000000 0.000000 0.338749 0.093741 -1.576376
    8 6.879454 0.000000 0.000000 -0.081214 -0.002951 -0.595117
    9 0.054694 3.345128 -2.981901 1.516253 -0.137151 1.381224
    10 4.018331 0.000000 0.000000 -0.118976 0.081831 0.148496
    11 3.518561 0.000000 0.000000 -0.097457 0.086637 0.205061
    12 8.942642 0.000000 0.000000 -0.027279 -0.005393 0.127819
    13 3.307271 0.000000 0.000000 3.102106 -0.045868 0.546081
    14 3.593710 -0.000003 0.000000 0.823639 -0.152039 0.766749
    15 2.033346 1.000767 1.937660 0.072837 -1.313962 4.468259
    16 6.028142 0.000002 0.000000 -1.809855 -0.661903 -0.850574
    17 11.692556 0.000000 -0.000001 0.000000 0.000000 -1.565736
    18 11.481671 0.000000 -0.000029 0.078115 0.401342 0.048699
    19 3.883691 -0.046771 0.431443 0.096615 -0.011011 -0.677044
    20 1.719575 0.000000 0.000000 0.055915 -0.087978 -1.150781
    21 1.209183 -0.000001 0.000000 0.009316 -0.033629 -0.339470
    22 3.859861 -0.137948 1.332466 0.537935 -0.132420 -0.946691
    23 1.719428 0.000001 0.000000 0.023476 -0.208311 -0.755744
    24 1.099667 0.000000 0.000000 0.026046 -0.124621 -0.538681
    25 0.806048 -0.348922 1.321258 -1.269164 -0.727275 -0.266407
    26 1.789783 0.000001 0.000001 -0.001067 -0.012843 -0.131867
    27 1.207000 0.000000 0.000001 -0.000100 -0.003215 -0.064874
    28 2.033354 1.000771 -1.937610 -3.698044 1.065860 0.943535
    29 6.028142 0.000004 0.000000 1.154213 0.719089 -1.100033
    30 11.692552 0.000000 0.000002 0.000000 0.000000 -1.860790
    31 11.481699 0.000000 0.000004 -0.898147 0.156083 0.397082
    32 3.883657 -0.050329 -0.431043 0.047704 -0.153454 -0.767482
    33 1.719576 0.000003 0.000000 -0.053884 0.078890 -1.553283
    34 1.209180 -0.000001 0.000000 -0.013612 0.036967 -0.732282
    35 3.859830 -0.148938 -1.331282 -0.332627 0.218364 0.154975
    36 1.719426 0.000000 0.000000 -0.042634 0.220745 -0.851607
    37 1.099666 0.000000 0.000000 0.008154 0.000000 0.000000
    38 0.806017 -0.359836 -1.318334 0.415058 0.423434 -0.720789
    39 1.789784 0.000000 -0.000001 0.015106 0.038911 0.767156
    40 1.206998 0.000000 0.000000 0.004785 0.022541 0.418309
    41 -0.044717 2.313936 4.661499 -0.327525 -0.229683 -0.040029
    42 2.676088 -1.712442 0.000000 1.570797 0.000000 1.570797
    43 2.676088 -1.712443 0.000000 -1.570796 0.000000 -1.570796
  time 19
    0 2.583668 2.475750 33.117532 1.538609 0.043477 -0.581675
    1 3.890452 -0.000004 -0.000003 -2.119542 -0.676703 -1.092701
    2 17.848175 0.000000 0.000000 0.000000 0.000000 0.705248
    3 16.525249 0.000000 0.000000 -0.096544 -0.055991 -0.838449
    4 6.879453 0.000000 0.000000 -0.007311 -0.002951 -0.584373
    5 -3.890452 0.000004 0.000007 -1.429806 -0.120179 -1.838290
    6 17.848171 0.000000 0.000000 0.000000 0.000000 0.906685
    7 16.525257 0.000000 0.000000 0.341275 0.085373 -1.576216
    8 6.879454 0.000000 0.000000 -0.081262 -0.002951 -0.590696
    9 0.031256 3.345128 -2.981901 1.515136 -0.145685 1.390452
    10 4.018331 0.000000 0.000000 -0.117870 0.076054 0.157174
    11 3.518561 0.000000 0.000000 -0.095996 0.086217 0.221729
    12 8.942642 0.000000 0.000000 -0.022856 -0.000599 0.130744
    13 3.307271 0.000000 0.000000 3.113571 -0.034431 0.515434
    14 3.593710 -0.000003 0.000000 0.841572 -0.116881 0.718255
    15 2.033346 1.000767 1.937660 0.068243 -1.341455 4.472280
    16 6.028142 0.000002 0.000000 -1.917433 -0.743459 -0.765634
    17 11.692556 0.000000 -0.000001 0.000000 0.000000 -1.482315
    18 11.481671 0.000000 -0.000029 -0.058035 0.425007 0.033126
    19 3.883691 -0.046771 0.431443 0.096615 -0.011011 -0.677044
    20 1.719575 0.000000 0.000000 0.055915 -0.087978 -1.150781
    21 1.209183 -0.000001 0.000000 0.009316 -0.033629 -0.339470
    22 3.859861 -0.137948 1.332466 0.537935 -0.132420 -0.946691
    23 1.719428 0.000001 0.000000 0.023476 -0.208311 -0.755744
    24 1.099667 0.000000 0.000000 0.026046 -0.124621 -0.538681
    25 0.806048 -0.348922 1.321258 -1.269164 -0.727275 -0.266407
    26 1.789783 0.000001 0.000001 -0.001067 -0.012843 -0.131867
    27 1.207000 0.000000 0.000001 -0.000100 -0.003215 -0.064874
    28 2.033354 1.000771 -1.937610 -3.705189 1.063821 0.937140
    29 6.028142 0.000004 0.000000 1.182470 0.804737 -1.094339
    30 11.692552 0.000000 0.000002 0.000000 0.000000 -1.852546
    31 11.481699 0.000000 0.000004 -0.889467 0.160014 0.442498
    32 3.883657 -0.050329 -0.431043 0.047704 -0.153454 -0.767482
    33 1.719576 0.000003 0.000000 -0.053884 0.078890 -1.553283
    34 1.209180 -0.000001 0.000000 -0.013612 0.036967 -0.732282
    35 3.859830 -0.148938 -1.331282 -0.332627 0.218364 0.154975
    36 1.719426 0.000000 0.000000 -0.042634 0.220745 -0.851607
    37 1.099666 0.000000 0.000000 0.008154 0.000000 0.000000
    38 0.806017 -0.359836 -1.318334 0.415058 0.423434 -0.720789
    39 1.789784 0.000000 -0.000001 0.015106 0.038911 0.767156
    40 1.206998 0.000000 0.000000 0.004785 0.022541 0.418309
    41 -0.044717 2.313936 4.661499 -0.289224 -0.229683 -0.040029
    42 2.676088 -1.712442 0.000000 1.570797 0.000000 1.570797
    43 2.676088 -1.712443 0.000000 -1.570796 0.000000 -1.570796
  time 20
    0 2.630544 2.340932 33.090188 1.537719 0.059215 -0.579664
    1 3.890452 -0.000004 -0.000003 -2.120425 -0.684905 -1.077435
    2 17.848175 0.000000 0.000000 0.000000 0.000000 0.713903
    3 16.525249 0.000000 0.000000 -0.096686 -0.062909 -0.836308
    4 6.879453 0.000000 0.000000 -0.007299 -0.002951 -0.584373
    5 -3.890452 0.000004 0.000007 -1.427985 -0.111602 -1.825451
    6 17.848171 0.000000 0.000000 0.000000 0.000000 0.894371
    7 16.525257 0.000000 0.000000 0.343334 0.079009 -1.575735
    8 6.879454 0.000000 0.000000 -0.081310 -0.002951 -0.587301
    9 0.015630 3.345128 -2.981901 1.514495 -0.152998 1.397427
    10 4.018331 0.000000 0.000000 -0.116907 0.071021 0.164895
    11 3.518561 0.000000 0.000000 -0.094606 0.085822 0.237543
    12 8.942642 0.000000 0.000000 -0.018609 0.003967 0.133537
    13 3.307271 0.000000 0.000000 3.123034 -0.024790 0.487634
    14 3.593710 -0.000003 0.000000 0.857451 -0.083133 0.670192
    15 2.033346 1.000767 1.937660 0.063745 -1.367548 4.476206
    16 6.028142 0.000002 0.000000 -2.031045 -0.808899 -0.668256
    17 11.692556 0.000000 -0.000001 0.000000 0.000000 -1.401732
    18 11.481671 0.000000 -0.000029 -0.180427 0.445599 0.014392
    19 3.883691 -0.046771 0.431443 0.096615 -0.011011 -0.677044
    20 1.719575 0.000000 0.000000 0.055915 -0.087978 -1.150781
    21 1.209183 -0.000001 0.000000 0.009316 -0.033629 -0.339470
    22 3.859861 -0.137948 1.332466 0.537935 -0.132420 -0.946691
    23 1.719428 0.000001 0.000000 0.023476 -0.208311 -0.755744
    24 1.099667 0.000000 0.000000 0.026046 -0.124621 -0.538681
    25 0.806048 -0.348922 1.321258 -1.269164 -0.727275 -0.266407
    26 1.789783 0.000001 0.000001 -0.001067 -0.012843 -0.131867
    27 1.207000 0.000000 0.000001 -0.000100 -0.003215 -0.064874
    28 2.033354 1.000771 -1.937610 -3.711440 1.062040 0.931555
    29 6.028142 0.000004 0.000000 1.211590 0.884037 -1.082382
    30 11.692552 0.000000 0.000002 0.000000 0.000000 -1.841698
    31 11.481699 0.000000 0.000004 -0.880980 0.162531 0.482380
    32 3.883657 -0.050329 -0.431043 0.047704 -0.153454 -0.767482
    33 1.719576 0.000003 0.000000 -0.053884 0.078890 -1.553283
    34 1.209180 -0.000001 0.000000 -0.013612 0.036967 -0.732282
    35 3.859830 -0.148938 -1.331282 -0.332627 0.218364 0.154975
    36 1.719426 0.000000 0.000000 -0.042634 0.220745 -0.851607
    37 1.099666 0.000000 0.000000 0.008154 0.000000 0.000000
    38 0.806017 -0.359836 -1.318334 0.415058 0.423434 -0.720789
    39 1.789784 0.000000 -0.000001 0.015106 0.038911 0.767156
    40 1.206998 0.000000 0.000000 0.004785 0.022541 0.418309
    41 -0.044717 2.313936 4.661499 -0.255200 -0.229683 -0.040029
    42 2.676088 -1.712442 0.000000 1.570797 0.000000 1.570797
    43 2.676088 -1.712443 0.000000 -1.570796 0.000000 -1.570796
  time 21
    0 2.661795 2.255139 33.070656 1.536574 0.070386 -0.578418
    1 3.890452 -0.000004 -0.000003 -2.120690 -0.689912 -1.066582
    2 17.848175 0.000000 0.000000 0.000000 0.000000 0.720128
    3 16.525249 0.000000 0.000000 -0.096792 -0.067301 -0.835305
    4 6.879453 0.000000 0.000000 -0.007299 -0.002951 -0.584373
    5 -3.890452 0.000004 0.000007 -1.426931 -0.105231 -1.816010
    6 17.848171 0.000000 0.000000 0.000000 0.000000 0.885767
    7 16.525257 0.000000 0.000000 0.344644 0.074906 -1.575094
    8 6.879454 0.000000 0.000000 -0.081333 -0.002951 -0.585134
    9 0.003911 3.345128 -2.981901 1.514477 -0.158956 1.401669
    10 4.018331 0.000000 0.000000 -0.116074 0.066826 0.171447
    11 3.518561 0.000000 0.000000 -0.093323 0.085450 0.252209
    12 8.942642 0.000000 0.000000 -0.014679 0.008221 0.136119
    13 3.307271 0.000000 0.000000 3.129941 -0.017276 0.462992
    14 3.593710 -0.000003 0.000000 0.870720 -0.051272 0.623424
    15 2.033346 1.000767 1.937660 0.059916 -1.391836 4.479749
    16 6.028142 0.000002 0.000000 -2.143808 -0.855592 -0.567257
    17 11.692556 0.000000 -0.000001 0.000000 0.000000 -1.330454
    18 11.481671 0.000000 -0.000029 -0.284283 0.462995 -0.004304
    19 3.883691 -0.046771 0.431443 0.096615 -0.011011 -0.677044
    20 1.719575 0.000000 0.000000 0.055915 -0.087978 -1.150781
    21 1.209183 -0.000001 0.000000 0.009316 -0.033629 -0.339470
    22 3.859861 -0.137948 1.332466 0.537935 -0.132420 -0.946691
    23 1.719428 0.000001 0.000000 0.023476 -0.208311 -0.755744
    24 1.099667 0.000000 0.000000 0.026046 -0.124621 -0.538681
    25 0.806048 -0.348922 1.321258 -1.269164 -0.727275 -0.266407
    26 1.789783 0.000001 0.000001 -0.001067 -0.012843 -0.131867
    27 1.207000 0.000000 0.000001 -0.000100 -0.003215 -0.064874
    28 2.033354 1.000771 -1.937610 -3.716709 1.060519 0.926871
    29 6.028142 0.000004 0.000000 1.241668 0.953341 -1.064068
    30 11.692552 0.000000 0.000002 0.000000 0.000000 -1.830633
    31 11.481699 0.000000 0.000004 -0.872948 0.164117 0.516271
    32 3.883657 -0.050329 -0.431043 0.047704 -0.153454 -0.767482
    33 1.719576 0.000003 0.000000 -0.053884 0.078890 -1.553283
    34 1.209180 -0.000001 0.000000 -0.013612 0.036967 -0.732282
    35 3.859830 -0.148938 -1.331282 -0.332627 0.218364 0.154975
    36 1.719426 0.000000 0.000000 -0.042634 0.220745 -0.851607
    37 1.099666 0.000000 0.000000 0.008154 0.000000 0.000000
    38 0.806017 -0.359836 -1.318334 0.415058 0.423434 -0.720789
    39 1.789784 0.000000 -0.000001 0.015106 0.038911 0.767156
    40 1.206998 0.000000 0.000000 0.004785 0.022541 0.418309
    41 -0.044717 2.313936 4.661499 -0.226679 -0.229683 -0.040029
    42 2.676088 -1.712442 0.000000 1.570797 0.000000 1.570797
    43 2.676088 -1.712443 0.000000 -1.570796 0.000000 -1.570796
  time 22
    0 2.669608 2.224498 33.062843 1.535747 0.074968 -0.578035
    1 3.890452 -0.000004 -0.000003 -2.120690 -0.691485 -1.062082
    2 17.848175 0.000000 0.000000 0.000000 0.000000 0.722786
    3 16.525249 0.000000 0.000000 -0.096828 -0.068839 -0.835171
    4 6.879453 0.000000 0.000000 -0.007299 -0.002951 -0.584373
    5 -3.890452 0.000004 0.000007 -1.426739 -0.102437 -1.812044
    6 17.848171 0.000000 0.000000 0.000000 0.000000 0.882452
    7 16.525257 0.000000 0.000000 0.345111 0.073461 -1.574667
    8 6.879454 0.000000 0.000000 -0.081333 -0.002951 -0.584373
    9 0.000005 3.345128 -2.981901 1.515173 -0.163391 1.402748
    10 4.018331 0.000000 0.000000 -0.115432 0.063602 0.176588
    11 3.518561 0.000000 0.000000 -0.092200 0.085127 0.265183
    12 8.942642 0.000000 0.000000 -0.011173 0.012009 0.138411
    13 3.307271 0.000000 0.000000 3.133129 -0.012335 0.441317
    14 3.593710 -0.000003 0.000000 0.880602 -0.022228 0.579243
    15 2.033346 1.000767 1.937660 0.057237 -1.413505 4.482143
    16 6.028142 0.000002 0.000000 -2.244409 -0.883346 -0.476469
    17 11.692556 0.000000 -0.000001 0.000000 0.000000 -1.275497
    18 11.481671 0.000000 -0.000029 -0.364062 0.477442 -0.019046
    19 3.883691 -0.046771 0.431443 0.096615 -0.011011 -0.677044
    20 1.719575 0.000000 0.000000 0.055915 -0.087978 -1.150781
    21 1.209183 -0.000001 0.000000 0.009316 -0.033629 -0.339470
    22 3.859861 -0.137948 1.332466 0.537935 -0.132420 -0.946691
    23 1.719428 0.000001 0.000000 0.023476 -0.208311 -0.755744
    24 1.099667 0.000000 0.000000 0.026046 -0.124621 -0.538681
    25 0.806048 -0.348922 1.321258 -1.269164 -0.727275 -0.266407
    26 1.789783 0.000001 0.000001 -0.001067 -0.012843 -0.131867
    27 1.207000 0.000000 0.000001 -0.000100 -0.003215 -0.064874
    28 2.033354 1.000771 -1.937610 -3.720817 1.059321 0.923268
    29 6.028142 0.000004 0.000000 1.272033 1.009050 -1.039680
    30 11.692552 0.000000 0.000002 0.000000 0.000000 -1.821882
    31 11.481699 0.000000 0.000004 -0.865044 0.165530 0.543772
    32 3.883657 -0.050329 -0.431043 0.047704 -0.153454 -0.767482
    33 1.719576 0.000003 0.000000 -0.053884 0.078890 -1.553283
    34 1.209180 -0.000001 0.000000 -0.013612 0.036967 -0.732282
    35 3.859830 -0.148938 -1.331282 -0.332627 0.218364 0.154975
    36 1.719426 0.000000 0.000000 -0.042634 0.220745 -0.851607
    37 1.099666 0.000000 0.000000 0.008154 0.000000 0.000000
    38 0.806017 -0.359836 -1.318334 0.415058 0.423434 -0.720789
    39 1.789784 0.000000 -0.000001 0.015106 0.038911 0.767156
    40 1.206998 0.000000 0.000000 0.004785 0.022541 0.418309
    41 -0.044717 2.313936 4.661499 -0.204890 -0.229683 -0.040029
    42 2.676088 -1.712442 0.000000 1.570797 0.000000 1.570797
    43 2.676088 -1.712443 0.000000 -1.570796 0.000000 -1.570796
  time 23
    0 2.669608 2.224498 33.062843 1.535747 0.074968 -0.578035
    1 3.890452 -0.000004 -0.000003 -2.120690 -0.691485 -1.062082
    2 17.848175 0.000000 0.000000 0.000000 0.000000 0.722786
    3 16.525249 0.000000 0.000000 -0.096828 -0.068839 -0.835171
    4 6.879453 0.000000 0.000000 -0.007299 -0.002951 -0.584373
    5 -3.890452 0.000004 0.000007 -1.426739 -0.102437 -1.812044
    6 17.848171 0.000000 0.000000 0.000000 0.000000 0.882452
    7 16.525257 0.000000 0.000000 0.345111 0.073461 -1.574667
    8 6.879454 0.000000 0.000000 -0.081333 -0.002951 -0.584373
    9 0.000005 3.345128 -2.981901 1.515997 -0.166185 1.402233
    10 4.018331 0.000000 0.000000 -0.115015 0.061517 0.180021
    11 3.518561 0.000000 0.000000 -0.091327 0.084875 0.275426
    12 8.942642 0.000000 0.000000 -0.008423 0.015005 0.140202
    13 3.307271 0.000000 0.000000 3.133211 -0.009820 0.423972
    14 3.593710 -0.000003 0.000000 0.886321 0.002281 0.540670
    15 2.033346 1.000767 1.937660 0.056375 -1.430885 4.482718
    16 6.028142 0.000002 0.000000 -2.317951 -0.894398 -0.411767
    17 11.692556 0.000000 -0.000001 0.000000 0.000000 -1.243248
    18 11.481671 0.000000 -0.000029 -0.415178 0.488154 -0.026832
    19 3.883691 -0.046771 0.431443 0.096615 -0.011011 -0.677044
    20 1.719575 0.000000 0.000000 0.055915 -0.087978 -1.150781
    21 1.209183 -0.000001 0.000000 0.009316 -0.033629 -0.339470
    22 3.859861 -0.137948 1.332466 0.537935 -0.132420 -0.946691
    23 1.719428 0.000001 0.000000 0.023476 -0.208311 -0.755744
    24 1.099667 0.000000 0.000000 0.026046 -0.124621 -0.538681
    25 0.806048 -0.348922 1.321258 -1.269164 -0.727275 -0.266407
    26 1.789783 0.000001 0.000001 -0.001067 -0.012843 -0.131867
    27 1.207000 0.000000 0.000001 -0.000100 -0.003215 -0.064874
    28 2.033354 1.000771 -1.937610 -3.723496 1.058512 0.920926
    29 6.028142 0.000004 0.000000 1.298758 1.046853 -1.014154
    30 11.692552 0.000000 0.000002 0.000000 0.000000 -1.817398
    31 11.481699 0.000000 0.000004 -0.858307 0.166772 0.563912
    32 3.883657 -0.050329 -0.431043 0.047704 -0.153454 -0.767482
    33 1.719576 0.000003 0.000000 -0.053884 0.078890 -1.553283
    34 1.209180 -0.000001 0.000000 -0.013612 0.036967 -0.732282
    35 3.859830 -0.148938 -1.331282 -0.332627 0.218364 0.154975
    36 1.719426 0.000000 0.000000 -0.042634 0.220745 -0.851607
    37 1.099666 0.000000 0.000000 0.008154 0.000000 0.000000
    38 0.806017 -0.359836 -1.318334 0.415058 0.423434 -0.720789
    39 1.789784 0.000000 -0.000001 0.015106 0.038911 0.767156
    40 1.206998 0.000000 0.000000 0.004785 0.022541 0.418309
    41 -0.044717 2.313936 4.661499 -0.191017 -0.229683 -0.040029
    42 2.676088 -1.712442 0.000000 1.570797 0.000000 1.570797
    43 2.676088 -1.712443 0.000000 -1.570796 0.000000 -1.570796
  time 24
    0 2.669608 2.224498 33.062843 1.535747 0.074968 -0.578035
    1 3.890452 -0.000004 -0.000003 -2.120690 -0.691485 -1.062082
    2 17.848175 0.000000 0.000000 0.000000 0.000000 0.722786
    3 16.525249 0.000000 0.000000 -0.096828 -0.068839 -0.835171
    4 6.879453 0.000000 0.000000 -0.007299 -0.002951 -0.584373
    5 -3.890452 0.000004 0.000007 -1.426739 -0.102437 -1.812044
    6 17.848171 0.000000 0.000000 0.000000 0.000000 0.882452
    7 16.525257 0.000000 0.000000 0.345111 0.073461 -1.574667
    8 6.879454 0.000000 0.000000 -0.081333 -0.002951 -0.584373
    9 0.000005 3.345128 -2.981901 1.516308 -0.167173 1.402053
    10 4.018331 0.000000 0.000000 -0.114855 0.060774 0.181276
    11 3.518561 0.000000 0.000000 -0.090917 0.084767 0.280299
    12 8.942642 0.000000 0.000000 -0.007137 0.016443 0.141032
    13 3.307271 0.000000 0.000000 3.132945 -0.009042 0.416364
    14 3.593710 -0.000003 0.000000 0.887487 0.016873 0.517378
    15 2.033346 1.000767 1.937660 0.057045 -1.439417 4.482048
    16 6.028142 0.000002 0.000000 -2.347368 -0.894447 -0.386703
    17 11.692556 0.000000 -0.000001 0.000000 0.000000 -1.235048
    18 11.481671 0.000000 -0.000029 -0.434000 0.492264 -0.028295
    19 3.883691 -0.046771 0.431443 0.096615 -0.011011 -0.677044
    20 1.719575 0.000000 0.000000 0.055915 -0.087978 -1.150781
    21 1.209183 -0.000001 0.000000 0.009316 -0.033629 -0.339470
    22 3.859861 -0.137948 1.332466 0.537935 -0.132420 -0.946691
    23 1.719428 0.000001 0.000000 0.023476 -0.208311 -0.755744
    24 1.099667 0.000000 0.000000 0.026046 -0.124621 -0.538681
    25 0.806048 -0.348922 1.321258 -1.269164 -0.727275 -0.266407
    26 1.789783 0.000001 0.000001 -0.001067 -0.012843 -0.131867
    27 1.207000 0.000000 0.000001 -0.000100 -0.003215 -0.064874
    28 2.033354 1.000771 -1.937610 -3.724389 1.058253 0.920115
    29 6.028142 0.000004 0.000000 1.311306 1.061159 -1.001533
    30 11.692552 0.000000 0.000002 0.000000 0.000000 -1.816964
    31 11.481699 0.000000 0.000004 -0.855846 0.167185 0.572699
    32 3.883657 -0.050329 -0.431043 0.047704 -0.153454 -0.767482
    33 1.719576 0.000003 0.000000 -0.053884 0.078890 -1.553283
    34 1.209180 -0.000001 0.000000 -0.013612 0.036967 -0.732282
    35 3.859830 -0.148938 -1.331282 -0.332627 0.218364 0.154975
    36 1.719426 0.000000 0.000000 -0.042634 0.220745 -0.851607
    37 1.099666 0.000000 0.000000 0.008154 0.000000 0.000000
    38 0.806017 -0.359836 -1.318334 0.415058 0.423434 -0.720789
    39 1.789784 0.000000 -0.000001 0.015106 0.038911 0.767156
    40 1.206998 0.000000 0.000000 0.004785 0.022541 0.418309
    41 -0.044717 2.313936 4.661499 -0.186195 -0.229683 -0.040029
    42 2.676088 -1.712442 0.000000 1.570797 0.000000 1.570797
    43 2.676088 -1.712443 0.000000 -1.570796 0.000000 -1.570796
  time 25
    0 2.669608 2.224498 33.062843 1.535747 0.074968 -0.578035
    1 3.890452 -0.000004 -0.000003 -2.120690 -0.691485 -1.062082
    2 17.848175 0.000000 0.000000 0.000000 0.000000 0.722786
    3 16.525249 0.000000 0.000000 -0.096828 -0.068839 -0.835171
    4 6.879453 0.000000 0.000000 -0.007299 -0.002951 -0.584373
    5 -3.890452 0.000004 0.000007 -1.426739 -0.102437 -1.812044
    6 17.848171 0.000000 0.000000 0.000000 0.000000 0.882452
    7 16.525257 0.000000 0.000000 0.345111 0.073461 -1.574667
    8 6.879454 0.000000 0.000000 -0.081333 -0.002951 -0.584373
    9 0.000005 3.345128 -2.981901 1.516308 -0.167173 1.402053
    10 4.018331 0.000000 0.000000 -0.114855 0.060774 0.181276
    11 3.518561 0.000000 0.000000 -0.090917 0.084767 0.280299
    12 8.942642 0.000000 0.000000 -0.007137 0.016443 0.141032
    13 3.307271 0.000000 0.000000 3.132945 -0.009042 0.416364
    14 3.593710 -0.000003 0.000000 0.887487 0.016873 0.517378
    15 2.033346 1.000767 1.937660 0.057045 -1.439417 4.482048
    16 6.028142 0.000002 0.000000 -2.347368 -0.894447 -0.386703
    17 11.692556 0.000000 -0.000001 0.000000 0.000000 -1.235048
    18 11.481671 0.000000 -0.000029 -0.434000 0.492264 -0.028295
    19 3.883691 -0.046771 0.431443 0.096615 -0.011011 -0.677044
    20 1.719575 0.000000 0.000000 0.055915 -0.087978 -1.150781
    21 1.209183 -0.000001 0.000000 0.009316 -0.033629 -0.339470
    22 3.859861 -0.137948 1.332466 0.537935 -0.132420 -0.946691
    23 1.719428 0.000001 0.000000 0.023476 -0.208311 -0.755744
    24 1.099667 0.000000 0.000000 0.026046 -0.124621 -0.538681
    25 0.806048 -0.348922 1.321258 -1.269164 -0.727275 -0.266407
    26 1.789783 0.000001 0.000001 -0.001067 -0.012843 -0.131867
    27 1.207000 0.000000 0.000001 -0.000100 -0.003215 -0.064874
    28 2.033354 1.000771 -1.937610 -3.724389 1.058253 0.920115
    29 6.028142 0.000004 0.000000 1.311306 1.061159 -1.001533
    30 11.692552 0.000000 0.000002 0.000000 0.000000 -1.816964
    31 11.481699 0.000000 0.000004 -0.855846 0.167185 0.572699
    32 3.883657 -0.050329 -0.431043 0.047704 -0.153454 -0.767482
    33 1.719576 0.000003 0.000000 -0.053884 0.078890 -1.553283
    34 1.209180 -0.000001 0.000000 -0.013612 0.036967 -0.732282
    35 3.859830 -0.148938 -1.331282 -0.332627 0.218364 0.154975
    36 1.719426 0.000000 0.000000 -0.042634 0.220745 -0.851607
    37 1.099666 0.000000 0.000000 0.008154 0.000000 0.000000
    38 0.806017 -0.359836 -1.318334 0.415058 0.423434 -0.720789
    39 1.789784 0.000000 -0.000001 0.015106 0.038911 0.767156
    40 1.206998 0.000000 0.000000 0.004785 0.022541 0.418309
    41 -0.044717 2.313936 4.661499 -0.186195 -0.229683 -0.040029
    42 2.676088 -1.712442 0.000000 1.570797 0.000000 1.570797
    43 2.676088 -1.712443 0.000000 -1.570796 0.000000 -1.570796
  time 26
    0 2.669608 2.224498 33.062843 1.535747 0.074968 -0.578035
    1 3.890452 -0.000004 -0.000003 -2.120690 -0.691485 -1.062082
    2 17.848175 0.000000 0.000000 0.000000 0.000000 0.722786
    3 16.525249 0.000000 0.000000 -0.096828 -0.068839 -0.835171
    4 6.879453 0.000000 0.000000 -0.007299 -0.002951 -0.584373
    5 -3.890452 0.000004 0.000007 -1.426739 -0.102437 -1.812044
    6 17.848171 0.000000 0.000000 0.000000 0.000000 0.882452
    7 16.525257 0.000000 0.000000 0.345111 0.073461 -1.574667
    8 6.879454 0.000000 0.000000 -0.081333 -0.002951 -0.584373
    9 0.000005 3.345128 -2.981901 1.516308 -0.167173 1.402053
    10 4.018331 0.000000 0.000000 -0.114855 0.060774 0.181276
    11 3.518561 0.000000 0.000000 -0.090917 0.084767 0.280299
    12 8.942642 0.000000 0.000000 -0.007137 0.016443 0.141032
    13 3.307271 0.000000 0.000000 3.132945 -0.009042 0.416364
    14 3.593710 -0.000003 0.000000 0.887487 0.016873 0.517378
    15 2.033346 1.000767 1.937660 0.057045 -1.439417 4.482048
    16 6.028142 0.000002 0.000000 -2.347368 -0.894447 -0.386703
    17 11.692556 0.000000 -0.000001 0.000000 0.000000 -1.235048
    18 11.481671 0.000000 -0.000029 -0.434000 0.492264 -0.028295
    19 3.883691 -0.046771 0.431443 0.096615 -0.011011 -0.677044
    20 1.719575 0.000000 0.000000 0.055915 -0.087978 -1.150781
    21 1.209183 -0.000001 0.000000 0.009316 -0.033629 -0.339470
    22 3.859861 -0.137948 1.332466 0.537935 -0.132420 -0.946691
    23 1.719428 0.000001 0.000000 0.023476 -0.208311 -0.755744
    24 1.099667 0.000000 0.000000 0.026046 -0.124621 -0.538681
    25 0.806048 -0.348922 1.321258 -1.269164 -0.727275 -0.266407
    26 1.789783 0.000001 0.000001 -0.001067 -0.012843 -0.131867
    27 1.207000 0.000000 0.000001 -0.000100 -0.003215 -0.064874
    28 2.033354 1.000771 -1.937610 -3.724389 1.058253 0.920115
    29 6.028142 0.000004 0.000000 1.311306 1.061159 -1.001533
    30 11.692552 0.000000 0.000002 0.000000 0.000000 -1.816964
    31 11.481699 0.000000 0.000004 -0.855846 0.167185 0.572699
    32 3.883657 -0.050329 -0.431043 0.047704 -0.153454 -0.767482
    33 1.719576 0.000003 0.000000 -0.053884 0.078890 -1.553283
    34 1.209180 -0.000001 0.000000 -0.013612 0.036967 -0.732282
    35 3.859830 -0.148938 -1.331282 -0.332627 0.218364 0.154975
    36 1.719426 0.000000 0.000000 -0.042634 0.220745 -0.851607
    37 1.099666 0.000000 0.000000 0.008154 0.000000 0.000000
    38 0.806017 -0.359836 -1.318334 0.415058 0.423434 -0.720789
    39 1.789784 0.000000 -0.000001 0.015106 0.038911 0.767156
    40 1.206998 0.000000 0.000000 0.004785 0.022541 0.418309
    41 -0.044717 2.313936 4.661499 -0.186195 -0.229683 -0.040029
    42 2.676088 -1.712442 0.000000 1.570797 0.000000 1.570797
    43 2.676088 -1.712443 0.000000 -1.570796 0.000000 -1.570796
  time 27
    0 2.669608 2.224498 33.062843 1.535747 0.074968 -0.578035
    1 3.890452 -0.000004 -0.000003 -2.120690 -0.691485 -1.062082
    2 17.848175 0.000000 0.000000 0.000000 0.000000 0.722786
    3 16.525249 0.000000 0.000000 -0.096828 -0.068839 -0.835171
    4 6.879453 0.000000 0.000000 -0.007299 -0.002951 -0.584373
    5 -3.890452 0.000004 0.000007 -1.426739 -0.102437 -1.812044
    6 17.848171 0.000000 0.000000 0.000000 0.000000 0.882452
    7 16.525257 0.000000 0.000000 0.345111 0.073461 -1.574667
    8 6.879454 0.000000 0.000000 -0.081333 -0.002951 -0.584373
    9 0.000005 3.345128 -2.981901 1.516308 -0.167173 1.402053
    10 4.018331 0.000000 0.000000 -0.114855 0.060774 0.181276
    11 3.518561 0.000000 0.000000 -0.090917 0.084767 0.280299
    12 8.942642 0.000000 0.000000 -0.007137 0.016443 0.141032
    13 3.307271 0.000000 0.000000 3.132945 -0.009042 0.416364
    14 3.593710 -0.000003 0.000000 0.887487 0.016873 0.517378
    15 2.033346 1.000767 1.937660 0.057045 -1.439417 4.482048
    16 6.028142 0.000002 0.000000 -2.347368 -0.894447 -0.386703
    17 11.692556 0.000000 -0.000001 0.000000 0.000000 -1.235048
    18 11.481671 0.000000 -0.000029 -0.434000 0.492264 -0.028295
    19 3.883691 -0.046771 0.431443 0.096615 -0.011011 -0.677044
    20 1.719575 0.000000 0.000000 0.055915 -0.087978 -1.150781
    21 1.209183 -0.000001 0.000000 0.009316 -0.033629 -0.339470
    22 3.859861 -0.137948 1.332466 0.537935 -0.132420 -0.946691
    23 1.719428 0.000001 0.000000 0.023476 -0.208311 -0.755744
    24 1.099667 0.000000 0.000000 0.026046 -0.124621 -0.538681
    25 0.806048 -0.348922 1.321258 -1.269164 -0.727275 -0.266407
    26 1.789783 0.000001 0.000001 -0.001067 -0.012843 -0.131867
    27 1.207000 0.000000 0.000001 -0.000100 -0.003215 -0.064874
    28 2.033354 1.000771 -1.937610 -3.724389 1.058253 0.920115
    29 6.028142 0.000004 0.000000 1.311306 1.061159 -1.001533
    30 11.692552 0.000000 0.000002 0.000000 0.000000 -1.816964
    31 11.481699 0.000000 0.000004 -0.855846 0.167185 0.572699
    32 3.883657 -0.050329 -0.431043 0.047704 -0.153454 -0.767482
    33 1.719576 0.000003 0.000000 -0.053884 0.078890 -1.553283
    34 1.209180 -0.000001 0.000000 -0.013612 0.036967 -0.732282
    35 3.859830 -0.148938 -1.331282 -0.332627 0.218364 0.154975
    36 1.719426 0.000000 0.000000 -0.042634 0.220745 -0.851607
    37 1.099666 0.000000 0.000000 0.008154 0.000000 0.000000
    38 0.806017 -0.359836 -1.318334 0.415058 0.423434 -0.720789
    39 1.789784 0.000000 -0.000001 0.015106 0.038911 0.767156
    40 1.206998 0.000000 0.000000 0.004785 0.022541 0.418309
    41 -0.044717 2.313936 4.661499 -0.186195 -0.229683 -0.040029
    42 2.676088 -1.712442 0.000000 1.570797 0.000000 1.570797
    43 2.676088 -1.712443 0.000000 -1.570796 0.000000 -1.570796
  time 28
    0 2.669608 2.224498 33.062843 1.535747 0.074968 -0.578035
    1 3.890452 -0.000004 -0.000003 -2.120690 -0.691485 -1.062082
    2 17.848175 0.000000 0.000000 0.000000 0.000000 0.722786
    3 16.525249 0.000000 0.000000 -0.096828 -0.068839 -0.835171
    4 6.879453 0.000000 0.000000 -0.007299 -0.002951 -0.584373
    5 -3.890452 0.000004 0.000007 -1.426739 -0.102437 -1.812044
    6 17.848171 0.000000 0.000000 0.000000 0.000000 0.882452
    7 16.525257 0.000000 0.000000 0.345111 0.073461 -1.574667
    8 6.879454 0.000000 0.000000 -0.081333 -0.002951 -0.584373
    9 0.000005 3.345128 -2.981901 1.516308 -0.167173 1.402053
    10 4.018331 0.000000 0.000000 -0.114855 0.060774 0.181276
    11 3.518561 0.000000 0.000000 -0.090917 0.084767 0.280299
    12 8.942642 0.000000 0.000000 -0.007137 0.016443 0.141032
    13 3.307271 0.000000 0.000000 3.132945 -0.009042 0.416364
    14 3.593710 -0.000003 0.000000 0.887487 0.016873 0.517378
    15 2.033346 1.000767 1.937660 0.057045 -1.439417 4.482048
    16 6.028142 0.000002 0.000000 -2.347368 -0.894447 -0.386703
    17 11.692556 0.000000 -0.000001 0.000000 0.000000 -1.235048
    18 11.481671 0.000000 -0.000029 -0.434000 0.492264 -0.028295
    19 3.883691 -0.046771 0.431443 0.096615 -0.011011 -0.677044
    20 1.719575 0.000000 0.000000 0.055915 -0.087978 -1.150781
    21 1.209183 -0.000001 0.000000 0.009316 -0.033629 -0.339470
    22 3.859861 -0.137948 1.332466 0.537935 -0.132420 -0.946691
    23 1.719428 0.000001 0.000000 0.023476 -0.208311 -0.755744
    24 1.099667 0.000000 0.000000 0.026046 -0.124621 -0.538681
    25 0.806048 -0.348922 1.321258 -1.269164 -0.727275 -0.266407
    26 1.789783 0.000001 0.000001 -0.001067 -0.012843 -0.131867
    27 1.207000 0.000000 0.000001 -0.000100 -0.003215 -0.064874
    28 2.033354 1.000771 -1.937610 -3.724389 1.058253 0.920115
    29 6.028142 0.000004 0.000000 1.311306 1.061159 -1.001533
    30 11.692552 0.000000 0.000002 0.000000 0.000000 -1.816964
    31 11.481699 0.000000 0.000004 -0.855846 0.167185 0.572699
    32 3.883657 -0.050329 -0.431043 0.047704 -0.153454 -0.767482
    33 1.719576 0.000003 0.000000 -0.053884 0.078890 -1.553283
    34 1.209180 -0.000001 0.000000 -0.013612 0.036967 -0.732282
    35 3.859830 -0.148938 -1.331282 -0.332627 0.218364 0.154975
    36 1.719426 0.000000 0.000000 -0.042634 0.220745 -0.851607
    37 1.099666 0.000000 0.000000 0.008154 0.000000 0.000000
    38 0.806017 -0.359836 -1.318334 0.415058 0.423434 -0.720789
    39 1.789784 0.000000 -0.000001 0.015106 0.038911 0.767156
    40 1.206998 0.000000 0.000000 0.004785 0.022541 0.418309
    41 -0.044717 2.313936 4.661499 -0.186195 -0.229683 -0.040029
    42 2.676088 -1.712442 0.000000 1.570797 0.000000 1.570797
    43 2.676088 -1.712443 0.000000 -1.570796 0.000000 -1.570796
end
