// Created by Crowbar 0.68
version 1
nodes
  0 "ValveBiped.Bip01_Pelvis" -1
  1 "ValveBiped.Bip01_L_Thigh" 0
  2 "ValveBiped.Bip01_L_Calf" 1
  3 "ValveBiped.Bip01_L_Foot" 2
  4 "ValveBiped.Bip01_L_Toe0" 3
  5 "ValveBiped.Bip01_R_Thigh" 0
  6 "ValveBiped.Bip01_R_Calf" 5
  7 "ValveBiped.Bip01_R_Foot" 6
  8 "ValveBiped.Bip01_R_Toe0" 7
  9 "ValveBiped.Bip01_Spine" 0
  10 "ValveBiped.Bip01_Spine1" 9
  11 "ValveBiped.Bip01_Spine2" 10
  12 "ValveBiped.Bip01_Spine4" 11
  13 "ValveBiped.Bip01_Neck1" 12
  14 "ValveBiped.Bip01_Head1" 13
  15 "ValveBiped.Bip01_L_Clavicle" 12
  16 "ValveBiped.Bip01_L_UpperArm" 15
  17 "ValveBiped.Bip01_L_Forearm" 16
  18 "ValveBiped.Bip01_L_Hand" 17
  19 "ValveBiped.Bip01_L_Finger2" 18
  20 "ValveBiped.Bip01_L_Finger21" 19
  21 "ValveBiped.Bip01_L_Finger22" 20
  22 "ValveBiped.Bip01_L_Finger1" 18
  23 "ValveBiped.Bip01_L_Finger11" 22
  24 "ValveBiped.Bip01_L_Finger12" 23
  25 "ValveBiped.Bip01_L_Finger0" 18
  26 "ValveBiped.Bip01_L_Finger01" 25
  27 "ValveBiped.Bip01_L_Finger02" 26
  28 "ValveBiped.Bip01_R_Clavicle" 12
  29 "ValveBiped.Bip01_R_UpperArm" 28
  30 "ValveBiped.Bip01_R_Forearm" 29
  31 "ValveBiped.Bip01_R_Hand" 30
  32 "ValveBiped.Bip01_R_Finger2" 31
  33 "ValveBiped.Bip01_R_Finger21" 32
  34 "ValveBiped.Bip01_R_Finger22" 33
  35 "ValveBiped.Bip01_R_Finger1" 31
  36 "ValveBiped.Bip01_R_Finger11" 35
  37 "ValveBiped.Bip01_R_Finger12" 36
  38 "ValveBiped.Bip01_R_Finger0" 31
  39 "ValveBiped.Bip01_R_Finger01" 38
  40 "ValveBiped.Bip01_R_Finger02" 39
  41 "ValveBiped.Cod" 0
end
skeleton
  time 0
    0 -0.021881 -0.314874 36.364441 1.570626 0.000000 -0.746639
    1 3.890452 -0.000004 -0.000003 -2.201551 -0.306039 -1.301262
    2 17.848177 0.000000 0.000000 0.000000 0.000000 0.699420
    3 15.638507 0.000000 0.000000 0.052634 0.138818 -1.233820
    4 7.109929 0.000000 0.000000 -0.007119 -0.003131 -0.631738
    5 -3.890452 0.000004 0.000007 -1.506726 -0.191212 -1.669107
    6 17.848173 0.000000 0.000000 0.000000 0.000000 0.672858
    7 15.638511 0.000000 0.000000 0.051397 -0.082141 -1.409127
    8 7.109930 0.000000 0.000000 -0.081154 -0.003131 -0.631749
    9 0.000005 3.345128 -2.981901 1.409079 0.084081 1.550109
    10 4.018331 0.000000 0.000000 0.075948 -0.117581 0.193950
    11 3.518565 0.000000 0.000000 0.121888 -0.099652 0.333084
    12 8.942642 0.000000 0.000000 -0.078838 0.112907 0.222365
    13 3.307271 0.000000 0.000000 3.150315 -0.072854 0.269284
    14 3.593712 -0.000001 0.000000 0.360338 -0.246610 0.658645
    15 2.033346 1.000768 1.101697 2.385451 -1.528127 2.146508
    16 6.809416 0.000001 0.000000 -2.881061 -1.098337 0.232523
    17 12.391796 0.000000 0.000001 0.000000 0.000000 -1.019635
    18 9.337076 0.000000 -0.000031 -0.061854 0.548934 0.252417
    19 4.454020 -0.070210 0.572073 0.095490 -0.008587 -0.706335
    20 1.426597 -0.000001 0.000000 0.055908 -0.087976 -1.504206
    21 1.322468 -0.000002 0.000000 0.009312 -0.033625 -0.575065
    22 4.477066 -0.028570 1.582474 0.481653 -0.035390 -1.246096
    23 1.344418 0.000000 0.000000 0.023466 -0.208305 -0.755723
    24 1.224671 0.000000 0.000000 0.026043 -0.124620 -0.538676
    25 2.630323 -0.345015 1.907214 -0.354022 -0.915164 -1.788195
    26 1.059292 0.000000 0.000001 -0.001067 -0.012855 0.250988
    27 0.781203 0.000000 0.000000 -0.000096 -0.003210 0.062757
    28 2.033353 1.000771 -1.101647 -3.176988 1.193701 1.415651
    29 6.809417 0.000001 0.000000 1.701001 1.148705 -0.450326
    30 12.391794 0.000000 0.000001 0.000000 0.000000 -1.849791
    31 9.337102 0.000000 0.000003 -0.764803 0.062558 0.784953
    32 4.453986 -0.073766 -0.571672 0.047699 -0.153453 -0.767464
    33 1.426599 0.000002 0.000000 -0.053883 0.078890 -1.553256
    34 1.322465 -0.000001 0.000000 -0.013603 0.036958 -0.732277
    35 4.477036 -0.043465 -1.581290 -0.332631 0.218360 0.154973
    36 1.344414 0.000000 0.000000 -0.042629 0.220735 -0.851579
    37 1.224670 0.000001 0.000000 0.008150 -0.000004 -0.000025
    38 2.630291 -0.359835 -1.904289 0.415078 0.423437 -0.720800
    39 1.059293 0.000000 0.000000 0.015101 0.038905 0.767148
    40 0.781204 0.000000 0.000000 0.004782 0.022537 0.418308
    41 -0.044717 2.528787 4.661499 -0.041547 -0.161153 -0.007014
  time 1
    0 -0.021881 -0.162513 36.364441 1.570626 0.000000 -0.746639
    1 3.890452 -0.000004 -0.000003 -2.205178 -0.296908 -1.287941
    2 17.848177 0.000000 0.000000 0.000000 0.000000 0.696933
    3 15.638507 0.000000 0.000000 0.044342 0.152172 -1.232362
    4 7.109929 0.000000 0.000000 -0.007119 -0.003131 -0.631738
    5 -3.890452 0.000004 0.000007 -1.508061 -0.208137 -1.658322
    6 17.848173 0.000000 0.000000 0.000000 0.000000 0.682931
    7 15.638511 0.000000 0.000000 0.042965 -0.073995 -1.402251
    8 7.109930 0.000000 0.000000 -0.081154 -0.003131 -0.631749
    9 0.000005 3.345128 -2.981901 1.489964 0.085612 1.560393
    10 4.018331 0.000000 0.000000 0.032074 -0.118839 0.193915
    11 3.518565 0.000000 0.000000 0.041328 -0.091574 0.333580
    12 8.942642 0.000000 0.000000 -0.078838 0.112907 0.222365
    13 3.307271 0.000000 0.000000 3.144754 -0.036098 0.335010
    14 3.593712 -0.000001 0.000000 0.415985 -0.219799 0.705523
    15 2.033346 1.000768 1.101697 2.385451 -1.528127 2.146508
    16 6.809416 0.000001 0.000000 -2.777301 -1.039177 0.136819
    17 12.391796 0.000000 0.000001 0.000000 0.000000 -1.121822
    18 9.337076 0.000000 -0.000031 -0.065334 0.547948 0.319287
    19 4.454020 -0.070210 0.572073 0.095490 -0.008587 -0.706335
    20 1.426597 -0.000001 0.000000 0.055908 -0.087976 -1.504206
    21 1.322468 -0.000002 0.000000 0.009312 -0.033625 -0.575065
    22 4.477066 -0.028570 1.582474 0.481653 -0.035390 -1.246096
    23 1.344418 0.000000 0.000000 0.023466 -0.208305 -0.755723
    24 1.224671 0.000000 0.000000 0.026043 -0.124620 -0.538676
    25 2.630323 -0.345015 1.907214 -0.354022 -0.915164 -1.788195
    26 1.059292 0.000000 0.000001 -0.001067 -0.012855 0.250988
    27 0.781203 0.000000 0.000000 -0.000096 -0.003210 0.062757
    28 2.033353 1.000771 -1.101647 -3.176988 1.193701 1.415651
    29 6.809417 0.000001 0.000000 1.571711 1.163158 -0.581426
    30 12.391794 0.000000 0.000001 0.000000 0.000000 -1.842752
    31 9.337102 0.000000 0.000003 -0.777284 0.074665 0.751019
    32 4.453986 -0.073766 -0.571672 0.047699 -0.153453 -0.767464
    33 1.426599 0.000002 0.000000 -0.053883 0.078890 -1.553256
    34 1.322465 -0.000001 0.000000 -0.013603 0.036958 -0.732277
    35 4.477036 -0.043465 -1.581290 -0.332631 0.218360 0.154973
    36 1.344414 0.000000 0.000000 -0.042629 0.220735 -0.851579
    37 1.224670 0.000001 0.000000 0.008150 -0.000004 -0.000025
    38 2.630291 -0.359835 -1.904289 0.415078 0.423437 -0.720800
    39 1.059293 0.000000 0.000000 0.015101 0.038905 0.767148
    40 0.781204 0.000000 0.000000 0.004782 0.022537 0.418308
    41 -0.044717 2.528787 4.661499 -0.042263 -0.080560 -0.003487
  time 2
    0 -0.021881 -0.010152 36.364441 1.570626 0.000000 -0.746639
    1 3.890452 -0.000004 -0.000003 -2.208518 -0.286830 -1.275770
    2 17.848177 0.000000 0.000000 0.000000 0.000000 0.694007
    3 15.638507 0.000000 0.000000 0.036208 0.165265 -1.231852
    4 7.109929 0.000000 0.000000 -0.007119 -0.003131 -0.631738
    5 -3.890452 0.000004 0.000007 -1.509586 -0.223734 -1.646592
    6 17.848173 0.000000 0.000000 0.000000 0.000000 0.691299
    7 15.638511 0.000000 0.000000 0.034257 -0.065211 -1.395280
    8 7.109930 0.000000 0.000000 -0.081154 -0.003131 -0.631749
    9 0.000005 3.345128 -2.981901 1.570796 0.086293 1.570796
    10 4.018331 0.000000 0.000000 -0.011799 -0.120110 0.193933
    11 3.518565 0.000000 0.000000 -0.039210 -0.083509 0.333403
    12 8.942642 0.000000 0.000000 -0.078838 0.112907 0.222365
    13 3.307271 0.000000 0.000000 3.141590 0.000000 0.400478
    14 3.593712 -0.000001 0.000000 0.471844 -0.192859 0.751981
    15 2.033346 1.000768 1.101697 2.385451 -1.528127 2.146508
    16 6.809416 0.000001 0.000000 -2.694293 -0.975312 0.059953
    17 12.391796 0.000000 0.000001 0.000000 0.000000 -1.218411
    18 9.337076 0.000000 -0.000031 -0.069616 0.547553 0.380906
    19 4.454020 -0.070210 0.572073 0.095490 -0.008587 -0.706335
    20 1.426597 -0.000001 0.000000 0.055908 -0.087976 -1.504206
    21 1.322468 -0.000002 0.000000 0.009312 -0.033625 -0.575065
    22 4.477066 -0.028570 1.582474 0.481653 -0.035390 -1.246096
    23 1.344418 0.000000 0.000000 0.023466 -0.208305 -0.755723
    24 1.224671 0.000000 0.000000 0.026043 -0.124620 -0.538676
    25 2.630323 -0.345015 1.907214 -0.354022 -0.915164 -1.788195
    26 1.059292 0.000000 0.000001 -0.001067 -0.012855 0.250988
    27 0.781203 0.000000 0.000000 -0.000096 -0.003210 0.062757
    28 2.033353 1.000771 -1.101647 -3.176988 1.193701 1.415651
    29 6.809417 0.000001 0.000000 1.431063 1.169641 -0.721560
    30 12.391794 0.000000 0.000001 0.000000 0.000000 -1.834708
    31 9.337102 0.000000 0.000003 -0.790533 0.086238 0.716395
    32 4.453986 -0.073766 -0.571672 0.047699 -0.153453 -0.767464
    33 1.426599 0.000002 0.000000 -0.053883 0.078890 -1.553256
    34 1.322465 -0.000001 0.000000 -0.013603 0.036958 -0.732277
    35 4.477036 -0.043465 -1.581290 -0.332631 0.218360 0.154973
    36 1.344414 0.000000 0.000000 -0.042629 0.220735 -0.851579
    37 1.224670 0.000001 0.000000 0.008150 -0.000004 -0.000025
    38 2.630291 -0.359835 -1.904289 0.415078 0.423437 -0.720800
    39 1.059293 0.000000 0.000000 0.015101 0.038905 0.767148
    40 0.781204 0.000000 0.000000 0.004782 0.022537 0.418308
    41 -0.044717 2.528787 4.661499 -0.042719 0.000000 0.000000
end
