// Created by Crowbar 0.68
version 1
nodes
  0 "ValveBiped.Bip01_Pelvis" -1
  1 "ValveBiped.Bip01_L_Thigh" 0
  2 "ValveBiped.Bip01_L_Calf" 1
  3 "ValveBiped.Bip01_L_Foot" 2
  4 "ValveBiped.Bip01_L_Toe0" 3
  5 "ValveBiped.Bip01_R_Thigh" 0
  6 "ValveBiped.Bip01_R_Calf" 5
  7 "ValveBiped.Bip01_R_Foot" 6
  8 "ValveBiped.Bip01_R_Toe0" 7
  9 "ValveBiped.Bip01_Spine" 0
  10 "ValveBiped.Bip01_Spine1" 9
  11 "ValveBiped.Bip01_Spine2" 10
  12 "ValveBiped.Bip01_Spine4" 11
  13 "ValveBiped.Bip01_Neck1" 12
  14 "ValveBiped.Bip01_Head1" 13
  15 "ValveBiped.Bip01_L_Clavicle" 12
  16 "ValveBiped.Bip01_L_UpperArm" 15
  17 "ValveBiped.Bip01_L_Forearm" 16
  18 "ValveBiped.Bip01_L_Hand" 17
  19 "ValveBiped.Bip01_L_Finger2" 18
  20 "ValveBiped.Bip01_L_Finger21" 19
  21 "ValveBiped.Bip01_L_Finger22" 20
  22 "ValveBiped.Bip01_L_Finger1" 18
  23 "ValveBiped.Bip01_L_Finger11" 22
  24 "ValveBiped.Bip01_L_Finger12" 23
  25 "ValveBiped.Bip01_L_Finger0" 18
  26 "ValveBiped.Bip01_L_Finger01" 25
  27 "ValveBiped.Bip01_L_Finger02" 26
  28 "ValveBiped.Bip01_R_Clavicle" 12
  29 "ValveBiped.Bip01_R_UpperArm" 28
  30 "ValveBiped.Bip01_R_Forearm" 29
  31 "ValveBiped.Bip01_R_Hand" 30
  32 "ValveBiped.Bip01_R_Finger2" 31
  33 "ValveBiped.Bip01_R_Finger21" 32
  34 "ValveBiped.Bip01_R_Finger22" 33
  35 "ValveBiped.Bip01_R_Finger1" 31
  36 "ValveBiped.Bip01_R_Finger11" 35
  37 "ValveBiped.Bip01_R_Finger12" 36
  38 "ValveBiped.Bip01_R_Finger0" 31
  39 "ValveBiped.Bip01_R_Finger01" 38
  40 "ValveBiped.Bip01_R_Finger02" 39
  41 "ValveBiped.Cod" 0
end
skeleton
  time 0
    0 -0.021881 -0.010152 36.364441 1.570626 0.000000 -0.746639
    1 3.890452 -0.000004 -0.000003 -2.208518 -0.286830 -1.275770
    2 17.848177 0.000000 0.000000 0.000000 0.000000 0.694007
    3 15.638507 0.000000 0.000000 0.036208 0.165265 -1.231852
    4 7.109929 0.000000 0.000000 -0.007119 -0.003131 -0.631738
    5 -3.890452 0.000004 0.000007 -1.509586 -0.223734 -1.646592
    6 17.848173 0.000000 0.000000 0.000000 0.000000 0.691299
    7 15.638511 0.000000 0.000000 0.034257 -0.065211 -1.395280
    8 7.109930 0.000000 0.000000 -0.081154 -0.003131 -0.631749
    9 0.000005 3.345128 -2.981901 1.570796 0.086293 1.570796
    10 4.018331 0.000000 0.000000 -0.011799 -0.120110 0.193933
    11 3.518565 0.000000 0.000000 -0.039210 -0.083509 0.333403
    12 8.942642 0.000000 0.000000 -0.078838 0.112907 0.222365
    13 3.306641 0.000002 0.000000 3.138800 0.000567 0.400476
    14 3.593712 -0.000001 0.000000 0.332198 -0.192859 0.751981
    15 2.033346 1.000768 1.101697 2.385451 -1.528127 2.146508
    16 6.809416 0.000001 0.000000 -2.695154 -0.975949 0.059385
    17 12.391796 0.000000 0.000001 0.000000 0.000000 -1.218411
    18 9.337076 0.000000 -0.000031 -0.068010 0.548047 0.381772
    19 4.454020 -0.070210 0.572073 0.095490 -0.008587 -0.706366
    20 1.426597 -0.000001 0.000000 0.055908 -0.087976 -1.504206
    21 1.322468 -0.000002 0.000000 0.009312 -0.033625 -0.575065
    22 4.477066 -0.028570 1.582474 0.481653 -0.035390 -1.246096
    23 1.344418 0.000000 0.000000 0.023466 -0.208305 -0.755723
    24 1.224671 0.000000 0.000000 0.026043 -0.124620 -0.538676
    25 2.630323 -0.345015 1.907214 -0.354022 -0.915164 -1.788195
    26 1.059292 0.000000 0.000001 -0.001067 -0.012855 0.250988
    27 0.781203 0.000000 0.000000 -0.000096 -0.003210 0.062757
    28 2.033353 1.000771 -1.101647 -3.176988 1.193701 1.415651
    29 6.809417 0.000001 0.000000 1.431063 1.169641 -0.721560
    30 12.391794 0.000000 0.000001 0.000000 0.000000 -1.834708
    31 9.337102 0.000000 0.000003 -0.790533 0.086238 0.716395
    32 4.453986 -0.073766 -0.571672 0.047699 -0.153453 -0.767464
    33 1.426599 0.000002 0.000000 -0.053883 0.078890 -1.553256
    34 1.322465 -0.000001 0.000000 -0.013603 0.036958 -0.732277
    35 4.477036 -0.043465 -1.581290 -0.332631 0.218360 0.154973
    36 1.344414 0.000000 0.000000 -0.042629 0.220735 -0.851579
    37 1.224670 0.000001 0.000000 0.008150 -0.000004 -0.000025
    38 2.630291 -0.359835 -1.904289 0.415078 0.423437 -0.720800
    39 1.059293 0.000000 0.000000 0.015101 0.038905 0.767148
    40 0.781204 0.000000 0.000000 0.004782 0.022537 0.418308
    41 -0.044717 2.528787 4.661499 -0.042719 0.000000 0.000000
  time 1
    0 -0.021881 -0.010152 36.271814 1.570626 0.000000 -0.746639
    1 3.890452 -0.000004 -0.000003 -2.210045 -0.293548 -1.270787
    2 17.848177 0.000000 0.000000 0.000000 0.000000 0.710100
    3 15.638507 0.000000 0.000000 0.036366 0.165147 -1.239689
    4 7.109929 0.000000 0.000000 -0.007119 -0.003131 -0.631738
    5 -3.890452 0.000004 0.000007 -1.509491 -0.231803 -1.647254
    6 17.848173 0.000000 0.000000 0.000000 0.000000 0.707871
    7 15.638511 0.000000 0.000000 0.034442 -0.065302 -1.403779
    8 7.109930 0.000000 0.000000 -0.081154 -0.003131 -0.631749
    9 0.000005 3.345128 -2.981901 1.570796 0.086293 1.570796
    10 4.018331 0.000000 0.000000 -0.012319 -0.120074 0.198263
    11 3.518565 0.000000 0.000000 -0.039210 -0.083509 0.333403
    12 8.942642 0.000000 0.000000 -0.078838 0.112907 0.222365
    13 3.306641 0.000002 0.000000 3.138800 0.000567 0.400476
    14 3.593712 -0.000001 0.000000 0.385103 -0.190183 0.758486
    15 2.033346 1.000768 1.101697 2.385451 -1.528127 2.146508
    16 6.809416 0.000001 0.000000 -2.567103 -0.968499 -0.077781
    17 12.391796 0.000000 0.000001 0.000000 0.000000 -1.164479
    18 9.337076 0.000000 -0.000031 -0.091564 0.531705 0.292574
    19 4.454020 -0.070210 0.572073 0.095490 -0.008587 -0.706366
    20 1.426597 -0.000001 0.000000 0.055908 -0.087976 -1.504206
    21 1.322468 -0.000002 0.000000 0.009312 -0.033625 -0.575065
    22 4.477066 -0.028570 1.582474 0.481653 -0.035390 -1.246096
    23 1.344418 0.000000 0.000000 0.023466 -0.208305 -0.755723
    24 1.224671 0.000000 0.000000 0.026043 -0.124620 -0.538676
    25 2.630323 -0.345015 1.907214 -0.354022 -0.915164 -1.788195
    26 1.059292 0.000000 0.000001 -0.001067 -0.012855 0.250988
    27 0.781203 0.000000 0.000000 -0.000096 -0.003210 0.062757
    28 2.033353 1.000771 -1.101647 -3.176988 1.193701 1.415651
    29 6.809417 0.000001 0.000000 1.297704 1.141303 -0.849134
    30 12.391794 0.000000 0.000001 0.000000 0.000000 -1.768486
    31 9.337102 0.000000 0.000003 -0.821576 0.084068 0.672617
    32 4.453986 -0.073766 -0.571672 0.047699 -0.153453 -0.767464
    33 1.426599 0.000002 0.000000 -0.053883 0.078890 -1.553256
    34 1.322465 -0.000001 0.000000 -0.013603 0.036958 -0.732277
    35 4.477036 -0.043465 -1.581290 -0.332631 0.218360 0.154973
    36 1.344414 0.000000 0.000000 -0.042629 0.220735 -0.851579
    37 1.224670 0.000001 0.000000 0.008150 -0.000004 -0.000025
    38 2.630291 -0.359835 -1.904289 0.415078 0.423437 -0.720800
    39 1.059293 0.000000 0.000000 0.015101 0.038905 0.767148
    40 0.781204 0.000000 0.000000 0.004782 0.022537 0.418308
    41 -0.044717 2.528787 4.661499 -0.042719 0.000000 0.000000
  time 2
    0 -0.021881 -0.010152 36.179186 1.570626 0.000000 -0.746639
    1 3.890452 -0.000004 -0.000003 -2.211572 -0.300409 -1.265708
    2 17.848177 0.000000 0.000000 0.000000 0.000000 0.726412
    3 15.638507 0.000000 0.000000 0.036524 0.165005 -1.247600
    4 7.109929 0.000000 0.000000 -0.007119 -0.003131 -0.631738
    5 -3.890452 0.000004 0.000007 -1.509396 -0.239971 -1.647917
    6 17.848173 0.000000 0.000000 0.000000 0.000000 0.724768
    7 15.638511 0.000000 0.000000 0.034534 -0.065348 -1.412374
    8 7.109930 0.000000 0.000000 -0.081154 -0.003131 -0.631749
    9 0.000005 3.345128 -2.981901 1.570796 0.086293 1.570796
    10 4.018331 0.000000 0.000000 -0.012861 -0.120038 0.202751
    11 3.518565 0.000000 0.000000 -0.039210 -0.083509 0.333403
    12 8.942642 0.000000 0.000000 -0.078838 0.112907 0.222365
    13 3.306641 0.000002 0.000000 3.138800 0.000567 0.400476
    14 3.593712 -0.000001 0.000000 0.439991 -0.187506 0.765453
    15 2.033346 1.000768 1.101697 2.385451 -1.528127 2.146508
    16 6.809416 0.000001 0.000000 -2.444982 -0.952864 -0.211161
    17 12.391796 0.000000 0.000001 0.000000 0.000000 -1.107630
    18 9.337076 0.000000 -0.000031 -0.112531 0.513719 0.204068
    19 4.454020 -0.070210 0.572073 0.095490 -0.008587 -0.706366
    20 1.426597 -0.000001 0.000000 0.055908 -0.087976 -1.504206
    21 1.322468 -0.000002 0.000000 0.009312 -0.033625 -0.575065
    22 4.477066 -0.028570 1.582474 0.481653 -0.035390 -1.246096
    23 1.344418 0.000000 0.000000 0.023466 -0.208305 -0.755723
    24 1.224671 0.000000 0.000000 0.026043 -0.124620 -0.538676
    25 2.630323 -0.345015 1.907214 -0.354022 -0.915164 -1.788195
    26 1.059292 0.000000 0.000001 -0.001067 -0.012855 0.250988
    27 0.781203 0.000000 0.000000 -0.000096 -0.003210 0.062757
    28 2.033353 1.000771 -1.101647 -3.176988 1.193701 1.415651
    29 6.809417 0.000001 0.000000 1.182138 1.106921 -0.958986
    30 12.391794 0.000000 0.000001 0.000000 0.000000 -1.702193
    31 9.337102 0.000000 0.000003 -0.852427 0.080527 0.629099
    32 4.453986 -0.073766 -0.571672 0.047699 -0.153453 -0.767464
    33 1.426599 0.000002 0.000000 -0.053883 0.078890 -1.553256
    34 1.322465 -0.000001 0.000000 -0.013603 0.036958 -0.732277
    35 4.477036 -0.043465 -1.581290 -0.332631 0.218360 0.154973
    36 1.344414 0.000000 0.000000 -0.042629 0.220735 -0.851579
    37 1.224670 0.000001 0.000000 0.008150 -0.000004 -0.000025
    38 2.630291 -0.359835 -1.904289 0.415078 0.423437 -0.720800
    39 1.059293 0.000000 0.000000 0.015101 0.038905 0.767148
    40 0.781204 0.000000 0.000000 0.004782 0.022537 0.418308
    41 -0.044717 2.528787 4.661499 -0.042719 0.000000 0.000000
  time 3
    0 -0.021881 -0.010152 36.076267 1.570626 0.000000 -0.746639
    1 3.890452 -0.000004 -0.000003 -2.213195 -0.307269 -1.260628
    2 17.848177 0.000000 0.000000 0.000000 0.000000 0.742798
    3 15.638507 0.000000 0.000000 0.036714 0.164863 -1.255547
    4 7.109929 0.000000 0.000000 -0.007119 -0.003131 -0.631738
    5 -3.890452 0.000004 0.000007 -1.509300 -0.248188 -1.648579
    6 17.848173 0.000000 0.000000 0.000000 0.000000 0.741583
    7 15.638511 0.000000 0.000000 0.034720 -0.065484 -1.420969
    8 7.109930 0.000000 0.000000 -0.081154 -0.003131 -0.631749
    9 0.000005 3.345128 -2.981901 1.570796 0.086293 1.570796
    10 4.018331 0.000000 0.000000 -0.013426 -0.119990 0.207343
    11 3.518565 0.000000 0.000000 -0.039210 -0.083509 0.333403
    12 8.942642 0.000000 0.000000 -0.078838 0.112907 0.222365
    13 3.306641 0.000002 0.000000 3.138800 0.000567 0.400476
    14 3.593712 -0.000001 0.000000 0.496060 -0.184936 0.772755
    15 2.033346 1.000768 1.101697 2.385451 -1.528127 2.146508
    16 6.809416 0.000001 0.000000 -2.374884 -0.934189 -0.291245
    17 12.391796 0.000000 0.000001 0.000000 0.000000 -1.088864
    18 9.337076 0.000000 -0.000031 -0.099683 0.498396 0.157104
    19 4.454020 -0.070210 0.572073 0.095490 -0.008587 -0.706335
    20 1.426597 -0.000001 0.000000 0.055908 -0.087976 -1.504206
    21 1.322468 -0.000002 0.000000 0.009312 -0.033625 -0.575065
    22 4.477066 -0.028570 1.582474 0.481653 -0.035390 -1.246096
    23 1.344418 0.000000 0.000000 0.023466 -0.208305 -0.755723
    24 1.224671 0.000000 0.000000 0.026043 -0.124620 -0.538676
    25 2.630323 -0.345015 1.907214 -0.354022 -0.915164 -1.788195
    26 1.059292 0.000000 0.000001 -0.001067 -0.012855 0.250988
    27 0.781203 0.000000 0.000000 -0.000096 -0.003210 0.062757
    28 2.033353 1.000771 -1.101647 -3.176988 1.193701 1.415651
    29 6.809417 0.000001 0.000000 1.093736 1.072758 -1.042000
    30 12.391794 0.000000 0.000001 0.000000 0.000000 -1.643369
    31 9.337102 0.000000 0.000003 -0.882509 0.105388 0.553806
    32 4.453986 -0.073766 -0.571672 0.047699 -0.153453 -0.767464
    33 1.426599 0.000002 0.000000 -0.053883 0.078890 -1.553256
    34 1.322465 -0.000001 0.000000 -0.013603 0.036958 -0.732277
    35 4.477036 -0.043465 -1.581290 -0.332631 0.218360 0.154973
    36 1.344414 0.000000 0.000000 -0.042629 0.220735 -0.851579
    37 1.224670 0.000001 0.000000 0.008150 -0.000004 -0.000025
    38 2.630291 -0.359835 -1.904289 0.415078 0.423437 -0.720800
    39 1.059293 0.000000 0.000000 0.015101 0.038905 0.767148
    40 0.781204 0.000000 0.000000 0.004782 0.022537 0.418308
    41 -0.044717 2.528787 4.661499 -0.042719 0.000000 0.000000
  time 4
    0 -0.021881 -0.010152 35.973347 1.570626 0.000000 -0.746639
    1 3.890452 -0.000004 -0.000003 -2.214817 -0.314035 -1.255549
    2 17.848177 0.000000 0.000000 0.000000 0.000000 0.758890
    3 15.638507 0.000000 0.000000 0.036872 0.164722 -1.263311
    4 7.109929 0.000000 0.000000 -0.007119 -0.003131 -0.631738
    5 -3.890452 0.000004 0.000007 -1.509205 -0.256257 -1.649336
    6 17.848173 0.000000 0.000000 0.000000 0.000000 0.758155
    7 15.638511 0.000000 0.000000 0.034905 -0.065575 -1.429469
    8 7.109930 0.000000 0.000000 -0.081154 -0.003131 -0.631749
    9 0.000005 3.345128 -2.981901 1.570796 0.086293 1.570796
    10 4.018331 0.000000 0.000000 -0.013969 -0.119942 0.211969
    11 3.518565 0.000000 0.000000 -0.039210 -0.083509 0.333403
    12 8.942642 0.000000 0.000000 -0.078838 0.112907 0.222365
    13 3.306641 0.000002 0.000000 3.138800 0.000567 0.400476
    14 3.593712 -0.000001 0.000000 0.552341 -0.182495 0.780267
    15 2.033346 1.000768 1.101697 2.385451 -1.528127 2.146508
    16 6.809416 0.000001 0.000000 -2.343230 -0.913947 -0.331761
    17 12.391796 0.000000 0.000001 0.000000 0.000000 -1.123951
    18 9.337076 0.000000 -0.000031 -0.052754 0.484126 0.156065
    19 4.454020 -0.070210 0.572073 0.095490 -0.008587 -0.706335
    20 1.426597 -0.000001 0.000000 0.055908 -0.087976 -1.504206
    21 1.322468 -0.000002 0.000000 0.009312 -0.033625 -0.575065
    22 4.477066 -0.028570 1.582474 0.481653 -0.035390 -1.246096
    23 1.344418 0.000000 0.000000 0.023466 -0.208305 -0.755723
    24 1.224671 0.000000 0.000000 0.026043 -0.124620 -0.538676
    25 2.630323 -0.345015 1.907214 -0.354022 -0.915164 -1.788195
    26 1.059292 0.000000 0.000001 -0.001067 -0.012855 0.250988
    27 0.781203 0.000000 0.000000 -0.000096 -0.003210 0.062757
    28 2.033353 1.000771 -1.101647 -3.176988 1.193701 1.415651
    29 6.809417 0.000001 0.000000 1.023318 1.039295 -1.107378
    30 12.391794 0.000000 0.000001 0.000000 0.000000 -1.589788
    31 9.337102 0.000000 0.000003 -0.918288 0.160020 0.439225
    32 4.453986 -0.073766 -0.571672 0.047699 -0.153453 -0.767464
    33 1.426599 0.000002 0.000000 -0.053883 0.078890 -1.553256
    34 1.322465 -0.000001 0.000000 -0.013603 0.036958 -0.732277
    35 4.477036 -0.043465 -1.581290 -0.332631 0.218360 0.154973
    36 1.344414 0.000000 0.000000 -0.042629 0.220735 -0.851579
    37 1.224670 0.000001 0.000000 0.008150 -0.000004 -0.000025
    38 2.630291 -0.359835 -1.904289 0.415078 0.423437 -0.720800
    39 1.059293 0.000000 0.000000 0.015101 0.038905 0.767148
    40 0.781204 0.000000 0.000000 0.004782 0.022537 0.418308
    41 -0.044717 2.528787 4.661499 -0.042719 0.000000 0.000000
  time 5
    0 -0.021881 -0.010152 35.880720 1.570626 0.000000 -0.746639
    1 3.890452 -0.000004 -0.000003 -2.216440 -0.320612 -1.250662
    2 17.848177 0.000000 0.000000 0.000000 0.000000 0.774544
    3 15.638507 0.000000 0.000000 0.037031 0.164556 -1.270821
    4 7.109929 0.000000 0.000000 -0.007119 -0.003131 -0.631738
    5 -3.890452 0.000004 0.000007 -1.509110 -0.264080 -1.649998
    6 17.848173 0.000000 0.000000 0.000000 0.000000 0.774159
    7 15.638511 0.000000 0.000000 0.035090 -0.065666 -1.437682
    8 7.109930 0.000000 0.000000 -0.081154 -0.003131 -0.631749
    9 0.000005 3.345128 -2.981901 1.570796 0.086293 1.570796
    10 4.018331 0.000000 0.000000 -0.014534 -0.119894 0.216527
    11 3.518565 0.000000 0.000000 -0.039210 -0.083509 0.333403
    12 8.942642 0.000000 0.000000 -0.078838 0.112907 0.222365
    13 3.306641 0.000002 0.000000 3.138800 0.000567 0.400476
    14 3.593712 -0.000001 0.000000 0.608073 -0.180268 0.787863
    15 2.033346 1.000768 1.101697 2.385451 -1.528127 2.146508
    16 6.809416 0.000001 0.000000 -2.312532 -0.889048 -0.373223
    17 12.391796 0.000000 0.000001 0.000000 0.000000 -1.191208
    18 9.337076 0.000000 -0.000031 0.006666 0.467258 0.174124
    19 4.454020 -0.070210 0.572073 0.095490 -0.008587 -0.706335
    20 1.426597 -0.000001 0.000000 0.055908 -0.087976 -1.504206
    21 1.322468 -0.000002 0.000000 0.009312 -0.033625 -0.575065
    22 4.477066 -0.028570 1.582474 0.481653 -0.035390 -1.246096
    23 1.344418 0.000000 0.000000 0.023466 -0.208305 -0.755723
    24 1.224671 0.000000 0.000000 0.026043 -0.124620 -0.538676
    25 2.630323 -0.345015 1.907214 -0.354022 -0.915164 -1.788195
    26 1.059292 0.000000 0.000001 -0.001067 -0.012855 0.250988
    27 0.781203 0.000000 0.000000 -0.000096 -0.003210 0.062757
    28 2.033353 1.000771 -1.101647 -3.176988 1.193701 1.415651
    29 6.809417 0.000001 0.000000 0.960187 1.003205 -1.165272
    30 12.391794 0.000000 0.000001 0.000000 0.000000 -1.535490
    31 9.337102 0.000000 0.000003 -0.965077 0.221656 0.304007
    32 4.453986 -0.073766 -0.571672 0.047699 -0.153453 -0.767464
    33 1.426599 0.000002 0.000000 -0.053883 0.078890 -1.553256
    34 1.322465 -0.000001 0.000000 -0.013603 0.036958 -0.732277
    35 4.477036 -0.043465 -1.581290 -0.332631 0.218360 0.154973
    36 1.344414 0.000000 0.000000 -0.042629 0.220735 -0.851579
    37 1.224670 0.000001 0.000000 0.008150 -0.000004 -0.000025
    38 2.630291 -0.359835 -1.904289 0.415078 0.423437 -0.720800
    39 1.059293 0.000000 0.000000 0.015101 0.038905 0.767148
    40 0.781204 0.000000 0.000000 0.004782 0.022537 0.418308
    41 -0.044717 2.528787 4.661499 -0.042719 0.000000 0.000000
  time 6
    0 -0.021881 -0.010152 35.777800 1.570626 0.000000 -0.746639
    1 3.890452 -0.000004 -0.000003 -2.217967 -0.326904 -1.245870
    2 17.848177 0.000000 0.000000 0.000000 0.000000 0.789467
    3 15.638507 0.000000 0.000000 0.037220 0.164414 -1.278002
    4 7.109929 0.000000 0.000000 -0.007119 -0.003131 -0.631738
    5 -3.890452 0.000004 0.000007 -1.509014 -0.271559 -1.650660
    6 17.848173 0.000000 0.000000 0.000000 0.000000 0.789512
    7 15.638511 0.000000 0.000000 0.035183 -0.065757 -1.445513
    8 7.109930 0.000000 0.000000 -0.081154 -0.003131 -0.631749
    9 0.000005 3.345128 -2.981901 1.570796 0.086293 1.570796
    10 4.018331 0.000000 0.000000 -0.015054 -0.119846 0.220979
    11 3.518565 0.000000 0.000000 -0.039210 -0.083509 0.333403
    12 8.942642 0.000000 0.000000 -0.078838 0.112907 0.222365
    13 3.306641 0.000002 0.000000 3.138800 0.000567 0.400476
    14 3.593712 -0.000001 0.000000 0.662244 -0.178233 0.795418
    15 2.033346 1.000768 1.101697 2.385451 -1.528127 2.146508
    16 6.809416 0.000001 0.000000 -2.279635 -0.860718 -0.418283
    17 12.391796 0.000000 0.000001 0.000000 0.000000 -1.285432
    18 9.337076 0.000000 -0.000031 0.074295 0.447858 0.207588
    19 4.454020 -0.070210 0.572073 0.095490 -0.008587 -0.706366
    20 1.426597 -0.000001 0.000000 0.055908 -0.087976 -1.504206
    21 1.322468 -0.000002 0.000000 0.009312 -0.033625 -0.575065
    22 4.477066 -0.028570 1.582474 0.481653 -0.035390 -1.246096
    23 1.344418 0.000000 0.000000 0.023466 -0.208305 -0.755723
    24 1.224671 0.000000 0.000000 0.026043 -0.124620 -0.538676
    25 2.630323 -0.345015 1.907214 -0.354022 -0.915164 -1.788195
    26 1.059292 0.000000 0.000001 -0.001067 -0.012855 0.250988
    27 0.781203 0.000000 0.000000 -0.000096 -0.003210 0.062757
    28 2.033353 1.000771 -1.101647 -3.176988 1.193701 1.415651
    29 6.809417 0.000001 0.000000 0.905007 0.965933 -1.215166
    30 12.391794 0.000000 0.000001 0.000000 0.000000 -1.481981
    31 9.337102 0.000000 0.000003 -1.023642 0.282684 0.154370
    32 4.453986 -0.073766 -0.571672 0.047699 -0.153453 -0.767464
    33 1.426599 0.000002 0.000000 -0.053883 0.078890 -1.553256
    34 1.322465 -0.000001 0.000000 -0.013603 0.036958 -0.732277
    35 4.477036 -0.043465 -1.581290 -0.332631 0.218360 0.154973
    36 1.344414 0.000000 0.000000 -0.042629 0.220735 -0.851579
    37 1.224670 0.000001 0.000000 0.008150 -0.000004 -0.000025
    38 2.630291 -0.359835 -1.904289 0.415078 0.423437 -0.720800
    39 1.059293 0.000000 0.000000 0.015101 0.038905 0.767148
    40 0.781204 0.000000 0.000000 0.004782 0.022537 0.418308
    41 -0.044717 2.528787 4.661499 -0.042719 0.000000 0.000000
  time 7
    0 -0.021881 -0.010152 35.695465 1.570626 0.000000 -0.746639
    1 3.890452 -0.000004 -0.000003 -2.219494 -0.332819 -1.241462
    2 17.848177 0.000000 0.000000 0.000000 0.000000 0.803438
    3 15.638507 0.000000 0.000000 0.037379 0.164272 -1.284746
    4 7.109929 0.000000 0.000000 -0.007119 -0.003131 -0.631738
    5 -3.890452 0.000004 0.000007 -1.508919 -0.278594 -1.651322
    6 17.848173 0.000000 0.000000 0.000000 0.000000 0.803891
    7 15.638511 0.000000 0.000000 0.035368 -0.065848 -1.452866
    8 7.109930 0.000000 0.000000 -0.081154 -0.003131 -0.631749
    9 0.000005 3.345128 -2.981901 1.570796 0.086293 1.570796
    10 4.018331 0.000000 0.000000 -0.015574 -0.119798 0.225241
    11 3.518565 0.000000 0.000000 -0.039210 -0.083509 0.333403
    12 8.942642 0.000000 0.000000 -0.078838 0.112907 0.222365
    13 3.306641 0.000002 0.000000 3.138800 0.000567 0.400476
    14 3.593712 -0.000001 0.000000 0.714094 -0.176477 0.802762
    15 2.033346 1.000768 1.101697 2.385451 -1.528127 2.146508
    16 6.809416 0.000001 0.000000 -2.244060 -0.830525 -0.466939
    17 12.391796 0.000000 0.000001 0.000000 0.000000 -1.397317
    18 9.337076 0.000000 -0.000031 0.145849 0.426519 0.251264
    19 4.454020 -0.070210 0.572073 0.095490 -0.008587 -0.706366
    20 1.426597 -0.000001 0.000000 0.055908 -0.087976 -1.504206
    21 1.322468 -0.000002 0.000000 0.009312 -0.033625 -0.575065
    22 4.477066 -0.028570 1.582474 0.481653 -0.035390 -1.246096
    23 1.344418 0.000000 0.000000 0.023466 -0.208305 -0.755723
    24 1.224671 0.000000 0.000000 0.026043 -0.124620 -0.538676
    25 2.630323 -0.345015 1.907214 -0.354022 -0.915164 -1.788195
    26 1.059292 0.000000 0.000001 -0.001067 -0.012855 0.250988
    27 0.781203 0.000000 0.000000 -0.000096 -0.003210 0.062757
    28 2.033353 1.000771 -1.101647 -3.176988 1.193701 1.415651
    29 6.809417 0.000001 0.000000 0.857967 0.928966 -1.257146
    30 12.391794 0.000000 0.000001 0.000000 0.000000 -1.430914
    31 9.337102 0.000000 0.000003 -1.092064 0.336402 -0.002088
    32 4.453986 -0.073766 -0.571672 0.047699 -0.153453 -0.767464
    33 1.426599 0.000002 0.000000 -0.053883 0.078890 -1.553256
    34 1.322465 -0.000001 0.000000 -0.013603 0.036958 -0.732277
    35 4.477036 -0.043465 -1.581290 -0.332631 0.218360 0.154973
    36 1.344414 0.000000 0.000000 -0.042629 0.220735 -0.851579
    37 1.224670 0.000001 0.000000 0.008150 -0.000004 -0.000025
    38 2.630291 -0.359835 -1.904289 0.415078 0.423437 -0.720800
    39 1.059293 0.000000 0.000000 0.015101 0.038905 0.767148
    40 0.781204 0.000000 0.000000 0.004782 0.022537 0.418308
    41 -0.044717 2.528787 4.661499 -0.042719 0.000000 0.000000
  time 8
    0 -0.021881 -0.010152 35.602837 1.570626 0.000000 -0.746639
    1 3.890452 -0.000004 -0.000003 -2.220925 -0.338260 -1.237341
    2 17.848177 0.000000 0.000000 0.000000 0.000000 0.816386
    3 15.638507 0.000000 0.000000 0.037505 0.164154 -1.290943
    4 7.109929 0.000000 0.000000 -0.007119 -0.003131 -0.631738
    5 -3.890452 0.000004 0.000007 -1.508824 -0.285089 -1.651890
    6 17.848173 0.000000 0.000000 0.000000 0.000000 0.817213
    7 15.638511 0.000000 0.000000 0.035461 -0.065940 -1.459646
    8 7.109930 0.000000 0.000000 -0.081154 -0.003131 -0.631749
    9 0.000005 3.345128 -2.981901 1.570796 0.086293 1.570796
    10 4.018331 0.000000 0.000000 -0.016048 -0.119738 0.229224
    11 3.518565 0.000000 0.000000 -0.039210 -0.083509 0.333403
    12 8.942642 0.000000 0.000000 -0.078838 0.112907 0.222365
    13 3.306641 0.000002 0.000000 3.138800 0.000567 0.400476
    14 3.593712 -0.000001 0.000000 0.762654 -0.174957 0.809771
    15 2.033346 1.000768 1.101697 2.385451 -1.528127 2.146508
    16 6.809416 0.000001 0.000000 -2.206381 -0.800382 -0.517300
    17 12.391796 0.000000 0.000001 0.000000 0.000000 -1.515037
    18 9.337076 0.000000 -0.000031 0.216778 0.404061 0.298863
    19 4.454020 -0.070210 0.572073 0.095490 -0.008587 -0.706366
    20 1.426597 -0.000001 0.000000 0.055908 -0.087976 -1.504206
    21 1.322468 -0.000002 0.000000 0.009312 -0.033625 -0.575065
    22 4.477066 -0.028570 1.582474 0.481653 -0.035390 -1.246096
    23 1.344418 0.000000 0.000000 0.023466 -0.208305 -0.755723
    24 1.224671 0.000000 0.000000 0.026043 -0.124620 -0.538676
    25 2.630323 -0.345015 1.907214 -0.354022 -0.915164 -1.788195
    26 1.059292 0.000000 0.000001 -0.001067 -0.012855 0.250988
    27 0.781203 0.000000 0.000000 -0.000096 -0.003210 0.062757
    28 2.033353 1.000771 -1.101647 -3.176988 1.193701 1.415651
    29 6.809417 0.000001 0.000000 0.818783 0.893971 -1.291470
    30 12.391794 0.000000 0.000001 0.000000 0.000000 -1.383798
    31 9.337102 0.000000 0.000003 -1.165350 0.377899 -0.156388
    32 4.453986 -0.073766 -0.571672 0.047699 -0.153453 -0.767464
    33 1.426599 0.000002 0.000000 -0.053883 0.078890 -1.553256
    34 1.322465 -0.000001 0.000000 -0.013603 0.036958 -0.732277
    35 4.477036 -0.043465 -1.581290 -0.332631 0.218360 0.154973
    36 1.344414 0.000000 0.000000 -0.042629 0.220735 -0.851579
    37 1.224670 0.000001 0.000000 0.008150 -0.000004 -0.000025
    38 2.630291 -0.359835 -1.904289 0.415078 0.423437 -0.720800
    39 1.059293 0.000000 0.000000 0.015101 0.038905 0.767148
    40 0.781204 0.000000 0.000000 0.004782 0.022537 0.418308
    41 -0.044717 2.528787 4.661499 -0.042719 0.000000 0.000000
  time 9
    0 -0.021881 -0.010152 35.530794 1.570626 0.000000 -0.746639
    1 3.890452 -0.000004 -0.000003 -2.222262 -0.343180 -1.233507
    2 17.848177 0.000000 0.000000 0.000000 0.000000 0.828090
    3 15.638507 0.000000 0.000000 0.037632 0.164013 -1.296520
    4 7.109929 0.000000 0.000000 -0.007119 -0.003131 -0.631738
    5 -3.890452 0.000004 0.000007 -1.508728 -0.290993 -1.652363
    6 17.848173 0.000000 0.000000 0.000000 0.000000 0.829155
    7 15.638511 0.000000 0.000000 0.035646 -0.066031 -1.465758
    8 7.109930 0.000000 0.000000 -0.081154 -0.003131 -0.631749
    9 0.000005 3.345128 -2.981901 1.570796 0.086293 1.570796
    10 4.018331 0.000000 0.000000 -0.016501 -0.119702 0.232876
    11 3.518565 0.000000 0.000000 -0.039210 -0.083509 0.333403
    12 8.942642 0.000000 0.000000 -0.078838 0.112907 0.222365
    13 3.306641 0.000002 0.000000 3.138800 0.000567 0.400476
    14 3.593712 -0.000001 0.000000 0.807121 -0.173715 0.816276
    15 2.033346 1.000768 1.101697 2.385451 -1.528127 2.146508
    16 6.809416 0.000001 0.000000 -2.168320 -0.771660 -0.566524
    17 12.391796 0.000000 0.000001 0.000000 0.000000 -1.625897
    18 9.337076 0.000000 -0.000031 0.281909 0.381833 0.343519
    19 4.454020 -0.070210 0.572073 0.095490 -0.008587 -0.706366
    20 1.426597 -0.000001 0.000000 0.055908 -0.087976 -1.504206
    21 1.322468 -0.000002 0.000000 0.009312 -0.033625 -0.575065
    22 4.477066 -0.028570 1.582474 0.481653 -0.035390 -1.246096
    23 1.344418 0.000000 0.000000 0.023466 -0.208305 -0.755723
    24 1.224671 0.000000 0.000000 0.026043 -0.124620 -0.538676
    25 2.630323 -0.345015 1.907214 -0.354022 -0.915164 -1.788195
    26 1.059292 0.000000 0.000001 -0.001067 -0.012855 0.250988
    27 0.781203 0.000000 0.000000 -0.000096 -0.003210 0.062757
    28 2.033353 1.000771 -1.101647 -3.176988 1.193701 1.415651
    29 6.809417 0.000001 0.000000 0.787075 0.862524 -1.318739
    30 12.391794 0.000000 0.000001 0.000000 0.000000 -1.342140
    31 9.337102 0.000000 0.000003 -1.236140 0.405158 -0.296873
    32 4.453986 -0.073766 -0.571672 0.047699 -0.153453 -0.767464
    33 1.426599 0.000002 0.000000 -0.053883 0.078890 -1.553256
    34 1.322465 -0.000001 0.000000 -0.013603 0.036958 -0.732277
    35 4.477036 -0.043465 -1.581290 -0.332631 0.218360 0.154973
    36 1.344414 0.000000 0.000000 -0.042629 0.220735 -0.851579
    37 1.224670 0.000001 0.000000 0.008150 -0.000004 -0.000025
    38 2.630291 -0.359835 -1.904289 0.415078 0.423437 -0.720800
    39 1.059293 0.000000 0.000000 0.015101 0.038905 0.767148
    40 0.781204 0.000000 0.000000 0.004782 0.022537 0.418308
    41 -0.044717 2.528787 4.661499 -0.042719 0.000000 0.000000
  time 10
    0 -0.021881 -0.010152 35.458750 1.570626 0.000000 -0.746639
    1 3.890452 -0.000004 -0.000003 -2.223407 -0.347533 -1.230249
    2 17.848177 0.000000 0.000000 0.000000 0.000000 0.838331
    3 15.638507 0.000000 0.000000 0.037759 0.163918 -1.301405
    4 7.109929 0.000000 0.000000 -0.007119 -0.003131 -0.631738
    5 -3.890452 0.000004 0.000007 -1.508633 -0.296110 -1.652836
    6 17.848173 0.000000 0.000000 0.000000 0.000000 0.839715
    7 15.638511 0.000000 0.000000 0.035739 -0.066076 -1.471106
    8 7.109930 0.000000 0.000000 -0.081154 -0.003131 -0.631749
    9 0.000005 3.345128 -2.981901 1.570796 0.086293 1.570796
    10 4.018331 0.000000 0.000000 -0.016885 -0.119654 0.236129
    11 3.518565 0.000000 0.000000 -0.039210 -0.083509 0.333403
    12 8.942642 0.000000 0.000000 -0.078838 0.112907 0.222365
    13 3.306641 0.000002 0.000000 3.138800 0.000567 0.400476
    14 3.593712 -0.000001 0.000000 0.846568 -0.172708 0.822109
    15 2.033346 1.000768 1.101697 2.385451 -1.528127 2.146508
    16 6.809416 0.000001 0.000000 -2.132650 -0.745045 -0.611489
    17 12.391796 0.000000 0.000001 0.000000 0.000000 -1.717360
    18 9.337076 0.000000 -0.000031 0.334994 0.361579 0.377964
    19 4.454020 -0.070210 0.572073 0.095490 -0.008587 -0.706366
    20 1.426597 -0.000001 0.000000 0.055908 -0.087976 -1.504206
    21 1.322468 -0.000002 0.000000 0.009312 -0.033625 -0.575065
    22 4.477066 -0.028570 1.582474 0.481653 -0.035390 -1.246096
    23 1.344418 0.000000 0.000000 0.023466 -0.208305 -0.755723
    24 1.224671 0.000000 0.000000 0.026043 -0.124620 -0.538676
    25 2.630323 -0.345015 1.907214 -0.354022 -0.915164 -1.788195
    26 1.059292 0.000000 0.000001 -0.001067 -0.012855 0.250988
    27 0.781203 0.000000 0.000000 -0.000096 -0.003210 0.062757
    28 2.033353 1.000771 -1.101647 -3.176988 1.193701 1.415651
    29 6.809417 0.000001 0.000000 0.762751 0.836244 -1.339385
    30 12.391794 0.000000 0.000001 0.000000 0.000000 -1.307593
    31 9.337102 0.000000 0.000003 -1.295793 0.419054 -0.410936
    32 4.453986 -0.073766 -0.571672 0.047699 -0.153453 -0.767464
    33 1.426599 0.000002 0.000000 -0.053883 0.078890 -1.553256
    34 1.322465 -0.000001 0.000000 -0.013603 0.036958 -0.732277
    35 4.477036 -0.043465 -1.581290 -0.332631 0.218360 0.154973
    36 1.344414 0.000000 0.000000 -0.042629 0.220735 -0.851579
    37 1.224670 0.000001 0.000000 0.008150 -0.000004 -0.000025
    38 2.630291 -0.359835 -1.904289 0.415078 0.423437 -0.720800
    39 1.059293 0.000000 0.000000 0.015101 0.038905 0.767148
    40 0.781204 0.000000 0.000000 0.004782 0.022537 0.418308
    41 -0.044717 2.528787 4.661499 -0.042719 0.000000 0.000000
  time 11
    0 -0.021881 -0.081254 35.469042 1.570626 0.000092 -0.746639
    1 3.890452 -0.000004 -0.000003 -2.223121 -0.344505 -1.231686
    2 17.848177 0.000000 0.000000 0.000000 0.000000 0.835551
    3 15.638507 0.000000 0.000000 0.037632 0.164603 -1.301952
    4 7.109929 0.000000 0.000000 -0.007119 -0.003131 -0.631738
    5 -3.890452 0.000004 0.000007 -1.508919 -0.294191 -1.653119
    6 17.848173 0.000000 0.000000 0.000000 0.000000 0.836466
    7 15.638511 0.000000 0.000000 0.036387 -0.066213 -1.469769
    8 7.109930 0.000000 0.000000 -0.081154 -0.003131 -0.631749
    9 0.000005 3.345128 -2.981901 1.576508 0.083627 1.570796
    10 4.018331 0.000000 0.000000 -0.017088 -0.119630 0.237816
    11 3.518565 0.000000 0.000000 -0.039210 -0.083509 0.333403
    12 8.942642 0.000000 0.000000 -0.078838 0.112907 0.222365
    13 3.306641 0.000002 0.000000 3.138800 0.000567 0.400476
    14 3.593712 -0.000001 0.000000 0.861461 -0.174679 0.827733
    15 2.033346 1.000768 1.101697 2.385451 -1.528127 2.146508
    16 6.809416 0.000001 0.000000 -2.129016 -0.739360 -0.616412
    17 12.391796 0.000000 0.000001 0.000000 0.000000 -1.743144
    18 9.337076 0.000000 -0.000031 0.351500 0.359277 0.386330
    19 4.454020 -0.070210 0.572073 0.095490 -0.008587 -0.706366
    20 1.426597 -0.000001 0.000000 0.055908 -0.087976 -1.504206
    21 1.322468 -0.000002 0.000000 0.009312 -0.033625 -0.575065
    22 4.477066 -0.028570 1.582474 0.481653 -0.035390 -1.246096
    23 1.344418 0.000000 0.000000 0.023466 -0.208305 -0.755723
    24 1.224671 0.000000 0.000000 0.026043 -0.124620 -0.538676
    25 2.630323 -0.345015 1.907214 -0.354022 -0.915164 -1.788195
    26 1.059292 0.000000 0.000001 -0.001067 -0.012855 0.250988
    27 0.781203 0.000000 0.000000 -0.000096 -0.003210 0.062757
    28 2.033353 1.000771 -1.101647 -3.176988 1.193701 1.415651
    29 6.809417 0.000001 0.000000 0.753854 0.831426 -1.355386
    30 12.391794 0.000000 0.000001 0.000000 0.000000 -1.290068
    31 9.337102 0.000000 0.000003 -1.319604 0.419930 -0.452554
    32 4.453986 -0.073766 -0.571672 0.047699 -0.153453 -0.767464
    33 1.426599 0.000002 0.000000 -0.053883 0.078890 -1.553256
    34 1.322465 -0.000001 0.000000 -0.013603 0.036958 -0.732277
    35 4.477036 -0.043465 -1.581290 -0.332631 0.218360 0.154973
    36 1.344414 0.000000 0.000000 -0.042629 0.220735 -0.851579
    37 1.224670 0.000001 0.000000 0.008150 -0.000004 -0.000025
    38 2.630291 -0.359835 -1.904289 0.415078 0.423437 -0.720800
    39 1.059293 0.000000 0.000000 0.015101 0.038905 0.767148
    40 0.781204 0.000000 0.000000 0.004782 0.022537 0.418308
    41 -0.044717 2.528787 4.661499 -0.039986 0.005718 -0.000441
  time 12
    0 -0.021881 -0.203143 35.561669 1.570626 0.000277 -0.746639
    1 3.890452 -0.000004 -0.000003 -2.221498 -0.335421 -1.237149
    2 17.848177 0.000000 0.000000 0.000000 0.000000 0.821360
    3 15.638507 0.000000 0.000000 0.037252 0.165880 -1.298307
    4 7.109929 0.000000 0.000000 -0.007119 -0.003131 -0.631738
    5 -3.890452 0.000004 0.000007 -1.509491 -0.286122 -1.653119
    6 17.848173 0.000000 0.000000 0.000000 0.000000 0.821112
    7 15.638511 0.000000 0.000000 0.037221 -0.066395 -1.462511
    8 7.109930 0.000000 0.000000 -0.081154 -0.003131 -0.631749
    9 0.000005 3.345128 -2.981901 1.586154 0.079146 1.570796
    10 4.018331 0.000000 0.000000 -0.017066 -0.119630 0.237607
    11 3.518565 0.000000 0.000000 -0.039210 -0.083509 0.333403
    12 8.942642 0.000000 0.000000 -0.078838 0.112907 0.222365
    13 3.306641 0.000002 0.000000 3.138800 0.000567 0.400476
    14 3.593712 -0.000001 0.000000 0.849564 -0.178769 0.831636
    15 2.033346 1.000768 1.101697 2.385451 -1.528127 2.146508
    16 6.809416 0.000001 0.000000 -2.156940 -0.755632 -0.582144
    17 12.391796 0.000000 0.000001 0.000000 0.000000 -1.707505
    18 9.337076 0.000000 -0.000031 0.334548 0.374008 0.373175
    19 4.454020 -0.070210 0.572073 0.095490 -0.008587 -0.706335
    20 1.426597 -0.000001 0.000000 0.055908 -0.087976 -1.504206
    21 1.322468 -0.000002 0.000000 0.009312 -0.033625 -0.575065
    22 4.477066 -0.028570 1.582474 0.481653 -0.035390 -1.246096
    23 1.344418 0.000000 0.000000 0.023466 -0.208305 -0.755723
    24 1.224671 0.000000 0.000000 0.026043 -0.124620 -0.538676
    25 2.630323 -0.345015 1.907214 -0.354022 -0.915164 -1.788195
    26 1.059292 0.000000 0.000001 -0.001067 -0.012855 0.250988
    27 0.781203 0.000000 0.000000 -0.000096 -0.003210 0.062757
    28 2.033353 1.000771 -1.101647 -3.176988 1.193701 1.415651
    29 6.809417 0.000001 0.000000 0.759438 0.846800 -1.364934
    30 12.391794 0.000000 0.000001 0.000000 0.000000 -1.291432
    31 9.337102 0.000000 0.000003 -1.307827 0.414524 -0.424924
    32 4.453986 -0.073766 -0.571672 0.047699 -0.153453 -0.767464
    33 1.426599 0.000002 0.000000 -0.053883 0.078890 -1.553256
    34 1.322465 -0.000001 0.000000 -0.013603 0.036958 -0.732277
    35 4.477036 -0.043465 -1.581290 -0.332631 0.218360 0.154973
    36 1.344414 0.000000 0.000000 -0.042629 0.220735 -0.851579
    37 1.224670 0.000001 0.000000 0.008150 -0.000004 -0.000025
    38 2.630291 -0.359835 -1.904289 0.415078 0.423437 -0.720800
    39 1.059293 0.000000 0.000000 0.015101 0.038905 0.767148
    40 0.781204 0.000000 0.000000 0.004782 0.022537 0.418308
    41 -0.044717 2.528787 4.661499 -0.035561 0.015312 -0.001162
  time 13
    0 -0.021881 -0.223457 35.592545 1.570626 0.000323 -0.746639
    1 3.890452 -0.000004 -0.000003 -2.220830 -0.332345 -1.239162
    2 17.848177 0.000000 0.000000 0.000000 0.000000 0.815581
    3 15.638507 0.000000 0.000000 0.037157 0.166140 -1.296156
    4 7.109929 0.000000 0.000000 -0.007119 -0.003131 -0.631738
    5 -3.890452 0.000004 0.000007 -1.509586 -0.283023 -1.653025
    6 17.848173 0.000000 0.000000 0.000000 0.000000 0.815020
    7 15.638511 0.000000 0.000000 0.037407 -0.066440 -1.459551
    8 7.109930 0.000000 0.000000 -0.081154 -0.003131 -0.631749
    9 0.000005 3.345128 -2.981901 1.588040 0.078239 1.570796
    10 4.018331 0.000000 0.000000 -0.016953 -0.119642 0.236668
    11 3.518565 0.000000 0.000000 -0.039210 -0.083509 0.333403
    12 8.942642 0.000000 0.000000 -0.078838 0.112907 0.222365
    13 3.306641 0.000002 0.000000 3.138800 0.000567 0.400476
    14 3.593712 -0.000001 0.000000 0.836147 -0.179861 0.830796
    15 2.033346 1.000768 1.101697 2.385451 -1.528127 2.146508
    16 6.809416 0.000001 0.000000 -2.172719 -0.766513 -0.562359
    17 12.391796 0.000000 0.000001 0.000000 0.000000 -1.676596
    18 9.337076 0.000000 -0.000031 0.318310 0.382195 0.362270
    19 4.454020 -0.070210 0.572073 0.095490 -0.008587 -0.706335
    20 1.426597 -0.000001 0.000000 0.055908 -0.087976 -1.504206
    21 1.322468 -0.000002 0.000000 0.009312 -0.033625 -0.575065
    22 4.477066 -0.028570 1.582474 0.481653 -0.035390 -1.246096
    23 1.344418 0.000000 0.000000 0.023466 -0.208305 -0.755723
    24 1.224671 0.000000 0.000000 0.026043 -0.124620 -0.538676
    25 2.630323 -0.345015 1.907214 -0.354022 -0.915164 -1.788195
    26 1.059292 0.000000 0.000001 -0.001067 -0.012855 0.250988
    27 0.781203 0.000000 0.000000 -0.000096 -0.003210 0.062757
    28 2.033353 1.000771 -1.101647 -3.176988 1.193701 1.415651
    29 6.809417 0.000001 0.000000 0.766915 0.856874 -1.361407
    30 12.391794 0.000000 0.000001 0.000000 0.000000 -1.300841
    31 9.337102 0.000000 0.000003 -1.290289 0.410983 -0.390472
    32 4.453986 -0.073766 -0.571672 0.047699 -0.153453 -0.767464
    33 1.426599 0.000002 0.000000 -0.053883 0.078890 -1.553256
    34 1.322465 -0.000001 0.000000 -0.013603 0.036958 -0.732277
    35 4.477036 -0.043465 -1.581290 -0.332631 0.218360 0.154973
    36 1.344414 0.000000 0.000000 -0.042629 0.220735 -0.851579
    37 1.224670 0.000001 0.000000 0.008150 -0.000004 -0.000025
    38 2.630291 -0.359835 -1.904289 0.415078 0.423437 -0.720800
    39 1.059293 0.000000 0.000000 0.015101 0.038905 0.767148
    40 0.781204 0.000000 0.000000 0.004782 0.022537 0.418308
    41 -0.044717 2.528787 4.661499 -0.034715 0.017218 -0.001323
  time 14
    0 -0.021881 -0.010152 35.458750 1.570626 0.000000 -0.746639
    1 3.890452 -0.000004 -0.000003 -2.223407 -0.347533 -1.230249
    2 17.848177 0.000000 0.000000 0.000000 0.000000 0.838331
    3 15.638507 0.000000 0.000000 0.037759 0.163918 -1.301405
    4 7.109929 0.000000 0.000000 -0.007119 -0.003131 -0.631738
    5 -3.890452 0.000004 0.000007 -1.508633 -0.296110 -1.652836
    6 17.848173 0.000000 0.000000 0.000000 0.000000 0.839715
    7 15.638511 0.000000 0.000000 0.035739 -0.066076 -1.471106
    8 7.109930 0.000000 0.000000 -0.081154 -0.003131 -0.631749
    9 0.000005 3.345128 -2.981901 1.570796 0.086293 1.570796
    10 4.018331 0.000000 0.000000 -0.016885 -0.119654 0.236129
    11 3.518565 0.000000 0.000000 -0.039210 -0.083509 0.333403
    12 8.942642 0.000000 0.000000 -0.078838 0.112907 0.222365
    13 3.306641 0.000002 0.000000 3.138800 0.000567 0.400476
    14 3.593712 -0.000001 0.000000 0.846568 -0.172708 0.822109
    15 2.033346 1.000768 1.101697 2.385451 -1.528127 2.146508
    16 6.809416 0.000001 0.000000 -2.132650 -0.745045 -0.611489
    17 12.391796 0.000000 0.000001 0.000000 0.000000 -1.717360
    18 9.337076 0.000000 -0.000031 0.334994 0.361579 0.377964
    19 4.454020 -0.070210 0.572073 0.095490 -0.008587 -0.706366
    20 1.426597 -0.000001 0.000000 0.055908 -0.087976 -1.504206
    21 1.322468 -0.000002 0.000000 0.009312 -0.033625 -0.575065
    22 4.477066 -0.028570 1.582474 0.481653 -0.035390 -1.246096
    23 1.344418 0.000000 0.000000 0.023466 -0.208305 -0.755723
    24 1.224671 0.000000 0.000000 0.026043 -0.124620 -0.538676
    25 2.630323 -0.345015 1.907214 -0.354022 -0.915164 -1.788195
    26 1.059292 0.000000 0.000001 -0.001067 -0.012855 0.250988
    27 0.781203 0.000000 0.000000 -0.000096 -0.003210 0.062757
    28 2.033353 1.000771 -1.101647 -3.176988 1.193701 1.415651
    29 6.809417 0.000001 0.000000 0.762751 0.836244 -1.339385
    30 12.391794 0.000000 0.000001 0.000000 0.000000 -1.307593
    31 9.337102 0.000000 0.000003 -1.295793 0.419054 -0.410936
    32 4.453986 -0.073766 -0.571672 0.047699 -0.153453 -0.767464
    33 1.426599 0.000002 0.000000 -0.053883 0.078890 -1.553256
    34 1.322465 -0.000001 0.000000 -0.013603 0.036958 -0.732277
    35 4.477036 -0.043465 -1.581290 -0.332631 0.218360 0.154973
    36 1.344414 0.000000 0.000000 -0.042629 0.220735 -0.851579
    37 1.224670 0.000001 0.000000 0.008150 -0.000004 -0.000025
    38 2.630291 -0.359835 -1.904289 0.415078 0.423437 -0.720800
    39 1.059293 0.000000 0.000000 0.015101 0.038905 0.767148
    40 0.781204 0.000000 0.000000 0.004782 0.022537 0.418308
    41 -0.044717 2.528787 4.661499 -0.042719 0.000000 0.000000
  time 15
    0 -0.021881 1.269678 34.583935 1.570626 -0.001848 -0.746639
    1 3.890452 -0.000004 -0.000003 -2.240681 -0.436293 -1.176198
    2 17.848177 0.000000 0.000000 0.000000 0.000000 0.965684
    3 15.638507 0.000000 0.000000 0.039436 0.149714 -1.326668
    4 7.109929 0.000000 0.000000 -0.007119 -0.003131 -0.631738
    5 -3.890452 0.000004 0.000007 -1.501196 -0.371832 -1.650187
    6 17.848173 0.000000 0.000000 0.000000 0.000000 0.979765
    7 15.638511 0.000000 0.000000 0.023139 -0.063346 -1.535091
    8 7.109930 0.000000 0.000000 -0.081154 -0.003131 -0.631749
    9 0.003911 3.345128 -2.981901 1.470888 0.132890 1.567959
    10 4.018331 0.000000 0.000000 -0.017292 -0.125311 0.242182
    11 3.518565 0.000000 0.000000 -0.039210 -0.083509 0.333403
    12 8.942642 0.000000 0.000000 -0.078838 0.112907 0.222365
    13 3.306641 0.000002 0.000000 3.138800 0.000567 0.400476
    14 3.593712 -0.000001 0.000000 0.945375 -0.134591 0.785555
    15 2.033346 1.000768 1.101697 2.385451 -1.528127 2.146508
    16 6.809416 0.000001 0.000000 -1.892997 -0.579084 -0.910434
    17 12.391796 0.000000 0.000001 0.000000 0.000000 -1.985995
    18 9.337076 0.000000 -0.000031 0.497017 0.217692 0.460815
    19 4.454020 -0.070210 0.572073 0.095490 -0.008587 -0.706366
    20 1.426597 -0.000001 0.000000 0.055908 -0.087976 -1.504206
    21 1.322468 -0.000002 0.000000 0.009312 -0.033625 -0.575065
    22 4.477066 -0.028570 1.582474 0.481653 -0.035390 -1.246096
    23 1.344418 0.000000 0.000000 0.023466 -0.208305 -0.755723
    24 1.224671 0.000000 0.000000 0.026043 -0.124620 -0.538676
    25 2.630323 -0.345015 1.907214 -0.354022 -0.915164 -1.788195
    26 1.059292 0.000000 0.000001 -0.001067 -0.012855 0.250988
    27 0.781203 0.000000 0.000000 -0.000096 -0.003210 0.062757
    28 2.033353 1.000771 -1.101647 -3.176988 1.193701 1.415651
    29 6.809417 0.000001 0.000000 0.703974 0.699855 -1.238565
    30 12.391794 0.000000 0.000001 0.000000 0.000000 -1.313267
    31 9.337102 0.000000 0.000003 -1.381497 0.461122 -0.618338
    32 4.453986 -0.073766 -0.571672 0.047699 -0.153453 -0.767464
    33 1.426599 0.000002 0.000000 -0.053883 0.078890 -1.553256
    34 1.322465 -0.000001 0.000000 -0.013603 0.036958 -0.732277
    35 4.477036 -0.043465 -1.581290 -0.332631 0.218360 0.154973
    36 1.344414 0.000000 0.000000 -0.042629 0.220735 -0.851579
    37 1.224670 0.000001 0.000000 0.008150 -0.000004 -0.000025
    38 2.630291 -0.359835 -1.904289 0.415078 0.423437 -0.720800
    39 1.059293 0.000000 0.000000 0.015101 0.038905 0.767148
    40 0.781204 0.000000 0.000000 0.004782 0.022537 0.418308
    41 -0.044717 2.528787 4.661499 -0.089958 -0.099049 0.010381
  time 16
    0 -0.021881 2.285416 33.842915 1.570626 -0.003465 -0.746639
    1 3.890452 -0.000004 -0.000003 -2.255188 -0.503904 -1.135181
    2 17.848177 0.000000 0.000000 0.000000 0.000000 1.062387
    3 15.638507 0.000000 0.000000 0.038961 0.136076 -1.346972
    4 7.109929 0.000000 0.000000 -0.007119 -0.003131 -0.631738
    5 -3.890452 0.000004 0.000007 -1.494999 -0.423543 -1.649052
    6 17.848173 0.000000 0.000000 0.000000 0.000000 1.081877
    7 15.638511 0.000000 0.000000 0.013688 -0.061662 -1.585228
    8 7.109930 0.000000 0.000000 -0.081154 -0.003131 -0.631749
    9 0.007818 3.345128 -2.981901 1.386015 0.172056 1.561812
    10 4.018331 0.000000 0.000000 -0.016907 -0.119654 0.236407
    11 3.518565 0.000000 0.000000 -0.039210 -0.083509 0.333403
    12 8.942642 0.000000 0.000000 -0.078838 0.112907 0.222365
    13 3.306641 0.000002 0.000000 3.138800 0.000567 0.400476
    14 3.593712 -0.000001 0.000000 1.025703 -0.087543 0.749421
    15 2.033346 1.000768 1.101697 2.385451 -1.528127 2.146508
    16 6.809416 0.000001 0.000000 -1.671897 -0.440767 -1.180222
    17 12.391796 0.000000 0.000001 0.000000 0.000000 -2.183903
    18 9.337076 0.000000 -0.000031 0.740675 0.064269 0.488855
    19 4.454020 -0.070210 0.572073 0.095490 -0.008587 -0.706335
    20 1.426597 -0.000001 0.000000 0.055908 -0.087976 -1.504206
    21 1.322468 -0.000002 0.000000 0.009312 -0.033625 -0.575065
    22 4.477066 -0.028570 1.582474 0.481653 -0.035390 -1.246096
    23 1.344418 0.000000 0.000000 0.023466 -0.208305 -0.755723
    24 1.224671 0.000000 0.000000 0.026043 -0.124620 -0.538676
    25 2.630323 -0.345015 1.907214 -0.354022 -0.915164 -1.788195
    26 1.059292 0.000000 0.000001 -0.001067 -0.012855 0.250988
    27 0.781203 0.000000 0.000000 -0.000096 -0.003210 0.062757
    28 2.033353 1.000771 -1.101647 -3.176988 1.193701 1.415651
    29 6.809417 0.000001 0.000000 0.659489 0.599468 -1.121486
    30 12.391794 0.000000 0.000001 0.000000 0.000000 -1.317792
    31 9.337102 0.000000 0.000003 -1.480002 0.486668 -0.840074
    32 4.453986 -0.073766 -0.571672 0.047699 -0.153453 -0.767464
    33 1.426599 0.000002 0.000000 -0.053883 0.078890 -1.553256
    34 1.322465 -0.000001 0.000000 -0.013603 0.036958 -0.732277
    35 4.477036 -0.043465 -1.581290 -0.332631 0.218360 0.154973
    36 1.344414 0.000000 0.000000 -0.042629 0.220735 -0.851579
    37 1.224670 0.000001 0.000000 0.008150 -0.000004 -0.000025
    38 2.630291 -0.359835 -1.904289 0.415078 0.423437 -0.720800
    39 1.059293 0.000000 0.000000 0.015101 0.038905 0.767148
    40 0.781204 0.000000 0.000000 0.004782 0.022537 0.418308
    41 -0.044717 2.528787 4.661499 -0.131406 -0.182023 0.022966
  time 17
    0 -0.021881 1.482983 34.223717 1.570626 -0.002633 -0.746639
    1 3.890452 -0.000004 -0.000003 -2.243640 -0.458057 -1.168244
    2 17.848177 0.000000 0.000000 0.000000 0.000000 1.023325
    3 15.638507 0.000000 0.000000 0.041272 0.142505 -1.362137
    4 7.109929 0.000000 0.000000 -0.007119 -0.003131 -0.631738
    5 -3.890452 0.000004 0.000007 -1.501578 -0.378917 -1.660971
    6 17.848173 0.000000 0.000000 0.000000 0.000000 1.022982
    7 15.638511 0.000000 0.000000 0.031292 -0.068716 -1.571190
    8 7.109930 0.000000 0.000000 -0.081154 -0.003131 -0.631749
    9 0.007818 3.345128 -2.981901 1.430904 0.151409 1.565476
    10 4.018331 0.000000 0.000000 -0.015167 -0.080189 0.195446
    11 3.518565 0.000000 0.000000 -0.039210 -0.083509 0.333403
    12 8.942642 0.000000 0.000000 -0.078838 0.112907 0.222365
    13 3.306641 0.000002 0.000000 3.138800 0.000567 0.400476
    14 3.593712 -0.000001 0.000000 0.977650 -0.064287 0.731879
    15 2.033346 1.000768 1.101697 2.385451 -1.528127 2.146508
    16 6.809416 0.000001 0.000000 -1.669315 -0.573791 -1.116988
    17 12.391796 0.000000 0.000001 0.000000 0.000000 -2.196125
    18 9.337076 0.000000 -0.000031 0.766995 0.048388 0.554282
    19 4.454020 -0.070210 0.572073 0.095490 -0.008587 -0.706335
    20 1.426597 -0.000001 0.000000 0.055908 -0.087976 -1.504206
    21 1.322468 -0.000002 0.000000 0.009312 -0.033625 -0.575065
    22 4.477066 -0.028570 1.582474 0.481653 -0.035390 -1.246096
    23 1.344418 0.000000 0.000000 0.023466 -0.208305 -0.755723
    24 1.224671 0.000000 0.000000 0.026043 -0.124620 -0.538676
    25 2.630323 -0.345015 1.907214 -0.354022 -0.915164 -1.788195
    26 1.059292 0.000000 0.000001 -0.001067 -0.012855 0.250988
    27 0.781203 0.000000 0.000000 -0.000096 -0.003210 0.062757
    28 2.033353 1.000771 -1.101647 -3.176988 1.193701 1.415651
    29 6.809417 0.000001 0.000000 0.722714 0.657589 -1.096453
    30 12.391794 0.000000 0.000001 0.000000 0.000000 -1.315421
    31 9.337102 0.000000 0.000003 -1.501379 0.489866 -0.886787
    32 4.453986 -0.073766 -0.571672 0.047699 -0.153453 -0.767464
    33 1.426599 0.000002 0.000000 -0.053883 0.078890 -1.553256
    34 1.322465 -0.000001 0.000000 -0.013603 0.036958 -0.732277
    35 4.477036 -0.043465 -1.581290 -0.332631 0.218360 0.154973
    36 1.344414 0.000000 0.000000 -0.042629 0.220735 -0.851579
    37 1.224670 0.000001 0.000000 0.008150 -0.000004 -0.000025
    38 2.630291 -0.359835 -1.904289 0.415078 0.423437 -0.720800
    39 1.059293 0.000000 0.000000 0.015101 0.038905 0.767148
    40 0.781204 0.000000 0.000000 0.004782 0.022537 0.418308
    41 -0.044717 2.528787 4.661499 -0.109283 -0.138281 0.015872
  time 18
    0 -0.021881 0.091421 34.944153 1.570626 -0.001016 -0.746639
    1 3.890452 -0.000004 -0.000003 -2.225984 -0.373319 -1.226320
    2 17.848177 0.000000 0.000000 0.000000 0.000000 0.928597
    3 15.638507 0.000000 0.000000 0.043804 0.153448 -1.367423
    4 7.109929 0.000000 0.000000 -0.007119 -0.003131 -0.631738
    5 -3.890452 0.000004 0.000007 -1.511684 -0.299308 -1.676769
    6 17.848173 0.000000 0.000000 0.000000 0.000000 0.899667
    7 15.638511 0.000000 0.000000 0.056400 -0.077772 -1.528024
    8 7.109930 0.000000 0.000000 -0.081154 -0.003131 -0.631749
    9 0.000005 3.345128 -2.981901 1.516693 0.111534 1.569850
    10 4.018331 0.000000 0.000000 -0.015280 -0.030669 0.144187
    11 3.518565 0.000000 0.000000 -0.039210 -0.083509 0.333403
    12 8.942642 0.000000 0.000000 -0.078838 0.112907 0.222365
    13 3.306641 0.000002 0.000000 3.138800 0.000567 0.400476
    14 3.593712 -0.000001 0.000000 0.888926 -0.047498 0.723149
    15 2.033346 1.000768 1.101697 2.385451 -1.528127 2.146508
    16 6.809416 0.000001 0.000000 -1.784647 -0.785089 -0.975278
    17 12.391796 0.000000 0.000001 0.000000 0.000000 -2.126187
    18 9.337076 0.000000 -0.000031 0.748616 0.116517 0.591092
    19 4.454020 -0.070210 0.572073 0.095490 -0.008587 -0.706335
    20 1.426597 -0.000001 0.000000 0.055908 -0.087976 -1.504206
    21 1.322468 -0.000002 0.000000 0.009312 -0.033625 -0.575065
    22 4.477066 -0.028570 1.582474 0.481653 -0.035390 -1.246096
    23 1.344418 0.000000 0.000000 0.023466 -0.208305 -0.755723
    24 1.224671 0.000000 0.000000 0.026043 -0.124620 -0.538676
    25 2.630323 -0.345015 1.907214 -0.354022 -0.915164 -1.788195
    26 1.059292 0.000000 0.000001 -0.001067 -0.012855 0.250988
    27 0.781203 0.000000 0.000000 -0.000096 -0.003210 0.062757
    28 2.033353 1.000771 -1.101647 -3.176988 1.193701 1.415651
    29 6.809417 0.000001 0.000000 0.837807 0.767305 -1.069527
    30 12.391794 0.000000 0.000001 0.000000 0.000000 -1.310681
    31 9.337102 0.000000 0.000003 -1.495875 0.489638 -0.874612
    32 4.453986 -0.073766 -0.571672 0.047699 -0.153453 -0.767464
    33 1.426599 0.000002 0.000000 -0.053883 0.078890 -1.553256
    34 1.322465 -0.000001 0.000000 -0.013603 0.036958 -0.732277
    35 4.477036 -0.043465 -1.581290 -0.332631 0.218360 0.154973
    36 1.344414 0.000000 0.000000 -0.042629 0.220735 -0.851579
    37 1.224670 0.000001 0.000000 0.008150 -0.000004 -0.000025
    38 2.630291 -0.359835 -1.904289 0.415078 0.423437 -0.720800
    39 1.059293 0.000000 0.000000 0.015101 0.038905 0.767148
    40 0.781204 0.000000 0.000000 0.004782 0.022537 0.418308
    41 -0.044717 2.528787 4.661499 -0.068095 -0.053781 0.005050
  time 19
    0 -0.021881 -0.731327 35.407290 1.570626 0.000000 -0.746639
    1 3.890452 -0.000004 -0.000003 -2.216631 -0.318861 -1.262737
    2 17.848177 0.000000 0.000000 0.000000 0.000000 0.857423
    3 15.638507 0.000000 0.000000 0.044500 0.159356 -1.360861
    4 7.109929 0.000000 0.000000 -0.007119 -0.003131 -0.631738
    5 -3.890452 0.000004 0.000007 -1.517118 -0.247351 -1.684527
    6 17.848173 0.000000 0.000000 0.000000 0.000000 0.811689
    7 15.638511 0.000000 0.000000 0.069556 -0.082050 -1.492498
    8 7.109930 0.000000 0.000000 -0.081154 -0.003131 -0.631749
    9 0.000005 3.345128 -2.981901 1.570796 0.086293 1.570796
    10 4.018331 0.000000 0.000000 -0.016274 -0.006364 0.119002
    11 3.518565 0.000000 0.000000 -0.039210 -0.083509 0.333403
    12 8.942642 0.000000 0.000000 -0.078838 0.112907 0.222365
    13 3.306641 0.000002 0.000000 3.138800 0.000567 0.400476
    14 3.593712 -0.000001 0.000000 0.833954 -0.043301 0.725290
    15 2.033346 1.000768 1.101697 2.385451 -1.528127 2.146508
    16 6.809416 0.000001 0.000000 -1.898257 -0.902624 -0.872569
    17 12.391796 0.000000 0.000001 0.000000 0.000000 -2.047891
    18 9.337076 0.000000 -0.000031 0.731307 0.181589 0.576957
    19 4.454020 -0.070210 0.572073 0.095490 -0.008587 -0.706335
    20 1.426597 -0.000001 0.000000 0.055908 -0.087976 -1.504206
    21 1.322468 -0.000002 0.000000 0.009312 -0.033625 -0.575065
    22 4.477066 -0.028570 1.582474 0.481653 -0.035390 -1.246096
    23 1.344418 0.000000 0.000000 0.023466 -0.208305 -0.755723
    24 1.224671 0.000000 0.000000 0.026043 -0.124620 -0.538676
    25 2.630323 -0.345015 1.907214 -0.354022 -0.915164 -1.788195
    26 1.059292 0.000000 0.000001 -0.001067 -0.012855 0.250988
    27 0.781203 0.000000 0.000000 -0.000096 -0.003210 0.062757
    28 2.033353 1.000771 -1.101647 -3.176988 1.193701 1.415651
    29 6.809417 0.000001 0.000000 0.915986 0.837558 -1.046301
    30 12.391794 0.000000 0.000001 0.000000 0.000000 -1.307593
    31 9.337102 0.000000 0.000003 -1.480066 0.487696 -0.839815
    32 4.453986 -0.073766 -0.571672 0.047699 -0.153453 -0.767464
    33 1.426599 0.000002 0.000000 -0.053883 0.078890 -1.553256
    34 1.322465 -0.000001 0.000000 -0.013603 0.036958 -0.732277
    35 4.477036 -0.043465 -1.581290 -0.332631 0.218360 0.154973
    36 1.344414 0.000000 0.000000 -0.042629 0.220735 -0.851579
    37 1.224670 0.000001 0.000000 0.008150 -0.000004 -0.000025
    38 2.630291 -0.359835 -1.904289 0.415078 0.423437 -0.720800
    39 1.059293 0.000000 0.000000 0.015101 0.038905 0.767148
    40 0.781204 0.000000 0.000000 0.004782 0.022537 0.418308
    41 -0.044717 2.528787 4.661499 -0.042719 0.000000 0.000000
  time 20
    0 -0.021881 -0.853215 35.499918 1.570626 0.000185 -0.746639
    1 3.890452 -0.000004 -0.000003 -2.215199 -0.309351 -1.268104
    2 17.848177 0.000000 0.000000 0.000000 0.000000 0.840964
    3 15.638507 0.000000 0.000000 0.044152 0.160798 -1.355211
    4 7.109929 0.000000 0.000000 -0.007119 -0.003131 -0.631738
    5 -3.890452 0.000004 0.000007 -1.517690 -0.239577 -1.683959
    6 17.848173 0.000000 0.000000 0.000000 0.000000 0.794630
    7 15.638511 0.000000 0.000000 0.069926 -0.081822 -1.483235
    8 7.109930 0.000000 0.000000 -0.081154 -0.003131 -0.631749
    9 0.000005 3.345128 -2.981901 1.582274 0.080933 1.570796
    10 4.018331 0.000000 0.000000 -0.016161 -0.008893 0.121837
    11 3.518565 0.000000 0.000000 -0.039210 -0.083509 0.333403
    12 8.942642 0.000000 0.000000 -0.078838 0.112907 0.222365
    13 3.306641 0.000002 0.000000 3.138800 0.000567 0.400476
    14 3.593712 -0.000001 0.000000 0.826444 -0.050925 0.732970
    15 2.033346 1.000768 1.101697 2.385451 -1.528127 2.146508
    16 6.809416 0.000001 0.000000 -1.946551 -0.917770 -0.826941
    17 12.391796 0.000000 0.000001 0.000000 0.000000 -2.011857
    18 9.337076 0.000000 -0.000031 0.703560 0.207466 0.561610
    19 4.454020 -0.070210 0.572073 0.095490 -0.008587 -0.706335
    20 1.426597 -0.000001 0.000000 0.055908 -0.087976 -1.504206
    21 1.322468 -0.000002 0.000000 0.009312 -0.033625 -0.575065
    22 4.477066 -0.028570 1.582474 0.481653 -0.035390 -1.246096
    23 1.344418 0.000000 0.000000 0.023466 -0.208305 -0.755723
    24 1.224671 0.000000 0.000000 0.026043 -0.124620 -0.538676
    25 2.630323 -0.345015 1.907214 -0.354022 -0.915164 -1.788195
    26 1.059292 0.000000 0.000001 -0.001067 -0.012855 0.250988
    27 0.781203 0.000000 0.000000 -0.000096 -0.003210 0.062757
    28 2.033353 1.000771 -1.101647 -3.176988 1.193701 1.415651
    29 6.809417 0.000001 0.000000 0.923748 0.852406 -1.059463
    30 12.391794 0.000000 0.000001 0.000000 0.000000 -1.305438
    31 9.337102 0.000000 0.000003 -1.467136 0.484574 -0.810112
    32 4.453986 -0.073766 -0.571672 0.047699 -0.153453 -0.767464
    33 1.426599 0.000002 0.000000 -0.053883 0.078890 -1.553256
    34 1.322465 -0.000001 0.000000 -0.013603 0.036958 -0.732277
    35 4.477036 -0.043465 -1.581290 -0.332631 0.218360 0.154973
    36 1.344414 0.000000 0.000000 -0.042629 0.220735 -0.851579
    37 1.224670 0.000001 0.000000 0.008150 -0.000004 -0.000025
    38 2.630291 -0.359835 -1.904289 0.415078 0.423437 -0.720800
    39 1.059293 0.000000 0.000000 0.015101 0.038905 0.767148
    40 0.781204 0.000000 0.000000 0.004782 0.022537 0.418308
    41 -0.044717 2.528787 4.661499 -0.037383 0.011436 -0.000882
  time 21
    0 -0.021881 -0.893845 35.551377 1.570626 0.000323 -0.746639
    1 3.890452 -0.000004 -0.000003 -2.214913 -0.305897 -1.269158
    2 17.848177 0.000000 0.000000 0.000000 0.000000 0.832113
    3 15.638507 0.000000 0.000000 0.043582 0.161838 -1.349888
    4 7.109929 0.000000 0.000000 -0.007119 -0.003131 -0.631738
    5 -3.890452 0.000004 0.000007 -1.517595 -0.238249 -1.682162
    6 17.848173 0.000000 0.000000 0.000000 0.000000 0.787968
    7 15.638511 0.000000 0.000000 0.068537 -0.080957 -1.477887
    8 7.109930 0.000000 0.000000 -0.081154 -0.003131 -0.631749
    9 0.000005 3.345128 -2.981901 1.588956 0.077841 1.570796
    10 4.018331 0.000000 0.000000 -0.015868 -0.015856 0.129629
    11 3.518565 0.000000 0.000000 -0.039210 -0.083509 0.333403
    12 8.942642 0.000000 0.000000 -0.078838 0.112907 0.222365
    13 3.306641 0.000002 0.000000 3.138800 0.000567 0.400476
    14 3.593712 -0.000001 0.000000 0.828680 -0.061439 0.742958
    15 2.033346 1.000768 1.101697 2.385451 -1.528127 2.146508
    16 6.809416 0.000001 0.000000 -1.984038 -0.919681 -0.788603
    17 12.391796 0.000000 0.000001 0.000000 0.000000 -1.985049
    18 9.337076 0.000000 -0.000031 0.676973 0.228016 0.549551
    19 4.454020 -0.070210 0.572073 0.095490 -0.008587 -0.706335
    20 1.426597 -0.000001 0.000000 0.055908 -0.087976 -1.504206
    21 1.322468 -0.000002 0.000000 0.009312 -0.033625 -0.575065
    22 4.477066 -0.028570 1.582474 0.481653 -0.035390 -1.246096
    23 1.344418 0.000000 0.000000 0.023466 -0.208305 -0.755723
    24 1.224671 0.000000 0.000000 0.026043 -0.124620 -0.538676
    25 2.630323 -0.345015 1.907214 -0.354022 -0.915164 -1.788195
    26 1.059292 0.000000 0.000001 -0.001067 -0.012855 0.250988
    27 0.781203 0.000000 0.000000 -0.000096 -0.003210 0.062757
    28 2.033353 1.000771 -1.101647 -3.176988 1.193701 1.415651
    29 6.809417 0.000001 0.000000 0.919015 0.860071 -1.083119
    30 12.391794 0.000000 0.000001 0.000000 0.000000 -1.301128
    31 9.337102 0.000000 0.000003 -1.457984 0.480348 -0.786453
    32 4.453986 -0.073766 -0.571672 0.047699 -0.153453 -0.767464
    33 1.426599 0.000002 0.000000 -0.053883 0.078890 -1.553256
    34 1.322465 -0.000001 0.000000 -0.013603 0.036958 -0.732277
    35 4.477036 -0.043465 -1.581290 -0.332631 0.218360 0.154973
    36 1.344414 0.000000 0.000000 -0.042629 0.220735 -0.851579
    37 1.224670 0.000001 0.000000 0.008150 -0.000004 -0.000025
    38 2.630291 -0.359835 -1.904289 0.415078 0.423437 -0.720800
    39 1.059293 0.000000 0.000000 0.015101 0.038905 0.767148
    40 0.781204 0.000000 0.000000 0.004782 0.022537 0.418308
    41 -0.044717 2.528787 4.661499 -0.034325 0.018075 -0.001363
  time 22
    0 -0.021881 -0.863373 35.561669 1.570626 0.000370 -0.746639
    1 3.890452 -0.000004 -0.000003 -2.215390 -0.307364 -1.266762
    2 17.848177 0.000000 0.000000 0.000000 0.000000 0.829406
    3 15.638507 0.000000 0.000000 0.042886 0.162571 -1.344748
    4 7.109929 0.000000 0.000000 -0.007119 -0.003131 -0.631738
    5 -3.890452 0.000004 0.000007 -1.516832 -0.242136 -1.679324
    6 17.848173 0.000000 0.000000 0.000000 0.000000 0.789512
    7 15.638511 0.000000 0.000000 0.065664 -0.079592 -1.475499
    8 7.109930 0.000000 0.000000 -0.081154 -0.003131 -0.631749
    9 0.000005 3.345128 -2.981901 1.591651 0.076594 1.570796
    10 4.018331 0.000000 0.000000 -0.015529 -0.026318 0.141248
    11 3.518565 0.000000 0.000000 -0.039210 -0.083509 0.333403
    12 8.942642 0.000000 0.000000 -0.078838 0.112907 0.222365
    13 3.306641 0.000002 0.000000 3.138800 0.000567 0.400476
    14 3.593712 -0.000001 0.000000 0.837624 -0.074245 0.754625
    15 2.033346 1.000768 1.101697 2.385451 -1.528127 2.146508
    16 6.809416 0.000001 0.000000 -2.012632 -0.910516 -0.756702
    17 12.391796 0.000000 0.000001 0.000000 0.000000 -1.964864
    18 9.337076 0.000000 -0.000031 0.649225 0.244917 0.539512
    19 4.454020 -0.070210 0.572073 0.095490 -0.008587 -0.706366
    20 1.426597 -0.000001 0.000000 0.055908 -0.087976 -1.504206
    21 1.322468 -0.000002 0.000000 0.009312 -0.033625 -0.575065
    22 4.477066 -0.028570 1.582474 0.481653 -0.035390 -1.246096
    23 1.344418 0.000000 0.000000 0.023466 -0.208305 -0.755723
    24 1.224671 0.000000 0.000000 0.026043 -0.124620 -0.538676
    25 2.630323 -0.345015 1.907214 -0.354022 -0.915164 -1.788195
    26 1.059292 0.000000 0.000001 -0.001067 -0.012855 0.250988
    27 0.781203 0.000000 0.000000 -0.000096 -0.003210 0.062757
    28 2.033353 1.000771 -1.101647 -3.176988 1.193701 1.415651
    29 6.809417 0.000001 0.000000 0.904439 0.861779 -1.114948
    30 12.391794 0.000000 0.000001 0.000000 0.000000 -1.295670
    31 9.337102 0.000000 0.000003 -1.450623 0.475437 -0.765385
    32 4.453986 -0.073766 -0.571672 0.047699 -0.153453 -0.767464
    33 1.426599 0.000002 0.000000 -0.053883 0.078890 -1.553256
    34 1.322465 -0.000001 0.000000 -0.013603 0.036958 -0.732277
    35 4.477036 -0.043465 -1.581290 -0.332631 0.218360 0.154973
    36 1.344414 0.000000 0.000000 -0.042629 0.220735 -0.851579
    37 1.224670 0.000001 0.000000 0.008150 -0.000004 -0.000025
    38 2.630291 -0.359835 -1.904289 0.415078 0.423437 -0.720800
    39 1.059293 0.000000 0.000000 0.015101 0.038905 0.767148
    40 0.781204 0.000000 0.000000 0.004782 0.022537 0.418308
    41 -0.044717 2.528787 4.661499 -0.033023 0.020775 -0.001563
  time 23
    0 -0.021881 -0.771956 35.541086 1.570626 0.000370 -0.746639
    1 3.890452 -0.000004 -0.000003 -2.216535 -0.312379 -1.261683
    2 17.848177 0.000000 0.000000 0.000000 0.000000 0.831089
    3 15.638507 0.000000 0.000000 0.042126 0.163043 -1.339681
    4 7.109929 0.000000 0.000000 -0.007119 -0.003131 -0.631738
    5 -3.890452 0.000004 0.000007 -1.515784 -0.249762 -1.675823
    6 17.848173 0.000000 0.000000 0.000000 0.000000 0.796986
    7 15.638511 0.000000 0.000000 0.061681 -0.077817 -1.475213
    8 7.109930 0.000000 0.000000 -0.081154 -0.003131 -0.631749
    9 0.000005 3.345128 -2.981901 1.591219 0.076792 1.570796
    10 4.018331 0.000000 0.000000 -0.015280 -0.039381 0.155615
    11 3.518565 0.000000 0.000000 -0.039210 -0.083509 0.333403
    12 8.942642 0.000000 0.000000 -0.078838 0.112907 0.222365
    13 3.306641 0.000002 0.000000 3.138800 0.000567 0.400476
    14 3.593712 -0.000001 0.000000 0.850407 -0.088700 0.767173
    15 2.033346 1.000768 1.101697 2.385451 -1.528127 2.146508
    16 6.809416 0.000001 0.000000 -2.034627 -0.892381 -0.730196
    17 12.391796 0.000000 0.000001 0.000000 0.000000 -1.948464
    18 9.337076 0.000000 -0.000031 0.618891 0.259681 0.529877
    19 4.454020 -0.070210 0.572073 0.095490 -0.008587 -0.706366
    20 1.426597 -0.000001 0.000000 0.055908 -0.087976 -1.504206
    21 1.322468 -0.000002 0.000000 0.009312 -0.033625 -0.575065
    22 4.477066 -0.028570 1.582474 0.481653 -0.035390 -1.246096
    23 1.344418 0.000000 0.000000 0.023466 -0.208305 -0.755723
    24 1.224671 0.000000 0.000000 0.026043 -0.124620 -0.538676
    25 2.630323 -0.345015 1.907214 -0.354022 -0.915164 -1.788195
    26 1.059292 0.000000 0.000001 -0.001067 -0.012855 0.250988
    27 0.781203 0.000000 0.000000 -0.000096 -0.003210 0.062757
    28 2.033353 1.000771 -1.101647 -3.176988 1.193701 1.415651
    29 6.809417 0.000001 0.000000 0.882765 0.858932 -1.152111
    30 12.391794 0.000000 0.000001 0.000000 0.000000 -1.290139
    31 9.337102 0.000000 0.000003 -1.443134 0.470069 -0.743626
    32 4.453986 -0.073766 -0.571672 0.047699 -0.153453 -0.767464
    33 1.426599 0.000002 0.000000 -0.053883 0.078890 -1.553256
    34 1.322465 -0.000001 0.000000 -0.013603 0.036958 -0.732277
    35 4.477036 -0.043465 -1.581290 -0.332631 0.218360 0.154973
    36 1.344414 0.000000 0.000000 -0.042629 0.220735 -0.851579
    37 1.224670 0.000001 0.000000 0.008150 -0.000004 -0.000025
    38 2.630291 -0.359835 -1.904289 0.415078 0.423437 -0.720800
    39 1.059293 0.000000 0.000000 0.015101 0.038905 0.767148
    40 0.781204 0.000000 0.000000 0.004782 0.022537 0.418308
    41 -0.044717 2.528787 4.661499 -0.033219 0.020362 -0.001523
  time 24
    0 -0.021881 -0.650068 35.510210 1.570626 0.000323 -0.746639
    1 3.890452 -0.000004 -0.000003 -2.217967 -0.319713 -1.255070
    2 17.848177 0.000000 0.000000 0.000000 0.000000 0.835331
    3 15.638507 0.000000 0.000000 0.041303 0.163327 -1.334432
    4 7.109929 0.000000 0.000000 -0.007119 -0.003131 -0.631738
    5 -3.890452 0.000004 0.000007 -1.514449 -0.259652 -1.671756
    6 17.848173 0.000000 0.000000 0.000000 0.000000 0.807952
    7 15.638511 0.000000 0.000000 0.057048 -0.075815 -1.476072
    8 7.109930 0.000000 0.000000 -0.081154 -0.003131 -0.631749
    9 0.000005 3.345128 -2.981901 1.588525 0.078040 1.570796
    10 4.018331 0.000000 0.000000 -0.015190 -0.054074 0.171565
    11 3.518565 0.000000 0.000000 -0.039210 -0.083509 0.333403
    12 8.942642 0.000000 0.000000 -0.078838 0.112907 0.222365
    13 3.306641 0.000002 0.000000 3.138800 0.000567 0.400476
    14 3.593712 -0.000001 0.000000 0.864035 -0.104182 0.779932
    15 2.033346 1.000768 1.101697 2.385451 -1.528127 2.146508
    16 6.809416 0.000001 0.000000 -2.052319 -0.867531 -0.707856
    17 12.391796 0.000000 0.000001 0.000000 0.000000 -1.932379
    18 9.337076 0.000000 -0.000031 0.584809 0.273655 0.518915
    19 4.454020 -0.070210 0.572073 0.095490 -0.008587 -0.706335
    20 1.426597 -0.000001 0.000000 0.055908 -0.087976 -1.504206
    21 1.322468 -0.000002 0.000000 0.009312 -0.033625 -0.575065
    22 4.477066 -0.028570 1.582474 0.481653 -0.035390 -1.246096
    23 1.344418 0.000000 0.000000 0.023466 -0.208305 -0.755723
    24 1.224671 0.000000 0.000000 0.026043 -0.124620 -0.538676
    25 2.630323 -0.345015 1.907214 -0.354022 -0.915164 -1.788195
    26 1.059292 0.000000 0.000001 -0.001067 -0.012855 0.250988
    27 0.781203 0.000000 0.000000 -0.000096 -0.003210 0.062757
    28 2.033353 1.000771 -1.101647 -3.176988 1.193701 1.415651
    29 6.809417 0.000001 0.000000 0.857115 0.852844 -1.191596
    30 12.391794 0.000000 0.000001 0.000000 0.000000 -1.285327
    31 9.337102 0.000000 0.000003 -1.433662 0.464435 -0.717636
    32 4.453986 -0.073766 -0.571672 0.047699 -0.153453 -0.767464
    33 1.426599 0.000002 0.000000 -0.053883 0.078890 -1.553256
    34 1.322465 -0.000001 0.000000 -0.013603 0.036958 -0.732277
    35 4.477036 -0.043465 -1.581290 -0.332631 0.218360 0.154973
    36 1.344414 0.000000 0.000000 -0.042629 0.220735 -0.851579
    37 1.224670 0.000001 0.000000 0.008150 -0.000004 -0.000025
    38 2.630291 -0.359835 -1.904289 0.415078 0.423437 -0.720800
    39 1.059293 0.000000 0.000000 0.015101 0.038905 0.767148
    40 0.781204 0.000000 0.000000 0.004782 0.022537 0.418308
    41 -0.044717 2.528787 4.661499 -0.034520 0.017662 -0.001363
  time 25
    0 -0.021881 -0.497707 35.469042 1.570626 0.000231 -0.746639
    1 3.890452 -0.000004 -0.000003 -2.219685 -0.328087 -1.247882
    2 17.848177 0.000000 0.000000 0.000000 0.000000 0.840452
    3 15.638507 0.000000 0.000000 0.040512 0.163445 -1.328818
    4 7.109929 0.000000 0.000000 -0.007119 -0.003131 -0.631738
    5 -3.890452 0.000004 0.000007 -1.513019 -0.270476 -1.667499
    6 17.848173 0.000000 0.000000 0.000000 0.000000 0.820056
    7 15.638511 0.000000 0.000000 0.052045 -0.073585 -1.477314
    8 7.109930 0.000000 0.000000 -0.081154 -0.003131 -0.631749
    9 0.000005 3.345128 -2.981901 1.584376 0.079940 1.570796
    10 4.018331 0.000000 0.000000 -0.015325 -0.069499 0.187984
    11 3.518565 0.000000 0.000000 -0.039210 -0.083509 0.333403
    12 8.942642 0.000000 0.000000 -0.078838 0.112907 0.222365
    13 3.306641 0.000002 0.000000 3.138800 0.000567 0.400476
    14 3.593712 -0.000001 0.000000 0.875721 -0.119965 0.792186
    15 2.033346 1.000768 1.101697 2.385451 -1.528127 2.146508
    16 6.809416 0.000001 0.000000 -2.067716 -0.838465 -0.688545
    17 12.391796 0.000000 0.000001 0.000000 0.000000 -1.913061
    18 9.337076 0.000000 -0.000031 0.546088 0.287925 0.504606
    19 4.454020 -0.070210 0.572073 0.095490 -0.008587 -0.706366
    20 1.426597 -0.000001 0.000000 0.055908 -0.087976 -1.504206
    21 1.322468 -0.000002 0.000000 0.009312 -0.033625 -0.575065
    22 4.477066 -0.028570 1.582474 0.481653 -0.035390 -1.246096
    23 1.344418 0.000000 0.000000 0.023466 -0.208305 -0.755723
    24 1.224671 0.000000 0.000000 0.026043 -0.124620 -0.538676
    25 2.630323 -0.345015 1.907214 -0.354022 -0.915164 -1.788195
    26 1.059292 0.000000 0.000001 -0.001067 -0.012855 0.250988
    27 0.781203 0.000000 0.000000 -0.000096 -0.003210 0.062757
    28 2.033353 1.000771 -1.101647 -3.176988 1.193701 1.415651
    29 6.809417 0.000001 0.000000 0.830330 0.845179 -1.230479
    30 12.391794 0.000000 0.000001 0.000000 0.000000 -1.282311
    31 9.337102 0.000000 0.000003 -1.420348 0.458457 -0.684133
    32 4.453986 -0.073766 -0.571672 0.047699 -0.153453 -0.767464
    33 1.426599 0.000002 0.000000 -0.053883 0.078890 -1.553256
    34 1.322465 -0.000001 0.000000 -0.013603 0.036958 -0.732277
    35 4.477036 -0.043465 -1.581290 -0.332631 0.218360 0.154973
    36 1.344414 0.000000 0.000000 -0.042629 0.220735 -0.851579
    37 1.224670 0.000001 0.000000 0.008150 -0.000004 -0.000025
    38 2.630291 -0.359835 -1.904289 0.415078 0.423437 -0.720800
    39 1.059293 0.000000 0.000000 0.015101 0.038905 0.767148
    40 0.781204 0.000000 0.000000 0.004782 0.022537 0.418308
    41 -0.044717 2.528787 4.661499 -0.036407 0.013564 -0.001042
  time 26
    0 -0.021881 -0.345346 35.438166 1.570626 0.000139 -0.746639
    1 3.890452 -0.000004 -0.000003 -2.221307 -0.336272 -1.240887
    2 17.848177 0.000000 0.000000 0.000000 0.000000 0.844768
    3 15.638507 0.000000 0.000000 0.039721 0.163493 -1.322694
    4 7.109929 0.000000 0.000000 -0.007119 -0.003131 -0.631738
    5 -3.890452 0.000004 0.000007 -1.511589 -0.280808 -1.663242
    6 17.848173 0.000000 0.000000 0.000000 0.000000 0.831267
    7 15.638511 0.000000 0.000000 0.047042 -0.071355 -1.478078
    8 7.109930 0.000000 0.000000 -0.081154 -0.003131 -0.631749
    9 0.000005 3.345128 -2.981901 1.579687 0.082152 1.570796
    10 4.018331 0.000000 0.000000 -0.015664 -0.084707 0.203795
    11 3.518565 0.000000 0.000000 -0.039210 -0.083509 0.333403
    12 8.942642 0.000000 0.000000 -0.078838 0.112907 0.222365
    13 3.306641 0.000002 0.000000 3.138800 0.000567 0.400476
    14 3.593712 -0.000001 0.000000 0.882598 -0.135404 0.803266
    15 2.033346 1.000768 1.101697 2.385451 -1.528127 2.146508
    16 6.809416 0.000001 0.000000 -2.082443 -0.808175 -0.670748
    17 12.391796 0.000000 0.000001 0.000000 0.000000 -1.886174
    18 9.337076 0.000000 -0.000031 0.502102 0.303412 0.484932
    19 4.454020 -0.070210 0.572073 0.095490 -0.008587 -0.706335
    20 1.426597 -0.000001 0.000000 0.055908 -0.087976 -1.504206
    21 1.322468 -0.000002 0.000000 0.009312 -0.033625 -0.575065
    22 4.477066 -0.028570 1.582474 0.481653 -0.035390 -1.246096
    23 1.344418 0.000000 0.000000 0.023466 -0.208305 -0.755723
    24 1.224671 0.000000 0.000000 0.026043 -0.124620 -0.538676
    25 2.630323 -0.345015 1.907214 -0.354022 -0.915164 -1.788195
    26 1.059292 0.000000 0.000001 -0.001067 -0.012855 0.250988
    27 0.781203 0.000000 0.000000 -0.000096 -0.003210 0.062757
    28 2.033353 1.000771 -1.101647 -3.176988 1.193701 1.415651
    29 6.809417 0.000001 0.000000 0.805248 0.837646 -1.266523
    30 12.391794 0.000000 0.000001 0.000000 0.000000 -1.282095
    31 9.337102 0.000000 0.000003 -1.401467 0.451947 -0.639838
    32 4.453986 -0.073766 -0.571672 0.047699 -0.153453 -0.767464
    33 1.426599 0.000002 0.000000 -0.053883 0.078890 -1.553256
    34 1.322465 -0.000001 0.000000 -0.013603 0.036958 -0.732277
    35 4.477036 -0.043465 -1.581290 -0.332631 0.218360 0.154973
    36 1.344414 0.000000 0.000000 -0.042629 0.220735 -0.851579
    37 1.224670 0.000001 0.000000 0.008150 -0.000004 -0.000025
    38 2.630291 -0.359835 -1.904289 0.415078 0.423437 -0.720800
    39 1.059293 0.000000 0.000000 0.015101 0.038905 0.767148
    40 0.781204 0.000000 0.000000 0.004782 0.022537 0.418308
    41 -0.044717 2.528787 4.661499 -0.038554 0.008895 -0.000681
  time 27
    0 -0.021881 -0.203143 35.417582 1.570626 0.000046 -0.746639
    1 3.890452 -0.000004 -0.000003 -2.222739 -0.342991 -1.235041
    2 17.848177 0.000000 0.000000 0.000000 0.000000 0.846816
    3 15.638507 0.000000 0.000000 0.038993 0.163540 -1.316060
    4 7.109929 0.000000 0.000000 -0.007119 -0.003131 -0.631738
    5 -3.890452 0.000004 0.000007 -1.510254 -0.289320 -1.659174
    6 17.848173 0.000000 0.000000 0.000000 0.000000 0.839472
    7 15.638511 0.000000 0.000000 0.042410 -0.069262 -1.477696
    8 7.109930 0.000000 0.000000 -0.081154 -0.003131 -0.631749
    9 0.000005 3.345128 -2.981901 1.575323 0.084194 1.570796
    10 4.018331 0.000000 0.000000 -0.016139 -0.098753 0.217831
    11 3.518565 0.000000 0.000000 -0.039210 -0.083509 0.333403
    12 8.942642 0.000000 0.000000 -0.078838 0.112907 0.222365
    13 3.306641 0.000002 0.000000 3.138800 0.000567 0.400476
    14 3.593712 -0.000001 0.000000 0.881881 -0.149774 0.812414
    15 2.033346 1.000768 1.101697 2.385451 -1.528127 2.146508
    16 6.809416 0.000001 0.000000 -2.097648 -0.779992 -0.653141
    17 12.391796 0.000000 0.000001 0.000000 0.000000 -1.847538
    18 9.337076 0.000000 -0.000031 0.452496 0.320708 0.458103
    19 4.454020 -0.070210 0.572073 0.095490 -0.008587 -0.706366
    20 1.426597 -0.000001 0.000000 0.055908 -0.087976 -1.504206
    21 1.322468 -0.000002 0.000000 0.009312 -0.033625 -0.575065
    22 4.477066 -0.028570 1.582474 0.481653 -0.035390 -1.246096
    23 1.344418 0.000000 0.000000 0.023466 -0.208305 -0.755723
    24 1.224671 0.000000 0.000000 0.026043 -0.124620 -0.538676
    25 2.630323 -0.345015 1.907214 -0.354022 -0.915164 -1.788195
    26 1.059292 0.000000 0.000001 -0.001067 -0.012855 0.250988
    27 0.781203 0.000000 0.000000 -0.000096 -0.003210 0.062757
    28 2.033353 1.000771 -1.101647 -3.176988 1.193701 1.415651
    29 6.809417 0.000001 0.000000 0.784236 0.832259 -1.297664
    30 12.391794 0.000000 0.000001 0.000000 0.000000 -1.285614
    31 9.337102 0.000000 0.000003 -1.375288 0.444143 -0.581555
    32 4.453986 -0.073766 -0.571672 0.047699 -0.153453 -0.767464
    33 1.426599 0.000002 0.000000 -0.053883 0.078890 -1.553256
    34 1.322465 -0.000001 0.000000 -0.013603 0.036958 -0.732277
    35 4.477036 -0.043465 -1.581290 -0.332631 0.218360 0.154973
    36 1.344414 0.000000 0.000000 -0.042629 0.220735 -0.851579
    37 1.224670 0.000001 0.000000 0.008150 -0.000004 -0.000025
    38 2.630291 -0.359835 -1.904289 0.415078 0.423437 -0.720800
    39 1.059293 0.000000 0.000000 0.015101 0.038905 0.767148
    40 0.781204 0.000000 0.000000 0.004782 0.022537 0.418308
    41 -0.044717 2.528787 4.661499 -0.040571 0.004511 -0.000361
  time 28
    0 -0.021881 -0.081254 35.417582 1.570626 0.000000 -0.746639
    1 3.890452 -0.000004 -0.000003 -2.223502 -0.347155 -1.231207
    2 17.848177 0.000000 0.000000 0.000000 0.000000 0.845060
    3 15.638507 0.000000 0.000000 0.038328 0.163634 -1.308951
    4 7.109929 0.000000 0.000000 -0.007119 -0.003131 -0.631738
    5 -3.890452 0.000004 0.000007 -1.509300 -0.294880 -1.655674
    6 17.848173 0.000000 0.000000 0.000000 0.000000 0.842883
    7 15.638511 0.000000 0.000000 0.038611 -0.067441 -1.475499
    8 7.109930 0.000000 0.000000 -0.081154 -0.003131 -0.631749
    9 0.000005 3.345128 -2.981901 1.572035 0.085726 1.570796
    10 4.018331 0.000000 0.000000 -0.016591 -0.110714 0.228998
    11 3.518565 0.000000 0.000000 -0.039210 -0.083509 0.333403
    12 8.942642 0.000000 0.000000 -0.078838 0.112907 0.222365
    13 3.306641 0.000002 0.000000 3.138800 0.000567 0.400476
    14 3.593712 -0.000001 0.000000 0.870785 -0.162429 0.818919
    15 2.033346 1.000768 1.101697 2.385451 -1.528127 2.146508
    16 6.809416 0.000001 0.000000 -2.114193 -0.757593 -0.634019
    17 12.391796 0.000000 0.000001 0.000000 0.000000 -1.792660
    18 9.337076 0.000000 -0.000031 0.396823 0.340140 0.422793
    19 4.454020 -0.070210 0.572073 0.095490 -0.008587 -0.706366
    20 1.426597 -0.000001 0.000000 0.055908 -0.087976 -1.504206
    21 1.322468 -0.000002 0.000000 0.009312 -0.033625 -0.575065
    22 4.477066 -0.028570 1.582474 0.481653 -0.035390 -1.246096
    23 1.344418 0.000000 0.000000 0.023466 -0.208305 -0.755723
    24 1.224671 0.000000 0.000000 0.026043 -0.124620 -0.538676
    25 2.630323 -0.345015 1.907214 -0.354022 -0.915164 -1.788195
    26 1.059292 0.000000 0.000001 -0.001067 -0.012855 0.250988
    27 0.781203 0.000000 0.000000 -0.000096 -0.003210 0.062757
    28 2.033353 1.000771 -1.101647 -3.176988 1.193701 1.415651
    29 6.809417 0.000001 0.000000 0.769281 0.831076 -1.322438
    30 12.391794 0.000000 0.000001 0.000000 0.000000 -1.293731
    31 9.337102 0.000000 0.000003 -1.340405 0.433864 -0.506175
    32 4.453986 -0.073766 -0.571672 0.047699 -0.153453 -0.767464
    33 1.426599 0.000002 0.000000 -0.053883 0.078890 -1.553256
    34 1.322465 -0.000001 0.000000 -0.013603 0.036958 -0.732277
    35 4.477036 -0.043465 -1.581290 -0.332631 0.218360 0.154973
    36 1.344414 0.000000 0.000000 -0.042629 0.220735 -0.851579
    37 1.224670 0.000001 0.000000 0.008150 -0.000004 -0.000025
    38 2.630291 -0.359835 -1.904289 0.415078 0.423437 -0.720800
    39 1.059293 0.000000 0.000000 0.015101 0.038905 0.767148
    40 0.781204 0.000000 0.000000 0.004782 0.022537 0.418308
    41 -0.044717 2.528787 4.661499 -0.042068 0.001271 -0.000080
  time 29
    0 -0.021881 -0.010152 35.458750 1.570626 0.000000 -0.746639
    1 3.890452 -0.000004 -0.000003 -2.223407 -0.347533 -1.230249
    2 17.848177 0.000000 0.000000 0.000000 0.000000 0.838331
    3 15.638507 0.000000 0.000000 0.037759 0.163918 -1.301405
    4 7.109929 0.000000 0.000000 -0.007119 -0.003131 -0.631738
    5 -3.890452 0.000004 0.000007 -1.508633 -0.296110 -1.652836
    6 17.848173 0.000000 0.000000 0.000000 0.000000 0.839715
    7 15.638511 0.000000 0.000000 0.035739 -0.066076 -1.471106
    8 7.109930 0.000000 0.000000 -0.081154 -0.003131 -0.631749
    9 0.000005 3.345128 -2.981901 1.570796 0.086293 1.570796
    10 4.018331 0.000000 0.000000 -0.016885 -0.119654 0.236129
    11 3.518565 0.000000 0.000000 -0.039210 -0.083509 0.333403
    12 8.942642 0.000000 0.000000 -0.078838 0.112907 0.222365
    13 3.306641 0.000002 0.000000 3.138800 0.000567 0.400476
    14 3.593712 -0.000001 0.000000 0.846568 -0.172708 0.822109
    15 2.033346 1.000768 1.101697 2.385451 -1.528127 2.146508
    16 6.809416 0.000001 0.000000 -2.132650 -0.745045 -0.611489
    17 12.391796 0.000000 0.000001 0.000000 0.000000 -1.717360
    18 9.337076 0.000000 -0.000031 0.334994 0.361579 0.377964
    19 4.454020 -0.070210 0.572073 0.095490 -0.008587 -0.706366
    20 1.426597 -0.000001 0.000000 0.055908 -0.087976 -1.504206
    21 1.322468 -0.000002 0.000000 0.009312 -0.033625 -0.575065
    22 4.477066 -0.028570 1.582474 0.481653 -0.035390 -1.246096
    23 1.344418 0.000000 0.000000 0.023466 -0.208305 -0.755723
    24 1.224671 0.000000 0.000000 0.026043 -0.124620 -0.538676
    25 2.630323 -0.345015 1.907214 -0.354022 -0.915164 -1.788195
    26 1.059292 0.000000 0.000001 -0.001067 -0.012855 0.250988
    27 0.781203 0.000000 0.000000 -0.000096 -0.003210 0.062757
    28 2.033353 1.000771 -1.101647 -3.176988 1.193701 1.415651
    29 6.809417 0.000001 0.000000 0.762751 0.836244 -1.339385
    30 12.391794 0.000000 0.000001 0.000000 0.000000 -1.307593
    31 9.337102 0.000000 0.000003 -1.295793 0.419054 -0.410936
    32 4.453986 -0.073766 -0.571672 0.047699 -0.153453 -0.767464
    33 1.426599 0.000002 0.000000 -0.053883 0.078890 -1.553256
    34 1.322465 -0.000001 0.000000 -0.013603 0.036958 -0.732277
    35 4.477036 -0.043465 -1.581290 -0.332631 0.218360 0.154973
    36 1.344414 0.000000 0.000000 -0.042629 0.220735 -0.851579
    37 1.224670 0.000001 0.000000 0.008150 -0.000004 -0.000025
    38 2.630291 -0.359835 -1.904289 0.415078 0.423437 -0.720800
    39 1.059293 0.000000 0.000000 0.015101 0.038905 0.767148
    40 0.781204 0.000000 0.000000 0.004782 0.022537 0.418308
    41 -0.044717 2.528787 4.661499 -0.042719 0.000000 0.000000
  time 30
    0 -0.021881 0.010162 35.541086 1.570626 0.000000 -0.746639
    1 3.890452 -0.000004 -0.000003 -2.222262 -0.343322 -1.233028
    2 17.848177 0.000000 0.000000 0.000000 0.000000 0.824652
    3 15.638507 0.000000 0.000000 0.037315 0.164249 -1.292729
    4 7.109929 0.000000 0.000000 -0.007119 -0.003131 -0.631738
    5 -3.890452 0.000004 0.000007 -1.508347 -0.291780 -1.650944
    6 17.848173 0.000000 0.000000 0.000000 0.000000 0.827693
    7 15.638511 0.000000 0.000000 0.034164 -0.065257 -1.463466
    8 7.109930 0.000000 0.000000 -0.081154 -0.003131 -0.631749
    9 0.000005 3.345128 -2.981901 1.570796 0.086293 1.570796
    10 4.018331 0.000000 0.000000 -0.016727 -0.124628 0.237259
    11 3.518565 0.000000 0.000000 -0.039210 -0.083509 0.333403
    12 8.942642 0.000000 0.000000 -0.078838 0.112907 0.222365
    13 3.306641 0.000002 0.000000 3.138800 0.000567 0.400476
    14 3.593712 -0.000001 0.000000 0.798473 -0.179604 0.819171
    15 2.033346 1.000768 1.101697 2.385451 -1.528127 2.146508
    16 6.809416 0.000001 0.000000 -2.162773 -0.758475 -0.569932
    17 12.391796 0.000000 0.000001 0.000000 0.000000 -1.501554
    18 9.337076 0.000000 -0.000031 0.193671 0.394131 0.249648
    19 4.454020 -0.070210 0.572073 0.095490 -0.008587 -0.706335
    20 1.426597 -0.000001 0.000000 0.055908 -0.087976 -1.504206
    21 1.322468 -0.000002 0.000000 0.009312 -0.033625 -0.575065
    22 4.477066 -0.028570 1.582474 0.481653 -0.035390 -1.246096
    23 1.344418 0.000000 0.000000 0.023466 -0.208305 -0.755723
    24 1.224671 0.000000 0.000000 0.026043 -0.124620 -0.538676
    25 2.630323 -0.345015 1.907214 -0.354022 -0.915164 -1.788195
    26 1.059292 0.000000 0.000001 -0.001067 -0.012855 0.250988
    27 0.781203 0.000000 0.000000 -0.000096 -0.003210 0.062757
    28 2.033353 1.000771 -1.101647 -3.176988 1.193701 1.415651
    29 6.809417 0.000001 0.000000 0.788779 0.871897 -1.323213
    30 12.391794 0.000000 0.000001 0.000000 0.000000 -1.352913
    31 9.337102 0.000000 0.000003 -1.181543 0.363851 -0.165886
    32 4.453986 -0.073766 -0.571672 0.047699 -0.153453 -0.767464
    33 1.426599 0.000002 0.000000 -0.053883 0.078890 -1.553256
    34 1.322465 -0.000001 0.000000 -0.013603 0.036958 -0.732277
    35 4.477036 -0.043465 -1.581290 -0.332631 0.218360 0.154973
    36 1.344414 0.000000 0.000000 -0.042629 0.220735 -0.851579
    37 1.224670 0.000001 0.000000 0.008150 -0.000004 -0.000025
    38 2.630291 -0.359835 -1.904289 0.415078 0.423437 -0.720800
    39 1.059293 0.000000 0.000000 0.015101 0.038905 0.767148
    40 0.781204 0.000000 0.000000 0.004782 0.022537 0.418308
    41 -0.044717 2.528787 4.661499 -0.042719 0.000000 0.000000
  time 31
    0 -0.021881 0.020320 35.674881 1.570626 0.000000 -0.746639
    1 3.890452 -0.000004 -0.000003 -2.220162 -0.335184 -1.239066
    2 17.848177 0.000000 0.000000 0.000000 0.000000 0.804389
    3 15.638507 0.000000 0.000000 0.037031 0.164509 -1.282449
    4 7.109929 0.000000 0.000000 -0.007119 -0.003131 -0.631738
    5 -3.890452 0.000004 0.000007 -1.508442 -0.282334 -1.649619
    6 17.848173 0.000000 0.000000 0.000000 0.000000 0.807627
    7 15.638511 0.000000 0.000000 0.033515 -0.064938 -1.452770
    8 7.109930 0.000000 0.000000 -0.081154 -0.003131 -0.631749
    9 0.000005 3.345128 -2.981901 1.570796 0.086293 1.570796
    10 4.018331 0.000000 0.000000 -0.016048 -0.126078 0.232511
    11 3.518565 0.000000 0.000000 -0.039210 -0.083509 0.333403
    12 8.942642 0.000000 0.000000 -0.078838 0.112907 0.222365
    13 3.306641 0.000002 0.000000 3.138800 0.000567 0.400476
    14 3.593712 -0.000001 0.000000 0.723418 -0.183416 0.809393
    15 2.033346 1.000768 1.101697 2.385451 -1.528127 2.146508
    16 6.809416 0.000001 0.000000 -2.189168 -0.819889 -0.518530
    17 12.391796 0.000000 0.000001 0.000000 0.000000 -1.182062
    18 9.337076 0.000000 -0.000031 0.001492 0.430695 0.076964
    19 4.454020 -0.070210 0.572073 0.095490 -0.008587 -0.706335
    20 1.426597 -0.000001 0.000000 0.055908 -0.087976 -1.504206
    21 1.322468 -0.000002 0.000000 0.009312 -0.033625 -0.575065
    22 4.477066 -0.028570 1.582474 0.481653 -0.035390 -1.246096
    23 1.344418 0.000000 0.000000 0.023466 -0.208305 -0.755723
    24 1.224671 0.000000 0.000000 0.026043 -0.124620 -0.538676
    25 2.630323 -0.345015 1.907214 -0.354022 -0.915164 -1.788195
    26 1.059292 0.000000 0.000001 -0.001067 -0.012855 0.250988
    27 0.781203 0.000000 0.000000 -0.000096 -0.003210 0.062757
    28 2.033353 1.000771 -1.101647 -3.176988 1.193701 1.415651
    29 6.809417 0.000001 0.000000 0.859671 0.939259 -1.261103
    30 12.391794 0.000000 0.000001 0.000000 0.000000 -1.435942
    31 9.337102 0.000000 0.000003 -1.037019 0.236885 0.192880
    32 4.453986 -0.073766 -0.571672 0.047699 -0.153453 -0.767464
    33 1.426599 0.000002 0.000000 -0.053883 0.078890 -1.553256
    34 1.322465 -0.000001 0.000000 -0.013603 0.036958 -0.732277
    35 4.477036 -0.043465 -1.581290 -0.332631 0.218360 0.154973
    36 1.344414 0.000000 0.000000 -0.042629 0.220735 -0.851579
    37 1.224670 0.000001 0.000000 0.008150 -0.000004 -0.000025
    38 2.630291 -0.359835 -1.904289 0.415078 0.423437 -0.720800
    39 1.059293 0.000000 0.000000 0.015101 0.038905 0.767148
    40 0.781204 0.000000 0.000000 0.004782 0.022537 0.418308
    41 -0.044717 2.528787 4.661499 -0.042719 0.000000 0.000000
  time 32
    0 -0.021881 0.010162 35.839552 1.570626 0.000000 -0.746639
    1 3.890452 -0.000004 -0.000003 -2.217299 -0.324302 -1.247403
    2 17.848177 0.000000 0.000000 0.000000 0.000000 0.779299
    3 15.638507 0.000000 0.000000 0.036809 0.164722 -1.270857
    4 7.109929 0.000000 0.000000 -0.007119 -0.003131 -0.631738
    5 -3.890452 0.000004 0.000007 -1.508728 -0.269246 -1.648768
    6 17.848173 0.000000 0.000000 0.000000 0.000000 0.781470
    7 15.638511 0.000000 0.000000 0.033515 -0.064938 -1.439783
    8 7.109930 0.000000 0.000000 -0.081154 -0.003131 -0.631749
    9 0.000005 3.345128 -2.981901 1.570796 0.086293 1.570796
    10 4.018331 0.000000 0.000000 -0.015054 -0.125191 0.223832
    11 3.518565 0.000000 0.000000 -0.039210 -0.083509 0.333403
    12 8.942642 0.000000 0.000000 -0.078838 0.112907 0.222365
    13 3.306641 0.000002 0.000000 3.138800 0.000567 0.400476
    14 3.593712 -0.000001 0.000000 0.630306 -0.185514 0.795418
    15 2.033346 1.000768 1.101697 2.385451 -1.528127 2.146508
    16 6.809416 0.000001 0.000000 -2.223691 -0.889097 -0.461638
    17 12.391796 0.000000 0.000001 0.000000 0.000000 -0.992591
    18 9.337076 0.000000 -0.000031 -0.126003 0.461636 0.000344
    19 4.454020 -0.070210 0.572073 0.095490 -0.008587 -0.706335
    20 1.426597 -0.000001 0.000000 0.055908 -0.087976 -1.504206
    21 1.322468 -0.000002 0.000000 0.009312 -0.033625 -0.575065
    22 4.477066 -0.028570 1.582474 0.481653 -0.035390 -1.246096
    23 1.344418 0.000000 0.000000 0.023466 -0.208305 -0.755723
    24 1.224671 0.000000 0.000000 0.026043 -0.124620 -0.538676
    25 2.630323 -0.345015 1.907214 -0.354022 -0.915164 -1.788195
    26 1.059292 0.000000 0.000001 -0.001067 -0.012855 0.250988
    27 0.781203 0.000000 0.000000 -0.000096 -0.003210 0.062757
    28 2.033353 1.000771 -1.101647 -3.176988 1.193701 1.415651
    29 6.809417 0.000001 0.000000 0.954698 1.006227 -1.173789
    30 12.391794 0.000000 0.000001 0.000000 0.000000 -1.528523
    31 9.337102 0.000000 0.000003 -0.949779 0.116885 0.463402
    32 4.453986 -0.073766 -0.571672 0.047699 -0.153453 -0.767464
    33 1.426599 0.000002 0.000000 -0.053883 0.078890 -1.553256
    34 1.322465 -0.000001 0.000000 -0.013603 0.036958 -0.732277
    35 4.477036 -0.043465 -1.581290 -0.332631 0.218360 0.154973
    36 1.344414 0.000000 0.000000 -0.042629 0.220735 -0.851579
    37 1.224670 0.000001 0.000000 0.008150 -0.000004 -0.000025
    38 2.630291 -0.359835 -1.904289 0.415078 0.423437 -0.720800
    39 1.059293 0.000000 0.000000 0.015101 0.038905 0.767148
    40 0.781204 0.000000 0.000000 0.004782 0.022537 0.418308
    41 -0.044717 2.528787 4.661499 -0.042719 0.000000 0.000000
  time 33
    0 -0.021881 0.000005 36.024807 1.570626 0.000000 -0.746639
    1 3.890452 -0.000004 -0.000003 -2.214245 -0.311764 -1.256987
    2 17.848177 0.000000 0.000000 0.000000 0.000000 0.751137
    3 15.638507 0.000000 0.000000 0.036619 0.164911 -1.258208
    4 7.109929 0.000000 0.000000 -0.007119 -0.003131 -0.631738
    5 -3.890452 0.000004 0.000007 -1.509014 -0.254043 -1.648106
    6 17.848173 0.000000 0.000000 0.000000 0.000000 0.751656
    7 15.638511 0.000000 0.000000 0.033886 -0.065075 -1.425171
    8 7.109930 0.000000 0.000000 -0.081154 -0.003131 -0.631749
    9 0.000005 3.345128 -2.981901 1.570796 0.086293 1.570796
    10 4.018331 0.000000 0.000000 -0.013901 -0.123118 0.213204
    11 3.518565 0.000000 0.000000 -0.039210 -0.083509 0.333403
    12 8.942642 0.000000 0.000000 -0.078838 0.112907 0.222365
    13 3.306641 0.000002 0.000000 3.138800 0.000567 0.400476
    14 3.593712 -0.000001 0.000000 0.528082 -0.187142 0.779638
    15 2.033346 1.000768 1.101697 2.385451 -1.528127 2.146508
    16 6.809416 0.000001 0.000000 -2.322669 -0.932817 -0.343310
    17 12.391796 0.000000 0.000001 0.000000 0.000000 -1.018137
    18 9.337076 0.000000 -0.000031 -0.146345 0.490341 0.077080
    19 4.454020 -0.070210 0.572073 0.095490 -0.008587 -0.706366
    20 1.426597 -0.000001 0.000000 0.055908 -0.087976 -1.504206
    21 1.322468 -0.000002 0.000000 0.009312 -0.033625 -0.575065
    22 4.477066 -0.028570 1.582474 0.481653 -0.035390 -1.246096
    23 1.344418 0.000000 0.000000 0.023466 -0.208305 -0.755723
    24 1.224671 0.000000 0.000000 0.026043 -0.124620 -0.538676
    25 2.630323 -0.345015 1.907214 -0.354022 -0.915164 -1.788195
    26 1.059292 0.000000 0.000001 -0.001067 -0.012855 0.250988
    27 0.781203 0.000000 0.000000 -0.000096 -0.003210 0.062757
    28 2.033353 1.000771 -1.101647 -3.176988 1.193701 1.415651
    29 6.809417 0.000001 0.000000 1.070263 1.065794 -1.066001
    30 12.391794 0.000000 0.000001 0.000000 0.000000 -1.624264
    31 9.337102 0.000000 0.000003 -0.896655 0.079614 0.586703
    32 4.453986 -0.073766 -0.571672 0.047699 -0.153453 -0.767464
    33 1.426599 0.000002 0.000000 -0.053883 0.078890 -1.553256
    34 1.322465 -0.000001 0.000000 -0.013603 0.036958 -0.732277
    35 4.477036 -0.043465 -1.581290 -0.332631 0.218360 0.154973
    36 1.344414 0.000000 0.000000 -0.042629 0.220735 -0.851579
    37 1.224670 0.000001 0.000000 0.008150 -0.000004 -0.000025
    38 2.630291 -0.359835 -1.904289 0.415078 0.423437 -0.720800
    39 1.059293 0.000000 0.000000 0.015101 0.038905 0.767148
    40 0.781204 0.000000 0.000000 0.004782 0.022537 0.418308
    41 -0.044717 2.528787 4.661499 -0.042719 0.000000 0.000000
  time 34
    0 -0.021881 0.000005 36.199770 1.570626 0.000000 -0.746639
    1 3.890452 -0.000004 -0.000003 -2.211191 -0.298848 -1.266762
    2 17.848177 0.000000 0.000000 0.000000 0.000000 0.721950
    3 15.638507 0.000000 0.000000 0.036429 0.165076 -1.245011
    4 7.109929 0.000000 0.000000 -0.007119 -0.003131 -0.631738
    5 -3.890452 0.000004 0.000007 -1.509396 -0.238249 -1.647444
    6 17.848173 0.000000 0.000000 0.000000 0.000000 0.720625
    7 15.638511 0.000000 0.000000 0.034257 -0.065211 -1.409891
    8 7.109930 0.000000 0.000000 -0.081154 -0.003131 -0.631749
    9 0.000005 3.345128 -2.981901 1.570796 0.086293 1.570796
    10 4.018331 0.000000 0.000000 -0.012771 -0.121032 0.202594
    11 3.518565 0.000000 0.000000 -0.039210 -0.083509 0.333403
    12 8.942642 0.000000 0.000000 -0.078838 0.112907 0.222365
    13 3.306641 0.000002 0.000000 3.138800 0.000567 0.400476
    14 3.593712 -0.000001 0.000000 0.425689 -0.189326 0.764445
    15 2.033346 1.000768 1.101697 2.385451 -1.528127 2.146508
    16 6.809416 0.000001 0.000000 -2.497675 -0.962862 -0.150103
    17 12.391796 0.000000 0.000001 0.000000 0.000000 -1.123005
    18 9.337076 0.000000 -0.000031 -0.111193 0.520723 0.228185
    19 4.454020 -0.070210 0.572073 0.095490 -0.008587 -0.706335
    20 1.426597 -0.000001 0.000000 0.055908 -0.087976 -1.504206
    21 1.322468 -0.000002 0.000000 0.009312 -0.033625 -0.575065
    22 4.477066 -0.028570 1.582474 0.481653 -0.035390 -1.246096
    23 1.344418 0.000000 0.000000 0.023466 -0.208305 -0.755723
    24 1.224671 0.000000 0.000000 0.026043 -0.124620 -0.538676
    25 2.630323 -0.345015 1.907214 -0.354022 -0.915164 -1.788195
    26 1.059292 0.000000 0.000001 -0.001067 -0.012855 0.250988
    27 0.781203 0.000000 0.000000 -0.000096 -0.003210 0.062757
    28 2.033353 1.000771 -1.101647 -3.176988 1.193701 1.415651
    29 6.809417 0.000001 0.000000 1.229557 1.123433 -0.914684
    30 12.391794 0.000000 0.000001 0.000000 0.000000 -1.729486
    31 9.337102 0.000000 0.000003 -0.843722 0.084715 0.651376
    32 4.453986 -0.073766 -0.571672 0.047699 -0.153453 -0.767464
    33 1.426599 0.000002 0.000000 -0.053883 0.078890 -1.553256
    34 1.322465 -0.000001 0.000000 -0.013603 0.036958 -0.732277
    35 4.477036 -0.043465 -1.581290 -0.332631 0.218360 0.154973
    36 1.344414 0.000000 0.000000 -0.042629 0.220735 -0.851579
    37 1.224670 0.000001 0.000000 0.008150 -0.000004 -0.000025
    38 2.630291 -0.359835 -1.904289 0.415078 0.423437 -0.720800
    39 1.059293 0.000000 0.000000 0.015101 0.038905 0.767148
    40 0.781204 0.000000 0.000000 0.004782 0.022537 0.418308
    41 -0.044717 2.528787 4.661499 -0.042719 0.000000 0.000000
  time 35
    0 -0.021881 -0.010152 36.364441 1.570626 0.000000 -0.746639
    1 3.890452 -0.000004 -0.000003 -2.208518 -0.286830 -1.275770
    2 17.848177 0.000000 0.000000 0.000000 0.000000 0.694007
    3 15.638507 0.000000 0.000000 0.036208 0.165265 -1.231852
    4 7.109929 0.000000 0.000000 -0.007119 -0.003131 -0.631738
    5 -3.890452 0.000004 0.000007 -1.509586 -0.223734 -1.646592
    6 17.848173 0.000000 0.000000 0.000000 0.000000 0.691299
    7 15.638511 0.000000 0.000000 0.034257 -0.065211 -1.395280
    8 7.109930 0.000000 0.000000 -0.081154 -0.003131 -0.631749
    9 0.000005 3.345128 -2.981901 1.570796 0.086293 1.570796
    10 4.018331 0.000000 0.000000 -0.011799 -0.120110 0.193933
    11 3.518565 0.000000 0.000000 -0.039210 -0.083509 0.333403
    12 8.942642 0.000000 0.000000 -0.078838 0.112907 0.222365
    13 3.306641 0.000002 0.000000 3.138800 0.000567 0.400476
    14 3.593712 -0.000001 0.000000 0.332198 -0.192859 0.751981
    15 2.033346 1.000768 1.101697 2.385451 -1.528127 2.146508
    16 6.809416 0.000001 0.000000 -2.694293 -0.975312 0.059953
    17 12.391796 0.000000 0.000001 0.000000 0.000000 -1.218411
    18 9.337076 0.000000 -0.000031 -0.069616 0.547553 0.380906
    19 4.454020 -0.070210 0.572073 0.095490 -0.008587 -0.706335
    20 1.426597 -0.000001 0.000000 0.055908 -0.087976 -1.504206
    21 1.322468 -0.000002 0.000000 0.009312 -0.033625 -0.575065
    22 4.477066 -0.028570 1.582474 0.481653 -0.035390 -1.246096
    23 1.344418 0.000000 0.000000 0.023466 -0.208305 -0.755723
    24 1.224671 0.000000 0.000000 0.026043 -0.124620 -0.538676
    25 2.630323 -0.345015 1.907214 -0.354022 -0.915164 -1.788195
    26 1.059292 0.000000 0.000001 -0.001067 -0.012855 0.250988
    27 0.781203 0.000000 0.000000 -0.000096 -0.003210 0.062757
    28 2.033353 1.000771 -1.101647 -3.176988 1.193701 1.415651
    29 6.809417 0.000001 0.000000 1.431063 1.169641 -0.721560
    30 12.391794 0.000000 0.000001 0.000000 0.000000 -1.834708
    31 9.337102 0.000000 0.000003 -0.790533 0.086238 0.716395
    32 4.453986 -0.073766 -0.571672 0.047699 -0.153453 -0.767464
    33 1.426599 0.000002 0.000000 -0.053883 0.078890 -1.553256
    34 1.322465 -0.000001 0.000000 -0.013603 0.036958 -0.732277
    35 4.477036 -0.043465 -1.581290 -0.332631 0.218360 0.154973
    36 1.344414 0.000000 0.000000 -0.042629 0.220735 -0.851579
    37 1.224670 0.000001 0.000000 0.008150 -0.000004 -0.000025
    38 2.630291 -0.359835 -1.904289 0.415078 0.423437 -0.720800
    39 1.059293 0.000000 0.000000 0.015101 0.038905 0.767148
    40 0.781204 0.000000 0.000000 0.004782 0.022537 0.418308
    41 -0.044717 2.528787 4.661499 -0.042719 0.000000 0.000000
end
