// Created by Crowbar 0.68

$modelname "jetski001.mdl"

$bodygroup "Body"
{
	studio "jetski001_reference.smd"
}


$surfaceprop "metal"

$contents "solid"

$illumposition 0 0 27.092

$cdmaterials "models\jetski\"

$attachment "vehicle_driver_eyes" "Jetski.hull" 0 69 -11 rotate -90 -90 0
$attachment "wheel_fl" "Jetski.hull" 47 3 40 rotate 0 0 0
$attachment "wheel_fr" "Jetski.hull" -47 3 40 rotate 0 0 0
$attachment "wheel_rl" "Jetski.hull" 47 3 -40 rotate 0 0 0
$attachment "wheel_rr" "Jetski.hull" -47 3 -40 rotate 0 0 0
$attachment "raytrace_fl" "Jetski.hull" 7 3 40 rotate 0 0 0
$attachment "raytrace_fr" "Jetski.hull" -7 3 40 rotate 0 0 0
$attachment "raytrace_rl" "Jetski.hull" 7 3 -40 rotate 0 0 0
$attachment "raytrace_rr" "Jetski.hull" -7 3 -40 rotate 0 0 0
$attachment "splash_pt" "Jetski.hull" 0 0 40 rotate 0 0 0

$cbox 0 0 0 0 0 0

$bbox -12.246 -46.509 -5.585 12.246 46.509 59.769

$definebone "Jetski.hull" "" 0 0 0 0 0 89.999982 0 0 0 0 0 0

$animation "a_idle" "jetski001_anims\idle.smd" {
	fps 30
}

$sequence "idle" {
	"a_idle"
	fadein 0.2
	fadeout 0.2
}


$collisionmodel "jetski001_physics.smd"
{
	$mass 500
	$inertia 1
	$damping 0
	$rotdamping 0
	$rootbone " "
	$concave

}
