version 1
nodes
  0 "Bip01"  -1
  1 "Bip01 Footsteps"   0
  2 "Bip01 Pelvis"   0
  3 "Bip01 Spine"   2
  4 "Bip01 Neck"   3
  5 "Bip01 Head"   4
  6 "Dummy13"   5
  7 "Bip01 L Clavicle"   4
  8 "Bip01 L UpperArm"   7
  9 "Bip01 L Forearm"   8
 10 "Bip01 L Hand"   9
 11 "Bip01 L Finger0"  10
 12 "Bip01 L Finger01"  11
 13 "Bip01 L Finger02"  12
 14 "Dummy06"  13
 15 "Bip01 L Finger1"  10
 16 "Bip01 L Finger11"  15
 17 "Bip01 L Finger12"  16
 18 "Dummy07"  17
 19 "Bip01 L Finger2"  10
 20 "Bip01 L Finger21"  19
 21 "Bip01 L Finger22"  20
 22 "Dummy08"  21
 23 "Bip01 L Finger3"  10
 24 "Bip01 L Finger31"  23
 25 "Bip01 L Finger32"  24
 26 "Dummy09"  25
 27 "Bip01 L Finger4"  10
 28 "Bip01 L Finger41"  27
 29 "Bip01 L Finger42"  28
 30 "Dummy10"  29
 31 "Bip01 R Clavicle"   4
 32 "Bip01 R UpperArm"  31
 33 "Bip01 R Forearm"  32
 34 "Bip01 R Hand"  33
 35 "Bip01 R Finger0"  34
 36 "Bip01 R Finger01"  35
 37 "Bip01 R Finger02"  36
 38 "Dummy01"  37
 39 "Bip01 R Finger1"  34
 40 "Bip01 R Finger11"  39
 41 "Bip01 R Finger12"  40
 42 "Dummy02"  41
 43 "Bip01 R Finger2"  34
 44 "Bip01 R Finger21"  43
 45 "Bip01 R Finger22"  44
 46 "Dummy03"  45
 47 "Bip01 R Finger3"  34
 48 "Bip01 R Finger31"  47
 49 "Bip01 R Finger32"  48
 50 "Dummy04"  49
 51 "Bip01 R Finger4"  34
 52 "Bip01 R Finger41"  51
 53 "Bip01 R Finger42"  52
 54 "Dummy05"  53
 55 "Dummy15"  34
 56 "Point02"  55
 57 "Dummy14"  34
 58 "Point01"  57
 59 "Bip01 L Thigh"   3
 60 "Bip01 L Calf"  59
 61 "Bip01 L Foot"  60
 62 "Bip01 L Toe0"  61
 63 "Dummy12"  62
 64 "Bip01 R Thigh"   3
 65 "Bip01 R Calf"  64
 66 "Bip01 R Foot"  65
 67 "Bip01 R Toe0"  66
 68 "Dummy11"  67
 69 "v_hand"   2
end
skeleton
time 0
  0 0.055539 -15.777153 42.370625 0.000000 0.000000 -1.570795
  1 0.000000 0.000000 -42.890663 0.000000 0.000000 1.570795
  2 0.000000 0.000000 0.000000 -1.570795 -1.570451 0.000000
  3 4.443615 -0.009641 0.000006 -0.000004 -0.000001 0.000796
  4 12.111414 -0.011446 -0.000000 0.000000 0.000000 0.000000
  5 14.374122 -0.000000 0.000000 -0.000000 0.000000 -0.000798
  6 9.660028 -0.000000 -0.000000 0.000000 0.000000 0.000000
  7 0.000011 0.011443 1.352403 1.225590 -0.272409 2.498456
  8 6.078087 0.000000 -0.000001 -0.620120 -0.263154 -0.684193
  9 13.446752 -0.000000 0.000001 -0.000000 0.000000 -0.717270
 10 15.996999 0.000004 0.000002 2.807252 0.373057 -0.173719
 11 1.885328 0.833278 -2.177877 -1.250997 0.669548 0.333038
 12 1.506963 -0.000000 0.000001 -0.000000 0.000000 0.127409
 13 0.798352 0.000000 -0.000001 0.000000 0.000000 0.178024
 14 1.468324 0.000001 -0.000000 0.000000 0.000000 0.000000
 15 3.950304 -0.539872 -2.108871 -0.000806 0.157080 -0.000126
 16 1.545797 0.000001 0.000001 -0.000000 0.000000 0.471239
 17 1.667399 -0.000003 0.000000 0.000000 -0.000000 0.436332
 18 1.530150 0.000002 -0.000001 0.000000 0.000000 0.000000
 19 3.899460 -0.475374 -1.170890 -0.000796 -0.000000 -0.000000
 20 1.528216 0.000001 0.000000 -0.000000 -0.000000 0.331613
 21 1.528214 -0.000001 -0.000001 0.000000 0.000000 0.479966
 22 1.940834 0.000001 -0.000001 0.000000 0.000000 0.000000
 23 3.899461 -0.431803 0.168224 -0.000796 -0.000000 -0.000000
 24 1.506965 -0.000003 -0.000003 0.000000 0.000000 0.427606
 25 1.506966 0.000001 0.000002 -0.000000 -0.000000 0.340339
 26 1.506963 0.000001 0.000002 0.000000 0.000000 0.000000
 27 3.915633 -0.278018 1.402610 -0.000796 -0.000000 -0.000000
 28 1.333083 0.000002 -0.000002 0.000000 0.000000 0.637045
 29 1.159198 -0.000003 0.000003 -0.000000 -0.000000 0.218166
 30 1.341586 0.000001 -0.000001 0.000000 0.000000 0.000000
 31 0.000011 0.011450 -1.352403 2.212808 1.072627 -0.866448
 32 6.078088 0.000000 -0.000004 0.327296 -1.396809 -0.644814
 33 13.446752 0.000000 -0.000000 0.000000 -0.000000 -1.682578
 34 15.996998 0.000003 0.000001 1.992313 -0.007099 0.015945
 35 1.885327 0.833277 2.177877 1.033812 -0.470832 0.961343
 36 1.506963 -0.000002 -0.000000 0.000000 -0.000000 -0.305433
 37 0.798352 0.000000 0.000001 0.000000 -0.000000 -0.436332
 38 1.468325 -0.000002 0.000002 0.000000 0.000000 3.141593
 39 3.950306 -0.539875 2.108873 0.000806 -0.157080 -0.000126
 40 1.545798 0.000000 -0.000000 0.000000 0.000000 0.471239
 41 1.667399 0.000000 0.000001 -0.000000 -0.000000 0.436332
 42 1.530146 0.000002 0.000000 0.000000 0.000000 3.141593
 43 3.899459 -0.475375 1.170889 0.000776 -0.000179 0.226893
 44 1.528214 0.000000 -0.000003 -0.000000 0.000000 1.186824
 45 1.528217 -0.000000 0.000001 -0.000000 -0.000000 1.169371
 46 1.940833 -0.000000 0.000001 0.000000 0.000000 3.141593
 47 3.899462 -0.431803 -0.168227 0.000696 -0.000386 0.506145
 48 1.506964 -0.000000 -0.000002 0.000000 -0.000000 1.021018
 49 1.506964 0.000002 0.000000 -0.000000 -0.000000 1.239184
 50 1.506963 -0.000000 0.000001 0.000000 0.000000 3.141593
 51 3.915633 -0.278019 -1.402611 0.000528 -0.000596 0.846485
 52 1.333083 -0.000000 -0.000002 -0.000000 0.000000 1.178097
 53 1.159203 -0.000002 0.000003 -0.000000 -0.000000 0.741765
 54 1.341587 0.000002 -0.000001 0.000000 0.000000 3.141593
 55 11.995240 1.423876 2.193769 -1.559349 -3.123009 0.015439
 56 -0.002353 -3.522959 0.095806 0.000000 0.000000 0.000000
 57 17.618813 2.894396 6.858010 -1.559349 -3.123009 0.015439
 58 0.027673 0.000002 1.268381 0.000000 0.000000 0.000000
 59 -4.443607 0.013171 3.864010 -0.000003 -3.141592 -0.100798
 60 19.320051 0.000000 0.000000 -0.000000 -0.000000 -0.200004
 61 19.320049 -0.000000 0.000000 0.000000 0.000000 0.100002
 62 4.443612 5.602815 0.000000 -0.000000 0.000000 1.570796
 63 0.579602 -0.000000 0.000000 0.000000 0.000000 3.141593
 64 -4.443607 0.013193 -3.864010 -0.000003 -3.141592 -0.100798
 65 19.320051 0.000001 0.000000 -0.000000 -0.000000 -0.200004
 66 19.320049 -0.000000 0.000000 0.000000 0.000000 0.100002
 67 4.443612 5.602815 0.000000 -0.000000 0.000000 1.570796
 68 0.579601 0.000000 0.000000 0.000000 0.000000 0.000000
 69 15.505067 21.387569 7.472975 0.000003 3.141591 0.000000
time 1
  0 0.055539 -15.777153 42.370625 0.000000 0.000000 -1.570795
  1 0.000000 0.000000 -42.890663 0.000000 0.000000 1.570795
  2 0.000000 0.000000 0.000000 -1.570795 -1.570451 0.000000
  3 4.443615 -0.009641 0.000006 -0.000004 -0.000001 0.000796
  4 12.111414 -0.011446 -0.000000 0.000000 0.000000 0.000000
  5 14.374122 -0.000000 0.000000 -0.000000 0.000000 -0.000798
  6 9.660028 -0.000000 -0.000000 0.000000 0.000000 0.000000
  7 0.000011 0.011443 1.352403 1.225590 -0.272409 2.498456
  8 6.078087 0.000000 -0.000001 -0.620193 -0.263009 -0.683944
  9 13.446753 0.000001 0.000002 -0.000000 -0.000000 -0.717394
 10 15.997001 0.000006 0.000002 2.806278 0.372514 -0.174713
 11 1.885328 0.833276 -2.177878 -1.250997 0.669548 0.333038
 12 1.506965 -0.000000 0.000001 -0.000000 0.000000 0.127409
 13 0.798349 0.000000 -0.000002 0.000000 0.000000 0.178024
 14 1.468319 -0.000001 0.000002 0.000000 0.000000 0.000000
 15 3.950304 -0.539876 -2.108872 -0.000806 0.157080 -0.000126
 16 1.545799 0.000001 0.000001 -0.000000 0.000000 0.471239
 17 1.667396 0.000003 0.000001 0.000000 0.000000 0.436332
 18 1.530147 0.000001 0.000002 0.000000 0.000000 0.000000
 19 3.899461 -0.475375 -1.170894 -0.000796 0.000000 0.000000
 20 1.528215 -0.000001 0.000002 0.000000 0.000000 0.331613
 21 1.528219 0.000004 -0.000002 -0.000000 0.000000 0.479966
 22 1.940832 -0.000001 0.000000 0.000000 0.000000 0.000000
 23 3.899460 -0.431802 0.168224 -0.000796 0.000000 0.000000
 24 1.506965 0.000002 -0.000002 -0.000000 0.000000 0.427606
 25 1.506960 -0.000004 -0.000001 0.000000 -0.000000 0.340339
 26 1.506963 0.000001 -0.000001 0.000000 0.000000 0.000000
 27 3.915633 -0.278020 1.402609 -0.000796 0.000000 0.000000
 28 1.333082 0.000002 0.000000 0.000000 0.000000 0.637045
 29 1.159204 -0.000001 -0.000004 -0.000000 0.000000 0.218166
 30 1.341582 0.000001 0.000001 0.000000 0.000000 0.000000
 31 0.000011 0.011450 -1.352403 2.212808 1.072627 -0.866448
 32 6.078088 0.000000 -0.000004 0.327296 -1.396809 -0.644814
 33 13.446752 0.000000 -0.000000 0.000000 -0.000000 -1.682578
 34 15.996998 0.000003 0.000001 1.991150 -0.007099 0.015945
 35 1.885327 0.833276 2.177878 1.033812 -0.470832 0.961343
 36 1.506965 0.000002 0.000001 -0.000000 -0.000000 -0.305433
 37 0.798351 -0.000003 0.000001 0.000000 0.000000 -0.436332
 38 1.468325 -0.000001 0.000001 0.000000 0.000000 3.141593
 39 3.950304 -0.539876 2.108874 0.000806 -0.157080 -0.000126
 40 1.545796 0.000001 0.000003 -0.000000 0.000000 0.471239
 41 1.667398 -0.000002 -0.000002 -0.000000 0.000000 0.436332
 42 1.530148 0.000001 -0.000002 0.000000 0.000000 3.141593
 43 3.899462 -0.475376 1.170892 0.000776 -0.000179 0.226893
 44 1.528214 0.000000 -0.000000 0.000000 -0.000000 1.186824
 45 1.528216 -0.000001 -0.000002 -0.000000 0.000000 1.169371
 46 1.940834 -0.000000 -0.000001 0.000000 0.000000 3.141593
 47 3.899462 -0.431804 -0.168224 0.000696 -0.000386 0.506145
 48 1.506963 0.000000 0.000004 0.000000 -0.000000 1.021018
 49 1.506964 -0.000000 -0.000000 0.000000 0.000000 1.239184
 50 1.506965 0.000000 -0.000002 0.000000 0.000000 3.141593
 51 3.915634 -0.278020 -1.402609 0.000528 -0.000596 0.846485
 52 1.333082 -0.000002 0.000001 0.000000 -0.000000 1.178097
 53 1.159203 0.000001 -0.000001 0.000000 0.000000 0.741765
 54 1.341588 0.000001 -0.000001 0.000000 0.000000 3.141593
 55 11.995243 1.423876 2.193767 -1.559349 -3.123009 0.015439
 56 -0.002355 -3.522959 0.095805 0.000000 0.000000 0.000000
 57 17.618816 2.894396 6.858009 -1.559349 -3.123009 0.015439
 58 0.027673 -0.000000 1.268381 0.000000 0.000000 0.000000
 59 -4.443607 0.013171 3.864010 -0.000003 -3.141592 -0.100798
 60 19.320051 0.000000 0.000000 -0.000000 -0.000000 -0.200004
 61 19.320049 -0.000000 0.000000 0.000000 0.000000 0.100002
 62 4.443612 5.602815 0.000000 -0.000000 0.000000 1.570796
 63 0.579602 -0.000000 0.000000 0.000000 0.000000 3.141593
 64 -4.443607 0.013193 -3.864010 -0.000003 -3.141592 -0.100798
 65 19.320051 0.000001 0.000000 -0.000000 -0.000000 -0.200004
 66 19.320049 -0.000000 0.000000 0.000000 0.000000 0.100002
 67 4.443612 5.602815 0.000000 -0.000000 0.000000 1.570796
 68 0.579601 0.000000 0.000000 0.000000 0.000000 0.000000
 69 15.505067 21.387569 7.472975 0.000003 3.141591 0.000000
time 2
  0 0.055539 -15.777153 42.370625 0.000000 0.000000 -1.570795
  1 0.000000 0.000000 -42.890663 0.000000 0.000000 1.570795
  2 0.000000 0.000000 0.000000 -1.570795 -1.570451 0.000000
  3 4.443615 -0.009641 0.000006 -0.000004 -0.000001 0.000796
  4 12.111414 -0.011446 -0.000000 0.000000 0.000000 0.000000
  5 14.374122 -0.000000 0.000000 -0.000000 0.000000 -0.000798
  6 9.660028 -0.000000 -0.000000 0.000000 0.000000 0.000000
  7 0.000011 0.011443 1.352403 1.225590 -0.272409 2.498456
  8 6.078087 0.000000 -0.000001 -0.620266 -0.262863 -0.683697
  9 13.446752 0.000003 0.000000 -0.000000 0.000000 -0.717519
 10 15.997000 0.000002 0.000001 2.805306 0.371969 -0.175705
 11 1.885328 0.833276 -2.177875 -1.250997 0.669548 0.333038
 12 1.506960 -0.000001 0.000004 -0.000000 0.000000 0.127409
 13 0.798348 0.000000 -0.000002 0.000000 0.000000 0.178024
 14 1.468322 0.000000 -0.000001 0.000000 0.000000 0.000000
 15 3.950305 -0.539876 -2.108870 -0.000806 0.157080 -0.000126
 16 1.545797 -0.000001 -0.000001 -0.000000 0.000000 0.471239
 17 1.667397 0.000001 -0.000002 0.000000 -0.000000 0.436332
 18 1.530152 0.000000 -0.000002 0.000000 0.000000 0.000000
 19 3.899460 -0.475375 -1.170889 -0.000796 -0.000000 0.000000
 20 1.528217 0.000002 -0.000000 -0.000000 0.000000 0.331613
 21 1.528215 -0.000000 0.000001 -0.000000 0.000000 0.479966
 22 1.940835 0.000001 0.000002 0.000000 0.000000 0.000000
 23 3.899461 -0.431804 0.168226 -0.000796 -0.000000 0.000000
 24 1.506964 -0.000004 0.000002 -0.000000 0.000000 0.427606
 25 1.506968 0.000003 -0.000001 0.000000 0.000000 0.340339
 26 1.506963 -0.000000 0.000000 0.000000 0.000000 0.000000
 27 3.915635 -0.278022 1.402610 -0.000796 -0.000000 0.000000
 28 1.333084 -0.000001 -0.000001 -0.000000 0.000000 0.637045
 29 1.159205 0.000002 -0.000000 0.000000 0.000000 0.218166
 30 1.341583 -0.000001 -0.000001 0.000000 0.000000 0.000000
 31 0.000011 0.011450 -1.352403 2.212808 1.072627 -0.866448
 32 6.078088 0.000000 -0.000004 0.327296 -1.396809 -0.644814
 33 13.446752 0.000000 -0.000000 0.000000 -0.000000 -1.682578
 34 15.996998 0.000003 0.000001 1.989986 -0.007099 0.015945
 35 1.885326 0.833277 2.177875 1.033812 -0.470832 0.961343
 36 1.506963 -0.000000 -0.000001 0.000000 -0.000000 -0.305433
 37 0.798350 0.000000 0.000000 0.000000 -0.000000 -0.436332
 38 1.468325 -0.000001 0.000001 0.000000 0.000000 3.141593
 39 3.950305 -0.539875 2.108870 0.000806 -0.157080 -0.000126
 40 1.545796 0.000000 -0.000001 -0.000000 -0.000000 0.471239
 41 1.667399 -0.000001 0.000000 -0.000000 -0.000000 0.436332
 42 1.530147 0.000003 0.000000 0.000000 0.000000 3.141593
 43 3.899461 -0.475376 1.170889 0.000776 -0.000179 0.226893
 44 1.528216 -0.000000 -0.000001 0.000000 -0.000000 1.186824
 45 1.528215 0.000002 -0.000003 0.000000 0.000000 1.169371
 46 1.940834 -0.000001 0.000002 0.000000 0.000000 3.141593
 47 3.899462 -0.431803 -0.168226 0.000696 -0.000386 0.506145
 48 1.506962 0.000000 0.000000 0.000000 0.000000 1.021018
 49 1.506964 -0.000005 0.000002 -0.000000 -0.000000 1.239184
 50 1.506967 0.000001 0.000001 0.000000 0.000000 3.141593
 51 3.915636 -0.278019 -1.402609 0.000528 -0.000596 0.846484
 52 1.333083 -0.000001 0.000001 -0.000000 -0.000000 1.178097
 53 1.159202 -0.000001 0.000000 0.000000 0.000000 0.741765
 54 1.341587 0.000001 -0.000001 0.000000 0.000000 3.141593
 55 11.995242 1.423876 2.193768 -1.559349 -3.123009 0.015439
 56 -0.002359 -3.522956 0.095805 0.000000 0.000000 0.000000
 57 17.618814 2.894397 6.858006 -1.559349 -3.123009 0.015439
 58 0.027674 -0.000000 1.268381 0.000000 0.000000 0.000000
 59 -4.443607 0.013171 3.864010 -0.000003 -3.141592 -0.100798
 60 19.320051 0.000000 0.000000 -0.000000 -0.000000 -0.200004
 61 19.320049 -0.000000 0.000000 0.000000 0.000000 0.100002
 62 4.443612 5.602815 0.000000 -0.000000 0.000000 1.570796
 63 0.579602 -0.000000 0.000000 0.000000 0.000000 3.141593
 64 -4.443607 0.013193 -3.864010 -0.000003 -3.141592 -0.100798
 65 19.320051 0.000001 0.000000 -0.000000 -0.000000 -0.200004
 66 19.320049 -0.000000 0.000000 0.000000 0.000000 0.100002
 67 4.443612 5.602815 0.000000 -0.000000 0.000000 1.570796
 68 0.579601 0.000000 0.000000 0.000000 0.000000 0.000000
 69 15.505067 21.387569 7.472975 0.000003 3.141591 0.000000
time 3
  0 0.055539 -15.777153 42.370625 0.000000 0.000000 -1.570795
  1 0.000000 0.000000 -42.890663 0.000000 0.000000 1.570795
  2 0.000000 0.000000 0.000000 -1.570795 -1.570451 0.000000
  3 4.443615 -0.009641 0.000006 -0.000004 -0.000001 0.000796
  4 12.111414 -0.011446 -0.000000 0.000000 0.000000 0.000000
  5 14.374122 -0.000000 0.000000 -0.000000 0.000000 -0.000798
  6 9.660028 -0.000000 -0.000000 0.000000 0.000000 0.000000
  7 0.000011 0.011443 1.352403 1.225590 -0.272409 2.498456
  8 6.078087 0.000000 -0.000001 -0.620339 -0.262718 -0.683449
  9 13.446751 -0.000000 0.000001 -0.000000 -0.000000 -0.717642
 10 15.997001 0.000003 0.000002 2.804333 0.371424 -0.176697
 11 1.885327 0.833276 -2.177874 -1.250997 0.669547 0.333038
 12 1.506965 0.000000 0.000000 -0.000000 -0.000000 0.127409
 13 0.798346 0.000001 -0.000000 0.000000 0.000000 0.178024
 14 1.468324 0.000000 -0.000001 0.000000 0.000000 0.000000
 15 3.950305 -0.539875 -2.108870 -0.000806 0.157080 -0.000126
 16 1.545798 -0.000001 -0.000002 -0.000000 -0.000000 0.471239
 17 1.667397 0.000001 0.000001 -0.000000 0.000000 0.436332
 18 1.530143 -0.000001 0.000002 0.000000 0.000000 0.000000
 19 3.899460 -0.475375 -1.170890 -0.000796 -0.000000 0.000000
 20 1.528214 -0.000000 0.000000 0.000000 0.000000 0.331613
 21 1.528217 0.000001 -0.000001 -0.000000 0.000000 0.479965
 22 1.940835 -0.000001 -0.000001 0.000000 0.000000 0.000000
 23 3.899459 -0.431802 0.168227 -0.000796 -0.000000 0.000000
 24 1.506964 -0.000001 -0.000001 -0.000000 0.000000 0.427606
 25 1.506964 0.000002 -0.000000 0.000000 -0.000000 0.340339
 26 1.506963 0.000000 0.000001 0.000000 0.000000 0.000000
 27 3.915634 -0.278020 1.402610 -0.000796 -0.000000 0.000000
 28 1.333083 -0.000001 -0.000000 0.000000 -0.000000 0.637045
 29 1.159204 0.000001 -0.000000 -0.000000 0.000000 0.218166
 30 1.341583 0.000000 -0.000000 0.000000 0.000000 0.000000
 31 0.000011 0.011450 -1.352403 2.212808 1.072627 -0.866448
 32 6.078088 0.000000 -0.000004 0.327296 -1.396809 -0.644814
 33 13.446752 0.000000 -0.000000 0.000000 -0.000000 -1.682578
 34 15.996998 0.000003 0.000001 1.988822 -0.007099 0.015945
 35 1.885326 0.833277 2.177876 1.033812 -0.470832 0.961343
 36 1.506966 0.000002 0.000000 0.000000 -0.000000 -0.305433
 37 0.798349 -0.000004 -0.000002 -0.000000 0.000000 -0.436332
 38 1.468325 0.000000 0.000004 0.000000 0.000000 3.141593
 39 3.950305 -0.539876 2.108871 0.000806 -0.157080 -0.000126
 40 1.545797 0.000000 -0.000000 -0.000000 -0.000000 0.471239
 41 1.667397 0.000002 0.000001 0.000000 -0.000000 0.436332
 42 1.530148 0.000001 0.000001 0.000000 0.000000 3.141593
 43 3.899459 -0.475376 1.170893 0.000776 -0.000179 0.226893
 44 1.528216 -0.000000 -0.000001 0.000000 -0.000000 1.186824
 45 1.528215 -0.000003 0.000003 0.000000 -0.000000 1.169371
 46 1.940835 -0.000000 -0.000003 0.000000 0.000000 3.141593
 47 3.899461 -0.431804 -0.168222 0.000696 -0.000386 0.506145
 48 1.506962 0.000000 0.000003 0.000000 0.000000 1.021018
 49 1.506965 -0.000002 -0.000001 -0.000000 -0.000000 1.239184
 50 1.506961 -0.000000 -0.000002 0.000000 0.000000 3.141593
 51 3.915637 -0.278020 -1.402610 0.000528 -0.000596 0.846484
 52 1.333085 -0.000001 -0.000003 -0.000000 -0.000000 1.178097
 53 1.159205 0.000001 0.000002 0.000000 -0.000000 0.741765
 54 1.341586 0.000001 0.000003 0.000000 0.000000 3.141593
 55 11.995241 1.423876 2.193769 -1.559349 -3.123009 0.015439
 56 -0.002357 -3.522961 0.095805 0.000000 0.000000 0.000000
 57 17.618814 2.894397 6.858010 -1.559349 -3.123009 0.015439
 58 0.027671 -0.000001 1.268380 0.000000 0.000000 0.000000
 59 -4.443607 0.013171 3.864010 -0.000003 -3.141592 -0.100798
 60 19.320051 0.000000 0.000000 -0.000000 -0.000000 -0.200004
 61 19.320049 -0.000000 0.000000 0.000000 0.000000 0.100002
 62 4.443612 5.602815 0.000000 -0.000000 0.000000 1.570796
 63 0.579602 -0.000000 0.000000 0.000000 0.000000 3.141593
 64 -4.443607 0.013193 -3.864010 -0.000003 -3.141592 -0.100798
 65 19.320051 0.000001 0.000000 -0.000000 -0.000000 -0.200004
 66 19.320049 -0.000000 0.000000 0.000000 0.000000 0.100002
 67 4.443612 5.602815 0.000000 -0.000000 0.000000 1.570796
 68 0.579601 0.000000 0.000000 0.000000 0.000000 0.000000
 69 15.505067 21.387569 7.472975 0.000003 3.141591 0.000000
end
