// Created by Crowbar 0.68
version 1
nodes
  0 "ValveBiped.Bip01_Pelvis" -1
  1 "ValveBiped.Bip01_Spine" 0
  2 "ValveBiped.Bip01_Spine1" 1
  3 "ValveBiped.Bip01_Spine2" 2
  4 "ValveBiped.Bip01_Spine4" 3
  5 "ValveBiped.Bip01_Neck1" 4
  6 "ValveBiped.Bip01_Head1" 5
  7 "ValveBiped.forward" 6
  8 "ValveBiped.Bip01_L_Clavicle" 4
  9 "ValveBiped.Bip01_L_UpperArm" 8
  10 "ValveBiped.Bip01_L_Forearm" 9
  11 "ValveBiped.Bip01_L_Hand" 10
  12 "ValveBiped.Anim_Attachment_LH" 11
  13 "ValveBiped.Bip01_R_Clavicle" 4
  14 "ValveBiped.Bip01_R_UpperArm" 13
  15 "ValveBiped.Bip01_R_Forearm" 14
  16 "ValveBiped.Bip01_R_Hand" 15
  17 "ValveBiped.Anim_Attachment_RH" 16
  18 "ValveBiped.Bip01_L_Thigh" 0
  19 "ValveBiped.Bip01_L_Calf" 18
  20 "ValveBiped.Bip01_L_Foot" 19
  21 "ValveBiped.Bip01_R_Thigh" 0
  22 "ValveBiped.Bip01_R_Calf" 21
  23 "ValveBiped.Bip01_R_Foot" 22
  24 "ValveBiped.Bip01_L_Finger4" 11
  25 "ValveBiped.Bip01_L_Finger41" 24
  26 "ValveBiped.Bip01_L_Finger42" 25
  27 "ValveBiped.Bip01_L_Finger3" 11
  28 "ValveBiped.Bip01_L_Finger31" 27
  29 "ValveBiped.Bip01_L_Finger32" 28
  30 "ValveBiped.Bip01_L_Finger2" 11
  31 "ValveBiped.Bip01_L_Finger21" 30
  32 "ValveBiped.Bip01_L_Finger22" 31
  33 "ValveBiped.Bip01_L_Finger1" 11
  34 "ValveBiped.Bip01_L_Finger11" 33
  35 "ValveBiped.Bip01_L_Finger12" 34
  36 "ValveBiped.Bip01_L_Finger0" 11
  37 "ValveBiped.Bip01_L_Finger01" 36
  38 "ValveBiped.Bip01_L_Finger02" 37
  39 "ValveBiped.Bip01_L_Ulna" 10
  40 "ValveBiped.Bip01_L_Wrist" 10
  41 "ValveBiped.Bip01_L_Bicep" 9
  42 "ValveBiped.Bip01_L_Shoulder" 9
  43 "ValveBiped.Bip01_L_Trapezius" 8
  44 "ValveBiped.Bip01_R_Finger4" 16
  45 "ValveBiped.Bip01_R_Finger41" 44
  46 "ValveBiped.Bip01_R_Finger42" 45
  47 "ValveBiped.Bip01_R_Finger3" 16
  48 "ValveBiped.Bip01_R_Finger31" 47
  49 "ValveBiped.Bip01_R_Finger32" 48
  50 "ValveBiped.Bip01_R_Finger2" 16
  51 "ValveBiped.Bip01_R_Finger21" 50
  52 "ValveBiped.Bip01_R_Finger22" 51
  53 "ValveBiped.Bip01_R_Finger1" 16
  54 "ValveBiped.Bip01_R_Finger11" 53
  55 "ValveBiped.Bip01_R_Finger12" 54
  56 "ValveBiped.Bip01_R_Finger0" 16
  57 "ValveBiped.Bip01_R_Finger01" 56
  58 "ValveBiped.Bip01_R_Finger02" 57
  59 "ValveBiped.Bip01_R_Ulna" 15
  60 "ValveBiped.Bip01_R_Wrist" 15
  61 "ValveBiped.Bip01_R_Shoulder" 14
  62 "ValveBiped.Bip01_R_Bicep" 14
  63 "ValveBiped.Bip01_R_Trapezius" 13
  64 "ValveBiped.Bip01_L_Latt" 3
  65 "ValveBiped.Bip01_L_Pectoral" 3
  66 "ValveBiped.Bip01_R_Pectoral" 3
  67 "ValveBiped.Bip01_R_Latt" 3
  68 "ValveBiped.Bip01_L_Toe0" 20
  69 "ValveBiped.Bip01_R_Toe0" 23
end
skeleton
  time 0
    0 -0.000005 -0.788460 37.913784 1.570796 0.000000 0.000000
    1 0.000005 4.212784 -1.689857 1.570796 -0.027977 1.570796
    2 3.837408 0.000000 0.000000 0.000000 0.000000 -0.112614
    3 3.617872 0.000000 0.000000 0.000000 0.000000 -0.012635
    4 7.539783 0.000000 0.000000 0.000000 0.000000 0.155813
    5 3.178296 0.000000 0.000000 3.141590 0.000000 0.224127
    6 2.970273 -0.000001 0.000000 0.000000 0.000000 0.109880
    7 0.000001 0.000000 0.000000 -1.570796 0.000000 -1.326450
    8 2.023707 0.907460 0.852579 1.638357 -1.334136 2.900115
    9 4.983668 -0.000006 -0.000001 -1.519239 0.241014 -0.753622
    10 11.123063 -0.000001 -0.000005 0.000000 0.000000 -0.203544
    11 11.208311 -0.000002 -0.000008 1.505416 -0.038605 0.036303
    12 2.676090 -1.712449 0.000000 1.570797 0.000000 1.570797
    13 2.023711 0.907462 -0.852528 -1.710117 1.334139 2.900106
    14 4.983665 -0.000004 0.000000 1.572515 -0.191592 -0.765064
    15 11.123055 0.000001 0.000010 0.000000 0.000000 -0.203508
    16 11.208299 -0.000001 0.000008 -1.496970 0.038596 0.036303
    17 2.676092 -1.712447 0.000000 -1.570796 0.000000 -1.570795
    18 3.984014 -0.000004 -0.000003 -1.570796 0.051767 -1.611082
    19 15.940014 0.000000 0.000000 0.000000 0.000000 0.051654
    20 17.709562 0.000000 0.000000 0.017106 -0.070055 -1.175216
    21 -3.984013 0.000007 0.000007 -1.570796 0.051767 -1.530513
    22 15.940012 0.000000 0.000000 0.000000 0.000000 0.051654
    23 17.709553 0.000000 0.000000 -0.006396 0.070030 -1.178168
    24 3.549247 0.198817 -1.489469 -0.211910 0.371147 0.010423
    25 1.218999 -0.000003 0.000001 -0.004612 0.097482 -0.366619
    26 0.680000 0.000001 0.000000 0.011364 0.086978 -0.172880
    27 3.698007 0.267550 -0.728978 -0.081506 0.260222 -0.125246
    28 1.749003 -0.000004 0.000000 0.000213 0.027094 -0.190163
    29 0.960001 -0.000007 0.000000 0.002325 0.039402 -0.237867
    30 3.768502 0.152543 0.071385 0.088005 0.028346 -0.003436
    31 2.038005 0.000002 0.000000 0.001514 -0.004366 -0.575480
    32 1.066996 0.000006 0.000000 -0.001245 -0.005672 -0.098994
    33 3.783923 -0.017266 0.794555 0.283379 -0.216139 0.062671
    34 1.629000 -0.000006 0.000001 0.018831 -0.066668 -0.468773
    35 0.955999 0.000002 0.000000 0.000000 -0.069720 -0.170028
    36 1.258964 -0.297986 1.252591 -1.289008 -0.530146 -0.654404
    37 1.393002 0.000004 0.000000 0.000000 0.002024 -0.043589
    38 1.100001 -0.000001 -0.000003 0.000000 0.013129 -0.286815
    39 5.604148 0.000000 -0.000006 -0.030876 0.000000 0.000000
    40 11.208295 -0.000004 -0.000012 -0.057543 0.000000 0.000000
    41 5.560003 -0.700002 -0.500004 0.000000 0.000000 0.000000
    42 1.500001 0.000000 0.000000 0.000000 0.000000 0.000000
    43 4.271699 -0.000001 -0.000001 0.000000 0.000000 0.000000
    44 3.549273 0.211405 1.487673 0.211910 -0.371147 0.010422
    45 1.218998 -0.000005 0.000004 0.004612 -0.097482 -0.366619
    46 0.679999 -0.000001 0.000000 -0.011364 -0.086978 -0.172880
    47 3.698025 0.273707 0.726626 0.081506 -0.260222 -0.125246
    48 1.748998 -0.000006 0.000002 -0.000213 -0.027094 -0.190163
    49 0.959998 -0.000003 0.000000 -0.002325 -0.039402 -0.237867
    50 3.768500 0.151950 -0.072740 -0.088005 -0.028346 -0.003437
    51 2.038002 -0.000005 0.000000 -0.001514 0.004366 -0.575480
    52 1.066996 -0.000001 0.000000 0.001245 0.005672 -0.098993
    53 3.783905 -0.023955 -0.794452 -0.283379 0.216139 0.062670
    54 1.628999 0.000003 -0.000001 -0.018831 0.066668 -0.468773
    55 0.956000 -0.000003 0.000000 0.000000 0.069720 -0.170028
    56 1.258940 -0.308547 -1.250054 1.289008 0.530146 -0.654404
    57 1.392999 0.000000 -0.000002 0.000000 -0.002024 -0.043589
    58 1.100001 0.000002 0.000003 0.000000 -0.013129 -0.286815
    59 5.604146 -0.000001 -0.000002 0.034930 -0.000001 0.000000
    60 11.208297 -0.000001 0.000004 0.065171 -0.000001 0.000000
    61 1.499997 0.000000 0.000000 0.000000 0.000000 0.000000
    62 5.560003 -0.700000 0.500008 0.000000 0.000000 0.000000
    63 4.271698 -0.000003 0.000000 0.000000 0.000000 0.000000
    64 2.132026 1.532023 5.000000 0.000000 0.000000 0.000000
    65 2.000002 4.938048 2.578000 0.000000 0.000000 0.000000
    66 2.000008 4.938046 -2.578000 0.000000 0.000000 0.000000
    67 2.132023 1.532021 -5.000000 0.000000 0.000000 0.000000
    68 6.203997 0.000001 0.000000 -0.011146 0.000934 -0.500515
    69 6.203991 0.000003 0.000000 -0.078650 -0.006185 -0.498943
end
triangles
lakeetra_facemap
  3 -1.189200 0.326001 69.300407 -0.266806 0.129403 0.955023 0.802700 0.985400 1 3 1.000000
  3 1.248000 -0.518599 69.354706 0.206398 -0.069599 0.975990 0.673200 0.943200 1 3 1.000000
  3 1.255600 1.478501 69.087105 0.264196 0.388895 0.882588 0.875300 0.895000 1 3 1.000000
lakeetra_facemap
  3 0.941000 1.400900 61.132710 0.368890 0.754379 -0.542985 0.945300 0.138500 1 3 1.000000
  3 0.000000 3.096301 61.658306 0.018601 0.479323 -0.877441 0.999000 0.184900 1 3 1.000000
  3 2.834300 3.155601 62.224007 0.505367 0.590562 -0.629159 0.920200 0.290100 1 3 1.000000
lakeetra_facemap
  3 2.834300 3.155601 62.224007 0.505367 0.590562 -0.629159 0.920200 0.290100 1 3 1.000000
  3 0.000000 3.096301 61.658306 0.018601 0.479323 -0.877441 0.999000 0.184900 1 3 1.000000
  3 1.410300 4.215701 62.871506 0.263302 0.888507 -0.375803 0.959800 0.352300 1 3 1.000000
lakeetra_facemap
  3 2.834300 3.155601 62.224007 0.505367 0.590562 -0.629159 0.920200 0.290100 1 3 1.000000
  3 1.410300 4.215701 62.871506 0.263302 0.888507 -0.375803 0.959800 0.352300 1 3 1.000000
  3 2.805300 3.500801 65.637405 0.603399 0.757699 0.248600 0.927600 0.554500 1 3 1.000000
lakeetra_facemap
  3 2.805300 3.500801 65.637405 0.603399 0.757699 0.248600 0.927600 0.554500 1 3 1.000000
  3 1.410300 4.215701 62.871506 0.263302 0.888507 -0.375803 0.959800 0.352300 1 3 1.000000
  3 1.182200 4.090501 65.862610 0.251401 0.910105 0.329402 0.965500 0.562000 1 3 1.000000
lakeetra_facemap
  3 2.805300 3.500801 65.637405 0.603399 0.757699 0.248600 0.927600 0.554500 1 3 1.000000
  3 1.182200 4.090501 65.862610 0.251401 0.910105 0.329402 0.965500 0.562000 1 3 1.000000
  3 2.062200 2.385701 68.129005 0.442696 0.586694 0.678093 0.887700 0.755000 1 3 1.000000
lakeetra_facemap
  3 0.000000 3.151201 67.699608 0.000600 0.779413 0.626510 0.994700 0.707600 1 3 1.000000
  3 2.062200 2.385701 68.129005 0.442696 0.586694 0.678093 0.887700 0.755000 1 3 1.000000
  3 1.182200 4.090501 65.862610 0.251401 0.910105 0.329402 0.965500 0.562000 1 3 1.000000
lakeetra_facemap
  3 2.062200 2.385701 68.129005 0.442696 0.586694 0.678093 0.887700 0.755000 1 3 1.000000
  3 0.000000 3.151201 67.699608 0.000600 0.779413 0.626510 0.994700 0.707600 1 3 1.000000
  3 -2.118800 2.385701 68.128906 -0.458310 0.550712 0.697616 0.978600 0.829900 1 3 1.000000
lakeetra_facemap
  3 2.062200 2.385701 68.129005 0.442696 0.586694 0.678093 0.887700 0.755000 1 3 1.000000
  3 -2.118800 2.385701 68.128906 -0.458310 0.550712 0.697616 0.978600 0.829900 1 3 1.000000
  3 1.255600 1.478501 69.087105 0.264196 0.388895 0.882588 0.875300 0.895000 1 3 1.000000
lakeetra_facemap
  3 2.062200 2.385701 68.129005 0.442696 0.586694 0.678093 0.887700 0.755000 1 3 1.000000
  3 1.255600 1.478501 69.087105 0.264196 0.388895 0.882588 0.875300 0.895000 1 3 1.000000
  3 1.248000 -0.518599 69.354706 0.206398 -0.069599 0.975990 0.673200 0.943200 1 3 1.000000
lakeetra_facemap
  3 1.248000 -0.518599 69.354706 0.206398 -0.069599 0.975990 0.673200 0.943200 1 3 1.000000
  3 3.256300 0.590901 67.835609 0.828021 0.107403 0.550314 0.807400 0.743800 1 3 1.000000
  3 2.062200 2.385701 68.129005 0.442696 0.586694 0.678093 0.887700 0.755000 1 3 1.000000
lakeetra_facemap
  3 2.805300 3.500801 65.637405 0.603399 0.757699 0.248600 0.927600 0.554500 1 3 1.000000
  3 2.062200 2.385701 68.129005 0.442696 0.586694 0.678093 0.887700 0.755000 1 3 1.000000
  3 3.256300 0.590901 67.835609 0.828021 0.107403 0.550314 0.807400 0.743800 1 3 1.000000
lakeetra_facemap
  3 1.793300 -0.914999 61.846909 0.787227 -0.393113 -0.475116 0.739200 0.288500 1 3 1.000000
  3 0.941000 1.400900 61.132710 0.368890 0.754379 -0.542985 0.945300 0.138500 1 3 1.000000
  3 2.578500 0.052800 61.253906 0.273604 -0.223503 -0.935514 0.801000 0.201900 1 3 1.000000
lakeetra_facemap
  3 2.834300 3.155601 62.224007 0.505367 0.590562 -0.629159 0.920200 0.290100 1 3 1.000000
  3 2.578500 0.052800 61.253906 0.273604 -0.223503 -0.935514 0.801000 0.201900 1 3 1.000000
  3 0.941000 1.400900 61.132710 0.368890 0.754379 -0.542985 0.945300 0.138500 1 3 1.000000
lakeetra_facemap
  3 2.578500 0.052800 61.253906 0.273604 -0.223503 -0.935514 0.801000 0.201900 1 3 1.000000
  3 2.834300 3.155601 62.224007 0.505367 0.590562 -0.629159 0.920200 0.290100 1 3 1.000000
  3 3.841000 1.685701 62.687508 0.909665 0.171493 -0.378285 0.864200 0.365400 1 3 1.000000
lakeetra_facemap
  3 2.834300 3.155601 62.224007 0.505367 0.590562 -0.629159 0.920200 0.290100 1 3 1.000000
  3 2.805300 3.500801 65.637405 0.603399 0.757699 0.248600 0.927600 0.554500 1 3 1.000000
  3 3.841000 1.685701 62.687508 0.909665 0.171493 -0.378285 0.864200 0.365400 1 3 1.000000
lakeetra_facemap
  3 2.805300 3.500801 65.637405 0.603399 0.757699 0.248600 0.927600 0.554500 1 3 1.000000
  3 4.169300 1.578401 64.219711 0.989589 0.139798 0.034200 0.856000 0.463600 1 3 1.000000
  3 3.841000 1.685701 62.687508 0.909665 0.171493 -0.378285 0.864200 0.365400 1 3 1.000000
lakeetra_facemap
  3 2.805300 3.500801 65.637405 0.603399 0.757699 0.248600 0.927600 0.554500 1 3 1.000000
  3 3.256300 0.590901 67.835609 0.828021 0.107403 0.550314 0.807400 0.743800 1 3 1.000000
  3 4.169300 1.578401 64.219711 0.989589 0.139798 0.034200 0.856000 0.463600 1 3 1.000000
lakeetra_facemap
  3 3.256300 0.590901 67.835609 0.828021 0.107403 0.550314 0.807400 0.743800 1 3 1.000000
  3 3.265000 -0.816899 67.628609 0.843828 -0.235008 0.482416 0.741100 0.740000 1 3 1.000000
  3 4.169300 1.578401 64.219711 0.989589 0.139798 0.034200 0.856000 0.463600 1 3 1.000000
lakeetra_facemap
  3 3.265000 -0.816899 67.628609 0.843828 -0.235008 0.482416 0.741100 0.740000 1 3 1.000000
  3 3.256300 0.590901 67.835609 0.828021 0.107403 0.550314 0.807400 0.743800 1 3 1.000000
  3 1.248000 -0.518599 69.354706 0.206398 -0.069599 0.975990 0.673200 0.943200 1 3 1.000000
lakeetra_facemap
  3 1.248000 -0.518599 69.354706 0.206398 -0.069599 0.975990 0.673200 0.943200 1 3 1.000000
  3 1.779200 -3.044399 68.468704 0.590309 -0.482208 0.647310 0.616700 0.808200 1 3 1.000000
  3 3.265000 -0.816899 67.628609 0.843828 -0.235008 0.482416 0.741100 0.740000 1 3 1.000000
lakeetra_facemap
  3 1.248000 -0.518599 69.354706 0.206398 -0.069599 0.975990 0.673200 0.943200 1 3 1.000000
  3 -1.189200 0.326001 69.300407 -0.169605 0.144705 0.974830 0.357000 0.984500 1 3 1.000000
  3 1.779200 -3.044399 68.468704 0.590309 -0.482208 0.647310 0.616700 0.808200 1 3 1.000000
lakeetra_facemap
  3 -1.189200 0.326001 69.300407 -0.169605 0.144705 0.974830 0.357000 0.984500 1 3 1.000000
  3 -1.084100 -3.126799 68.809311 -0.269198 -0.457296 0.847592 0.413800 0.847700 1 3 1.000000
  3 1.779200 -3.044399 68.468704 0.590309 -0.482208 0.647310 0.616700 0.808200 1 3 1.000000
lakeetra_facemap
  3 -1.084100 -3.126799 68.809311 -0.269198 -0.457296 0.847592 0.413800 0.847700 1 3 1.000000
  3 -1.189200 0.326001 69.300407 -0.169605 0.144705 0.974830 0.357000 0.984500 1 3 1.000000
  3 -2.093900 -1.190099 68.896706 -0.589684 -0.177095 0.787978 0.300000 0.872300 1 3 1.000000
lakeetra_facemap
  3 -2.093900 -1.190099 68.896706 -0.589684 -0.177095 0.787978 0.300000 0.872300 1 3 1.000000
  3 -1.965000 -3.506499 67.628105 -0.690575 -0.657976 0.300289 0.381800 0.758200 1 3 1.000000
  3 -1.084100 -3.126799 68.809311 -0.269198 -0.457296 0.847592 0.413800 0.847700 1 3 1.000000
lakeetra_facemap
  3 -1.965000 -3.506499 67.628105 -0.690575 -0.657976 0.300289 0.381800 0.758200 1 3 1.000000
  3 -2.093900 -1.190099 68.896706 -0.589684 -0.177095 0.787978 0.300000 0.872300 1 3 1.000000
  3 -3.011400 -1.830299 67.461708 -0.842603 -0.420701 0.336201 0.289600 0.729600 1 3 1.000000
lakeetra_facemap
  3 -2.503900 -2.226499 64.113808 -0.970495 -0.170199 -0.170799 0.313800 0.493400 1 3 1.000000
  3 -1.965000 -3.506499 67.628105 -0.690575 -0.657976 0.300289 0.381800 0.758200 1 3 1.000000
  3 -3.011400 -1.830299 67.461708 -0.842603 -0.420701 0.336201 0.289600 0.729600 1 3 1.000000
lakeetra_facemap
  3 -2.503900 -2.226499 64.113808 -0.970495 -0.170199 -0.170799 0.313800 0.493400 1 3 1.000000
  3 -3.011400 -1.830299 67.461708 -0.842603 -0.420701 0.336201 0.289600 0.729600 1 3 1.000000
  3 -3.499800 -1.205599 63.958508 -0.840579 -0.525487 -0.131497 0.241200 0.480000 1 3 1.000000
lakeetra_facemap
  3 -2.503900 -2.226499 64.113808 -0.970495 -0.170199 -0.170799 0.313800 0.493400 1 3 1.000000
  3 -3.499800 -1.205599 63.958508 -0.840579 -0.525487 -0.131497 0.241200 0.480000 1 3 1.000000
  3 -2.304100 -1.427899 62.962406 -0.601274 -0.516378 -0.609774 0.273000 0.412500 1 3 1.000000
lakeetra_facemap
  3 -2.304100 -1.427899 62.962406 -0.601274 -0.516378 -0.609774 0.273000 0.412500 1 3 1.000000
  3 -3.499800 -1.205599 63.958508 -0.840579 -0.525487 -0.131497 0.241200 0.480000 1 3 1.000000
  3 -3.217900 -0.463199 62.092007 -0.663526 -0.541621 -0.516120 0.192000 0.349600 1 3 1.000000
lakeetra_facemap
  3 -0.271900 -3.899099 68.332710 0.187604 -0.919922 0.344308 0.474800 0.830200 1 3 1.000000
  3 1.779200 -3.044399 68.468704 0.590309 -0.482208 0.647310 0.616700 0.808200 1 3 1.000000
  3 -1.084100 -3.126799 68.809311 -0.269198 -0.457296 0.847592 0.413800 0.847700 1 3 1.000000
lakeetra_facemap
  3 -1.084100 -3.126799 68.809311 -0.269198 -0.457296 0.847592 0.413800 0.847700 1 3 1.000000
  3 -1.965000 -3.506499 67.628105 -0.690575 -0.657976 0.300289 0.381800 0.758200 1 3 1.000000
  3 -0.271900 -3.899099 68.332710 0.187604 -0.919922 0.344308 0.474800 0.830200 1 3 1.000000
lakeetra_facemap
  3 -1.965000 -3.506499 67.628105 -0.690575 -0.657976 0.300289 0.381800 0.758200 1 3 1.000000
  3 -1.399900 -4.497699 65.989311 -0.435520 -0.896241 0.084104 0.431200 0.637100 1 3 1.000000
  3 -0.271900 -3.899099 68.332710 0.187604 -0.919922 0.344308 0.474800 0.830200 1 3 1.000000
lakeetra_facemap
  3 -2.399900 -3.287399 64.242508 -0.958307 -0.273902 -0.081401 0.371400 0.511600 1 3 1.000000
  3 -2.503900 -2.226499 64.113808 -0.970495 -0.170199 -0.170799 0.313800 0.493400 1 3 1.000000
  3 -2.304100 -1.427899 62.962406 -0.601274 -0.516378 -0.609774 0.273000 0.412500 1 3 1.000000
lakeetra_facemap
  3 -1.965000 -3.506499 67.628105 -0.690575 -0.657976 0.300289 0.381800 0.758200 1 3 1.000000
  3 -2.503900 -2.226499 64.113808 -0.970495 -0.170199 -0.170799 0.313800 0.493400 1 3 1.000000
  3 -2.399900 -3.287399 64.242508 -0.958307 -0.273902 -0.081401 0.371400 0.511600 1 3 1.000000
lakeetra_facemap
  3 -1.965000 -3.506499 67.628105 -0.690575 -0.657976 0.300289 0.381800 0.758200 1 3 1.000000
  3 -2.399900 -3.287399 64.242508 -0.958307 -0.273902 -0.081401 0.371400 0.511600 1 3 1.000000
  3 -1.847800 -3.997799 64.937408 -0.842204 -0.539002 0.013000 0.406600 0.562100 1 3 1.000000
lakeetra_facemap
  3 -1.965000 -3.506499 67.628105 -0.690575 -0.657976 0.300289 0.381800 0.758200 1 3 1.000000
  3 -1.847800 -3.997799 64.937408 -0.842204 -0.539002 0.013000 0.406600 0.562100 1 3 1.000000
  3 -1.399900 -4.497699 65.989311 -0.435520 -0.896241 0.084104 0.431200 0.637100 1 3 1.000000
lakeetra_facemap
  3 -1.847800 -3.997799 64.937408 -0.842204 -0.539002 0.013000 0.406600 0.562100 1 3 1.000000
  3 -1.212800 -4.452899 64.674606 -0.174700 -0.971600 0.159600 0.435000 0.548200 1 3 1.000000
  3 -1.399900 -4.497699 65.989311 -0.435520 -0.896241 0.084104 0.431200 0.637100 1 3 1.000000
lakeetra_facemap
  3 -2.118800 2.385701 68.129005 -0.414092 0.575289 0.705386 0.100000 0.747400 1 3 1.000000
  3 -1.189200 0.326001 69.300407 -0.169605 0.144705 0.974830 0.357000 0.984500 1 3 1.000000
  3 1.255600 1.478501 69.087105 0.301086 0.376183 0.876261 0.119100 0.942700 1 3 1.000000
lakeetra_facemap
  3 -1.189200 0.326001 69.300407 -0.169605 0.144705 0.974830 0.357000 0.984500 1 3 1.000000
  3 -2.118800 2.385701 68.129005 -0.414092 0.575289 0.705386 0.100000 0.747400 1 3 1.000000
  3 -2.093900 -1.190099 68.896706 -0.589684 -0.177095 0.787978 0.300000 0.872300 1 3 1.000000
lakeetra_facemap
  3 -2.093900 -1.190099 68.896706 -0.589684 -0.177095 0.787978 0.300000 0.872300 1 3 1.000000
  3 -2.118800 2.385701 68.129005 -0.414092 0.575289 0.705386 0.100000 0.747400 1 3 1.000000
  3 -3.558300 0.744701 67.290810 -0.901740 0.129206 0.412518 0.169300 0.698300 1 3 1.000000
lakeetra_facemap
  3 -2.093900 -1.190099 68.896706 -0.589684 -0.177095 0.787978 0.300000 0.872300 1 3 1.000000
  3 -3.558300 0.744701 67.290810 -0.901740 0.129206 0.412518 0.169300 0.698300 1 3 1.000000
  3 -3.011400 -1.830299 67.461708 -0.842603 -0.420701 0.336201 0.289600 0.729600 1 3 1.000000
lakeetra_facemap
  3 -3.558300 0.744701 67.290810 -0.901740 0.129206 0.412518 0.169300 0.698300 1 3 1.000000
  3 -3.499800 -1.205599 63.958508 -0.840579 -0.525487 -0.131497 0.241200 0.480000 1 3 1.000000
  3 -3.011400 -1.830299 67.461708 -0.842603 -0.420701 0.336201 0.289600 0.729600 1 3 1.000000
lakeetra_facemap
  3 -1.849600 0.727100 59.581207 -0.968257 0.232490 0.091796 0.198800 0.103700 1 3 1.000000
  3 -2.304100 -1.427899 62.962406 -0.601274 -0.516378 -0.609774 0.273000 0.412500 1 3 1.000000
  3 -0.921100 1.360400 61.130306 -0.342201 0.761403 -0.550602 0.050900 0.135500 1 3 1.000000
lakeetra_facemap
  3 -3.217900 -0.463199 62.092007 -0.663526 -0.541621 -0.516120 0.192000 0.349600 1 3 1.000000
  3 -0.921100 1.360400 61.130306 -0.342201 0.761403 -0.550602 0.050900 0.135500 1 3 1.000000
  3 -2.304100 -1.427899 62.962406 -0.601274 -0.516378 -0.609774 0.273000 0.412500 1 3 1.000000
lakeetra_facemap
  3 -3.217900 -0.463199 62.092007 -0.663526 -0.541621 -0.516120 0.192000 0.349600 1 3 1.000000
  3 -3.147500 1.558901 61.780109 -0.567515 0.208905 -0.796420 0.102900 0.276300 1 3 1.000000
  3 -0.921100 1.360400 61.130306 -0.342201 0.761403 -0.550602 0.050900 0.135500 1 3 1.000000
lakeetra_facemap
  3 -3.147500 1.558901 61.780109 -0.567515 0.208905 -0.796420 0.102900 0.276300 1 3 1.000000
  3 0.000000 3.096301 61.658306 0.018601 0.479323 -0.877441 0.001900 0.199200 1 3 1.000000
  3 -0.921100 1.360400 61.130306 -0.342201 0.761403 -0.550602 0.050900 0.135500 1 3 1.000000
lakeetra_facemap
  3 0.000000 3.096301 61.658306 0.018601 0.479323 -0.877441 0.001900 0.199200 1 3 1.000000
  3 -3.147500 1.558901 61.780109 -0.567515 0.208905 -0.796420 0.102900 0.276300 1 3 1.000000
  3 -2.846600 3.182301 62.308006 -0.489885 0.663080 -0.565983 0.070800 0.302500 1 3 1.000000
lakeetra_facemap
  3 -2.846600 3.182301 62.308006 -0.489885 0.663080 -0.565983 0.070800 0.302500 1 3 1.000000
  3 1.410300 4.215701 62.871506 0.181504 0.923622 -0.337608 0.004100 0.353700 1 3 1.000000
  3 0.000000 3.096301 61.658306 0.018601 0.479323 -0.877441 0.001900 0.199200 1 3 1.000000
lakeetra_facemap
  3 -1.189300 4.092201 65.821205 -0.236697 0.918588 0.316496 0.039800 0.558900 1 3 1.000000
  3 1.410300 4.215701 62.871506 0.181504 0.923622 -0.337608 0.004100 0.353700 1 3 1.000000
  3 -2.846600 3.182301 62.308006 -0.489885 0.663080 -0.565983 0.070800 0.302500 1 3 1.000000
lakeetra_facemap
  3 -1.189300 4.092201 65.821205 -0.236697 0.918588 0.316496 0.039800 0.558900 1 3 1.000000
  3 1.182200 4.090501 65.862610 0.181196 0.942180 0.281894 0.003000 0.471600 1 3 1.000000
  3 1.410300 4.215701 62.871506 0.181504 0.923622 -0.337608 0.004100 0.353700 1 3 1.000000
lakeetra_facemap
  3 1.182200 4.090501 65.862610 0.181196 0.942180 0.281894 0.003000 0.471600 1 3 1.000000
  3 -1.189300 4.092201 65.821205 -0.236697 0.918588 0.316496 0.039800 0.558900 1 3 1.000000
  3 0.000000 3.151201 67.699608 0.000600 0.779413 0.626510 0.003600 0.707600 1 3 1.000000
lakeetra_facemap
  3 -1.189300 4.092201 65.821205 -0.236697 0.918588 0.316496 0.039800 0.558900 1 3 1.000000
  3 -2.118800 2.385701 68.129005 -0.414092 0.575289 0.705386 0.100000 0.747400 1 3 1.000000
  3 0.000000 3.151201 67.699608 0.000600 0.779413 0.626510 0.003600 0.707600 1 3 1.000000
lakeetra_facemap
  3 -1.189300 4.092201 65.821205 -0.236697 0.918588 0.316496 0.039800 0.558900 1 3 1.000000
  3 -2.736700 3.500801 65.637405 -0.598408 0.755710 0.266103 0.071400 0.559900 1 3 1.000000
  3 -2.118800 2.385701 68.129005 -0.414092 0.575289 0.705386 0.100000 0.747400 1 3 1.000000
lakeetra_facemap
  3 -2.736700 3.500801 65.637405 -0.598408 0.755710 0.266103 0.071400 0.559900 1 3 1.000000
  3 -3.558300 0.744701 67.290810 -0.901740 0.129206 0.412518 0.169300 0.698300 1 3 1.000000
  3 -2.118800 2.385701 68.129005 -0.414092 0.575289 0.705386 0.100000 0.747400 1 3 1.000000
lakeetra_facemap
  3 -2.736700 3.500801 65.637405 -0.598408 0.755710 0.266103 0.071400 0.559900 1 3 1.000000
  3 -4.152200 1.578401 64.219711 -0.990603 0.135500 0.018600 0.137600 0.472000 1 3 1.000000
  3 -3.558300 0.744701 67.290810 -0.901740 0.129206 0.412518 0.169300 0.698300 1 3 1.000000
lakeetra_facemap
  3 -4.152200 1.578401 64.219711 -0.990603 0.135500 0.018600 0.137600 0.472000 1 3 1.000000
  3 -3.499800 -1.205599 63.958508 -0.840579 -0.525487 -0.131497 0.241200 0.480000 1 3 1.000000
  3 -3.558300 0.744701 67.290810 -0.901740 0.129206 0.412518 0.169300 0.698300 1 3 1.000000
lakeetra_facemap
  3 -3.147500 1.558901 61.780109 -0.567515 0.208905 -0.796420 0.102900 0.276300 1 3 1.000000
  3 -3.499800 -1.205599 63.958508 -0.840579 -0.525487 -0.131497 0.241200 0.480000 1 3 1.000000
  3 -4.152200 1.578401 64.219711 -0.990603 0.135500 0.018600 0.137600 0.472000 1 3 1.000000
lakeetra_facemap
  3 -3.147500 1.558901 61.780109 -0.567515 0.208905 -0.796420 0.102900 0.276300 1 3 1.000000
  3 -3.217900 -0.463199 62.092007 -0.663526 -0.541621 -0.516120 0.192000 0.349600 1 3 1.000000
  3 -3.499800 -1.205599 63.958508 -0.840579 -0.525487 -0.131497 0.241200 0.480000 1 3 1.000000
lakeetra_facemap
  3 -3.147500 1.558901 61.780109 -0.567515 0.208905 -0.796420 0.102900 0.276300 1 3 1.000000
  3 -4.152200 1.578401 64.219711 -0.990603 0.135500 0.018600 0.137600 0.472000 1 3 1.000000
  3 -2.846600 3.182301 62.308006 -0.489885 0.663080 -0.565983 0.070800 0.302500 1 3 1.000000
lakeetra_facemap
  3 -2.736700 3.500801 65.637405 -0.598408 0.755710 0.266103 0.071400 0.559900 1 3 1.000000
  3 -2.846600 3.182301 62.308006 -0.489885 0.663080 -0.565983 0.070800 0.302500 1 3 1.000000
  3 -4.152200 1.578401 64.219711 -0.990603 0.135500 0.018600 0.137600 0.472000 1 3 1.000000
lakeetra_facemap
  3 -1.189300 4.092201 65.821205 -0.236697 0.918588 0.316496 0.039800 0.558900 1 3 1.000000
  3 -2.846600 3.182301 62.308006 -0.489885 0.663080 -0.565983 0.070800 0.302500 1 3 1.000000
  3 -2.736700 3.500801 65.637405 -0.598408 0.755710 0.266103 0.071400 0.559900 1 3 1.000000
lakeetra_facemap
  3 0.941000 1.400900 61.132710 0.337710 0.621119 -0.707222 0.003400 0.128700 1 3 1.000000
  3 1.146500 1.481000 59.890408 0.596677 0.799570 0.068297 -0.000900 0.017700 1 3 1.000000
  3 -1.849600 0.727100 59.581207 -0.923892 0.380297 -0.042400 0.071700 0.024800 1 3 1.000000
lakeetra_facemap
  3 0.941000 1.400900 61.132710 0.337710 0.621119 -0.707222 0.003400 0.128700 1 3 1.000000
  3 -1.849600 0.727100 59.581207 -0.923892 0.380297 -0.042400 0.071700 0.024800 1 3 1.000000
  3 -0.921100 1.360400 61.130306 -0.342201 0.761403 -0.550602 0.050900 0.135500 1 3 1.000000
lakeetra_facemap
  3 0.000000 3.096301 61.658306 0.018601 0.479323 -0.877441 0.001900 0.199200 1 3 1.000000
  3 0.941000 1.400900 61.132710 0.337710 0.621119 -0.707222 0.003400 0.128700 1 3 1.000000
  3 -0.921100 1.360400 61.130306 -0.342201 0.761403 -0.550602 0.050900 0.135500 1 3 1.000000
lakeetra_facemap
  3 -1.399900 -4.497699 65.989311 -0.435520 -0.896241 0.084104 0.431200 0.637100 1 3 1.000000
  3 0.006300 -4.704199 65.125511 0.009900 -0.978246 0.207210 0.487700 0.578600 1 3 1.000000
  3 -0.271900 -3.899099 68.332710 0.187604 -0.919922 0.344308 0.474800 0.830200 1 3 1.000000
lakeetra_facemap
  3 -1.212800 -4.452899 64.674606 -0.174700 -0.971600 0.159600 0.435000 0.548200 1 3 1.000000
  3 0.006300 -4.704199 65.125511 0.009900 -0.978246 0.207210 0.487700 0.578600 1 3 1.000000
  3 -1.399900 -4.497699 65.989311 -0.435520 -0.896241 0.084104 0.431200 0.637100 1 3 1.000000
lakeetra_facemap
  3 -1.212800 -4.452899 64.674606 -0.174700 -0.971600 0.159600 0.435000 0.548200 1 3 1.000000
  3 -0.727500 -4.592599 63.824909 -0.602216 -0.744920 0.287108 0.452400 0.482600 1 3 1.000000
  3 0.006300 -4.704199 65.125511 0.009900 -0.978246 0.207210 0.487700 0.578600 1 3 1.000000
lakeetra_facemap
  3 -1.212800 -4.452899 64.674606 -0.174700 -0.971600 0.159600 0.435000 0.548200 1 3 1.000000
  3 -1.847800 -3.997799 64.937408 -0.842204 -0.539002 0.013000 0.406600 0.562100 1 3 1.000000
  3 -0.727500 -4.592599 63.824909 -0.602216 -0.744920 0.287108 0.452400 0.482600 1 3 1.000000
lakeetra_facemap
  3 -1.136300 -4.713599 62.408707 -0.690260 -0.713958 -0.117493 0.446800 0.383800 1 3 1.000000
  3 -0.727500 -4.592599 63.824909 -0.602216 -0.744920 0.287108 0.452400 0.482600 1 3 1.000000
  3 -1.847800 -3.997799 64.937408 -0.842204 -0.539002 0.013000 0.406600 0.562100 1 3 1.000000
lakeetra_facemap
  3 -1.136300 -4.713599 62.408707 -0.690260 -0.713958 -0.117493 0.446800 0.383800 1 3 1.000000
  3 -1.847800 -3.997799 64.937408 -0.842204 -0.539002 0.013000 0.406600 0.562100 1 3 1.000000
  3 -2.399900 -3.287399 64.242508 -0.958307 -0.273902 -0.081401 0.371400 0.511600 1 3 1.000000
lakeetra_facemap
  3 -2.399900 -3.287399 64.242508 -0.958307 -0.273902 -0.081401 0.371400 0.511600 1 3 1.000000
  3 -1.242300 -3.182899 61.078106 -0.676600 0.042900 -0.735100 0.421900 0.268200 1 3 1.000000
  3 -1.136300 -4.713599 62.408707 -0.690260 -0.713958 -0.117493 0.446800 0.383800 1 3 1.000000
lakeetra_facemap
  3 -2.399900 -3.287399 64.242508 -0.958307 -0.273902 -0.081401 0.371400 0.511600 1 3 1.000000
  3 -2.304100 -1.427899 62.962406 -0.601274 -0.516378 -0.609774 0.273000 0.412500 1 3 1.000000
  3 -1.242300 -3.182899 61.078106 -0.676600 0.042900 -0.735100 0.421900 0.268200 1 3 1.000000
lakeetra_facemap
  3 -1.244300 -1.806700 60.797306 -0.818974 -0.497484 -0.285991 0.358300 0.222100 1 3 1.000000
  3 -1.242300 -3.182899 61.078106 -0.676600 0.042900 -0.735100 0.421900 0.268200 1 3 1.000000
  3 -2.304100 -1.427899 62.962406 -0.601274 -0.516378 -0.609774 0.273000 0.412500 1 3 1.000000
lakeetra_facemap
  3 -1.244300 -1.806700 60.797306 -0.818974 -0.497484 -0.285991 0.358300 0.222100 1 3 1.000000
  3 -2.304100 -1.427899 62.962406 -0.601274 -0.516378 -0.609774 0.273000 0.412500 1 3 1.000000
  3 -1.849600 0.727100 59.581207 -0.968257 0.232490 0.091796 0.198800 0.103700 1 3 1.000000
lakeetra_facemap
  3 -1.849600 0.727100 59.581207 -0.968257 0.232490 0.091796 0.198800 0.103700 1 3 1.000000
  3 -1.395300 -1.386100 58.281208 -0.761986 -0.645088 -0.056899 0.330400 0.099800 1 3 1.000000
  3 -1.244300 -1.806700 60.797306 -0.818974 -0.497484 -0.285991 0.358300 0.222100 1 3 1.000000
lakeetra_facemap
  3 -1.395300 -1.386100 58.281208 -0.761986 -0.645088 -0.056899 0.330400 0.099800 1 3 1.000000
  3 0.000000 -2.502899 60.756710 0.045397 -0.538268 -0.841550 0.487900 0.163600 1 3 1.000000
  3 -1.244300 -1.806700 60.797306 -0.818974 -0.497484 -0.285991 0.358300 0.222100 1 3 1.000000
lakeetra_facemap
  3 0.000000 -2.502899 60.756710 0.045397 -0.538268 -0.841550 0.487900 0.163600 1 3 1.000000
  3 -1.395300 -1.386100 58.281208 -0.761986 -0.645088 -0.056899 0.330400 0.099800 1 3 1.000000
  3 -0.008000 -1.930500 57.875008 -0.005500 -0.984032 -0.177906 0.493300 0.009500 1 3 1.000000
lakeetra_facemap
  3 -0.008000 -1.930500 57.875008 -0.005500 -0.984032 -0.177906 0.493300 0.009500 1 3 1.000000
  3 1.555000 -1.410300 61.134205 0.916720 -0.320007 -0.239205 0.664000 0.266600 1 3 1.000000
  3 0.000000 -2.502899 60.756710 0.045397 -0.538268 -0.841550 0.487900 0.163600 1 3 1.000000
lakeetra_facemap
  3 -0.008000 -1.930500 57.875008 -0.005500 -0.984032 -0.177906 0.493300 0.009500 1 3 1.000000
  3 1.756400 -0.895800 58.595509 0.929414 -0.369006 -0.004900 0.670300 0.111700 2 3 0.662000 8 0.338000
  3 1.555000 -1.410300 61.134205 0.916720 -0.320007 -0.239205 0.664000 0.266600 1 3 1.000000
lakeetra_facemap
  3 1.555000 -1.410300 61.134205 0.916720 -0.320007 -0.239205 0.664000 0.266600 1 3 1.000000
  3 1.756400 -0.895800 58.595509 0.929414 -0.369006 -0.004900 0.670300 0.111700 2 3 0.662000 8 0.338000
  3 1.793300 -0.914999 61.846909 0.787227 -0.393113 -0.475116 0.739200 0.288500 1 3 1.000000
lakeetra_facemap
  3 1.146500 1.481000 59.890408 0.579674 0.806764 0.114495 0.843500 0.040500 1 3 1.000000
  3 1.793300 -0.914999 61.846909 0.787227 -0.393113 -0.475116 0.739200 0.288500 1 3 1.000000
  3 1.756400 -0.895800 58.595509 0.929414 -0.369006 -0.004900 0.670300 0.111700 2 3 0.662000 8 0.338000
lakeetra_facemap
  3 1.146500 1.481000 59.890408 0.579674 0.806764 0.114495 0.843500 0.040500 1 3 1.000000
  3 0.941000 1.400900 61.132710 0.368890 0.754379 -0.542985 0.945300 0.138500 1 3 1.000000
  3 1.793300 -0.914999 61.846909 0.787227 -0.393113 -0.475116 0.739200 0.288500 1 3 1.000000
lakeetra_facemap
  3 0.000000 -2.502899 60.756710 0.045397 -0.538268 -0.841550 0.487900 0.163600 1 3 1.000000
  3 -1.242300 -3.182899 61.078106 -0.676600 0.042900 -0.735100 0.421900 0.268200 1 3 1.000000
  3 -1.244300 -1.806700 60.797306 -0.818974 -0.497484 -0.285991 0.358300 0.222100 1 3 1.000000
lakeetra_facemap
  3 3.501700 -0.944799 63.286808 0.791434 -0.541423 -0.283712 0.747900 0.415800 1 3 1.000000
  3 1.793300 -0.914999 61.846909 0.787227 -0.393113 -0.475116 0.739200 0.288500 1 3 1.000000
  3 2.578500 0.052800 61.253906 0.273604 -0.223503 -0.935514 0.801000 0.201900 1 3 1.000000
lakeetra_facemap
  3 3.501700 -0.944799 63.286808 0.791434 -0.541423 -0.283712 0.747900 0.415800 1 3 1.000000
  3 2.601100 -1.947799 63.868809 0.694955 -0.663857 -0.276282 0.696800 0.465300 1 3 1.000000
  3 1.793300 -0.914999 61.846909 0.787227 -0.393113 -0.475116 0.739200 0.288500 1 3 1.000000
lakeetra_facemap
  3 1.555000 -1.410300 61.134205 0.916720 -0.320007 -0.239205 0.664000 0.266600 1 3 1.000000
  3 1.793300 -0.914999 61.846909 0.787227 -0.393113 -0.475116 0.739200 0.288500 1 3 1.000000
  3 2.601100 -1.947799 63.868809 0.694955 -0.663857 -0.276282 0.696800 0.465300 1 3 1.000000
lakeetra_facemap
  3 1.555000 -1.410300 61.134205 0.916720 -0.320007 -0.239205 0.664000 0.266600 1 3 1.000000
  3 2.601100 -1.947799 63.868809 0.694955 -0.663857 -0.276282 0.696800 0.465300 1 3 1.000000
  3 0.706200 -4.097899 60.727409 0.476904 -0.107901 -0.872307 0.519700 0.225700 1 3 1.000000
lakeetra_facemap
  3 1.555000 -1.410300 61.134205 0.916720 -0.320007 -0.239205 0.664000 0.266600 1 3 1.000000
  3 0.706200 -4.097899 60.727409 0.476904 -0.107901 -0.872307 0.519700 0.225700 1 3 1.000000
  3 0.000000 -2.502899 60.756710 0.045397 -0.538268 -0.841550 0.487900 0.163600 1 3 1.000000
lakeetra_facemap
  3 0.706200 -4.097899 60.727409 0.476904 -0.107901 -0.872307 0.519700 0.225700 1 3 1.000000
  3 0.000000 -4.630599 60.748009 -0.000800 -0.621837 -0.783146 0.488000 0.261900 1 3 1.000000
  3 0.000000 -2.502899 60.756710 0.045397 -0.538268 -0.841550 0.487900 0.163600 1 3 1.000000
lakeetra_facemap
  3 0.000000 -2.502899 60.756710 0.045397 -0.538268 -0.841550 0.487900 0.163600 1 3 1.000000
  3 0.000000 -4.630599 60.748009 -0.000800 -0.621837 -0.783146 0.488000 0.261900 1 3 1.000000
  3 -1.242300 -3.182899 61.078106 -0.676600 0.042900 -0.735100 0.421900 0.268200 1 3 1.000000
lakeetra_facemap
  3 0.000000 -4.630599 60.748009 -0.000800 -0.621837 -0.783146 0.488000 0.261900 1 3 1.000000
  3 -0.594700 -5.193900 62.158409 -0.430574 -0.844648 0.318081 0.468400 0.373000 1 3 1.000000
  3 -1.242300 -3.182899 61.078106 -0.676600 0.042900 -0.735100 0.421900 0.268200 1 3 1.000000
lakeetra_facemap
  3 -1.242300 -3.182899 61.078106 -0.676600 0.042900 -0.735100 0.421900 0.268200 1 3 1.000000
  3 -0.594700 -5.193900 62.158409 -0.430574 -0.844648 0.318081 0.468400 0.373000 1 3 1.000000
  3 -1.136300 -4.713599 62.408707 -0.690260 -0.713958 -0.117493 0.446800 0.383800 1 3 1.000000
lakeetra_facemap
  3 -0.594700 -5.193900 62.158409 -0.430574 -0.844648 0.318081 0.468400 0.373000 1 3 1.000000
  3 0.594700 -5.193200 62.147709 0.432401 -0.842302 0.321801 0.509800 0.371200 1 3 1.000000
  3 -1.136300 -4.713599 62.408707 -0.690260 -0.713958 -0.117493 0.446800 0.383800 1 3 1.000000
lakeetra_facemap
  3 -0.594700 -5.193900 62.158409 -0.430574 -0.844648 0.318081 0.468400 0.373000 1 3 1.000000
  3 0.000000 -4.630599 60.748009 -0.000800 -0.621837 -0.783146 0.488000 0.261900 1 3 1.000000
  3 0.594700 -5.193200 62.147709 0.432401 -0.842302 0.321801 0.509800 0.371200 1 3 1.000000
lakeetra_facemap
  3 0.706200 -4.097899 60.727409 0.476904 -0.107901 -0.872307 0.519700 0.225700 1 3 1.000000
  3 0.594700 -5.193200 62.147709 0.432401 -0.842302 0.321801 0.509800 0.371200 1 3 1.000000
  3 0.000000 -4.630599 60.748009 -0.000800 -0.621837 -0.783146 0.488000 0.261900 1 3 1.000000
lakeetra_facemap
  3 0.706200 -4.097899 60.727409 0.476904 -0.107901 -0.872307 0.519700 0.225700 1 3 1.000000
  3 1.136300 -4.710299 62.352509 0.694779 -0.708278 -0.124996 0.534100 0.389600 1 3 1.000000
  3 0.594700 -5.193200 62.147709 0.432401 -0.842302 0.321801 0.509800 0.371200 1 3 1.000000
lakeetra_facemap
  3 0.706200 -4.097899 60.727409 0.476904 -0.107901 -0.872307 0.519700 0.225700 1 3 1.000000
  3 1.693600 -4.005899 62.433407 0.822524 -0.491815 -0.285608 0.563200 0.383300 1 3 1.000000
  3 1.136300 -4.710299 62.352509 0.694779 -0.708278 -0.124996 0.534100 0.389600 1 3 1.000000
lakeetra_facemap
  3 1.693600 -4.005899 62.433407 0.822524 -0.491815 -0.285608 0.563200 0.383300 1 3 1.000000
  3 2.154400 -3.876499 64.184807 0.843833 -0.536221 -0.020301 0.582400 0.503500 1 3 1.000000
  3 1.136300 -4.710299 62.352509 0.694779 -0.708278 -0.124996 0.534100 0.389600 1 3 1.000000
lakeetra_facemap
  3 1.693600 -4.005899 62.433407 0.822524 -0.491815 -0.285608 0.563200 0.383300 1 3 1.000000
  3 2.601100 -1.947799 63.868809 0.694955 -0.663857 -0.276282 0.696800 0.465300 1 3 1.000000
  3 2.154400 -3.876499 64.184807 0.843833 -0.536221 -0.020301 0.582400 0.503500 1 3 1.000000
lakeetra_facemap
  3 2.154400 -3.876499 64.184807 0.843833 -0.536221 -0.020301 0.582400 0.503500 1 3 1.000000
  3 2.601100 -1.947799 63.868809 0.694955 -0.663857 -0.276282 0.696800 0.465300 1 3 1.000000
  3 2.062900 -3.858999 65.885811 0.881661 -0.464880 0.080996 0.585300 0.622700 1 3 1.000000
lakeetra_facemap
  3 2.601100 -1.947799 63.868809 0.694955 -0.663857 -0.276282 0.696800 0.465300 1 3 1.000000
  3 2.032200 -3.263599 66.678108 0.879541 -0.465022 0.100805 0.611700 0.688200 1 3 1.000000
  3 2.062900 -3.858999 65.885811 0.881661 -0.464880 0.080996 0.585300 0.622700 1 3 1.000000
lakeetra_facemap
  3 3.501700 -0.944799 63.286808 0.791434 -0.541423 -0.283712 0.747900 0.415800 1 3 1.000000
  3 2.032200 -3.263599 66.678108 0.879541 -0.465022 0.100805 0.611700 0.688200 1 3 1.000000
  3 2.601100 -1.947799 63.868809 0.694955 -0.663857 -0.276282 0.696800 0.465300 1 3 1.000000
lakeetra_facemap
  3 0.706200 -4.097899 60.727409 0.476904 -0.107901 -0.872307 0.519700 0.225700 1 3 1.000000
  3 2.601100 -1.947799 63.868809 0.694955 -0.663857 -0.276282 0.696800 0.465300 1 3 1.000000
  3 1.693600 -4.005899 62.433407 0.822524 -0.491815 -0.285608 0.563200 0.383300 1 3 1.000000
lakeetra_facemap
  3 2.032200 -3.263599 66.678108 0.879541 -0.465022 0.100805 0.611700 0.688200 1 3 1.000000
  3 0.913100 -3.905599 67.833107 0.216008 -0.869233 0.444717 0.547300 0.768800 1 3 1.000000
  3 2.062900 -3.858999 65.885811 0.881661 -0.464880 0.080996 0.585300 0.622700 1 3 1.000000
lakeetra_facemap
  3 1.401200 -4.497699 65.989311 0.493592 -0.867186 0.065999 0.547800 0.634300 1 3 1.000000
  3 2.062900 -3.858999 65.885811 0.881661 -0.464880 0.080996 0.585300 0.622700 1 3 1.000000
  3 0.913100 -3.905599 67.833107 0.216008 -0.869233 0.444717 0.547300 0.768800 1 3 1.000000
lakeetra_facemap
  3 2.062900 -3.858999 65.885811 0.881661 -0.464880 0.080996 0.585300 0.622700 1 3 1.000000
  3 1.401200 -4.497699 65.989311 0.493592 -0.867186 0.065999 0.547800 0.634300 1 3 1.000000
  3 1.220000 -4.456999 64.744110 0.217700 -0.960399 0.173900 0.540300 0.544400 1 3 1.000000
lakeetra_facemap
  3 2.154400 -3.876499 64.184807 0.843833 -0.536221 -0.020301 0.582400 0.503500 1 3 1.000000
  3 2.062900 -3.858999 65.885811 0.881661 -0.464880 0.080996 0.585300 0.622700 1 3 1.000000
  3 1.220000 -4.456999 64.744110 0.217700 -0.960399 0.173900 0.540300 0.544400 1 3 1.000000
lakeetra_facemap
  3 2.154400 -3.876499 64.184807 0.843833 -0.536221 -0.020301 0.582400 0.503500 1 3 1.000000
  3 1.220000 -4.456999 64.744110 0.217700 -0.960399 0.173900 0.540300 0.544400 1 3 1.000000
  3 1.136300 -4.710299 62.352509 0.694779 -0.708278 -0.124996 0.534100 0.389600 1 3 1.000000
lakeetra_facemap
  3 -0.727500 -4.592599 63.824909 -0.602216 -0.744920 0.287108 0.452400 0.482600 1 3 1.000000
  3 0.152900 -5.095300 63.286709 0.419000 -0.861501 -0.286800 0.493600 0.458200 1 3 1.000000
  3 0.001900 -5.551300 63.826508 -0.019500 -0.974508 0.223502 0.488500 0.492200 1 3 1.000000
lakeetra_facemap
  3 -0.727500 -4.592599 63.824909 -0.602216 -0.744920 0.287108 0.452400 0.482600 1 3 1.000000
  3 -1.136300 -4.713599 62.408707 -0.690260 -0.713958 -0.117493 0.446800 0.383800 1 3 1.000000
  3 0.152900 -5.095300 63.286709 0.419000 -0.861501 -0.286800 0.493600 0.458200 1 3 1.000000
lakeetra_facemap
  3 0.152900 -5.095300 63.286709 0.419000 -0.861501 -0.286800 0.493600 0.458200 1 3 1.000000
  3 -1.136300 -4.713599 62.408707 -0.690260 -0.713958 -0.117493 0.446800 0.383800 1 3 1.000000
  3 -0.571700 -5.189199 62.479206 -0.456614 -0.799524 -0.390212 0.468000 0.395800 1 3 1.000000
lakeetra_facemap
  3 1.136300 -4.710299 62.352509 0.694779 -0.708278 -0.124996 0.534100 0.389600 1 3 1.000000
  3 0.152900 -5.095300 63.286709 0.419000 -0.861501 -0.286800 0.493600 0.458200 1 3 1.000000
  3 -0.571700 -5.189199 62.479206 -0.456614 -0.799524 -0.390212 0.468000 0.395800 1 3 1.000000
lakeetra_facemap
  3 0.728500 -4.592400 63.821808 0.603899 -0.740499 0.294900 0.522800 0.482700 1 3 1.000000
  3 0.152900 -5.095300 63.286709 0.419000 -0.861501 -0.286800 0.493600 0.458200 1 3 1.000000
  3 1.136300 -4.710299 62.352509 0.694779 -0.708278 -0.124996 0.534100 0.389600 1 3 1.000000
lakeetra_facemap
  3 1.136300 -4.710299 62.352509 0.694779 -0.708278 -0.124996 0.534100 0.389600 1 3 1.000000
  3 1.220000 -4.456999 64.744110 0.217700 -0.960399 0.173900 0.540300 0.544400 1 3 1.000000
  3 0.728500 -4.592400 63.821808 0.603899 -0.740499 0.294900 0.522800 0.482700 1 3 1.000000
lakeetra_facemap
  3 0.584200 -4.363599 64.832710 0.284889 -0.955762 0.073197 0.510900 0.552700 1 3 1.000000
  3 0.728500 -4.592400 63.821808 0.603899 -0.740499 0.294900 0.522800 0.482700 1 3 1.000000
  3 1.220000 -4.456999 64.744110 0.217700 -0.960399 0.173900 0.540300 0.544400 1 3 1.000000
lakeetra_facemap
  3 1.401200 -4.497699 65.989311 0.493592 -0.867186 0.065999 0.547800 0.634300 1 3 1.000000
  3 0.584200 -4.363599 64.832710 0.284889 -0.955762 0.073197 0.510900 0.552700 1 3 1.000000
  3 1.220000 -4.456999 64.744110 0.217700 -0.960399 0.173900 0.540300 0.544400 1 3 1.000000
lakeetra_facemap
  3 1.401200 -4.497699 65.989311 0.493592 -0.867186 0.065999 0.547800 0.634300 1 3 1.000000
  3 0.006300 -4.704199 65.125511 0.009900 -0.978246 0.207210 0.487700 0.578600 1 3 1.000000
  3 0.584200 -4.363599 64.832710 0.284889 -0.955762 0.073197 0.510900 0.552700 1 3 1.000000
lakeetra_facemap
  3 -0.271900 -3.899099 68.332710 0.187604 -0.919922 0.344308 0.474800 0.830200 1 3 1.000000
  3 0.006300 -4.704199 65.125511 0.009900 -0.978246 0.207210 0.487700 0.578600 1 3 1.000000
  3 1.401200 -4.497699 65.989311 0.493592 -0.867186 0.065999 0.547800 0.634300 1 3 1.000000
lakeetra_facemap
  3 -0.271900 -3.899099 68.332710 0.187604 -0.919922 0.344308 0.474800 0.830200 1 3 1.000000
  3 1.401200 -4.497699 65.989311 0.493592 -0.867186 0.065999 0.547800 0.634300 1 3 1.000000
  3 0.913100 -3.905599 67.833107 0.216008 -0.869233 0.444717 0.547300 0.768800 1 3 1.000000
lakeetra_facemap
  3 -0.271900 -3.899099 68.332710 0.187604 -0.919922 0.344308 0.474800 0.830200 1 3 1.000000
  3 0.913100 -3.905599 67.833107 0.216008 -0.869233 0.444717 0.547300 0.768800 1 3 1.000000
  3 1.779200 -3.044399 68.468704 0.590309 -0.482208 0.647310 0.616700 0.808200 1 3 1.000000
lakeetra_facemap
  3 2.032200 -3.263599 66.678108 0.879541 -0.465022 0.100805 0.611700 0.688200 1 3 1.000000
  3 1.779200 -3.044399 68.468704 0.590309 -0.482208 0.647310 0.616700 0.808200 1 3 1.000000
  3 0.913100 -3.905599 67.833107 0.216008 -0.869233 0.444717 0.547300 0.768800 1 3 1.000000
lakeetra_facemap
  3 2.032200 -3.263599 66.678108 0.879541 -0.465022 0.100805 0.611700 0.688200 1 3 1.000000
  3 3.265000 -0.816899 67.628609 0.843828 -0.235008 0.482416 0.741100 0.740000 1 3 1.000000
  3 1.779200 -3.044399 68.468704 0.590309 -0.482208 0.647310 0.616700 0.808200 1 3 1.000000
lakeetra_facemap
  3 3.265000 -0.816899 67.628609 0.843828 -0.235008 0.482416 0.741100 0.740000 1 3 1.000000
  3 2.032200 -3.263599 66.678108 0.879541 -0.465022 0.100805 0.611700 0.688200 1 3 1.000000
  3 3.501700 -0.944799 63.286808 0.791434 -0.541423 -0.283712 0.747900 0.415800 1 3 1.000000
lakeetra_facemap
  3 3.501700 -0.944799 63.286808 0.791434 -0.541423 -0.283712 0.747900 0.415800 1 3 1.000000
  3 4.169300 1.578401 64.219711 0.989589 0.139798 0.034200 0.856000 0.463600 1 3 1.000000
  3 3.265000 -0.816899 67.628609 0.843828 -0.235008 0.482416 0.741100 0.740000 1 3 1.000000
lakeetra_facemap
  3 3.841000 1.685701 62.687508 0.909665 0.171493 -0.378285 0.864200 0.365400 1 3 1.000000
  3 4.169300 1.578401 64.219711 0.989589 0.139798 0.034200 0.856000 0.463600 1 3 1.000000
  3 3.501700 -0.944799 63.286808 0.791434 -0.541423 -0.283712 0.747900 0.415800 1 3 1.000000
lakeetra_facemap
  3 2.578500 0.052800 61.253906 0.273604 -0.223503 -0.935514 0.801000 0.201900 1 3 1.000000
  3 3.841000 1.685701 62.687508 0.909665 0.171493 -0.378285 0.864200 0.365400 1 3 1.000000
  3 3.501700 -0.944799 63.286808 0.791434 -0.541423 -0.283712 0.747900 0.415800 1 3 1.000000
lakeetra_facemap
  3 0.001900 -5.551300 63.826508 -0.019500 -0.974508 0.223502 0.488500 0.492200 1 3 1.000000
  3 0.006300 -4.704199 65.125511 0.009900 -0.978246 0.207210 0.487700 0.578600 1 3 1.000000
  3 -0.727500 -4.592599 63.824909 -0.602216 -0.744920 0.287108 0.452400 0.482600 1 3 1.000000
lakeetra_facemap
  3 0.584200 -4.363599 64.832710 0.284889 -0.955762 0.073197 0.510900 0.552700 1 3 1.000000
  3 0.006300 -4.704199 65.125511 0.009900 -0.978246 0.207210 0.487700 0.578600 1 3 1.000000
  3 0.001900 -5.551300 63.826508 -0.019500 -0.974508 0.223502 0.488500 0.492200 1 3 1.000000
lakeetra_facemap
  3 0.584200 -4.363599 64.832710 0.284889 -0.955762 0.073197 0.510900 0.552700 1 3 1.000000
  3 0.001900 -5.551300 63.826508 -0.019500 -0.974508 0.223502 0.488500 0.492200 1 3 1.000000
  3 0.728500 -4.592400 63.821808 0.603899 -0.740499 0.294900 0.522800 0.482700 1 3 1.000000
lakeetra_facemap
  3 0.001900 -5.551300 63.826508 -0.019500 -0.974508 0.223502 0.488500 0.492200 1 3 1.000000
  3 0.152900 -5.095300 63.286709 0.419000 -0.861501 -0.286800 0.493600 0.458200 1 3 1.000000
  3 0.728500 -4.592400 63.821808 0.603899 -0.740499 0.294900 0.522800 0.482700 1 3 1.000000
fmouth
  3 -0.571700 -5.189199 62.479206 0.126505 0.239010 -0.962741 0.378100 0.474300 1 3 1.000000
  3 1.022300 -3.857099 63.019306 -0.655103 0.187501 -0.731904 0.487500 0.548600 1 3 1.000000
  3 1.136300 -4.710299 62.352509 -0.674627 0.736629 -0.047502 0.990100 0.474900 1 3 1.000000
fmouth
  3 1.022300 -3.857099 63.019306 -0.655103 0.187501 -0.731904 0.487500 0.548600 1 3 1.000000
  3 -0.571700 -5.189199 62.479206 0.126505 0.239010 -0.962741 0.378100 0.474300 1 3 1.000000
  3 -1.136300 -4.713599 62.408707 0.673832 0.732634 -0.095904 0.016100 0.469100 1 3 1.000000
fmouth
  3 -1.136300 -4.713599 62.408707 0.673832 0.732634 -0.095904 0.016100 0.469100 1 3 1.000000
  3 0.594700 -5.193200 62.147709 -0.185391 0.585672 0.789062 0.584300 0.473200 1 3 1.000000
  3 -1.024700 -3.728599 61.330608 0.603107 0.199502 0.772309 0.487500 0.548600 1 3 1.000000
fmouth
  3 -1.024700 -3.728599 61.330608 0.603107 0.199502 0.772309 0.487500 0.548600 1 3 1.000000
  3 0.594700 -5.193200 62.147709 -0.185391 0.585672 0.789062 0.584300 0.473200 1 3 1.000000
  3 0.922300 -3.698099 61.327106 -0.514376 0.113195 0.850061 0.487500 0.548600 1 3 1.000000
fmouth
  3 0.594700 -5.193200 62.147709 -0.185391 0.585672 0.789062 0.584300 0.473200 1 3 1.000000
  3 1.136300 -4.710299 62.352509 -0.674627 0.736629 -0.047502 0.990100 0.474900 1 3 1.000000
  3 0.922300 -3.698099 61.327106 -0.514376 0.113195 0.850061 0.487500 0.548600 1 3 1.000000
fmouth
  3 -1.359000 -2.267099 62.316208 0.690104 -0.723704 0.002800 0.024200 0.555800 1 3 1.000000
  3 -1.136300 -4.713599 62.408707 0.673832 0.732634 -0.095904 0.016100 0.469100 1 3 1.000000
  3 -1.024700 -3.728599 61.330608 0.603107 0.199502 0.772309 0.140800 0.484500 1 3 1.000000
fmouth
  3 -1.359000 -2.267099 62.316208 0.690104 -0.723704 0.002800 0.024200 0.555800 1 3 1.000000
  3 1.022300 -3.857099 63.019306 -0.655103 0.187501 -0.731904 0.914500 0.476700 1 3 1.000000
  3 -1.136300 -4.713599 62.408707 0.673832 0.732634 -0.095904 0.016100 0.469100 1 3 1.000000
fmouth
  3 1.022300 -3.857099 63.019306 -0.655103 0.187501 -0.731904 0.914500 0.476700 1 3 1.000000
  3 -1.359000 -2.267099 62.316208 0.690104 -0.723704 0.002800 0.024200 0.555800 1 3 1.000000
  3 1.000200 -2.687599 63.073406 -0.504903 -0.465803 -0.726705 0.906200 0.530400 1 3 1.000000
fmouth
  3 1.000200 -2.687599 63.073406 -0.504903 -0.465803 -0.726705 0.906200 0.530400 1 3 1.000000
  3 1.136300 -4.710299 62.352509 -0.674627 0.736629 -0.047502 0.990100 0.474900 1 3 1.000000
  3 1.022300 -3.857099 63.019306 -0.655103 0.187501 -0.731904 0.914500 0.476700 1 3 1.000000
fmouth
  3 1.000200 -2.687599 63.073406 -0.504903 -0.465803 -0.726705 0.906200 0.530400 1 3 1.000000
  3 0.922300 -3.698099 61.327106 -0.514376 0.113195 0.850061 0.876700 0.486400 1 3 1.000000
  3 1.136300 -4.710299 62.352509 -0.674627 0.736629 -0.047502 0.990100 0.474900 1 3 1.000000
fmouth
  3 0.922300 -3.698099 61.327106 -0.514376 0.113195 0.850061 0.876700 0.486400 1 3 1.000000
  3 1.000200 -2.687599 63.073406 -0.504903 -0.465803 -0.726705 0.906200 0.530400 1 3 1.000000
  3 0.927600 -2.706199 61.524406 -0.524611 -0.529411 0.666714 0.878700 0.529200 1 3 1.000000
fmouth
  3 0.927600 -2.706199 61.524406 -0.524611 -0.529411 0.666714 0.878700 0.529200 1 3 1.000000
  3 -1.024700 -3.728599 61.330608 0.603107 0.199502 0.772309 0.140800 0.484500 1 3 1.000000
  3 0.922300 -3.698099 61.327106 -0.514376 0.113195 0.850061 0.876700 0.486400 1 3 1.000000
fmouth
  3 -1.024700 -3.728599 61.330608 0.603107 0.199502 0.772309 0.140800 0.484500 1 3 1.000000
  3 0.927600 -2.706199 61.524406 -0.524611 -0.529411 0.666714 0.878700 0.529200 1 3 1.000000
  3 -1.359000 -2.267099 62.316208 0.690104 -0.723704 0.002800 0.024200 0.555800 1 3 1.000000
fmouth
  3 0.927600 -2.706199 61.524406 -0.524611 -0.529411 0.666714 0.878700 0.529200 1 3 1.000000
  3 1.000200 -2.687599 63.073406 -0.504903 -0.465803 -0.726705 0.906200 0.530400 1 3 1.000000
  3 -1.359000 -2.267099 62.316208 0.690104 -0.723704 0.002800 0.024200 0.555800 1 3 1.000000
end
