// Created by Crowbar 0.68
version 1
nodes
  0 "ValveBiped.Bip01_Pelvis" -1
  1 "ValveBiped.Bip01_Spine" 0
  2 "ValveBiped.Bip01_Spine1" 1
  3 "ValveBiped.Bip01_Spine2" 2
  4 "ValveBiped.Bip01_Spine4" 3
  5 "ValveBiped.Bip01_Neck1" 4
  6 "ValveBiped.Bip01_Head1" 5
  7 "ValveBiped.forward" 6
  8 "ValveBiped.Bip01_R_Clavicle" 4
  9 "ValveBiped.Bip01_R_UpperArm" 8
  10 "ValveBiped.Bip01_R_Forearm" 9
  11 "ValveBiped.Bip01_R_Hand" 10
  12 "ValveBiped.Anim_Attachment_RH" 11
  13 "ValveBiped.Bip01_L_Clavicle" 4
  14 "ValveBiped.Bip01_L_UpperArm" 13
  15 "ValveBiped.Bip01_L_Forearm" 14
  16 "ValveBiped.Bip01_L_Hand" 15
  17 "ValveBiped.Anim_Attachment_LH" 16
  18 "ValveBiped.Bip01_R_Thigh" 0
  19 "ValveBiped.Bip01_R_Calf" 18
  20 "ValveBiped.Bip01_R_Foot" 19
  21 "ValveBiped.Bip01_L_Thigh" 0
  22 "ValveBiped.Bip01_L_Calf" 21
  23 "ValveBiped.Bip01_L_Foot" 22
  24 "ValveBiped.Bip01" -1
  25 "ValveBiped.Bip01_L_Toe0" 23
  26 "ValveBiped.Bip01_L_Shin" 22
  27 "ValveBiped.Bip01_L_Knee" 21
  28 "ValveBiped.Bip01_L_Quadricep" 21
  29 "ValveBiped.Bip01_R_Toe0" 20
  30 "ValveBiped.Bip01_R_Shin" 19
  31 "ValveBiped.Bip01_R_Quadricep" 18
  32 "ValveBiped.Bip01_R_Knee" 18
  33 "ValveBiped.Bip01_L_Finger3" 16
  34 "ValveBiped.Bip01_L_Finger31" 33
  35 "ValveBiped.Bip01_L_Finger32" 34
  36 "ValveBiped.Bip01_L_Finger2" 16
  37 "ValveBiped.Bip01_L_Finger21" 36
  38 "ValveBiped.Bip01_L_Finger22" 37
  39 "ValveBiped.Bip01_L_Finger1" 16
  40 "ValveBiped.Bip01_L_Finger11" 39
  41 "ValveBiped.Bip01_L_Finger12" 40
  42 "ValveBiped.Bip01_L_Finger0" 16
  43 "ValveBiped.Bip01_L_Finger01" 42
  44 "ValveBiped.Bip01_L_Finger02" 43
  45 "ValveBiped.Bip01_L_Finger4" 16
  46 "ValveBiped.Bip01_L_Finger41" 45
  47 "ValveBiped.Bip01_L_Finger42" 46
  48 "ValveBiped.Bip01_L_Ulna" 15
  49 "ValveBiped.Bip01_L_Wrist" 15
  50 "ValveBiped.Bip01_L_Elbow" 14
  51 "ValveBiped.Bip01_L_Shoulder" 14
  52 "ValveBiped.Bip01_L_Bicep" 14
  53 "ValveBiped.Bip01_L_Trapezius" 13
  54 "ValveBiped.Bip01_R_Finger3" 11
  55 "ValveBiped.Bip01_R_Finger31" 54
  56 "ValveBiped.Bip01_R_Finger32" 55
  57 "ValveBiped.Bip01_R_Finger2" 11
  58 "ValveBiped.Bip01_R_Finger21" 57
  59 "ValveBiped.Bip01_R_Finger22" 58
  60 "ValveBiped.Bip01_R_Finger1" 11
  61 "ValveBiped.Bip01_R_Finger11" 60
  62 "ValveBiped.Bip01_R_Finger12" 61
  63 "ValveBiped.Bip01_R_Finger0" 11
  64 "ValveBiped.Bip01_R_Finger01" 63
  65 "ValveBiped.Bip01_R_Finger02" 64
  66 "ValveBiped.Bip01_R_Finger4" 11
  67 "ValveBiped.Bip01_R_Finger41" 66
  68 "ValveBiped.Bip01_R_Finger42" 67
  69 "ValveBiped.Bip01_R_Ulna" 10
  70 "ValveBiped.Bip01_R_Wrist" 10
  71 "ValveBiped.Bip01_R_Shoulder" 9
  72 "ValveBiped.Bip01_R_Bicep" 9
  73 "ValveBiped.Bip01_R_Elbow" 9
  74 "ValveBiped.Bip01_R_Trapezius" 8
  75 "ValveBiped.Bip01_R_Pectoral" 3
  76 "ValveBiped.Bip01_L_Pectoral" 3
  77 "ValveBiped.Bip01_R_Latt" 3
  78 "ValveBiped.Bip01_L_Latt" 3
end
skeleton
  time 0
    0 0.000000 -0.533612 38.566914 1.570796 0.000000 0.000000
    1 0.000000 3.345132 -2.981898 1.570796 0.083193 1.570796
    2 3.995838 0.000000 0.000000 0.000000 0.000000 -0.028816
    3 3.520298 0.000000 0.000000 0.000000 0.000000 0.097307
    4 8.921476 0.000000 0.000000 0.000000 0.000000 0.186413
    5 3.306360 0.000002 0.000000 3.141590 0.000000 0.406109
    6 3.602000 -0.000002 0.000000 0.000000 -0.000001 0.405033
    7 2.000003 -3.000000 0.000000 -1.570796 0.000000 -1.326450
    8 2.059532 0.977924 -1.937661 -1.661569 1.286515 2.950147
    9 6.028141 0.000007 0.000000 1.633734 -0.011884 -0.586789
    10 11.692554 0.000000 -0.000001 0.000000 0.000000 -0.060372
    11 11.481691 0.000000 0.000000 -1.559993 0.038701 0.036022
    12 2.676087 -1.712443 0.000000 -1.570796 0.000000 -1.570795
    13 2.059529 0.977924 1.937661 1.589740 -1.286514 2.950147
    14 6.028141 0.000000 0.000000 -1.573855 0.051611 -0.584887
    15 11.692555 0.000000 -0.000006 0.000000 0.000000 -0.060372
    16 11.481671 0.000000 -0.000036 1.568292 -0.038709 0.036022
    17 2.676085 -1.712442 0.000000 1.570797 0.000000 1.570797
    18 -3.890447 0.000000 0.000000 -1.570796 0.051839 -1.576018
    19 17.848167 0.000000 0.000000 0.000000 0.000000 0.034200
    20 16.525238 0.000000 0.000000 0.038609 0.040781 -1.071639
    21 3.890447 0.000000 0.000000 -1.570796 0.051839 -1.565574
    22 17.848167 0.000000 0.000000 0.000000 0.000000 0.034200
    23 16.525238 0.000000 0.000000 -0.027915 -0.040781 -1.071638
    24 -0.000005 -0.533615 38.566917 1.570796 0.000000 0.000000
    25 6.879449 0.000002 0.000000 -0.007299 -0.002951 -0.584373
    26 7.766866 0.000000 0.000000 0.000000 0.000000 0.000000
    27 17.848169 0.000000 0.000000 0.000000 0.000000 0.016691
    28 7.139265 0.000000 0.000000 0.000000 0.000000 0.000000
    29 6.879451 0.000002 0.000000 -0.081334 -0.002951 -0.584373
    30 7.766869 0.000000 0.000001 0.000000 0.000000 0.000000
    31 7.139271 0.000000 0.000000 0.000000 0.000000 0.000000
    32 17.848167 0.000000 0.000000 0.000000 0.000000 0.016685
    33 3.942322 0.046777 -0.431443 -0.155014 0.073328 -0.810648
    34 1.539095 -0.000003 0.000000 0.000000 0.004460 -0.247797
    35 1.196324 0.000001 0.000000 0.000000 0.007361 -0.430802
    36 3.883687 -0.046764 0.431443 0.085902 0.021830 -0.587867
    37 1.719573 0.000001 0.000000 0.000000 0.005516 -0.366478
    38 1.209185 0.000002 0.000000 0.000000 0.003084 -0.216400
    39 3.859859 -0.137941 1.332466 0.354449 -0.042750 -0.531718
    40 1.719427 0.000005 0.000000 0.000000 0.004074 -0.363009
    41 1.099663 0.000000 0.000000 0.000000 0.002596 -0.244331
    42 0.806048 -0.348915 1.321258 -1.206854 -0.679488 -0.789308
    43 1.789784 -0.000002 0.000001 0.000000 0.007387 0.228523
    44 1.206999 -0.000002 0.000002 0.000000 0.011267 0.362860
    45 3.859704 -0.142400 -1.191974 -0.479144 0.152190 -0.879874
    46 1.312555 -0.000002 -0.000002 0.000000 0.009665 -0.439720
    47 0.729363 0.000001 0.000000 0.000000 0.004971 -0.244299
    48 5.740847 0.000000 0.000005 0.000688 0.000000 0.000000
    49 11.481695 0.000000 0.000009 0.001272 0.000000 0.000000
    50 11.692554 0.000000 0.000009 0.000000 0.000000 -0.029500
    51 1.499998 0.000000 0.000005 0.000000 0.000000 0.000000
    52 5.559999 0.000000 0.000006 0.000000 0.000000 0.000000
    53 5.166963 0.000002 0.000000 0.000000 0.000000 0.000000
    54 3.942297 0.050328 0.431043 0.154999 -0.079305 -0.810205
    55 1.539097 0.000002 0.000000 0.000000 -0.005854 -0.247771
    56 1.196325 0.000000 0.000000 0.000000 -0.009663 -0.430761
    57 3.883659 -0.050326 -0.431043 -0.085905 -0.026404 -0.587695
    58 1.719574 -0.000001 0.000000 0.000000 -0.007974 -0.366436
    59 1.209181 0.000000 0.000000 0.000000 -0.004461 -0.216376
    60 3.859833 -0.148934 -1.331282 -0.354419 0.038567 -0.532001
    61 1.719424 0.000001 0.000001 0.000000 -0.006613 -0.362970
    62 1.099666 0.000000 0.000001 0.000000 -0.004211 -0.244312
    63 0.806019 -0.359832 -1.318334 1.204200 0.673618 -0.793956
    64 1.789783 0.000001 0.000001 0.000000 -0.006301 0.228555
    65 1.206999 -0.000001 0.000000 0.000000 -0.009618 0.362905
    66 3.859675 -0.132568 1.193108 0.479140 -0.158545 -0.879041
    67 1.312563 0.000000 -0.000001 0.000000 -0.011932 -0.439672
    68 0.729363 -0.000004 0.000002 0.000000 -0.006134 -0.244271
    69 5.740848 0.000000 0.000003 0.000081 0.000000 0.000000
    70 11.481700 0.000000 0.000002 0.000150 0.000000 0.000000
    71 1.500002 0.000000 0.000005 0.000000 0.000000 0.000000
    72 5.560000 0.000000 0.000006 0.000000 0.000000 0.000000
    73 11.692548 0.000000 0.000006 0.000000 0.000000 -0.029500
    74 5.166965 0.000000 0.000000 0.000000 0.000000 0.000000
    75 1.025254 4.831669 -2.578000 0.000000 0.000000 0.000000
    76 1.025254 4.831550 2.578000 0.000000 0.000000 0.000000
    77 2.000000 1.400000 5.000000 0.000000 0.000000 0.000000
    78 2.000001 1.400000 -5.000000 0.000000 0.000000 0.000000
end
triangles
vance_facemap
  3 -2.949700 0.666900 65.866898 -0.945015 0.143002 -0.294105 0.181800 0.461400 1 3 1.000000
  3 -2.852600 -0.509700 65.611198 0.996720 0.080602 0.007300 0.239500 0.430200 1 3 1.000000
  3 -2.892100 0.070299 64.596802 0.068996 0.405579 -0.911452 0.203900 0.346300 1 3 1.000000
vance_facemap
  3 -2.852600 -0.509700 65.611198 -0.806841 -0.504726 -0.307016 0.239500 0.430200 1 3 1.000000
  3 -3.609900 1.081100 66.077202 -0.986562 -0.091597 -0.135295 0.178500 0.482900 1 3 1.000000
  3 -2.892100 0.070299 64.596802 0.068996 0.405579 -0.911452 0.203900 0.346300 1 3 1.000000
vance_facemap
  3 -2.892100 0.070299 64.596802 0.068996 0.405579 -0.911452 0.203900 0.346300 1 3 1.000000
  3 -3.609900 1.081100 66.077202 -0.986562 -0.091597 -0.135295 0.178500 0.482900 1 3 1.000000
  3 -2.949700 0.666900 65.866898 -0.945015 0.143002 -0.294105 0.181800 0.461400 1 3 1.000000
vance_facemap
  3 -3.609900 1.081100 66.077202 -0.986562 -0.091597 -0.135295 0.178500 0.482900 1 3 1.000000
  3 -3.699200 1.200600 67.070999 0.800886 0.523691 0.290395 0.182300 0.567700 1 3 1.000000
  3 -2.949700 0.666900 65.866898 -0.945015 0.143002 -0.294105 0.181800 0.461400 1 3 1.000000
vance_facemap
  3 -3.699200 1.200600 67.070999 0.800886 0.523691 0.290395 0.182300 0.567700 1 3 1.000000
  3 -3.478600 0.173000 67.411598 0.660024 -0.259709 0.704925 0.217600 0.592200 1 3 1.000000
  3 -2.949700 0.666900 65.866898 -0.945015 0.143002 -0.294105 0.181800 0.461400 1 3 1.000000
vance_facemap
  3 -2.852600 -0.509700 65.611198 -0.806841 -0.504726 -0.307016 0.239500 0.430200 1 3 1.000000
  3 -3.219900 -1.299200 67.580002 -0.966121 -0.240005 -0.094902 0.288500 0.595600 1 3 1.000000
  3 -2.684400 0.051500 66.031502 -0.934272 -0.336890 0.116796 0.208700 0.471000 1 3 1.000000
vance_facemap
  3 -2.852600 -0.509700 65.611198 -0.806841 -0.504726 -0.307016 0.239500 0.430200 1 3 1.000000
  3 -2.726100 -0.946001 64.203499 -0.963739 0.036701 -0.264311 0.257100 0.304300 1 3 1.000000
  3 -3.219900 -1.299200 67.580002 -0.966121 -0.240005 -0.094902 0.288500 0.595600 1 3 1.000000
vance_facemap
  3 -2.726100 -0.946001 64.203499 -0.963739 0.036701 -0.264311 0.257100 0.304300 1 3 1.000000
  3 -2.019600 -3.171301 63.308498 -0.864926 -0.367611 -0.341710 0.386000 0.209400 1 3 1.000000
  3 -3.219900 -1.299200 67.580002 -0.966121 -0.240005 -0.094902 0.288500 0.595600 1 3 1.000000
vance_facemap
  3 -3.219900 -1.299200 67.580002 -0.966121 -0.240005 -0.094902 0.288500 0.595600 1 3 1.000000
  3 -2.019600 -3.171301 63.308498 -0.864926 -0.367611 -0.341710 0.386000 0.209400 1 3 1.000000
  3 -2.437400 -3.293900 66.464104 -0.808938 -0.566927 0.155607 0.383600 0.483200 1 3 1.000000
vance_facemap
  3 -3.609900 1.081100 66.077202 -0.986562 -0.091597 -0.135295 0.178500 0.482900 1 3 1.000000
  3 -2.852600 -0.509700 65.611198 -0.454417 -0.442816 0.772929 0.239500 0.430200 1 3 1.000000
  3 -2.684400 0.051500 66.031502 -0.934272 -0.336890 0.116796 0.208700 0.471000 1 3 1.000000
vance_facemap
  3 -3.699200 1.200600 67.070999 -0.879507 -0.440203 -0.180801 0.182300 0.567700 1 3 1.000000
  3 -3.609900 1.081100 66.077202 -0.986562 -0.091597 -0.135295 0.178500 0.482900 1 3 1.000000
  3 -2.684400 0.051500 66.031502 -0.934272 -0.336890 0.116796 0.208700 0.471000 1 3 1.000000
vance_facemap
  3 -3.478600 0.173000 67.411598 -0.555213 -0.623614 0.550313 0.217600 0.592200 1 3 1.000000
  3 -3.699200 1.200600 67.070999 -0.879507 -0.440203 -0.180801 0.182300 0.567700 1 3 1.000000
  3 -2.684400 0.051500 66.031502 -0.934272 -0.336890 0.116796 0.208700 0.471000 1 3 1.000000
vance_facemap
  3 -3.478600 0.173000 67.411598 -0.555213 -0.623614 0.550313 0.217600 0.592200 1 3 1.000000
  3 -2.684400 0.051500 66.031502 -0.934272 -0.336890 0.116796 0.208700 0.471000 1 3 1.000000
  3 -3.219900 -1.299200 67.580002 -0.966121 -0.240005 -0.094902 0.288500 0.595600 1 3 1.000000
vance_facemap
  3 -3.274600 2.461300 68.617897 -0.927209 0.370304 0.056201 0.134700 0.714600 1 3 1.000000
  3 -3.478600 0.173000 67.411598 -0.555213 -0.623614 0.550313 0.217600 0.592200 1 3 1.000000
  3 -3.219900 -1.299200 67.580002 -0.966121 -0.240005 -0.094902 0.288500 0.595600 1 3 1.000000
vance_facemap
  3 -3.219900 -1.299200 67.580002 -0.966121 -0.240005 -0.094902 0.288500 0.595600 1 3 1.000000
  3 -2.644100 1.523500 71.033096 -0.755072 0.191093 0.627176 0.155700 0.917800 1 3 1.000000
  3 -3.274600 2.461300 68.617897 -0.927209 0.370304 0.056201 0.134700 0.714600 1 3 1.000000
vance_facemap
  3 -3.219900 -1.299200 67.580002 -0.966121 -0.240005 -0.094902 0.288500 0.595600 1 3 1.000000
  3 -2.639000 -1.570900 70.269402 -0.806704 -0.404202 0.431102 0.321900 0.827700 1 3 1.000000
  3 -2.644100 1.523500 71.033096 -0.755072 0.191093 0.627176 0.155700 0.917800 1 3 1.000000
vance_facemap
  3 -2.639000 -1.570900 70.269402 -0.806704 -0.404202 0.431102 0.321900 0.827700 1 3 1.000000
  3 -2.101200 0.715600 71.588699 -0.545178 -0.009500 0.838266 0.184700 0.965200 1 3 1.000000
  3 -2.644100 1.523500 71.033096 -0.755072 0.191093 0.627176 0.155700 0.917800 1 3 1.000000
vance_facemap
  3 -1.427100 -2.633300 71.180397 -0.736616 -0.511711 0.442209 0.417500 0.895000 1 3 1.000000
  3 -2.101200 0.715600 71.588699 -0.545178 -0.009500 0.838266 0.184700 0.965200 1 3 1.000000
  3 -2.639000 -1.570900 70.269402 -0.806704 -0.404202 0.431102 0.321900 0.827700 1 3 1.000000
vance_facemap
  3 -2.101200 0.715600 71.588699 -0.545178 -0.009500 0.838266 0.184700 0.965200 1 3 1.000000
  3 -1.427100 -2.633300 71.180397 -0.736616 -0.511711 0.442209 0.417500 0.895000 1 3 1.000000
  3 -0.039000 0.547800 72.068604 -0.013400 0.128601 0.991606 0.002300 1.000600 1 3 1.000000
vance_facemap
  3 -0.039000 0.547800 72.068604 -0.013400 0.128601 0.991606 0.002300 1.000600 1 3 1.000000
  3 0.463200 2.794100 71.253502 0.113601 0.636807 0.762608 0.026000 0.946700 1 3 1.000000
  3 -2.101200 0.715600 71.588699 -0.545178 -0.009500 0.838266 0.184700 0.965200 1 3 1.000000
vance_facemap
  3 -2.101200 0.715600 71.588699 -0.545178 -0.009500 0.838266 0.184700 0.965200 1 3 1.000000
  3 0.463200 2.794100 71.253502 0.113601 0.636807 0.762608 0.026000 0.946700 1 3 1.000000
  3 -2.644100 1.523500 71.033096 -0.755072 0.191093 0.627176 0.155700 0.917800 1 3 1.000000
vance_facemap
  3 -1.664800 3.199000 70.585999 -0.265202 0.769707 0.580705 0.069900 0.891700 1 3 1.000000
  3 -2.644100 1.523500 71.033096 -0.755072 0.191093 0.627176 0.155700 0.917800 1 3 1.000000
  3 0.463200 2.794100 71.253502 0.113601 0.636807 0.762608 0.026000 0.946700 1 3 1.000000
vance_facemap
  3 -2.644100 1.523500 71.033096 -0.755072 0.191093 0.627176 0.155700 0.917800 1 3 1.000000
  3 -1.664800 3.199000 70.585999 -0.265202 0.769707 0.580705 0.069900 0.891700 1 3 1.000000
  3 -3.274600 2.461300 68.617897 -0.927209 0.370304 0.056201 0.134700 0.714600 1 3 1.000000
vance_facemap
  3 -2.410600 3.521100 67.890198 -0.617209 0.772811 -0.147702 0.084600 0.659300 1 3 1.000000
  3 -3.274600 2.461300 68.617897 -0.927209 0.370304 0.056201 0.134700 0.714600 1 3 1.000000
  3 -1.664800 3.199000 70.585999 -0.265202 0.769707 0.580705 0.069900 0.891700 1 3 1.000000
vance_facemap
  3 -2.410600 3.521100 67.890198 -0.617209 0.772811 -0.147702 0.084600 0.659300 1 3 1.000000
  3 -3.478600 0.173000 67.411598 -0.555213 -0.623614 0.550313 0.217600 0.592200 1 3 1.000000
  3 -3.274600 2.461300 68.617897 -0.927209 0.370304 0.056201 0.134700 0.714600 1 3 1.000000
vance_facemap
  3 -2.410600 3.521100 67.890198 -0.617209 0.772811 -0.147702 0.084600 0.659300 1 3 1.000000
  3 -2.949700 0.666900 65.866898 -0.945015 0.143002 -0.294105 0.181800 0.461400 1 3 1.000000
  3 -3.478600 0.173000 67.411598 -0.555213 -0.623614 0.550313 0.217600 0.592200 1 3 1.000000
vance_facemap
  3 -1.724900 1.719999 63.199600 -0.736062 0.670565 -0.092495 0.098700 0.236600 1 3 1.000000
  3 -2.949700 0.666900 65.866898 -0.945015 0.143002 -0.294105 0.181800 0.461400 1 3 1.000000
  3 -2.410600 3.521100 67.890198 -0.617209 0.772811 -0.147702 0.084600 0.659300 1 3 1.000000
vance_facemap
  3 -2.852600 -0.509700 65.611198 -0.806841 -0.504726 -0.307016 0.239500 0.430200 1 3 1.000000
  3 -2.949700 0.666900 65.866898 -0.945015 0.143002 -0.294105 0.181800 0.461400 1 3 1.000000
  3 -1.724900 1.719999 63.199600 -0.736062 0.670565 -0.092495 0.098700 0.236600 1 3 1.000000
vance_facemap
  3 -1.724900 1.719999 63.199600 -0.736062 0.670565 -0.092495 0.098700 0.236600 1 3 1.000000
  3 -2.336100 0.063300 61.035999 -0.969765 -0.236191 -0.061398 0.180600 0.035400 1 3 1.000000
  3 -2.852600 -0.509700 65.611198 -0.806841 -0.504726 -0.307016 0.239500 0.430200 1 3 1.000000
vance_facemap
  3 -2.336100 0.063300 61.035999 -0.969765 -0.236191 -0.061398 0.180600 0.035400 1 3 1.000000
  3 -2.726100 -0.946001 64.203499 -0.963739 0.036701 -0.264311 0.257100 0.304300 1 3 1.000000
  3 -2.852600 -0.509700 65.611198 -0.806841 -0.504726 -0.307016 0.239500 0.430200 1 3 1.000000
vance_facemap
  3 -2.336100 0.063300 61.035999 -0.969765 -0.236191 -0.061398 0.180600 0.035400 1 3 1.000000
  3 -1.005200 -2.430301 62.079800 -0.506098 -0.525498 -0.683898 0.405600 0.108000 1 3 1.000000
  3 -2.726100 -0.946001 64.203499 -0.963739 0.036701 -0.264311 0.257100 0.304300 1 3 1.000000
vance_facemap
  3 -1.005200 -2.430301 62.079800 -0.506098 -0.525498 -0.683898 0.405600 0.108000 1 3 1.000000
  3 -2.019600 -3.171301 63.308498 -0.864926 -0.367611 -0.341710 0.386000 0.209400 1 3 1.000000
  3 -2.726100 -0.946001 64.203499 -0.963739 0.036701 -0.264311 0.257100 0.304300 1 3 1.000000
vance_facemap
  3 -1.005200 -2.430301 62.079800 -0.506098 -0.525498 -0.683898 0.405600 0.108000 1 3 1.000000
  3 -0.559200 -4.445401 62.494598 -0.405487 -0.862073 -0.303990 0.476900 0.128800 1 3 1.000000
  3 -2.019600 -3.171301 63.308498 -0.864926 -0.367611 -0.341710 0.386000 0.209400 1 3 1.000000
vance_facemap
  3 -2.019600 -3.171301 63.308498 -0.864926 -0.367611 -0.341710 0.386000 0.209400 1 3 1.000000
  3 -0.559200 -4.445401 62.494598 -0.405487 -0.862073 -0.303990 0.476900 0.128800 1 3 1.000000
  3 -1.376300 -3.726301 64.248703 -0.360009 -0.924924 -0.122103 0.431700 0.287000 1 3 1.000000
vance_facemap
  3 -0.559200 -4.445401 62.494598 -0.405487 -0.862073 -0.303990 0.476900 0.128800 1 3 1.000000
  3 -0.039000 -4.404800 63.360001 0.000300 -0.989121 0.147103 0.500600 0.204500 1 3 1.000000
  3 -1.376300 -3.726301 64.248703 -0.360009 -0.924924 -0.122103 0.431700 0.287000 1 3 1.000000
vance_facemap
  3 -2.336100 0.063300 61.035999 -0.969765 -0.236191 -0.061398 0.180600 0.035400 1 3 1.000000
  3 -0.876800 -1.908900 59.915699 -0.549171 -0.811057 -0.201489 0.391300 0.003700 1 3 1.000000
  3 -1.005200 -2.430301 62.079800 -0.506098 -0.525498 -0.683898 0.405600 0.108000 1 3 1.000000
vance_facemap
  3 1.040800 -2.121900 71.667603 0.276596 -0.315595 0.907686 0.581600 0.941300 1 3 1.000000
  3 -0.039000 0.547800 72.068604 -0.013400 0.128601 0.991606 0.002300 1.000600 1 3 1.000000
  3 -1.427100 -2.633300 71.180397 -0.736616 -0.511711 0.442209 0.417500 0.895000 1 3 1.000000
vance_facemap
  3 -0.559200 -4.445401 62.494598 -0.405487 -0.862073 -0.303990 0.476900 0.128800 1 3 1.000000
  3 -1.005200 -2.430301 62.079800 -0.506098 -0.525498 -0.683898 0.405600 0.108000 1 3 1.000000
  3 0.447100 -4.104001 62.235600 0.306703 -0.279603 -0.909810 0.525500 0.108800 1 3 1.000000
vance_facemap
  3 1.253600 -2.188300 62.191795 0.671309 -0.390105 -0.630208 0.632900 0.119600 1 3 1.000000
  3 0.447100 -4.104001 62.235600 0.306703 -0.279603 -0.909810 0.525500 0.108800 1 3 1.000000
  3 -1.005200 -2.430301 62.079800 -0.506098 -0.525498 -0.683898 0.405600 0.108000 1 3 1.000000
vance_facemap
  3 -0.876800 -1.908900 59.915699 -0.549171 -0.811057 -0.201489 0.391300 0.003700 1 3 1.000000
  3 1.253600 -2.188300 62.191795 0.671309 -0.390105 -0.630208 0.632900 0.119600 1 3 1.000000
  3 -1.005200 -2.430301 62.079800 -0.506098 -0.525498 -0.683898 0.405600 0.108000 1 3 1.000000
vance_facemap
  3 0.760700 -1.892700 59.991501 0.561712 -0.802318 -0.201904 0.611100 0.003700 1 3 1.000000
  3 1.253600 -2.188300 62.191795 0.671309 -0.390105 -0.630208 0.632900 0.119600 1 3 1.000000
  3 -0.876800 -1.908900 59.915699 -0.549171 -0.811057 -0.201489 0.391300 0.003700 1 3 1.000000
vance_facemap
  3 -0.602300 2.883801 61.743099 -0.246287 0.914852 0.319983 0.026500 0.106200 1 3 1.000000
  3 -2.138600 1.562801 61.350601 -0.914992 0.388497 0.108899 0.115500 0.074200 1 3 1.000000
  3 -1.724900 1.719999 63.199600 -0.736062 0.670565 -0.092495 0.098700 0.236600 1 3 1.000000
vance_facemap
  3 -1.724900 1.719999 63.199600 -0.736062 0.670565 -0.092495 0.098700 0.236600 1 3 1.000000
  3 -2.138600 1.562801 61.350601 -0.914992 0.388497 0.108899 0.115500 0.074200 1 3 1.000000
  3 -2.336100 0.063300 61.035999 -0.969765 -0.236191 -0.061398 0.180600 0.035400 1 3 1.000000
vance_facemap
  3 -0.039000 -4.404800 63.360001 0.000300 -0.989121 0.147103 0.500600 0.204500 1 3 1.000000
  3 -0.559200 -4.445401 62.494598 -0.405487 -0.862073 -0.303990 0.476900 0.128800 1 3 1.000000
  3 0.447100 -4.104001 62.235600 0.306703 -0.279603 -0.909810 0.525500 0.108800 1 3 1.000000
vance_facemap
  3 1.942500 -3.171301 63.308498 0.871120 -0.370409 -0.322407 0.615200 0.209400 1 3 1.000000
  3 -0.039000 -4.404800 63.360001 0.000300 -0.989121 0.147103 0.500600 0.204500 1 3 1.000000
  3 0.447100 -4.104001 62.235600 0.306703 -0.279603 -0.909810 0.525500 0.108800 1 3 1.000000
vance_facemap
  3 0.447100 -4.104001 62.235600 0.306703 -0.279603 -0.909810 0.525500 0.108800 1 3 1.000000
  3 1.253600 -2.188300 62.191795 0.671309 -0.390105 -0.630208 0.632900 0.119600 1 3 1.000000
  3 1.942500 -3.171301 63.308498 0.871120 -0.370409 -0.322407 0.615200 0.209400 1 3 1.000000
vance_facemap
  3 1.253600 -2.188300 62.191795 0.671309 -0.390105 -0.630208 0.632900 0.119600 1 3 1.000000
  3 2.120700 -1.230601 63.150902 0.912945 -0.204788 -0.352979 0.727300 0.210400 1 3 1.000000
  3 1.942500 -3.171301 63.308498 0.871120 -0.370409 -0.322407 0.615200 0.209400 1 3 1.000000
vance_facemap
  3 2.120700 -1.230601 63.150902 0.912945 -0.204788 -0.352979 0.727300 0.210400 1 3 1.000000
  3 1.253600 -2.188300 62.191795 0.671309 -0.390105 -0.630208 0.632900 0.119600 1 3 1.000000
  3 0.760700 -1.892700 59.991501 0.561712 -0.802318 -0.201904 0.611100 0.003700 1 3 1.000000
vance_facemap
  3 2.237200 0.128800 61.013901 0.965817 -0.255305 -0.044901 0.819400 0.035400 1 3 1.000000
  3 2.120700 -1.230601 63.150902 0.912945 -0.204788 -0.352979 0.727300 0.210400 1 3 1.000000
  3 0.760700 -1.892700 59.991501 0.561712 -0.802318 -0.201904 0.611100 0.003700 1 3 1.000000
vance_facemap
  3 2.792300 0.595200 65.753403 0.283292 0.770978 -0.570384 0.821800 0.450100 1 3 1.000000
  3 2.120700 -1.230601 63.150902 0.912945 -0.204788 -0.352979 0.727300 0.210400 1 3 1.000000
  3 2.237200 0.128800 61.013901 0.965817 -0.255305 -0.044901 0.819400 0.035400 1 3 1.000000
vance_facemap
  3 2.237200 0.128800 61.013901 0.965817 -0.255305 -0.044901 0.819400 0.035400 1 3 1.000000
  3 1.670400 2.216001 61.584000 0.762702 0.609401 0.216600 0.915800 0.088000 1 3 1.000000
  3 2.792300 0.595200 65.753403 0.283292 0.770978 -0.570384 0.821800 0.450100 1 3 1.000000
vance_facemap
  3 1.942500 -3.171301 63.308498 0.871120 -0.370409 -0.322407 0.615200 0.209400 1 3 1.000000
  3 1.931900 -3.419401 64.374001 0.763898 -0.634898 -0.115600 0.603800 0.300300 1 3 1.000000
  3 -0.039000 -4.404800 63.360001 0.000300 -0.989121 0.147103 0.500600 0.204500 1 3 1.000000
vance_facemap
  3 2.262200 -3.174800 67.122398 0.797510 -0.602908 -0.021900 0.615900 0.541500 1 3 1.000000
  3 1.555100 -4.069500 65.765099 0.318213 -0.926638 -0.200208 0.570900 0.416500 1 3 1.000000
  3 1.931900 -3.419401 64.374001 0.763898 -0.634898 -0.115600 0.603800 0.300300 1 3 1.000000
vance_facemap
  3 3.330900 -0.424100 68.511299 0.984766 -0.161994 0.063198 0.751100 0.683400 1 3 1.000000
  3 2.262200 -3.174800 67.122398 0.797510 -0.602908 -0.021900 0.615900 0.541500 1 3 1.000000
  3 1.931900 -3.419401 64.374001 0.763898 -0.634898 -0.115600 0.603800 0.300300 1 3 1.000000
vance_facemap
  3 3.330900 -0.424100 68.511299 0.984766 -0.161994 0.063198 0.751100 0.683400 1 3 1.000000
  3 1.931900 -3.419401 64.374001 0.763898 -0.634898 -0.115600 0.603800 0.300300 1 3 1.000000
  3 2.734600 -0.488301 64.983398 0.798706 -0.552004 -0.239502 0.764000 0.399600 1 3 1.000000
vance_facemap
  3 2.734600 -0.488301 64.983398 0.798706 -0.552004 -0.239502 0.764000 0.399600 1 3 1.000000
  3 1.931900 -3.419401 64.374001 0.763898 -0.634898 -0.115600 0.603800 0.300300 1 3 1.000000
  3 1.942500 -3.171301 63.308498 0.871120 -0.370409 -0.322407 0.615200 0.209400 1 3 1.000000
vance_facemap
  3 2.120700 -1.230601 63.150902 0.912945 -0.204788 -0.352979 0.727300 0.210400 1 3 1.000000
  3 2.734600 -0.488301 64.983398 0.798706 -0.552004 -0.239502 0.764000 0.399600 1 3 1.000000
  3 1.942500 -3.171301 63.308498 0.871120 -0.370409 -0.322407 0.615200 0.209400 1 3 1.000000
vance_facemap
  3 2.792300 0.595200 65.753403 0.283292 0.770978 -0.570384 0.821800 0.450100 1 3 1.000000
  3 2.734600 -0.488301 64.983398 0.798706 -0.552004 -0.239502 0.764000 0.399600 1 3 1.000000
  3 2.120700 -1.230601 63.150902 0.912945 -0.204788 -0.352979 0.727300 0.210400 1 3 1.000000
vance_facemap
  3 2.262200 -3.174800 67.122398 0.797510 -0.602908 -0.021900 0.615900 0.541500 1 3 1.000000
  3 3.330900 -0.424100 68.511299 0.984766 -0.161994 0.063198 0.751100 0.683400 1 3 1.000000
  3 1.731800 -3.524800 69.530502 0.699078 -0.593581 0.398687 0.582000 0.748500 1 3 1.000000
vance_facemap
  3 3.340000 0.173000 67.411598 0.597795 -0.598795 0.532996 0.782400 0.592200 1 3 1.000000
  3 3.457000 1.137400 67.235298 -0.302291 0.758376 0.577482 0.815500 0.579900 1 3 1.000000
  3 2.872700 -0.335900 66.650902 0.962974 0.045699 -0.265693 0.764500 0.522000 1 3 1.000000
vance_facemap
  3 2.872700 -0.335900 66.650902 0.962974 0.045699 -0.265693 0.764500 0.522000 1 3 1.000000
  3 3.393600 1.128800 65.878304 0.889636 -0.449518 -0.080503 0.821400 0.466800 1 3 1.000000
  3 3.340000 0.173000 67.411598 0.597795 -0.598795 0.532996 0.782400 0.592200 1 3 1.000000
vance_facemap
  3 2.872700 -0.335900 66.650902 0.962974 0.045699 -0.265693 0.764500 0.522000 1 3 1.000000
  3 2.620200 0.051500 66.031502 0.955644 -0.208010 0.208510 0.791300 0.471000 1 3 1.000000
  3 3.393600 1.128800 65.878304 0.889636 -0.449518 -0.080503 0.821400 0.466800 1 3 1.000000
vance_facemap
  3 3.393600 1.128800 65.878304 0.889636 -0.449518 -0.080503 0.821400 0.466800 1 3 1.000000
  3 2.620200 0.051500 66.031502 0.955644 -0.208010 0.208510 0.791300 0.471000 1 3 1.000000
  3 2.973400 -0.066501 64.713203 0.856193 -0.347097 -0.382697 0.779500 0.378400 1 3 1.000000
vance_facemap
  3 2.734600 -0.488301 64.983398 0.798706 -0.552004 -0.239502 0.764000 0.399600 1 3 1.000000
  3 2.973400 -0.066501 64.713203 0.856193 -0.347097 -0.382697 0.779500 0.378400 1 3 1.000000
  3 2.620200 0.051500 66.031502 0.955644 -0.208010 0.208510 0.791300 0.471000 1 3 1.000000
vance_facemap
  3 2.734600 -0.488301 64.983398 0.798706 -0.552004 -0.239502 0.764000 0.399600 1 3 1.000000
  3 2.620200 0.051500 66.031502 0.955644 -0.208010 0.208510 0.791300 0.471000 1 3 1.000000
  3 2.872700 -0.335900 66.650902 0.962974 0.045699 -0.265693 0.764500 0.522000 1 3 1.000000
vance_facemap
  3 2.872700 -0.335900 66.650902 0.962974 0.045699 -0.265693 0.764500 0.522000 1 3 1.000000
  3 3.330900 -0.424100 68.511299 0.984766 -0.161994 0.063198 0.751100 0.683400 1 3 1.000000
  3 2.734600 -0.488301 64.983398 0.798706 -0.552004 -0.239502 0.764000 0.399600 1 3 1.000000
vance_facemap
  3 3.330900 -0.424100 68.511299 0.984766 -0.161994 0.063198 0.751100 0.683400 1 3 1.000000
  3 2.872700 -0.335900 66.650902 0.962974 0.045699 -0.265693 0.764500 0.522000 1 3 1.000000
  3 2.792300 0.595200 65.753403 0.283292 0.770978 -0.570384 0.821800 0.450100 1 3 1.000000
vance_facemap
  3 2.792300 0.595200 65.753403 0.283292 0.770978 -0.570384 0.821800 0.450100 1 3 1.000000
  3 3.135100 2.461300 68.617897 0.932528 0.348511 0.094503 0.866200 0.714600 1 3 1.000000
  3 3.330900 -0.424100 68.511299 0.984766 -0.161994 0.063198 0.751100 0.683400 1 3 1.000000
vance_facemap
  3 3.135100 2.461300 68.617897 0.932528 0.348511 0.094503 0.866200 0.714600 1 3 1.000000
  3 2.999000 -0.012600 70.173897 0.901499 -0.160300 0.402000 0.764900 0.831300 1 3 1.000000
  3 3.330900 -0.424100 68.511299 0.984766 -0.161994 0.063198 0.751100 0.683400 1 3 1.000000
vance_facemap
  3 2.999000 -0.012600 70.173897 0.901499 -0.160300 0.402000 0.764900 0.831300 1 3 1.000000
  3 2.513200 -1.516000 70.264603 0.831733 -0.394016 0.391116 0.677400 0.827700 1 3 1.000000
  3 3.330900 -0.424100 68.511299 0.984766 -0.161994 0.063198 0.751100 0.683400 1 3 1.000000
vance_facemap
  3 1.731800 -3.524800 69.530502 0.699078 -0.593581 0.398687 0.582000 0.748500 1 3 1.000000
  3 3.330900 -0.424100 68.511299 0.984766 -0.161994 0.063198 0.751100 0.683400 1 3 1.000000
  3 2.513200 -1.516000 70.264603 0.831733 -0.394016 0.391116 0.677400 0.827700 1 3 1.000000
vance_facemap
  3 0.980300 -3.231000 71.060898 0.517225 -0.781138 0.349717 0.555700 0.884000 1 3 1.000000
  3 1.731800 -3.524800 69.530502 0.699078 -0.593581 0.398687 0.582000 0.748500 1 3 1.000000
  3 2.513200 -1.516000 70.264603 0.831733 -0.394016 0.391116 0.677400 0.827700 1 3 1.000000
vance_facemap
  3 -0.039000 -4.101800 70.079597 -0.001000 -0.871145 0.491025 0.500600 0.791900 1 3 1.000000
  3 1.731800 -3.524800 69.530502 0.699078 -0.593581 0.398687 0.582000 0.748500 1 3 1.000000
  3 0.980300 -3.231000 71.060898 0.517225 -0.781138 0.349717 0.555700 0.884000 1 3 1.000000
vance_facemap
  3 -0.039000 -4.101800 70.079597 -0.001000 -0.871145 0.491025 0.500600 0.791900 1 3 1.000000
  3 1.237400 -4.441300 68.030502 0.320691 -0.938873 -0.125196 0.550400 0.610900 1 3 1.000000
  3 1.731800 -3.524800 69.530502 0.699078 -0.593581 0.398687 0.582000 0.748500 1 3 1.000000
vance_facemap
  3 1.237400 -4.441300 68.030502 0.320691 -0.938873 -0.125196 0.550400 0.610900 1 3 1.000000
  3 2.262200 -3.174800 67.122398 0.797510 -0.602908 -0.021900 0.615900 0.541500 1 3 1.000000
  3 1.731800 -3.524800 69.530502 0.699078 -0.593581 0.398687 0.582000 0.748500 1 3 1.000000
vance_facemap
  3 1.346800 -4.053200 67.598000 0.175699 -0.835093 -0.521296 0.560400 0.576200 1 3 1.000000
  3 2.262200 -3.174800 67.122398 0.797510 -0.602908 -0.021900 0.615900 0.541500 1 3 1.000000
  3 1.237400 -4.441300 68.030502 0.320691 -0.938873 -0.125196 0.550400 0.610900 1 3 1.000000
vance_facemap
  3 1.346800 -4.053200 67.598000 0.175699 -0.835093 -0.521296 0.560400 0.576200 1 3 1.000000
  3 1.555100 -4.069500 65.765099 0.318213 -0.926638 -0.200208 0.570900 0.416500 1 3 1.000000
  3 2.262200 -3.174800 67.122398 0.797510 -0.602908 -0.021900 0.615900 0.541500 1 3 1.000000
vance_facemap
  3 3.393600 1.128800 65.878304 0.889636 -0.449518 -0.080503 0.821400 0.466800 1 3 1.000000
  3 3.457000 1.137400 67.235298 -0.302291 0.758376 0.577482 0.815500 0.579900 1 3 1.000000
  3 3.340000 0.173000 67.411598 0.597795 -0.598795 0.532996 0.782400 0.592200 1 3 1.000000
vance_facemap
  3 1.237400 -4.441300 68.030502 0.320691 -0.938873 -0.125196 0.550400 0.610900 1 3 1.000000
  3 0.673000 -3.750901 67.189598 0.026100 -0.916797 -0.398499 0.533400 0.540900 1 3 1.000000
  3 1.346800 -4.053200 67.598000 0.175699 -0.835093 -0.521296 0.560400 0.576200 1 3 1.000000
vance_facemap
  3 0.596500 2.901000 61.737301 0.217702 0.907710 0.358704 0.972300 0.106200 1 3 1.000000
  3 -0.613500 2.470700 63.112202 -0.227405 0.973319 0.030601 0.997700 0.251100 1 3 1.000000
  3 1.130700 2.233799 63.262299 0.505092 0.862487 0.031599 0.936600 0.246800 1 3 1.000000
vance_facemap
  3 1.130700 2.233799 63.262299 0.505092 0.862487 0.031599 0.936600 0.246800 1 3 1.000000
  3 1.670400 2.216001 61.584000 0.762702 0.609401 0.216600 0.915800 0.088000 1 3 1.000000
  3 0.596500 2.901000 61.737301 0.217702 0.907710 0.358704 0.972300 0.106200 1 3 1.000000
vance_facemap
  3 1.670400 2.216001 61.584000 0.762702 0.609401 0.216600 0.915800 0.088000 1 3 1.000000
  3 1.130700 2.233799 63.262299 0.505092 0.862487 0.031599 0.936600 0.246800 1 3 1.000000
  3 1.753900 2.060299 64.571098 0.584902 0.744103 -0.322801 0.909900 0.359200 1 3 1.000000
vance_facemap
  3 2.792300 0.595200 65.753403 0.283292 0.770978 -0.570384 0.821800 0.450100 1 3 1.000000
  3 1.670400 2.216001 61.584000 0.762702 0.609401 0.216600 0.915800 0.088000 1 3 1.000000
  3 1.753900 2.060299 64.571098 0.584902 0.744103 -0.322801 0.909900 0.359200 1 3 1.000000
vance_facemap
  3 2.792300 0.595200 65.753403 0.283292 0.770978 -0.570384 0.821800 0.450100 1 3 1.000000
  3 1.753900 2.060299 64.571098 0.584902 0.744103 -0.322801 0.909900 0.359200 1 3 1.000000
  3 2.717700 2.919700 67.309196 0.786389 0.526192 -0.323595 0.892500 0.604200 1 3 1.000000
vance_facemap
  3 2.792300 0.595200 65.753403 0.283292 0.770978 -0.570384 0.821800 0.450100 1 3 1.000000
  3 2.717700 2.919700 67.309196 0.786389 0.526192 -0.323595 0.892500 0.604200 1 3 1.000000
  3 3.135100 2.461300 68.617897 0.932528 0.348511 0.094503 0.866200 0.714600 1 3 1.000000
vance_facemap
  3 2.717700 2.919700 67.309196 0.786389 0.526192 -0.323595 0.892500 0.604200 1 3 1.000000
  3 2.439200 2.966000 70.121902 0.697861 0.600366 0.390578 0.896200 0.849500 1 3 1.000000
  3 3.135100 2.461300 68.617897 0.932528 0.348511 0.094503 0.866200 0.714600 1 3 1.000000
vance_facemap
  3 2.439200 2.966000 70.121902 0.697861 0.600366 0.390578 0.896200 0.849500 1 3 1.000000
  3 2.999000 -0.012600 70.173897 0.901499 -0.160300 0.402000 0.764900 0.831300 1 3 1.000000
  3 3.135100 2.461300 68.617897 0.932528 0.348511 0.094503 0.866200 0.714600 1 3 1.000000
vance_facemap
  3 2.999000 -0.012600 70.173897 0.901499 -0.160300 0.402000 0.764900 0.831300 1 3 1.000000
  3 2.439200 2.966000 70.121902 0.697861 0.600366 0.390578 0.896200 0.849500 1 3 1.000000
  3 2.277500 0.760500 71.357002 0.664476 -0.037399 0.746373 0.812000 0.944300 1 3 1.000000
vance_facemap
  3 2.999000 -0.012600 70.173897 0.901499 -0.160300 0.402000 0.764900 0.831300 1 3 1.000000
  3 2.277500 0.760500 71.357002 0.664476 -0.037399 0.746373 0.812000 0.944300 1 3 1.000000
  3 2.513200 -1.516000 70.264603 0.831733 -0.394016 0.391116 0.677400 0.827700 1 3 1.000000
vance_facemap
  3 2.277500 0.760500 71.357002 0.664476 -0.037399 0.746373 0.812000 0.944300 1 3 1.000000
  3 1.040800 -2.121900 71.667603 0.276596 -0.315595 0.907686 0.581600 0.941300 1 3 1.000000
  3 2.513200 -1.516000 70.264603 0.831733 -0.394016 0.391116 0.677400 0.827700 1 3 1.000000
vance_facemap
  3 2.513200 -1.516000 70.264603 0.831733 -0.394016 0.391116 0.677400 0.827700 1 3 1.000000
  3 1.040800 -2.121900 71.667603 0.276596 -0.315595 0.907686 0.581600 0.941300 1 3 1.000000
  3 0.980300 -3.231000 71.060898 0.517225 -0.781138 0.349717 0.555700 0.884000 1 3 1.000000
vance_facemap
  3 1.040800 -2.121900 71.667603 0.276596 -0.315595 0.907686 0.581600 0.941300 1 3 1.000000
  3 -1.427100 -2.633300 71.180397 -0.736616 -0.511711 0.442209 0.417500 0.895000 1 3 1.000000
  3 0.980300 -3.231000 71.060898 0.517225 -0.781138 0.349717 0.555700 0.884000 1 3 1.000000
vance_facemap
  3 -0.039000 -4.101800 70.079597 -0.001000 -0.871145 0.491025 0.500600 0.791900 1 3 1.000000
  3 0.980300 -3.231000 71.060898 0.517225 -0.781138 0.349717 0.555700 0.884000 1 3 1.000000
  3 -1.427100 -2.633300 71.180397 -0.736616 -0.511711 0.442209 0.417500 0.895000 1 3 1.000000
vance_facemap
  3 -0.039000 -4.101800 70.079597 -0.001000 -0.871145 0.491025 0.500600 0.791900 1 3 1.000000
  3 -1.427100 -2.633300 71.180397 -0.736616 -0.511711 0.442209 0.417500 0.895000 1 3 1.000000
  3 -1.716500 -4.277800 68.016502 -0.494282 -0.868568 0.035699 0.433900 0.610900 1 3 1.000000
vance_facemap
  3 -0.039000 -4.101800 70.079597 -0.001000 -0.871145 0.491025 0.500600 0.791900 1 3 1.000000
  3 -1.716500 -4.277800 68.016502 -0.494282 -0.868568 0.035699 0.433900 0.610900 1 3 1.000000
  3 1.237400 -4.441300 68.030502 0.320691 -0.938873 -0.125196 0.550400 0.610900 1 3 1.000000
vance_facemap
  3 1.237400 -4.441300 68.030502 0.320691 -0.938873 -0.125196 0.550400 0.610900 1 3 1.000000
  3 -1.716500 -4.277800 68.016502 -0.494282 -0.868568 0.035699 0.433900 0.610900 1 3 1.000000
  3 -0.039000 -4.510400 67.919403 0.040001 -0.985431 -0.165305 0.500500 0.600700 1 3 1.000000
vance_facemap
  3 1.237400 -4.441300 68.030502 0.320691 -0.938873 -0.125196 0.550400 0.610900 1 3 1.000000
  3 -0.039000 -4.510400 67.919403 0.040001 -0.985431 -0.165305 0.500500 0.600700 1 3 1.000000
  3 0.673000 -3.750901 67.189598 0.026100 -0.916797 -0.398499 0.533400 0.540900 1 3 1.000000
vance_facemap
  3 1.040800 -2.121900 71.667603 0.276596 -0.315595 0.907686 0.581600 0.941300 1 3 1.000000
  3 2.277500 0.760500 71.357002 0.664476 -0.037399 0.746373 0.812000 0.944300 1 3 1.000000
  3 -0.039000 0.547800 72.068604 -0.013400 0.128601 0.991606 0.995100 1.000600 1 3 1.000000
vance_facemap
  3 0.463200 2.794100 71.253502 0.048599 0.597385 0.800480 0.972600 0.946700 1 3 1.000000
  3 -0.039000 0.547800 72.068604 -0.013400 0.128601 0.991606 0.995100 1.000600 1 3 1.000000
  3 2.277500 0.760500 71.357002 0.664476 -0.037399 0.746373 0.812000 0.944300 1 3 1.000000
vance_facemap
  3 0.463200 2.794100 71.253502 0.048599 0.597385 0.800480 0.972600 0.946700 1 3 1.000000
  3 2.277500 0.760500 71.357002 0.664476 -0.037399 0.746373 0.812000 0.944300 1 3 1.000000
  3 2.439200 2.966000 70.121902 0.697861 0.600366 0.390578 0.896200 0.849500 1 3 1.000000
vance_facemap
  3 2.439200 2.966000 70.121902 0.697861 0.600366 0.390578 0.896200 0.849500 1 3 1.000000
  3 1.633200 3.922700 67.882202 0.400402 0.908904 -0.116501 0.941600 0.661700 1 3 1.000000
  3 0.463200 2.794100 71.253502 0.048599 0.597385 0.800480 0.972600 0.946700 1 3 1.000000
vance_facemap
  3 2.439200 2.966000 70.121902 0.697861 0.600366 0.390578 0.896200 0.849500 1 3 1.000000
  3 2.717700 2.919700 67.309196 0.786389 0.526192 -0.323595 0.892500 0.604200 1 3 1.000000
  3 1.633200 3.922700 67.882202 0.400402 0.908904 -0.116501 0.941600 0.661700 1 3 1.000000
vance_facemap
  3 2.717700 2.919700 67.309196 0.786389 0.526192 -0.323595 0.892500 0.604200 1 3 1.000000
  3 1.753900 2.060299 64.571098 0.584902 0.744103 -0.322801 0.909900 0.359200 1 3 1.000000
  3 1.633200 3.922700 67.882202 0.400402 0.908904 -0.116501 0.941600 0.661700 1 3 1.000000
vance_facemap
  3 1.633200 3.922700 67.882202 0.400402 0.908904 -0.116501 0.941600 0.661700 1 3 1.000000
  3 1.753900 2.060299 64.571098 0.584902 0.744103 -0.322801 0.909900 0.359200 1 3 1.000000
  3 -0.039000 4.118700 67.202103 -0.001500 0.951931 -0.306310 0.998100 0.604000 1 3 1.000000
vance_facemap
  3 0.621800 2.722100 65.003998 0.123205 0.879737 -0.459220 0.969100 0.401900 1 3 1.000000
  3 -0.039000 4.118700 67.202103 -0.001500 0.951931 -0.306310 0.998100 0.604000 1 3 1.000000
  3 1.753900 2.060299 64.571098 0.584902 0.744103 -0.322801 0.909900 0.359200 1 3 1.000000
vance_facemap
  3 1.753900 2.060299 64.571098 0.584902 0.744103 -0.322801 0.909900 0.359200 1 3 1.000000
  3 1.130700 2.233799 63.262299 0.505092 0.862487 0.031599 0.936600 0.246800 1 3 1.000000
  3 0.621800 2.722100 65.003998 0.123205 0.879737 -0.459220 0.969100 0.401900 1 3 1.000000
vance_facemap
  3 1.130700 2.233799 63.262299 0.505092 0.862487 0.031599 0.936600 0.246800 1 3 1.000000
  3 -0.613500 2.470700 63.112202 -0.227405 0.973319 0.030601 0.997700 0.325600 1 3 1.000000
  3 0.621800 2.722100 65.003998 0.123205 0.879737 -0.459220 0.969100 0.401900 1 3 1.000000
vance_facemap
  3 -0.613500 2.470700 63.112202 -0.227405 0.973319 0.030601 0.997700 0.325600 1 3 1.000000
  3 -1.872200 2.887300 65.770699 -0.389415 0.838833 -0.380415 0.997400 0.362200 1 3 1.000000
  3 0.621800 2.722100 65.003998 0.123205 0.879737 -0.459220 0.969100 0.401900 1 3 1.000000
vance_facemap
  3 -0.039000 4.118700 67.202103 -0.001500 0.951931 -0.306310 0.998100 0.604000 1 3 1.000000
  3 -0.928200 4.139900 68.592400 -0.152294 0.976264 0.153994 0.997800 0.727900 1 3 1.000000
  3 1.633200 3.922700 67.882202 0.400402 0.908904 -0.116501 0.941600 0.661700 1 3 1.000000
vance_facemap
  3 -0.928200 4.139900 68.592400 -0.152294 0.976264 0.153994 0.997800 0.727900 1 3 1.000000
  3 0.463200 2.794100 71.253502 0.048599 0.597385 0.800480 0.972600 0.946700 1 3 1.000000
  3 1.633200 3.922700 67.882202 0.400402 0.908904 -0.116501 0.941600 0.661700 1 3 1.000000
vance_facemap
  3 -2.317800 -3.249901 67.284798 -0.747214 -0.610111 -0.263505 0.388400 0.555000 1 3 1.000000
  3 -0.820800 -3.667901 67.187500 0.297589 -0.874769 -0.382386 0.461300 0.543400 1 3 1.000000
  3 -1.716500 -4.277800 68.016502 -0.494282 -0.868568 0.035699 0.433900 0.610900 1 3 1.000000
vance_facemap
  3 -0.827000 -4.140300 65.306000 -0.710096 -0.674597 -0.201699 0.465400 0.378300 1 3 1.000000
  3 -0.799900 -4.351501 64.213501 -0.233397 -0.753690 -0.614392 0.466600 0.278900 1 3 1.000000
  3 0.574900 -4.436701 64.443901 0.450209 -0.787815 -0.420308 0.527300 0.300900 1 3 1.000000
vance_facemap
  3 -0.827000 -4.140300 65.306000 -0.710096 -0.674597 -0.201699 0.465400 0.378300 1 3 1.000000
  3 0.574900 -4.436701 64.443901 0.450209 -0.787815 -0.420308 0.527300 0.300900 1 3 1.000000
  3 -0.068300 -4.514601 65.183197 -0.051997 -0.698560 -0.713659 0.499300 0.362400 1 3 1.000000
vance_facemap
  3 -0.827000 -4.140300 65.306000 -0.710096 -0.674597 -0.201699 0.465400 0.378300 1 3 1.000000
  3 -0.068300 -4.514601 65.183197 -0.051997 -0.698560 -0.713659 0.499300 0.362400 1 3 1.000000
  3 -0.106900 -5.172901 65.179398 -0.156204 -0.390809 -0.907121 0.498100 0.357000 1 3 1.000000
vance_facemap
  3 0.748900 -4.134901 65.347504 0.753006 -0.635405 -0.171001 0.536900 0.379600 1 3 1.000000
  3 -0.106900 -5.172901 65.179398 -0.156204 -0.390809 -0.907121 0.498100 0.357000 1 3 1.000000
  3 -0.068300 -4.514601 65.183197 -0.051997 -0.698560 -0.713659 0.499300 0.362400 1 3 1.000000
vance_facemap
  3 0.022400 -5.391901 65.582497 0.255615 -0.964557 0.065504 0.502600 0.390500 1 3 1.000000
  3 -0.106900 -5.172901 65.179398 -0.156204 -0.390809 -0.907121 0.498100 0.357000 1 3 1.000000
  3 0.748900 -4.134901 65.347504 0.753006 -0.635405 -0.171001 0.536900 0.379600 1 3 1.000000
vance_facemap
  3 0.691500 -4.410000 66.212402 0.752304 -0.640803 0.153001 0.531200 0.452800 1 3 1.000000
  3 0.022400 -5.391901 65.582497 0.255615 -0.964557 0.065504 0.502600 0.390500 1 3 1.000000
  3 0.748900 -4.134901 65.347504 0.753006 -0.635405 -0.171001 0.536900 0.379600 1 3 1.000000
vance_facemap
  3 -0.039000 -4.510400 67.919403 0.040001 -0.985431 -0.165305 0.500500 0.600700 1 3 1.000000
  3 0.022400 -5.391901 65.582497 0.255615 -0.964557 0.065504 0.502600 0.390500 1 3 1.000000
  3 0.691500 -4.410000 66.212402 0.752304 -0.640803 0.153001 0.531200 0.452800 1 3 1.000000
vance_facemap
  3 -0.303100 -4.377000 67.413399 -0.821412 -0.565408 0.074801 0.489600 0.557600 1 3 1.000000
  3 0.022400 -5.391901 65.582497 0.255615 -0.964557 0.065504 0.502600 0.390500 1 3 1.000000
  3 -0.039000 -4.510400 67.919403 0.040001 -0.985431 -0.165305 0.500500 0.600700 1 3 1.000000
vance_facemap
  3 -1.716500 -4.277800 68.016502 -0.494282 -0.868568 0.035699 0.433900 0.610900 1 3 1.000000
  3 -0.303100 -4.377000 67.413399 -0.821412 -0.565408 0.074801 0.489600 0.557600 1 3 1.000000
  3 -0.039000 -4.510400 67.919403 0.040001 -0.985431 -0.165305 0.500500 0.600700 1 3 1.000000
vance_facemap
  3 -0.820800 -3.667901 67.187500 0.297589 -0.874769 -0.382386 0.461300 0.543400 1 3 1.000000
  3 -0.303100 -4.377000 67.413399 -0.821412 -0.565408 0.074801 0.489600 0.557600 1 3 1.000000
  3 -1.716500 -4.277800 68.016502 -0.494282 -0.868568 0.035699 0.433900 0.610900 1 3 1.000000
vance_facemap
  3 -0.820800 -3.667901 67.187500 0.297589 -0.874769 -0.382386 0.461300 0.543400 1 3 1.000000
  3 -1.359100 -4.073600 65.936203 -0.176302 -0.982614 0.058201 0.441400 0.431300 1 3 1.000000
  3 -0.303100 -4.377000 67.413399 -0.821412 -0.565408 0.074801 0.489600 0.557600 1 3 1.000000
vance_facemap
  3 0.022400 -5.391901 65.582497 0.255615 -0.964557 0.065504 0.502600 0.390500 1 3 1.000000
  3 -0.827000 -4.140300 65.306000 -0.710096 -0.674597 -0.201699 0.465400 0.378300 1 3 1.000000
  3 -0.106900 -5.172901 65.179398 -0.156204 -0.390809 -0.907121 0.498100 0.357000 1 3 1.000000
vance_facemap
  3 0.022400 -5.391901 65.582497 0.255615 -0.964557 0.065504 0.502600 0.390500 1 3 1.000000
  3 -0.303100 -4.377000 67.413399 -0.821412 -0.565408 0.074801 0.489600 0.557600 1 3 1.000000
  3 -0.827000 -4.140300 65.306000 -0.710096 -0.674597 -0.201699 0.465400 0.378300 1 3 1.000000
vance_facemap
  3 -0.303100 -4.377000 67.413399 -0.821412 -0.565408 0.074801 0.489600 0.557600 1 3 1.000000
  3 -1.359100 -4.073600 65.936203 -0.176302 -0.982614 0.058201 0.441400 0.431300 1 3 1.000000
  3 -0.827000 -4.140300 65.306000 -0.710096 -0.674597 -0.201699 0.465400 0.378300 1 3 1.000000
vance_facemap
  3 0.748900 -4.134901 65.347504 0.753006 -0.635405 -0.171001 0.536900 0.379600 1 3 1.000000
  3 0.574900 -4.436701 64.443901 0.450209 -0.787815 -0.420308 0.527300 0.300900 1 3 1.000000
  3 1.312500 -3.715401 64.372398 -0.619096 -0.371298 0.691996 0.570200 0.297900 1 3 1.000000
vance_facemap
  3 0.748900 -4.134901 65.347504 0.753006 -0.635405 -0.171001 0.536900 0.379600 1 3 1.000000
  3 -0.068300 -4.514601 65.183197 0.371997 -0.899594 0.228798 0.499300 0.362400 1 3 1.000000
  3 0.574900 -4.436701 64.443901 0.450209 -0.787815 -0.420308 0.527300 0.300900 1 3 1.000000
vance_facemap
  3 0.673000 -3.750901 67.189598 0.026100 -0.916797 -0.398499 0.533400 0.540900 1 3 1.000000
  3 -0.039000 -4.510400 67.919403 0.040001 -0.985431 -0.165305 0.500500 0.600700 1 3 1.000000
  3 0.691500 -4.410000 66.212402 0.752304 -0.640803 0.153001 0.531200 0.452800 1 3 1.000000
vance_facemap
  3 0.673000 -3.750901 67.189598 0.026100 -0.916797 -0.398499 0.533400 0.540900 1 3 1.000000
  3 0.691500 -4.410000 66.212402 0.752304 -0.640803 0.153001 0.531200 0.452800 1 3 1.000000
  3 1.555100 -4.069500 65.765099 0.318213 -0.926638 -0.200208 0.570900 0.416500 1 3 1.000000
vance_facemap
  3 1.555100 -4.069500 65.765099 0.318213 -0.926638 -0.200208 0.570900 0.416500 1 3 1.000000
  3 0.691500 -4.410000 66.212402 0.752304 -0.640803 0.153001 0.531200 0.452800 1 3 1.000000
  3 0.748900 -4.134901 65.347504 0.753006 -0.635405 -0.171001 0.536900 0.379600 1 3 1.000000
vance_facemap
  3 1.931900 -3.419401 64.374001 0.763898 -0.634898 -0.115600 0.603800 0.300300 1 3 1.000000
  3 1.555100 -4.069500 65.765099 0.318213 -0.926638 -0.200208 0.570900 0.416500 1 3 1.000000
  3 0.748900 -4.134901 65.347504 0.753006 -0.635405 -0.171001 0.536900 0.379600 1 3 1.000000
vance_facemap
  3 0.748900 -4.134901 65.347504 0.753006 -0.635405 -0.171001 0.536900 0.379600 1 3 1.000000
  3 1.312500 -3.715401 64.372398 -0.619096 -0.371298 0.691996 0.570200 0.297900 1 3 1.000000
  3 1.931900 -3.419401 64.374001 0.763898 -0.634898 -0.115600 0.603800 0.300300 1 3 1.000000
vance_facemap
  3 1.312500 -3.715401 64.372398 -0.619096 -0.371298 0.691996 0.570200 0.297900 1 3 1.000000
  3 0.720100 -4.349101 64.267403 0.527928 -0.664635 0.528728 0.534500 0.281900 1 3 1.000000
  3 1.931900 -3.419401 64.374001 0.763898 -0.634898 -0.115600 0.603800 0.300300 1 3 1.000000
vance_facemap
  3 1.931900 -3.419401 64.374001 0.763898 -0.634898 -0.115600 0.603800 0.300300 1 3 1.000000
  3 0.720100 -4.349101 64.267403 0.527928 -0.664635 0.528728 0.534500 0.281900 1 3 1.000000
  3 -0.039000 -4.404800 63.360001 0.000300 -0.989121 0.147103 0.500600 0.204500 1 3 1.000000
vance_facemap
  3 -0.799900 -4.351501 64.213501 -0.233397 -0.753690 -0.614392 0.466600 0.278900 1 3 1.000000
  3 -0.039000 -4.404800 63.360001 0.000300 -0.989121 0.147103 0.500600 0.204500 1 3 1.000000
  3 0.720100 -4.349101 64.267403 0.527928 -0.664635 0.528728 0.534500 0.281900 1 3 1.000000
vance_facemap
  3 -0.799900 -4.351501 64.213501 -0.233397 -0.753690 -0.614392 0.466600 0.278900 1 3 1.000000
  3 -1.376300 -3.726301 64.248703 -0.360009 -0.924924 -0.122103 0.431700 0.287000 1 3 1.000000
  3 -0.039000 -4.404800 63.360001 0.000300 -0.989121 0.147103 0.500600 0.204500 1 3 1.000000
vance_facemap
  3 -0.827000 -4.140300 65.306000 -0.710096 -0.674597 -0.201699 0.465400 0.378300 1 3 1.000000
  3 -1.376300 -3.726301 64.248703 -0.360009 -0.924924 -0.122103 0.431700 0.287000 1 3 1.000000
  3 -0.799900 -4.351501 64.213501 -0.233397 -0.753690 -0.614392 0.466600 0.278900 1 3 1.000000
vance_facemap
  3 -2.019600 -3.171301 63.308498 -0.864926 -0.367611 -0.341710 0.386000 0.209400 1 3 1.000000
  3 -1.376300 -3.726301 64.248703 -0.360009 -0.924924 -0.122103 0.431700 0.287000 1 3 1.000000
  3 -0.827000 -4.140300 65.306000 -0.710096 -0.674597 -0.201699 0.465400 0.378300 1 3 1.000000
vance_facemap
  3 -1.359100 -4.073600 65.936203 -0.176302 -0.982614 0.058201 0.441400 0.431300 1 3 1.000000
  3 -2.019600 -3.171301 63.308498 -0.864926 -0.367611 -0.341710 0.386000 0.209400 1 3 1.000000
  3 -0.827000 -4.140300 65.306000 -0.710096 -0.674597 -0.201699 0.465400 0.378300 1 3 1.000000
vance_facemap
  3 -1.359100 -4.073600 65.936203 -0.176302 -0.982614 0.058201 0.441400 0.431300 1 3 1.000000
  3 -2.437400 -3.293900 66.464104 -0.808938 -0.566927 0.155607 0.383600 0.483200 1 3 1.000000
  3 -2.019600 -3.171301 63.308498 -0.864926 -0.367611 -0.341710 0.386000 0.209400 1 3 1.000000
vance_facemap
  3 -2.437400 -3.293900 66.464104 -0.808938 -0.566927 0.155607 0.383600 0.483200 1 3 1.000000
  3 -1.359100 -4.073600 65.936203 -0.176302 -0.982614 0.058201 0.441400 0.431300 1 3 1.000000
  3 -2.317800 -3.249901 67.284798 -0.747214 -0.610111 -0.263505 0.388400 0.555000 1 3 1.000000
vance_facemap
  3 -3.219900 -1.299200 67.580002 -0.966121 -0.240005 -0.094902 0.288500 0.595600 1 3 1.000000
  3 -2.437400 -3.293900 66.464104 -0.808938 -0.566927 0.155607 0.383600 0.483200 1 3 1.000000
  3 -2.317800 -3.249901 67.284798 -0.747214 -0.610111 -0.263505 0.388400 0.555000 1 3 1.000000
vance_facemap
  3 -2.317800 -3.249901 67.284798 -0.747214 -0.610111 -0.263505 0.388400 0.555000 1 3 1.000000
  3 -1.716500 -4.277800 68.016502 -0.494282 -0.868568 0.035699 0.433900 0.610900 1 3 1.000000
  3 -3.219900 -1.299200 67.580002 -0.966121 -0.240005 -0.094902 0.288500 0.595600 1 3 1.000000
vance_facemap
  3 -1.716500 -4.277800 68.016502 -0.494282 -0.868568 0.035699 0.433900 0.610900 1 3 1.000000
  3 -2.639000 -1.570900 70.269402 -0.806704 -0.404202 0.431102 0.321900 0.827700 1 3 1.000000
  3 -3.219900 -1.299200 67.580002 -0.966121 -0.240005 -0.094902 0.288500 0.595600 1 3 1.000000
vance_facemap
  3 -1.716500 -4.277800 68.016502 -0.494282 -0.868568 0.035699 0.433900 0.610900 1 3 1.000000
  3 -1.427100 -2.633300 71.180397 -0.736616 -0.511711 0.442209 0.417500 0.895000 1 3 1.000000
  3 -2.639000 -1.570900 70.269402 -0.806704 -0.404202 0.431102 0.321900 0.827700 1 3 1.000000
vance_facemap
  3 -0.039000 4.118700 67.202103 -0.001500 0.951931 -0.306310 0.001600 0.604000 1 3 1.000000
  3 -2.410600 3.521100 67.890198 -0.617209 0.772811 -0.147702 0.084600 0.659300 1 3 1.000000
  3 -0.928200 4.139900 68.592400 -0.151703 0.978717 0.138202 0.030300 0.725200 1 3 1.000000
vance_facemap
  3 -2.410600 3.521100 67.890198 -0.617209 0.772811 -0.147702 0.084600 0.659300 1 3 1.000000
  3 -1.664800 3.199000 70.585999 -0.265202 0.769707 0.580705 0.069900 0.891700 1 3 1.000000
  3 -0.928200 4.139900 68.592400 -0.151703 0.978717 0.138202 0.030300 0.725200 1 3 1.000000
vance_facemap
  3 -1.664800 3.199000 70.585999 -0.265202 0.769707 0.580705 0.069900 0.891700 1 3 1.000000
  3 0.463200 2.794100 71.253502 0.113601 0.636807 0.762608 0.026000 0.946700 1 3 1.000000
  3 -0.928200 4.139900 68.592400 -0.151703 0.978717 0.138202 0.030300 0.725200 1 3 1.000000
vance_facemap
  3 0.621800 2.722100 65.003998 0.195491 0.921356 -0.335984 0.001200 0.401000 1 3 1.000000
  3 -1.872200 2.887300 65.770699 -0.490519 0.722029 -0.487919 0.075500 0.469900 1 3 1.000000
  3 -0.039000 4.118700 67.202103 -0.001500 0.951931 -0.306310 0.001600 0.604000 1 3 1.000000
vance_facemap
  3 -0.039000 4.118700 67.202103 -0.001500 0.951931 -0.306310 0.001600 0.604000 1 3 1.000000
  3 -1.872200 2.887300 65.770699 -0.490519 0.722029 -0.487919 0.075500 0.469900 1 3 1.000000
  3 -2.410600 3.521100 67.890198 -0.617209 0.772811 -0.147702 0.084600 0.659300 1 3 1.000000
vance_facemap
  3 -1.872200 2.887300 65.770699 -0.490519 0.722029 -0.487919 0.075500 0.469900 1 3 1.000000
  3 -1.724900 1.719999 63.199600 -0.736062 0.670565 -0.092495 0.098700 0.236600 1 3 1.000000
  3 -2.410600 3.521100 67.890198 -0.617209 0.772811 -0.147702 0.084600 0.659300 1 3 1.000000
vance_facemap
  3 -1.724900 1.719999 63.199600 -0.736062 0.670565 -0.092495 0.098700 0.236600 1 3 1.000000
  3 -1.872200 2.887300 65.770699 -0.490519 0.722029 -0.487919 0.075500 0.469900 1 3 1.000000
  3 -0.613500 2.470700 63.112202 -0.200294 0.970571 0.133696 0.030700 0.235000 1 3 1.000000
vance_facemap
  3 -0.613500 2.470700 63.112202 -0.200294 0.970571 0.133696 0.030700 0.235000 1 3 1.000000
  3 -0.602300 2.883801 61.743099 -0.246287 0.914852 0.319983 0.026500 0.106200 1 3 1.000000
  3 -1.724900 1.719999 63.199600 -0.736062 0.670565 -0.092495 0.098700 0.236600 1 3 1.000000
vance_facemap
  3 -0.613500 2.470700 63.112202 -0.200294 0.970571 0.133696 0.030700 0.235000 1 3 1.000000
  3 0.596500 2.901000 61.737301 0.250695 0.927082 0.278695 0.001300 0.150200 1 3 1.000000
  3 -0.602300 2.883801 61.743099 -0.246287 0.914852 0.319983 0.026500 0.106200 1 3 1.000000
vance_facemap
  3 3.457000 1.137400 67.235298 -0.302291 0.758376 0.577482 0.815500 0.579900 1 3 1.000000
  3 2.792300 0.595200 65.753403 -0.767868 0.610274 -0.194792 0.821800 0.450100 1 3 1.000000
  3 2.872700 -0.335900 66.650902 0.962974 0.045699 -0.265693 0.764500 0.522000 1 3 1.000000
vance_facemap
  3 3.393600 1.128800 65.878304 -0.640483 0.754880 -0.141196 0.821400 0.466800 1 3 1.000000
  3 2.792300 0.595200 65.753403 -0.767868 0.610274 -0.194792 0.821800 0.450100 1 3 1.000000
  3 3.457000 1.137400 67.235298 -0.302291 0.758376 0.577482 0.815500 0.579900 1 3 1.000000
vance_facemap
  3 3.393600 1.128800 65.878304 -0.640483 0.754880 -0.141196 0.821400 0.466800 1 3 1.000000
  3 2.973400 -0.066501 64.713203 -0.829869 0.393985 -0.395085 0.779500 0.378400 1 3 1.000000
  3 2.792300 0.595200 65.753403 -0.767868 0.610274 -0.194792 0.821800 0.450100 1 3 1.000000
vance_facemap
  3 2.792300 0.595200 65.753403 -0.767868 0.610274 -0.194792 0.821800 0.450100 1 3 1.000000
  3 2.973400 -0.066501 64.713203 -0.829869 0.393985 -0.395085 0.779500 0.378400 1 3 1.000000
  3 2.734600 -0.488301 64.983398 -0.946181 -0.292694 0.138097 0.764000 0.399600 1 3 1.000000
eyeball_r
  3 -1.359100 -4.073600 65.936203 -0.429694 -0.902588 0.026400 0.525800 0.180400 1 3 1.000000
  3 -0.820800 -3.667901 67.187500 -0.588014 -0.800518 -0.115803 0.783200 0.770900 1 3 1.000000
  3 -2.317800 -3.249901 67.284798 -0.761238 -0.646432 0.051403 0.218900 0.710100 1 3 1.000000
eyeball_l
  3 0.673000 -3.750901 67.189598 0.328803 -0.943009 -0.051200 0.084900 0.321100 1 3 1.000000
  3 1.555100 -4.069500 65.765099 0.519698 -0.850596 -0.080000 0.603500 0.186200 1 3 1.000000
  3 1.346800 -4.053200 67.598000 0.250701 -0.862903 -0.438802 0.489400 0.819700 1 3 1.000000
mouth
  3 0.608300 -3.992701 64.282700 0.015600 -0.002300 0.999876 0.379700 0.644900 1 3 1.000000
  3 -0.637700 -4.004800 64.302101 0.015600 -0.002300 0.999876 0.500100 0.949400 1 3 1.000000
  3 -0.010500 -4.248201 64.291801 0.015600 -0.002300 0.999876 0.500100 0.604100 1 3 1.000000
mouth
  3 -0.490600 -4.076301 63.373699 0.166094 0.663976 0.729074 0.308400 0.464900 1 3 1.000000
  3 -1.189700 -2.709301 63.224701 0.984481 -0.048699 0.168597 0.063100 0.529600 1 3 1.000000
  3 -0.799900 -4.351501 64.213501 -0.233397 -0.753690 -0.614392 0.481600 0.455400 1 3 1.000000
mouth
  3 -0.490600 -4.076301 63.373699 0.166094 0.663976 0.729074 0.308400 0.464900 1 3 1.000000
  3 -0.799900 -4.351501 64.213501 -0.233397 -0.753690 -0.614392 0.481600 0.455400 1 3 1.000000
  3 0.720100 -4.349101 64.267403 0.213300 -0.604901 0.767201 0.503300 0.455200 1 3 1.000000
mouth
  3 -0.490600 -4.076301 63.373699 0.166094 0.663976 0.729074 0.308400 0.464900 1 3 1.000000
  3 0.720100 -4.349101 64.267403 0.213300 -0.604901 0.767201 0.503300 0.455200 1 3 1.000000
  3 1.248800 -2.710001 63.229801 0.041201 0.088403 0.995232 0.934100 0.529500 1 3 1.000000
mouth
  3 1.248800 -2.710001 63.229801 0.041201 0.088403 0.995232 0.934100 0.529500 1 3 1.000000
  3 0.720100 -4.349101 64.267403 0.213300 -0.604901 0.767201 0.503300 0.455200 1 3 1.000000
  3 1.312500 -3.715401 64.372398 -0.619096 -0.371298 0.691996 0.552400 0.456500 1 3 1.000000
mouth
  3 1.312500 -3.715401 64.372398 -0.619096 -0.371298 0.691996 0.552400 0.456500 1 3 1.000000
  3 1.255500 -3.692701 64.985001 -0.666770 0.375983 -0.643471 0.936800 0.468400 1 3 1.000000
  3 1.248800 -2.710001 63.229801 0.041201 0.088403 0.995232 0.934100 0.529500 1 3 1.000000
mouth
  3 0.574900 -4.436701 64.443901 0.374216 -0.499322 -0.781434 0.503300 0.455200 1 3 1.000000
  3 1.255500 -3.692701 64.985001 -0.666770 0.375983 -0.643471 0.936800 0.468400 1 3 1.000000
  3 1.312500 -3.715401 64.372398 -0.619096 -0.371298 0.691996 0.552400 0.456500 1 3 1.000000
mouth
  3 0.574900 -4.436701 64.443901 0.374216 -0.499322 -0.781434 0.503300 0.455200 1 3 1.000000
  3 -1.183700 -3.692001 64.980904 0.644826 0.345414 -0.681827 0.065500 0.468500 1 3 1.000000
  3 1.255500 -3.692701 64.985001 -0.666770 0.375983 -0.643471 0.936800 0.468400 1 3 1.000000
mouth
  3 0.574900 -4.436701 64.443901 0.374216 -0.499322 -0.781434 0.503300 0.455200 1 3 1.000000
  3 -0.799900 -4.351501 64.213501 -0.233397 -0.753690 -0.614392 0.481600 0.455400 1 3 1.000000
  3 -1.183700 -3.692001 64.980904 0.644826 0.345414 -0.681827 0.065500 0.468500 1 3 1.000000
mouth
  3 -0.799900 -4.351501 64.213501 -0.233397 -0.753690 -0.614392 0.481600 0.455400 1 3 1.000000
  3 -1.189700 -2.709301 63.224701 0.984481 -0.048699 0.168597 0.063100 0.529600 1 3 1.000000
  3 -1.183700 -3.692001 64.980904 0.644826 0.345414 -0.681827 0.065500 0.468500 1 3 1.000000
mouth
  3 -1.183700 -3.692001 64.980904 0.644826 0.345414 -0.681827 0.065500 0.468500 1 3 1.000000
  3 -1.189700 -2.709301 63.224701 0.984481 -0.048699 0.168597 0.063100 0.529600 1 3 1.000000
  3 -1.189700 -2.563000 64.896797 0.553795 -0.461596 -0.692994 0.063100 0.529600 1 3 1.000000
mouth
  3 1.255500 -3.692701 64.985001 -0.666770 0.375983 -0.643471 0.936800 0.468400 1 3 1.000000
  3 -1.183700 -3.692001 64.980904 0.644826 0.345414 -0.681827 0.065500 0.468500 1 3 1.000000
  3 -1.189700 -2.563000 64.896797 0.553795 -0.461596 -0.692994 0.063100 0.529600 1 3 1.000000
mouth
  3 -1.189700 -2.563000 64.896797 0.553795 -0.461596 -0.692994 0.063100 0.529600 1 3 1.000000
  3 1.249500 -2.563701 64.901802 -0.068701 -0.073701 -0.994911 0.934400 0.529500 1 3 1.000000
  3 1.255500 -3.692701 64.985001 -0.666770 0.375983 -0.643471 0.936800 0.468400 1 3 1.000000
mouth
  3 -1.189700 -2.563000 64.896797 0.553795 -0.461596 -0.692994 0.063100 0.529600 1 3 1.000000
  3 1.322300 -2.189901 64.160896 0.050499 -0.998383 0.026100 0.963600 0.570800 1 3 1.000000
  3 1.249500 -2.563701 64.901802 -0.068701 -0.073701 -0.994911 0.934400 0.529500 1 3 1.000000
mouth
  3 1.322300 -2.189901 64.160896 0.050499 -0.998383 0.026100 0.963600 0.570800 1 3 1.000000
  3 -1.189700 -2.563000 64.896797 0.553795 -0.461596 -0.692994 0.063100 0.529600 1 3 1.000000
  3 -1.189700 -2.709301 63.224701 -0.067802 -0.870926 0.486714 0.063100 0.529600 1 3 1.000000
mouth
  3 -1.189700 -2.709301 63.224701 -0.067802 -0.870926 0.486714 0.063100 0.529600 1 3 1.000000
  3 1.248800 -2.710001 63.229801 -0.712943 -0.560533 0.421325 0.934100 0.529500 1 3 1.000000
  3 1.322300 -2.189901 64.160896 0.050499 -0.998383 0.026100 0.963600 0.570800 1 3 1.000000
mouth
  3 1.248800 -2.710001 63.229801 0.041201 0.088403 0.995232 0.934100 0.529500 1 3 1.000000
  3 1.255500 -3.692701 64.985001 -0.666770 0.375983 -0.643471 0.936800 0.468400 1 3 1.000000
  3 1.249500 -2.563701 64.901802 -0.974916 -0.072001 -0.210604 0.934400 0.529500 1 3 1.000000
mouth
  3 1.248800 -2.710001 63.229801 0.041201 0.088403 0.995232 0.934100 0.529500 1 3 1.000000
  3 -1.189700 -2.709301 63.224701 -0.045199 0.081099 0.995681 0.063100 0.529600 1 3 1.000000
  3 -0.490600 -4.076301 63.373699 0.166094 0.663976 0.729074 0.308400 0.464900 1 3 1.000000
end
