// Created by Crowbar 0.68

$modelname "Humans\Group01\male_08.mdl"

$model "male_08" "male_08_head_reference.smd" {

	eyeball "eye_right" "ValveBiped.Bip01_Head1" -1.276000 -3.500000 67.281000 "eyeball_r" 1 4 "iris_unused" 0.63
	eyeball "eye_left" "ValveBiped.Bip01_Head1" 1.191000 -3.500000 67.286004 "eyeball_l" 1 -4 "iris_unused" 0.63

	eyelid upper_right "male_08_01.vta" lowerer 26 -0.24 neutral 0 0.2 raiser 0 0.28 split 1 eyeball "eye_right"
	eyelid lower_right "male_08_01.vta" lowerer 0 -0.31 neutral 0 -0.24 raiser 27 -0.07 split 1 eyeball "eye_right"
	eyelid upper_left "male_08_01.vta" lowerer 28 -0.24 neutral 0 0.2 raiser 0 0.28 split -1 eyeball "eye_left"
	eyelid lower_left "male_08_01.vta" lowerer 0 -0.31 neutral 0 -0.24 raiser 29 -0.07 split -1 eyeball "eye_left"

	mouth 0 "mouth" "ValveBiped.Bip01_Head1" 0 1 0

	flexfile "male_08_01.vta" 
	{
		defaultflex frame 0
		flex "AU42" frame 1
		flexpair "AU1" 1 frame 2
		flexpair "AU2" 1 frame 3
		flexpair "AU4" 1 frame 4
		flexpair "AU1AU2" 1 frame 5
		flexpair "AU12" 1 frame 6
		flex "AU12AU25" frame 7
		flexpair "AU15" 1 frame 8
		flexpair "AU17" 1 frame 9
		flexpair "AU10" 1 frame 10
		flex "AU16" frame 11
		flexpair "AU6" 1 frame 12
		flexpair "AU9" 1 frame 13
		flexpair "AU25" 1 frame 14
		flexpair "AU18" 1 frame 15
		flexpair "AU22" 1 frame 16
		flexpair "AU20" 1 frame 17
		flex "AU32" frame 18
		flex "AU24" frame 19
		flex "AU38" frame 20
		flex "AU31" frame 21
		flexpair "AU26" 1 frame 22
		flexpair "AU27" 1 frame 23
		flexpair "AU26Z" 1 frame 24
		flexpair "AU27Z" 1 frame 25
		// Already in eyelid lines: flex "upper_right" frame 26
		// Already in eyelid lines: flex "lower_right" frame 27
		// Already in eyelid lines: flex "upper_left" frame 28
		// Already in eyelid lines: flex "lower_left" frame 29
	}

	flexcontroller eyelid range 0 1 "right_lid_raiser"
	flexcontroller eyelid range 0 1 "left_lid_raiser"
	flexcontroller eyelid range 0 1 "right_lid_tightener"
	flexcontroller eyelid range 0 1 "left_lid_tightener"
	flexcontroller eyelid range 0 1 "right_lid_droop"
	flexcontroller eyelid range 0 1 "left_lid_droop"
	flexcontroller eyelid range 0 1 "right_lid_closer"
	flexcontroller eyelid range 0 1 "left_lid_closer"
	flexcontroller eyelid range 0 1 "half_closed"
	flexcontroller eyelid range 0 1 "blink"
	flexcontroller brow range 0 1 "right_inner_raiser"
	flexcontroller brow range 0 1 "left_inner_raiser"
	flexcontroller brow range 0 1 "right_outer_raiser"
	flexcontroller brow range 0 1 "left_outer_raiser"
	flexcontroller brow range 0 1 "right_lowerer"
	flexcontroller brow range 0 1 "left_lowerer"
	flexcontroller nose range 0 1 "right_cheek_raiser"
	flexcontroller nose range 0 1 "left_cheek_raiser"
	flexcontroller nose range 0 1 "wrinkler"
	flexcontroller nose range 0 1 "dilator"
	flexcontroller mouth range 0 1 "right_upper_raiser"
	flexcontroller mouth range 0 1 "left_upper_raiser"
	flexcontroller mouth range 0 1 "right_corner_puller"
	flexcontroller mouth range 0 1 "left_corner_puller"
	flexcontroller mouth range 0 1 "right_corner_depressor"
	flexcontroller mouth range 0 1 "left_corner_depressor"
	flexcontroller mouth range 0 1 "chin_raiser"
	flexcontroller phoneme range 0 1 "right_part"
	flexcontroller phoneme range 0 1 "left_part"
	flexcontroller phoneme range 0 1 "right_puckerer"
	flexcontroller phoneme range 0 1 "left_puckerer"
	flexcontroller phoneme range 0 1 "right_funneler"
	flexcontroller phoneme range 0 1 "left_funneler"
	flexcontroller phoneme range 0 1 "right_stretcher"
	flexcontroller phoneme range 0 1 "left_stretcher"
	flexcontroller phoneme range 0 1 "bite"
	flexcontroller phoneme range 0 1 "presser"
	flexcontroller phoneme range 0 1 "tightener"
	flexcontroller phoneme range 0 1 "jaw_clencher"
	flexcontroller phoneme range 0 1 "jaw_drop"
	flexcontroller phoneme range 0 1 "right_mouth_drop"
	flexcontroller phoneme range 0 1 "left_mouth_drop"
	flexcontroller mouth range 0 1 "smile"
	flexcontroller mouth range 0 1 "lower_lip"
	flexcontroller head range 0 1 "head_rightleft"
	flexcontroller head range 0 1 "head_updown"
	flexcontroller head range 0 1 "head_tilt"
	flexcontroller eyes range 0 1 "eyes_updown"
	flexcontroller eyes range 0 1 "eyes_rightleft"
	flexcontroller body range 0 1 "body_rightleft"
	flexcontroller chest range 0 1 "chest_rightleft"
	flexcontroller head range 0 1 "head_forwardback"
	flexcontroller gesture range 0 1 "gesture_updown"
	flexcontroller gesture range 0 1 "gesture_rightleft"

	localvar right_open
	localvar left_open
	localvar right_lip_suppressor
	localvar left_lip_suppressor
	localvar right_depressor_suppressor
	localvar left_depressor_suppressor
	localvar right_corner_suppressor
	localvar left_corner_suppressor
	localvar right_drop_suppressor
	localvar left_drop_suppressor
	localvar right_drop
	localvar left_drop
	%upper_right_raiser = right_lid_raiser * (1 - right_lid_droop * 0.8) * (1 - right_lid_closer) * (1 - blink)
	%upper_right_neutral = (1 - right_lid_droop * 0.8) * (1 - right_lid_raiser) * (1 - right_lid_closer) * (1 - blink)
	%upper_right_lowerer = right_lid_closer + blink * (1 - right_lid_closer)
	%upper_left_raiser = left_lid_raiser * (1 - left_lid_droop * 0.8) * (1 - left_lid_closer) * (1 - blink)
	%upper_left_neutral = (1 - left_lid_droop * 0.8) * (1 - left_lid_raiser) * (1 - left_lid_closer) * (1 - blink)
	%upper_left_lowerer = left_lid_closer + blink * (1 - left_lid_closer)
	%lower_right_raiser = right_lid_closer + blink * 0.5 * (1 - right_lid_closer)
	%lower_right_neutral = (1 - right_lid_closer) * (1 - 0.5 * blink) * (1 - right_lid_tightener * 0.5) * (1 - right_cheek_raiser * 0.25)
	%lower_right_lowerer = 0
	%lower_left_raiser = left_lid_closer + blink * 0.5 * (1 - left_lid_closer)
	%lower_left_neutral = (1 - left_lid_closer) * (1 - 0.5 * blink) * (1 - left_lid_tightener * 0.5) * (1 - left_cheek_raiser * 0.25)
	%lower_left_lowerer = 0
	%AU1R = right_inner_raiser * (1 - right_outer_raiser) * (1 - right_lowerer)
	%AU1L = left_inner_raiser * (1 - left_outer_raiser) * (1 - left_lowerer)
	%AU2R = right_outer_raiser * (1 - right_inner_raiser) * (1 - right_lowerer)
	%AU2L = left_outer_raiser * (1 - left_inner_raiser) * (1 - left_lowerer)
	%AU1AU2R = right_inner_raiser * right_outer_raiser * (1 - right_lowerer)
	%AU1AU2L = left_inner_raiser * left_outer_raiser * (1 - left_lowerer)
	%AU4R = right_lowerer
	%AU4L = left_lowerer
	%AU6R = right_cheek_raiser
	%AU6L = left_cheek_raiser
	%AU9R = wrinkler
	%AU9L = wrinkler
	%AU38 = dilator
	%right_open = smile + right_part * (1 - smile) + right_puckerer + right_funneler + right_upper_raiser * 0.5 + lower_lip * 0.5
	%left_open = smile + left_part * (1 - smile) + left_puckerer + left_funneler + left_upper_raiser * 0.5 + lower_lip * 0.5
	%right_lip_suppressor = 1 / %right_open * (1 - presser) * (1 - bite)
	%left_lip_suppressor = 1 / %left_open * (1 - presser) * (1 - bite)
	%AU10R = right_upper_raiser * right_upper_raiser * 0.5 * %right_lip_suppressor
	%AU10L = left_upper_raiser * left_upper_raiser * 0.5 * %left_lip_suppressor
	%AU25R = right_part * right_part * %right_lip_suppressor * (1 - smile)
	%AU25L = left_part * left_part * %left_lip_suppressor * (1 - smile)
	%AU12AU25 = smile * smile * 0.5 * (%right_lip_suppressor + %left_lip_suppressor)
	%AU18R = right_puckerer * right_puckerer * %right_lip_suppressor
	%AU18L = left_puckerer * left_puckerer * %left_lip_suppressor
	%AU22R = right_funneler * right_funneler * %right_lip_suppressor
	%AU22L = left_funneler * left_funneler * %left_lip_suppressor
	%AU17R = chin_raiser * (1 - jaw_drop * 0.5) * (1 - bite) * (1 - 0.6 * (%AU25R + %AU18R + %AU22R)) * (1 - smile)
	%AU17L = chin_raiser * (1 - jaw_drop * 0.5) * (1 - bite) * (1 - 0.6 * (%AU25L + %AU18L + %AU22L)) * (1 - smile)
	%right_depressor_suppressor = 1 / (%AU18R * 0.8 + %AU22R * 0.8 + %AU17R + bite + right_corner_puller + right_stretcher + right_corner_depressor) * (1 - jaw_drop * 0.5) * (1 - smile * 0.5)
	%left_depressor_suppressor = 1 / (%AU18L * 0.8 + %AU22L * 0.8 + %AU17L + bite + left_corner_puller + left_stretcher + left_corner_depressor) * (1 - jaw_drop * 0.5) * (1 - smile * 0.5)
	%AU15R = right_corner_depressor * right_corner_depressor * %right_depressor_suppressor
	%AU15L = left_corner_depressor * left_corner_depressor * %left_depressor_suppressor
	%right_corner_suppressor = 1 / (%AU18R * 0.8 + %AU22R * 0.8 + %AU17R + bite + right_corner_puller + right_stretcher + right_corner_depressor) * (1 - jaw_drop * 0.5) * (1 - smile)
	%left_corner_suppressor = 1 / (%AU18L * 0.8 + %AU22L * 0.8 + %AU17L + bite + left_corner_puller + left_stretcher + left_corner_depressor) * (1 - jaw_drop * 0.5) * (1 - smile)
	%AU12R = right_corner_puller * right_corner_puller * %right_corner_suppressor
	%AU12L = left_corner_puller * left_corner_puller * %left_corner_suppressor
	%AU20R = right_stretcher * right_stretcher * %right_corner_suppressor
	%AU20L = left_stretcher * left_stretcher * %left_corner_suppressor
	%AU32 = bite
	%AU24 = presser + (1 - presser) * tightener
	%AU31 = jaw_clencher * jaw_clencher / (jaw_clencher + jaw_drop)
	%right_drop_suppressor = 1 / (0.5 * %right_open + right_mouth_drop) * (1 - presser) * (1 - bite)
	%left_drop_suppressor = 1 / (0.5 * %left_open + left_mouth_drop) * (1 - presser) * (1 - bite)
	%right_drop = right_mouth_drop * right_mouth_drop * %right_drop_suppressor
	%left_drop = left_mouth_drop * left_mouth_drop * %left_drop_suppressor
	%AU26R = jaw_drop * (1 - %right_drop) * jaw_drop / (jaw_clencher + jaw_drop)
	%AU26L = jaw_drop * (1 - %left_drop) * jaw_drop / (jaw_clencher + jaw_drop)
	%AU27R = jaw_drop * %right_drop * jaw_drop / (jaw_clencher + jaw_drop)
	%AU27L = jaw_drop * %left_drop * jaw_drop / (jaw_clencher + jaw_drop)
	%AU16 = lower_lip * lower_lip * 0.25 * (%right_lip_suppressor + %left_lip_suppressor) * (1 - 0.5 * (%AU27R + %AU27L))
	%mouth = %AU27R * 0.5 + %AU27L * 0.5 + %AU22R * 0.35 + %AU22L * 0.35 + %AU18R * 0.25 + %AU18L * 0.25 + %AU25R * 0.35 + %AU25L * 0.35 + %AU32 * 0.5 + %AU12AU25 + (%AU27ZR + %AU27ZL) * 0.5 * 0.7 + %AU16 * 0.4
}
$bodygroup "male_08"
{
	studio "male_body_reference.smd"
}

$surfaceprop "flesh"

$contents "solid"

$illumposition 0.637 0 36.058

$eyeposition 0 0 70

$cdmaterials "models\citizen\city\"
$cdmaterials "models\Humans\Male\Group01\"
$cdmaterials "models\Humans\Male\"
$attachment "eyes" "ValveBiped.Bip01_Head1" 3.39 -3.75 0.04 rotate 0 -80.1 -90
$attachment "mouth" "ValveBiped.Bip01_Head1" 0.7 -5.2 0 rotate 0 -80 -90
$attachment "chest" "ValveBiped.Bip01_Spine2" 5 4 0 rotate 0 90 90
$attachment "forward" "ValveBiped.forward" 0 0 0 rotate 0 0 0
$attachment "anim_attachment_RH" "ValveBiped.Anim_Attachment_RH" 0 0 0 rotate -90 -90 0
$attachment "anim_attachment_LH" "ValveBiped.Anim_Attachment_LH" 0 0 0 rotate -90 -90 0
$attachment "anim_attachment_head" "ValveBiped.Bip01_Head1" 0 0 0 rotate -90 -90 0

$cbox 0 0 0 0 0 0

$bbox -6.818 -26.364 -2.684 7.04 26.346 73.339

$hboxset "default"
$hbox 1 "ValveBiped.Bip01_Head1" -1.25 -6.5 -3.19 8.25 3.5 3.31
$hbox 4 "ValveBiped.Bip01_L_UpperArm" 0 -2.75 -2.75 12.51 1.75 2.25
$hbox 4 "ValveBiped.Bip01_L_Forearm" 0 -2.19 -2.38 13 1.81 1.62
$hbox 4 "ValveBiped.Bip01_L_Hand" 0.06 -2 -1.5 4.06 1 2.5
$hbox 5 "ValveBiped.Bip01_R_UpperArm" 0 -3 -2.25 12.39 2 2.75
$hbox 5 "ValveBiped.Bip01_R_Forearm" -0.5 -2.2 -1.55 12.5 1.8 2.45
$hbox 5 "ValveBiped.Bip01_R_Hand" 0.06 -2 -2.5 4.06 1 1.5
$hbox 6 "ValveBiped.Bip01_L_Thigh" 0 -3.75 -3.25 17.85 3.75 3.25
$hbox 6 "ValveBiped.Bip01_L_Calf" 0 -3.51 -3.28 15.64 3.49 2.72
$hbox 6 "ValveBiped.Bip01_L_Foot" -1.07 -2 -2.84 5.04 5 2.16
$hbox 6 "ValveBiped.Bip01_L_Toe0" -0.5 -3 -2.19 2.5 0 2.46
$hbox 7 "ValveBiped.Bip01_R_Thigh" 0 -3.75 -3.25 17.85 3.75 3.25
$hbox 7 "ValveBiped.Bip01_R_Calf" 0 -3.51 -2.82 15.64 3.49 3.18
$hbox 7 "ValveBiped.Bip01_R_Foot" -1.06 -2.01 -2.28 5.05 4.99 2.72
$hbox 7 "ValveBiped.Bip01_R_Toe0" -0.5 -3 -2.6 2.5 0 2.1
$hbox 3 "ValveBiped.Bip01_Pelvis" -7.5 -5.5 -6 7.5 8.5 5
$hbox 2 "ValveBiped.Bip01_Spine2" -2.5 -2.5 -7 14.5 7.5 7
$skipboneinbbox

$definebone "ValveBiped.Bip01_Pelvis" "" 0 -0.533612 38.566914 0 0 89.999982 0 0 0 0 0 0
$definebone "ValveBiped.Bip01_Spine" "ValveBiped.Bip01_Pelvis" 0 3.345132 -2.981898 4.766608 89.999982 89.999982 0 0 0 0 0 0
$definebone "ValveBiped.Bip01_Spine1" "ValveBiped.Bip01_Spine" 3.995838 0 0 0 -1.651035 0 0 0 0 0 0 0
$definebone "ValveBiped.Bip01_Spine2" "ValveBiped.Bip01_Spine1" 3.520298 0 0 0 5.57528 0 0 0 0 0 0 0
$definebone "ValveBiped.Bip01_Spine4" "ValveBiped.Bip01_Spine2" 8.921476 0 0 0 10.680678 0 0 0 0 0 0 0
$definebone "ValveBiped.Bip01_Neck1" "ValveBiped.Bip01_Spine4" 3.30636 0.000002 0 0 23.268329 179.999855 0 0 0 0 0 0
$definebone "ValveBiped.Bip01_Head1" "ValveBiped.Bip01_Neck1" 3.602 -0.000002 0 -0.000057 23.206684 0 0 0 0 0 0 0
$definebone "ValveBiped.forward" "ValveBiped.Bip01_Head1" 2.000003 -3 0 0 -75.999986 -89.999982 0 0 0 0 0 0
$definebone "ValveBiped.Bip01_R_Clavicle" "ValveBiped.Bip01_Spine4" 2.059532 0.977924 -1.937661 73.711859 169.030953 -95.200871 0 0 0 0 0 0
$definebone "ValveBiped.Bip01_R_UpperArm" "ValveBiped.Bip01_R_Clavicle" 6.028141 0.000007 0 -0.680903 -33.620537 93.606062 0 0 0 0 0 0
$definebone "ValveBiped.Bip01_R_Forearm" "ValveBiped.Bip01_R_UpperArm" 11.692554 0 -0.000001 -0.000004 -3.45906 0 0 0 0 0 0 0
$definebone "ValveBiped.Bip01_R_Hand" "ValveBiped.Bip01_R_Forearm" 11.481691 0 0 2.217399 2.063909 -89.381017 0 0 0 0 0 0
$definebone "ValveBiped.Anim_Attachment_RH" "ValveBiped.Bip01_R_Hand" 2.676087 -1.712443 0 0 -89.999921 -89.999982 0 0 0 0 0 0
$definebone "ValveBiped.Bip01_L_Clavicle" "ValveBiped.Bip01_Spine4" 2.059529 0.977924 1.937661 -73.711798 169.030953 91.085381 0 0 0 0 0 0
$definebone "ValveBiped.Bip01_L_UpperArm" "ValveBiped.Bip01_L_Clavicle" 6.028141 0 0 2.957092 -33.511558 -90.175251 0 0 0 0 0 0
$definebone "ValveBiped.Bip01_L_Forearm" "ValveBiped.Bip01_L_UpperArm" 11.692555 0 -0.000006 0.000001 -3.459061 0 0 0 0 0 0 0
$definebone "ValveBiped.Bip01_L_Hand" "ValveBiped.Bip01_L_Forearm" 11.481671 0 -0.000036 -2.217864 2.063909 89.856514 0 0 0 0 0 0
$definebone "ValveBiped.Anim_Attachment_LH" "ValveBiped.Bip01_L_Hand" 2.676085 -1.712442 0 0.000019 90.000016 90.000016 0 0 0 0 0 0
$definebone "ValveBiped.Bip01_R_Thigh" "ValveBiped.Bip01_Pelvis" -3.890447 0 0 2.970156 -90.299178 -89.999982 0 0 0 0 0 0
$definebone "ValveBiped.Bip01_R_Calf" "ValveBiped.Bip01_R_Thigh" 17.848167 0 0 0 1.959516 0 0 0 0 0 0 0
$definebone "ValveBiped.Bip01_R_Foot" "ValveBiped.Bip01_R_Calf" 16.525238 0 0 2.33658 -61.400389 2.212133 0 0 0 0 0 0
$definebone "ValveBiped.Bip01_L_Thigh" "ValveBiped.Bip01_Pelvis" 3.890447 0 0 2.970156 -89.700792 -89.999982 0 0 0 0 0 0
$definebone "ValveBiped.Bip01_L_Calf" "ValveBiped.Bip01_L_Thigh" 17.848167 0 0 0 1.959516 0 0 0 0 0 0 0
$definebone "ValveBiped.Bip01_L_Foot" "ValveBiped.Bip01_L_Calf" 16.525238 0 0 -2.336579 -61.400334 -1.599412 0 0 0 0 0 0
$definebone "ValveBiped.Bip01" "" -0.000005 -0.533615 38.566917 0 0 89.999982 0 0 0 0 0 0
$definebone "ValveBiped.Bip01_L_Toe0" "ValveBiped.Bip01_L_Foot" 6.879449 0.000002 0 -0.16908 -33.482106 -0.418202 0 0 0 0 0 0
$definebone "ValveBiped.Bip01_L_Shin" "ValveBiped.Bip01_L_Calf" 7.766866 0 0 0 0 0 0 0 0 0 0 0
$definebone "ValveBiped.Bip01_L_Knee" "ValveBiped.Bip01_L_Thigh" 17.848169 0 0 0 0.956324 0 0 0 0 0 0 0
$definebone "ValveBiped.Bip01_L_Quadricep" "ValveBiped.Bip01_L_Thigh" 7.139265 0 0 0 0 0 0 0 0 0 0 0
$definebone "ValveBiped.Bip01_R_Toe0" "ValveBiped.Bip01_R_Foot" 6.879451 0.000002 0 -0.169079 -33.482106 -4.660095 0 0 0 0 0 0
$definebone "ValveBiped.Bip01_R_Shin" "ValveBiped.Bip01_R_Calf" 7.766869 0 0.000001 0 0 0 0 0 0 0 0 0
$definebone "ValveBiped.Bip01_R_Quadricep" "ValveBiped.Bip01_R_Thigh" 7.139271 0 0 0 0 0 0 0 0 0 0 0
$definebone "ValveBiped.Bip01_R_Knee" "ValveBiped.Bip01_R_Thigh" 17.848167 0 0 0 0.95598 0 0 0 0 0 0 0
$definebone "ValveBiped.Bip01_L_Finger3" "ValveBiped.Bip01_L_Hand" 3.942322 0.046777 -0.431443 4.201385 -46.446717 -8.881647 0 0 0 0 0 0
$definebone "ValveBiped.Bip01_L_Finger31" "ValveBiped.Bip01_L_Finger3" 1.539095 -0.000003 0 0.25554 -14.197728 -0.000003 0 0 0 0 0 0
$definebone "ValveBiped.Bip01_L_Finger32" "ValveBiped.Bip01_L_Finger31" 1.196324 0.000001 0 0.421754 -24.683139 -0.000003 0 0 0 0 0 0
$definebone "ValveBiped.Bip01_L_Finger2" "ValveBiped.Bip01_L_Hand" 3.883687 -0.046764 0.431443 1.250767 -33.682303 4.921822 0 0 0 0 0 0
$definebone "ValveBiped.Bip01_L_Finger21" "ValveBiped.Bip01_L_Finger2" 1.719573 0.000001 0 0.316043 -20.997648 0 0 0 0 0 0 0
$definebone "ValveBiped.Bip01_L_Finger22" "ValveBiped.Bip01_L_Finger21" 1.209185 0.000002 0 0.1767 -12.398809 0 0 0 0 0 0 0
$definebone "ValveBiped.Bip01_L_Finger1" "ValveBiped.Bip01_L_Hand" 3.859859 -0.137941 1.332466 -2.449395 -30.465202 20.308432 0 0 0 0 0 0
$definebone "ValveBiped.Bip01_L_Finger11" "ValveBiped.Bip01_L_Finger1" 1.719427 0.000005 0 0.233421 -20.798887 0.000001 0 0 0 0 0 0
$definebone "ValveBiped.Bip01_L_Finger12" "ValveBiped.Bip01_L_Finger11" 1.099663 0 0 0.148737 -13.999139 0.000002 0 0 0 0 0 0
$definebone "ValveBiped.Bip01_L_Finger0" "ValveBiped.Bip01_L_Hand" 0.806048 -0.348915 1.321258 -38.931798 -45.224028 -69.147647 0 0 0 0 0 0
$definebone "ValveBiped.Bip01_L_Finger01" "ValveBiped.Bip01_L_Finger0" 1.789784 -0.000002 0.000001 0.42325 13.093402 -0.000002 0 0 0 0 0 0
$definebone "ValveBiped.Bip01_L_Finger02" "ValveBiped.Bip01_L_Finger01" 1.206999 -0.000002 0.000002 0.645559 20.790345 0 0 0 0 0 0 0
$definebone "ValveBiped.Bip01_L_Finger4" "ValveBiped.Bip01_L_Hand" 3.859704 -0.1424 -1.191974 8.719844 -50.413073 -27.452933 0 0 0 0 0 0
$definebone "ValveBiped.Bip01_L_Finger41" "ValveBiped.Bip01_L_Finger4" 1.312555 -0.000002 -0.000002 0.553767 -25.194104 -0.000001 0 0 0 0 0 0
$definebone "ValveBiped.Bip01_L_Finger42" "ValveBiped.Bip01_L_Finger41" 0.729363 0.000001 0 0.28482 -13.9973 -0.000002 0 0 0 0 0 0
$definebone "ValveBiped.Bip01_L_Ulna" "ValveBiped.Bip01_L_Forearm" 5.740847 0 0.000005 0.000001 0 0.039419 0 0 0 0 0 0
$definebone "ValveBiped.Bip01_L_Wrist" "ValveBiped.Bip01_L_Forearm" 11.481695 0 0.000009 0.000001 0 0.07288 0 0 0 0 0 0
$definebone "ValveBiped.Bip01_L_Elbow" "ValveBiped.Bip01_L_UpperArm" 11.692554 0 0.000009 0.000002 -1.690226 0 0 0 0 0 0 0
$definebone "ValveBiped.Bip01_L_Shoulder" "ValveBiped.Bip01_L_UpperArm" 1.499998 0 0.000005 0.000002 0 0 0 0 0 0 0 0
$definebone "ValveBiped.Bip01_L_Bicep" "ValveBiped.Bip01_L_UpperArm" 5.559999 0 0.000006 0.000002 0 0 0 0 0 0 0 0
$definebone "ValveBiped.Bip01_L_Trapezius" "ValveBiped.Bip01_L_Clavicle" 5.166963 0.000002 0 0 0.000001 0 0 0 0 0 0 0
$definebone "ValveBiped.Bip01_R_Finger3" "ValveBiped.Bip01_R_Hand" 3.942297 0.050328 0.431043 -4.543842 -46.421329 8.88079 0 0 0 0 0 0
$definebone "ValveBiped.Bip01_R_Finger31" "ValveBiped.Bip01_R_Finger3" 1.539097 0.000002 0 -0.335409 -14.196231 0.000002 0 0 0 0 0 0
$definebone "ValveBiped.Bip01_R_Finger32" "ValveBiped.Bip01_R_Finger31" 1.196325 0 0 -0.553648 -24.680781 0.000002 0 0 0 0 0 0
$definebone "ValveBiped.Bip01_R_Finger2" "ValveBiped.Bip01_R_Hand" 3.883659 -0.050326 -0.431043 -1.512838 -33.67245 -4.921993 0 0 0 0 0 0
$definebone "ValveBiped.Bip01_R_Finger21" "ValveBiped.Bip01_R_Finger2" 1.719574 -0.000001 0 -0.456876 -20.995242 -0.000001 0 0 0 0 0 0
$definebone "ValveBiped.Bip01_R_Finger22" "ValveBiped.Bip01_R_Finger21" 1.209181 0 0 -0.255597 -12.397433 0 0 0 0 0 0 0
$definebone "ValveBiped.Bip01_R_Finger1" "ValveBiped.Bip01_R_Hand" 3.859833 -0.148934 -1.331282 2.209726 -30.48142 -20.306714 0 0 0 0 0 0
$definebone "ValveBiped.Bip01_R_Finger11" "ValveBiped.Bip01_R_Finger1" 1.719424 0.000001 0.000001 -0.378896 -20.796654 -0.000002 0 0 0 0 0 0
$definebone "ValveBiped.Bip01_R_Finger12" "ValveBiped.Bip01_R_Finger11" 1.099666 0 0.000001 -0.241271 -13.998051 -0.000002 0 0 0 0 0 0
$definebone "ValveBiped.Bip01_R_Finger0" "ValveBiped.Bip01_R_Hand" 0.806019 -0.359832 -1.318334 38.595469 -45.490334 68.995579 0 0 0 0 0 0
$definebone "ValveBiped.Bip01_R_Finger01" "ValveBiped.Bip01_R_Finger0" 1.789783 0.000001 0.000001 -0.361026 13.095236 0.000005 0 0 0 0 0 0
$definebone "ValveBiped.Bip01_R_Finger02" "ValveBiped.Bip01_R_Finger01" 1.206999 -0.000001 0 -0.551077 20.792925 0.000003 0 0 0 0 0 0
$definebone "ValveBiped.Bip01_R_Finger4" "ValveBiped.Bip01_R_Hand" 3.859675 -0.132568 1.193108 -9.083959 -50.365344 27.452701 0 0 0 0 0 0
$definebone "ValveBiped.Bip01_R_Finger41" "ValveBiped.Bip01_R_Finger4" 1.312563 0 -0.000001 -0.683652 -25.191351 0.000002 0 0 0 0 0 0
$definebone "ValveBiped.Bip01_R_Finger42" "ValveBiped.Bip01_R_Finger41" 0.729363 -0.000004 0.000002 -0.351451 -13.995694 0.000001 0 0 0 0 0 0
$definebone "ValveBiped.Bip01_R_Ulna" "ValveBiped.Bip01_R_Forearm" 5.740848 0 0.000003 -0.000004 0 0.004641 0 0 0 0 0 0
$definebone "ValveBiped.Bip01_R_Wrist" "ValveBiped.Bip01_R_Forearm" 11.4817 0 0.000002 -0.000004 0 0.008594 0 0 0 0 0 0
$definebone "ValveBiped.Bip01_R_Shoulder" "ValveBiped.Bip01_R_UpperArm" 1.500002 0 0.000005 -0.000004 0 0 0 0 0 0 0 0
$definebone "ValveBiped.Bip01_R_Bicep" "ValveBiped.Bip01_R_UpperArm" 5.56 0 0.000006 -0.000004 0 0 0 0 0 0 0 0
$definebone "ValveBiped.Bip01_R_Elbow" "ValveBiped.Bip01_R_UpperArm" 11.692548 0 0.000006 -0.000004 -1.690225 0 0 0 0 0 0 0
$definebone "ValveBiped.Bip01_R_Trapezius" "ValveBiped.Bip01_R_Clavicle" 5.166965 0 0 0 0.000002 0 0 0 0 0 0 0
$definebone "ValveBiped.Bip01_R_Pectoral" "ValveBiped.Bip01_Spine2" 1.025254 4.831669 -2.578 0 0 0 0 0 0 0 0 0
$definebone "ValveBiped.Bip01_L_Pectoral" "ValveBiped.Bip01_Spine2" 1.025254 4.83155 2.578 0 0 0 0 0 0 0 0 0
$definebone "ValveBiped.Bip01_R_Latt" "ValveBiped.Bip01_Spine2" 2 1.4 5 0 0 0 0 0 0 0 0 0
$definebone "ValveBiped.Bip01_L_Latt" "ValveBiped.Bip01_Spine2" 2.000001 1.4 -5 0 0 0 0 0 0 0 0 0


$ikchain "rhand" "ValveBiped.Bip01_R_Hand" knee 0.707 0.707 0
$ikchain "lhand" "ValveBiped.Bip01_L_Hand" knee 0.707 0.707 0
$ikchain "rfoot" "ValveBiped.Bip01_R_Foot" knee 0.707 -0.707 0
$ikchain "lfoot" "ValveBiped.Bip01_L_Foot" knee 0.707 -0.707 0

$sequence "ragdoll" {
	"male_08_anims\ragdoll.smd"
	activity "ACT_DIERAGDOLL" 1
	fadein 0.2
	fadeout 0.2
	fps 30
	ikrule "rhand" release contact 0 fakeorigin 0 0 0 fakerotate 0 0 0 floor 0 height 0 radius 0 range 0 0 101 101 target 0
	ikrule "lhand" release contact 0 fakeorigin 0 0 0 fakerotate 0 0 0 floor 0 height 0 radius 0 range 0 0 101 101 target 1
	ikrule "rfoot" release contact 0 fakeorigin 0 0 0 fakerotate 0 0 0 floor 0 height 0 radius 0 range 0 0 101 101 target 2
	ikrule "lfoot" release contact 0 fakeorigin 0 0 0 fakerotate 0 0 0 floor 0 height 0 radius 0 range 0 0 101 101 target 3
}

$includemodel "humans/male_shared.mdl"
$includemodel "humans/male_ss.mdl"
$includemodel "humans/male_gestures.mdl"
$includemodel "humans/male_postures.mdl"

$collisionjoints "male_08_physics.smd"
{
	$mass 0
	$inertia 10
	$damping 0.01
	$rotdamping 1.5


	$jointconstrain "ValveBiped.Bip01_L_Thigh" x limit -12 12 0
	$jointconstrain "ValveBiped.Bip01_L_Thigh" y limit -73 6 0
	$jointconstrain "ValveBiped.Bip01_L_Thigh" z limit -93 30 0

	$jointconstrain "ValveBiped.Bip01_L_Calf" x limit 0 0 0
	$jointconstrain "ValveBiped.Bip01_L_Calf" y limit 0 0 0
	$jointconstrain "ValveBiped.Bip01_L_Calf" z limit -8 126 0

	$jointconstrain "ValveBiped.Bip01_R_Thigh" x limit -12 12 0
	$jointconstrain "ValveBiped.Bip01_R_Thigh" y limit -8 75 0
	$jointconstrain "ValveBiped.Bip01_R_Thigh" z limit -97 32 0

	$jointconstrain "ValveBiped.Bip01_R_Calf" x limit 0 0 0
	$jointconstrain "ValveBiped.Bip01_R_Calf" y limit 0 0 0
	$jointconstrain "ValveBiped.Bip01_R_Calf" z limit -12 126 0

	$jointconstrain "ValveBiped.Bip01_R_Foot" x limit 0 0 0
	$jointconstrain "ValveBiped.Bip01_R_Foot" y limit -25 6 0
	$jointconstrain "ValveBiped.Bip01_R_Foot" z limit -15 35 0

	$jointconstrain "ValveBiped.Bip01_Spine2" x limit -48 48 0
	$jointconstrain "ValveBiped.Bip01_Spine2" y limit -25 25 0
	$jointconstrain "ValveBiped.Bip01_Spine2" z limit -25 50 0

	$jointconstrain "ValveBiped.Bip01_L_UpperArm" x limit -30 30 0
	$jointconstrain "ValveBiped.Bip01_L_UpperArm" y limit -95 84 0
	$jointconstrain "ValveBiped.Bip01_L_UpperArm" z limit -86 26 0

	$jointconstrain "ValveBiped.Bip01_L_Forearm" x limit 0 0 0
	$jointconstrain "ValveBiped.Bip01_L_Forearm" y limit 0 0 0
	$jointconstrain "ValveBiped.Bip01_L_Forearm" z limit -149 4 0

	$jointconstrain "ValveBiped.Bip01_R_UpperArm" x limit -39 39 0
	$jointconstrain "ValveBiped.Bip01_R_UpperArm" y limit -79 95 0
	$jointconstrain "ValveBiped.Bip01_R_UpperArm" z limit -93 23 0

	$jointconstrain "ValveBiped.Bip01_R_Forearm" x limit 0 0 0
	$jointconstrain "ValveBiped.Bip01_R_Forearm" y limit 0 0 0
	$jointconstrain "ValveBiped.Bip01_R_Forearm" z limit -149 4 0

	$jointconstrain "ValveBiped.Bip01_R_Hand" x limit -60 60 0
	$jointconstrain "ValveBiped.Bip01_R_Hand" y limit 0 0 0
	$jointconstrain "ValveBiped.Bip01_R_Hand" z limit -57 70 0

	$jointconstrain "ValveBiped.Bip01_Head1" x limit -20 20 0
	$jointconstrain "ValveBiped.Bip01_Head1" y limit -25 25 0
	$jointconstrain "ValveBiped.Bip01_Head1" z limit -13 30 0

	$jointconstrain "ValveBiped.Bip01_L_Hand" x limit -37 37 0
	$jointconstrain "ValveBiped.Bip01_L_Hand" y limit 0 0 0
	$jointconstrain "ValveBiped.Bip01_L_Hand" z limit -57 59 0

	$jointconstrain "ValveBiped.Bip01_L_Foot" x limit 0 0 0
	$jointconstrain "ValveBiped.Bip01_L_Foot" y limit -19 19 0
	$jointconstrain "ValveBiped.Bip01_L_Foot" z limit -15 35 0
}

$collisiontext
{
	animatedfriction 
	{
		"animfrictionmin"		"1.000000"
		"animfrictionmax"		"400.000000"
		"animfrictiontimein"		"0.500000"
		"animfrictiontimeout"		"0.000000"
		"animfrictiontimehold"		"0.300000"
	}
	editparams 
	{
		"rootname"		"valvebiped.bip01_pelvis"
		"totalmass"		"90.000000"
		"jointmerge"		"ValveBiped.Bip01_Pelvis,ValveBiped.Bip01_Spine1"
	}
}
