versioninfo
{
	"editorversion" "400"
	"editorbuild" "8157"
	"mapversion" "22"
	"formatversion" "100"
	"prefab" "0"
}
visgroups
{
}
viewsettings
{
	"bSnapToGrid" "1"
	"bShowGrid" "1"
	"bShowLogicalGrid" "0"
	"nGridSpacing" "4"
	"bShow3DGrid" "0"
}
world
{
	"id" "1"
	"mapversion" "22"
	"classname" "worldspawn"
	"chaptertitlenomessage" "1"
	"detailmaterial" "detail/detailsprites"
	"detailvbsp" "detail.vbsp"
	"maxpropscreenwidth" "-1"
	"skyname" "sky_day01_01"
	solid
	{
		"id" "2"
		side
		{
			"id" "1"
			"plane" "(-640 0 0) (1.52588e-005 0 0) (1.52588e-005 -512 0)"
			"material" "DEV/DEV_MEASUREGENERIC01B"
			"uaxis" "[1 0 0 0] 0.25"
			"vaxis" "[0 -1 0 0] 0.25"
			"rotation" "0"
			"lightmapscale" "1"
			"smoothing_groups" "0"
		}
		side
		{
			"id" "2"
			"plane" "(-640 -512 -64) (1.52588e-005 -512 -64) (1.52588e-005 0 -64)"
			"material" "TOOLS/TOOLSNODRAW"
			"uaxis" "[1 0 0 0] 0.25"
			"vaxis" "[0 -1 0 0] 0.25"
			"rotation" "0"
			"lightmapscale" "1"
			"smoothing_groups" "0"
		}
		side
		{
			"id" "3"
			"plane" "(-640 0 0) (-640 -512 0) (-640 -512 -64)"
			"material" "TOOLS/TOOLSNODRAW"
			"uaxis" "[0 1 0 0] 0.25"
			"vaxis" "[0 0 -1 0] 0.25"
			"rotation" "0"
			"lightmapscale" "1"
			"smoothing_groups" "0"
		}
		side
		{
			"id" "4"
			"plane" "(1.52588e-005 0 -64) (1.52588e-005 -512 -64) (1.52588e-005 -512 0)"
			"material" "TOOLS/TOOLSNODRAW"
			"uaxis" "[0 1 0 0] 0.25"
			"vaxis" "[0 0 -1 0] 0.25"
			"rotation" "0"
			"lightmapscale" "1"
			"smoothing_groups" "0"
		}
		side
		{
			"id" "5"
			"plane" "(1.52588e-005 0 0) (-640 0 0) (-640 0 -64)"
			"material" "TOOLS/TOOLSNODRAW"
			"uaxis" "[1 0 0 0] 0.25"
			"vaxis" "[0 0 -1 0] 0.25"
			"rotation" "0"
			"lightmapscale" "1"
			"smoothing_groups" "0"
		}
		side
		{
			"id" "6"
			"plane" "(1.52588e-005 -512 -64) (-640 -512 -64) (-640 -512 0)"
			"material" "TOOLS/TOOLSNODRAW"
			"uaxis" "[1 0 0 0] 0.25"
			"vaxis" "[0 0 -1 0] 0.25"
			"rotation" "0"
			"lightmapscale" "1"
			"smoothing_groups" "0"
		}
		editor
		{
			"color" "0 255 112"
			"visgroupshown" "1"
			"visgroupautoshown" "1"
		}
	}
	solid
	{
		"id" "16"
		side
		{
			"id" "7"
			"plane" "(-640 -640 128) (0 -640 128) (0 -704 128)"
			"material" "TOOLS/TOOLSNODRAW"
			"uaxis" "[1 0 0 0] 0.25"
			"vaxis" "[0 -1 0 0] 0.25"
			"rotation" "0"
			"lightmapscale" "16"
			"smoothing_groups" "0"
		}
		side
		{
			"id" "8"
			"plane" "(-640 -704 0) (0 -704 0) (0 -640 0)"
			"material" "TOOLS/TOOLSNODRAW"
			"uaxis" "[1 0 0 0] 0.25"
			"vaxis" "[0 -1 0 0] 0.25"
			"rotation" "0"
			"lightmapscale" "16"
			"smoothing_groups" "0"
		}
		side
		{
			"id" "9"
			"plane" "(-640 -640 128) (-640 -704 128) (-640 -704 0)"
			"material" "TOOLS/TOOLSNODRAW"
			"uaxis" "[0 1 0 0] 0.25"
			"vaxis" "[0 0 -1 0] 0.25"
			"rotation" "0"
			"lightmapscale" "16"
			"smoothing_groups" "0"
		}
		side
		{
			"id" "10"
			"plane" "(0 -640 0) (0 -704 0) (0 -704 128)"
			"material" "TOOLS/TOOLSNODRAW"
			"uaxis" "[0 1 0 0] 0.25"
			"vaxis" "[0 0 -1 0] 0.25"
			"rotation" "0"
			"lightmapscale" "16"
			"smoothing_groups" "0"
		}
		side
		{
			"id" "11"
			"plane" "(0 -640 128) (-640 -640 128) (-640 -640 0)"
			"material" "DEV/DEV_MEASUREGENERIC01"
			"uaxis" "[1 0 0 0] 0.25"
			"vaxis" "[0 0 -1 0] 0.25"
			"rotation" "0"
			"lightmapscale" "16"
			"smoothing_groups" "0"
		}
		side
		{
			"id" "12"
			"plane" "(0 -704 0) (-640 -704 0) (-640 -704 128)"
			"material" "TOOLS/TOOLSNODRAW"
			"uaxis" "[1 0 0 0] 0.25"
			"vaxis" "[0 0 -1 0] 0.25"
			"rotation" "0"
			"lightmapscale" "16"
			"smoothing_groups" "0"
		}
		editor
		{
			"color" "0 152 177"
			"visgroupshown" "1"
			"visgroupautoshown" "1"
		}
	}
	solid
	{
		"id" "17"
		side
		{
			"id" "13"
			"plane" "(0 128 128) (64 128 128) (64 -640 128)"
			"material" "TOOLS/TOOLSNODRAW"
			"uaxis" "[1 0 0 0] 0.25"
			"vaxis" "[0 -1 0 0] 0.25"
			"rotation" "0"
			"lightmapscale" "16"
			"smoothing_groups" "0"
		}
		side
		{
			"id" "14"
			"plane" "(0 -640 0) (64 -640 0) (64 128 0)"
			"material" "TOOLS/TOOLSNODRAW"
			"uaxis" "[1 0 0 0] 0.25"
			"vaxis" "[0 -1 0 0] 0.25"
			"rotation" "0"
			"lightmapscale" "16"
			"smoothing_groups" "0"
		}
		side
		{
			"id" "15"
			"plane" "(0 128 128) (0 -640 128) (0 -640 0)"
			"material" "DEV/DEV_MEASUREGENERIC01"
			"uaxis" "[0 1 0 0] 0.25"
			"vaxis" "[0 0 -1 0] 0.25"
			"rotation" "0"
			"lightmapscale" "16"
			"smoothing_groups" "0"
		}
		side
		{
			"id" "16"
			"plane" "(64 128 0) (64 -640 0) (64 -640 128)"
			"material" "TOOLS/TOOLSNODRAW"
			"uaxis" "[0 1 0 0] 0.25"
			"vaxis" "[0 0 -1 0] 0.25"
			"rotation" "0"
			"lightmapscale" "16"
			"smoothing_groups" "0"
		}
		side
		{
			"id" "17"
			"plane" "(64 128 128) (0 128 128) (0 128 0)"
			"material" "TOOLS/TOOLSNODRAW"
			"uaxis" "[1 0 0 0] 0.25"
			"vaxis" "[0 0 -1 0] 0.25"
			"rotation" "0"
			"lightmapscale" "16"
			"smoothing_groups" "0"
		}
		side
		{
			"id" "18"
			"plane" "(64 -640 0) (0 -640 0) (0 -640 128)"
			"material" "TOOLS/TOOLSNODRAW"
			"uaxis" "[1 0 0 0] 0.25"
			"vaxis" "[0 0 -1 0] 0.25"
			"rotation" "0"
			"lightmapscale" "16"
			"smoothing_groups" "0"
		}
		editor
		{
			"color" "0 126 199"
			"visgroupshown" "1"
			"visgroupautoshown" "1"
		}
	}
	solid
	{
		"id" "21"
		side
		{
			"id" "36"
			"plane" "(-640 -640 128) (-704 -640 128) (-704 128 128)"
			"material" "TOOLS/TOOLSNODRAW"
			"uaxis" "[-1 0 0 0] 0.25"
			"vaxis" "[0 1 0 0] 0.25"
			"rotation" "0"
			"lightmapscale" "16"
			"smoothing_groups" "0"
		}
		side
		{
			"id" "35"
			"plane" "(-640 128 0) (-704 128 0) (-704 -640 0)"
			"material" "TOOLS/TOOLSNODRAW"
			"uaxis" "[-1 0 0 0] 0.25"
			"vaxis" "[0 1 0 0] 0.25"
			"rotation" "0"
			"lightmapscale" "16"
			"smoothing_groups" "0"
		}
		side
		{
			"id" "34"
			"plane" "(-640 -640 128) (-640 128 128) (-640 128 0)"
			"material" "DEV/DEV_MEASUREGENERIC01"
			"uaxis" "[0 -1 0 0] 0.25"
			"vaxis" "[0 0 -1 0] 0.25"
			"rotation" "0"
			"lightmapscale" "16"
			"smoothing_groups" "0"
		}
		side
		{
			"id" "33"
			"plane" "(-704 -640 0) (-704 128 0) (-704 128 128)"
			"material" "TOOLS/TOOLSNODRAW"
			"uaxis" "[0 -1 0 0] 0.25"
			"vaxis" "[0 0 -1 0] 0.25"
			"rotation" "0"
			"lightmapscale" "16"
			"smoothing_groups" "0"
		}
		side
		{
			"id" "32"
			"plane" "(-704 -640 128) (-640 -640 128) (-640 -640 0)"
			"material" "TOOLS/TOOLSNODRAW"
			"uaxis" "[-1 0 0 0] 0.25"
			"vaxis" "[0 0 -1 0] 0.25"
			"rotation" "0"
			"lightmapscale" "16"
			"smoothing_groups" "0"
		}
		side
		{
			"id" "31"
			"plane" "(-704 128 0) (-640 128 0) (-640 128 128)"
			"material" "TOOLS/TOOLSNODRAW"
			"uaxis" "[-1 0 0 0] 0.25"
			"vaxis" "[0 0 -1 0] 0.25"
			"rotation" "0"
			"lightmapscale" "16"
			"smoothing_groups" "0"
		}
		editor
		{
			"color" "0 126 199"
			"visgroupshown" "1"
			"visgroupautoshown" "1"
		}
	}
	solid
	{
		"id" "22"
		side
		{
			"id" "42"
			"plane" "(0 128 128) (-640 128 128) (-640 192 128)"
			"material" "TOOLS/TOOLSNODRAW"
			"uaxis" "[-1 0 0 0] 0.25"
			"vaxis" "[0 1 0 0] 0.25"
			"rotation" "0"
			"lightmapscale" "16"
			"smoothing_groups" "0"
		}
		side
		{
			"id" "41"
			"plane" "(0 192 0) (-640 192 0) (-640 128 0)"
			"material" "TOOLS/TOOLSNODRAW"
			"uaxis" "[-1 0 0 0] 0.25"
			"vaxis" "[0 1 0 0] 0.25"
			"rotation" "0"
			"lightmapscale" "16"
			"smoothing_groups" "0"
		}
		side
		{
			"id" "40"
			"plane" "(0 128 128) (0 192 128) (0 192 0)"
			"material" "TOOLS/TOOLSNODRAW"
			"uaxis" "[0 -1 0 0] 0.25"
			"vaxis" "[0 0 -1 0] 0.25"
			"rotation" "0"
			"lightmapscale" "16"
			"smoothing_groups" "0"
		}
		side
		{
			"id" "39"
			"plane" "(-640 128 0) (-640 192 0) (-640 192 128)"
			"material" "TOOLS/TOOLSNODRAW"
			"uaxis" "[0 -1 0 0] 0.25"
			"vaxis" "[0 0 -1 0] 0.25"
			"rotation" "0"
			"lightmapscale" "16"
			"smoothing_groups" "0"
		}
		side
		{
			"id" "38"
			"plane" "(-640 128 128) (0 128 128) (0 128 0)"
			"material" "DEV/DEV_MEASUREGENERIC01"
			"uaxis" "[-1 0 0 0] 0.25"
			"vaxis" "[0 0 -1 0] 0.25"
			"rotation" "0"
			"lightmapscale" "16"
			"smoothing_groups" "0"
		}
		side
		{
			"id" "37"
			"plane" "(-640 192 0) (0 192 0) (0 192 128)"
			"material" "TOOLS/TOOLSNODRAW"
			"uaxis" "[-1 0 0 0] 0.25"
			"vaxis" "[0 0 -1 0] 0.25"
			"rotation" "0"
			"lightmapscale" "16"
			"smoothing_groups" "0"
		}
		editor
		{
			"color" "0 152 177"
			"visgroupshown" "1"
			"visgroupautoshown" "1"
		}
	}
	solid
	{
		"id" "29"
		side
		{
			"id" "247"
			"plane" "(-128 -256 208) (-128 -256 80) (-128 -264 80)"
			"material" "METAL/CITADEL_METALWALL101B"
			"uaxis" "[0 1 0 256] 1"
			"vaxis" "[0 0 -1 0] 1"
			"rotation" "0"
			"lightmapscale" "1"
			"smoothing_groups" "0"
		}
		side
		{
			"id" "246"
			"plane" "(-176 -264 208) (-176 -264 80) (-176 -256 80)"
			"material" "METAL/CITADEL_METALWALL101B"
			"uaxis" "[0 1 0 256] 1"
			"vaxis" "[0 0 -1 0] 1"
			"rotation" "0"
			"lightmapscale" "1"
			"smoothing_groups" "0"
		}
		side
		{
			"id" "245"
			"plane" "(-128 -264 208) (-128 -264 80) (-176 -264 80)"
			"material" "METAL/CITADEL_METALWALL101B"
			"uaxis" "[1 0 0 256] 1"
			"vaxis" "[0 0 -1 0] 1"
			"rotation" "0"
			"lightmapscale" "1"
			"smoothing_groups" "0"
		}
		side
		{
			"id" "244"
			"plane" "(-176 -256 208) (-176 -256 80) (-128 -256 80)"
			"material" "METAL/CITADEL_METALWALL101B"
			"uaxis" "[1 0 0 64] 1"
			"vaxis" "[0 0 -1 0] 1"
			"rotation" "0"
			"lightmapscale" "1"
			"smoothing_groups" "0"
		}
		side
		{
			"id" "243"
			"plane" "(-176 -264 208) (-176 -256 208) (-128 -256 208)"
			"material" "METAL/CITADEL_METALWALL101B"
			"uaxis" "[1 0 0 64] 1"
			"vaxis" "[0 -1 0 -256] 1"
			"rotation" "0"
			"lightmapscale" "1"
			"smoothing_groups" "0"
		}
		side
		{
			"id" "242"
			"plane" "(-176 -256 80) (-176 -264 80) (-128 -264 80)"
			"material" "METAL/CITADEL_METALWALL101B"
			"uaxis" "[1 0 0 64] 1"
			"vaxis" "[0 -1 0 -256] 1"
			"rotation" "0"
			"lightmapscale" "1"
			"smoothing_groups" "0"
		}
		editor
		{
			"color" "130 177 203"
			"visgroupshown" "1"
			"visgroupautoshown" "1"
		}
	}
	solid
	{
		"id" "30"
		side
		{
			"id" "253"
			"plane" "(-160 -272 168) (-160 -264 168) (-160 -264 176)"
			"material" "METAL/CITADEL_METALWALL101B"
			"uaxis" "[0 1 0 -64] 1"
			"vaxis" "[0 0 -1 0] 1"
			"rotation" "0"
			"lightmapscale" "1"
			"smoothing_groups" "0"
		}
		side
		{
			"id" "252"
			"plane" "(-128 -264 176) (-128 -264 168) (-128 -280 168)"
			"material" "METAL/CITADEL_METALWALL101B"
			"uaxis" "[0 1 0 256] 1"
			"vaxis" "[0 0 -1 0] 1"
			"rotation" "0"
			"lightmapscale" "1"
			"smoothing_groups" "0"
		}
		side
		{
			"id" "251"
			"plane" "(-160 -264 176) (-160 -264 168) (-128 -264 168)"
			"material" "METAL/CITADEL_METALWALL101B"
			"uaxis" "[1 0 0 64] 1"
			"vaxis" "[0 0 -1 0] 1"
			"rotation" "0"
			"lightmapscale" "1"
			"smoothing_groups" "0"
		}
		side
		{
			"id" "250"
			"plane" "(-160 -272 176) (-160 -264 176) (-128 -264 176)"
			"material" "METAL/CITADEL_METALWALL101B"
			"uaxis" "[1 0 0 256] 1"
			"vaxis" "[0 -1 0 -256] 1"
			"rotation" "0"
			"lightmapscale" "1"
			"smoothing_groups" "0"
		}
		side
		{
			"id" "249"
			"plane" "(-160 -264 168) (-160 -272 168) (-128 -280 168)"
			"material" "METAL/CITADEL_METALWALL101B"
			"uaxis" "[1 0 0 256] 1"
			"vaxis" "[0 -1 0 -256] 1"
			"rotation" "0"
			"lightmapscale" "1"
			"smoothing_groups" "0"
		}
		side
		{
			"id" "248"
			"plane" "(-128 -280 176) (-128 -280 168) (-160 -272 168)"
			"material" "METAL/CITADEL_METALWALL101B"
			"uaxis" "[1 0 0 256] 1"
			"vaxis" "[0 0 -1 0] 1"
			"rotation" "0"
			"lightmapscale" "1"
			"smoothing_groups" "0"
		}
		editor
		{
			"color" "1 198 102"
			"visgroupshown" "1"
			"visgroupautoshown" "1"
		}
	}
	solid
	{
		"id" "31"
		side
		{
			"id" "259"
			"plane" "(-160 -272 152) (-160 -264 152) (-160 -264 160)"
			"material" "METAL/CITADEL_METALWALL101B"
			"uaxis" "[0 1 0 -64] 1"
			"vaxis" "[0 0 -1 0] 1"
			"rotation" "0"
			"lightmapscale" "1"
			"smoothing_groups" "0"
		}
		side
		{
			"id" "258"
			"plane" "(-128 -264 160) (-128 -264 152) (-128 -280 152)"
			"material" "METAL/CITADEL_METALWALL101B"
			"uaxis" "[0 1 0 256] 1"
			"vaxis" "[0 0 -1 0] 1"
			"rotation" "0"
			"lightmapscale" "1"
			"smoothing_groups" "0"
		}
		side
		{
			"id" "257"
			"plane" "(-160 -264 160) (-160 -264 152) (-128 -264 152)"
			"material" "METAL/CITADEL_METALWALL101B"
			"uaxis" "[1 0 0 64] 1"
			"vaxis" "[0 0 -1 0] 1"
			"rotation" "0"
			"lightmapscale" "1"
			"smoothing_groups" "0"
		}
		side
		{
			"id" "256"
			"plane" "(-160 -272 160) (-160 -264 160) (-128 -264 160)"
			"material" "METAL/CITADEL_METALWALL101B"
			"uaxis" "[1 0 0 256] 1"
			"vaxis" "[0 -1 0 -256] 1"
			"rotation" "0"
			"lightmapscale" "1"
			"smoothing_groups" "0"
		}
		side
		{
			"id" "255"
			"plane" "(-160 -264 152) (-160 -272 152) (-128 -280 152)"
			"material" "METAL/CITADEL_METALWALL101B"
			"uaxis" "[1 0 0 256] 1"
			"vaxis" "[0 -1 0 -256] 1"
			"rotation" "0"
			"lightmapscale" "1"
			"smoothing_groups" "0"
		}
		side
		{
			"id" "254"
			"plane" "(-128 -280 160) (-128 -280 152) (-160 -272 152)"
			"material" "METAL/CITADEL_METALWALL101B"
			"uaxis" "[1 0 0 256] 1"
			"vaxis" "[0 0 -1 0] 1"
			"rotation" "0"
			"lightmapscale" "1"
			"smoothing_groups" "0"
		}
		editor
		{
			"color" "12 96 195"
			"visgroupshown" "1"
			"visgroupautoshown" "1"
		}
	}
	solid
	{
		"id" "32"
		side
		{
			"id" "265"
			"plane" "(-128 -256 256) (-128 -256 208) (-128 -264 208)"
			"material" "METAL/CITADEL_METALWALL101B"
			"uaxis" "[0 1 0 256] 1"
			"vaxis" "[0 0 -1 0] 1"
			"rotation" "0"
			"lightmapscale" "1"
			"smoothing_groups" "0"
		}
		side
		{
			"id" "264"
			"plane" "(-176 -256 208) (-128 -256 208) (-128 -256 256)"
			"material" "METAL/CITADEL_METALWALL101B"
			"uaxis" "[1 0 0 64] 1"
			"vaxis" "[0 0 -1 0] 1"
			"rotation" "0"
			"lightmapscale" "1"
			"smoothing_groups" "0"
		}
		side
		{
			"id" "263"
			"plane" "(-128 -264 256) (-128 -264 208) (-176 -264 208)"
			"material" "METAL/CITADEL_METALWALL101B"
			"uaxis" "[1 0 0 256] 1"
			"vaxis" "[0 0 -1 0] 1"
			"rotation" "0"
			"lightmapscale" "1"
			"smoothing_groups" "0"
		}
		side
		{
			"id" "262"
			"plane" "(-144 -256 256) (-128 -256 256) (-128 -264 256)"
			"material" "METAL/CITADEL_METALWALL101B"
			"uaxis" "[1 0 0 64] 1"
			"vaxis" "[0 -1 0 -256] 1"
			"rotation" "0"
			"lightmapscale" "1"
			"smoothing_groups" "0"
		}
		side
		{
			"id" "261"
			"plane" "(-176 -264 208) (-128 -264 208) (-128 -256 208)"
			"material" "METAL/CITADEL_METALWALL101B"
			"uaxis" "[1 0 0 64] 1"
			"vaxis" "[0 -1 0 -256] 1"
			"rotation" "0"
			"lightmapscale" "1"
			"smoothing_groups" "0"
		}
		side
		{
			"id" "260"
			"plane" "(-176 -256 208) (-144 -256 256) (-144 -264 256)"
			"material" "METAL/CITADEL_METALWALL101B"
			"uaxis" "[0 1 0 256] 1"
			"vaxis" "[0 0 -1 0] 1"
			"rotation" "0"
			"lightmapscale" "1"
			"smoothing_groups" "0"
		}
		editor
		{
			"color" "245 101 8"
			"visgroupshown" "1"
			"visgroupautoshown" "1"
		}
	}
	solid
	{
		"id" "34"
		side
		{
			"id" "277"
			"plane" "(-152 -248 384) (-152 -248 256) (-152 -200 256)"
			"material" "METAL/CITADEL_METALWALL101B"
			"uaxis" "[0 1 0 256] 1"
			"vaxis" "[0 0 -1 0] 1"
			"rotation" "0"
			"lightmapscale" "1"
			"smoothing_groups" "0"
		}
		side
		{
			"id" "276"
			"plane" "(-128 -200 384) (-128 -200 256) (-128 -248 256)"
			"material" "METAL/CITADEL_METALWALL101B"
			"uaxis" "[0 1 0 256] 1"
			"vaxis" "[0 0 -1 0] 1"
			"rotation" "0"
			"lightmapscale" "1"
			"smoothing_groups" "0"
		}
		side
		{
			"id" "275"
			"plane" "(-152 -200 384) (-152 -200 256) (-128 -200 256)"
			"material" "METAL/CITADEL_METALWALL101B"
			"uaxis" "[1 0 0 256] 1"
			"vaxis" "[0 0 -1 0] 1"
			"rotation" "0"
			"lightmapscale" "1"
			"smoothing_groups" "0"
		}
		side
		{
			"id" "274"
			"plane" "(-128 -248 384) (-128 -248 256) (-152 -248 256)"
			"material" "METAL/CITADEL_METALWALL101B"
			"uaxis" "[1 0 0 256] 1"
			"vaxis" "[0 0 -1 0] 1"
			"rotation" "0"
			"lightmapscale" "1"
			"smoothing_groups" "0"
		}
		side
		{
			"id" "273"
			"plane" "(-152 -248 384) (-152 -200 384) (-128 -200 384)"
			"material" "METAL/CITADEL_METALWALL101B"
			"uaxis" "[1 0 0 64] 1"
			"vaxis" "[0 -1 0 -256] 1"
			"rotation" "0"
			"lightmapscale" "1"
			"smoothing_groups" "0"
		}
		side
		{
			"id" "272"
			"plane" "(-152 -200 256) (-152 -248 256) (-128 -248 256)"
			"material" "METAL/CITADEL_METALWALL101B"
			"uaxis" "[1 0 0 64] 1"
			"vaxis" "[0 -1 0 -256] 1"
			"rotation" "0"
			"lightmapscale" "1"
			"smoothing_groups" "0"
		}
		editor
		{
			"color" "143 143 183"
			"visgroupshown" "1"
			"visgroupautoshown" "1"
		}
	}
	solid
	{
		"id" "35"
		side
		{
			"id" "283"
			"plane" "(-64 -200 448) (-64 -200 384) (-64 -248 384)"
			"material" "METAL/CITADEL_METALWALL101B"
			"uaxis" "[0 1 0 256] 1"
			"vaxis" "[0 0 -1 0] 1"
			"rotation" "0"
			"lightmapscale" "1"
			"smoothing_groups" "0"
		}
		side
		{
			"id" "282"
			"plane" "(-64 -248 448) (-64 -248 384) (-152 -248 384)"
			"material" "METAL/CITADEL_METALWALL101B"
			"uaxis" "[1 0 0 256] 1"
			"vaxis" "[0 0 -1 0] 1"
			"rotation" "0"
			"lightmapscale" "1"
			"smoothing_groups" "0"
		}
		side
		{
			"id" "281"
			"plane" "(-152 -200 384) (-64 -200 384) (-64 -200 448)"
			"material" "METAL/CITADEL_METALWALL101B"
			"uaxis" "[1 0 0 256] 1"
			"vaxis" "[0 0 -1 0] 1"
			"rotation" "0"
			"lightmapscale" "1"
			"smoothing_groups" "0"
		}
		side
		{
			"id" "280"
			"plane" "(-152 -248 384) (-64 -248 384) (-64 -200 384)"
			"material" "METAL/CITADEL_METALWALL101B"
			"uaxis" "[1 0 0 64] 1"
			"vaxis" "[0 -1 0 -256] 1"
			"rotation" "0"
			"lightmapscale" "1"
			"smoothing_groups" "0"
		}
		side
		{
			"id" "279"
			"plane" "(-88 -200 448) (-64 -200 448) (-64 -248 448)"
			"material" "METAL/CITADEL_METALWALL101B"
			"uaxis" "[1 0 0 64] 1"
			"vaxis" "[0 -1 0 -256] 1"
			"rotation" "0"
			"lightmapscale" "1"
			"smoothing_groups" "0"
		}
		side
		{
			"id" "278"
			"plane" "(-152 -200 384) (-88 -200 448) (-88 -248 448)"
			"material" "METAL/CITADEL_METALWALL101B"
			"uaxis" "[0 -1 0 -64] 1"
			"vaxis" "[-0.707107 0 -0.707107 -407.294] 1"
			"rotation" "0"
			"lightmapscale" "1"
			"smoothing_groups" "0"
		}
		editor
		{
			"color" "225 105 121"
			"visgroupshown" "1"
			"visgroupautoshown" "1"
		}
	}
	solid
	{
		"id" "38"
		side
		{
			"id" "301"
			"plane" "(-128 -256 80) (-128 -256 0) (-128 -264 0)"
			"material" "METAL/CITADEL_METALWALL101B"
			"uaxis" "[0 1 0 256] 1"
			"vaxis" "[0 0 -1 0] 1"
			"rotation" "0"
			"lightmapscale" "1"
			"smoothing_groups" "0"
		}
		side
		{
			"id" "300"
			"plane" "(-160 -256 0) (-128 -256 0) (-128 -256 80)"
			"material" "METAL/CITADEL_METALWALL101B"
			"uaxis" "[1 0 0 64] 1"
			"vaxis" "[0 0 -1 0] 1"
			"rotation" "0"
			"lightmapscale" "1"
			"smoothing_groups" "0"
		}
		side
		{
			"id" "299"
			"plane" "(-128 -264 80) (-128 -264 0) (-160 -264 0)"
			"material" "METAL/CITADEL_METALWALL101B"
			"uaxis" "[1 0 0 256] 1"
			"vaxis" "[0 0 -1 0] 1"
			"rotation" "0"
			"lightmapscale" "1"
			"smoothing_groups" "0"
		}
		side
		{
			"id" "298"
			"plane" "(-160 -264 0) (-128 -264 0) (-128 -256 0)"
			"material" "METAL/CITADEL_METALWALL101B"
			"uaxis" "[1 0 0 64] 1"
			"vaxis" "[0 -1 0 -256] 1"
			"rotation" "0"
			"lightmapscale" "1"
			"smoothing_groups" "0"
		}
		side
		{
			"id" "297"
			"plane" "(-176 -256 80) (-128 -256 80) (-128 -264 80)"
			"material" "METAL/CITADEL_METALWALL101B"
			"uaxis" "[1 0 0 64] 1"
			"vaxis" "[0 -1 0 -256] 1"
			"rotation" "0"
			"lightmapscale" "1"
			"smoothing_groups" "0"
		}
		side
		{
			"id" "296"
			"plane" "(-176 -264 80) (-160 -264 0) (-160 -256 0)"
			"material" "METAL/CITADEL_METALWALL101B"
			"uaxis" "[0 1 0 256] 1"
			"vaxis" "[0 0 -1 0] 1"
			"rotation" "0"
			"lightmapscale" "1"
			"smoothing_groups" "0"
		}
		editor
		{
			"color" "84 76 253"
			"visgroupshown" "1"
			"visgroupautoshown" "1"
		}
	}
	solid
	{
		"id" "59"
		side
		{
			"id" "404"
			"plane" "(-512 -248 384) (-512 -248 272) (-512 -200 272)"
			"material" "METAL/CITADEL_METALWALL101B"
			"uaxis" "[0 1 0 248] 1"
			"vaxis" "[0 0 -1 0] 1"
			"rotation" "0"
			"lightmapscale" "1"
			"smoothing_groups" "0"
		}
		side
		{
			"id" "403"
			"plane" "(-496 -200 384) (-496 -200 264) (-496 -248 264)"
			"material" "METAL/CITADEL_METALWALL101B"
			"uaxis" "[0 1 0 -64] 1"
			"vaxis" "[0 0 -1 0] 1"
			"rotation" "0"
			"lightmapscale" "1"
			"smoothing_groups" "0"
		}
		side
		{
			"id" "402"
			"plane" "(-512 -200 384) (-512 -200 272) (-496 -200 264)"
			"material" "METAL/CITADEL_METALWALL101B"
			"uaxis" "[1 0 0 256] 1"
			"vaxis" "[0 0 -1 0] 1"
			"rotation" "0"
			"lightmapscale" "1"
			"smoothing_groups" "0"
		}
		side
		{
			"id" "401"
			"plane" "(-496 -248 384) (-496 -248 264) (-512 -248 272)"
			"material" "METAL/CITADEL_METALWALL101B"
			"uaxis" "[1 0 0 256] 1"
			"vaxis" "[0 0 -1 0] 1"
			"rotation" "0"
			"lightmapscale" "1"
			"smoothing_groups" "0"
		}
		side
		{
			"id" "400"
			"plane" "(-512 -248 384) (-512 -200 384) (-496 -200 384)"
			"material" "METAL/CITADEL_METALWALL101B"
			"uaxis" "[1 0 0 64] 1"
			"vaxis" "[0 -1 0 -248] 1"
			"rotation" "0"
			"lightmapscale" "1"
			"smoothing_groups" "0"
		}
		side
		{
			"id" "399"
			"plane" "(-512 -200 272) (-512 -248 272) (-496 -248 264)"
			"material" "METAL/CITADEL_METALWALL101B"
			"uaxis" "[1 0 0 64] 1"
			"vaxis" "[0 -1 0 -248] 1"
			"rotation" "0"
			"lightmapscale" "1"
			"smoothing_groups" "0"
		}
		editor
		{
			"color" "197 75 71"
			"visgroupshown" "1"
			"visgroupautoshown" "1"
		}
	}
	solid
	{
		"id" "217"
		side
		{
			"id" "452"
			"plane" "(-640 -512 0) (1.52588e-005 -512 0) (1.52588e-005 -640 0)"
			"material" "DEV/DEV_MEASUREGENERIC01B"
			"uaxis" "[1 0 0 0] 0.25"
			"vaxis" "[0 -1 0 0] 0.25"
			"rotation" "0"
			"lightmapscale" "16"
			"smoothing_groups" "0"
		}
		side
		{
			"id" "451"
			"plane" "(-640 -640 -64) (1.52588e-005 -640 -64) (1.52588e-005 -512 -64)"
			"material" "TOOLS/TOOLSNODRAW"
			"uaxis" "[1 0 0 0] 0.25"
			"vaxis" "[0 -1 0 0] 0.25"
			"rotation" "0"
			"lightmapscale" "16"
			"smoothing_groups" "0"
		}
		side
		{
			"id" "450"
			"plane" "(-640 -512 0) (-640 -640 0) (-640 -640 -64)"
			"material" "TOOLS/TOOLSNODRAW"
			"uaxis" "[0 1 0 0] 0.25"
			"vaxis" "[0 0 -1 0] 0.25"
			"rotation" "0"
			"lightmapscale" "16"
			"smoothing_groups" "0"
		}
		side
		{
			"id" "449"
			"plane" "(1.52588e-005 -512 -64) (1.52588e-005 -640 -64) (1.52588e-005 -640 0)"
			"material" "TOOLS/TOOLSNODRAW"
			"uaxis" "[0 1 0 0] 0.25"
			"vaxis" "[0 0 -1 0] 0.25"
			"rotation" "0"
			"lightmapscale" "16"
			"smoothing_groups" "0"
		}
		side
		{
			"id" "448"
			"plane" "(1.52588e-005 -512 0) (-640 -512 0) (-640 -512 -64)"
			"material" "TOOLS/TOOLSNODRAW"
			"uaxis" "[1 0 0 0] 0.25"
			"vaxis" "[0 0 -1 0] 0.25"
			"rotation" "0"
			"lightmapscale" "16"
			"smoothing_groups" "0"
		}
		side
		{
			"id" "447"
			"plane" "(1.52588e-005 -640 -64) (-640 -640 -64) (-640 -640 0)"
			"material" "TOOLS/TOOLSNODRAW"
			"uaxis" "[1 0 0 0] 0.25"
			"vaxis" "[0 0 -1 0] 0.25"
			"rotation" "0"
			"lightmapscale" "16"
			"smoothing_groups" "0"
		}
		editor
		{
			"color" "0 255 112"
			"visgroupshown" "1"
			"visgroupautoshown" "1"
		}
	}
	solid
	{
		"id" "225"
		side
		{
			"id" "464"
			"plane" "(-640 128 0) (1.52588e-005 128 0) (1.52588e-005 0 0)"
			"material" "DEV/DEV_MEASUREGENERIC01B"
			"uaxis" "[1 0 0 0] 0.25"
			"vaxis" "[0 -1 0 0] 0.25"
			"rotation" "0"
			"lightmapscale" "16"
			"smoothing_groups" "0"
		}
		side
		{
			"id" "463"
			"plane" "(-640 0 -64) (1.52588e-005 0 -64) (1.52588e-005 128 -64)"
			"material" "TOOLS/TOOLSNODRAW"
			"uaxis" "[1 0 0 0] 0.25"
			"vaxis" "[0 -1 0 0] 0.25"
			"rotation" "0"
			"lightmapscale" "16"
			"smoothing_groups" "0"
		}
		side
		{
			"id" "462"
			"plane" "(-640 128 0) (-640 0 0) (-640 0 -64)"
			"material" "TOOLS/TOOLSNODRAW"
			"uaxis" "[0 1 0 0] 0.25"
			"vaxis" "[0 0 -1 0] 0.25"
			"rotation" "0"
			"lightmapscale" "16"
			"smoothing_groups" "0"
		}
		side
		{
			"id" "461"
			"plane" "(1.52588e-005 128 -64) (1.52588e-005 0 -64) (1.52588e-005 0 0)"
			"material" "TOOLS/TOOLSNODRAW"
			"uaxis" "[0 1 0 0] 0.25"
			"vaxis" "[0 0 -1 0] 0.25"
			"rotation" "0"
			"lightmapscale" "16"
			"smoothing_groups" "0"
		}
		side
		{
			"id" "460"
			"plane" "(1.52588e-005 128 0) (-640 128 0) (-640 128 -64)"
			"material" "TOOLS/TOOLSNODRAW"
			"uaxis" "[1 0 0 0] 0.25"
			"vaxis" "[0 0 -1 0] 0.25"
			"rotation" "0"
			"lightmapscale" "16"
			"smoothing_groups" "0"
		}
		side
		{
			"id" "459"
			"plane" "(1.52588e-005 0 -64) (-640 0 -64) (-640 0 0)"
			"material" "TOOLS/TOOLSNODRAW"
			"uaxis" "[1 0 0 0] 0.25"
			"vaxis" "[0 0 -1 0] 0.25"
			"rotation" "0"
			"lightmapscale" "16"
			"smoothing_groups" "0"
		}
		editor
		{
			"color" "0 255 112"
			"visgroupshown" "1"
			"visgroupautoshown" "1"
		}
	}
	solid
	{
		"id" "242"
		side
		{
			"id" "512"
			"plane" "(-640 -704 128) (0 -704 128) (0 -640 128)"
			"material" "TOOLS/TOOLSSKYBOX"
			"uaxis" "[1 0 0 0] 0.25"
			"vaxis" "[0 -1 0 0] 0.25"
			"rotation" "0"
			"lightmapscale" "16"
			"smoothing_groups" "0"
		}
		side
		{
			"id" "511"
			"plane" "(-640 -640 512) (0 -640 512) (0 -704 512)"
			"material" "TOOLS/TOOLSSKYBOX"
			"uaxis" "[1 0 0 0] 0.25"
			"vaxis" "[0 -1 0 0] 0.25"
			"rotation" "0"
			"lightmapscale" "16"
			"smoothing_groups" "0"
		}
		side
		{
			"id" "510"
			"plane" "(-640 -640 512) (-640 -704 512) (-640 -704 128)"
			"material" "TOOLS/TOOLSSKYBOX"
			"uaxis" "[0 1 0 0] 0.25"
			"vaxis" "[0 0 1 0] 0.25"
			"rotation" "0"
			"lightmapscale" "16"
			"smoothing_groups" "0"
		}
		side
		{
			"id" "509"
			"plane" "(0 -640 128) (0 -704 128) (0 -704 512)"
			"material" "TOOLS/TOOLSSKYBOX"
			"uaxis" "[0 1 0 0] 0.25"
			"vaxis" "[0 0 1 0] 0.25"
			"rotation" "0"
			"lightmapscale" "16"
			"smoothing_groups" "0"
		}
		side
		{
			"id" "508"
			"plane" "(0 -640 512) (-640 -640 512) (-640 -640 128)"
			"material" "TOOLS/TOOLSSKYBOX"
			"uaxis" "[1 0 0 0] 0.25"
			"vaxis" "[0 0 1 0] 0.25"
			"rotation" "0"
			"lightmapscale" "16"
			"smoothing_groups" "0"
		}
		side
		{
			"id" "507"
			"plane" "(0 -704 128) (-640 -704 128) (-640 -704 512)"
			"material" "TOOLS/TOOLSSKYBOX"
			"uaxis" "[1 0 0 0] 0.25"
			"vaxis" "[0 0 1 0] 0.25"
			"rotation" "0"
			"lightmapscale" "16"
			"smoothing_groups" "0"
		}
		editor
		{
			"color" "0 152 177"
			"visgroupshown" "1"
			"visgroupautoshown" "1"
		}
	}
	solid
	{
		"id" "243"
		side
		{
			"id" "518"
			"plane" "(0 -640 128) (64 -640 128) (64 128 128)"
			"material" "TOOLS/TOOLSSKYBOX"
			"uaxis" "[1 0 0 0] 0.25"
			"vaxis" "[0 -1 0 0] 0.25"
			"rotation" "0"
			"lightmapscale" "16"
			"smoothing_groups" "0"
		}
		side
		{
			"id" "517"
			"plane" "(0 128 512) (64 128 512) (64 -640 512)"
			"material" "TOOLS/TOOLSSKYBOX"
			"uaxis" "[1 0 0 0] 0.25"
			"vaxis" "[0 -1 0 0] 0.25"
			"rotation" "0"
			"lightmapscale" "16"
			"smoothing_groups" "0"
		}
		side
		{
			"id" "516"
			"plane" "(0 128 512) (0 -640 512) (0 -640 128)"
			"material" "TOOLS/TOOLSSKYBOX"
			"uaxis" "[0 1 0 0] 0.25"
			"vaxis" "[0 0 1 0] 0.25"
			"rotation" "0"
			"lightmapscale" "16"
			"smoothing_groups" "0"
		}
		side
		{
			"id" "515"
			"plane" "(64 128 128) (64 -640 128) (64 -640 512)"
			"material" "TOOLS/TOOLSSKYBOX"
			"uaxis" "[0 1 0 0] 0.25"
			"vaxis" "[0 0 1 0] 0.25"
			"rotation" "0"
			"lightmapscale" "16"
			"smoothing_groups" "0"
		}
		side
		{
			"id" "514"
			"plane" "(64 128 512) (0 128 512) (0 128 128)"
			"material" "TOOLS/TOOLSSKYBOX"
			"uaxis" "[1 0 0 0] 0.25"
			"vaxis" "[0 0 1 0] 0.25"
			"rotation" "0"
			"lightmapscale" "16"
			"smoothing_groups" "0"
		}
		side
		{
			"id" "513"
			"plane" "(64 -640 128) (0 -640 128) (0 -640 512)"
			"material" "TOOLS/TOOLSSKYBOX"
			"uaxis" "[1 0 0 0] 0.25"
			"vaxis" "[0 0 1 0] 0.25"
			"rotation" "0"
			"lightmapscale" "16"
			"smoothing_groups" "0"
		}
		editor
		{
			"color" "0 126 199"
			"visgroupshown" "1"
			"visgroupautoshown" "1"
		}
	}
	solid
	{
		"id" "244"
		side
		{
			"id" "524"
			"plane" "(-640 128 128) (-704 128 128) (-704 -640 128)"
			"material" "TOOLS/TOOLSSKYBOX"
			"uaxis" "[-1 0 0 0] 0.25"
			"vaxis" "[0 1 0 0] 0.25"
			"rotation" "0"
			"lightmapscale" "16"
			"smoothing_groups" "0"
		}
		side
		{
			"id" "523"
			"plane" "(-640 -640 512) (-704 -640 512) (-704 128 512)"
			"material" "TOOLS/TOOLSSKYBOX"
			"uaxis" "[-1 0 0 0] 0.25"
			"vaxis" "[0 1 0 0] 0.25"
			"rotation" "0"
			"lightmapscale" "16"
			"smoothing_groups" "0"
		}
		side
		{
			"id" "522"
			"plane" "(-640 -640 512) (-640 128 512) (-640 128 128)"
			"material" "TOOLS/TOOLSSKYBOX"
			"uaxis" "[0 -1 0 0] 0.25"
			"vaxis" "[0 0 1 0] 0.25"
			"rotation" "0"
			"lightmapscale" "16"
			"smoothing_groups" "0"
		}
		side
		{
			"id" "521"
			"plane" "(-704 -640 128) (-704 128 128) (-704 128 512)"
			"material" "TOOLS/TOOLSSKYBOX"
			"uaxis" "[0 -1 0 0] 0.25"
			"vaxis" "[0 0 1 0] 0.25"
			"rotation" "0"
			"lightmapscale" "16"
			"smoothing_groups" "0"
		}
		side
		{
			"id" "520"
			"plane" "(-704 -640 512) (-640 -640 512) (-640 -640 128)"
			"material" "TOOLS/TOOLSSKYBOX"
			"uaxis" "[-1 0 0 0] 0.25"
			"vaxis" "[0 0 1 0] 0.25"
			"rotation" "0"
			"lightmapscale" "16"
			"smoothing_groups" "0"
		}
		side
		{
			"id" "519"
			"plane" "(-704 128 128) (-640 128 128) (-640 128 512)"
			"material" "TOOLS/TOOLSSKYBOX"
			"uaxis" "[-1 0 0 0] 0.25"
			"vaxis" "[0 0 1 0] 0.25"
			"rotation" "0"
			"lightmapscale" "16"
			"smoothing_groups" "0"
		}
		editor
		{
			"color" "0 126 199"
			"visgroupshown" "1"
			"visgroupautoshown" "1"
		}
	}
	solid
	{
		"id" "245"
		side
		{
			"id" "530"
			"plane" "(0 192 128) (-640 192 128) (-640 128 128)"
			"material" "TOOLS/TOOLSSKYBOX"
			"uaxis" "[-1 0 0 0] 0.25"
			"vaxis" "[0 1 0 0] 0.25"
			"rotation" "0"
			"lightmapscale" "16"
			"smoothing_groups" "0"
		}
		side
		{
			"id" "529"
			"plane" "(0 128 512) (-640 128 512) (-640 192 512)"
			"material" "TOOLS/TOOLSSKYBOX"
			"uaxis" "[-1 0 0 0] 0.25"
			"vaxis" "[0 1 0 0] 0.25"
			"rotation" "0"
			"lightmapscale" "16"
			"smoothing_groups" "0"
		}
		side
		{
			"id" "528"
			"plane" "(0 128 512) (0 192 512) (0 192 128)"
			"material" "TOOLS/TOOLSSKYBOX"
			"uaxis" "[0 -1 0 0] 0.25"
			"vaxis" "[0 0 1 0] 0.25"
			"rotation" "0"
			"lightmapscale" "16"
			"smoothing_groups" "0"
		}
		side
		{
			"id" "527"
			"plane" "(-640 128 128) (-640 192 128) (-640 192 512)"
			"material" "TOOLS/TOOLSSKYBOX"
			"uaxis" "[0 -1 0 0] 0.25"
			"vaxis" "[0 0 1 0] 0.25"
			"rotation" "0"
			"lightmapscale" "16"
			"smoothing_groups" "0"
		}
		side
		{
			"id" "526"
			"plane" "(-640 128 512) (0 128 512) (0 128 128)"
			"material" "TOOLS/TOOLSSKYBOX"
			"uaxis" "[-1 0 0 0] 0.25"
			"vaxis" "[0 0 1 0] 0.25"
			"rotation" "0"
			"lightmapscale" "16"
			"smoothing_groups" "0"
		}
		side
		{
			"id" "525"
			"plane" "(-640 192 128) (0 192 128) (0 192 512)"
			"material" "TOOLS/TOOLSSKYBOX"
			"uaxis" "[-1 0 0 0] 0.25"
			"vaxis" "[0 0 1 0] 0.25"
			"rotation" "0"
			"lightmapscale" "16"
			"smoothing_groups" "0"
		}
		editor
		{
			"color" "0 152 177"
			"visgroupshown" "1"
			"visgroupautoshown" "1"
		}
	}
	solid
	{
		"id" "247"
		side
		{
			"id" "542"
			"plane" "(-640 -640 512) (1.52588e-005 -640 512) (1.52588e-005 128 512)"
			"material" "TOOLS/TOOLSSKYBOX"
			"uaxis" "[1 0 0 0] 0.25"
			"vaxis" "[0 -1 0 0] 0.25"
			"rotation" "0"
			"lightmapscale" "1"
			"smoothing_groups" "0"
		}
		side
		{
			"id" "541"
			"plane" "(-640 128 576) (1.52588e-005 128 576) (1.52588e-005 -640 576)"
			"material" "TOOLS/TOOLSSKYBOX"
			"uaxis" "[1 0 0 0] 0.25"
			"vaxis" "[0 -1 0 0] 0.25"
			"rotation" "0"
			"lightmapscale" "1"
			"smoothing_groups" "0"
		}
		side
		{
			"id" "540"
			"plane" "(-640 128 576) (-640 -640 576) (-640 -640 512)"
			"material" "TOOLS/TOOLSSKYBOX"
			"uaxis" "[0 1 0 0] 0.25"
			"vaxis" "[0 0 1 0] 0.25"
			"rotation" "0"
			"lightmapscale" "1"
			"smoothing_groups" "0"
		}
		side
		{
			"id" "539"
			"plane" "(1.52588e-005 128 512) (1.52588e-005 -640 512) (1.52588e-005 -640 576)"
			"material" "TOOLS/TOOLSSKYBOX"
			"uaxis" "[0 1 0 0] 0.25"
			"vaxis" "[0 0 1 0] 0.25"
			"rotation" "0"
			"lightmapscale" "1"
			"smoothing_groups" "0"
		}
		side
		{
			"id" "538"
			"plane" "(1.52588e-005 128 576) (-640 128 576) (-640 128 512)"
			"material" "TOOLS/TOOLSSKYBOX"
			"uaxis" "[1 0 0 0] 0.25"
			"vaxis" "[0 0 1 0] 0.25"
			"rotation" "0"
			"lightmapscale" "1"
			"smoothing_groups" "0"
		}
		side
		{
			"id" "537"
			"plane" "(1.52588e-005 -640 512) (-640 -640 512) (-640 -640 576)"
			"material" "TOOLS/TOOLSSKYBOX"
			"uaxis" "[1 0 0 0] 0.25"
			"vaxis" "[0 0 1 0] 0.25"
			"rotation" "0"
			"lightmapscale" "1"
			"smoothing_groups" "0"
		}
		editor
		{
			"color" "0 255 112"
			"visgroupshown" "1"
			"visgroupautoshown" "1"
		}
	}
	solid
	{
		"id" "326"
		side
		{
			"id" "746"
			"plane" "(-128 -252 0) (-128 -256 0) (-128 -256 80)"
			"material" "METAL/CITADEL_METALWALL101B"
			"uaxis" "[0 1 0 256] 1"
			"vaxis" "[0 0 -1 0] 1"
			"rotation" "0"
			"lightmapscale" "1"
			"smoothing_groups" "0"
		}
		side
		{
			"id" "745"
			"plane" "(-128 -256 80) (-128 -256 0) (-208 -256 0)"
			"material" "METAL/CITADEL_METALWALL101B"
			"uaxis" "[1 0 0 256] 1"
			"vaxis" "[0 0 -1 0] 1"
			"rotation" "0"
			"lightmapscale" "1"
			"smoothing_groups" "0"
		}
		side
		{
			"id" "744"
			"plane" "(-128 -252 80) (-128 -256 80) (-192 -256 80)"
			"material" "METAL/CITADEL_METALWALL101B"
			"uaxis" "[1 0 0 64] 1"
			"vaxis" "[0 -1 0 -256] 1"
			"rotation" "0"
			"lightmapscale" "1"
			"smoothing_groups" "0"
		}
		side
		{
			"id" "743"
			"plane" "(-208 -256 0) (-128 -256 0) (-128 -252 0)"
			"material" "METAL/CITADEL_METALWALL101B"
			"uaxis" "[1 0 0 64] 1"
			"vaxis" "[0 -1 0 -256] 1"
			"rotation" "0"
			"lightmapscale" "1"
			"smoothing_groups" "0"
		}
		side
		{
			"id" "742"
			"plane" "(-192 -252 80) (-192 -256 80) (-208 -256 0)"
			"material" "METAL/CITADEL_METALWALL101B"
			"uaxis" "[0 1 0 256] 1"
			"vaxis" "[0 0 -1 0] 1"
			"rotation" "0"
			"lightmapscale" "1"
			"smoothing_groups" "0"
		}
		side
		{
			"id" "741"
			"plane" "(-208 -252 0) (-128 -252 0) (-128 -252 80)"
			"material" "METAL/CITADEL_METALWALL101B"
			"uaxis" "[1 0 0 0] 0.25"
			"vaxis" "[0 0 -1 0] 0.25"
			"rotation" "0"
			"lightmapscale" "1"
			"smoothing_groups" "0"
		}
		editor
		{
			"color" "50 73 174"
			"visgroupshown" "1"
			"visgroupautoshown" "1"
		}
	}
	solid
	{
		"id" "324"
		side
		{
			"id" "758"
			"plane" "(-128 -252 208) (-128 -256 208) (-128 -256 256)"
			"material" "METAL/CITADEL_METALWALL101B"
			"uaxis" "[0 1 0 256] 1"
			"vaxis" "[0 0 -1 0] 1"
			"rotation" "0"
			"lightmapscale" "1"
			"smoothing_groups" "0"
		}
		side
		{
			"id" "757"
			"plane" "(-128 -256 256) (-128 -256 208) (-192 -256 208)"
			"material" "METAL/CITADEL_METALWALL101B"
			"uaxis" "[1 0 0 256] 1"
			"vaxis" "[0 0 -1 0] 1"
			"rotation" "0"
			"lightmapscale" "1"
			"smoothing_groups" "0"
		}
		side
		{
			"id" "756"
			"plane" "(-192 -256 208) (-128 -256 208) (-128 -252 208)"
			"material" "METAL/CITADEL_METALWALL101B"
			"uaxis" "[1 0 0 64] 1"
			"vaxis" "[0 -1 0 -256] 1"
			"rotation" "0"
			"lightmapscale" "1"
			"smoothing_groups" "0"
		}
		side
		{
			"id" "755"
			"plane" "(-128 -252 256) (-128 -256 256) (-160 -256 256)"
			"material" "METAL/CITADEL_METALWALL101B"
			"uaxis" "[1 0 0 64] 1"
			"vaxis" "[0 -1 0 -256] 1"
			"rotation" "0"
			"lightmapscale" "1"
			"smoothing_groups" "0"
		}
		side
		{
			"id" "754"
			"plane" "(-160 -252 256) (-160 -256 256) (-192 -256 208)"
			"material" "METAL/CITADEL_METALWALL101B"
			"uaxis" "[0 1 0 256] 1"
			"vaxis" "[0 0 -1 0] 1"
			"rotation" "0"
			"lightmapscale" "1"
			"smoothing_groups" "0"
		}
		side
		{
			"id" "753"
			"plane" "(-192 -252 208) (-128 -252 208) (-128 -252 256)"
			"material" "METAL/CITADEL_METALWALL101B"
			"uaxis" "[1 0 0 0] 0.25"
			"vaxis" "[0 0 -1 0] 0.25"
			"rotation" "0"
			"lightmapscale" "1"
			"smoothing_groups" "0"
		}
		editor
		{
			"color" "92 172 131"
			"visgroupshown" "1"
			"visgroupautoshown" "1"
		}
	}
	solid
	{
		"id" "322"
		side
		{
			"id" "770"
			"plane" "(-192 -256 208) (-192 -256 80) (-192 -252 80)"
			"material" "METAL/CITADEL_METALWALL101B"
			"uaxis" "[0 1 0 256] 1"
			"vaxis" "[0 0 -1 0] 1"
			"rotation" "0"
			"lightmapscale" "1"
			"smoothing_groups" "0"
		}
		side
		{
			"id" "769"
			"plane" "(-128 -252 80) (-128 -256 80) (-128 -256 208)"
			"material" "METAL/CITADEL_METALWALL101B"
			"uaxis" "[0 1 0 256] 1"
			"vaxis" "[0 0 -1 0] 1"
			"rotation" "0"
			"lightmapscale" "1"
			"smoothing_groups" "0"
		}
		side
		{
			"id" "768"
			"plane" "(-128 -256 208) (-128 -256 80) (-192 -256 80)"
			"material" "METAL/CITADEL_METALWALL101B"
			"uaxis" "[1 0 0 256] 1"
			"vaxis" "[0 0 -1 0] 1"
			"rotation" "0"
			"lightmapscale" "1"
			"smoothing_groups" "0"
		}
		side
		{
			"id" "767"
			"plane" "(-192 -252 80) (-192 -256 80) (-128 -256 80)"
			"material" "METAL/CITADEL_METALWALL101B"
			"uaxis" "[1 0 0 64] 1"
			"vaxis" "[0 -1 0 -256] 1"
			"rotation" "0"
			"lightmapscale" "1"
			"smoothing_groups" "0"
		}
		side
		{
			"id" "766"
			"plane" "(-192 -256 208) (-192 -252 208) (-128 -252 208)"
			"material" "METAL/CITADEL_METALWALL101B"
			"uaxis" "[1 0 0 64] 1"
			"vaxis" "[0 -1 0 -256] 1"
			"rotation" "0"
			"lightmapscale" "1"
			"smoothing_groups" "0"
		}
		side
		{
			"id" "765"
			"plane" "(-192 -252 208) (-192 -252 80) (-128 -252 80)"
			"material" "METAL/CITADEL_METALWALL101B"
			"uaxis" "[1 0 0 0] 0.25"
			"vaxis" "[0 0 -1 0] 0.25"
			"rotation" "0"
			"lightmapscale" "1"
			"smoothing_groups" "0"
		}
		editor
		{
			"color" "110 241 237"
			"visgroupshown" "1"
			"visgroupautoshown" "1"
		}
	}
	solid
	{
		"id" "353"
		side
		{
			"id" "782"
			"plane" "(-192 -196 80) (-192 -192 80) (-192 -192 208)"
			"material" "METAL/CITADEL_METALWALL101B"
			"uaxis" "[0 1 0 256] 1"
			"vaxis" "[0 0 -1 0] 1"
			"rotation" "0"
			"lightmapscale" "1"
			"smoothing_groups" "0"
		}
		side
		{
			"id" "781"
			"plane" "(-128 -192 208) (-128 -192 80) (-128 -196 80)"
			"material" "METAL/CITADEL_METALWALL101B"
			"uaxis" "[0 1 0 256] 1"
			"vaxis" "[0 0 -1 0] 1"
			"rotation" "0"
			"lightmapscale" "1"
			"smoothing_groups" "0"
		}
		side
		{
			"id" "780"
			"plane" "(-192 -192 208) (-192 -192 80) (-128 -192 80)"
			"material" "METAL/CITADEL_METALWALL101B"
			"uaxis" "[1 0 0 64] 1"
			"vaxis" "[0 0 -1 0] 1"
			"rotation" "0"
			"lightmapscale" "1"
			"smoothing_groups" "0"
		}
		side
		{
			"id" "779"
			"plane" "(-192 -192 80) (-192 -196 80) (-128 -196 80)"
			"material" "METAL/CITADEL_METALWALL101B"
			"uaxis" "[1 0 0 64] 1"
			"vaxis" "[0 -1 0 -256] 1"
			"rotation" "0"
			"lightmapscale" "1"
			"smoothing_groups" "0"
		}
		side
		{
			"id" "778"
			"plane" "(-192 -196 208) (-192 -192 208) (-128 -192 208)"
			"material" "METAL/CITADEL_METALWALL101B"
			"uaxis" "[1 0 0 64] 1"
			"vaxis" "[0 -1 0 -256] 1"
			"rotation" "0"
			"lightmapscale" "1"
			"smoothing_groups" "0"
		}
		side
		{
			"id" "777"
			"plane" "(-128 -196 208) (-128 -196 80) (-192 -196 80)"
			"material" "METAL/CITADEL_METALWALL101B"
			"uaxis" "[1 0 0 0] 0.25"
			"vaxis" "[0 0 -1 0] 0.25"
			"rotation" "0"
			"lightmapscale" "1"
			"smoothing_groups" "0"
		}
		editor
		{
			"color" "110 241 237"
			"visgroupshown" "1"
			"visgroupautoshown" "1"
		}
	}
	solid
	{
		"id" "354"
		side
		{
			"id" "788"
			"plane" "(-128 -196 208) (-128 -252 208) (-128 -252 256)"
			"material" "METAL/CITADEL_METALWALL101B"
			"uaxis" "[0 1 0 256] 1"
			"vaxis" "[0 0 -1 0] 1"
			"rotation" "0"
			"lightmapscale" "1"
			"smoothing_groups" "0"
		}
		side
		{
			"id" "787"
			"plane" "(-128 -252 208) (-128 -196 208) (-192 -196 208)"
			"material" "METAL/CITADEL_METALWALL101B"
			"uaxis" "[1 0 0 64] 1"
			"vaxis" "[0 -1 0 -256] 1"
			"rotation" "0"
			"lightmapscale" "1"
			"smoothing_groups" "0"
		}
		side
		{
			"id" "786"
			"plane" "(-160 -252 256) (-160 -196 256) (-128 -196 256)"
			"material" "METAL/CITADEL_METALWALL101B"
			"uaxis" "[1 0 0 64] 1"
			"vaxis" "[0 -1 0 -256] 1"
			"rotation" "0"
			"lightmapscale" "1"
			"smoothing_groups" "0"
		}
		side
		{
			"id" "785"
			"plane" "(-192 -252 208) (-192 -196 208) (-160 -196 256)"
			"material" "METAL/CITADEL_METALWALL101B"
			"uaxis" "[0 1 0 256] 1"
			"vaxis" "[0 0 -1 0] 1"
			"rotation" "0"
			"lightmapscale" "1"
			"smoothing_groups" "0"
		}
		side
		{
			"id" "784"
			"plane" "(-128 -252 256) (-128 -252 208) (-192 -252 208)"
			"material" "METAL/CITADEL_METALWALL101B"
			"uaxis" "[1 0 0 0] 0.25"
			"vaxis" "[0 0 -1 0] 0.25"
			"rotation" "0"
			"lightmapscale" "1"
			"smoothing_groups" "0"
		}
		side
		{
			"id" "783"
			"plane" "(-192 -196 208) (-128 -196 208) (-128 -196 256)"
			"material" "METAL/CITADEL_METALWALL101B"
			"uaxis" "[1 0 0 0] 0.25"
			"vaxis" "[0 0 -1 0] 0.25"
			"rotation" "0"
			"lightmapscale" "1"
			"smoothing_groups" "0"
		}
		editor
		{
			"color" "92 172 131"
			"visgroupshown" "1"
			"visgroupautoshown" "1"
		}
	}
	solid
	{
		"id" "355"
		side
		{
			"id" "794"
			"plane" "(-128 -192 256) (-128 -192 208) (-128 -196 208)"
			"material" "METAL/CITADEL_METALWALL101B"
			"uaxis" "[0 1 0 256] 1"
			"vaxis" "[0 0 -1 0] 1"
			"rotation" "0"
			"lightmapscale" "1"
			"smoothing_groups" "0"
		}
		side
		{
			"id" "793"
			"plane" "(-192 -192 208) (-128 -192 208) (-128 -192 256)"
			"material" "METAL/CITADEL_METALWALL101B"
			"uaxis" "[1 0 0 64] 1"
			"vaxis" "[0 0 -1 0] 1"
			"rotation" "0"
			"lightmapscale" "1"
			"smoothing_groups" "0"
		}
		side
		{
			"id" "792"
			"plane" "(-128 -196 208) (-128 -192 208) (-192 -192 208)"
			"material" "METAL/CITADEL_METALWALL101B"
			"uaxis" "[1 0 0 64] 1"
			"vaxis" "[0 -1 0 -256] 1"
			"rotation" "0"
			"lightmapscale" "1"
			"smoothing_groups" "0"
		}
		side
		{
			"id" "791"
			"plane" "(-160 -196 256) (-160 -192 256) (-128 -192 256)"
			"material" "METAL/CITADEL_METALWALL101B"
			"uaxis" "[1 0 0 64] 1"
			"vaxis" "[0 -1 0 -256] 1"
			"rotation" "0"
			"lightmapscale" "1"
			"smoothing_groups" "0"
		}
		side
		{
			"id" "790"
			"plane" "(-192 -196 208) (-192 -192 208) (-160 -192 256)"
			"material" "METAL/CITADEL_METALWALL101B"
			"uaxis" "[0 1 0 256] 1"
			"vaxis" "[0 0 -1 0] 1"
			"rotation" "0"
			"lightmapscale" "1"
			"smoothing_groups" "0"
		}
		side
		{
			"id" "789"
			"plane" "(-128 -196 256) (-128 -196 208) (-192 -196 208)"
			"material" "METAL/CITADEL_METALWALL101B"
			"uaxis" "[1 0 0 0] 0.25"
			"vaxis" "[0 0 -1 0] 0.25"
			"rotation" "0"
			"lightmapscale" "1"
			"smoothing_groups" "0"
		}
		editor
		{
			"color" "92 172 131"
			"visgroupshown" "1"
			"visgroupautoshown" "1"
		}
	}
	solid
	{
		"id" "357"
		side
		{
			"id" "806"
			"plane" "(-128 -192 80) (-128 -192 0) (-128 -196 0)"
			"material" "METAL/CITADEL_METALWALL101B"
			"uaxis" "[0 1 0 256] 1"
			"vaxis" "[0 0 -1 0] 1"
			"rotation" "0"
			"lightmapscale" "1"
			"smoothing_groups" "0"
		}
		side
		{
			"id" "805"
			"plane" "(-208 -192 0) (-128 -192 0) (-128 -192 80)"
			"material" "METAL/CITADEL_METALWALL101B"
			"uaxis" "[1 0 0 64] 1"
			"vaxis" "[0 0 -1 0] 1"
			"rotation" "0"
			"lightmapscale" "1"
			"smoothing_groups" "0"
		}
		side
		{
			"id" "804"
			"plane" "(-192 -196 80) (-192 -192 80) (-128 -192 80)"
			"material" "METAL/CITADEL_METALWALL101B"
			"uaxis" "[1 0 0 64] 1"
			"vaxis" "[0 -1 0 -256] 1"
			"rotation" "0"
			"lightmapscale" "1"
			"smoothing_groups" "0"
		}
		side
		{
			"id" "803"
			"plane" "(-128 -196 0) (-128 -192 0) (-208 -192 0)"
			"material" "METAL/CITADEL_METALWALL101B"
			"uaxis" "[1 0 0 64] 1"
			"vaxis" "[0 -1 0 -256] 1"
			"rotation" "0"
			"lightmapscale" "1"
			"smoothing_groups" "0"
		}
		side
		{
			"id" "802"
			"plane" "(-208 -196 -0) (-208 -192 -0) (-192 -192 80)"
			"material" "METAL/CITADEL_METALWALL101B"
			"uaxis" "[0 1 0 256] 1"
			"vaxis" "[0 0 -1 0] 1"
			"rotation" "0"
			"lightmapscale" "1"
			"smoothing_groups" "0"
		}
		side
		{
			"id" "801"
			"plane" "(-128 -196 80) (-128 -196 0) (-208 -196 0)"
			"material" "METAL/CITADEL_METALWALL101B"
			"uaxis" "[1 0 0 0] 0.25"
			"vaxis" "[0 0 -1 0] 0.25"
			"rotation" "0"
			"lightmapscale" "1"
			"smoothing_groups" "0"
		}
		editor
		{
			"color" "50 73 174"
			"visgroupshown" "1"
			"visgroupautoshown" "1"
		}
	}
	solid
	{
		"id" "362"
		side
		{
			"id" "812"
			"plane" "(-192 -196 160) (-192 -196 208) (-192 -252 208)"
			"material" "METAL/CITADEL_METALWALL101B"
			"uaxis" "[0 1 0 256] 1"
			"vaxis" "[0 0 -1 0] 1"
			"rotation" "0"
			"lightmapscale" "1"
			"smoothing_groups" "0"
		}
		side
		{
			"id" "811"
			"plane" "(-128 -252 160) (-128 -252 208) (-128 -196 208)"
			"material" "METAL/CITADEL_METALWALL101B"
			"uaxis" "[0 1 0 256] 1"
			"vaxis" "[0 0 -1 0] 1"
			"rotation" "0"
			"lightmapscale" "1"
			"smoothing_groups" "0"
		}
		side
		{
			"id" "810"
			"plane" "(-192 -252 208) (-192 -196 208) (-128 -196 208)"
			"material" "METAL/CITADEL_METALWALL101B"
			"uaxis" "[1 0 0 64] 1"
			"vaxis" "[0 -1 0 -256] 1"
			"rotation" "0"
			"lightmapscale" "1"
			"smoothing_groups" "0"
		}
		side
		{
			"id" "809"
			"plane" "(-128 -252 208) (-128 -252 160) (-192 -252 160)"
			"material" "METAL/CITADEL_METALWALL101B"
			"uaxis" "[1 0 0 0] 0.25"
			"vaxis" "[0 0 -1 0] 0.25"
			"rotation" "0"
			"lightmapscale" "1"
			"smoothing_groups" "0"
		}
		side
		{
			"id" "808"
			"plane" "(-192 -196 208) (-192 -196 160) (-128 -196 160)"
			"material" "METAL/CITADEL_METALWALL101B"
			"uaxis" "[1 0 0 0] 0.25"
			"vaxis" "[0 0 -1 0] 0.25"
			"rotation" "0"
			"lightmapscale" "1"
			"smoothing_groups" "0"
		}
		side
		{
			"id" "807"
			"plane" "(-192 -196 160) (-192 -252 160) (-128 -252 160)"
			"material" "METAL/CITADEL_METALWALL101B"
			"uaxis" "[1 0 0 0] 0.25"
			"vaxis" "[0 -1 0 0] 0.25"
			"rotation" "0"
			"lightmapscale" "1"
			"smoothing_groups" "0"
		}
		editor
		{
			"color" "110 241 237"
			"visgroupshown" "1"
			"visgroupautoshown" "1"
		}
	}
	solid
	{
		"id" "380"
		side
		{
			"id" "833"
			"plane" "(-512 -196 0) (-512 -192 0) (-512 -192 272)"
			"material" "METAL/CITADEL_METALWALL101B"
			"uaxis" "[0 1 0 256] 1"
			"vaxis" "[0 0 -1 0] 1"
			"rotation" "0"
			"lightmapscale" "1"
			"smoothing_groups" "0"
		}
		side
		{
			"id" "832"
			"plane" "(-480 -192 256) (-480 -192 64) (-480 -196 64)"
			"material" "METAL/CITADEL_METALWALL101B"
			"uaxis" "[0 1 0 -64] 1"
			"vaxis" "[0 0 -1 0] 1"
			"rotation" "0"
			"lightmapscale" "1"
			"smoothing_groups" "0"
		}
		side
		{
			"id" "831"
			"plane" "(-512 -192 272) (-512 -192 0) (-504 -192 0)"
			"material" "METAL/CITADEL_METALWALL101B"
			"uaxis" "[1 0 0 64] 1"
			"vaxis" "[0 0 -1 0] 1"
			"rotation" "0"
			"lightmapscale" "1"
			"smoothing_groups" "0"
		}
		side
		{
			"id" "830"
			"plane" "(-512 -192 0) (-512 -196 0) (-504 -196 0)"
			"material" "METAL/CITADEL_METALWALL101B"
			"uaxis" "[1 0 0 64] 1"
			"vaxis" "[0 -1 0 -256] 1"
			"rotation" "0"
			"lightmapscale" "1"
			"smoothing_groups" "0"
		}
		side
		{
			"id" "829"
			"plane" "(-480 -196 64) (-480 -192 64) (-504 -192 0)"
			"material" "METAL/CITADEL_METALWALL101B"
			"uaxis" "[0 1 0 -64] 1"
			"vaxis" "[-0.242536 0 -0.970143 -139.701] 1"
			"rotation" "0"
			"lightmapscale" "1"
			"smoothing_groups" "0"
		}
		side
		{
			"id" "828"
			"plane" "(-512 -196 272) (-512 -192 272) (-480 -192 256)"
			"material" "METAL/CITADEL_METALWALL101B"
			"uaxis" "[1 0 0 256] 1"
			"vaxis" "[0 -1 0 -256] 1"
			"rotation" "0"
			"lightmapscale" "1"
			"smoothing_groups" "0"
		}
		side
		{
			"id" "827"
			"plane" "(-480 -196 256) (-480 -196 64) (-504 -196 0)"
			"material" "METAL/CITADEL_METALWALL101B"
			"uaxis" "[1 0 0 0] 0.25"
			"vaxis" "[0 0 -1 0] 0.25"
			"rotation" "0"
			"lightmapscale" "1"
			"smoothing_groups" "0"
		}
		editor
		{
			"color" "128 180 219"
			"visgroupshown" "1"
			"visgroupautoshown" "1"
		}
	}
	solid
	{
		"id" "382"
		side
		{
			"id" "847"
			"plane" "(-512 -256 272) (-512 -256 0) (-512 -252 0)"
			"material" "METAL/CITADEL_METALWALL101B"
			"uaxis" "[0 1 0 256] 1"
			"vaxis" "[0 0 -1 0] 1"
			"rotation" "0"
			"lightmapscale" "1"
			"smoothing_groups" "0"
		}
		side
		{
			"id" "846"
			"plane" "(-480 -252 64) (-480 -256 64) (-480 -256 256)"
			"material" "METAL/CITADEL_METALWALL101B"
			"uaxis" "[0 1 0 -64] 1"
			"vaxis" "[0 0 -1 0] 1"
			"rotation" "0"
			"lightmapscale" "1"
			"smoothing_groups" "0"
		}
		side
		{
			"id" "845"
			"plane" "(-480 -256 256) (-480 -256 64) (-504 -256 0)"
			"material" "METAL/CITADEL_METALWALL101B"
			"uaxis" "[1 0 0 256] 1"
			"vaxis" "[0 0 -1 0] 1"
			"rotation" "0"
			"lightmapscale" "1"
			"smoothing_groups" "0"
		}
		side
		{
			"id" "844"
			"plane" "(-512 -252 0) (-512 -256 0) (-504 -256 0)"
			"material" "METAL/CITADEL_METALWALL101B"
			"uaxis" "[1 0 0 64] 1"
			"vaxis" "[0 -1 0 -256] 1"
			"rotation" "0"
			"lightmapscale" "1"
			"smoothing_groups" "0"
		}
		side
		{
			"id" "843"
			"plane" "(-504 -256 -0) (-480 -256 64) (-480 -252 64)"
			"material" "METAL/CITADEL_METALWALL101B"
			"uaxis" "[0 1 0 -64] 1"
			"vaxis" "[-0.242536 0 -0.970143 -139.701] 1"
			"rotation" "0"
			"lightmapscale" "1"
			"smoothing_groups" "0"
		}
		side
		{
			"id" "842"
			"plane" "(-512 -256 272) (-512 -252 272) (-480 -252 256)"
			"material" "METAL/CITADEL_METALWALL101B"
			"uaxis" "[1 0 0 256] 1"
			"vaxis" "[0 -1 0 -256] 1"
			"rotation" "0"
			"lightmapscale" "1"
			"smoothing_groups" "0"
		}
		side
		{
			"id" "841"
			"plane" "(-512 -252 272) (-512 -252 0) (-504 -252 0)"
			"material" "METAL/CITADEL_METALWALL101B"
			"uaxis" "[1 0 0 0] 0.25"
			"vaxis" "[0 0 -1 0] 0.25"
			"rotation" "0"
			"lightmapscale" "1"
			"smoothing_groups" "0"
		}
		editor
		{
			"color" "128 180 219"
			"visgroupshown" "1"
			"visgroupautoshown" "1"
		}
	}
	solid
	{
		"id" "396"
		side
		{
			"id" "879"
			"plane" "(-512 -196 160) (-512 -196 272) (-512 -252 272)"
			"material" "METAL/CITADEL_METALWALL101B"
			"uaxis" "[0 1 0 256] 1"
			"vaxis" "[0 0 -1 0] 1"
			"rotation" "0"
			"lightmapscale" "1"
			"smoothing_groups" "0"
		}
		side
		{
			"id" "878"
			"plane" "(-480 -252 160) (-480 -252 256) (-480 -196 256)"
			"material" "METAL/CITADEL_METALWALL101B"
			"uaxis" "[0 1 0 -64] 1"
			"vaxis" "[0 0 -1 0] 1"
			"rotation" "0"
			"lightmapscale" "1"
			"smoothing_groups" "0"
		}
		side
		{
			"id" "877"
			"plane" "(-512 -252 272) (-512 -196 272) (-480 -196 256)"
			"material" "METAL/CITADEL_METALWALL101B"
			"uaxis" "[1 0 0 256] 1"
			"vaxis" "[0 -1 0 -256] 1"
			"rotation" "0"
			"lightmapscale" "1"
			"smoothing_groups" "0"
		}
		side
		{
			"id" "876"
			"plane" "(-480 -252 256) (-480 -252 160) (-512 -252 160)"
			"material" "METAL/CITADEL_METALWALL101B"
			"uaxis" "[1 0 0 0] 0.25"
			"vaxis" "[0 0 -1 0] 0.25"
			"rotation" "0"
			"lightmapscale" "1"
			"smoothing_groups" "0"
		}
		side
		{
			"id" "875"
			"plane" "(-512 -196 272) (-512 -196 160) (-480 -196 160)"
			"material" "METAL/CITADEL_METALWALL101B"
			"uaxis" "[1 0 0 0] 0.25"
			"vaxis" "[0 0 -1 0] 0.25"
			"rotation" "0"
			"lightmapscale" "1"
			"smoothing_groups" "0"
		}
		side
		{
			"id" "874"
			"plane" "(-512 -196 160) (-512 -252 160) (-480 -252 160)"
			"material" "METAL/CITADEL_METALWALL101B"
			"uaxis" "[1 0 0 0] 0.25"
			"vaxis" "[0 -1 0 0] 0.25"
			"rotation" "0"
			"lightmapscale" "1"
			"smoothing_groups" "0"
		}
		editor
		{
			"color" "128 180 219"
			"visgroupshown" "1"
			"visgroupautoshown" "1"
		}
	}
	solid
	{
		"id" "42"
		side
		{
			"id" "897"
			"plane" "(-328 -100 144) (-328 -100 0) (-328 -124 0)"
			"material" "METAL/CITADEL_METALWALL101B"
			"uaxis" "[0 1 0 -400] 0.25"
			"vaxis" "[0 0 -1 0] 0.25"
			"rotation" "0"
			"lightmapscale" "1"
			"smoothing_groups" "0"
		}
		side
		{
			"id" "896"
			"plane" "(-344 -124 144) (-344 -124 0) (-344 -100 0)"
			"material" "METAL/CITADEL_METALWALL101B"
			"uaxis" "[0 1 0 -400] 0.25"
			"vaxis" "[0 0 -1 0] 0.25"
			"rotation" "0"
			"lightmapscale" "1"
			"smoothing_groups" "0"
		}
		side
		{
			"id" "895"
			"plane" "(-328 -124 144) (-328 -124 0) (-344 -124 0)"
			"material" "METAL/CITADEL_METALWALL101B"
			"uaxis" "[1 0 0 0] 0.25"
			"vaxis" "[0 0 -1 0] 0.25"
			"rotation" "0"
			"lightmapscale" "1"
			"smoothing_groups" "0"
		}
		side
		{
			"id" "894"
			"plane" "(-344 -100 144) (-344 -100 0) (-328 -100 0)"
			"material" "METAL/CITADEL_METALWALL101B"
			"uaxis" "[1 0 0 0] 0.25"
			"vaxis" "[0 0 -1 0] 0.25"
			"rotation" "0"
			"lightmapscale" "1"
			"smoothing_groups" "0"
		}
		side
		{
			"id" "893"
			"plane" "(-344 -100 0) (-344 -124 0) (-328 -124 0)"
			"material" "METAL/CITADEL_METALWALL101B"
			"uaxis" "[1 0 0 0] 0.25"
			"vaxis" "[0 -1 0 400] 0.25"
			"rotation" "0"
			"lightmapscale" "1"
			"smoothing_groups" "0"
		}
		side
		{
			"id" "892"
			"plane" "(-344 -124 144) (-344 -100 144) (-328 -100 144)"
			"material" "METAL/CITADEL_METALWALL101B"
			"uaxis" "[1 0 0 0] 0.25"
			"vaxis" "[0 -1 0 400] 0.25"
			"rotation" "0"
			"lightmapscale" "1"
			"smoothing_groups" "0"
		}
		editor
		{
			"color" "0 162 203"
			"visgroupshown" "1"
			"visgroupautoshown" "1"
		}
	}
	solid
	{
		"id" "44"
		side
		{
			"id" "909"
			"plane" "(-448 -160 48) (-448 -160 32) (-448 -148 32)"
			"material" "METAL/CITADEL_METALWALL101B"
			"uaxis" "[0 1 0 -400] 0.25"
			"vaxis" "[0 0 -1 0] 0.25"
			"rotation" "0"
			"lightmapscale" "1"
			"smoothing_groups" "0"
		}
		side
		{
			"id" "908"
			"plane" "(-160 -148 48) (-160 -148 32) (-160 -160 32)"
			"material" "METAL/CITADEL_METALWALL101B"
			"uaxis" "[0 1 0 -400] 0.25"
			"vaxis" "[0 0 -1 0] 0.25"
			"rotation" "0"
			"lightmapscale" "1"
			"smoothing_groups" "0"
		}
		side
		{
			"id" "907"
			"plane" "(-448 -148 48) (-448 -148 32) (-160 -148 32)"
			"material" "METAL/CITADEL_METALWALL101B"
			"uaxis" "[1 0 0 0] 0.25"
			"vaxis" "[0 0 -1 0] 0.25"
			"rotation" "0"
			"lightmapscale" "1"
			"smoothing_groups" "0"
		}
		side
		{
			"id" "906"
			"plane" "(-160 -160 48) (-160 -160 32) (-448 -160 32)"
			"material" "METAL/CITADEL_METALWALL101B"
			"uaxis" "[1 0 0 0] 0.25"
			"vaxis" "[0 0 -1 0] 0.25"
			"rotation" "0"
			"lightmapscale" "1"
			"smoothing_groups" "0"
		}
		side
		{
			"id" "905"
			"plane" "(-448 -160 48) (-448 -148 48) (-160 -148 48)"
			"material" "METAL/CITADEL_METALWALL101B"
			"uaxis" "[1 0 0 0] 0.25"
			"vaxis" "[0 -1 0 400] 0.25"
			"rotation" "0"
			"lightmapscale" "1"
			"smoothing_groups" "0"
		}
		side
		{
			"id" "904"
			"plane" "(-448 -148 32) (-448 -160 32) (-160 -160 32)"
			"material" "METAL/CITADEL_METALWALL101B"
			"uaxis" "[1 0 0 0] 0.25"
			"vaxis" "[0 -1 0 400] 0.25"
			"rotation" "0"
			"lightmapscale" "1"
			"smoothing_groups" "0"
		}
		editor
		{
			"color" "0 222 227"
			"visgroupshown" "1"
			"visgroupautoshown" "1"
		}
	}
	solid
	{
		"id" "45"
		side
		{
			"id" "915"
			"plane" "(-368 -108 34) (-368 -108 32) (-368 -106 32)"
			"material" "METAL/CITADEL_METALWALL101B"
			"uaxis" "[0 1 0 -400] 0.25"
			"vaxis" "[0 0 -1 0] 0.25"
			"rotation" "0"
			"lightmapscale" "1"
			"smoothing_groups" "0"
		}
		side
		{
			"id" "914"
			"plane" "(-328 -106 34) (-328 -106 32) (-328 -108 32)"
			"material" "METAL/CITADEL_METALWALL101B"
			"uaxis" "[0 1 0 -400] 0.25"
			"vaxis" "[0 0 -1 0] 0.25"
			"rotation" "0"
			"lightmapscale" "1"
			"smoothing_groups" "0"
		}
		side
		{
			"id" "913"
			"plane" "(-368 -106 34) (-368 -106 32) (-328 -106 32)"
			"material" "METAL/CITADEL_METALWALL101B"
			"uaxis" "[1 0 0 0] 0.25"
			"vaxis" "[0 0 -1 0] 0.25"
			"rotation" "0"
			"lightmapscale" "1"
			"smoothing_groups" "0"
		}
		side
		{
			"id" "912"
			"plane" "(-328 -108 34) (-328 -108 32) (-368 -108 32)"
			"material" "METAL/CITADEL_METALWALL101B"
			"uaxis" "[1 0 0 0] 0.25"
			"vaxis" "[0 0 -1 0] 0.25"
			"rotation" "0"
			"lightmapscale" "1"
			"smoothing_groups" "0"
		}
		side
		{
			"id" "911"
			"plane" "(-368 -108 34) (-368 -106 34) (-328 -106 34)"
			"material" "METAL/CITADEL_METALWALL101B"
			"uaxis" "[1 0 0 0] 0.25"
			"vaxis" "[0 -1 0 400] 0.25"
			"rotation" "0"
			"lightmapscale" "1"
			"smoothing_groups" "0"
		}
		side
		{
			"id" "910"
			"plane" "(-368 -106 32) (-368 -108 32) (-328 -108 32)"
			"material" "METAL/CITADEL_METALWALL101B"
			"uaxis" "[1 0 0 0] 0.25"
			"vaxis" "[0 -1 0 400] 0.25"
			"rotation" "0"
			"lightmapscale" "1"
			"smoothing_groups" "0"
		}
		editor
		{
			"color" "0 224 117"
			"visgroupshown" "1"
			"visgroupautoshown" "1"
		}
	}
	solid
	{
		"id" "46"
		side
		{
			"id" "921"
			"plane" "(-368 -126 98) (-368 -126 96) (-368 -124 96)"
			"material" "METAL/CITADEL_METALWALL101B"
			"uaxis" "[0 1 0 -400] 0.25"
			"vaxis" "[0 0 -1 0] 0.25"
			"rotation" "0"
			"lightmapscale" "1"
			"smoothing_groups" "0"
		}
		side
		{
			"id" "920"
			"plane" "(-328 -124 98) (-328 -124 96) (-328 -126 96)"
			"material" "METAL/CITADEL_METALWALL101B"
			"uaxis" "[0 1 0 -400] 0.25"
			"vaxis" "[0 0 -1 0] 0.25"
			"rotation" "0"
			"lightmapscale" "1"
			"smoothing_groups" "0"
		}
		side
		{
			"id" "919"
			"plane" "(-368 -124 98) (-368 -124 96) (-328 -124 96)"
			"material" "METAL/CITADEL_METALWALL101B"
			"uaxis" "[1 0 0 0] 0.25"
			"vaxis" "[0 0 -1 0] 0.25"
			"rotation" "0"
			"lightmapscale" "1"
			"smoothing_groups" "0"
		}
		side
		{
			"id" "918"
			"plane" "(-328 -126 98) (-328 -126 96) (-368 -126 96)"
			"material" "METAL/CITADEL_METALWALL101B"
			"uaxis" "[1 0 0 0] 0.25"
			"vaxis" "[0 0 -1 0] 0.25"
			"rotation" "0"
			"lightmapscale" "1"
			"smoothing_groups" "0"
		}
		side
		{
			"id" "917"
			"plane" "(-368 -126 98) (-368 -124 98) (-328 -124 98)"
			"material" "METAL/CITADEL_METALWALL101B"
			"uaxis" "[1 0 0 0] 0.25"
			"vaxis" "[0 -1 0 400] 0.25"
			"rotation" "0"
			"lightmapscale" "1"
			"smoothing_groups" "0"
		}
		side
		{
			"id" "916"
			"plane" "(-368 -124 96) (-368 -126 96) (-328 -126 96)"
			"material" "METAL/CITADEL_METALWALL101B"
			"uaxis" "[1 0 0 0] 0.25"
			"vaxis" "[0 -1 0 400] 0.25"
			"rotation" "0"
			"lightmapscale" "1"
			"smoothing_groups" "0"
		}
		editor
		{
			"color" "0 102 247"
			"visgroupshown" "1"
			"visgroupautoshown" "1"
		}
	}
	solid
	{
		"id" "47"
		side
		{
			"id" "927"
			"plane" "(-368 -108 114) (-368 -108 112) (-368 -106 112)"
			"material" "METAL/CITADEL_METALWALL101B"
			"uaxis" "[0 1 0 -400] 0.25"
			"vaxis" "[0 0 -1 0] 0.25"
			"rotation" "0"
			"lightmapscale" "1"
			"smoothing_groups" "0"
		}
		side
		{
			"id" "926"
			"plane" "(-328 -106 114) (-328 -106 112) (-328 -108 112)"
			"material" "METAL/CITADEL_METALWALL101B"
			"uaxis" "[0 1 0 -400] 0.25"
			"vaxis" "[0 0 -1 0] 0.25"
			"rotation" "0"
			"lightmapscale" "1"
			"smoothing_groups" "0"
		}
		side
		{
			"id" "925"
			"plane" "(-368 -106 114) (-368 -106 112) (-328 -106 112)"
			"material" "METAL/CITADEL_METALWALL101B"
			"uaxis" "[1 0 0 0] 0.25"
			"vaxis" "[0 0 -1 0] 0.25"
			"rotation" "0"
			"lightmapscale" "1"
			"smoothing_groups" "0"
		}
		side
		{
			"id" "924"
			"plane" "(-328 -108 114) (-328 -108 112) (-368 -108 112)"
			"material" "METAL/CITADEL_METALWALL101B"
			"uaxis" "[1 0 0 0] 0.25"
			"vaxis" "[0 0 -1 0] 0.25"
			"rotation" "0"
			"lightmapscale" "1"
			"smoothing_groups" "0"
		}
		side
		{
			"id" "923"
			"plane" "(-368 -108 114) (-368 -106 114) (-328 -106 114)"
			"material" "METAL/CITADEL_METALWALL101B"
			"uaxis" "[1 0 0 0] 0.25"
			"vaxis" "[0 -1 0 400] 0.25"
			"rotation" "0"
			"lightmapscale" "1"
			"smoothing_groups" "0"
		}
		side
		{
			"id" "922"
			"plane" "(-368 -106 112) (-368 -108 112) (-328 -108 112)"
			"material" "METAL/CITADEL_METALWALL101B"
			"uaxis" "[1 0 0 0] 0.25"
			"vaxis" "[0 -1 0 400] 0.25"
			"rotation" "0"
			"lightmapscale" "1"
			"smoothing_groups" "0"
		}
		editor
		{
			"color" "0 192 129"
			"visgroupshown" "1"
			"visgroupautoshown" "1"
		}
	}
	solid
	{
		"id" "41"
		side
		{
			"id" "1059"
			"plane" "(-192 -96 160) (-192 -96 0) (-192 -152 0)"
			"material" "METAL/CITADEL_METALWALL101B"
			"uaxis" "[0 1 0 -400] 0.25"
			"vaxis" "[0 0 -1 0] 0.25"
			"rotation" "0"
			"lightmapscale" "1"
			"smoothing_groups" "0"
		}
		side
		{
			"id" "1058"
			"plane" "(-328 -152 160) (-328 -152 0) (-328 -96 0)"
			"material" "METAL/CITADEL_METALWALL101B"
			"uaxis" "[0 1 0 -400] 0.25"
			"vaxis" "[0 0 -1 0] 0.25"
			"rotation" "0"
			"lightmapscale" "1"
			"smoothing_groups" "0"
		}
		side
		{
			"id" "1057"
			"plane" "(-192 -152 160) (-192 -152 0) (-328 -152 0)"
			"material" "METAL/CITADEL_METALWALL101B"
			"uaxis" "[1 0 0 0] 0.25"
			"vaxis" "[0 0 -1 0] 0.25"
			"rotation" "0"
			"lightmapscale" "1"
			"smoothing_groups" "0"
		}
		side
		{
			"id" "1056"
			"plane" "(-328 -96 160) (-328 -96 0) (-192 -96 0)"
			"material" "METAL/CITADEL_METALWALL101B"
			"uaxis" "[1 0 0 0] 0.25"
			"vaxis" "[0 0 -1 0] 0.25"
			"rotation" "0"
			"lightmapscale" "1"
			"smoothing_groups" "0"
		}
		side
		{
			"id" "1055"
			"plane" "(-328 -96 0) (-328 -152 0) (-192 -152 0)"
			"material" "METAL/CITADEL_METALWALL101B"
			"uaxis" "[1 0 0 0] 0.25"
			"vaxis" "[0 -1 0 400] 0.25"
			"rotation" "0"
			"lightmapscale" "1"
			"smoothing_groups" "0"
		}
		side
		{
			"id" "1054"
			"plane" "(-328 -152 160) (-328 -96 160) (-192 -96 160)"
			"material" "METAL/CITADEL_METALWALL101B"
			"uaxis" "[1 0 0 0] 0.25"
			"vaxis" "[0 -1 0 400] 0.25"
			"rotation" "0"
			"lightmapscale" "1"
			"smoothing_groups" "0"
		}
		editor
		{
			"color" "0 120 109"
			"visgroupshown" "1"
			"visgroupautoshown" "1"
		}
	}
	solid
	{
		"id" "52"
		side
		{
			"id" "1077"
			"plane" "(-512 -200 144) (-512 -200 128) (-512 -184 128)"
			"material" "METAL/CITADEL_METALWALL101B"
			"uaxis" "[0 1 0 0] 0.25"
			"vaxis" "[0 0 -1 0] 0.25"
			"rotation" "0"
			"lightmapscale" "1"
			"smoothing_groups" "0"
		}
		side
		{
			"id" "1076"
			"plane" "(-192 -184 144) (-192 -184 128) (-192 -200 128)"
			"material" "METAL/CITADEL_METALWALL101B"
			"uaxis" "[0 1 0 0] 0.25"
			"vaxis" "[0 0 -1 0] 0.25"
			"rotation" "0"
			"lightmapscale" "1"
			"smoothing_groups" "0"
		}
		side
		{
			"id" "1075"
			"plane" "(-512 -184 144) (-512 -184 128) (-192 -184 128)"
			"material" "METAL/CITADEL_METALWALL101B"
			"uaxis" "[1 0 0 0] 0.25"
			"vaxis" "[0 0 -1 0] 0.25"
			"rotation" "0"
			"lightmapscale" "1"
			"smoothing_groups" "0"
		}
		side
		{
			"id" "1074"
			"plane" "(-192 -200 144) (-192 -200 128) (-512 -200 128)"
			"material" "METAL/CITADEL_METALWALL101B"
			"uaxis" "[1 0 0 0] 0.25"
			"vaxis" "[0 0 -1 0] 0.25"
			"rotation" "0"
			"lightmapscale" "1"
			"smoothing_groups" "0"
		}
		side
		{
			"id" "1073"
			"plane" "(-512 -200 144) (-512 -184 144) (-192 -184 144)"
			"material" "METAL/CITADEL_METALWALL101B"
			"uaxis" "[1 0 0 0] 0.25"
			"vaxis" "[0 -1 0 0] 0.25"
			"rotation" "0"
			"lightmapscale" "1"
			"smoothing_groups" "0"
		}
		side
		{
			"id" "1072"
			"plane" "(-512 -184 128) (-512 -200 128) (-192 -200 128)"
			"material" "METAL/CITADEL_METALWALL101B"
			"uaxis" "[1 0 0 0] 0.25"
			"vaxis" "[0 -1 0 0] 0.25"
			"rotation" "0"
			"lightmapscale" "1"
			"smoothing_groups" "0"
		}
		editor
		{
			"color" "0 105 218"
			"visgroupshown" "1"
			"visgroupautoshown" "1"
		}
	}
	solid
	{
		"id" "54"
		side
		{
			"id" "1089"
			"plane" "(-328 -224 144) (-328 -224 0) (-328 -248 0)"
			"material" "METAL/CITADEL_METALWALL101B"
			"uaxis" "[0 1 0 0] 0.25"
			"vaxis" "[0 0 -1 0] 0.25"
			"rotation" "0"
			"lightmapscale" "1"
			"smoothing_groups" "0"
		}
		side
		{
			"id" "1088"
			"plane" "(-344 -248 144) (-344 -248 0) (-344 -224 0)"
			"material" "METAL/CITADEL_METALWALL101B"
			"uaxis" "[0 1 0 0] 0.25"
			"vaxis" "[0 0 -1 0] 0.25"
			"rotation" "0"
			"lightmapscale" "1"
			"smoothing_groups" "0"
		}
		side
		{
			"id" "1087"
			"plane" "(-328 -248 144) (-328 -248 0) (-344 -248 0)"
			"material" "METAL/CITADEL_METALWALL101B"
			"uaxis" "[1 0 0 0] 0.25"
			"vaxis" "[0 0 -1 0] 0.25"
			"rotation" "0"
			"lightmapscale" "1"
			"smoothing_groups" "0"
		}
		side
		{
			"id" "1086"
			"plane" "(-344 -224 144) (-344 -224 0) (-328 -224 0)"
			"material" "METAL/CITADEL_METALWALL101B"
			"uaxis" "[1 0 0 0] 0.25"
			"vaxis" "[0 0 -1 0] 0.25"
			"rotation" "0"
			"lightmapscale" "1"
			"smoothing_groups" "0"
		}
		side
		{
			"id" "1085"
			"plane" "(-344 -224 0) (-344 -248 0) (-328 -248 0)"
			"material" "METAL/CITADEL_METALWALL101B"
			"uaxis" "[1 0 0 0] 0.25"
			"vaxis" "[0 -1 0 0] 0.25"
			"rotation" "0"
			"lightmapscale" "1"
			"smoothing_groups" "0"
		}
		side
		{
			"id" "1084"
			"plane" "(-344 -248 144) (-344 -224 144) (-328 -224 144)"
			"material" "METAL/CITADEL_METALWALL101B"
			"uaxis" "[1 0 0 0] 0.25"
			"vaxis" "[0 -1 0 0] 0.25"
			"rotation" "0"
			"lightmapscale" "1"
			"smoothing_groups" "0"
		}
		editor
		{
			"color" "0 145 110"
			"visgroupshown" "1"
			"visgroupautoshown" "1"
		}
	}
	solid
	{
		"id" "55"
		side
		{
			"id" "1095"
			"plane" "(-368 -226 50) (-368 -226 48) (-368 -224 48)"
			"material" "METAL/CITADEL_METALWALL101B"
			"uaxis" "[0 1 0 0] 0.25"
			"vaxis" "[0 0 -1 0] 0.25"
			"rotation" "0"
			"lightmapscale" "1"
			"smoothing_groups" "0"
		}
		side
		{
			"id" "1094"
			"plane" "(-328 -224 50) (-328 -224 48) (-328 -226 48)"
			"material" "METAL/CITADEL_METALWALL101B"
			"uaxis" "[0 1 0 0] 0.25"
			"vaxis" "[0 0 -1 0] 0.25"
			"rotation" "0"
			"lightmapscale" "1"
			"smoothing_groups" "0"
		}
		side
		{
			"id" "1093"
			"plane" "(-368 -224 50) (-368 -224 48) (-328 -224 48)"
			"material" "METAL/CITADEL_METALWALL101B"
			"uaxis" "[1 0 0 0] 0.25"
			"vaxis" "[0 0 -1 0] 0.25"
			"rotation" "0"
			"lightmapscale" "1"
			"smoothing_groups" "0"
		}
		side
		{
			"id" "1092"
			"plane" "(-328 -226 50) (-328 -226 48) (-368 -226 48)"
			"material" "METAL/CITADEL_METALWALL101B"
			"uaxis" "[1 0 0 0] 0.25"
			"vaxis" "[0 0 -1 0] 0.25"
			"rotation" "0"
			"lightmapscale" "1"
			"smoothing_groups" "0"
		}
		side
		{
			"id" "1091"
			"plane" "(-368 -226 50) (-368 -224 50) (-328 -224 50)"
			"material" "METAL/CITADEL_METALWALL101B"
			"uaxis" "[1 0 0 0] 0.25"
			"vaxis" "[0 -1 0 0] 0.25"
			"rotation" "0"
			"lightmapscale" "1"
			"smoothing_groups" "0"
		}
		side
		{
			"id" "1090"
			"plane" "(-368 -224 48) (-368 -226 48) (-328 -226 48)"
			"material" "METAL/CITADEL_METALWALL101B"
			"uaxis" "[1 0 0 0] 0.25"
			"vaxis" "[0 -1 0 0] 0.25"
			"rotation" "0"
			"lightmapscale" "1"
			"smoothing_groups" "0"
		}
		editor
		{
			"color" "0 243 140"
			"visgroupshown" "1"
			"visgroupautoshown" "1"
		}
	}
	solid
	{
		"id" "56"
		side
		{
			"id" "1101"
			"plane" "(-368 -242 146) (-368 -242 144) (-368 -240 144)"
			"material" "METAL/CITADEL_METALWALL101B"
			"uaxis" "[0 1 0 0] 0.25"
			"vaxis" "[0 0 -1 0] 0.25"
			"rotation" "0"
			"lightmapscale" "1"
			"smoothing_groups" "0"
		}
		side
		{
			"id" "1100"
			"plane" "(-328 -240 146) (-328 -240 144) (-328 -242 144)"
			"material" "METAL/CITADEL_METALWALL101B"
			"uaxis" "[0 1 0 0] 0.25"
			"vaxis" "[0 0 -1 0] 0.25"
			"rotation" "0"
			"lightmapscale" "1"
			"smoothing_groups" "0"
		}
		side
		{
			"id" "1099"
			"plane" "(-368 -240 146) (-368 -240 144) (-328 -240 144)"
			"material" "METAL/CITADEL_METALWALL101B"
			"uaxis" "[1 0 0 0] 0.25"
			"vaxis" "[0 0 -1 0] 0.25"
			"rotation" "0"
			"lightmapscale" "1"
			"smoothing_groups" "0"
		}
		side
		{
			"id" "1098"
			"plane" "(-328 -242 146) (-328 -242 144) (-368 -242 144)"
			"material" "METAL/CITADEL_METALWALL101B"
			"uaxis" "[1 0 0 0] 0.25"
			"vaxis" "[0 0 -1 0] 0.25"
			"rotation" "0"
			"lightmapscale" "1"
			"smoothing_groups" "0"
		}
		side
		{
			"id" "1097"
			"plane" "(-368 -242 146) (-368 -240 146) (-328 -240 146)"
			"material" "METAL/CITADEL_METALWALL101B"
			"uaxis" "[1 0 0 0] 0.25"
			"vaxis" "[0 -1 0 0] 0.25"
			"rotation" "0"
			"lightmapscale" "1"
			"smoothing_groups" "0"
		}
		side
		{
			"id" "1096"
			"plane" "(-368 -240 144) (-368 -242 144) (-328 -242 144)"
			"material" "METAL/CITADEL_METALWALL101B"
			"uaxis" "[1 0 0 0] 0.25"
			"vaxis" "[0 -1 0 0] 0.25"
			"rotation" "0"
			"lightmapscale" "1"
			"smoothing_groups" "0"
		}
		editor
		{
			"color" "0 145 190"
			"visgroupshown" "1"
			"visgroupautoshown" "1"
		}
	}
	solid
	{
		"id" "1070"
		side
		{
			"id" "1107"
			"plane" "(-424 -252 0) (-424 -252 160) (-424 -248 160)"
			"material" "METAL/CITADEL_METALWALL101B"
			"uaxis" "[0 1 0 0] 0.25"
			"vaxis" "[0 0 -1 0] 0.25"
			"rotation" "0"
			"lightmapscale" "1"
			"smoothing_groups" "0"
		}
		side
		{
			"id" "1106"
			"plane" "(-424 -248 160) (-452 -248 160) (-452 -248 0)"
			"material" "METAL/CITADEL_METALWALL101B"
			"uaxis" "[1 0 0 0] 0.25"
			"vaxis" "[0 0 -1 0] 0.25"
			"rotation" "0"
			"lightmapscale" "1"
			"smoothing_groups" "0"
		}
		side
		{
			"id" "1105"
			"plane" "(-452 -252 0) (-452 -252 160) (-424 -252 160)"
			"material" "METAL/CITADEL_METALWALL101B"
			"uaxis" "[1 0 0 0] 0.25"
			"vaxis" "[0 0 -1 0] 0.25"
			"rotation" "0"
			"lightmapscale" "1"
			"smoothing_groups" "0"
		}
		side
		{
			"id" "1104"
			"plane" "(-424 -248 0) (-452 -248 0) (-452 -252 0)"
			"material" "METAL/CITADEL_METALWALL101B"
			"uaxis" "[1 0 0 0] 0.25"
			"vaxis" "[0 -1 0 0] 0.25"
			"rotation" "0"
			"lightmapscale" "1"
			"smoothing_groups" "0"
		}
		side
		{
			"id" "1103"
			"plane" "(-424 -252 160) (-452 -252 160) (-452 -248 160)"
			"material" "METAL/CITADEL_METALWALL101B"
			"uaxis" "[1 0 0 0] 0.25"
			"vaxis" "[0 -1 0 0] 0.25"
			"rotation" "0"
			"lightmapscale" "1"
			"smoothing_groups" "0"
		}
		side
		{
			"id" "1102"
			"plane" "(-452 -248 0) (-452 -248 160) (-452 -252 160)"
			"material" "METAL/CITADEL_METALWALL101B"
			"uaxis" "[0 1 0 0] 0.25"
			"vaxis" "[0 0 -1 0] 0.25"
			"rotation" "0"
			"lightmapscale" "16"
			"smoothing_groups" "0"
		}
		editor
		{
			"color" "0 115 180"
			"visgroupshown" "1"
			"visgroupautoshown" "1"
		}
	}
	solid
	{
		"id" "1071"
		side
		{
			"id" "1113"
			"plane" "(-480 -248 0) (-480 -248 160) (-480 -252 160)"
			"material" "METAL/CITADEL_METALWALL101B"
			"uaxis" "[0 1 0 0] 0.25"
			"vaxis" "[0 0 -1 0] 0.25"
			"rotation" "0"
			"lightmapscale" "1"
			"smoothing_groups" "0"
		}
		side
		{
			"id" "1112"
			"plane" "(-452 -248 0) (-452 -248 160) (-480 -248 160)"
			"material" "METAL/CITADEL_METALWALL101B"
			"uaxis" "[1 0 0 0] 0.25"
			"vaxis" "[0 0 -1 0] 0.25"
			"rotation" "0"
			"lightmapscale" "1"
			"smoothing_groups" "0"
		}
		side
		{
			"id" "1111"
			"plane" "(-480 -252 160) (-452 -252 160) (-452 -252 0)"
			"material" "METAL/CITADEL_METALWALL101B"
			"uaxis" "[1 0 0 0] 0.25"
			"vaxis" "[0 0 -1 0] 0.25"
			"rotation" "0"
			"lightmapscale" "1"
			"smoothing_groups" "0"
		}
		side
		{
			"id" "1110"
			"plane" "(-452 -252 0) (-452 -248 0) (-480 -248 0)"
			"material" "METAL/CITADEL_METALWALL101B"
			"uaxis" "[1 0 0 0] 0.25"
			"vaxis" "[0 -1 0 0] 0.25"
			"rotation" "0"
			"lightmapscale" "1"
			"smoothing_groups" "0"
		}
		side
		{
			"id" "1109"
			"plane" "(-452 -248 160) (-452 -252 160) (-480 -252 160)"
			"material" "METAL/CITADEL_METALWALL101B"
			"uaxis" "[1 0 0 0] 0.25"
			"vaxis" "[0 -1 0 0] 0.25"
			"rotation" "0"
			"lightmapscale" "1"
			"smoothing_groups" "0"
		}
		side
		{
			"id" "1108"
			"plane" "(-452 -252 0) (-452 -252 160) (-452 -248 160)"
			"material" "METAL/CITADEL_METALWALL101B"
			"uaxis" "[0 1 0 0] 0.25"
			"vaxis" "[0 0 -1 0] 0.25"
			"rotation" "0"
			"lightmapscale" "16"
			"smoothing_groups" "0"
		}
		editor
		{
			"color" "0 115 180"
			"visgroupshown" "1"
			"visgroupautoshown" "1"
		}
	}
	solid
	{
		"id" "1072"
		side
		{
			"id" "1119"
			"plane" "(-424 -200 0) (-424 -200 160) (-424 -196 160)"
			"material" "METAL/CITADEL_METALWALL101B"
			"uaxis" "[0 -1 0 0] 0.25"
			"vaxis" "[0 0 -1 0] 0.25"
			"rotation" "0"
			"lightmapscale" "1"
			"smoothing_groups" "0"
		}
		side
		{
			"id" "1118"
			"plane" "(-424 -196 160) (-452 -196 160) (-452 -196 0)"
			"material" "METAL/CITADEL_METALWALL101B"
			"uaxis" "[1 0 0 0] 0.25"
			"vaxis" "[0 0 -1 0] 0.25"
			"rotation" "0"
			"lightmapscale" "1"
			"smoothing_groups" "0"
		}
		side
		{
			"id" "1117"
			"plane" "(-452 -200 0) (-452 -200 160) (-424 -200 160)"
			"material" "METAL/CITADEL_METALWALL101B"
			"uaxis" "[1 0 0 0] 0.25"
			"vaxis" "[0 0 -1 0] 0.25"
			"rotation" "0"
			"lightmapscale" "1"
			"smoothing_groups" "0"
		}
		side
		{
			"id" "1116"
			"plane" "(-424 -200 160) (-452 -200 160) (-452 -196 160)"
			"material" "METAL/CITADEL_METALWALL101B"
			"uaxis" "[1 0 0 0] 0.25"
			"vaxis" "[0 1 0 0] 0.25"
			"rotation" "0"
			"lightmapscale" "1"
			"smoothing_groups" "0"
		}
		side
		{
			"id" "1115"
			"plane" "(-424 -196 0) (-452 -196 0) (-452 -200 0)"
			"material" "METAL/CITADEL_METALWALL101B"
			"uaxis" "[1 0 0 0] 0.25"
			"vaxis" "[0 1 0 0] 0.25"
			"rotation" "0"
			"lightmapscale" "1"
			"smoothing_groups" "0"
		}
		side
		{
			"id" "1114"
			"plane" "(-452 -196 0) (-452 -196 160) (-452 -200 160)"
			"material" "METAL/CITADEL_METALWALL101B"
			"uaxis" "[0 1 0 0] 0.25"
			"vaxis" "[0 0 -1 0] 0.25"
			"rotation" "0"
			"lightmapscale" "16"
			"smoothing_groups" "0"
		}
		editor
		{
			"color" "0 213 110"
			"visgroupshown" "1"
			"visgroupautoshown" "1"
		}
	}
	solid
	{
		"id" "1073"
		side
		{
			"id" "1125"
			"plane" "(-480 -196 0) (-480 -196 160) (-480 -200 160)"
			"material" "METAL/CITADEL_METALWALL101B"
			"uaxis" "[0 -1 0 0] 0.25"
			"vaxis" "[0 0 -1 0] 0.25"
			"rotation" "0"
			"lightmapscale" "1"
			"smoothing_groups" "0"
		}
		side
		{
			"id" "1124"
			"plane" "(-452 -196 0) (-452 -196 160) (-480 -196 160)"
			"material" "METAL/CITADEL_METALWALL101B"
			"uaxis" "[1 0 0 0] 0.25"
			"vaxis" "[0 0 -1 0] 0.25"
			"rotation" "0"
			"lightmapscale" "1"
			"smoothing_groups" "0"
		}
		side
		{
			"id" "1123"
			"plane" "(-480 -200 160) (-452 -200 160) (-452 -200 0)"
			"material" "METAL/CITADEL_METALWALL101B"
			"uaxis" "[1 0 0 0] 0.25"
			"vaxis" "[0 0 -1 0] 0.25"
			"rotation" "0"
			"lightmapscale" "1"
			"smoothing_groups" "0"
		}
		side
		{
			"id" "1122"
			"plane" "(-452 -196 160) (-452 -200 160) (-480 -200 160)"
			"material" "METAL/CITADEL_METALWALL101B"
			"uaxis" "[1 0 0 0] 0.25"
			"vaxis" "[0 1 0 0] 0.25"
			"rotation" "0"
			"lightmapscale" "1"
			"smoothing_groups" "0"
		}
		side
		{
			"id" "1121"
			"plane" "(-452 -200 0) (-452 -196 0) (-480 -196 0)"
			"material" "METAL/CITADEL_METALWALL101B"
			"uaxis" "[1 0 0 0] 0.25"
			"vaxis" "[0 1 0 0] 0.25"
			"rotation" "0"
			"lightmapscale" "1"
			"smoothing_groups" "0"
		}
		side
		{
			"id" "1120"
			"plane" "(-452 -200 0) (-452 -200 160) (-452 -196 160)"
			"material" "METAL/CITADEL_METALWALL101B"
			"uaxis" "[0 1 0 0] 0.25"
			"vaxis" "[0 0 -1 0] 0.25"
			"rotation" "0"
			"lightmapscale" "16"
			"smoothing_groups" "0"
		}
		editor
		{
			"color" "0 213 110"
			"visgroupshown" "1"
			"visgroupautoshown" "1"
		}
	}
}
entity
{
	"id" "238"
	"classname" "info_player_start"
	"angles" "0 90 0"
	"origin" "-289.32 -572.918 1"
	editor
	{
		"color" "0 255 0"
		"visgroupshown" "1"
		"visgroupautoshown" "1"
		"logicalpos" "[0 13000]"
	}
}
entity
{
	"id" "448"
	"classname" "info_target"
	"angles" "0 0 0"
	"targetname" "gate_beam5"
	"origin" "-184 -224 224"
	editor
	{
		"color" "220 30 220"
		"visgroupshown" "1"
		"visgroupautoshown" "1"
		"logicalpos" "[0 500]"
	}
}
entity
{
	"id" "450"
	"classname" "info_target"
	"angles" "0 0 0"
	"targetname" "gate_beam3"
	"origin" "-168 -224 248"
	editor
	{
		"color" "220 30 220"
		"visgroupshown" "1"
		"visgroupautoshown" "1"
		"logicalpos" "[0 500]"
	}
}
entity
{
	"id" "452"
	"classname" "info_target"
	"angles" "0 0 0"
	"targetname" "gate_beam1"
	"origin" "-152 -224 272"
	editor
	{
		"color" "220 30 220"
		"visgroupshown" "1"
		"visgroupautoshown" "1"
		"logicalpos" "[0 500]"
	}
}
entity
{
	"id" "454"
	"classname" "info_target"
	"angles" "0 0 0"
	"targetname" "gate_beam2"
	"origin" "-496 -224 272"
	editor
	{
		"color" "220 30 220"
		"visgroupshown" "1"
		"visgroupautoshown" "1"
		"logicalpos" "[0 500]"
	}
}
entity
{
	"id" "456"
	"classname" "info_target"
	"angles" "0 0 0"
	"targetname" "gate_beam4"
	"origin" "-480 -224 248"
	editor
	{
		"color" "220 30 220"
		"visgroupshown" "1"
		"visgroupautoshown" "1"
		"logicalpos" "[0 500]"
	}
}
entity
{
	"id" "458"
	"classname" "info_target"
	"angles" "0 0 0"
	"targetname" "gate_beam6"
	"origin" "-480 -224 224"
	editor
	{
		"color" "220 30 220"
		"visgroupshown" "1"
		"visgroupautoshown" "1"
		"logicalpos" "[0 500]"
	}
}
entity
{
	"id" "460"
	"classname" "ambient_generic"
	"cspinup" "0"
	"fadeinsecs" "0"
	"fadeoutsecs" "0"
	"health" "6"
	"lfomodpitch" "0"
	"lfomodvol" "0"
	"lforate" "0"
	"lfotype" "0"
	"message" "ambient/areas/city/tower_tone.wav"
	"pitch" "100"
	"pitchstart" "100"
	"preset" "0"
	"radius" "1250"
	"soundflags" "0"
	"spawnflags" "48"
	"spindown" "0"
	"spinup" "0"
	"volstart" "0"
	"origin" "-326 -224 184"
	editor
	{
		"color" "220 30 220"
		"visgroupshown" "1"
		"visgroupautoshown" "1"
		"logicalpos" "[0 1000]"
	}
}
entity
{
	"id" "681"
	"classname" "env_beam"
	"BoltWidth" "1"
	"damage" "0"
	"decalname" "Bigshot"
	"framerate" "0"
	"framestart" "0"
	"HDRColorScale" "1.0"
	"life" "0"
	"LightningEnd" "gate_beam2"
	"LightningStart" "gate_beam1"
	"NoiseAmplitude" "4"
	"Radius" "256"
	"renderamt" "200"
	"rendercolor" "87 143 227"
	"renderfx" "0"
	"spawnflags" "1"
	"StrikeTime" "1"
	"texture" "sprites/bluelight1.vmt"
	"TextureScroll" "35"
	"TouchType" "0"
	connections
	{
		"" ",,,0,-1"
	}
	"origin" "-448 -352 32"
	editor
	{
		"color" "220 30 220"
		"visgroupshown" "1"
		"visgroupautoshown" "1"
		"logicalpos" "[0 0]"
	}
}
entity
{
	"id" "684"
	"classname" "env_beam"
	"BoltWidth" "1"
	"damage" "0"
	"decalname" "Bigshot"
	"framerate" "0"
	"framestart" "0"
	"HDRColorScale" "1.0"
	"life" "0"
	"LightningEnd" "gate_beam4"
	"LightningStart" "gate_beam3"
	"NoiseAmplitude" "4"
	"Radius" "256"
	"renderamt" "200"
	"rendercolor" "87 143 227"
	"renderfx" "0"
	"spawnflags" "1"
	"StrikeTime" "1"
	"texture" "sprites/bluelight1.vmt"
	"TextureScroll" "35"
	"TouchType" "0"
	"origin" "-448 -336 32"
	editor
	{
		"color" "220 30 220"
		"visgroupshown" "1"
		"visgroupautoshown" "1"
		"logicalpos" "[0 0]"
	}
}
entity
{
	"id" "687"
	"classname" "env_beam"
	"BoltWidth" "1"
	"damage" "0"
	"decalname" "Bigshot"
	"framerate" "0"
	"framestart" "0"
	"HDRColorScale" "1.0"
	"life" "0"
	"LightningEnd" "gate_beam6"
	"LightningStart" "gate_beam5"
	"NoiseAmplitude" "4"
	"Radius" "256"
	"renderamt" "200"
	"rendercolor" "87 143 227"
	"renderfx" "0"
	"spawnflags" "1"
	"StrikeTime" "1"
	"texture" "sprites/bluelight1.vmt"
	"TextureScroll" "35"
	"TouchType" "0"
	"origin" "-448 -320 32"
	editor
	{
		"color" "220 30 220"
		"visgroupshown" "1"
		"visgroupautoshown" "1"
		"logicalpos" "[0 0]"
	}
}
entity
{
	"id" "1122"
	"classname" "func_door"
	"disablereceiveshadows" "0"
	"disableshadows" "0"
	"dmg" "0"
	"forceclosed" "0"
	"health" "0"
	"ignoredebris" "0"
	"lip" "0"
	"loopmovesound" "0"
	"movedir" "0 0 0"
	"origin" "-464 -224 80"
	"renderamt" "255"
	"rendercolor" "255 255 255"
	"renderfx" "0"
	"rendermode" "0"
	"spawnflags" "1024"
	"spawnpos" "0"
	"speed" "100"
	"viewhideflags" "0"
	"wait" "4"
	solid
	{
		"id" "1114"
		side
		{
			"id" "1203"
			"plane" "(-480 -248 160) (-480 -248 0) (-480 -200 0)"
			"material" "METAL/CITADEL_METALWALL101B"
			"uaxis" "[0 1 0 0] 0.25"
			"vaxis" "[0 0 -1 0] 0.25"
			"rotation" "0"
			"lightmapscale" "1"
			"smoothing_groups" "0"
		}
		side
		{
			"id" "1202"
			"plane" "(-448 -248 0) (-480 -248 0) (-480 -248 160)"
			"material" "METAL/CITADEL_METALWALL101B"
			"uaxis" "[1 0 0 0] 0.25"
			"vaxis" "[0 0 -1 0] 0.25"
			"rotation" "0"
			"lightmapscale" "1"
			"smoothing_groups" "0"
		}
		side
		{
			"id" "1201"
			"plane" "(-480 -200 160) (-480 -200 0) (-448 -200 0)"
			"material" "METAL/CITADEL_METALWALL101B"
			"uaxis" "[1 0 0 0] 0.25"
			"vaxis" "[0 0 -1 0] 0.25"
			"rotation" "0"
			"lightmapscale" "1"
			"smoothing_groups" "0"
		}
		side
		{
			"id" "1200"
			"plane" "(-448 -200 0) (-480 -200 0) (-480 -248 0)"
			"material" "METAL/CITADEL_METALWALL101B"
			"uaxis" "[1 0 0 0] 0.25"
			"vaxis" "[0 -1 0 0] 0.25"
			"rotation" "0"
			"lightmapscale" "1"
			"smoothing_groups" "0"
		}
		side
		{
			"id" "1199"
			"plane" "(-448 -248 160) (-480 -248 160) (-480 -200 160)"
			"material" "METAL/CITADEL_METALWALL101B"
			"uaxis" "[1 0 0 0] 0.25"
			"vaxis" "[0 -1 0 0] 0.25"
			"rotation" "0"
			"lightmapscale" "1"
			"smoothing_groups" "0"
		}
		side
		{
			"id" "1198"
			"plane" "(-448 -200 160) (-448 -200 0) (-448 -248 0)"
			"material" "METAL/CITADEL_METALWALL101B"
			"uaxis" "[0 1 0 0] 0.25"
			"vaxis" "[0 0 -1 0] 0.25"
			"rotation" "0"
			"lightmapscale" "16"
			"smoothing_groups" "0"
		}
		editor
		{
			"color" "220 30 220"
			"visgroupshown" "1"
			"visgroupautoshown" "1"
		}
	}
	editor
	{
		"color" "220 30 220"
		"visgroupshown" "1"
		"visgroupautoshown" "1"
		"logicalpos" "[0 8500]"
	}
}
entity
{
	"id" "1126"
	"classname" "func_door"
	"disablereceiveshadows" "0"
	"disableshadows" "0"
	"dmg" "0"
	"forceclosed" "0"
	"health" "0"
	"ignoredebris" "0"
	"lip" "0"
	"loopmovesound" "0"
	"movedir" "0 0 0"
	"origin" "-432 -224 80"
	"renderamt" "255"
	"rendercolor" "255 255 255"
	"renderfx" "0"
	"rendermode" "0"
	"spawnflags" "1024"
	"spawnpos" "0"
	"speed" "100"
	"viewhideflags" "0"
	"wait" "4"
	solid
	{
		"id" "1127"
		side
		{
			"id" "1215"
			"plane" "(-448 -248 160) (-448 -248 0) (-448 -200 0)"
			"material" "METAL/CITADEL_METALWALL101B"
			"uaxis" "[0 1 0 0] 0.25"
			"vaxis" "[0 0 -1 0] 0.25"
			"rotation" "0"
			"lightmapscale" "1"
			"smoothing_groups" "0"
		}
		side
		{
			"id" "1214"
			"plane" "(-416 -248 0) (-448 -248 0) (-448 -248 160)"
			"material" "METAL/CITADEL_METALWALL101B"
			"uaxis" "[1 0 0 0] 0.25"
			"vaxis" "[0 0 -1 0] 0.25"
			"rotation" "0"
			"lightmapscale" "1"
			"smoothing_groups" "0"
		}
		side
		{
			"id" "1213"
			"plane" "(-448 -200 160) (-448 -200 0) (-416 -200 0)"
			"material" "METAL/CITADEL_METALWALL101B"
			"uaxis" "[1 0 0 0] 0.25"
			"vaxis" "[0 0 -1 0] 0.25"
			"rotation" "0"
			"lightmapscale" "1"
			"smoothing_groups" "0"
		}
		side
		{
			"id" "1212"
			"plane" "(-416 -200 0) (-448 -200 0) (-448 -248 0)"
			"material" "METAL/CITADEL_METALWALL101B"
			"uaxis" "[1 0 0 0] 0.25"
			"vaxis" "[0 -1 0 0] 0.25"
			"rotation" "0"
			"lightmapscale" "1"
			"smoothing_groups" "0"
		}
		side
		{
			"id" "1211"
			"plane" "(-416 -248 160) (-448 -248 160) (-448 -200 160)"
			"material" "METAL/CITADEL_METALWALL101B"
			"uaxis" "[1 0 0 0] 0.25"
			"vaxis" "[0 -1 0 0] 0.25"
			"rotation" "0"
			"lightmapscale" "1"
			"smoothing_groups" "0"
		}
		side
		{
			"id" "1210"
			"plane" "(-416 -200 160) (-416 -200 0) (-416 -248 0)"
			"material" "METAL/CITADEL_METALWALL101B"
			"uaxis" "[0 1 0 0] 0.25"
			"vaxis" "[0 0 -1 0] 0.25"
			"rotation" "0"
			"lightmapscale" "16"
			"smoothing_groups" "0"
		}
		editor
		{
			"color" "220 30 220"
			"visgroupshown" "1"
			"visgroupautoshown" "1"
		}
	}
	editor
	{
		"color" "220 30 220"
		"visgroupshown" "1"
		"visgroupautoshown" "1"
		"logicalpos" "[0 8500]"
	}
}
entity
{
	"id" "1129"
	"classname" "func_door"
	"disablereceiveshadows" "0"
	"disableshadows" "0"
	"dmg" "0"
	"forceclosed" "0"
	"health" "0"
	"ignoredebris" "0"
	"lip" "0"
	"loopmovesound" "0"
	"movedir" "0 0 0"
	"origin" "-400 -224 80"
	"renderamt" "255"
	"rendercolor" "255 255 255"
	"renderfx" "0"
	"rendermode" "0"
	"spawnflags" "1024"
	"spawnpos" "0"
	"speed" "100"
	"viewhideflags" "0"
	"wait" "4"
	solid
	{
		"id" "1130"
		side
		{
			"id" "1227"
			"plane" "(-416 -248 160) (-416 -248 0) (-416 -200 0)"
			"material" "METAL/CITADEL_METALWALL101B"
			"uaxis" "[0 1 0 0] 0.25"
			"vaxis" "[0 0 -1 0] 0.25"
			"rotation" "0"
			"lightmapscale" "1"
			"smoothing_groups" "0"
		}
		side
		{
			"id" "1226"
			"plane" "(-384 -248 0) (-416 -248 0) (-416 -248 160)"
			"material" "METAL/CITADEL_METALWALL101B"
			"uaxis" "[1 0 0 0] 0.25"
			"vaxis" "[0 0 -1 0] 0.25"
			"rotation" "0"
			"lightmapscale" "1"
			"smoothing_groups" "0"
		}
		side
		{
			"id" "1225"
			"plane" "(-416 -200 160) (-416 -200 0) (-384 -200 0)"
			"material" "METAL/CITADEL_METALWALL101B"
			"uaxis" "[1 0 0 0] 0.25"
			"vaxis" "[0 0 -1 0] 0.25"
			"rotation" "0"
			"lightmapscale" "1"
			"smoothing_groups" "0"
		}
		side
		{
			"id" "1224"
			"plane" "(-384 -200 0) (-416 -200 0) (-416 -248 0)"
			"material" "METAL/CITADEL_METALWALL101B"
			"uaxis" "[1 0 0 0] 0.25"
			"vaxis" "[0 -1 0 0] 0.25"
			"rotation" "0"
			"lightmapscale" "1"
			"smoothing_groups" "0"
		}
		side
		{
			"id" "1223"
			"plane" "(-384 -248 160) (-416 -248 160) (-416 -200 160)"
			"material" "METAL/CITADEL_METALWALL101B"
			"uaxis" "[1 0 0 0] 0.25"
			"vaxis" "[0 -1 0 0] 0.25"
			"rotation" "0"
			"lightmapscale" "1"
			"smoothing_groups" "0"
		}
		side
		{
			"id" "1222"
			"plane" "(-384 -200 160) (-384 -200 0) (-384 -248 0)"
			"material" "METAL/CITADEL_METALWALL101B"
			"uaxis" "[0 1 0 0] 0.25"
			"vaxis" "[0 0 -1 0] 0.25"
			"rotation" "0"
			"lightmapscale" "16"
			"smoothing_groups" "0"
		}
		editor
		{
			"color" "220 30 220"
			"visgroupshown" "1"
			"visgroupautoshown" "1"
		}
	}
	editor
	{
		"color" "220 30 220"
		"visgroupshown" "1"
		"visgroupautoshown" "1"
		"logicalpos" "[0 8500]"
	}
}
entity
{
	"id" "1132"
	"classname" "func_door"
	"disablereceiveshadows" "0"
	"disableshadows" "0"
	"dmg" "0"
	"forceclosed" "0"
	"health" "0"
	"ignoredebris" "0"
	"lip" "0"
	"loopmovesound" "0"
	"movedir" "0 0 0"
	"origin" "-364 -224 80"
	"renderamt" "255"
	"rendercolor" "255 255 255"
	"renderfx" "0"
	"rendermode" "0"
	"spawnflags" "1024"
	"spawnpos" "0"
	"speed" "100"
	"viewhideflags" "0"
	"wait" "4"
	solid
	{
		"id" "1133"
		side
		{
			"id" "1239"
			"plane" "(-384 -248 160) (-384 -248 0) (-384 -200 0)"
			"material" "METAL/CITADEL_METALWALL101B"
			"uaxis" "[0 1 0 0] 0.25"
			"vaxis" "[0 0 -1 0] 0.25"
			"rotation" "0"
			"lightmapscale" "1"
			"smoothing_groups" "0"
		}
		side
		{
			"id" "1238"
			"plane" "(-344 -248 0) (-384 -248 0) (-384 -248 160)"
			"material" "METAL/CITADEL_METALWALL101B"
			"uaxis" "[1 0 0 0] 0.25"
			"vaxis" "[0 0 -1 0] 0.25"
			"rotation" "0"
			"lightmapscale" "1"
			"smoothing_groups" "0"
		}
		side
		{
			"id" "1237"
			"plane" "(-384 -200 160) (-384 -200 0) (-344 -200 0)"
			"material" "METAL/CITADEL_METALWALL101B"
			"uaxis" "[1 0 0 0] 0.25"
			"vaxis" "[0 0 -1 0] 0.25"
			"rotation" "0"
			"lightmapscale" "1"
			"smoothing_groups" "0"
		}
		side
		{
			"id" "1236"
			"plane" "(-344 -200 0) (-384 -200 0) (-384 -248 0)"
			"material" "METAL/CITADEL_METALWALL101B"
			"uaxis" "[1 0 0 0] 0.25"
			"vaxis" "[0 -1 0 0] 0.25"
			"rotation" "0"
			"lightmapscale" "1"
			"smoothing_groups" "0"
		}
		side
		{
			"id" "1235"
			"plane" "(-344 -248 160) (-384 -248 160) (-384 -200 160)"
			"material" "METAL/CITADEL_METALWALL101B"
			"uaxis" "[1 0 0 0] 0.25"
			"vaxis" "[0 -1 0 0] 0.25"
			"rotation" "0"
			"lightmapscale" "1"
			"smoothing_groups" "0"
		}
		side
		{
			"id" "1234"
			"plane" "(-344 -200 160) (-344 -200 0) (-344 -248 0)"
			"material" "METAL/CITADEL_METALWALL101B"
			"uaxis" "[0 1 0 0] 0.25"
			"vaxis" "[0 0 -1 0] 0.25"
			"rotation" "0"
			"lightmapscale" "16"
			"smoothing_groups" "0"
		}
		editor
		{
			"color" "220 30 220"
			"visgroupshown" "1"
			"visgroupautoshown" "1"
		}
	}
	editor
	{
		"color" "220 30 220"
		"visgroupshown" "1"
		"visgroupautoshown" "1"
		"logicalpos" "[0 8500]"
	}
}
cameras
{
	"activecamera" "-1"
}
cordon
{
	"mins" "(-1024 -1024 -1024)"
	"maxs" "(1024 1024 1024)"
	"active" "0"
}
