// Created by Crowbar 0.68

$modelname "Humans\group01\Female_06.mdl"

$model "female_06" "female_06_head_reference.smd" {

	eyeball "eye_right" "ValveBiped.Bip01_Head1" -1.278000 -3.615999 65.066011 "eyeball_r" 1 4 "iris_unused" 0.66
	eyeball "eye_left" "ValveBiped.Bip01_Head1" 1.282000 -3.615999 65.064012 "eyeball_l" 1 -4 "iris_unused" 0.66

	eyelid upper_right "female_06_01.vta" lowerer 12 -0.23 neutral 0 0.15 raiser 0 0.26 split 1 eyeball "eye_right"
	eyelid lower_right "female_06_01.vta" lowerer 0 -0.29 neutral 0 -0.2 raiser 13 -0.05 split 1 eyeball "eye_right"
	eyelid upper_left "female_06_01.vta" lowerer 10 -0.23 neutral 0 0.15 raiser 0 0.26 split -1 eyeball "eye_left"
	eyelid lower_left "female_06_01.vta" lowerer 0 -0.29 neutral 0 -0.2 raiser 11 -0.05 split -1 eyeball "eye_left"

	mouth 0 "mouth" "ValveBiped.Bip01_Head1" 0 1 0

	flexfile "female_06_01.vta" 
	{
		defaultflex frame 0
		flex "AU42" frame 1
		flexpair "AU1" 1 frame 2
		flexpair "AU2" 1 frame 3
		flexpair "AU4" 1 frame 4
		flexpair "AU1AU2" 1 frame 5
		flexpair "AU12" 1 frame 6
		flex "AU12AU25" frame 7
		flexpair "AU6" 1 frame 8
		flexpair "AU9" 1 frame 9
		// Already in eyelid lines: flex "upper_left" frame 10
		// Already in eyelid lines: flex "lower_left" frame 11
		// Already in eyelid lines: flex "upper_right" frame 12
		// Already in eyelid lines: flex "lower_right" frame 13
		flexpair "AU15" 1 frame 14
		flexpair "AU17" 1 frame 15
		flexpair "AU10" 1 frame 16
		flex "AU16" frame 17
		flexpair "AU25" 1 frame 18
		flexpair "AU18" 1 frame 19
		flexpair "AU22" 1 frame 20
		flexpair "AU20" 1 frame 21
		flex "AU32" frame 22
		flex "AU24" frame 23
		flex "AU38" frame 24
		flex "AU31" frame 25
		flexpair "AU26" 1 frame 26
		flexpair "AU27" 1 frame 27
		flexpair "AU26Z" 1 frame 28
		flexpair "AU27Z" 1 frame 29
	}

	flexcontroller eyelid range 0 1 "right_lid_raiser"
	flexcontroller eyelid range 0 1 "left_lid_raiser"
	flexcontroller eyelid range 0 1 "right_lid_tightener"
	flexcontroller eyelid range 0 1 "left_lid_tightener"
	flexcontroller eyelid range 0 1 "right_lid_droop"
	flexcontroller eyelid range 0 1 "left_lid_droop"
	flexcontroller eyelid range 0 1 "right_lid_closer"
	flexcontroller eyelid range 0 1 "left_lid_closer"
	flexcontroller eyelid range 0 1 "half_closed"
	flexcontroller eyelid range 0 1 "blink"
	flexcontroller brow range 0 1 "right_inner_raiser"
	flexcontroller brow range 0 1 "left_inner_raiser"
	flexcontroller brow range 0 1 "right_outer_raiser"
	flexcontroller brow range 0 1 "left_outer_raiser"
	flexcontroller brow range 0 1 "right_lowerer"
	flexcontroller brow range 0 1 "left_lowerer"
	flexcontroller nose range 0 1 "right_cheek_raiser"
	flexcontroller nose range 0 1 "left_cheek_raiser"
	flexcontroller nose range 0 1 "wrinkler"
	flexcontroller nose range 0 1 "dilator"
	flexcontroller mouth range 0 1 "right_upper_raiser"
	flexcontroller mouth range 0 1 "left_upper_raiser"
	flexcontroller mouth range 0 1 "right_corner_puller"
	flexcontroller mouth range 0 1 "left_corner_puller"
	flexcontroller mouth range 0 1 "right_corner_depressor"
	flexcontroller mouth range 0 1 "left_corner_depressor"
	flexcontroller mouth range 0 1 "chin_raiser"
	flexcontroller phoneme range 0 1 "right_part"
	flexcontroller phoneme range 0 1 "left_part"
	flexcontroller phoneme range 0 1 "right_puckerer"
	flexcontroller phoneme range 0 1 "left_puckerer"
	flexcontroller phoneme range 0 1 "right_funneler"
	flexcontroller phoneme range 0 1 "left_funneler"
	flexcontroller phoneme range 0 1 "right_stretcher"
	flexcontroller phoneme range 0 1 "left_stretcher"
	flexcontroller phoneme range 0 1 "bite"
	flexcontroller phoneme range 0 1 "presser"
	flexcontroller phoneme range 0 1 "tightener"
	flexcontroller phoneme range 0 1 "jaw_clencher"
	flexcontroller phoneme range 0 1 "jaw_drop"
	flexcontroller phoneme range 0 1 "right_mouth_drop"
	flexcontroller phoneme range 0 1 "left_mouth_drop"
	flexcontroller mouth range 0 1 "smile"
	flexcontroller mouth range 0 1 "lower_lip"
	flexcontroller head range 0 1 "head_rightleft"
	flexcontroller head range 0 1 "head_updown"
	flexcontroller head range 0 1 "head_tilt"
	flexcontroller eyes range 0 1 "eyes_updown"
	flexcontroller eyes range 0 1 "eyes_rightleft"
	flexcontroller body range 0 1 "body_rightleft"
	flexcontroller chest range 0 1 "chest_rightleft"
	flexcontroller head range 0 1 "head_forwardback"
	flexcontroller gesture range 0 1 "gesture_updown"
	flexcontroller gesture range 0 1 "gesture_rightleft"

	localvar right_open
	localvar left_open
	localvar right_lip_suppressor
	localvar left_lip_suppressor
	localvar right_depressor_suppressor
	localvar left_depressor_suppressor
	localvar right_corner_suppressor
	localvar left_corner_suppressor
	localvar right_drop_suppressor
	localvar left_drop_suppressor
	localvar right_drop
	localvar left_drop
	%upper_right_raiser = right_lid_raiser * (1 - right_lid_droop * 0.8) * (1 - right_lid_closer) * (1 - blink)
	%upper_right_neutral = (1 - right_lid_droop * 0.8) * (1 - right_lid_raiser) * (1 - right_lid_closer) * (1 - blink)
	%upper_right_lowerer = right_lid_closer + blink * (1 - right_lid_closer)
	%upper_left_raiser = left_lid_raiser * (1 - left_lid_droop * 0.8) * (1 - left_lid_closer) * (1 - blink)
	%upper_left_neutral = (1 - left_lid_droop * 0.8) * (1 - left_lid_raiser) * (1 - left_lid_closer) * (1 - blink)
	%upper_left_lowerer = left_lid_closer + blink * (1 - left_lid_closer)
	%lower_right_raiser = right_lid_closer + blink * 0.5 * (1 - right_lid_closer)
	%lower_right_neutral = (1 - right_lid_closer) * (1 - 0.5 * blink) * (1 - right_lid_tightener * 0.5) * (1 - right_cheek_raiser * 0.25)
	%lower_right_lowerer = 0
	%lower_left_raiser = left_lid_closer + blink * 0.5 * (1 - left_lid_closer)
	%lower_left_neutral = (1 - left_lid_closer) * (1 - 0.5 * blink) * (1 - left_lid_tightener * 0.5) * (1 - left_cheek_raiser * 0.25)
	%lower_left_lowerer = 0
	%AU1R = right_inner_raiser * (1 - right_outer_raiser) * (1 - right_lowerer)
	%AU1L = left_inner_raiser * (1 - left_outer_raiser) * (1 - left_lowerer)
	%AU2R = right_outer_raiser * (1 - right_inner_raiser) * (1 - right_lowerer)
	%AU2L = left_outer_raiser * (1 - left_inner_raiser) * (1 - left_lowerer)
	%AU1AU2R = right_inner_raiser * right_outer_raiser * (1 - right_lowerer)
	%AU1AU2L = left_inner_raiser * left_outer_raiser * (1 - left_lowerer)
	%AU4R = right_lowerer
	%AU4L = left_lowerer
	%AU6R = right_cheek_raiser
	%AU6L = left_cheek_raiser
	%AU9R = wrinkler
	%AU9L = wrinkler
	%AU38 = dilator
	%right_open = smile + right_part * (1 - smile) + right_puckerer + right_funneler + right_upper_raiser * 0.5 + lower_lip * 0.5
	%left_open = smile + left_part * (1 - smile) + left_puckerer + left_funneler + left_upper_raiser * 0.5 + lower_lip * 0.5
	%right_lip_suppressor = 1 / %right_open * (1 - presser) * (1 - bite)
	%left_lip_suppressor = 1 / %left_open * (1 - presser) * (1 - bite)
	%AU10R = right_upper_raiser * right_upper_raiser * 0.5 * %right_lip_suppressor
	%AU10L = left_upper_raiser * left_upper_raiser * 0.5 * %left_lip_suppressor
	%AU25R = right_part * right_part * %right_lip_suppressor * (1 - smile)
	%AU25L = left_part * left_part * %left_lip_suppressor * (1 - smile)
	%AU12AU25 = smile * smile * 0.5 * (%right_lip_suppressor + %left_lip_suppressor)
	%AU18R = right_puckerer * right_puckerer * %right_lip_suppressor
	%AU18L = left_puckerer * left_puckerer * %left_lip_suppressor
	%AU22R = right_funneler * right_funneler * %right_lip_suppressor
	%AU22L = left_funneler * left_funneler * %left_lip_suppressor
	%AU17R = chin_raiser * (1 - jaw_drop * 0.5) * (1 - bite) * (1 - 0.6 * (%AU25R + %AU18R + %AU22R)) * (1 - smile)
	%AU17L = chin_raiser * (1 - jaw_drop * 0.5) * (1 - bite) * (1 - 0.6 * (%AU25L + %AU18L + %AU22L)) * (1 - smile)
	%right_depressor_suppressor = 1 / (%AU18R * 0.8 + %AU22R * 0.8 + %AU17R + bite + right_corner_puller + right_stretcher + right_corner_depressor) * (1 - jaw_drop * 0.5) * (1 - smile * 0.5)
	%left_depressor_suppressor = 1 / (%AU18L * 0.8 + %AU22L * 0.8 + %AU17L + bite + left_corner_puller + left_stretcher + left_corner_depressor) * (1 - jaw_drop * 0.5) * (1 - smile * 0.5)
	%AU15R = right_corner_depressor * right_corner_depressor * %right_depressor_suppressor
	%AU15L = left_corner_depressor * left_corner_depressor * %left_depressor_suppressor
	%right_corner_suppressor = 1 / (%AU18R * 0.8 + %AU22R * 0.8 + %AU17R + bite + right_corner_puller + right_stretcher + right_corner_depressor) * (1 - jaw_drop * 0.5) * (1 - smile)
	%left_corner_suppressor = 1 / (%AU18L * 0.8 + %AU22L * 0.8 + %AU17L + bite + left_corner_puller + left_stretcher + left_corner_depressor) * (1 - jaw_drop * 0.5) * (1 - smile)
	%AU12R = right_corner_puller * right_corner_puller * %right_corner_suppressor
	%AU12L = left_corner_puller * left_corner_puller * %left_corner_suppressor
	%AU20R = right_stretcher * right_stretcher * %right_corner_suppressor
	%AU20L = left_stretcher * left_stretcher * %left_corner_suppressor
	%AU32 = bite
	%AU24 = presser + (1 - presser) * tightener
	%AU31 = jaw_clencher * jaw_clencher / (jaw_clencher + jaw_drop)
	%right_drop_suppressor = 1 / (0.5 * %right_open + right_mouth_drop) * (1 - presser) * (1 - bite)
	%left_drop_suppressor = 1 / (0.5 * %left_open + left_mouth_drop) * (1 - presser) * (1 - bite)
	%right_drop = right_mouth_drop * right_mouth_drop * %right_drop_suppressor
	%left_drop = left_mouth_drop * left_mouth_drop * %left_drop_suppressor
	%AU26R = jaw_drop * (1 - %right_drop) * jaw_drop / (jaw_clencher + jaw_drop)
	%AU26L = jaw_drop * (1 - %left_drop) * jaw_drop / (jaw_clencher + jaw_drop)
	%AU27R = jaw_drop * %right_drop * jaw_drop / (jaw_clencher + jaw_drop)
	%AU27L = jaw_drop * %left_drop * jaw_drop / (jaw_clencher + jaw_drop)
	%AU16 = lower_lip * lower_lip * 0.25 * (%right_lip_suppressor + %left_lip_suppressor) * (1 - 0.5 * (%AU27R + %AU27L))
	%mouth = %AU27R * 0.5 + %AU27L * 0.5 + %AU22R * 0.35 + %AU22L * 0.35 + %AU18R * 0.25 + %AU18L * 0.25 + %AU25R * 0.35 + %AU25L * 0.35 + %AU32 * 0.5 + %AU12AU25 + (%AU27ZR + %AU27ZL) * 0.5 * 0.7 + %AU16 * 0.4
}
$bodygroup "female_06"
{
	studio "female_body_reference.smd"
}


$surfaceprop "flesh"

$contents "solid"

$illumposition 1.165 0 34.222

$eyeposition 0 0 70

$cdmaterials "models\citizen\city\"
$cdmaterials "models\Humans\male\group01\"
$cdmaterials "models\Humans\Female\"
$cdmaterials "models\Humans\Female\Group01\"

$attachment "eyes" "ValveBiped.Bip01_Head1" 2.7 -4.03 0 rotate 0 -80.1 -90
$attachment "mouth" "ValveBiped.Bip01_Head1" 0.1 -5.7 0 rotate 0 -80 -90
$attachment "chest" "ValveBiped.Bip01_Spine2" 4 4 0 rotate 0 95 90
$attachment "forward" "ValveBiped.forward" 0 0 0 rotate 0 0 0
$attachment "anim_attachment_RH" "ValveBiped.Anim_Attachment_RH" 0 0 0 rotate -90 -90 0
$attachment "anim_attachment_LH" "ValveBiped.Anim_Attachment_LH" 0 0 0 rotate -90 -90 0

$cbox 0 0 0 0 0 0

$bbox -6.13 -21.53 -1.315 6.755 21.827 71.098

$hboxset "default"
$hbox 1 "ValveBiped.Bip01_Head1" -2.25 -5 -3.15 7.25 5 3.35
$hbox 4 "ValveBiped.Bip01_L_UpperArm" -0.81 -2.25 -3.05 11.19 2.75 1.2
$hbox 4 "ValveBiped.Bip01_L_Forearm" -1.25 -1.88 -2 11.75 1.62 1
$hbox 4 "ValveBiped.Bip01_L_Hand" 0 -1.07 -1.5 6 0.68 3
$hbox 5 "ValveBiped.Bip01_R_UpperArm" -1.5 -2.25 -1.25 11.5 2.75 2.75
$hbox 5 "ValveBiped.Bip01_R_Forearm" -0.82 -1.9 -1.15 11.18 1.6 1.85
$hbox 5 "ValveBiped.Bip01_R_Hand" -0.5 -1.13 -3.25 5.5 0.63 1.75
$hbox 6 "ValveBiped.Bip01_L_Thigh" 0.5 -3.5 -3.25 17.5 4.5 3.25
$hbox 6 "ValveBiped.Bip01_L_Calf" 0.74 -2.35 -2.15 17.74 3.65 2.35
$hbox 6 "ValveBiped.Bip01_L_Foot" -2 -1.8 -1.45 6 3.2 2.05
$hbox 6 "ValveBiped.Bip01_L_Toe0" -0.17 -1.5 -1.3 2.57 0.3 1.7
$hbox 7 "ValveBiped.Bip01_R_Thigh" 0.5 -3.5 -3 17.5 4.5 3
$hbox 7 "ValveBiped.Bip01_R_Calf" 0.74 -2.35 -2.35 17.74 3.65 2.15
$hbox 7 "ValveBiped.Bip01_R_Foot" -2 -1.75 -2.15 6 3.25 1.35
$hbox 7 "ValveBiped.Bip01_R_Toe0" 0 -1.38 -1.63 2.74 0.38 1.63
$hbox 3 "ValveBiped.Bip01_Pelvis" -5.25 -3.88 -6.25 5.75 4.12 3.75
$hbox 3 "ValveBiped.Bip01_Spine1" -4.5 -2 -4.98 3.5 6 4.97
$hbox 2 "ValveBiped.Bip01_Spine2" -0.5 -2.5 -6 10.5 7.5 6
$skipboneinbbox

$definebone "ValveBiped.Bip01_Pelvis" "" -0.000005 -0.78846 37.913784 0 0 89.999982 0 0 0 0 0 0
$definebone "ValveBiped.Bip01_Spine" "ValveBiped.Bip01_Pelvis" 0.000005 4.212784 -1.689857 -1.602964 89.999982 89.999982 0 0 0 0 0 0
$definebone "ValveBiped.Bip01_Spine1" "ValveBiped.Bip01_Spine" 3.837408 0 0 0 -6.452307 0 0 0 0 0 0 0
$definebone "ValveBiped.Bip01_Spine2" "ValveBiped.Bip01_Spine1" 3.617872 0 0 0 -0.723932 0 0 0 0 0 0 0
$definebone "ValveBiped.Bip01_Spine4" "ValveBiped.Bip01_Spine2" 7.539783 0 0 0 8.927427 0 0 0 0 0 0 0
$definebone "ValveBiped.Bip01_Neck1" "ValveBiped.Bip01_Spine4" 3.178296 0 0 0 12.841532 179.999855 0 0 0 0 0 0
$definebone "ValveBiped.Bip01_Head1" "ValveBiped.Bip01_Neck1" 2.970273 -0.000001 0 0 6.29566 0 0 0 0 0 0 0
$definebone "ValveBiped.forward" "ValveBiped.Bip01_Head1" 0.000001 0 0 0 -75.999986 -89.999982 0 0 0 0 0 0
$definebone "ValveBiped.Bip01_L_Clavicle" "ValveBiped.Bip01_Spine4" 2.023707 0.90746 0.852579 -76.440342 166.164337 93.870917 0 0 0 0 0 0
$definebone "ValveBiped.Bip01_L_UpperArm" "ValveBiped.Bip01_L_Clavicle" 4.983668 -0.000006 -0.000001 13.809086 -43.17936 -87.04598 0 0 0 0 0 0
$definebone "ValveBiped.Bip01_L_Forearm" "ValveBiped.Bip01_L_UpperArm" 11.123063 -0.000001 -0.000005 0 -11.662212 0 0 0 0 0 0 0
$definebone "ValveBiped.Bip01_L_Hand" "ValveBiped.Bip01_L_Forearm" 11.208311 -0.000002 -0.000008 -2.211901 2.080008 86.253992 0 0 0 0 0 0
$definebone "ValveBiped.Anim_Attachment_LH" "ValveBiped.Bip01_L_Hand" 2.67609 -1.712449 0 -0.000018 90.000023 90.000016 0 0 0 0 0 0
$definebone "ValveBiped.Bip01_R_Clavicle" "ValveBiped.Bip01_Spine4" 2.023711 0.907462 -0.852528 76.440513 166.163818 -97.982465 0 0 0 0 0 0
$definebone "ValveBiped.Bip01_R_UpperArm" "ValveBiped.Bip01_R_Clavicle" 4.983665 -0.000004 0 -10.977415 -43.834938 90.098473 0 0 0 0 0 0
$definebone "ValveBiped.Bip01_R_Forearm" "ValveBiped.Bip01_R_UpperArm" 11.123055 0.000001 0.00001 -0.000001 -11.660149 0 0 0 0 0 0 0
$definebone "ValveBiped.Bip01_R_Hand" "ValveBiped.Bip01_R_Forearm" 11.208299 -0.000001 0.000008 2.211388 2.08001 -85.770066 0 0 0 0 0 0
$definebone "ValveBiped.Anim_Attachment_RH" "ValveBiped.Bip01_R_Hand" 2.676092 -1.712447 0 0.000001 -89.999927 -89.999982 0 0 0 0 0 0
$definebone "ValveBiped.Bip01_L_Thigh" "ValveBiped.Bip01_Pelvis" 3.984014 -0.000004 -0.000003 2.966031 -92.308197 -89.999982 0 0 0 0 0 0
$definebone "ValveBiped.Bip01_L_Calf" "ValveBiped.Bip01_L_Thigh" 15.940014 0 0 0 2.959556 0 0 0 0 0 0 0
$definebone "ValveBiped.Bip01_L_Foot" "ValveBiped.Bip01_L_Calf" 17.709562 0 0 -4.013857 -67.334914 0.980102 0 0 0 0 0 0
$definebone "ValveBiped.Bip01_R_Thigh" "ValveBiped.Bip01_Pelvis" -3.984013 0.000007 0.000007 2.966031 -87.691938 -89.999982 0 0 0 0 0 0
$definebone "ValveBiped.Bip01_R_Calf" "ValveBiped.Bip01_R_Thigh" 15.940012 0 0 0 2.959557 0 0 0 0 0 0 0
$definebone "ValveBiped.Bip01_R_Foot" "ValveBiped.Bip01_R_Calf" 17.709553 0 0 4.012424 -67.504057 -0.366464 0 0 0 0 0 0
$definebone "ValveBiped.Bip01_L_Finger4" "ValveBiped.Bip01_L_Hand" 3.549247 0.198817 -1.489469 21.265155 0.597192 -12.14155 0 0 0 0 0 0
$definebone "ValveBiped.Bip01_L_Finger41" "ValveBiped.Bip01_L_Finger4" 1.218999 -0.000003 0.000001 5.585305 -21.005724 -0.264248 0 0 0 0 0 0
$definebone "ValveBiped.Bip01_L_Finger42" "ValveBiped.Bip01_L_Finger41" 0.68 0.000001 0 4.98347 -9.905292 0.651109 0 0 0 0 0 0
$definebone "ValveBiped.Bip01_L_Finger3" "ValveBiped.Bip01_L_Hand" 3.698007 0.26755 -0.728978 14.909618 -7.176069 -4.669951 0 0 0 0 0 0
$definebone "ValveBiped.Bip01_L_Finger31" "ValveBiped.Bip01_L_Finger3" 1.749003 -0.000004 0 1.552369 -10.895538 0.012204 0 0 0 0 0 0
$definebone "ValveBiped.Bip01_L_Finger32" "ValveBiped.Bip01_L_Finger31" 0.960001 -0.000007 0 2.257565 -13.628773 0.133214 0 0 0 0 0 0
$definebone "ValveBiped.Bip01_L_Finger2" "ValveBiped.Bip01_L_Hand" 3.768502 0.152543 0.071385 1.624106 -0.19687 5.042315 0 0 0 0 0 0
$definebone "ValveBiped.Bip01_L_Finger21" "ValveBiped.Bip01_L_Finger2" 2.038005 0.000002 0 -0.250154 -32.972571 0.086746 0 0 0 0 0 0
$definebone "ValveBiped.Bip01_L_Finger22" "ValveBiped.Bip01_L_Finger21" 1.066996 0.000006 0 -0.324982 -5.671933 -0.071333 0 0 0 0 0 0
$definebone "ValveBiped.Bip01_L_Finger1" "ValveBiped.Bip01_L_Hand" 3.783923 -0.017266 0.794555 -12.383853 3.59078 16.23642 0 0 0 0 0 0
$definebone "ValveBiped.Bip01_L_Finger11" "ValveBiped.Bip01_L_Finger1" 1.629 -0.000006 0.000001 -3.819796 -26.858717 1.078938 0 0 0 0 0 0
$definebone "ValveBiped.Bip01_L_Finger12" "ValveBiped.Bip01_L_Finger11" 0.955999 0.000002 0 -3.994663 -9.741884 0.000002 0 0 0 0 0 0
$definebone "ValveBiped.Bip01_L_Finger0" "ValveBiped.Bip01_L_Hand" 1.258964 -0.297986 1.252591 -30.375125 -37.494586 -73.854719 0 0 0 0 0 0
$definebone "ValveBiped.Bip01_L_Finger01" "ValveBiped.Bip01_L_Finger0" 1.393002 0.000004 0 0.115965 -2.497465 0 0 0 0 0 0 0
$definebone "ValveBiped.Bip01_L_Finger02" "ValveBiped.Bip01_L_Finger01" 1.100001 -0.000001 -0.000003 0.752235 -16.433288 0.000001 0 0 0 0 0 0
$definebone "ValveBiped.Bip01_L_Ulna" "ValveBiped.Bip01_L_Forearm" 5.604148 0 -0.000006 0 -0.000001 -1.769064 0 0 0 0 0 0
$definebone "ValveBiped.Bip01_L_Wrist" "ValveBiped.Bip01_L_Forearm" 11.208295 -0.000004 -0.000012 0 -0.000001 -3.296971 0 0 0 0 0 0
$definebone "ValveBiped.Bip01_L_Bicep" "ValveBiped.Bip01_L_UpperArm" 5.560003 -0.700002 -0.500004 0 -0.000001 0 0 0 0 0 0 0
$definebone "ValveBiped.Bip01_L_Shoulder" "ValveBiped.Bip01_L_UpperArm" 1.500001 0 0 0 -0.000001 0 0 0 0 0 0 0
$definebone "ValveBiped.Bip01_L_Trapezius" "ValveBiped.Bip01_L_Clavicle" 4.271699 -0.000001 -0.000001 0 -0.000002 0 0 0 0 0 0 0
$definebone "ValveBiped.Bip01_R_Finger4" "ValveBiped.Bip01_R_Hand" 3.549273 0.211405 1.487673 -21.265157 0.597136 12.14155 0 0 0 0 0 0
$definebone "ValveBiped.Bip01_R_Finger41" "ValveBiped.Bip01_R_Finger4" 1.218998 -0.000005 0.000004 -5.585308 -21.005724 0.264251 0 0 0 0 0 0
$definebone "ValveBiped.Bip01_R_Finger42" "ValveBiped.Bip01_R_Finger41" 0.679999 -0.000001 0 -4.983472 -9.905293 -0.651106 0 0 0 0 0 0
$definebone "ValveBiped.Bip01_R_Finger3" "ValveBiped.Bip01_R_Hand" 3.698025 0.273707 0.726626 -14.909623 -7.176067 4.669951 0 0 0 0 0 0
$definebone "ValveBiped.Bip01_R_Finger31" "ValveBiped.Bip01_R_Finger3" 1.748998 -0.000006 0.000002 -1.552372 -10.895538 -0.012202 0 0 0 0 0 0
$definebone "ValveBiped.Bip01_R_Finger32" "ValveBiped.Bip01_R_Finger31" 0.959998 -0.000003 0 -2.257569 -13.628778 -0.133211 0 0 0 0 0 0
$definebone "ValveBiped.Bip01_R_Finger2" "ValveBiped.Bip01_R_Hand" 3.7685 0.15195 -0.07274 -1.624107 -0.196926 -5.042315 0 0 0 0 0 0
$definebone "ValveBiped.Bip01_R_Finger21" "ValveBiped.Bip01_R_Finger2" 2.038002 -0.000005 0 0.250153 -32.972574 -0.086744 0 0 0 0 0 0
$definebone "ValveBiped.Bip01_R_Finger22" "ValveBiped.Bip01_R_Finger21" 1.066996 -0.000001 0 0.324981 -5.671881 0.071335 0 0 0 0 0 0
$definebone "ValveBiped.Bip01_R_Finger1" "ValveBiped.Bip01_R_Hand" 3.783905 -0.023955 -0.794452 12.383854 3.590726 -16.23642 0 0 0 0 0 0
$definebone "ValveBiped.Bip01_R_Finger11" "ValveBiped.Bip01_R_Finger1" 1.628999 0.000003 -0.000001 3.819796 -26.858718 -1.078937 0 0 0 0 0 0
$definebone "ValveBiped.Bip01_R_Finger12" "ValveBiped.Bip01_R_Finger11" 0.956 -0.000003 0 3.994663 -9.741887 0 0 0 0 0 0 0
$definebone "ValveBiped.Bip01_R_Finger0" "ValveBiped.Bip01_R_Hand" 1.25894 -0.308547 -1.250054 30.375132 -37.494586 73.854719 0 0 0 0 0 0
$definebone "ValveBiped.Bip01_R_Finger01" "ValveBiped.Bip01_R_Finger0" 1.392999 0 -0.000002 -0.115966 -2.497471 -0.000001 0 0 0 0 0 0
$definebone "ValveBiped.Bip01_R_Finger02" "ValveBiped.Bip01_R_Finger01" 1.100001 0.000002 0.000003 -0.752237 -16.43329 -0.000001 0 0 0 0 0 0
$definebone "ValveBiped.Bip01_R_Ulna" "ValveBiped.Bip01_R_Forearm" 5.604146 -0.000001 -0.000002 -0.000057 0.000001 2.001341 0 0 0 0 0 0
$definebone "ValveBiped.Bip01_R_Wrist" "ValveBiped.Bip01_R_Forearm" 11.208297 -0.000001 0.000004 -0.000057 0.000001 3.734023 0 0 0 0 0 0
$definebone "ValveBiped.Bip01_R_Shoulder" "ValveBiped.Bip01_R_UpperArm" 1.499997 0 0 -0.000002 0.000001 -0.000001 0 0 0 0 0 0
$definebone "ValveBiped.Bip01_R_Bicep" "ValveBiped.Bip01_R_UpperArm" 5.560003 -0.7 0.500008 -0.000002 0.000001 -0.000001 0 0 0 0 0 0
$definebone "ValveBiped.Bip01_R_Trapezius" "ValveBiped.Bip01_R_Clavicle" 4.271698 -0.000003 0 0 -0.000002 0 0 0 0 0 0 0
$definebone "ValveBiped.Bip01_L_Latt" "ValveBiped.Bip01_Spine2" 2.132026 1.532023 5 0 0 0 0 0 0 0 0 0
$definebone "ValveBiped.Bip01_L_Pectoral" "ValveBiped.Bip01_Spine2" 2.000002 4.938048 2.578 0 0 0 0 0 0 0 0 0
$definebone "ValveBiped.Bip01_R_Pectoral" "ValveBiped.Bip01_Spine2" 2.000008 4.938046 -2.578 0 0 0 0 0 0 0 0 0
$definebone "ValveBiped.Bip01_R_Latt" "ValveBiped.Bip01_Spine2" 2.132023 1.532021 -5 0 0 0 0 0 0 0 0 0
$definebone "ValveBiped.Bip01_L_Toe0" "ValveBiped.Bip01_L_Foot" 6.203997 0.000001 0 0.053514 -28.677396 -0.638618 0 0 0 0 0 0
$definebone "ValveBiped.Bip01_R_Toe0" "ValveBiped.Bip01_R_Foot" 6.203991 0.000003 0 -0.354374 -28.587332 -4.506313 0 0 0 0 0 0


$ikchain "rhand" "ValveBiped.Bip01_R_Hand" knee 0.707 0.707 0
$ikchain "lhand" "ValveBiped.Bip01_L_Hand" knee 0.707 0.707 0
$ikchain "rfoot" "ValveBiped.Bip01_R_Foot" knee 0.707 -0.707 0
$ikchain "lfoot" "ValveBiped.Bip01_L_Foot" knee 0.707 -0.707 0

$sequence "ragdoll" {
	"female_06_anims\ragdoll.smd"
	activity "ACT_DIERAGDOLL" 1
	fadein 0.2
	fadeout 0.2
	fps 30
	ikrule "rhand" release contact 0 fakeorigin 0 0 0 fakerotate 0 0 0 floor 0 height 0 radius 0 range 0 0 0 0 target 0
	ikrule "lhand" release contact 0 fakeorigin 0 0 0 fakerotate 0 0 0 floor 0 height 0 radius 0 range 0 0 0 0 target 1
	ikrule "rfoot" release contact 0 fakeorigin 0 0 0 fakerotate 0 0 0 floor 0 height 0 radius 0 range 0 0 0 0 target 2
	ikrule "lfoot" release contact 0 fakeorigin 0 0 0 fakerotate 0 0 0 floor 0 height 0 radius 0 range 0 0 0 0 target 3
}

$includemodel "humans/female_shared.mdl"
$includemodel "humans/female_ss.mdl"
$includemodel "humans/female_gestures.mdl"
$includemodel "humans/female_postures.mdl"

$collisionjoints "female_06_physics.smd"
{
	$mass 0
	$inertia 10
	$damping 0.01
	$rotdamping 1.5


	$jointconstrain "ValveBiped.Bip01_R_Thigh" x limit -12 12 0
	$jointconstrain "ValveBiped.Bip01_R_Thigh" y limit -8 75 0
	$jointconstrain "ValveBiped.Bip01_R_Thigh" z limit -97 32 0

	$jointconstrain "ValveBiped.Bip01_R_Calf" x limit 0 0 0
	$jointconstrain "ValveBiped.Bip01_R_Calf" y limit 0 0 0
	$jointconstrain "ValveBiped.Bip01_R_Calf" z limit -12 126 0

	$jointconstrain "ValveBiped.Bip01_L_Thigh" x limit -12 12 0
	$jointconstrain "ValveBiped.Bip01_L_Thigh" y limit -73 6 0
	$jointconstrain "ValveBiped.Bip01_L_Thigh" z limit -93 30 0

	$jointconstrain "ValveBiped.Bip01_L_Calf" x limit 0 0 0
	$jointconstrain "ValveBiped.Bip01_L_Calf" y limit 0 0 0
	$jointconstrain "ValveBiped.Bip01_L_Calf" z limit -8 126 0

	$jointconstrain "ValveBiped.Bip01_L_Foot" x limit 0 0 0
	$jointconstrain "ValveBiped.Bip01_L_Foot" y limit -19 19 0
	$jointconstrain "ValveBiped.Bip01_L_Foot" z limit -15 35 0

	$jointconstrain "ValveBiped.Bip01_Spine2" x limit -48 48 0
	$jointconstrain "ValveBiped.Bip01_Spine2" y limit -25 25 0
	$jointconstrain "ValveBiped.Bip01_Spine2" z limit -25 50 0

	$jointconstrain "ValveBiped.Bip01_R_UpperArm" x limit -39 39 0
	$jointconstrain "ValveBiped.Bip01_R_UpperArm" y limit -79 95 0
	$jointconstrain "ValveBiped.Bip01_R_UpperArm" z limit -93 23 0

	$jointconstrain "ValveBiped.Bip01_R_Forearm" x limit 0 0 0
	$jointconstrain "ValveBiped.Bip01_R_Forearm" y limit 0 0 0
	$jointconstrain "ValveBiped.Bip01_R_Forearm" z limit -149 4 0

	$jointconstrain "ValveBiped.Bip01_L_UpperArm" x limit -30 30 0
	$jointconstrain "ValveBiped.Bip01_L_UpperArm" y limit -95 84 0
	$jointconstrain "ValveBiped.Bip01_L_UpperArm" z limit -86 26 0

	$jointconstrain "ValveBiped.Bip01_L_Forearm" x limit 0 0 0
	$jointconstrain "ValveBiped.Bip01_L_Forearm" y limit 0 0 0
	$jointconstrain "ValveBiped.Bip01_L_Forearm" z limit -149 4 0

	$jointconstrain "ValveBiped.Bip01_L_Hand" x limit -37 37 0
	$jointconstrain "ValveBiped.Bip01_L_Hand" y limit 0 0 0
	$jointconstrain "ValveBiped.Bip01_L_Hand" z limit -57 59 0

	$jointconstrain "ValveBiped.Bip01_Head1" x limit -20 20 0
	$jointconstrain "ValveBiped.Bip01_Head1" y limit -25 25 0
	$jointconstrain "ValveBiped.Bip01_Head1" z limit -13 30 0

	$jointconstrain "ValveBiped.Bip01_R_Hand" x limit -60 60 0
	$jointconstrain "ValveBiped.Bip01_R_Hand" y limit 0 0 0
	$jointconstrain "ValveBiped.Bip01_R_Hand" z limit -57 70 0

	$jointconstrain "ValveBiped.Bip01_R_Foot" x limit 0 0 0
	$jointconstrain "ValveBiped.Bip01_R_Foot" y limit -25 6 0
	$jointconstrain "ValveBiped.Bip01_R_Foot" z limit -15 35 0
}

$collisiontext
{
	animatedfriction 
	{
		"animfrictionmin"		"1.000000"
		"animfrictionmax"		"400.000000"
		"animfrictiontimein"		"0.500000"
		"animfrictiontimeout"		"0.000000"
		"animfrictiontimehold"		"0.300000"
	}
	editparams 
	{
		"rootname"		"valvebiped.bip01_pelvis"
		"totalmass"		"70.000000"
		"jointmerge"		"ValveBiped.Bip01_Pelvis,ValveBiped.Bip01_Spine1"
	}
}
