// Created by Crowbar 0.68
version 1
nodes
  0 "ValveBiped.Bip01_Pelvis" -1
  1 "ValveBiped.Bip01_L_Thigh" 0
  2 "ValveBiped.Bip01_L_Calf" 1
  3 "ValveBiped.Bip01_L_Foot" 2
  4 "ValveBiped.Bip01_L_Toe0" 3
  5 "ValveBiped.Bip01_R_Thigh" 0
  6 "ValveBiped.Bip01_R_Calf" 5
  7 "ValveBiped.Bip01_R_Foot" 6
  8 "ValveBiped.Bip01_R_Toe0" 7
  9 "ValveBiped.Bip01_Spine" 0
  10 "ValveBiped.Bip01_Spine1" 9
  11 "ValveBiped.Bip01_Spine2" 10
  12 "ValveBiped.Bip01_Spine4" 11
  13 "ValveBiped.Bip01_Neck1" 12
  14 "ValveBiped.Bip01_Head1" 13
  15 "ValveBiped.Bip01_L_Clavicle" 12
  16 "ValveBiped.Bip01_L_UpperArm" 15
  17 "ValveBiped.Bip01_L_Forearm" 16
  18 "ValveBiped.Bip01_L_Hand" 17
  19 "ValveBiped.Bip01_L_Finger2" 18
  20 "ValveBiped.Bip01_L_Finger21" 19
  21 "ValveBiped.Bip01_L_Finger22" 20
  22 "ValveBiped.Bip01_L_Finger1" 18
  23 "ValveBiped.Bip01_L_Finger11" 22
  24 "ValveBiped.Bip01_L_Finger12" 23
  25 "ValveBiped.Bip01_L_Finger0" 18
  26 "ValveBiped.Bip01_L_Finger01" 25
  27 "ValveBiped.Bip01_L_Finger02" 26
  28 "ValveBiped.Bip01_R_Clavicle" 12
  29 "ValveBiped.Bip01_R_UpperArm" 28
  30 "ValveBiped.Bip01_R_Forearm" 29
  31 "ValveBiped.Bip01_R_Hand" 30
  32 "ValveBiped.Bip01_R_Finger2" 31
  33 "ValveBiped.Bip01_R_Finger21" 32
  34 "ValveBiped.Bip01_R_Finger22" 33
  35 "ValveBiped.Bip01_R_Finger1" 31
  36 "ValveBiped.Bip01_R_Finger11" 35
  37 "ValveBiped.Bip01_R_Finger12" 36
  38 "ValveBiped.Bip01_R_Finger0" 31
  39 "ValveBiped.Bip01_R_Finger01" 38
  40 "ValveBiped.Bip01_R_Finger02" 39
  41 "ValveBiped.Cod" 0
end
skeleton
  time 0
    0 0.000000 0.000000 0.000000 0.000000 0.000000 -1.570796
    1 0.000000 0.000000 0.000000 0.000415 0.064361 -0.050128
    2 -0.000004 -0.000001 0.000000 0.000000 0.000000 0.007553
    3 0.000000 -0.000002 0.000000 -0.050389 -0.029949 0.050966
    4 0.000000 0.000001 0.000000 0.000000 0.000000 0.000000
    5 0.000000 0.000000 0.000000 0.000279 0.014697 -0.044621
    6 0.000000 0.000000 -0.000001 0.000000 0.000000 0.049562
    7 -0.000001 0.000001 0.000000 -0.010174 0.000588 0.011684
    8 0.000000 0.000000 0.000000 0.000000 0.000000 0.000000
    9 0.000000 0.000002 0.000000 0.000000 0.000000 -0.191985
    10 -0.000002 0.000000 0.000000 0.000049 0.000662 -0.192000
    11 0.000000 0.000000 0.000000 -0.000393 -0.001868 -0.191927
    12 0.000002 0.000000 0.000000 0.000000 0.000000 0.000000
    13 -0.000001 0.000000 0.000000 0.000002 0.000000 0.000000
    14 0.000000 0.000001 -0.000001 0.352227 -0.385738 -0.157890
    15 -0.000001 -0.000002 0.000000 -0.000004 0.000000 0.000000
    16 -0.000001 -0.000001 0.000000 -0.337301 -0.227345 0.304397
    17 -0.000001 -0.000001 0.000000 0.000000 0.000000 -0.495293
    18 0.000002 0.000000 0.000002 0.010500 -0.012534 0.722392
    19 0.000000 -0.000004 -0.000001 0.000000 0.000000 0.000000
    20 -0.000001 -0.000002 0.000000 0.000000 0.000000 0.000000
    21 -0.000001 0.000001 -0.000001 0.000000 0.000000 0.000000
    22 -0.000001 -0.000002 -0.000001 0.000000 0.000000 0.000000
    23 -0.000002 0.000001 -0.000002 0.000000 0.000000 0.000000
    24 -0.000003 0.000000 0.000001 0.000000 0.000000 0.000000
    25 -0.000001 -0.000003 -0.000002 0.000000 0.000000 0.000000
    26 0.000000 0.000001 -0.000002 0.000000 0.000000 0.000000
    27 0.000001 -0.000001 0.000001 0.000000 0.000000 0.000000
    28 -0.000003 -0.000001 0.000000 0.000000 0.000000 0.000000
    29 -0.000003 0.000001 -0.000001 0.198455 -0.484626 -0.267047
    30 -0.000001 -0.000001 0.000001 0.000000 0.000000 0.233518
    31 -0.000004 -0.000002 -0.000001 -0.122079 0.206014 -0.224284
    32 0.000001 0.000001 -0.000001 0.000000 0.000000 0.000000
    33 0.000000 0.000001 -0.000002 0.000000 0.000000 0.000000
    34 0.000000 0.000000 -0.000002 0.000000 0.000000 0.000000
    35 0.000000 0.000001 -0.000002 0.000000 0.000000 0.000000
    36 0.000002 0.000000 0.000002 0.000000 0.000000 0.000000
    37 -0.000001 -0.000001 0.000000 0.000000 0.000000 0.000000
    38 0.000000 0.000000 0.000000 0.000000 0.000000 0.000000
    39 -0.000001 0.000000 -0.000001 0.000000 0.000000 0.000000
    40 -0.000001 0.000002 0.000002 0.000000 0.000000 0.000000
    41 0.000000 0.000000 0.000000 -0.191536 -0.010833 -0.006471
end
