// Created by Crowbar 0.68
version 1
nodes
  0 "ValveBiped.Bip01_Pelvis" -1
  1 "ValveBiped.Bip01_L_Thigh" 0
  2 "ValveBiped.Bip01_L_Calf" 1
  3 "ValveBiped.Bip01_L_Foot" 2
  4 "ValveBiped.Bip01_L_Toe0" 3
  5 "ValveBiped.Bip01_R_Thigh" 0
  6 "ValveBiped.Bip01_R_Calf" 5
  7 "ValveBiped.Bip01_R_Foot" 6
  8 "ValveBiped.Bip01_R_Toe0" 7
  9 "ValveBiped.Bip01_Spine" 0
  10 "ValveBiped.Bip01_Spine1" 9
  11 "ValveBiped.Bip01_Spine2" 10
  12 "ValveBiped.Bip01_Spine4" 11
  13 "ValveBiped.Bip01_Neck1" 12
  14 "ValveBiped.Bip01_Head1" 13
  15 "ValveBiped.Bip01_L_Clavicle" 12
  16 "ValveBiped.Bip01_L_UpperArm" 15
  17 "ValveBiped.Bip01_L_Forearm" 16
  18 "ValveBiped.Bip01_L_Hand" 17
  19 "ValveBiped.Bip01_L_Finger2" 18
  20 "ValveBiped.Bip01_L_Finger21" 19
  21 "ValveBiped.Bip01_L_Finger22" 20
  22 "ValveBiped.Bip01_L_Finger1" 18
  23 "ValveBiped.Bip01_L_Finger11" 22
  24 "ValveBiped.Bip01_L_Finger12" 23
  25 "ValveBiped.Bip01_L_Finger0" 18
  26 "ValveBiped.Bip01_L_Finger01" 25
  27 "ValveBiped.Bip01_L_Finger02" 26
  28 "ValveBiped.Bip01_R_Clavicle" 12
  29 "ValveBiped.Bip01_R_UpperArm" 28
  30 "ValveBiped.Bip01_R_Forearm" 29
  31 "ValveBiped.Bip01_R_Hand" 30
  32 "ValveBiped.Bip01_R_Finger2" 31
  33 "ValveBiped.Bip01_R_Finger21" 32
  34 "ValveBiped.Bip01_R_Finger22" 33
  35 "ValveBiped.Bip01_R_Finger1" 31
  36 "ValveBiped.Bip01_R_Finger11" 35
  37 "ValveBiped.Bip01_R_Finger12" 36
  38 "ValveBiped.Bip01_R_Finger0" 31
  39 "ValveBiped.Bip01_R_Finger01" 38
  40 "ValveBiped.Bip01_R_Finger02" 39
  41 "ValveBiped.Cod" 0
end
skeleton
  time 0
    0 0.000000 0.000000 0.000000 0.000000 0.000000 -1.570796
    1 0.000000 0.000000 0.000000 0.000000 0.000000 0.000000
    2 0.000002 0.000000 0.000000 0.000000 0.000000 0.000000
    3 0.000001 -0.000001 0.000000 0.000000 0.000000 0.000000
    4 0.000000 0.000000 0.000000 0.000000 0.000000 0.000000
    5 0.000000 0.000000 0.000000 0.000000 0.000000 0.000000
    6 0.000000 0.000000 0.000000 0.000000 0.000000 0.000000
    7 0.000000 0.000000 0.000000 0.000000 0.000000 0.000000
    8 0.000000 0.000000 0.000000 0.000000 0.000000 0.000000
    9 0.000000 0.000000 0.000000 0.008160 0.098096 -0.031017
    10 0.000001 0.000000 0.000000 -0.063053 0.043848 -0.087196
    11 0.000001 0.000000 -0.000001 -0.229301 0.107804 -0.219021
    12 -0.000003 0.000000 0.000000 0.000000 0.000000 0.000000
    13 0.000002 0.000000 0.000000 0.000000 0.000000 0.041887
    14 0.000001 0.000000 0.000001 0.151371 -0.038873 -0.566763
    15 -0.000001 0.000001 0.000000 0.000289 0.314154 0.001811
    16 0.000000 -0.000001 0.000000 -0.479455 0.140957 -0.154419
    17 0.000000 0.000002 0.000000 0.000000 0.000000 0.077859
    18 0.000000 -0.000002 -0.000002 0.429259 0.068177 0.125159
    19 0.000001 0.000000 -0.000002 0.000000 0.000000 0.000000
    20 0.000000 -0.000002 0.000002 0.000000 0.000000 0.000000
    21 -0.000002 -0.000002 -0.000003 0.000000 0.000000 0.000000
    22 0.000001 0.000001 -0.000001 0.000000 0.000000 0.000000
    23 0.000002 -0.000001 0.000001 0.000000 0.000000 0.000000
    24 -0.000002 0.000000 0.000002 0.000000 0.000000 0.000000
    25 0.000001 -0.000001 0.000000 0.000000 0.000000 0.000000
    26 0.000001 -0.000001 0.000000 0.000000 0.000000 0.000000
    27 0.000007 0.000000 -0.000001 0.000000 0.000000 0.000000
    28 -0.000001 0.000001 0.000000 0.000000 0.000000 0.000000
    29 -0.000001 0.000000 0.000001 -0.061273 -0.149864 -0.263115
    30 -0.000004 -0.000002 0.000000 0.000000 0.000000 0.266599
    31 0.000003 -0.000001 0.000000 -0.092321 0.203046 -0.109465
    32 0.000002 0.000000 0.000002 0.000000 0.000000 0.000000
    33 -0.000002 -0.000001 -0.000003 0.000000 0.000000 0.000000
    34 0.000000 0.000000 0.000001 0.000000 0.000000 0.000000
    35 0.000001 0.000000 0.000001 0.000000 0.000000 0.000000
    36 0.000000 0.000000 0.000000 0.000000 0.000000 0.000000
    37 0.000002 0.000001 -0.000002 0.000000 0.000000 0.000000
    38 0.000000 -0.000001 0.000001 0.000000 0.000000 0.000000
    39 0.000002 0.000000 0.000000 0.000000 0.000000 0.000000
    40 -0.000003 0.000001 0.000002 0.000000 0.000000 0.000000
    41 0.000000 0.000000 0.000000 -0.028963 0.008913 0.098013
end
