// Created by Crowbar 0.68
version 1
nodes
  0 "ValveBiped.Bip01_Pelvis" -1
  1 "ValveBiped.Bip01_L_Thigh" 0
  2 "ValveBiped.Bip01_L_Calf" 1
  3 "ValveBiped.Bip01_L_Foot" 2
  4 "ValveBiped.Bip01_L_Toe0" 3
  5 "ValveBiped.Bip01_R_Thigh" 0
  6 "ValveBiped.Bip01_R_Calf" 5
  7 "ValveBiped.Bip01_R_Foot" 6
  8 "ValveBiped.Bip01_R_Toe0" 7
  9 "ValveBiped.Bip01_Spine" 0
  10 "ValveBiped.Bip01_Spine1" 9
  11 "ValveBiped.Bip01_Spine2" 10
  12 "ValveBiped.Bip01_Spine4" 11
  13 "ValveBiped.Bip01_Neck1" 12
  14 "ValveBiped.Bip01_Head1" 13
  15 "ValveBiped.Bip01_L_Clavicle" 12
  16 "ValveBiped.Bip01_L_UpperArm" 15
  17 "ValveBiped.Bip01_L_Forearm" 16
  18 "ValveBiped.Bip01_L_Hand" 17
  19 "ValveBiped.Bip01_L_Finger2" 18
  20 "ValveBiped.Bip01_L_Finger21" 19
  21 "ValveBiped.Bip01_L_Finger22" 20
  22 "ValveBiped.Bip01_L_Finger1" 18
  23 "ValveBiped.Bip01_L_Finger11" 22
  24 "ValveBiped.Bip01_L_Finger12" 23
  25 "ValveBiped.Bip01_L_Finger0" 18
  26 "ValveBiped.Bip01_L_Finger01" 25
  27 "ValveBiped.Bip01_L_Finger02" 26
  28 "ValveBiped.Bip01_R_Clavicle" 12
  29 "ValveBiped.Bip01_R_UpperArm" 28
  30 "ValveBiped.Bip01_R_Forearm" 29
  31 "ValveBiped.Bip01_R_Hand" 30
  32 "ValveBiped.Bip01_R_Finger2" 31
  33 "ValveBiped.Bip01_R_Finger21" 32
  34 "ValveBiped.Bip01_R_Finger22" 33
  35 "ValveBiped.Bip01_R_Finger1" 31
  36 "ValveBiped.Bip01_R_Finger11" 35
  37 "ValveBiped.Bip01_R_Finger12" 36
  38 "ValveBiped.Bip01_R_Finger0" 31
  39 "ValveBiped.Bip01_R_Finger01" 38
  40 "ValveBiped.Bip01_R_Finger02" 39
  41 "ValveBiped.Cod" 0
end
skeleton
  time 0
    0 0.000000 0.000000 0.000000 0.000000 0.000000 -1.570796
    1 0.000000 0.000000 0.000000 0.000000 0.000000 0.000000
    2 0.000002 0.000000 0.000000 0.000000 0.000000 0.000000
    3 0.000001 -0.000001 0.000000 0.000000 0.000000 0.000000
    4 0.000000 0.000000 0.000000 0.000000 0.000000 0.000000
    5 0.000000 0.000000 0.000000 0.000000 0.000000 0.000000
    6 0.000000 0.000000 0.000000 0.000000 0.000000 0.000000
    7 0.000000 0.000000 0.000000 0.000000 0.000000 0.000000
    8 0.000000 0.000000 0.000000 0.000000 0.000000 0.000000
    9 0.000000 0.000000 0.000000 -0.096423 0.099899 -0.111153
    10 0.000000 0.000000 0.000000 -0.099295 0.175024 -0.062659
    11 -0.000002 -0.000001 -0.000001 -0.241525 0.127663 -0.204831
    12 0.000002 0.000000 0.000001 -0.075866 0.020329 -0.000772
    13 0.000003 -0.000001 0.000000 0.000181 -0.226892 -0.000021
    14 0.000000 -0.000002 0.000001 0.085050 0.214803 -0.563177
    15 0.000000 0.000001 0.000000 0.000069 0.157077 0.000882
    16 0.000001 0.000002 0.000000 -0.647272 0.246623 -0.041649
    17 0.000002 0.000004 0.000000 0.000000 0.000000 -0.133520
    18 0.000005 -0.000002 0.000000 0.426353 0.126594 0.203833
    19 -0.000001 -0.000003 0.000001 0.000000 0.000000 0.000000
    20 0.000000 -0.000001 -0.000002 0.000000 0.000000 0.000000
    21 -0.000003 -0.000004 -0.000001 0.000000 0.000000 0.000000
    22 -0.000001 0.000001 -0.000001 0.000000 0.000000 0.000000
    23 0.000004 0.000002 0.000002 0.000000 0.000000 0.000000
    24 -0.000002 -0.000003 0.000003 0.000000 0.000000 0.000000
    25 0.000000 -0.000001 0.000001 0.000000 0.000000 0.000000
    26 0.000002 0.000000 0.000000 0.000000 0.000000 0.000000
    27 0.000000 0.000000 0.000000 0.000000 0.000000 0.000000
    28 0.000000 0.000000 -0.000001 0.000000 0.000000 0.000000
    29 0.000000 0.000001 0.000000 -0.139543 -0.018994 -0.145622
    30 -0.000001 0.000001 0.000001 0.000000 0.000000 0.005661
    31 0.000002 -0.000001 -0.000002 -0.151201 0.010671 0.156470
    32 0.000003 0.000001 0.000003 0.000000 0.000000 0.000000
    33 0.000000 -0.000001 0.000000 0.000000 0.000000 0.000000
    34 -0.000001 0.000000 -0.000001 0.000000 0.000000 0.000000
    35 0.000002 0.000000 0.000003 0.000000 0.000000 0.000000
    36 0.000001 0.000001 0.000002 0.000000 0.000000 0.000000
    37 -0.000001 0.000001 0.000001 0.000000 0.000000 0.000000
    38 0.000002 0.000000 0.000003 0.000000 0.000000 0.000000
    39 -0.000002 0.000001 0.000004 0.000000 0.000000 0.000000
    40 -0.000001 0.000002 0.000003 0.000000 0.000000 0.000000
    41 0.000000 0.000000 0.000000 -0.108746 -0.081142 0.119960
end
