// Created by Crowbar 0.68
version 1
nodes
  0 "ValveBiped.Bip01_Pelvis" -1
  1 "ValveBiped.Bip01_L_Thigh" 0
  2 "ValveBiped.Bip01_L_Calf" 1
  3 "ValveBiped.Bip01_L_Foot" 2
  4 "ValveBiped.Bip01_L_Toe0" 3
  5 "ValveBiped.Bip01_R_Thigh" 0
  6 "ValveBiped.Bip01_R_Calf" 5
  7 "ValveBiped.Bip01_R_Foot" 6
  8 "ValveBiped.Bip01_R_Toe0" 7
  9 "ValveBiped.Bip01_Spine" 0
  10 "ValveBiped.Bip01_Spine1" 9
  11 "ValveBiped.Bip01_Spine2" 10
  12 "ValveBiped.Bip01_Spine4" 11
  13 "ValveBiped.Bip01_Neck1" 12
  14 "ValveBiped.Bip01_Head1" 13
  15 "ValveBiped.Bip01_L_Clavicle" 12
  16 "ValveBiped.Bip01_L_UpperArm" 15
  17 "ValveBiped.Bip01_L_Forearm" 16
  18 "ValveBiped.Bip01_L_Hand" 17
  19 "ValveBiped.Bip01_L_Finger2" 18
  20 "ValveBiped.Bip01_L_Finger21" 19
  21 "ValveBiped.Bip01_L_Finger22" 20
  22 "ValveBiped.Bip01_L_Finger1" 18
  23 "ValveBiped.Bip01_L_Finger11" 22
  24 "ValveBiped.Bip01_L_Finger12" 23
  25 "ValveBiped.Bip01_L_Finger0" 18
  26 "ValveBiped.Bip01_L_Finger01" 25
  27 "ValveBiped.Bip01_L_Finger02" 26
  28 "ValveBiped.Bip01_R_Clavicle" 12
  29 "ValveBiped.Bip01_R_UpperArm" 28
  30 "ValveBiped.Bip01_R_Forearm" 29
  31 "ValveBiped.Bip01_R_Hand" 30
  32 "ValveBiped.Bip01_R_Finger2" 31
  33 "ValveBiped.Bip01_R_Finger21" 32
  34 "ValveBiped.Bip01_R_Finger22" 33
  35 "ValveBiped.Bip01_R_Finger1" 31
  36 "ValveBiped.Bip01_R_Finger11" 35
  37 "ValveBiped.Bip01_R_Finger12" 36
  38 "ValveBiped.Bip01_R_Finger0" 31
  39 "ValveBiped.Bip01_R_Finger01" 38
  40 "ValveBiped.Bip01_R_Finger02" 39
  41 "ValveBiped.Cod" 0
end
skeleton
  time 0
    0 -1.103945 0.863383 34.676562 1.539277 0.036173 0.092067
    1 3.890452 -0.000009 -0.000002 -2.148106 -0.573218 -1.229770
    2 17.848173 -0.000001 0.000000 0.000000 0.000000 1.980045
    3 15.638507 0.000000 0.000000 0.378027 -0.334749 -1.411568
    4 7.109929 0.000000 0.000000 -0.007119 -0.003131 -0.631738
    5 -3.890451 0.000001 0.000008 -1.532373 0.052435 -1.735799
    6 17.848177 0.000000 0.000000 0.000000 0.000000 0.798204
    7 15.638511 0.000000 0.000000 0.075115 -0.183671 -1.517615
    8 7.109930 0.000000 0.000000 -0.081154 -0.003131 -0.631749
    9 -0.117186 3.345128 -2.981901 1.421689 0.190491 1.670864
    10 4.018332 -0.000001 -0.000001 -0.352727 -0.042294 0.164659
    11 3.518564 0.000000 0.000001 -0.270698 0.060858 0.392681
    12 8.942632 0.000000 0.000000 -0.001207 0.050299 0.249895
    13 3.307274 0.000000 0.000001 3.141590 0.000000 0.400478
    14 3.593713 -0.000001 0.000001 0.629167 0.258278 0.822403
    15 2.033346 1.000768 1.101697 1.848180 -1.411864 2.688434
    16 6.809416 0.000001 0.000000 -1.776805 -0.141342 -0.879006
    17 12.391796 0.000000 0.000001 0.000000 0.000000 -2.059639
    18 9.337076 0.000000 -0.000031 -0.683090 0.126513 0.052674
    19 4.454020 -0.070210 0.572073 0.096293 -0.007832 -0.804082
    20 1.426597 -0.000001 0.000000 0.023861 -0.079623 -1.125947
    21 1.322468 -0.000002 0.000000 0.009312 -0.033625 -0.575065
    22 4.477066 -0.028570 1.582474 0.476656 -0.055423 -1.136099
    23 1.344418 0.000000 0.000000 0.023466 -0.208305 -0.755723
    24 1.224671 0.000000 0.000000 0.026043 -0.124620 -0.538676
    25 2.630323 -0.345015 1.907214 -0.354022 -0.915164 -1.788195
    26 1.059292 0.000000 0.000001 0.000551 0.000004 0.000021
    27 0.781203 0.000000 0.000000 -0.000467 0.006940 -0.135953
    28 2.033353 1.000771 -1.101647 -2.784590 1.401436 1.822280
    29 6.809417 0.000001 0.000000 1.082757 0.751056 -0.761647
    30 12.391794 0.000000 0.000001 0.000000 0.000000 -1.889653
    31 9.337102 0.000000 0.000003 -1.195177 -0.326336 0.109039
    32 4.453986 -0.073766 -0.571672 0.047699 -0.153453 -0.767464
    33 1.426599 0.000002 0.000000 -0.053883 0.078890 -1.553256
    34 1.322465 -0.000001 0.000000 -0.013603 0.036958 -0.732277
    35 4.477036 -0.043465 -1.581290 -0.332128 -0.154804 0.170747
    36 1.344414 0.000000 0.000000 -0.042629 0.220735 -0.851579
    37 1.224670 0.000001 0.000000 0.008150 -0.000004 -0.000025
    38 2.630291 -0.359835 -1.904289 0.415078 0.423437 -0.720800
    39 1.059293 0.000000 0.000000 0.015101 0.038905 0.767148
    40 0.781204 0.000000 0.000000 0.004782 0.022537 0.418308
    41 -0.044717 2.528787 4.661499 -0.147934 -0.107340 0.131263
  time 1
    0 3.226316 -3.610644 35.273495 1.549727 0.001340 0.121450
    1 3.890452 -0.000009 -0.000002 -2.133981 -0.763512 -1.180415
    2 17.848173 -0.000001 0.000000 0.000000 0.000000 1.770326
    3 15.638507 0.000000 0.000000 0.198318 -0.269541 -1.412917
    4 7.109929 0.000000 0.000000 -0.007119 -0.003131 -0.631738
    5 -3.890451 0.000001 0.000008 -1.559164 0.173915 -1.865022
    6 17.848177 0.000000 0.000000 0.000000 0.000000 0.738740
    7 15.638511 0.000000 0.000000 0.081785 -0.117046 -1.265114
    8 7.109930 0.000000 0.000000 -0.081154 -0.003131 -0.631749
    9 0.000005 3.345128 -2.981901 1.420018 0.240349 1.628071
    10 4.018332 -0.000001 -0.000001 -0.352727 -0.042294 0.164659
    11 3.518564 0.000000 0.000001 -0.270698 0.060858 0.392681
    12 8.942632 0.000000 0.000000 -0.001207 0.050299 0.249895
    13 3.307274 0.000000 0.000001 3.141590 0.000000 0.400478
    14 3.593713 -0.000001 0.000001 0.624062 0.288473 0.780855
    15 2.033346 1.000768 1.101697 1.848180 -1.411864 2.688434
    16 6.809416 0.000001 0.000000 -1.732145 -0.111150 -0.930692
    17 12.391796 0.000000 0.000001 0.000000 0.000000 -2.033935
    18 9.337076 0.000000 -0.000031 -0.658198 0.119838 0.025211
    19 4.454020 -0.070210 0.572073 0.096293 -0.007832 -0.804082
    20 1.426597 -0.000001 0.000000 0.023861 -0.079623 -1.125947
    21 1.322468 -0.000002 0.000000 0.009312 -0.033625 -0.575065
    22 4.477066 -0.028570 1.582474 0.476656 -0.055423 -1.136099
    23 1.344418 0.000000 0.000000 0.023466 -0.208305 -0.755723
    24 1.224671 0.000000 0.000000 0.026043 -0.124620 -0.538676
    25 2.630323 -0.345015 1.907214 -0.354022 -0.915164 -1.788195
    26 1.059292 0.000000 0.000001 0.000551 0.000004 0.000021
    27 0.781203 0.000000 0.000000 -0.000467 0.006940 -0.135953
    28 2.033353 1.000771 -1.101647 -2.784590 1.401436 1.822280
    29 6.809417 0.000001 0.000000 1.064774 0.711418 -0.745216
    30 12.391794 0.000000 0.000001 0.000000 0.000000 -1.891089
    31 9.337102 0.000000 0.000003 -1.184744 -0.324661 0.099282
    32 4.453986 -0.073766 -0.571672 0.047699 -0.153453 -0.767464
    33 1.426599 0.000002 0.000000 -0.053883 0.078890 -1.553256
    34 1.322465 -0.000001 0.000000 -0.013603 0.036958 -0.732277
    35 4.477036 -0.043465 -1.581290 -0.332128 -0.154804 0.170747
    36 1.344414 0.000000 0.000000 -0.042629 0.220735 -0.851579
    37 1.224670 0.000001 0.000000 0.008150 -0.000004 -0.000025
    38 2.630291 -0.359835 -1.904289 0.415078 0.423437 -0.720800
    39 1.059293 0.000000 0.000000 0.015101 0.038905 0.767148
    40 0.781204 0.000000 0.000000 0.004782 0.022537 0.418308
    41 -0.044717 2.528787 4.661499 -0.197255 -0.119761 0.090301
  time 2
    0 7.634704 -8.165929 35.788092 1.554909 -0.028827 0.161074
    1 3.890452 -0.000009 -0.000002 -2.140089 -0.778132 -1.155115
    2 17.848173 -0.000001 0.000000 0.000000 0.000000 1.414601
    3 15.638507 0.000000 0.000000 0.245793 -0.175215 -1.481304
    4 7.109929 0.000000 0.000000 -0.007119 -0.003131 -0.631738
    5 -3.890451 0.000001 0.000008 -1.566601 0.243437 -1.959811
    6 17.848177 0.000000 0.000000 0.000000 0.000000 0.731185
    7 15.638511 0.000000 0.000000 -0.013365 -0.080639 -0.903839
    8 7.109930 0.000000 0.000000 -0.081154 -0.003131 -0.631749
    9 0.093758 3.345128 -2.981901 1.418078 0.286464 1.590656
    10 4.018332 -0.000001 -0.000001 -0.352727 -0.042294 0.164659
    11 3.518564 0.000000 0.000001 -0.270698 0.060858 0.392681
    12 8.942632 0.000000 0.000000 -0.001207 0.050299 0.249895
    13 3.307274 0.000000 0.000001 3.141590 0.000000 0.400478
    14 3.593713 -0.000001 0.000001 0.618114 0.316183 0.741909
    15 2.033346 1.000768 1.101697 1.848180 -1.411864 2.688434
    16 6.809416 0.000001 0.000000 -1.687103 -0.099386 -0.980484
    17 12.391796 0.000000 0.000001 0.000000 0.000000 -1.965416
    18 9.337076 0.000000 -0.000031 -0.642406 0.118786 -0.028850
    19 4.454020 -0.070210 0.572073 0.096293 -0.007832 -0.804082
    20 1.426597 -0.000001 0.000000 0.023861 -0.079623 -1.125947
    21 1.322468 -0.000002 0.000000 0.009312 -0.033625 -0.575065
    22 4.477066 -0.028570 1.582474 0.476656 -0.055423 -1.136099
    23 1.344418 0.000000 0.000000 0.023466 -0.208305 -0.755723
    24 1.224671 0.000000 0.000000 0.026043 -0.124620 -0.538676
    25 2.630323 -0.345015 1.907214 -0.354022 -0.915164 -1.788195
    26 1.059292 0.000000 0.000001 0.000551 0.000004 0.000021
    27 0.781203 0.000000 0.000000 -0.000467 0.006940 -0.135953
    28 2.033353 1.000771 -1.101647 -2.784590 1.401436 1.822280
    29 6.809417 0.000001 0.000000 1.047075 0.675065 -0.730678
    30 12.391794 0.000000 0.000001 0.000000 0.000000 -1.875934
    31 9.337102 0.000000 0.000003 -1.176423 -0.322986 0.090733
    32 4.453986 -0.073766 -0.571672 0.047699 -0.153453 -0.767464
    33 1.426599 0.000002 0.000000 -0.053883 0.078890 -1.553256
    34 1.322465 -0.000001 0.000000 -0.013603 0.036958 -0.732277
    35 4.477036 -0.043465 -1.581290 -0.332128 -0.154804 0.170747
    36 1.344414 0.000000 0.000000 -0.042629 0.220735 -0.851579
    37 1.224670 0.000001 0.000000 0.008150 -0.000004 -0.000025
    38 2.630291 -0.359835 -1.904289 0.415078 0.423437 -0.720800
    39 1.059293 0.000000 0.000000 0.015101 0.038905 0.767148
    40 0.781204 0.000000 0.000000 0.004782 0.022537 0.418308
    41 -0.044717 2.528787 4.661499 -0.243454 -0.127194 0.057155
  time 3
    0 12.121220 -12.700899 35.952763 1.551086 -0.045597 0.207398
    1 3.890452 -0.000009 -0.000002 -2.045795 -0.731102 -1.227661
    2 17.848173 -0.000001 0.000000 0.000000 0.000000 1.011475
    3 15.638507 0.000000 0.000000 0.240508 -0.099585 -1.488048
    4 7.109929 0.000000 0.000000 -0.007119 -0.003131 -0.631738
    5 -3.890451 0.000001 0.000008 -1.622853 0.297313 -1.995191
    6 17.848177 0.000000 0.000000 0.000000 0.000000 0.801129
    7 15.638511 0.000000 0.000000 -0.062469 -0.046826 -0.746361
    8 7.109930 0.000000 0.000000 -0.081154 -0.003131 -0.631749
    9 0.148447 3.345128 -2.981901 1.417324 0.302544 1.571860
    10 4.018332 -0.000001 -0.000001 -0.352727 -0.042294 0.164659
    11 3.518564 0.000000 0.000001 -0.270698 0.060858 0.392681
    12 8.942632 0.000000 0.000000 -0.001207 0.050299 0.249895
    13 3.307274 0.000000 0.000001 3.141590 0.000000 0.400478
    14 3.593713 -0.000001 0.000001 0.615751 0.325798 0.728227
    15 2.033346 1.000768 1.101697 1.848180 -1.411864 2.688434
    16 6.809416 0.000001 0.000000 -1.662334 -0.121541 -1.004718
    17 12.391796 0.000000 0.000001 0.000000 0.000000 -1.880103
    18 9.337076 0.000000 -0.000031 -0.644993 0.124737 -0.084584
    19 4.454020 -0.070210 0.572073 0.096293 -0.007832 -0.804082
    20 1.426597 -0.000001 0.000000 0.023861 -0.079623 -1.125947
    21 1.322468 -0.000002 0.000000 0.009312 -0.033625 -0.575065
    22 4.477066 -0.028570 1.582474 0.476656 -0.055423 -1.136099
    23 1.344418 0.000000 0.000000 0.023466 -0.208305 -0.755723
    24 1.224671 0.000000 0.000000 0.026043 -0.124620 -0.538676
    25 2.630323 -0.345015 1.907214 -0.354022 -0.915164 -1.788195
    26 1.059292 0.000000 0.000001 0.000551 0.000004 0.000021
    27 0.781203 0.000000 0.000000 -0.000467 0.006940 -0.135953
    28 2.033353 1.000771 -1.101647 -2.784590 1.401436 1.822280
    29 6.809417 0.000001 0.000000 1.041964 0.662932 -0.723624
    30 12.391794 0.000000 0.000001 0.000000 0.000000 -1.847277
    31 9.337102 0.000000 0.000003 -1.172711 -0.321958 0.086243
    32 4.453986 -0.073766 -0.571672 0.047699 -0.153453 -0.767464
    33 1.426599 0.000002 0.000000 -0.053883 0.078890 -1.553256
    34 1.322465 -0.000001 0.000000 -0.013603 0.036958 -0.732277
    35 4.477036 -0.043465 -1.581290 -0.332128 -0.154804 0.170747
    36 1.344414 0.000000 0.000000 -0.042629 0.220735 -0.851579
    37 1.224670 0.000001 0.000000 0.008150 -0.000004 -0.000025
    38 2.630291 -0.359835 -1.904289 0.415078 0.423437 -0.720800
    39 1.059293 0.000000 0.000000 0.015101 0.038905 0.767148
    40 0.781204 0.000000 0.000000 0.004782 0.022537 0.418308
    41 -0.044717 2.528787 4.661499 -0.260176 -0.128782 0.041283
  time 4
    0 16.705395 -17.144453 35.664589 1.537833 -0.055668 0.255253
    1 3.890452 -0.000009 -0.000002 -1.867325 -0.647310 -1.321388
    2 17.848173 -0.000001 0.000000 0.000000 0.000000 0.719390
    3 15.638507 0.000000 0.000000 0.143026 -0.078952 -1.434060
    4 7.109929 0.000000 0.000000 -0.007119 -0.003131 -0.631738
    5 -3.890451 0.000001 0.000008 -1.635057 0.304890 -2.010895
    6 17.848177 0.000000 0.000000 0.000000 0.000000 0.993737
    7 15.638511 0.000000 0.000000 -0.153728 -0.062617 -0.716851
    8 7.109930 0.000000 0.000000 -0.081154 -0.003131 -0.631749
    9 0.179698 3.341221 -2.981901 1.418132 0.285188 1.565476
    10 4.018332 -0.000001 -0.000001 -0.352727 -0.042294 0.164659
    11 3.518564 0.000000 0.000001 -0.270698 0.060858 0.392681
    12 8.942632 0.000000 0.000000 -0.001207 0.050299 0.249895
    13 3.307274 0.000000 0.000001 3.141590 0.000000 0.400478
    14 3.593713 -0.000001 0.000001 0.618283 0.315434 0.743000
    15 2.033346 1.000768 1.101697 1.848180 -1.411864 2.688434
    16 6.809416 0.000001 0.000000 -1.659752 -0.173397 -1.001121
    17 12.391796 0.000000 0.000001 0.000000 0.000000 -1.800782
    18 9.337076 0.000000 -0.000031 -0.660517 0.135424 -0.126471
    19 4.454020 -0.070210 0.572073 0.096293 -0.007832 -0.804082
    20 1.426597 -0.000001 0.000000 0.023861 -0.079623 -1.125947
    21 1.322468 -0.000002 0.000000 0.009312 -0.033625 -0.575065
    22 4.477066 -0.028570 1.582474 0.476656 -0.055423 -1.136099
    23 1.344418 0.000000 0.000000 0.023466 -0.208305 -0.755723
    24 1.224671 0.000000 0.000000 0.026043 -0.124620 -0.538676
    25 2.630323 -0.345015 1.907214 -0.354022 -0.915164 -1.788195
    26 1.059292 0.000000 0.000001 0.000551 0.000004 0.000021
    27 0.781203 0.000000 0.000000 -0.000467 0.006940 -0.135953
    28 2.033353 1.000771 -1.101647 -2.784590 1.401436 1.822280
    29 6.809417 0.000001 0.000000 1.053795 0.677736 -0.721646
    30 12.391794 0.000000 0.000001 0.000000 0.000000 -1.811652
    31 9.337102 0.000000 0.000003 -1.171111 -0.321387 0.083912
    32 4.453986 -0.073766 -0.571672 0.047699 -0.153453 -0.767464
    33 1.426599 0.000002 0.000000 -0.053883 0.078890 -1.553256
    34 1.322465 -0.000001 0.000000 -0.013603 0.036958 -0.732277
    35 4.477036 -0.043465 -1.581290 -0.332128 -0.154804 0.170747
    36 1.344414 0.000000 0.000000 -0.042629 0.220735 -0.851579
    37 1.224670 0.000001 0.000000 0.008150 -0.000004 -0.000025
    38 2.630291 -0.359835 -1.904289 0.415078 0.423437 -0.720800
    39 1.059293 0.000000 0.000000 0.015101 0.038905 0.767148
    40 0.781204 0.000000 0.000000 0.004782 0.022537 0.418308
    41 -0.044717 2.528787 4.661499 -0.243909 -0.125288 0.034990
  time 5
    0 21.340353 -21.445804 34.975029 1.518888 -0.072484 0.298705
    1 3.890452 -0.000009 -0.000002 -1.812352 -0.602221 -1.360584
    2 17.848173 -0.000001 0.000000 0.000000 0.000000 0.716464
    3 15.638507 0.000000 0.000000 -0.041841 0.061556 -1.180962
    4 7.109929 0.000000 0.000000 -0.007119 -0.003131 -0.631738
    5 -3.890451 0.000001 0.000008 -1.637536 0.261199 -2.010705
    6 17.848177 0.000000 0.000000 0.000000 0.000000 1.265713
    7 15.638511 0.000000 0.000000 -0.218767 -0.065075 -0.772719
    8 7.109930 0.000000 0.000000 -0.081154 -0.003131 -0.631749
    9 0.234387 3.337315 -2.981901 1.419533 0.252573 1.554423
    10 4.018332 -0.000001 -0.000001 -0.352727 -0.042294 0.164659
    11 3.518564 0.000000 0.000001 -0.270698 0.060858 0.392681
    12 8.942632 0.000000 0.000000 -0.001207 0.050299 0.249895
    13 3.307274 0.000000 0.000001 3.141590 0.000000 0.400478
    14 3.593713 -0.000001 0.000001 0.622586 0.295861 0.770573
    15 2.033346 1.000768 1.101697 1.848180 -1.411864 2.688434
    16 6.809416 0.000001 0.000000 -1.667690 -0.237458 -0.984649
    17 12.391796 0.000000 0.000001 0.000000 0.000000 -1.730528
    18 9.337076 0.000000 -0.000031 -0.678540 0.147392 -0.156704
    19 4.454020 -0.070210 0.572073 0.096293 -0.007832 -0.804082
    20 1.426597 -0.000001 0.000000 0.023861 -0.079623 -1.125947
    21 1.322468 -0.000002 0.000000 0.009312 -0.033625 -0.575065
    22 4.477066 -0.028570 1.582474 0.476656 -0.055423 -1.136099
    23 1.344418 0.000000 0.000000 0.023466 -0.208305 -0.755723
    24 1.224671 0.000000 0.000000 0.026043 -0.124620 -0.538676
    25 2.630323 -0.345015 1.907214 -0.354022 -0.915164 -1.788195
    26 1.059292 0.000000 0.000001 0.000551 0.000004 0.000021
    27 0.781203 0.000000 0.000000 -0.000467 0.006940 -0.135953
    28 2.033353 1.000771 -1.101647 -2.784590 1.401436 1.822280
    29 6.809417 0.000001 0.000000 1.076037 0.705198 -0.717947
    30 12.391794 0.000000 0.000001 0.000000 0.000000 -1.774591
    31 9.337102 0.000000 0.000003 -1.167910 -0.320778 0.079422
    32 4.453986 -0.073766 -0.571672 0.047699 -0.153453 -0.767464
    33 1.426599 0.000002 0.000000 -0.053883 0.078890 -1.553256
    34 1.322465 -0.000001 0.000000 -0.013603 0.036958 -0.732277
    35 4.477036 -0.043465 -1.581290 -0.332128 -0.154804 0.170747
    36 1.344414 0.000000 0.000000 -0.042629 0.220735 -0.851579
    37 1.224670 0.000001 0.000000 0.008150 -0.000004 -0.000025
    38 2.630291 -0.359835 -1.904289 0.415078 0.423437 -0.720800
    39 1.059293 0.000000 0.000000 0.015101 0.038905 0.767148
    40 0.781204 0.000000 0.000000 0.004782 0.022537 0.418308
    41 -0.044717 2.528787 4.661499 -0.212677 -0.117855 0.023287
  time 6
    0 25.924528 -25.574479 34.203133 1.500112 -0.098539 0.332395
    1 3.890452 -0.000009 -0.000002 -1.916571 -0.560207 -1.375534
    2 17.848173 -0.000001 0.000000 0.000000 0.000000 0.900142
    3 15.638507 0.000000 0.000000 -0.060863 0.092541 -1.132115
    4 7.109929 0.000000 0.000000 -0.007119 -0.003131 -0.631738
    5 -3.890451 0.000001 0.000008 -1.638966 0.164222 -1.990934
    6 17.848177 0.000000 0.000000 0.000000 0.000000 1.551742
    7 15.638511 0.000000 0.000000 -0.225716 -0.051013 -0.881970
    8 7.109930 0.000000 0.000000 -0.081154 -0.003131 -0.631749
    9 0.324234 3.329502 -2.981901 1.421042 0.210939 1.534859
    10 4.018332 -0.000001 -0.000001 -0.352727 -0.042294 0.164659
    11 3.518564 0.000000 0.000001 -0.270698 0.060858 0.392681
    12 8.942632 0.000000 0.000000 -0.001207 0.050299 0.249895
    13 3.307274 0.000000 0.000001 3.141590 0.000000 0.400478
    14 3.593713 -0.000001 0.000001 0.627227 0.270699 0.805406
    15 2.033346 1.000768 1.101697 1.848180 -1.411864 2.688434
    16 6.809416 0.000001 0.000000 -1.685668 -0.301715 -0.957386
    17 12.391796 0.000000 0.000001 0.000000 0.000000 -1.683456
    18 9.337076 0.000000 -0.000031 -0.694510 0.158605 -0.168128
    19 4.454020 -0.070210 0.572073 0.096293 -0.007832 -0.804082
    20 1.426597 -0.000001 0.000000 0.023861 -0.079623 -1.125947
    21 1.322468 -0.000002 0.000000 0.009312 -0.033625 -0.575065
    22 4.477066 -0.028570 1.582474 0.476656 -0.055423 -1.136099
    23 1.344418 0.000000 0.000000 0.023466 -0.208305 -0.755723
    24 1.224671 0.000000 0.000000 0.026043 -0.124620 -0.538676
    25 2.630323 -0.345015 1.907214 -0.354022 -0.915164 -1.788195
    26 1.059292 0.000000 0.000001 0.000551 0.000004 0.000021
    27 0.781203 0.000000 0.000000 -0.000467 0.006940 -0.135953
    28 2.033353 1.000771 -1.101647 -2.784590 1.401436 1.822280
    29 6.809417 0.000001 0.000000 1.106514 0.739975 -0.710549
    30 12.391794 0.000000 0.000001 0.000000 0.000000 -1.742845
    31 9.337102 0.000000 0.000003 -1.162342 -0.320321 0.071996
    32 4.453986 -0.073766 -0.571672 0.047699 -0.153453 -0.767464
    33 1.426599 0.000002 0.000000 -0.053883 0.078890 -1.553256
    34 1.322465 -0.000001 0.000000 -0.013603 0.036958 -0.732277
    35 4.477036 -0.043465 -1.581290 -0.332128 -0.154804 0.170747
    36 1.344414 0.000000 0.000000 -0.042629 0.220735 -0.851579
    37 1.224670 0.000001 0.000000 0.008150 -0.000004 -0.000025
    38 2.630291 -0.359835 -1.904289 0.415078 0.423437 -0.720800
    39 1.059293 0.000000 0.000000 0.015101 0.038905 0.767148
    40 0.781204 0.000000 0.000000 0.004782 0.022537 0.418308
    41 -0.044717 2.528787 4.661499 -0.172595 -0.107626 0.003046
  time 7
    0 30.371980 -29.652367 33.709119 1.487624 -0.121084 0.353068
    1 3.890452 -0.000009 -0.000002 -1.980801 -0.429669 -1.447218
    2 17.848173 -0.000001 0.000000 0.000000 0.000000 1.057998
    3 15.638507 0.000000 0.000000 0.035385 0.137211 -1.405699
    4 7.109929 0.000000 0.000000 -0.007119 -0.003131 -0.631738
    5 -3.890451 0.000001 0.000008 -1.623711 0.004021 -1.942878
    6 17.848177 0.000000 0.000000 0.000000 0.000000 1.794067
    7 15.638511 0.000000 0.000000 -0.213486 -0.036313 -1.017388
    8 7.109930 0.000000 0.000000 -0.081154 -0.003131 -0.631749
    9 0.398455 3.321690 -2.981901 1.422335 0.166526 1.518900
    10 4.018332 -0.000001 -0.000001 -0.352727 -0.042294 0.164659
    11 3.518564 0.000000 0.000001 -0.270698 0.060858 0.392681
    12 8.942632 0.000000 0.000000 -0.001207 0.050299 0.249895
    13 3.307274 0.000000 0.000001 3.141590 0.000000 0.400478
    14 3.593713 -0.000001 0.000001 0.631108 0.243717 0.842170
    15 2.033346 1.000768 1.101697 1.848180 -1.411864 2.688434
    16 6.809416 0.000001 0.000000 -1.714453 -0.350974 -0.919995
    17 12.391796 0.000000 0.000001 0.000000 0.000000 -1.676044
    18 9.337076 0.000000 -0.000031 -0.706644 0.167154 -0.154454
    19 4.454020 -0.070210 0.572073 0.096293 -0.007832 -0.804082
    20 1.426597 -0.000001 0.000000 0.023861 -0.079623 -1.125947
    21 1.322468 -0.000002 0.000000 0.009312 -0.033625 -0.575065
    22 4.477066 -0.028570 1.582474 0.476656 -0.055423 -1.136099
    23 1.344418 0.000000 0.000000 0.023466 -0.208305 -0.755723
    24 1.224671 0.000000 0.000000 0.026043 -0.124620 -0.538676
    25 2.630323 -0.345015 1.907214 -0.354022 -0.915164 -1.788195
    26 1.059292 0.000000 0.000001 0.000551 0.000004 0.000021
    27 0.781203 0.000000 0.000000 -0.000467 0.006940 -0.135953
    28 2.033353 1.000771 -1.101647 -2.784590 1.401436 1.822280
    29 6.809417 0.000001 0.000000 1.139357 0.776459 -0.702893
    30 12.391794 0.000000 0.000001 0.000000 0.000000 -1.725176
    31 9.337102 0.000000 0.000003 -1.157413 -0.320131 0.065261
    32 4.453986 -0.073766 -0.571672 0.047699 -0.153453 -0.767464
    33 1.426599 0.000002 0.000000 -0.053883 0.078890 -1.553256
    34 1.322465 -0.000001 0.000000 -0.013603 0.036958 -0.732277
    35 4.477036 -0.043465 -1.581290 -0.332128 -0.154804 0.170747
    36 1.344414 0.000000 0.000000 -0.042629 0.220735 -0.851579
    37 1.224670 0.000001 0.000000 0.008150 -0.000004 -0.000025
    38 2.630291 -0.359835 -1.904289 0.415078 0.423437 -0.720800
    39 1.059293 0.000000 0.000000 0.015101 0.038905 0.767148
    40 0.781204 0.000000 0.000000 0.004782 0.022537 0.418308
    41 -0.044717 2.528787 4.661499 -0.129715 -0.095840 -0.013066
  time 8
    0 34.698335 -33.852143 33.760579 1.485245 -0.125749 0.359959
    1 3.890452 -0.000009 -0.000002 -1.992063 -0.212217 -1.541616
    2 17.848173 -0.000001 0.000000 0.000000 0.000000 1.008842
    3 15.638507 0.000000 0.000000 0.071371 0.167841 -1.582390
    4 7.109929 0.000000 0.000000 -0.007119 -0.003131 -0.631738
    5 -3.890451 0.000001 0.000008 -1.585669 -0.211975 -1.856319
    6 17.848177 0.000000 0.000000 0.000000 0.000000 1.924205
    7 15.638511 0.000000 0.000000 -0.194308 -0.019520 -1.140869
    8 7.109930 0.000000 0.000000 -0.081154 -0.003131 -0.631749
    9 0.417987 3.321690 -2.981901 1.423251 0.125544 1.520378
    10 4.018332 -0.000001 -0.000001 -0.352727 -0.042294 0.164659
    11 3.518564 0.000000 0.000001 -0.270698 0.060858 0.392681
    12 8.942632 0.000000 0.000000 -0.001207 0.050299 0.249895
    13 3.307274 0.000000 0.000001 3.141590 0.000000 0.400478
    14 3.593713 -0.000001 0.000001 0.633766 0.218705 0.875786
    15 2.033346 1.000768 1.101697 1.848180 -1.411864 2.688434
    16 6.809416 0.000001 0.000000 -1.758061 -0.364551 -0.873515
    17 12.391796 0.000000 0.000001 0.000000 0.000000 -1.740542
    18 9.337076 0.000000 -0.000031 -0.712086 0.170902 -0.098085
    19 4.454020 -0.070210 0.572073 0.096293 -0.007832 -0.804082
    20 1.426597 -0.000001 0.000000 0.023861 -0.079623 -1.125947
    21 1.322468 -0.000002 0.000000 0.009312 -0.033625 -0.575065
    22 4.477066 -0.028570 1.582474 0.476656 -0.055423 -1.136099
    23 1.344418 0.000000 0.000000 0.023466 -0.208305 -0.755723
    24 1.224671 0.000000 0.000000 0.026043 -0.124620 -0.538676
    25 2.630323 -0.345015 1.907214 -0.354022 -0.915164 -1.788195
    26 1.059292 0.000000 0.000001 0.000551 0.000004 0.000021
    27 0.781203 0.000000 0.000000 -0.000467 0.006940 -0.135953
    28 2.033353 1.000771 -1.101647 -2.784590 1.401436 1.822280
    29 6.809417 0.000001 0.000000 1.167373 0.809220 -0.699194
    30 12.391794 0.000000 0.000001 0.000000 0.000000 -1.737027
    31 9.337102 0.000000 0.000003 -1.155749 -0.319979 0.063448
    32 4.453986 -0.073766 -0.571672 0.047699 -0.153453 -0.767464
    33 1.426599 0.000002 0.000000 -0.053883 0.078890 -1.553256
    34 1.322465 -0.000001 0.000000 -0.013603 0.036958 -0.732277
    35 4.477036 -0.043465 -1.581290 -0.332128 -0.154804 0.170747
    36 1.344414 0.000000 0.000000 -0.042629 0.220735 -0.851579
    37 1.224670 0.000001 0.000000 0.008150 -0.000004 -0.000025
    38 2.630291 -0.359835 -1.904289 0.415078 0.423437 -0.720800
    39 1.059293 0.000000 0.000000 0.015101 0.038905 0.767148
    40 0.781204 0.000000 0.000000 0.004782 0.022537 0.418308
    41 -0.044717 2.528787 4.661499 -0.090023 -0.083801 -0.011343
  time 9
    0 39.001251 -38.275383 34.357512 1.493146 -0.111105 0.358811
    1 3.890452 -0.000009 -0.000002 -1.969253 -0.040091 -1.615504
    2 17.848173 -0.000001 0.000000 0.000000 0.000000 0.916161
    3 15.638507 0.000000 0.000000 0.174423 0.230591 -1.516008
    4 7.109929 0.000000 0.000000 -0.007119 -0.003131 -0.631738
    5 -3.890451 0.000001 0.000008 -1.548581 -0.424183 -1.736272
    6 17.848177 0.000000 0.000000 0.000000 0.000000 1.878064
    7 15.638511 0.000000 0.000000 -0.133530 -0.000452 -1.231976
    8 7.109930 0.000000 0.000000 -0.081154 -0.003131 -0.631749
    9 0.367204 3.325596 -2.981901 1.423790 0.094234 1.539765
    10 4.018332 -0.000001 -0.000001 -0.352727 -0.042294 0.164659
    11 3.518564 0.000000 0.000001 -0.270698 0.060858 0.392681
    12 8.942632 0.000000 0.000000 -0.001207 0.050299 0.249895
    13 3.307274 0.000000 0.000001 3.141590 0.000000 0.400478
    14 3.593713 -0.000001 0.000001 0.635200 0.199560 0.901302
    15 2.033346 1.000768 1.101697 1.848180 -1.411864 2.688434
    16 6.809416 0.000001 0.000000 -1.809033 -0.346661 -0.827699
    17 12.391796 0.000000 0.000001 0.000000 0.000000 -1.855187
    18 9.337076 0.000000 -0.000031 -0.712889 0.170705 -0.013157
    19 4.454020 -0.070210 0.572073 0.096293 -0.007832 -0.804082
    20 1.426597 -0.000001 0.000000 0.023861 -0.079623 -1.125947
    21 1.322468 -0.000002 0.000000 0.009312 -0.033625 -0.575065
    22 4.477066 -0.028570 1.582474 0.476656 -0.055423 -1.136099
    23 1.344418 0.000000 0.000000 0.023466 -0.208305 -0.755723
    24 1.224671 0.000000 0.000000 0.026043 -0.124620 -0.538676
    25 2.630323 -0.345015 1.907214 -0.354022 -0.915164 -1.788195
    26 1.059292 0.000000 0.000001 0.000551 0.000004 0.000021
    27 0.781203 0.000000 0.000000 -0.000467 0.006940 -0.135953
    28 2.033353 1.000771 -1.101647 -2.784590 1.401436 1.822280
    29 6.809417 0.000001 0.000000 1.184977 0.833704 -0.701344
    30 12.391794 0.000000 0.000001 0.000000 0.000000 -1.773729
    31 9.337102 0.000000 0.000003 -1.157861 -0.319979 0.067334
    32 4.453986 -0.073766 -0.571672 0.047699 -0.153453 -0.767464
    33 1.426599 0.000002 0.000000 -0.053883 0.078890 -1.553256
    34 1.322465 -0.000001 0.000000 -0.013603 0.036958 -0.732277
    35 4.477036 -0.043465 -1.581290 -0.332128 -0.154804 0.170747
    36 1.344414 0.000000 0.000000 -0.042629 0.220735 -0.851579
    37 1.224670 0.000001 0.000000 0.008150 -0.000004 -0.000025
    38 2.630291 -0.359835 -1.904289 0.415078 0.423437 -0.720800
    39 1.059293 0.000000 0.000000 0.015101 0.038905 0.767148
    40 0.781204 0.000000 0.000000 0.004782 0.022537 0.418308
    41 -0.044717 2.528787 4.661499 -0.059376 -0.072778 0.008337
  time 10
    0 43.362763 -42.911927 35.273495 1.506059 -0.091471 0.318612
    1 3.890452 -0.000009 -0.000002 -1.874769 0.151434 -1.709422
    2 17.848173 -0.000001 0.000000 0.000000 0.000000 0.732264
    3 15.638507 0.000000 0.000000 0.184139 0.142505 -1.322731
    4 7.109929 0.000000 0.000000 -0.006293 -0.004018 -0.862117
    5 -3.890451 0.000001 0.000008 -1.520265 -0.560078 -1.625780
    6 17.848177 0.000000 0.000000 0.000000 0.000000 1.655236
    7 15.638511 0.000000 0.000000 -0.046533 0.004417 -1.299971
    8 7.109930 0.000000 0.000000 -0.081154 -0.003131 -0.631749
    9 0.300795 3.333409 -2.981901 1.424006 0.078891 1.562580
    10 4.018332 -0.000001 -0.000001 -0.352727 -0.042294 0.164659
    11 3.518564 0.000000 0.000001 -0.270698 0.060858 0.392681
    12 8.942632 0.000000 0.000000 -0.001207 0.050299 0.249895
    13 3.307274 0.000000 0.000001 3.141590 0.000000 0.400478
    14 3.593713 -0.000001 0.000001 0.635707 0.190138 0.913766
    15 2.033346 1.000768 1.101697 1.848180 -1.411864 2.688434
    16 6.809416 0.000001 0.000000 -1.848433 -0.317351 -0.797501
    17 12.391796 0.000000 0.000001 0.000000 0.000000 -1.961316
    18 9.337076 0.000000 -0.000031 -0.712086 0.168239 0.061790
    19 4.454020 -0.070210 0.572073 0.096293 -0.007832 -0.804082
    20 1.426597 -0.000001 0.000000 0.023861 -0.079623 -1.125947
    21 1.322468 -0.000002 0.000000 0.009312 -0.033625 -0.575065
    22 4.477066 -0.028570 1.582474 0.476656 -0.055423 -1.136099
    23 1.344418 0.000000 0.000000 0.023466 -0.208305 -0.755723
    24 1.224671 0.000000 0.000000 0.026043 -0.124620 -0.538676
    25 2.630323 -0.345015 1.907214 -0.354022 -0.915164 -1.788195
    26 1.059292 0.000000 0.000001 0.000551 0.000004 0.000021
    27 0.781203 0.000000 0.000000 -0.000467 0.006940 -0.135953
    28 2.033353 1.000771 -1.101647 -2.784590 1.401436 1.822280
    29 6.809417 0.000001 0.000000 1.189804 0.845486 -0.707108
    30 12.391794 0.000000 0.000001 0.000000 0.000000 -1.813304
    31 9.337102 0.000000 0.000003 -1.161574 -0.320321 0.072946
    32 4.453986 -0.073766 -0.571672 0.047699 -0.153453 -0.767464
    33 1.426599 0.000002 0.000000 -0.053883 0.078890 -1.553256
    34 1.322465 -0.000001 0.000000 -0.013603 0.036958 -0.732277
    35 4.477036 -0.043465 -1.581290 -0.332128 -0.154804 0.170747
    36 1.344414 0.000000 0.000000 -0.042629 0.220735 -0.851579
    37 1.224670 0.000001 0.000000 0.008150 -0.000004 -0.000025
    38 2.630291 -0.359835 -1.904289 0.415078 0.423437 -0.720800
    39 1.059293 0.000000 0.000000 0.015101 0.038905 0.767148
    40 0.781204 0.000000 0.000000 0.004782 0.022537 0.418308
    41 -0.044717 2.528787 4.661499 -0.043564 -0.061246 0.031263
  time 11
    0 47.775058 -47.589101 36.024807 1.519313 -0.085003 0.275543
    1 3.890452 -0.000009 -0.000002 -1.996740 0.310596 -1.766539
    2 17.848173 -0.000001 0.000000 0.000000 0.000000 0.557876
    3 15.638507 0.000000 0.000000 0.152394 0.188522 -0.991878
    4 7.109929 0.000000 0.000000 -0.005526 -0.004569 -1.040167
    5 -3.890451 0.000001 0.000008 -1.445898 -0.606721 -1.583873
    6 17.848177 0.000000 0.000000 0.000000 0.000000 1.332326
    7 15.638511 0.000000 0.000000 0.014893 -0.039726 -1.361759
    8 7.109930 0.000000 0.000000 -0.081154 -0.003131 -0.631749
    9 0.277357 3.333409 -2.981901 1.423790 0.093922 1.567013
    10 4.018332 -0.000001 -0.000001 -0.352727 -0.042294 0.164659
    11 3.518564 0.000000 0.000001 -0.270698 0.060858 0.392681
    12 8.942632 0.000000 0.000000 -0.001207 0.050299 0.249895
    13 3.307274 0.000000 0.000001 3.141590 0.000000 0.400478
    14 3.593713 -0.000001 0.000001 0.635200 0.199367 0.901554
    15 2.033346 1.000768 1.101697 1.848180 -1.411864 2.688434
    16 6.809416 0.000001 0.000000 -1.844608 -0.287207 -0.808387
    17 12.391796 0.000000 0.000001 0.000000 0.000000 -2.003026
    18 9.337076 0.000000 -0.000031 -0.703521 0.162386 0.083772
    19 4.454020 -0.070210 0.572073 0.096293 -0.007832 -0.804082
    20 1.426597 -0.000001 0.000000 0.023861 -0.079623 -1.125947
    21 1.322468 -0.000002 0.000000 0.009312 -0.033625 -0.575065
    22 4.477066 -0.028570 1.582474 0.476656 -0.055423 -1.136099
    23 1.344418 0.000000 0.000000 0.023466 -0.208305 -0.755723
    24 1.224671 0.000000 0.000000 0.026043 -0.124620 -0.538676
    25 2.630323 -0.345015 1.907214 -0.354022 -0.915164 -1.788195
    26 1.059292 0.000000 0.000001 0.000551 0.000004 0.000021
    27 0.781203 0.000000 0.000000 -0.000467 0.006940 -0.135953
    28 2.033353 1.000771 -1.101647 -2.784590 1.401436 1.822280
    29 6.809417 0.000001 0.000000 1.177784 0.833135 -0.710807
    30 12.391794 0.000000 0.000001 0.000000 0.000000 -1.833846
    31 9.337102 0.000000 0.000003 -1.162598 -0.320512 0.074759
    32 4.453986 -0.073766 -0.571672 0.047699 -0.153453 -0.767464
    33 1.426599 0.000002 0.000000 -0.053883 0.078890 -1.553256
    34 1.322465 -0.000001 0.000000 -0.013603 0.036958 -0.732277
    35 4.477036 -0.043465 -1.581290 -0.332128 -0.154804 0.170747
    36 1.344414 0.000000 0.000000 -0.042629 0.220735 -0.851579
    37 1.224670 0.000001 0.000000 0.008150 -0.000004 -0.000025
    38 2.630291 -0.359835 -1.904289 0.415078 0.423437 -0.720800
    39 1.059293 0.000000 0.000000 0.015101 0.038905 0.767148
    40 0.781204 0.000000 0.000000 0.004782 0.022537 0.418308
    41 -0.044717 2.528787 4.661499 -0.057229 -0.046761 0.036834
  time 12
    0 52.128757 -52.103756 36.302689 1.532736 -0.106578 0.231421
    1 3.890452 -0.000009 -0.000002 -2.046272 0.338132 -1.856911
    2 17.848173 -0.000001 0.000000 0.000000 0.000000 0.635853
    3 15.638507 0.000000 0.000000 0.215504 0.220239 -0.868045
    4 7.109929 0.000000 0.000000 -0.005981 -0.004269 -0.938042
    5 -3.890451 0.000001 0.000008 -1.394222 -0.623253 -1.572048
    6 17.848177 0.000000 0.000000 0.000000 0.000000 1.016889
    7 15.638511 0.000000 0.000000 0.075300 -0.148538 -1.418582
    8 7.109930 0.000000 0.000000 -0.081154 -0.003131 -0.631749
    9 0.351578 3.329502 -2.981901 1.423036 0.138137 1.538228
    10 4.018332 -0.000001 -0.000001 -0.352727 -0.042294 0.164659
    11 3.518564 0.000000 0.000001 -0.270698 0.060858 0.392681
    12 8.942632 0.000000 0.000000 -0.001207 0.050299 0.249895
    13 3.307274 0.000000 0.000001 3.141590 0.000000 0.400478
    14 3.593713 -0.000001 0.000001 0.633049 0.226392 0.865504
    15 2.033346 1.000768 1.101697 1.848180 -1.411864 2.688434
    16 6.809416 0.000001 0.000000 -1.791532 -0.271523 -0.863386
    17 12.391796 0.000000 0.000001 0.000000 0.000000 -1.945704
    18 9.337076 0.000000 -0.000031 -0.687015 0.156698 0.031558
    19 4.454020 -0.070210 0.572073 0.096293 -0.007832 -0.804082
    20 1.426597 -0.000001 0.000000 0.023861 -0.079623 -1.125947
    21 1.322468 -0.000002 0.000000 0.009312 -0.033625 -0.575065
    22 4.477066 -0.028570 1.582474 0.476656 -0.055423 -1.136099
    23 1.344418 0.000000 0.000000 0.023466 -0.208305 -0.755723
    24 1.224671 0.000000 0.000000 0.026043 -0.124620 -0.538676
    25 2.630323 -0.345015 1.907214 -0.354022 -0.915164 -1.788195
    26 1.059292 0.000000 0.000001 0.000551 0.000004 0.000021
    27 0.781203 0.000000 0.000000 -0.000467 0.006940 -0.135953
    28 2.033353 1.000771 -1.101647 -2.784590 1.401436 1.822280
    29 6.809417 0.000001 0.000000 1.155068 0.797833 -0.705215
    30 12.391794 0.000000 0.000001 0.000000 0.000000 -1.819840
    31 9.337102 0.000000 0.000003 -1.157477 -0.319826 0.068197
    32 4.453986 -0.073766 -0.571672 0.047699 -0.153453 -0.767464
    33 1.426599 0.000002 0.000000 -0.053883 0.078890 -1.553256
    34 1.322465 -0.000001 0.000000 -0.013603 0.036958 -0.732277
    35 4.477036 -0.043465 -1.581290 -0.332128 -0.154804 0.170747
    36 1.344414 0.000000 0.000000 -0.042629 0.220735 -0.851579
    37 1.224670 0.000001 0.000000 0.008150 -0.000004 -0.000025
    38 2.630291 -0.359835 -1.904289 0.415078 0.423437 -0.720800
    39 1.059293 0.000000 0.000000 0.015101 0.038905 0.767148
    40 0.781204 0.000000 0.000000 0.004782 0.022537 0.418308
    41 -0.044717 2.528787 4.661499 -0.099588 -0.030115 0.010060
  time 13
    0 56.470737 -56.445736 35.489626 1.559837 0.050679 0.139252
    1 3.890452 -0.000009 -0.000002 -2.106399 0.322377 -1.806502
    2 17.848173 -0.000001 0.000000 0.000000 0.000000 0.987775
    3 15.638507 0.000000 0.000000 0.355935 0.233451 -0.762001
    4 7.109929 0.000000 0.000000 -0.007119 -0.003131 -0.631738
    5 -3.890451 0.000001 0.000008 -1.452000 -0.587139 -1.347469
    6 17.848177 0.000000 0.000000 0.000000 0.000000 0.835816
    7 15.638511 0.000000 0.000000 0.205471 -0.373899 -1.261771
    8 7.109930 0.000000 0.000000 -0.081154 -0.003131 -0.631749
    9 -0.164063 3.341221 -2.981901 1.419857 0.243979 1.676065
    10 4.018332 -0.000001 -0.000001 -0.352727 -0.042294 0.164659
    11 3.518564 0.000000 0.000001 -0.270698 0.060858 0.392681
    12 8.942632 0.000000 0.000000 -0.001207 0.050299 0.249895
    13 3.307274 0.000000 0.000001 3.141590 0.000000 0.400478
    14 3.593713 -0.000001 0.000001 0.623641 0.290657 0.777791
    15 2.033346 1.000768 1.101697 1.848180 -1.411864 2.688434
    16 6.809416 0.000001 0.000000 -1.674001 -0.226920 -0.963445
    17 12.391796 0.000000 0.000001 0.000000 0.000000 -1.716730
    18 9.337076 0.000000 -0.000031 -0.702450 0.145222 -0.188437
    19 4.454020 -0.070210 0.572073 0.096293 -0.007832 -0.804082
    20 1.426597 -0.000001 0.000000 0.023861 -0.079623 -1.125947
    21 1.322468 -0.000002 0.000000 0.009312 -0.033625 -0.575065
    22 4.477066 -0.028570 1.582474 0.476656 -0.055423 -1.136099
    23 1.344418 0.000000 0.000000 0.023466 -0.208305 -0.755723
    24 1.224671 0.000000 0.000000 0.026043 -0.124620 -0.538676
    25 2.630323 -0.345015 1.907214 -0.354022 -0.915164 -1.788195
    26 1.059292 0.000000 0.000001 0.000551 0.000004 0.000021
    27 0.781203 0.000000 0.000000 -0.000467 0.006940 -0.135953
    28 2.033353 1.000771 -1.101647 -2.784590 1.401436 1.822280
    29 6.809417 0.000001 0.000000 1.052564 0.706950 -0.760099
    30 12.391794 0.000000 0.000001 0.000000 0.000000 -1.776674
    31 9.337102 0.000000 0.000003 -1.200169 -0.322682 0.112665
    32 4.453986 -0.073766 -0.571672 0.047699 -0.153453 -0.767464
    33 1.426599 0.000002 0.000000 -0.053883 0.078890 -1.553256
    34 1.322465 -0.000001 0.000000 -0.013603 0.036958 -0.732277
    35 4.477036 -0.043465 -1.581290 -0.332128 -0.154804 0.170747
    36 1.344414 0.000000 0.000000 -0.042629 0.220735 -0.851579
    37 1.224670 0.000001 0.000000 0.008150 -0.000004 -0.000025
    38 2.630291 -0.359835 -1.904289 0.415078 0.423437 -0.720800
    39 1.059293 0.000000 0.000000 0.015101 0.038905 0.767148
    40 0.781204 0.000000 0.000000 0.004782 0.022537 0.418308
    41 -0.044717 2.528787 4.661499 -0.204803 0.005654 0.158277
  time 14
    0 60.683807 -60.645513 35.057364 1.542166 0.045874 0.109295
    1 3.890452 -0.000009 -0.000002 -2.174256 0.232434 -1.743060
    2 17.848173 -0.000001 0.000000 0.000000 0.000000 1.331211
    3 15.638507 0.000000 0.000000 0.397871 -0.014051 -0.930490
    4 7.109929 0.000000 0.000000 -0.007119 -0.003131 -0.631738
    5 -3.890451 0.000001 0.000008 -1.402422 -0.506350 -1.379916
    6 17.848177 0.000000 0.000000 0.000000 0.000000 0.849139
    7 15.638511 0.000000 0.000000 0.063719 -0.313417 -1.289753
    8 7.109930 0.000000 0.000000 -0.081154 -0.003131 -0.631749
    9 -0.144531 3.345128 -2.981901 1.420773 0.218596 1.675297
    10 4.018332 -0.000001 -0.000001 -0.352727 -0.042294 0.164659
    11 3.518564 0.000000 0.000001 -0.270698 0.060858 0.392681
    12 8.942632 0.000000 0.000000 -0.001207 0.050299 0.249895
    13 3.307274 0.000000 0.000001 3.141590 0.000000 0.400478
    14 3.593713 -0.000001 0.000001 0.626467 0.275346 0.799027
    15 2.033346 1.000768 1.101697 1.848180 -1.411864 2.688434
    16 6.809416 0.000001 0.000000 -1.705273 -0.216872 -0.932680
    17 12.391796 0.000000 0.000001 0.000000 0.000000 -1.800308
    18 9.337076 0.000000 -0.000031 -0.700844 0.142855 -0.127452
    19 4.454020 -0.070210 0.572073 0.096293 -0.007832 -0.804082
    20 1.426597 -0.000001 0.000000 0.023861 -0.079623 -1.125947
    21 1.322468 -0.000002 0.000000 0.009312 -0.033625 -0.575065
    22 4.477066 -0.028570 1.582474 0.476656 -0.055423 -1.136099
    23 1.344418 0.000000 0.000000 0.023466 -0.208305 -0.755723
    24 1.224671 0.000000 0.000000 0.026043 -0.124620 -0.538676
    25 2.630323 -0.345015 1.907214 -0.354022 -0.915164 -1.788195
    26 1.059292 0.000000 0.000001 0.000551 0.000004 0.000021
    27 0.781203 0.000000 0.000000 -0.000467 0.006940 -0.135953
    28 2.033353 1.000771 -1.101647 -2.784590 1.401436 1.822280
    29 6.809417 0.000001 0.000000 1.066951 0.728017 -0.760701
    30 12.391794 0.000000 0.000001 0.000000 0.000000 -1.799083
    31 9.337102 0.000000 0.000003 -1.198633 -0.323405 0.111456
    32 4.453986 -0.073766 -0.571672 0.047699 -0.153453 -0.767464
    33 1.426599 0.000002 0.000000 -0.053883 0.078890 -1.553256
    34 1.322465 -0.000001 0.000000 -0.013603 0.036958 -0.732277
    35 4.477036 -0.043465 -1.581290 -0.332128 -0.154804 0.170747
    36 1.344414 0.000000 0.000000 -0.042629 0.220735 -0.851579
    37 1.224670 0.000001 0.000000 0.008150 -0.000004 -0.000025
    38 2.630291 -0.359835 -1.904289 0.415078 0.423437 -0.720800
    39 1.059293 0.000000 0.000000 0.015101 0.038905 0.767148
    40 0.781204 0.000000 0.000000 0.004782 0.022537 0.418308
    41 -0.044717 2.528787 4.661499 -0.179297 -0.020712 0.155632
  time 15
    0 64.756248 -64.764031 34.532475 1.529932 0.050494 0.086516
    1 3.890452 -0.000009 -0.000002 -2.215676 0.107905 -1.641667
    2 17.848173 -0.000001 0.000000 0.000000 0.000000 1.663894
    3 15.638507 0.000000 0.000000 0.421703 -0.242929 -1.122272
    4 7.109929 0.000000 0.000000 -0.007119 -0.003131 -0.631738
    5 -3.890451 0.000001 0.000008 -1.337780 -0.404354 -1.454271
    6 17.848177 0.000000 0.000000 0.000000 0.000000 0.929155
    7 15.638511 0.000000 0.000000 -0.136403 -0.250888 -1.390314
    8 7.109930 0.000000 0.000000 -0.081154 -0.003131 -0.631749
    9 -0.164063 3.341221 -2.981901 1.421689 0.189782 1.684813
    10 4.018332 -0.000001 -0.000001 -0.352727 -0.042294 0.164659
    11 3.518564 0.000000 0.000001 -0.270698 0.060858 0.392681
    12 8.942632 0.000000 0.000000 -0.001207 0.050299 0.249895
    13 3.307274 0.000000 0.000001 3.141590 0.000000 0.400478
    14 3.593713 -0.000001 0.000001 0.629210 0.257872 0.822990
    15 2.033346 1.000768 1.101697 1.848180 -1.411864 2.688434
    16 6.809416 0.000001 0.000000 -1.743812 -0.204668 -0.896045
    17 12.391796 0.000000 0.000001 0.000000 0.000000 -1.893428
    18 9.337076 0.000000 -0.000031 -0.702183 0.140389 -0.059660
    19 4.454020 -0.070210 0.572073 0.096293 -0.007832 -0.804082
    20 1.426597 -0.000001 0.000000 0.023861 -0.079623 -1.125947
    21 1.322468 -0.000002 0.000000 0.009312 -0.033625 -0.575065
    22 4.477066 -0.028570 1.582474 0.476656 -0.055423 -1.136099
    23 1.344418 0.000000 0.000000 0.023466 -0.208305 -0.755723
    24 1.224671 0.000000 0.000000 0.026043 -0.124620 -0.538676
    25 2.630323 -0.345015 1.907214 -0.354022 -0.915164 -1.788195
    26 1.059292 0.000000 0.000001 0.000551 0.000004 0.000021
    27 0.781203 0.000000 0.000000 -0.000467 0.006940 -0.135953
    28 2.033353 1.000771 -1.101647 -2.784590 1.401436 1.822280
    29 6.809417 0.000001 0.000000 1.080769 0.751494 -0.764916
    30 12.391794 0.000000 0.000001 0.000000 0.000000 -1.826017
    31 9.337102 0.000000 0.000003 -1.199849 -0.324509 0.112665
    32 4.453986 -0.073766 -0.571672 0.047699 -0.153453 -0.767464
    33 1.426599 0.000002 0.000000 -0.053883 0.078890 -1.553256
    34 1.322465 -0.000001 0.000000 -0.013603 0.036958 -0.732277
    35 4.477036 -0.043465 -1.581290 -0.332128 -0.154804 0.170747
    36 1.344414 0.000000 0.000000 -0.042629 0.220735 -0.851579
    37 1.224670 0.000001 0.000000 0.008150 -0.000004 -0.000025
    38 2.630291 -0.359835 -1.904289 0.415078 0.423437 -0.720800
    39 1.059293 0.000000 0.000000 0.015101 0.038905 0.767148
    40 0.781204 0.000000 0.000000 0.004782 0.022537 0.418308
    41 -0.044717 2.528787 4.661499 -0.150016 -0.046792 0.160642
  time 16
    0 68.766186 -68.831761 34.203133 1.525175 0.061165 0.073882
    1 3.890452 -0.000009 -0.000002 -2.193153 -0.102876 -1.470506
    2 17.848173 -0.000001 0.000000 0.000000 0.000000 1.927890
    3 15.638507 0.000000 0.000000 0.480477 -0.391378 -1.285730
    4 7.109929 0.000000 0.000000 -0.007119 -0.003131 -0.631738
    5 -3.890451 0.000001 0.000008 -1.368385 -0.264080 -1.527018
    6 17.848177 0.000000 0.000000 0.000000 0.000000 0.949220
    7 15.638511 0.000000 0.000000 -0.176056 -0.221853 -1.503863
    8 7.109930 0.000000 0.000000 -0.081154 -0.003131 -0.631749
    9 -0.199220 3.341221 -2.981901 1.422335 0.167859 1.699354
    10 4.018332 -0.000001 -0.000001 -0.352727 -0.042294 0.164659
    11 3.518564 0.000000 0.000001 -0.270698 0.060858 0.392681
    12 8.942632 0.000000 0.000000 -0.001207 0.050299 0.249895
    13 3.307274 0.000000 0.000001 3.141590 0.000000 0.400478
    14 3.593713 -0.000001 0.000001 0.631024 0.244530 0.841078
    15 2.033346 1.000768 1.101697 1.848180 -1.411864 2.688434
    16 6.809416 0.000001 0.000000 -1.778718 -0.188543 -0.864712
    17 12.391796 0.000000 0.000001 0.000000 0.000000 -1.978189
    18 9.337076 0.000000 -0.000031 -0.704413 0.137331 0.000863
    19 4.454020 -0.070210 0.572073 0.096293 -0.007832 -0.804082
    20 1.426597 -0.000001 0.000000 0.023861 -0.079623 -1.125947
    21 1.322468 -0.000002 0.000000 0.009312 -0.033625 -0.575065
    22 4.477066 -0.028570 1.582474 0.476656 -0.055423 -1.136099
    23 1.344418 0.000000 0.000000 0.023466 -0.208305 -0.755723
    24 1.224671 0.000000 0.000000 0.026043 -0.124620 -0.538676
    25 2.630323 -0.345015 1.907214 -0.354022 -0.915164 -1.788195
    26 1.059292 0.000000 0.000001 0.000551 0.000004 0.000021
    27 0.781203 0.000000 0.000000 -0.000467 0.006940 -0.135953
    28 2.033353 1.000771 -1.101647 -2.784590 1.401436 1.822280
    29 6.809417 0.000001 0.000000 1.088909 0.769013 -0.771368
    30 12.391794 0.000000 0.000001 0.000000 0.000000 -1.853238
    31 9.337102 0.000000 0.000003 -1.202985 -0.325956 0.115601
    32 4.453986 -0.073766 -0.571672 0.047699 -0.153453 -0.767464
    33 1.426599 0.000002 0.000000 -0.053883 0.078890 -1.553256
    34 1.322465 -0.000001 0.000000 -0.013603 0.036958 -0.732277
    35 4.477036 -0.043465 -1.581290 -0.332128 -0.154804 0.170747
    36 1.344414 0.000000 0.000000 -0.042629 0.220735 -0.851579
    37 1.224670 0.000001 0.000000 0.008150 -0.000004 -0.000025
    38 2.630291 -0.359835 -1.904289 0.415078 0.423437 -0.720800
    39 1.059293 0.000000 0.000000 0.015101 0.038905 0.767148
    40 0.781204 0.000000 0.000000 0.004782 0.022537 0.418308
    41 -0.044717 2.528787 4.661499 -0.127307 -0.070586 0.168859
  time 17
    0 72.838627 -72.980751 34.254592 1.529337 0.058948 0.075509
    1 3.890452 -0.000009 -0.000002 -2.169388 -0.343464 -1.314008
    2 17.848173 -0.000001 0.000000 0.000000 0.000000 2.064386
    3 15.638507 0.000000 0.000000 0.520704 -0.425483 -1.401142
    4 7.109929 0.000000 0.000000 -0.007119 -0.003131 -0.631738
    5 -3.890451 0.000001 0.000008 -1.452476 -0.103879 -1.618780
    6 17.848177 0.000000 0.000000 0.000000 0.000000 0.893331
    7 15.638511 0.000000 0.000000 -0.055428 -0.222263 -1.579785
    8 7.109930 0.000000 0.000000 -0.081154 -0.003131 -0.631749
    9 -0.191407 3.341221 -2.981901 1.422443 0.163151 1.698053
    10 4.018332 -0.000001 -0.000001 -0.352727 -0.042294 0.164659
    11 3.518564 0.000000 0.000001 -0.270698 0.060858 0.392681
    12 8.942632 0.000000 0.000000 -0.001207 0.050299 0.249895
    13 3.307274 0.000000 0.000001 3.141590 0.000000 0.400478
    14 3.593713 -0.000001 0.000001 0.631361 0.241639 0.844981
    15 2.033346 1.000768 1.101697 1.848180 -1.411864 2.688434
    16 6.809416 0.000001 0.000000 -1.795836 -0.169378 -0.853258
    17 12.391796 0.000000 0.000001 0.000000 0.000000 -2.039454
    18 9.337076 0.000000 -0.000031 -0.700666 0.133352 0.044020
    19 4.454020 -0.070210 0.572073 0.096293 -0.007832 -0.804082
    20 1.426597 -0.000001 0.000000 0.023861 -0.079623 -1.125947
    21 1.322468 -0.000002 0.000000 0.009312 -0.033625 -0.575065
    22 4.477066 -0.028570 1.582474 0.476656 -0.055423 -1.136099
    23 1.344418 0.000000 0.000000 0.023466 -0.208305 -0.755723
    24 1.224671 0.000000 0.000000 0.026043 -0.124620 -0.538676
    25 2.630323 -0.345015 1.907214 -0.354022 -0.915164 -1.788195
    26 1.059292 0.000000 0.000001 0.000551 0.000004 0.000021
    27 0.781203 0.000000 0.000000 -0.000467 0.006940 -0.135953
    28 2.033353 1.000771 -1.101647 -2.784590 1.401436 1.822280
    29 6.809417 0.000001 0.000000 1.091465 0.772867 -0.771626
    30 12.391794 0.000000 0.000001 0.000000 0.000000 -1.875863
    31 9.337102 0.000000 0.000003 -1.202217 -0.326831 0.115169
    32 4.453986 -0.073766 -0.571672 0.047699 -0.153453 -0.767464
    33 1.426599 0.000002 0.000000 -0.053883 0.078890 -1.553256
    34 1.322465 -0.000001 0.000000 -0.013603 0.036958 -0.732277
    35 4.477036 -0.043465 -1.581290 -0.332128 -0.154804 0.170747
    36 1.344414 0.000000 0.000000 -0.042629 0.220735 -0.851579
    37 1.224670 0.000001 0.000000 0.008150 -0.000004 -0.000025
    38 2.630291 -0.359835 -1.904289 0.415078 0.423437 -0.720800
    39 1.059293 0.000000 0.000000 0.015101 0.038905 0.767148
    40 0.781204 0.000000 0.000000 0.004782 0.022537 0.418308
    41 -0.044717 2.528787 4.661499 -0.121516 -0.090916 0.161243
  time 18
    0 77.051697 -77.292259 34.676562 1.539277 0.036173 0.092067
    1 3.890452 -0.000009 -0.000002 -2.148106 -0.573218 -1.229770
    2 17.848173 -0.000001 0.000000 0.000000 0.000000 1.980045
    3 15.638507 0.000000 0.000000 0.378027 -0.334749 -1.411568
    4 7.109929 0.000000 0.000000 -0.007119 -0.003131 -0.631738
    5 -3.890451 0.000001 0.000008 -1.532373 0.052435 -1.735799
    6 17.848177 0.000000 0.000000 0.000000 0.000000 0.798204
    7 15.638511 0.000000 0.000000 0.075115 -0.183671 -1.517615
    8 7.109930 0.000000 0.000000 -0.081154 -0.003131 -0.631749
    9 -0.117186 3.345128 -2.981901 1.421689 0.190491 1.670864
    10 4.018332 -0.000001 -0.000001 -0.352727 -0.042294 0.164659
    11 3.518564 0.000000 0.000001 -0.270698 0.060858 0.392681
    12 8.942632 0.000000 0.000000 -0.001207 0.050299 0.249895
    13 3.307274 0.000000 0.000001 3.141590 0.000000 0.400478
    14 3.593713 -0.000001 0.000001 0.629167 0.258278 0.822403
    15 2.033346 1.000768 1.101697 1.848180 -1.411864 2.688434
    16 6.809416 0.000001 0.000000 -1.776805 -0.141342 -0.879006
    17 12.391796 0.000000 0.000001 0.000000 0.000000 -2.059639
    18 9.337076 0.000000 -0.000031 -0.683090 0.126513 0.052674
    19 4.454020 -0.070210 0.572073 0.096293 -0.007832 -0.804082
    20 1.426597 -0.000001 0.000000 0.023861 -0.079623 -1.125947
    21 1.322468 -0.000002 0.000000 0.009312 -0.033625 -0.575065
    22 4.477066 -0.028570 1.582474 0.476656 -0.055423 -1.136099
    23 1.344418 0.000000 0.000000 0.023466 -0.208305 -0.755723
    24 1.224671 0.000000 0.000000 0.026043 -0.124620 -0.538676
    25 2.630323 -0.345015 1.907214 -0.354022 -0.915164 -1.788195
    26 1.059292 0.000000 0.000001 0.000551 0.000004 0.000021
    27 0.781203 0.000000 0.000000 -0.000467 0.006940 -0.135953
    28 2.033353 1.000771 -1.101647 -2.784590 1.401436 1.822280
    29 6.809417 0.000001 0.000000 1.082757 0.751056 -0.761647
    30 12.391794 0.000000 0.000001 0.000000 0.000000 -1.889653
    31 9.337102 0.000000 0.000003 -1.195177 -0.326336 0.109039
    32 4.453986 -0.073766 -0.571672 0.047699 -0.153453 -0.767464
    33 1.426599 0.000002 0.000000 -0.053883 0.078890 -1.553256
    34 1.322465 -0.000001 0.000000 -0.013603 0.036958 -0.732277
    35 4.477036 -0.043465 -1.581290 -0.332128 -0.154804 0.170747
    36 1.344414 0.000000 0.000000 -0.042629 0.220735 -0.851579
    37 1.224670 0.000001 0.000000 0.008150 -0.000004 -0.000025
    38 2.630291 -0.359835 -1.904289 0.415078 0.423437 -0.720800
    39 1.059293 0.000000 0.000000 0.015101 0.038905 0.767148
    40 0.781204 0.000000 0.000000 0.004782 0.022537 0.418308
    41 -0.044717 2.528787 4.661499 -0.147934 -0.107340 0.131263
end
