// Created by Crowbar 0.68
version 1
nodes
  0 "ValveBiped.Bip01_Pelvis" -1
  1 "ValveBiped.Bip01_L_Thigh" 0
  2 "ValveBiped.Bip01_L_Calf" 1
  3 "ValveBiped.Bip01_L_Foot" 2
  4 "ValveBiped.Bip01_L_Toe0" 3
  5 "ValveBiped.Bip01_R_Thigh" 0
  6 "ValveBiped.Bip01_R_Calf" 5
  7 "ValveBiped.Bip01_R_Foot" 6
  8 "ValveBiped.Bip01_R_Toe0" 7
  9 "ValveBiped.Bip01_Spine" 0
  10 "ValveBiped.Bip01_Spine1" 9
  11 "ValveBiped.Bip01_Spine2" 10
  12 "ValveBiped.Bip01_Spine4" 11
  13 "ValveBiped.Bip01_Neck1" 12
  14 "ValveBiped.Bip01_Head1" 13
  15 "ValveBiped.Bip01_L_Clavicle" 12
  16 "ValveBiped.Bip01_L_UpperArm" 15
  17 "ValveBiped.Bip01_L_Forearm" 16
  18 "ValveBiped.Bip01_L_Hand" 17
  19 "ValveBiped.Bip01_L_Finger2" 18
  20 "ValveBiped.Bip01_L_Finger21" 19
  21 "ValveBiped.Bip01_L_Finger22" 20
  22 "ValveBiped.Bip01_L_Finger1" 18
  23 "ValveBiped.Bip01_L_Finger11" 22
  24 "ValveBiped.Bip01_L_Finger12" 23
  25 "ValveBiped.Bip01_L_Finger0" 18
  26 "ValveBiped.Bip01_L_Finger01" 25
  27 "ValveBiped.Bip01_L_Finger02" 26
  28 "ValveBiped.Bip01_R_Clavicle" 12
  29 "ValveBiped.Bip01_R_UpperArm" 28
  30 "ValveBiped.Bip01_R_Forearm" 29
  31 "ValveBiped.Bip01_R_Hand" 30
  32 "ValveBiped.Bip01_R_Finger2" 31
  33 "ValveBiped.Bip01_R_Finger21" 32
  34 "ValveBiped.Bip01_R_Finger22" 33
  35 "ValveBiped.Bip01_R_Finger1" 31
  36 "ValveBiped.Bip01_R_Finger11" 35
  37 "ValveBiped.Bip01_R_Finger12" 36
  38 "ValveBiped.Bip01_R_Finger0" 31
  39 "ValveBiped.Bip01_R_Finger01" 38
  40 "ValveBiped.Bip01_R_Finger02" 39
  41 "ValveBiped.Cod" 0
  42 "ValveBiped.Anim_Attachment_LH" 18
  43 "ValveBiped.Anim_Attachment_RH" 31
end
skeleton
  time 0
    0 -2.518051 -0.612803 38.066902 1.555148 0.004452 0.392405
    1 3.890452 -0.000004 -0.000003 -2.509901 -0.189912 -1.135849
    2 17.848175 0.000000 0.000000 0.000000 0.000000 1.069128
    3 16.525249 0.000000 0.000000 0.540128 0.182686 -1.359011
    4 6.879453 0.000000 0.000000 -0.007299 -0.002951 -0.584373
    5 -3.890452 0.000004 0.000007 -1.626291 -0.156789 -1.506347
    6 17.848171 0.000000 0.000000 0.000000 0.000000 0.337939
    7 16.525257 0.000000 0.000000 0.043850 0.152484 -1.135092
    8 6.879454 0.000000 0.000000 -0.081333 -0.002951 -0.584373
    9 -0.015620 3.345128 -2.981901 1.386441 0.067048 1.569166
    10 4.018331 0.000000 0.000000 0.005821 -0.016970 0.072288
    11 3.518561 0.000000 0.000000 -0.193293 0.002625 0.074993
    12 8.942642 0.000000 0.000000 0.054171 0.008114 0.145090
    13 3.307271 0.000000 0.000000 3.141590 0.000000 0.400478
    14 3.593710 -0.000003 0.000000 -0.094939 0.006901 0.468576
    15 2.033346 1.000767 1.937660 1.802265 -1.395246 2.734691
    16 6.028142 0.000002 0.000000 -1.456855 -0.208892 -1.123772
    17 11.692556 0.000000 -0.000001 0.000000 0.000000 -1.294815
    18 11.481671 0.000000 -0.000029 -0.707064 0.393911 -0.214890
    19 3.883691 -0.046771 0.431443 0.096615 -0.011011 -0.677044
    20 1.719575 0.000000 0.000000 0.055915 -0.087978 -1.150781
    21 1.209183 -0.000001 0.000000 0.009316 -0.033629 -0.339470
    22 3.859861 -0.137948 1.332466 0.537936 -0.132422 -0.946691
    23 1.719428 0.000001 0.000000 0.023476 -0.208311 -0.755744
    24 1.099667 0.000000 0.000000 0.026046 -0.124621 -0.538681
    25 0.806048 -0.348922 1.321258 -1.269164 -0.727275 -0.266407
    26 1.789783 0.000001 0.000001 -0.001068 -0.012855 -0.131880
    27 1.207000 0.000000 0.000001 -0.000100 -0.003217 -0.064874
    28 2.033354 1.000771 -1.937610 -2.173110 1.310585 2.445072
    29 6.028142 0.000004 0.000000 1.021832 0.243147 -0.612278
    30 11.692552 0.000000 0.000002 0.000000 0.000000 -1.730179
    31 11.481699 0.000000 0.000004 -1.110240 -0.316277 0.109636
    32 3.883657 -0.050329 -0.431043 0.047704 -0.153454 -0.767482
    33 1.719576 0.000003 0.000000 -0.053884 0.078890 -1.553283
    34 1.209180 -0.000001 0.000000 -0.013612 0.036967 -0.732282
    35 3.859830 -0.148938 -1.331282 -0.332627 0.218364 0.154975
    36 1.719426 0.000000 0.000000 -0.042634 0.220745 -0.851607
    37 1.099666 0.000000 0.000000 0.008154 0.000000 0.000000
    38 0.806017 -0.359836 -1.318334 0.415058 0.423434 -0.720789
    39 1.789784 0.000000 -0.000001 0.015106 0.038911 0.767156
    40 1.206998 0.000000 0.000000 0.004784 0.022539 0.418309
    41 -0.044717 2.313936 4.661499 -0.033493 -0.155877 0.060462
    42 2.676088 -1.712442 0.000000 1.570797 0.000000 1.570797
    43 2.676088 -1.712443 0.000000 -1.570796 0.000000 -1.570796
  time 1
    0 -0.874614 -0.606675 38.098153 1.555530 -0.007730 0.364624
    1 3.890452 -0.000004 -0.000003 -2.392148 -0.234924 -1.124996
    2 17.848175 0.000000 0.000000 0.000000 0.000000 0.915848
    3 16.525249 0.000000 0.000000 0.456288 0.223783 -1.360482
    4 6.879453 0.000000 0.000000 -0.007299 -0.002951 -0.584373
    5 -3.890452 0.000004 0.000007 -1.643927 -0.154926 -1.559783
    6 17.848171 0.000000 0.000000 0.000000 0.000000 0.366436
    7 16.525257 0.000000 0.000000 0.074070 0.118241 -1.163617
    8 6.879454 0.000000 0.000000 -0.081333 -0.002951 -0.584373
    9 0.023443 3.345128 -2.981901 1.386807 0.067048 1.562491
    10 4.018331 0.000000 0.000000 0.020479 -0.022040 0.075059
    11 3.518561 0.000000 0.000000 -0.177451 -0.002828 0.077057
    12 8.942642 0.000000 0.000000 0.056162 0.006783 0.142152
    13 3.307271 0.000000 0.000000 3.141590 0.000000 0.400478
    14 3.593710 -0.000003 0.000000 -0.097826 -0.001297 0.477510
    15 2.033346 1.000767 1.937660 1.802265 -1.395246 2.734691
    16 6.028142 0.000002 0.000000 -1.432530 -0.265616 -1.130734
    17 11.692556 0.000000 -0.000001 0.000000 0.000000 -1.246639
    18 11.481671 0.000000 -0.000029 -0.713656 0.400097 -0.232281
    19 3.883691 -0.046771 0.431443 0.096615 -0.011011 -0.677044
    20 1.719575 0.000000 0.000000 0.055915 -0.087978 -1.150781
    21 1.209183 -0.000001 0.000000 0.009316 -0.033629 -0.339470
    22 3.859861 -0.137948 1.332466 0.537936 -0.132422 -0.946691
    23 1.719428 0.000001 0.000000 0.023476 -0.208311 -0.755744
    24 1.099667 0.000000 0.000000 0.026046 -0.124621 -0.538681
    25 0.806048 -0.348922 1.321258 -1.269164 -0.727275 -0.266407
    26 1.789783 0.000001 0.000001 -0.001068 -0.012855 -0.131880
    27 1.207000 0.000000 0.000001 -0.000100 -0.003217 -0.064874
    28 2.033354 1.000771 -1.937610 -2.173110 1.310585 2.445072
    29 6.028142 0.000004 0.000000 1.050090 0.223677 -0.611708
    30 11.692552 0.000000 0.000002 0.000000 0.000000 -1.729456
    31 11.481699 0.000000 0.000004 -1.107908 -0.316312 0.106441
    32 3.883657 -0.050329 -0.431043 0.047704 -0.153454 -0.767482
    33 1.719576 0.000003 0.000000 -0.053884 0.078890 -1.553283
    34 1.209180 -0.000001 0.000000 -0.013612 0.036967 -0.732282
    35 3.859830 -0.148938 -1.331282 -0.332627 0.218364 0.154975
    36 1.719426 0.000000 0.000000 -0.042634 0.220745 -0.851607
    37 1.099666 0.000000 0.000000 0.008154 0.000000 0.000000
    38 0.806017 -0.359836 -1.318334 0.415058 0.423434 -0.720789
    39 1.789784 0.000000 -0.000001 0.015106 0.038911 0.767156
    40 1.206998 0.000000 0.000000 0.004784 0.022539 0.418309
    41 -0.044717 2.313936 4.661499 -0.032356 -0.157265 0.047819
    42 2.676088 -1.712442 0.000000 1.570797 0.000000 1.570797
    43 2.676088 -1.712443 0.000000 -1.570796 0.000000 -1.570796
  time 2
    0 0.843044 -0.643443 37.941898 1.556229 -0.010453 0.340195
    1 3.890452 -0.000004 -0.000003 -2.164417 -0.282082 -1.140350
    2 17.848175 0.000000 0.000000 0.000000 0.000000 0.747156
    3 16.525249 0.000000 0.000000 0.309648 0.159653 -1.371988
    4 6.879453 0.000000 0.000000 -0.007299 -0.002951 -0.584373
    5 -3.890452 0.000004 0.000007 -1.661179 -0.157720 -1.604816
    6 17.848171 0.000000 0.000000 0.000000 0.000000 0.404405
    7 16.525257 0.000000 0.000000 0.107003 0.085885 -1.199941
    8 6.879454 0.000000 0.000000 -0.081333 -0.002951 -0.584373
    9 0.031256 3.345128 -2.981901 1.387063 0.067048 1.563821
    10 4.018331 0.000000 0.000000 0.033340 -0.025815 0.077411
    11 3.518561 0.000000 0.000000 -0.163783 -0.007191 0.078826
    12 8.942642 0.000000 0.000000 0.057237 0.005046 0.139544
    13 3.307271 0.000000 0.000000 3.141590 0.000000 0.400478
    14 3.593710 -0.000003 0.000000 -0.100824 -0.009044 0.484596
    15 2.033346 1.000767 1.937660 1.802265 -1.395246 2.734691
    16 6.028142 0.000002 0.000000 -1.412259 -0.313283 -1.137604
    17 11.692556 0.000000 -0.000001 0.000000 0.000000 -1.203824
    18 11.481671 0.000000 -0.000029 -0.720822 0.405992 -0.251055
    19 3.883691 -0.046771 0.431443 0.096615 -0.011011 -0.677044
    20 1.719575 0.000000 0.000000 0.055915 -0.087978 -1.150781
    21 1.209183 -0.000001 0.000000 0.009316 -0.033629 -0.339470
    22 3.859861 -0.137948 1.332466 0.537936 -0.132422 -0.946691
    23 1.719428 0.000001 0.000000 0.023476 -0.208311 -0.755744
    24 1.099667 0.000000 0.000000 0.026046 -0.124621 -0.538681
    25 0.806048 -0.348922 1.321258 -1.269164 -0.727275 -0.266407
    26 1.789783 0.000001 0.000001 -0.001068 -0.012855 -0.131880
    27 1.207000 0.000000 0.000001 -0.000100 -0.003217 -0.064874
    28 2.033354 1.000771 -1.937610 -2.173110 1.310585 2.445072
    29 6.028142 0.000004 0.000000 1.072984 0.207523 -0.613037
    30 11.692552 0.000000 0.000002 0.000000 0.000000 -1.729312
    31 11.481699 0.000000 0.000004 -1.107390 -0.316346 0.105756
    32 3.883657 -0.050329 -0.431043 0.047704 -0.153454 -0.767482
    33 1.719576 0.000003 0.000000 -0.053884 0.078890 -1.553283
    34 1.209180 -0.000001 0.000000 -0.013612 0.036967 -0.732282
    35 3.859830 -0.148938 -1.331282 -0.332627 0.218364 0.154975
    36 1.719426 0.000000 0.000000 -0.042634 0.220745 -0.851607
    37 1.099666 0.000000 0.000000 0.008154 0.000000 0.000000
    38 0.806017 -0.359836 -1.318334 0.415058 0.423434 -0.720789
    39 1.789784 0.000000 -0.000001 0.015106 0.038911 0.767156
    40 1.206998 0.000000 0.000000 0.004784 0.022539 0.418309
    41 -0.044717 2.313936 4.661499 -0.031264 -0.158387 0.043564
    42 2.676088 -1.712442 0.000000 1.570797 0.000000 1.570797
    43 2.676088 -1.712443 0.000000 -1.570796 0.000000 -1.570796
  time 3
    0 2.673987 -0.680212 37.617670 1.556229 -0.006213 0.318928
    1 3.890452 -0.000004 -0.000003 -2.163622 -0.253902 -1.110348
    2 17.848175 0.000000 0.000000 0.000000 0.000000 0.578691
    3 16.525249 0.000000 0.000000 0.235084 0.171293 -1.270979
    4 6.879453 0.000000 0.000000 -0.007299 -0.002951 -0.584373
    5 -3.890452 0.000004 0.000007 -1.683511 -0.162082 -1.645034
    6 17.848171 0.000000 0.000000 0.000000 0.000000 0.446163
    7 16.525257 0.000000 0.000000 0.147140 0.059381 -1.239951
    8 6.879454 0.000000 0.000000 -0.081333 -0.002951 -0.584373
    9 0.019537 3.345128 -2.981901 1.387228 0.067048 1.570796
    10 4.018331 0.000000 0.000000 0.043941 -0.028128 0.079677
    11 3.518561 0.000000 0.000000 -0.152824 -0.010151 0.080549
    12 8.942642 0.000000 0.000000 0.057466 0.003236 0.137199
    13 3.307271 0.000000 0.000000 3.141590 0.000000 0.400478
    14 3.593710 -0.000003 0.000000 -0.104877 -0.015157 0.489772
    15 2.033346 1.000767 1.937660 1.802265 -1.395246 2.734691
    16 6.028142 0.000002 0.000000 -1.396702 -0.351066 -1.144102
    17 11.692556 0.000000 -0.000001 0.000000 0.000000 -1.167948
    18 11.481671 0.000000 -0.000029 -0.727319 0.411016 -0.269671
    19 3.883691 -0.046771 0.431443 0.096615 -0.011011 -0.677044
    20 1.719575 0.000000 0.000000 0.055915 -0.087978 -1.150781
    21 1.209183 -0.000001 0.000000 0.009316 -0.033629 -0.339470
    22 3.859861 -0.137948 1.332466 0.537936 -0.132422 -0.946691
    23 1.719428 0.000001 0.000000 0.023476 -0.208311 -0.755744
    24 1.099667 0.000000 0.000000 0.026046 -0.124621 -0.538681
    25 0.806048 -0.348922 1.321258 -1.269164 -0.727275 -0.266407
    26 1.789783 0.000001 0.000001 -0.001068 -0.012855 -0.131880
    27 1.207000 0.000000 0.000001 -0.000100 -0.003217 -0.064874
    28 2.033354 1.000771 -1.937610 -2.173110 1.310585 2.445072
    29 6.028142 0.000004 0.000000 1.090705 0.195349 -0.614935
    30 11.692552 0.000000 0.000002 0.000000 0.000000 -1.729528
    31 11.481699 0.000000 0.000004 -1.108102 -0.316312 0.106783
    32 3.883657 -0.050329 -0.431043 0.047704 -0.153454 -0.767482
    33 1.719576 0.000003 0.000000 -0.053884 0.078890 -1.553283
    34 1.209180 -0.000001 0.000000 -0.013612 0.036967 -0.732282
    35 3.859830 -0.148938 -1.331282 -0.332627 0.218364 0.154975
    36 1.719426 0.000000 0.000000 -0.042634 0.220745 -0.851607
    37 1.099666 0.000000 0.000000 0.008154 0.000000 0.000000
    38 0.806017 -0.359836 -1.318334 0.415058 0.423434 -0.720789
    39 1.789784 0.000000 -0.000001 0.015106 0.038911 0.767156
    40 1.206998 0.000000 0.000000 0.004784 0.022539 0.418309
    41 -0.044717 2.313936 4.661499 -0.030263 -0.159198 0.045398
    42 2.676088 -1.712442 0.000000 1.570797 0.000000 1.570797
    43 2.676088 -1.712443 0.000000 -1.570796 0.000000 -1.570796
  time 4
    0 4.633840 -0.674084 37.195782 1.554003 0.000489 0.301397
    1 3.890452 -0.000004 -0.000003 -2.202667 -0.224100 -1.067288
    2 17.848175 0.000000 0.000000 0.000000 0.000000 0.435964
    3 16.525249 0.000000 0.000000 0.168197 0.197401 -1.161074
    4 6.879453 0.000000 0.000000 -0.007299 -0.002951 -0.584373
    5 -3.890452 0.000004 0.000007 -1.691946 -0.186783 -1.664294
    6 17.848171 0.000000 0.000000 0.000000 0.000000 0.515233
    7 16.525257 0.000000 0.000000 0.164261 0.190131 -1.229642
    8 6.879454 0.000000 0.000000 -0.081333 -0.002951 -0.584373
    9 0.000005 3.345128 -2.981901 1.387338 0.067048 1.579677
    10 4.018331 0.000000 0.000000 0.051895 -0.029111 0.082291
    11 3.518561 0.000000 0.000000 -0.144858 -0.011733 0.082597
    12 8.942642 0.000000 0.000000 0.057061 0.001726 0.134959
    13 3.307271 0.000000 0.000000 3.141590 0.000000 0.400478
    14 3.593710 -0.000003 0.000000 -0.110540 -0.019270 0.493100
    15 2.033346 1.000767 1.937660 1.802265 -1.395246 2.734691
    16 6.028142 0.000002 0.000000 -1.386236 -0.379307 -1.150785
    17 11.692556 0.000000 -0.000001 0.000000 0.000000 -1.139642
    18 11.481671 0.000000 -0.000029 -0.732192 0.414503 -0.286745
    19 3.883691 -0.046771 0.431443 0.096615 -0.011011 -0.677044
    20 1.719575 0.000000 0.000000 0.055915 -0.087978 -1.150781
    21 1.209183 -0.000001 0.000000 0.009316 -0.033629 -0.339470
    22 3.859861 -0.137948 1.332466 0.537936 -0.132422 -0.946691
    23 1.719428 0.000001 0.000000 0.023476 -0.208311 -0.755744
    24 1.099667 0.000000 0.000000 0.026046 -0.124621 -0.538681
    25 0.806048 -0.348922 1.321258 -1.269164 -0.727275 -0.266407
    26 1.789783 0.000001 0.000001 -0.001068 -0.012855 -0.131880
    27 1.207000 0.000000 0.000001 -0.000100 -0.003217 -0.064874
    28 2.033354 1.000771 -1.937610 -2.173110 1.310585 2.445072
    29 6.028142 0.000004 0.000000 1.104115 0.187580 -0.615694
    30 11.692552 0.000000 0.000002 0.000000 0.000000 -1.729890
    31 11.481699 0.000000 0.000004 -1.109333 -0.316277 0.108495
    32 3.883657 -0.050329 -0.431043 0.047704 -0.153454 -0.767482
    33 1.719576 0.000003 0.000000 -0.053884 0.078890 -1.553283
    34 1.209180 -0.000001 0.000000 -0.013612 0.036967 -0.732282
    35 3.859830 -0.148938 -1.331282 -0.332627 0.218364 0.154975
    36 1.719426 0.000000 0.000000 -0.042634 0.220745 -0.851607
    37 1.099666 0.000000 0.000000 0.008154 0.000000 0.000000
    38 0.806017 -0.359836 -1.318334 0.415058 0.423434 -0.720789
    39 1.789784 0.000000 -0.000001 0.015106 0.038911 0.767156
    40 1.206998 0.000000 0.000000 0.004784 0.022539 0.418309
    41 -0.044717 2.313936 4.661499 -0.029354 -0.159604 0.049580
    42 2.676088 -1.712442 0.000000 1.570797 0.000000 1.570797
    43 2.676088 -1.712443 0.000000 -1.570796 0.000000 -1.570796
  time 5
    0 6.746041 -0.588291 36.793426 1.548533 0.004990 0.289422
    1 3.890452 -0.000004 -0.000003 -2.235174 -0.211703 -1.032433
    2 17.848175 0.000000 0.000000 0.000000 0.000000 0.360880
    3 16.525249 0.000000 0.000000 0.108631 0.220709 -1.098797
    4 6.879453 0.000000 0.000000 -0.007299 -0.002951 -0.584373
    5 -3.890452 0.000004 0.000007 -1.687824 -0.216433 -1.685064
    6 17.848171 0.000000 0.000000 0.000000 0.000000 0.592040
    7 16.525257 0.000000 0.000000 0.180166 0.336127 -1.205016
    8 6.879454 0.000000 0.000000 -0.081333 -0.002951 -0.584373
    9 -0.011714 3.345128 -2.981901 1.387429 0.067048 1.586771
    10 4.018331 0.000000 0.000000 0.056882 -0.029099 0.085654
    11 3.518561 0.000000 0.000000 -0.140100 -0.012140 0.085313
    12 8.942642 0.000000 0.000000 0.056321 0.000839 0.132601
    13 3.307271 0.000000 0.000000 3.141590 0.000000 0.400478
    14 3.593710 -0.000003 0.000000 -0.117702 -0.021692 0.495010
    15 2.033346 1.000767 1.937660 1.802265 -1.395246 2.734691
    16 6.028142 0.000002 0.000000 -1.381428 -0.398685 -1.158305
    17 11.692556 0.000000 -0.000001 0.000000 0.000000 -1.119299
    18 11.481671 0.000000 -0.000029 -0.734580 0.415956 -0.301053
    19 3.883691 -0.046771 0.431443 0.096615 -0.011011 -0.677044
    20 1.719575 0.000000 0.000000 0.055915 -0.087978 -1.150781
    21 1.209183 -0.000001 0.000000 0.009316 -0.033629 -0.339470
    22 3.859861 -0.137948 1.332466 0.537936 -0.132422 -0.946691
    23 1.719428 0.000001 0.000000 0.023476 -0.208311 -0.755744
    24 1.099667 0.000000 0.000000 0.026046 -0.124621 -0.538681
    25 0.806048 -0.348922 1.321258 -1.269164 -0.727275 -0.266407
    26 1.789783 0.000001 0.000001 -0.001068 -0.012855 -0.131880
    27 1.207000 0.000000 0.000001 -0.000100 -0.003217 -0.064874
    28 2.033354 1.000771 -1.937610 -2.173110 1.310585 2.445072
    29 6.028142 0.000004 0.000000 1.114173 0.184264 -0.614270
    30 11.692552 0.000000 0.000002 0.000000 0.000000 -1.730179
    31 11.481699 0.000000 0.000004 -1.110175 -0.316277 0.109579
    32 3.883657 -0.050329 -0.431043 0.047704 -0.153454 -0.767482
    33 1.719576 0.000003 0.000000 -0.053884 0.078890 -1.553283
    34 1.209180 -0.000001 0.000000 -0.013612 0.036967 -0.732282
    35 3.859830 -0.148938 -1.331282 -0.332627 0.218364 0.154975
    36 1.719426 0.000000 0.000000 -0.042634 0.220745 -0.851607
    37 1.099666 0.000000 0.000000 0.008154 0.000000 0.000000
    38 0.806017 -0.359836 -1.318334 0.415058 0.423434 -0.720789
    39 1.789784 0.000000 -0.000001 0.015106 0.038911 0.767156
    40 1.206998 0.000000 0.000000 0.004784 0.022539 0.418309
    41 -0.044717 2.313936 4.661499 -0.028580 -0.159510 0.052504
    42 2.676088 -1.712442 0.000000 1.570797 0.000000 1.570797
    43 2.676088 -1.712443 0.000000 -1.570796 0.000000 -1.570796
  time 6
    0 9.069187 -0.447345 36.516074 1.539691 0.004827 0.285686
    1 3.890452 -0.000004 -0.000003 -2.238001 -0.205695 -1.042316
    2 17.848175 0.000000 0.000000 0.000000 0.000000 0.346303
    3 16.525249 0.000000 0.000000 0.060616 0.238882 -1.127761
    4 6.879453 0.000000 0.000000 -0.007299 -0.002951 -0.584373
    5 -3.890452 0.000004 0.000007 -1.677377 -0.244565 -1.720184
    6 17.848171 0.000000 0.000000 0.000000 0.000000 0.668451
    7 16.525257 0.000000 0.000000 0.185031 0.428717 -1.168852
    8 6.879454 0.000000 0.000000 -0.081333 -0.002951 -0.584373
    9 -0.011714 3.345128 -2.981901 1.387503 0.067048 1.590307
    10 4.018331 0.000000 0.000000 0.058839 -0.028499 0.090063
    11 3.518561 0.000000 0.000000 -0.138461 -0.011697 0.088867
    12 8.942642 0.000000 0.000000 0.055528 0.000755 0.129901
    13 3.307271 0.000000 0.000000 3.141590 0.000000 0.400478
    14 3.593710 -0.000003 0.000000 -0.125531 -0.023214 0.495996
    15 2.033346 1.000767 1.937660 1.802265 -1.395246 2.734691
    16 6.028142 0.000002 0.000000 -1.382277 -0.409933 -1.166938
    17 11.692556 0.000000 -0.000001 0.000000 0.000000 -1.106762
    18 11.481671 0.000000 -0.000029 -0.734389 0.415375 -0.311725
    19 3.883691 -0.046771 0.431443 0.096615 -0.011011 -0.677044
    20 1.719575 0.000000 0.000000 0.055915 -0.087978 -1.150781
    21 1.209183 -0.000001 0.000000 0.009316 -0.033629 -0.339470
    22 3.859861 -0.137948 1.332466 0.537936 -0.132422 -0.946691
    23 1.719428 0.000001 0.000000 0.023476 -0.208311 -0.755744
    24 1.099667 0.000000 0.000000 0.026046 -0.124621 -0.538681
    25 0.806048 -0.348922 1.321258 -1.269164 -0.727275 -0.266407
    26 1.789783 0.000001 0.000001 -0.001068 -0.012855 -0.131880
    27 1.207000 0.000000 0.000001 -0.000100 -0.003217 -0.064874
    28 2.033354 1.000771 -1.937610 -2.173110 1.310585 2.445072
    29 6.028142 0.000004 0.000000 1.121644 0.185211 -0.610095
    30 11.692552 0.000000 0.000002 0.000000 0.000000 -1.730179
    31 11.481699 0.000000 0.000004 -1.110175 -0.316277 0.109579
    32 3.883657 -0.050329 -0.431043 0.047704 -0.153454 -0.767482
    33 1.719576 0.000003 0.000000 -0.053884 0.078890 -1.553283
    34 1.209180 -0.000001 0.000000 -0.013612 0.036967 -0.732282
    35 3.859830 -0.148938 -1.331282 -0.332627 0.218364 0.154975
    36 1.719426 0.000000 0.000000 -0.042634 0.220745 -0.851607
    37 1.099666 0.000000 0.000000 0.008154 0.000000 0.000000
    38 0.806017 -0.359836 -1.318334 0.415058 0.423434 -0.720789
    39 1.789784 0.000000 -0.000001 0.015106 0.038911 0.767156
    40 1.206998 0.000000 0.000000 0.004784 0.022539 0.418309
    41 -0.044717 2.313936 4.661499 -0.027944 -0.158871 0.052445
    42 2.676088 -1.712442 0.000000 1.570797 0.000000 1.570797
    43 2.676088 -1.712443 0.000000 -1.570796 0.000000 -1.570796
  time 7
    0 11.638433 -0.269631 36.406695 1.529132 -0.000310 0.290476
    1 3.890452 -0.000004 -0.000003 -2.231906 -0.195872 -1.086436
    2 17.848175 0.000000 0.000000 0.000000 0.000000 0.355945
    3 16.525249 0.000000 0.000000 0.037160 0.256892 -1.154719
    4 6.879453 0.000000 0.000000 -0.007299 -0.002951 -0.584373
    5 -3.890452 0.000004 0.000007 -1.656483 -0.263728 -1.792407
    6 17.848171 0.000000 0.000000 0.000000 0.000000 0.745258
    7 16.525257 0.000000 0.000000 0.098489 0.389998 -1.132475
    8 6.879454 0.000000 0.000000 -0.081333 -0.002951 -0.584373
    9 0.000005 3.345128 -2.981901 1.387576 0.067031 1.589768
    10 4.018331 0.000000 0.000000 0.057989 -0.027660 0.095483
    11 3.518561 0.000000 0.000000 -0.139673 -0.010750 0.093197
    12 8.942642 0.000000 0.000000 0.054841 0.001522 0.126634
    13 3.307271 0.000000 0.000000 3.141590 0.000000 0.400478
    14 3.593710 -0.000003 0.000000 -0.133081 -0.024622 0.496982
    15 2.033346 1.000767 1.937660 1.802265 -1.395246 2.734691
    16 6.028142 0.000002 0.000000 -1.387745 -0.414023 -1.175757
    17 11.692556 0.000000 -0.000001 0.000000 0.000000 -1.101953
    18 11.481671 0.000000 -0.000029 -0.731714 0.412967 -0.318246
    19 3.883691 -0.046771 0.431443 0.096615 -0.011011 -0.677044
    20 1.719575 0.000000 0.000000 0.055915 -0.087978 -1.150781
    21 1.209183 -0.000001 0.000000 0.009316 -0.033629 -0.339470
    22 3.859861 -0.137948 1.332466 0.537936 -0.132422 -0.946691
    23 1.719428 0.000001 0.000000 0.023476 -0.208311 -0.755744
    24 1.099667 0.000000 0.000000 0.026046 -0.124621 -0.538681
    25 0.806048 -0.348922 1.321258 -1.269164 -0.727275 -0.266407
    26 1.789783 0.000001 0.000001 -0.001068 -0.012855 -0.131880
    27 1.207000 0.000000 0.000001 -0.000100 -0.003217 -0.064874
    28 2.033354 1.000771 -1.937610 -2.173110 1.310585 2.445072
    29 6.028142 0.000004 0.000000 1.126817 0.189901 -0.603452
    30 11.692552 0.000000 0.000002 0.000000 0.000000 -1.729890
    31 11.481699 0.000000 0.000004 -1.109204 -0.316312 0.108323
    32 3.883657 -0.050329 -0.431043 0.047704 -0.153454 -0.767482
    33 1.719576 0.000003 0.000000 -0.053884 0.078890 -1.553283
    34 1.209180 -0.000001 0.000000 -0.013612 0.036967 -0.732282
    35 3.859830 -0.148938 -1.331282 -0.332627 0.218364 0.154975
    36 1.719426 0.000000 0.000000 -0.042634 0.220745 -0.851607
    37 1.099666 0.000000 0.000000 0.008154 0.000000 0.000000
    38 0.806017 -0.359836 -1.318334 0.415058 0.423434 -0.720789
    39 1.789784 0.000000 -0.000001 0.015106 0.038911 0.767156
    40 1.206998 0.000000 0.000000 0.004784 0.022539 0.418309
    41 -0.044717 2.313936 4.661499 -0.027398 -0.157608 0.048921
    42 2.676088 -1.712442 0.000000 1.570797 0.000000 1.570797
    43 2.676088 -1.712443 0.000000 -1.570796 0.000000 -1.570796
  time 8
    0 14.367841 -0.030635 36.457478 1.519145 -0.006132 0.301109
    1 3.890452 -0.000004 -0.000003 -2.227754 -0.193107 -1.134879
    2 17.848175 0.000000 0.000000 0.000000 0.000000 0.395271
    3 16.525249 0.000000 0.000000 0.052691 0.269300 -1.085686
    4 6.879453 0.000000 0.000000 -0.007299 -0.002951 -0.584373
    5 -3.890452 0.000004 0.000007 -1.619486 -0.281224 -1.862742
    6 17.848171 0.000000 0.000000 0.000000 0.000000 0.802882
    7 16.525257 0.000000 0.000000 0.042073 0.299459 -1.089527
    8 6.879454 0.000000 0.000000 -0.081333 -0.002951 -0.584373
    9 0.019537 3.345128 -2.981901 1.387667 0.067031 1.588929
    10 4.018331 0.000000 0.000000 0.054733 -0.026810 0.101652
    11 3.518561 0.000000 0.000000 -0.143237 -0.009552 0.097977
    12 8.942642 0.000000 0.000000 0.054277 0.003020 0.122708
    13 3.307271 0.000000 0.000000 3.141590 0.000000 0.400478
    14 3.593710 -0.000003 0.000000 -0.139300 -0.026284 0.498645
    15 2.033346 1.000767 1.937660 1.802265 -1.395246 2.734691
    16 6.028142 0.000002 0.000000 -1.396985 -0.411296 -1.182719
    17 11.692556 0.000000 -0.000001 0.000000 0.000000 -1.105028
    18 11.481671 0.000000 -0.000029 -0.727606 0.409521 -0.320341
    19 3.883691 -0.046771 0.431443 0.096615 -0.011011 -0.677044
    20 1.719575 0.000000 0.000000 0.055915 -0.087978 -1.150781
    21 1.209183 -0.000001 0.000000 0.009316 -0.033629 -0.339470
    22 3.859861 -0.137948 1.332466 0.537936 -0.132422 -0.946691
    23 1.719428 0.000001 0.000000 0.023476 -0.208311 -0.755744
    24 1.099667 0.000000 0.000000 0.026046 -0.124621 -0.538681
    25 0.806048 -0.348922 1.321258 -1.269164 -0.727275 -0.266407
    26 1.789783 0.000001 0.000001 -0.001068 -0.012855 -0.131880
    27 1.207000 0.000000 0.000001 -0.000100 -0.003217 -0.064874
    28 2.033354 1.000771 -1.937610 -2.173110 1.310585 2.445072
    29 6.028142 0.000004 0.000000 1.129116 0.197907 -0.595861
    30 11.692552 0.000000 0.000002 0.000000 0.000000 -1.729528
    31 11.481699 0.000000 0.000004 -1.108102 -0.316312 0.106783
    32 3.883657 -0.050329 -0.431043 0.047704 -0.153454 -0.767482
    33 1.719576 0.000003 0.000000 -0.053884 0.078890 -1.553283
    34 1.209180 -0.000001 0.000000 -0.013612 0.036967 -0.732282
    35 3.859830 -0.148938 -1.331282 -0.332627 0.218364 0.154975
    36 1.719426 0.000000 0.000000 -0.042634 0.220745 -0.851607
    37 1.099666 0.000000 0.000000 0.008154 0.000000 0.000000
    38 0.806017 -0.359836 -1.318334 0.415058 0.423434 -0.720789
    39 1.789784 0.000000 -0.000001 0.015106 0.038911 0.767156
    40 1.206998 0.000000 0.000000 0.004784 0.022539 0.418309
    41 -0.044717 2.313936 4.661499 -0.027079 -0.155674 0.045769
    42 2.676088 -1.712442 0.000000 1.570797 0.000000 1.570797
    43 2.676088 -1.712443 0.000000 -1.570796 0.000000 -1.570796
  time 9
    0 17.065997 0.312537 36.641077 1.511448 -0.017971 0.313850
    1 3.890452 -0.000004 -0.000003 -2.219274 -0.197970 -1.194176
    2 17.848175 0.000000 0.000000 0.000000 0.000000 0.459271
    3 16.525249 0.000000 0.000000 0.074975 0.268340 -1.019127
    4 6.879453 0.000000 0.000000 -0.007299 -0.002951 -0.584373
    5 -3.890452 0.000004 0.000007 -1.570221 -0.304063 -1.913251
    6 17.848171 0.000000 0.000000 0.000000 0.000000 0.831142
    7 16.525257 0.000000 0.000000 0.131703 0.225564 -1.028097
    8 6.879454 0.000000 0.000000 -0.081333 -0.002951 -0.584373
    9 0.058601 3.345128 -2.981901 1.387741 0.067014 1.581642
    10 4.018331 0.000000 0.000000 0.049457 -0.025995 0.107961
    11 3.518561 0.000000 0.000000 -0.148832 -0.008269 0.102679
    12 8.942642 0.000000 0.000000 0.053730 0.004986 0.118321
    13 3.307271 0.000000 0.000000 3.141590 0.000000 0.400478
    14 3.593710 -0.000003 0.000000 -0.143464 -0.028003 0.500494
    15 2.033346 1.000767 1.937660 1.802265 -1.395246 2.734691
    16 6.028142 0.000002 0.000000 -1.407073 -0.402240 -1.186803
    17 11.692556 0.000000 -0.000001 0.000000 0.000000 -1.115909
    18 11.481671 0.000000 -0.000029 -0.721777 0.405287 -0.316586
    19 3.883691 -0.046771 0.431443 0.096615 -0.011011 -0.677044
    20 1.719575 0.000000 0.000000 0.055915 -0.087978 -1.150781
    21 1.209183 -0.000001 0.000000 0.009316 -0.033629 -0.339470
    22 3.859861 -0.137948 1.332466 0.537936 -0.132422 -0.946691
    23 1.719428 0.000001 0.000000 0.023476 -0.208311 -0.755744
    24 1.099667 0.000000 0.000000 0.026046 -0.124621 -0.538681
    25 0.806048 -0.348922 1.321258 -1.269164 -0.727275 -0.266407
    26 1.789783 0.000001 0.000001 -0.001068 -0.012855 -0.131880
    27 1.207000 0.000000 0.000001 -0.000100 -0.003217 -0.064874
    28 2.033354 1.000771 -1.937610 -2.173110 1.310585 2.445072
    29 6.028142 0.000004 0.000000 1.128637 0.208092 -0.587321
    30 11.692552 0.000000 0.000002 0.000000 0.000000 -1.728805
    31 11.481699 0.000000 0.000004 -1.105900 -0.316381 0.103645
    32 3.883657 -0.050329 -0.431043 0.047704 -0.153454 -0.767482
    33 1.719576 0.000003 0.000000 -0.053884 0.078890 -1.553283
    34 1.209180 -0.000001 0.000000 -0.013612 0.036967 -0.732282
    35 3.859830 -0.148938 -1.331282 -0.332627 0.218364 0.154975
    36 1.719426 0.000000 0.000000 -0.042634 0.220745 -0.851607
    37 1.099666 0.000000 0.000000 0.008154 0.000000 0.000000
    38 0.806017 -0.359836 -1.318334 0.415058 0.423434 -0.720789
    39 1.789784 0.000000 -0.000001 0.015106 0.038911 0.767156
    40 1.206998 0.000000 0.000000 0.004784 0.022539 0.418309
    41 -0.044717 2.313936 4.661499 -0.026988 -0.151776 0.037236
    42 2.676088 -1.712442 0.000000 1.570797 0.000000 1.570797
    43 2.676088 -1.712443 0.000000 -1.570796 0.000000 -1.570796
  time 10
    0 19.600087 0.729247 36.727018 1.506677 -0.035845 0.326975
    1 3.890452 -0.000004 -0.000003 -2.200988 -0.203168 -1.267943
    2 17.848175 0.000000 0.000000 0.000000 0.000000 0.515071
    3 16.525249 0.000000 0.000000 0.067724 0.257551 -1.069698
    4 6.879453 0.000000 0.000000 -0.007299 -0.002951 -0.584373
    5 -3.890452 0.000004 0.000007 -1.514822 -0.327538 -1.966970
    6 17.848171 0.000000 0.000000 0.000000 0.000000 0.850324
    7 16.525257 0.000000 0.000000 0.258475 0.141132 -0.961592
    8 6.879454 0.000000 0.000000 -0.081333 -0.002951 -0.584373
    9 0.117196 3.345128 -2.981901 1.387795 0.067014 1.567129
    10 4.018331 0.000000 0.000000 0.042417 -0.025132 0.113607
    11 3.518561 0.000000 0.000000 -0.156263 -0.006963 0.106699
    12 8.942642 0.000000 0.000000 0.052902 0.007071 0.113921
    13 3.307271 0.000000 0.000000 3.141590 0.000000 0.400478
    14 3.593710 -0.000003 0.000000 -0.144963 -0.029299 0.500432
    15 2.033346 1.000767 1.937660 1.802265 -1.395246 2.734691
    16 6.028142 0.000002 0.000000 -1.417822 -0.385977 -1.186896
    17 11.692556 0.000000 -0.000001 0.000000 0.000000 -1.135621
    18 11.481671 0.000000 -0.000029 -0.714229 0.400720 -0.305796
    19 3.883691 -0.046771 0.431443 0.096615 -0.011011 -0.677044
    20 1.719575 0.000000 0.000000 0.055915 -0.087978 -1.150781
    21 1.209183 -0.000001 0.000000 0.009316 -0.033629 -0.339470
    22 3.859861 -0.137948 1.332466 0.537936 -0.132422 -0.946691
    23 1.719428 0.000001 0.000000 0.023476 -0.208311 -0.755744
    24 1.099667 0.000000 0.000000 0.026046 -0.124621 -0.538681
    25 0.806048 -0.348922 1.321258 -1.269164 -0.727275 -0.266407
    26 1.789783 0.000001 0.000001 -0.001068 -0.012855 -0.131880
    27 1.207000 0.000000 0.000001 -0.000100 -0.003217 -0.064874
    28 2.033354 1.000771 -1.937610 -2.173110 1.310585 2.445072
    29 6.028142 0.000004 0.000000 1.124614 0.219887 -0.579349
    30 11.692552 0.000000 0.000002 0.000000 0.000000 -1.727648
    31 11.481699 0.000000 0.000004 -1.102531 -0.316450 0.098795
    32 3.883657 -0.050329 -0.431043 0.047704 -0.153454 -0.767482
    33 1.719576 0.000003 0.000000 -0.053884 0.078890 -1.553283
    34 1.209180 -0.000001 0.000000 -0.013612 0.036967 -0.732282
    35 3.859830 -0.148938 -1.331282 -0.332627 0.218364 0.154975
    36 1.719426 0.000000 0.000000 -0.042634 0.220745 -0.851607
    37 1.099666 0.000000 0.000000 0.008154 0.000000 0.000000
    38 0.806017 -0.359836 -1.318334 0.415058 0.423434 -0.720789
    39 1.789784 0.000000 -0.000001 0.015106 0.038911 0.767156
    40 1.206998 0.000000 0.000000 0.004784 0.022539 0.418309
    41 -0.044717 2.313936 4.661499 -0.027307 -0.145211 0.022615
    42 2.676088 -1.712442 0.000000 1.570797 0.000000 1.570797
    43 2.676088 -1.712443 0.000000 -1.570796 0.000000 -1.570796
  time 11
    0 21.927138 1.121444 37.105935 1.504642 -0.044994 0.339716
    1 3.890452 -0.000004 -0.000003 -2.159470 -0.193631 -1.360771
    2 17.848175 0.000000 0.000000 0.000000 0.000000 0.504291
    3 16.525249 0.000000 0.000000 0.089404 0.201327 -1.108496
    4 6.879453 0.000000 0.000000 -0.007299 -0.002951 -0.584373
    5 -3.890452 0.000004 0.000007 -1.455972 -0.350916 -2.004356
    6 17.848171 0.000000 0.000000 0.000000 0.000000 0.866901
    7 16.525257 0.000000 0.000000 0.388149 0.052761 -0.905396
    8 6.879454 0.000000 0.000000 -0.081333 -0.002951 -0.584373
    9 0.148447 3.345128 -2.981901 1.387850 0.067014 1.559650
    10 4.018331 0.000000 0.000000 0.033661 -0.024197 0.117807
    11 3.518561 0.000000 0.000000 -0.165547 -0.005717 0.109477
    12 8.942642 0.000000 0.000000 0.051510 0.008952 0.110153
    13 3.307271 0.000000 0.000000 3.141590 0.000000 0.400478
    14 3.593710 -0.000003 0.000000 -0.143575 -0.030087 0.496181
    15 2.033346 1.000767 1.937660 1.802265 -1.395246 2.734691
    16 6.028142 0.000002 0.000000 -1.432153 -0.359490 -1.180955
    17 11.692556 0.000000 -0.000001 0.000000 0.000000 -1.166845
    18 11.481671 0.000000 -0.000029 -0.707350 0.396776 -0.288366
    19 3.883691 -0.046771 0.431443 0.096615 -0.011011 -0.677044
    20 1.719575 0.000000 0.000000 0.055915 -0.087978 -1.150781
    21 1.209183 -0.000001 0.000000 0.009316 -0.033629 -0.339470
    22 3.859861 -0.137948 1.332466 0.537936 -0.132422 -0.946691
    23 1.719428 0.000001 0.000000 0.023476 -0.208311 -0.755744
    24 1.099667 0.000000 0.000000 0.026046 -0.124621 -0.538681
    25 0.806048 -0.348922 1.321258 -1.269164 -0.727275 -0.266407
    26 1.789783 0.000001 0.000001 -0.001068 -0.012855 -0.131880
    27 1.207000 0.000000 0.000001 -0.000100 -0.003217 -0.064874
    28 2.033354 1.000771 -1.937610 -2.173110 1.310585 2.445072
    29 6.028142 0.000004 0.000000 1.114364 0.234193 -0.575174
    30 11.692552 0.000000 0.000002 0.000000 0.000000 -1.726997
    31 11.481699 0.000000 0.000004 -1.100847 -0.316484 0.096228
    32 3.883657 -0.050329 -0.431043 0.047704 -0.153454 -0.767482
    33 1.719576 0.000003 0.000000 -0.053884 0.078890 -1.553283
    34 1.209180 -0.000001 0.000000 -0.013612 0.036967 -0.732282
    35 3.859830 -0.148938 -1.331282 -0.332627 0.218364 0.154975
    36 1.719426 0.000000 0.000000 -0.042634 0.220745 -0.851607
    37 1.099666 0.000000 0.000000 0.008154 0.000000 0.000000
    38 0.806017 -0.359836 -1.318334 0.415058 0.423434 -0.720789
    39 1.789784 0.000000 -0.000001 0.015106 0.038911 0.767156
    40 1.206998 0.000000 0.000000 0.004784 0.022539 0.418309
    41 -0.044717 2.313936 4.661499 -0.027898 -0.136681 0.015951
    42 2.676088 -1.712442 0.000000 1.570797 0.000000 1.570797
    43 2.676088 -1.712443 0.000000 -1.570796 0.000000 -1.570796
  time 12
    0 24.070590 1.372695 37.496572 1.505214 -0.040852 0.352936
    1 3.890452 -0.000004 -0.000003 -2.103995 -0.173652 -1.440451
    2 17.848175 0.000000 0.000000 0.000000 0.000000 0.468001
    3 16.525249 0.000000 0.000000 0.099675 0.141012 -1.132377
    4 6.879453 0.000000 0.000000 -0.007299 -0.002951 -0.584373
    5 -3.890452 0.000004 0.000007 -1.395781 -0.376303 -2.017007
    6 17.848171 0.000000 0.000000 0.000000 0.000000 0.892161
    7 16.525257 0.000000 0.000000 0.488725 -0.029363 -0.874147
    8 6.879454 0.000000 0.000000 -0.081333 -0.002951 -0.584373
    9 0.132822 3.345128 -2.981901 1.387887 0.067014 1.563857
    10 4.018331 0.000000 0.000000 0.023109 -0.023334 0.120020
    11 3.518561 0.000000 0.000000 -0.176809 -0.004758 0.110641
    12 8.942642 0.000000 0.000000 0.049413 0.010391 0.107611
    13 3.307271 0.000000 0.000000 3.141590 0.000000 0.400478
    14 3.593710 -0.000003 0.000000 -0.139300 -0.030763 0.487431
    15 2.033346 1.000767 1.937660 1.802265 -1.395246 2.734691
    16 6.028142 0.000002 0.000000 -1.451198 -0.321366 -1.168887
    17 11.692556 0.000000 -0.000001 0.000000 0.000000 -1.210290
    18 11.481671 0.000000 -0.000029 -0.702095 0.393745 -0.264888
    19 3.883691 -0.046771 0.431443 0.096615 -0.011011 -0.677044
    20 1.719575 0.000000 0.000000 0.055915 -0.087978 -1.150781
    21 1.209183 -0.000001 0.000000 0.009316 -0.033629 -0.339470
    22 3.859861 -0.137948 1.332466 0.537936 -0.132422 -0.946691
    23 1.719428 0.000001 0.000000 0.023476 -0.208311 -0.755744
    24 1.099667 0.000000 0.000000 0.026046 -0.124621 -0.538681
    25 0.806048 -0.348922 1.321258 -1.269164 -0.727275 -0.266407
    26 1.789783 0.000001 0.000001 -0.001068 -0.012855 -0.131880
    27 1.207000 0.000000 0.000001 -0.000100 -0.003217 -0.064874
    28 2.033354 1.000771 -1.937610 -2.173110 1.310585 2.445072
    29 6.028142 0.000004 0.000000 1.096739 0.251247 -0.576598
    30 11.692552 0.000000 0.000002 0.000000 0.000000 -1.727287
    31 11.481699 0.000000 0.000004 -1.101559 -0.316450 0.097426
    32 3.883657 -0.050329 -0.431043 0.047704 -0.153454 -0.767482
    33 1.719576 0.000003 0.000000 -0.053884 0.078890 -1.553283
    34 1.209180 -0.000001 0.000000 -0.013612 0.036967 -0.732282
    35 3.859830 -0.148938 -1.331282 -0.332627 0.218364 0.154975
    36 1.719426 0.000000 0.000000 -0.042634 0.220745 -0.851607
    37 1.099666 0.000000 0.000000 0.008154 0.000000 0.000000
    38 0.806017 -0.359836 -1.318334 0.415058 0.423434 -0.720789
    39 1.789784 0.000000 -0.000001 0.015106 0.038911 0.767156
    40 1.206998 0.000000 0.000000 0.004784 0.022539 0.418309
    41 -0.044717 2.313936 4.661499 -0.028717 -0.126872 0.021584
    42 2.676088 -1.712442 0.000000 1.570797 0.000000 1.570797
    43 2.676088 -1.712443 0.000000 -1.570796 0.000000 -1.570796
  time 13
    0 26.100758 1.458488 37.828614 1.507695 -0.031132 0.367881
    1 3.890452 -0.000004 -0.000003 -2.037566 -0.145329 -1.511307
    2 17.848175 0.000000 0.000000 0.000000 0.000000 0.419261
    3 16.525249 0.000000 0.000000 0.102874 0.076992 -1.148632
    4 6.879453 0.000000 0.000000 -0.007299 -0.002951 -0.584373
    5 -3.890452 0.000004 0.000007 -1.320062 -0.436928 -1.946011
    6 17.848171 0.000000 0.000000 0.000000 0.000000 0.982939
    7 16.525257 0.000000 0.000000 0.482456 -0.074749 -0.989743
    8 6.879454 0.000000 0.000000 -0.081333 -0.002951 -0.584373
    9 0.101571 3.345128 -2.981901 1.387905 0.067014 1.572558
    10 4.018331 0.000000 0.000000 0.010616 -0.022855 0.120055
    11 3.518561 0.000000 0.000000 -0.190121 -0.004410 0.110191
    12 8.942642 0.000000 0.000000 0.046611 0.011266 0.106741
    13 3.307271 0.000000 0.000000 3.141590 0.000000 0.400478
    14 3.593710 -0.000003 0.000000 -0.132471 -0.031975 0.476648
    15 2.033346 1.000767 1.937660 1.802265 -1.395246 2.734691
    16 6.028142 0.000002 0.000000 -1.474015 -0.272286 -1.152828
    17 11.692556 0.000000 -0.000001 0.000000 0.000000 -1.264379
    18 11.481671 0.000000 -0.000029 -0.697414 0.391212 -0.236115
    19 3.883691 -0.046771 0.431443 0.096615 -0.011011 -0.677044
    20 1.719575 0.000000 0.000000 0.055915 -0.087978 -1.150781
    21 1.209183 -0.000001 0.000000 0.009316 -0.033629 -0.339470
    22 3.859861 -0.137948 1.332466 0.537936 -0.132422 -0.946691
    23 1.719428 0.000001 0.000000 0.023476 -0.208311 -0.755744
    24 1.099667 0.000000 0.000000 0.026046 -0.124621 -0.538681
    25 0.806048 -0.348922 1.321258 -1.269164 -0.727275 -0.266407
    26 1.789783 0.000001 0.000001 -0.001068 -0.012855 -0.131880
    27 1.207000 0.000000 0.000001 -0.000100 -0.003217 -0.064874
    28 2.033354 1.000771 -1.937610 -2.173110 1.310585 2.445072
    29 6.028142 0.000004 0.000000 1.072792 0.270669 -0.582671
    30 11.692552 0.000000 0.000002 0.000000 0.000000 -1.727937
    31 11.481699 0.000000 0.000004 -1.103438 -0.316415 0.100107
    32 3.883657 -0.050329 -0.431043 0.047704 -0.153454 -0.767482
    33 1.719576 0.000003 0.000000 -0.053884 0.078890 -1.553283
    34 1.209180 -0.000001 0.000000 -0.013612 0.036967 -0.732282
    35 3.859830 -0.148938 -1.331282 -0.332627 0.218364 0.154975
    36 1.719426 0.000000 0.000000 -0.042634 0.220745 -0.851607
    37 1.099666 0.000000 0.000000 0.008154 0.000000 0.000000
    38 0.806017 -0.359836 -1.318334 0.415058 0.423434 -0.720789
    39 1.789784 0.000000 -0.000001 0.015106 0.038911 0.767156
    40 1.206998 0.000000 0.000000 0.004784 0.022539 0.418309
    41 -0.044717 2.313936 4.661499 -0.029581 -0.116502 0.032263
    42 2.676088 -1.712442 0.000000 1.570797 0.000000 1.570797
    43 2.676088 -1.712443 0.000000 -1.570796 0.000000 -1.570796
  time 14
    0 28.080143 1.427848 37.961430 1.510748 -0.021510 0.385604
    1 3.890452 -0.000004 -0.000003 -1.955766 -0.121678 -1.575280
    2 17.848175 0.000000 0.000000 0.000000 0.000000 0.390488
    3 16.525249 0.000000 0.000000 0.099106 0.002127 -1.173918
    4 6.879453 0.000000 0.000000 -0.007299 -0.002951 -0.584373
    5 -3.890452 0.000004 0.000007 -1.311819 -0.488976 -1.841500
    6 17.848171 0.000000 0.000000 0.000000 0.000000 1.024697
    7 16.525257 0.000000 0.000000 0.528488 -0.158761 -1.070083
    8 6.879454 0.000000 0.000000 -0.081333 -0.002951 -0.584373
    9 0.066413 3.345128 -2.981901 1.387905 0.067014 1.580911
    10 4.018331 0.000000 0.000000 -0.003913 -0.022998 0.118068
    11 3.518561 0.000000 0.000000 -0.205571 -0.004890 0.108360
    12 8.942642 0.000000 0.000000 0.043157 0.011553 0.107769
    13 3.307271 0.000000 0.000000 3.141590 0.000000 0.400478
    14 3.593710 -0.000003 0.000000 -0.123643 -0.033919 0.467282
    15 2.033346 1.000767 1.937660 1.802265 -1.395246 2.734691
    16 6.028142 0.000002 0.000000 -1.500037 -0.213517 -1.135097
    17 11.692556 0.000000 -0.000001 0.000000 0.000000 -1.326827
    18 11.481671 0.000000 -0.000029 -0.692637 0.388887 -0.203744
    19 3.883691 -0.046771 0.431443 0.096615 -0.011011 -0.677044
    20 1.719575 0.000000 0.000000 0.055915 -0.087978 -1.150781
    21 1.209183 -0.000001 0.000000 0.009316 -0.033629 -0.339470
    22 3.859861 -0.137948 1.332466 0.537936 -0.132422 -0.946691
    23 1.719428 0.000001 0.000000 0.023476 -0.208311 -0.755744
    24 1.099667 0.000000 0.000000 0.026046 -0.124621 -0.538681
    25 0.806048 -0.348922 1.321258 -1.269164 -0.727275 -0.266407
    26 1.789783 0.000001 0.000001 -0.001068 -0.012855 -0.131880
    27 1.207000 0.000000 0.000001 -0.000100 -0.003217 -0.064874
    28 2.033354 1.000771 -1.937610 -2.173110 1.310585 2.445072
    29 6.028142 0.000004 0.000000 1.043576 0.292176 -0.592635
    30 11.692552 0.000000 0.000002 0.000000 0.000000 -1.728661
    31 11.481699 0.000000 0.000004 -1.105317 -0.316381 0.102846
    32 3.883657 -0.050329 -0.431043 0.047704 -0.153454 -0.767482
    33 1.719576 0.000003 0.000000 -0.053884 0.078890 -1.553283
    34 1.209180 -0.000001 0.000000 -0.013612 0.036967 -0.732282
    35 3.859830 -0.148938 -1.331282 -0.332627 0.218364 0.154975
    36 1.719426 0.000000 0.000000 -0.042634 0.220745 -0.851607
    37 1.099666 0.000000 0.000000 0.008154 0.000000 0.000000
    38 0.806017 -0.359836 -1.318334 0.415058 0.423434 -0.720789
    39 1.789784 0.000000 -0.000001 0.015106 0.038911 0.767156
    40 1.206998 0.000000 0.000000 0.004784 0.022539 0.418309
    41 -0.044717 2.313936 4.661499 -0.030536 -0.106351 0.043097
    42 2.676088 -1.712442 0.000000 1.570797 0.000000 1.570797
    43 2.676088 -1.712443 0.000000 -1.570796 0.000000 -1.570796
  time 15
    0 30.043902 1.342055 38.074715 1.512975 -0.015281 0.406871
    1 3.890452 -0.000004 -0.000003 -1.882447 -0.073614 -1.643313
    2 17.848175 0.000000 0.000000 0.000000 0.000000 0.321705
    3 16.525249 0.000000 0.000000 0.104686 -0.064062 -1.176259
    4 6.879453 0.000000 0.000000 -0.007299 -0.002951 -0.584373
    5 -3.890452 0.000004 0.000007 -1.274822 -0.524949 -1.757287
    6 17.848171 0.000000 0.000000 0.000000 0.000000 1.013094
    7 16.525257 0.000000 0.000000 0.535972 -0.321331 -1.081728
    8 6.879454 0.000000 0.000000 -0.081333 -0.002951 -0.584373
    9 0.042975 3.345128 -2.981901 1.387905 0.067014 1.586436
    10 4.018331 0.000000 0.000000 -0.020495 -0.023873 0.114321
    11 3.518561 0.000000 0.000000 -0.223106 -0.006268 0.105411
    12 8.942642 0.000000 0.000000 0.039104 0.011277 0.110746
    13 3.307271 0.000000 0.000000 3.141590 0.000000 0.400478
    14 3.593710 -0.000003 0.000000 -0.113372 -0.036313 0.461058
    15 2.033346 1.000767 1.937660 1.802265 -1.395246 2.734691
    16 6.028142 0.000002 0.000000 -1.529265 -0.146422 -1.118388
    17 11.692556 0.000000 -0.000001 0.000000 0.000000 -1.394715
    18 11.481671 0.000000 -0.000029 -0.687382 0.386563 -0.170306
    19 3.883691 -0.046771 0.431443 0.096615 -0.011011 -0.677044
    20 1.719575 0.000000 0.000000 0.055915 -0.087978 -1.150781
    21 1.209183 -0.000001 0.000000 0.009316 -0.033629 -0.339470
    22 3.859861 -0.137948 1.332466 0.537936 -0.132422 -0.946691
    23 1.719428 0.000001 0.000000 0.023476 -0.208311 -0.755744
    24 1.099667 0.000000 0.000000 0.026046 -0.124621 -0.538681
    25 0.806048 -0.348922 1.321258 -1.269164 -0.727275 -0.266407
    26 1.789783 0.000001 0.000001 -0.001068 -0.012855 -0.131880
    27 1.207000 0.000000 0.000001 -0.000100 -0.003217 -0.064874
    28 2.033354 1.000771 -1.937610 -2.173110 1.310585 2.445072
    29 6.028142 0.000004 0.000000 1.010146 0.315672 -0.605540
    30 11.692552 0.000000 0.000002 0.000000 0.000000 -1.729095
    31 11.481699 0.000000 0.000004 -1.106612 -0.316346 0.104729
    32 3.883657 -0.050329 -0.431043 0.047704 -0.153454 -0.767482
    33 1.719576 0.000003 0.000000 -0.053884 0.078890 -1.553283
    34 1.209180 -0.000001 0.000000 -0.013612 0.036967 -0.732282
    35 3.859830 -0.148938 -1.331282 -0.332627 0.218364 0.154975
    36 1.719426 0.000000 0.000000 -0.042634 0.220745 -0.851607
    37 1.099666 0.000000 0.000000 0.008154 0.000000 0.000000
    38 0.806017 -0.359836 -1.318334 0.415058 0.423434 -0.720789
    39 1.789784 0.000000 -0.000001 0.015106 0.038911 0.767156
    40 1.206998 0.000000 0.000000 0.004784 0.022539 0.418309
    41 -0.044717 2.313936 4.661499 -0.031537 -0.097322 0.051749
    42 2.676088 -1.712442 0.000000 1.570797 0.000000 1.570797
    43 2.676088 -1.712443 0.000000 -1.570796 0.000000 -1.570796
  time 16
    0 31.992036 1.219493 38.086434 1.513674 -0.013552 0.432545
    1 3.890452 -0.000004 -0.000003 -1.804093 -0.003616 -1.713904
    2 17.848175 0.000000 0.000000 0.000000 0.000000 0.219139
    3 16.525249 0.000000 0.000000 0.111723 -0.133573 -1.158666
    4 6.879453 0.000000 0.000000 -0.007299 -0.002951 -0.584373
    5 -3.890452 0.000004 0.000007 -1.183960 -0.538083 -1.702530
    6 17.848171 0.000000 0.000000 0.000000 0.000000 0.945286
    7 16.525257 0.000000 0.000000 0.474972 -0.524834 -0.993268
    8 6.879454 0.000000 0.000000 -0.081333 -0.002951 -0.584373
    9 0.035162 3.345128 -2.981901 1.387924 0.067031 1.588569
    10 4.018331 0.000000 0.000000 -0.038841 -0.025252 0.109093
    11 3.518561 0.000000 0.000000 -0.242494 -0.008305 0.101593
    12 8.942642 0.000000 0.000000 0.034434 0.010403 0.115462
    13 3.307271 0.000000 0.000000 3.141590 0.000000 0.400478
    14 3.593710 -0.000003 0.000000 -0.102046 -0.038144 0.457423
    15 2.033346 1.000767 1.937660 1.802265 -1.395246 2.734691
    16 6.028142 0.000002 0.000000 -1.561510 -0.072560 -1.105392
    17 11.692556 0.000000 -0.000001 0.000000 0.000000 -1.464653
    18 11.481671 0.000000 -0.000029 -0.681362 0.384279 -0.139003
    19 3.883691 -0.046771 0.431443 0.096615 -0.011011 -0.677044
    20 1.719575 0.000000 0.000000 0.055915 -0.087978 -1.150781
    21 1.209183 -0.000001 0.000000 0.009316 -0.033629 -0.339470
    22 3.859861 -0.137948 1.332466 0.537936 -0.132422 -0.946691
    23 1.719428 0.000001 0.000000 0.023476 -0.208311 -0.755744
    24 1.099667 0.000000 0.000000 0.026046 -0.124621 -0.538681
    25 0.806048 -0.348922 1.321258 -1.269164 -0.727275 -0.266407
    26 1.789783 0.000001 0.000001 -0.001068 -0.012855 -0.131880
    27 1.207000 0.000000 0.000001 -0.000100 -0.003217 -0.064874
    28 2.033354 1.000771 -1.937610 -2.173110 1.310585 2.445072
    29 6.028142 0.000004 0.000000 0.973459 0.340732 -0.620059
    30 11.692552 0.000000 0.000002 0.000000 0.000000 -1.729239
    31 11.481699 0.000000 0.000004 -1.107131 -0.316346 0.105414
    32 3.883657 -0.050329 -0.431043 0.047704 -0.153454 -0.767482
    33 1.719576 0.000003 0.000000 -0.053884 0.078890 -1.553283
    34 1.209180 -0.000001 0.000000 -0.013612 0.036967 -0.732282
    35 3.859830 -0.148938 -1.331282 -0.332627 0.218364 0.154975
    36 1.719426 0.000000 0.000000 -0.042634 0.220745 -0.851607
    37 1.099666 0.000000 0.000000 0.008154 0.000000 0.000000
    38 0.806017 -0.359836 -1.318334 0.415058 0.423434 -0.720789
    39 1.789784 0.000000 -0.000001 0.015106 0.038911 0.767156
    40 1.206998 0.000000 0.000000 0.004784 0.022539 0.418309
    41 -0.044717 2.313936 4.661499 -0.032492 -0.090414 0.057874
    42 2.676088 -1.712442 0.000000 1.570797 0.000000 1.570797
    43 2.676088 -1.712443 0.000000 -1.570796 0.000000 -1.570796
  time 17
    0 33.932357 1.035651 38.004400 1.512975 -0.013373 0.462626
    1 3.890452 -0.000004 -0.000003 -1.740137 0.031383 -1.767907
    2 17.848175 0.000000 0.000000 0.000000 0.000000 0.206384
    3 16.525249 0.000000 0.000000 0.124838 -0.191252 -1.159536
    4 6.879453 0.000000 0.000000 -0.007299 -0.002951 -0.584514
    5 -3.890452 0.000004 0.000007 -1.261787 -0.548718 -1.578381
    6 17.848171 0.000000 0.000000 0.000000 0.000000 0.824117
    7 16.525257 0.000000 0.000000 0.561046 -0.620292 -0.930075
    8 6.879454 0.000000 0.000000 -0.081333 -0.002951 -0.584373
    9 0.031256 3.345128 -2.981901 1.387960 0.067014 1.590355
    10 4.018331 0.000000 0.000000 -0.058229 -0.026690 0.102645
    11 3.518561 0.000000 0.000000 -0.263111 -0.010522 0.097077
    12 8.942642 0.000000 0.000000 0.029183 0.008917 0.121535
    13 3.307271 0.000000 0.000000 3.141590 0.000000 0.400478
    14 3.593710 -0.000003 0.000000 -0.090053 -0.038341 0.455081
    15 2.033346 1.000767 1.937660 1.802265 -1.395246 2.734691
    16 6.028142 0.000002 0.000000 -1.596490 0.005636 -1.098058
    17 11.692556 0.000000 -0.000001 0.000000 0.000000 -1.532147
    18 11.481671 0.000000 -0.000029 -0.675439 0.382162 -0.113984
    19 3.883691 -0.046771 0.431443 0.096615 -0.011011 -0.677044
    20 1.719575 0.000000 0.000000 0.055915 -0.087978 -1.150781
    21 1.209183 -0.000001 0.000000 0.009316 -0.033629 -0.339470
    22 3.859861 -0.137948 1.332466 0.537936 -0.132422 -0.946691
    23 1.719428 0.000001 0.000000 0.023476 -0.208311 -0.755744
    24 1.099667 0.000000 0.000000 0.026046 -0.124621 -0.538681
    25 0.806048 -0.348922 1.321258 -1.269164 -0.727275 -0.266407
    26 1.789783 0.000001 0.000001 -0.001068 -0.012855 -0.131880
    27 1.207000 0.000000 0.000001 -0.000100 -0.003217 -0.064874
    28 2.033354 1.000771 -1.937610 -2.173110 1.310585 2.445072
    29 6.028142 0.000004 0.000000 0.934281 0.366597 -0.635242
    30 11.692552 0.000000 0.000002 0.000000 0.000000 -1.729312
    31 11.481699 0.000000 0.000004 -1.107325 -0.316346 0.105699
    32 3.883657 -0.050329 -0.431043 0.047704 -0.153454 -0.767482
    33 1.719576 0.000003 0.000000 -0.053884 0.078890 -1.553283
    34 1.209180 -0.000001 0.000000 -0.013612 0.036967 -0.732282
    35 3.859830 -0.148938 -1.331282 -0.332627 0.218364 0.154975
    36 1.719426 0.000000 0.000000 -0.042634 0.220745 -0.851607
    37 1.099666 0.000000 0.000000 0.008154 0.000000 0.000000
    38 0.806017 -0.359836 -1.318334 0.415058 0.423434 -0.720789
    39 1.789784 0.000000 -0.000001 0.015106 0.038911 0.767156
    40 1.206998 0.000000 0.000000 0.004784 0.022539 0.418309
    41 -0.044717 2.313936 4.661499 -0.033357 -0.086780 0.064705
    42 2.676088 -1.712442 0.000000 1.570797 0.000000 1.570797
    43 2.676088 -1.712443 0.000000 -1.570796 0.000000 -1.570796
  time 18
    0 35.911741 0.778271 37.828614 1.511766 -0.014449 0.495676
    1 3.890452 -0.000004 -0.000003 -1.736780 0.053556 -1.800732
    2 17.848175 0.000000 0.000000 0.000000 0.000000 0.239030
    3 16.525249 0.000000 0.000000 0.227052 -0.132502 -1.164820
    4 6.879453 0.000000 0.000000 -0.007263 -0.003011 -0.598741
    5 -3.890452 0.000004 0.000007 -1.420605 -0.530242 -1.440166
    6 17.848171 0.000000 0.000000 0.000000 0.000000 0.672083
    7 16.525257 0.000000 0.000000 0.773800 -0.596352 -0.939049
    8 6.879454 0.000000 0.000000 -0.081333 -0.002951 -0.584373
    9 0.035162 3.345128 -2.981901 1.388015 0.067014 1.591709
    10 4.018331 0.000000 0.000000 -0.077505 -0.027636 0.095448
    11 3.518561 0.000000 0.000000 -0.283800 -0.012368 0.092064
    12 8.942642 0.000000 0.000000 0.023579 0.006795 0.128280
    13 3.307271 0.000000 0.000000 3.141590 0.000000 0.400478
    14 3.593710 -0.000003 0.000000 -0.077617 -0.036031 0.453109
    15 2.033346 1.000767 1.937660 1.802265 -1.395246 2.734691
    16 6.028142 0.000002 0.000000 -1.632129 0.083394 -1.097408
    17 11.692556 0.000000 -0.000001 0.000000 0.000000 -1.592229
    18 11.481671 0.000000 -0.000029 -0.669802 0.380252 -0.098095
    19 3.883691 -0.046771 0.431443 0.096615 -0.011011 -0.677044
    20 1.719575 0.000000 0.000000 0.055915 -0.087978 -1.150781
    21 1.209183 -0.000001 0.000000 0.009316 -0.033629 -0.339470
    22 3.859861 -0.137948 1.332466 0.537936 -0.132422 -0.946691
    23 1.719428 0.000001 0.000000 0.023476 -0.208311 -0.755744
    24 1.099667 0.000000 0.000000 0.026046 -0.124621 -0.538681
    25 0.806048 -0.348922 1.321258 -1.269164 -0.727275 -0.266407
    26 1.789783 0.000001 0.000001 -0.001068 -0.012855 -0.131880
    27 1.207000 0.000000 0.000001 -0.000100 -0.003217 -0.064874
    28 2.033354 1.000771 -1.937610 -2.173110 1.310585 2.445072
    29 6.028142 0.000004 0.000000 0.894912 0.391799 -0.649381
    30 11.692552 0.000000 0.000002 0.000000 0.000000 -1.729239
    31 11.481699 0.000000 0.000004 -1.107195 -0.316346 0.105528
    32 3.883657 -0.050329 -0.431043 0.047704 -0.153454 -0.767482
    33 1.719576 0.000003 0.000000 -0.053884 0.078890 -1.553283
    34 1.209180 -0.000001 0.000000 -0.013612 0.036967 -0.732282
    35 3.859830 -0.148938 -1.331282 -0.332627 0.218364 0.154975
    36 1.719426 0.000000 0.000000 -0.042634 0.220745 -0.851607
    37 1.099666 0.000000 0.000000 0.008154 0.000000 0.000000
    38 0.806017 -0.359836 -1.318334 0.415058 0.423434 -0.720789
    39 1.789784 0.000000 -0.000001 0.015106 0.038911 0.767156
    40 1.206998 0.000000 0.000000 0.004784 0.022539 0.418309
    41 -0.044717 2.313936 4.661499 -0.034175 -0.088293 0.073717
    42 2.676088 -1.712442 0.000000 1.570797 0.000000 1.570797
    43 2.676088 -1.712443 0.000000 -1.570796 0.000000 -1.570796
  time 19
    0 38.012224 0.477995 37.480947 1.510685 -0.018934 0.528631
    1 3.890452 -0.000004 -0.000003 -1.741815 0.061519 -1.833380
    2 17.848175 0.000000 0.000000 0.000000 0.000000 0.305914
    3 16.525249 0.000000 0.000000 0.352154 -0.064776 -1.173382
    4 6.879453 0.000000 0.000000 -0.007155 -0.003155 -0.632337
    5 -3.890452 0.000004 0.000007 -1.375365 -0.480791 -1.388335
    6 17.848171 0.000000 0.000000 0.000000 0.000000 0.540809
    7 16.525257 0.000000 0.000000 0.841256 -0.559381 -0.892896
    8 6.879454 0.000000 0.000000 -0.081333 -0.002951 -0.584373
    9 0.050788 3.345128 -2.981901 1.388070 0.067014 1.589756
    10 4.018331 0.000000 0.000000 -0.095065 -0.027565 0.088164
    11 3.518561 0.000000 0.000000 -0.302903 -0.013303 0.087036
    12 8.942642 0.000000 0.000000 0.018098 0.004099 0.134867
    13 3.307271 0.000000 0.000000 3.141590 0.000000 0.400478
    14 3.593710 -0.000003 0.000000 -0.065180 -0.030961 0.451754
    15 2.033346 1.000767 1.937660 1.802265 -1.395246 2.734691
    16 6.028142 0.000002 0.000000 -1.664846 0.153703 -1.103256
    17 11.692556 0.000000 -0.000001 0.000000 0.000000 -1.639853
    18 11.481671 0.000000 -0.000029 -0.664069 0.378799 -0.091929
    19 3.883691 -0.046771 0.431443 0.096615 -0.011011 -0.677044
    20 1.719575 0.000000 0.000000 0.055915 -0.087978 -1.150781
    21 1.209183 -0.000001 0.000000 0.009316 -0.033629 -0.339470
    22 3.859861 -0.137948 1.332466 0.537936 -0.132422 -0.946691
    23 1.719428 0.000001 0.000000 0.023476 -0.208311 -0.755744
    24 1.099667 0.000000 0.000000 0.026046 -0.124621 -0.538681
    25 0.806048 -0.348922 1.321258 -1.269164 -0.727275 -0.266407
    26 1.789783 0.000001 0.000001 -0.001068 -0.012855 -0.131880
    27 1.207000 0.000000 0.000001 -0.000100 -0.003217 -0.064874
    28 2.033354 1.000771 -1.937610 -2.173110 1.310585 2.445072
    29 6.028142 0.000004 0.000000 0.859087 0.414347 -0.660389
    30 11.692552 0.000000 0.000002 0.000000 0.000000 -1.728950
    31 11.481699 0.000000 0.000004 -1.106353 -0.316381 0.104273
    32 3.883657 -0.050329 -0.431043 0.047704 -0.153454 -0.767482
    33 1.719576 0.000003 0.000000 -0.053884 0.078890 -1.553283
    34 1.209180 -0.000001 0.000000 -0.013612 0.036967 -0.732282
    35 3.859830 -0.148938 -1.331282 -0.332627 0.218364 0.154975
    36 1.719426 0.000000 0.000000 -0.042634 0.220745 -0.851607
    37 1.099666 0.000000 0.000000 0.008154 0.000000 0.000000
    38 0.806017 -0.359836 -1.318334 0.415058 0.423434 -0.720789
    39 1.789784 0.000000 -0.000001 0.015106 0.038911 0.767156
    40 1.206998 0.000000 0.000000 0.004784 0.022539 0.418309
    41 -0.044717 2.313936 4.661499 -0.035222 -0.094920 0.082490
    42 2.676088 -1.712442 0.000000 1.570797 0.000000 1.570797
    43 2.676088 -1.712443 0.000000 -1.570796 0.000000 -1.570796
  time 20
    0 40.225991 0.208360 36.977025 1.509985 -0.028588 0.557371
    1 3.890452 -0.000004 -0.000003 -1.741374 0.057752 -1.871588
    2 17.848175 0.000000 0.000000 0.000000 0.000000 0.386388
    3 16.525249 0.000000 0.000000 0.458029 -0.014811 -1.181811
    4 6.879453 0.000000 0.000000 -0.007048 -0.003299 -0.665439
    5 -3.890452 0.000004 0.000007 -1.338752 -0.445406 -1.353120
    6 17.848171 0.000000 0.000000 0.000000 0.000000 0.494078
    7 16.525257 0.000000 0.000000 0.837327 -0.438258 -0.883388
    8 6.879454 0.000000 0.000000 -0.081333 -0.002951 -0.584373
    9 0.085945 3.345128 -2.981901 1.388125 0.066998 1.582205
    10 4.018331 0.000000 0.000000 -0.109065 -0.026234 0.081785
    11 3.518561 0.000000 0.000000 -0.318371 -0.012991 0.082613
    12 8.942642 0.000000 0.000000 0.013428 0.001091 0.140347
    13 3.307271 0.000000 0.000000 3.141590 0.000000 0.400478
    14 3.593710 -0.000003 0.000000 -0.053299 -0.023693 0.451261
    15 2.033346 1.000767 1.937660 1.802265 -1.395246 2.734691
    16 6.028142 0.000002 0.000000 -1.690585 0.208333 -1.113375
    17 11.692556 0.000000 -0.000001 0.000000 0.000000 -1.671865
    18 11.481671 0.000000 -0.000029 -0.658241 0.377886 -0.093194
    19 3.883691 -0.046771 0.431443 0.096615 -0.011011 -0.677044
    20 1.719575 0.000000 0.000000 0.055915 -0.087978 -1.150781
    21 1.209183 -0.000001 0.000000 0.009316 -0.033629 -0.339470
    22 3.859861 -0.137948 1.332466 0.537936 -0.132422 -0.946691
    23 1.719428 0.000001 0.000000 0.023476 -0.208311 -0.755744
    24 1.099667 0.000000 0.000000 0.026046 -0.124621 -0.538681
    25 0.806048 -0.348922 1.321258 -1.269164 -0.727275 -0.266407
    26 1.789783 0.000001 0.000001 -0.001068 -0.012855 -0.131880
    27 1.207000 0.000000 0.000001 -0.000100 -0.003217 -0.064874
    28 2.033354 1.000771 -1.937610 -2.173110 1.310585 2.445072
    29 6.028142 0.000004 0.000000 0.831404 0.432112 -0.666177
    30 11.692552 0.000000 0.000002 0.000000 0.000000 -1.728299
    31 11.481699 0.000000 0.000004 -1.104345 -0.316415 0.101477
    32 3.883657 -0.050329 -0.431043 0.047704 -0.153454 -0.767482
    33 1.719576 0.000003 0.000000 -0.053884 0.078890 -1.553283
    34 1.209180 -0.000001 0.000000 -0.013612 0.036967 -0.732282
    35 3.859830 -0.148938 -1.331282 -0.332627 0.218364 0.154975
    36 1.719426 0.000000 0.000000 -0.042634 0.220745 -0.851607
    37 1.099666 0.000000 0.000000 0.008154 0.000000 0.000000
    38 0.806017 -0.359836 -1.318334 0.415058 0.423434 -0.720789
    39 1.789784 0.000000 -0.000001 0.015106 0.038911 0.767156
    40 1.206998 0.000000 0.000000 0.004784 0.022539 0.418309
    41 -0.044717 2.313936 4.661499 -0.036495 -0.104932 0.087080
    42 2.676088 -1.712442 0.000000 1.570797 0.000000 1.570797
    43 2.676088 -1.712443 0.000000 -1.570796 0.000000 -1.570796
  time 21
    0 42.513978 -0.030635 36.375444 1.509349 -0.042955 0.577105
    1 3.890452 -0.000004 -0.000003 -1.720438 0.050742 -1.919590
    2 17.848175 0.000000 0.000000 0.000000 0.000000 0.449022
    3 16.525249 0.000000 0.000000 0.495134 0.000672 -1.191510
    4 6.879453 0.000000 0.000000 -0.007012 -0.003346 -0.678081
    5 -3.890452 0.000004 0.000007 -1.221532 -0.430458 -1.366999
    6 17.848171 0.000000 0.000000 0.000000 0.000000 0.546572
    7 16.525257 0.000000 0.000000 0.556181 -0.338698 -0.874200
    8 6.879454 0.000000 0.000000 -0.081333 -0.002951 -0.584373
    9 0.136728 3.345128 -2.981901 1.388107 0.066998 1.568591
    10 4.018331 0.000000 0.000000 -0.117389 -0.023789 0.077097
    11 3.518561 0.000000 0.000000 -0.327780 -0.011433 0.079338
    12 8.942642 0.000000 0.000000 0.010503 -0.001678 0.144010
    13 3.307271 0.000000 0.000000 3.141590 0.000000 0.400478
    14 3.593710 -0.000003 0.000000 -0.042972 -0.015044 0.451199
    15 2.033346 1.000767 1.937660 1.802265 -1.395246 2.734691
    16 6.028142 0.000002 0.000000 -1.704351 0.238910 -1.123679
    17 11.692556 0.000000 -0.000001 0.000000 0.000000 -1.685900
    18 11.481671 0.000000 -0.000029 -0.652222 0.377429 -0.097700
    19 3.883691 -0.046771 0.431443 0.096615 -0.011011 -0.677044
    20 1.719575 0.000000 0.000000 0.055915 -0.087978 -1.150781
    21 1.209183 -0.000001 0.000000 0.009316 -0.033629 -0.339470
    22 3.859861 -0.137948 1.332466 0.537936 -0.132422 -0.946691
    23 1.719428 0.000001 0.000000 0.023476 -0.208311 -0.755744
    24 1.099667 0.000000 0.000000 0.026046 -0.124621 -0.538681
    25 0.806048 -0.348922 1.321258 -1.269164 -0.727275 -0.266407
    26 1.789783 0.000001 0.000001 -0.001068 -0.012855 -0.131880
    27 1.207000 0.000000 0.000001 -0.000100 -0.003217 -0.064874
    28 2.033354 1.000771 -1.937610 -2.173110 1.310585 2.445072
    29 6.028142 0.000004 0.000000 0.816557 0.442107 -0.665893
    30 11.692552 0.000000 0.000002 0.000000 0.000000 -1.727214
    31 11.481699 0.000000 0.000004 -1.101495 -0.316450 0.097255
    32 3.883657 -0.050329 -0.431043 0.047704 -0.153454 -0.767482
    33 1.719576 0.000003 0.000000 -0.053884 0.078890 -1.553283
    34 1.209180 -0.000001 0.000000 -0.013612 0.036967 -0.732282
    35 3.859830 -0.148938 -1.331282 -0.332627 0.218364 0.154975
    36 1.719426 0.000000 0.000000 -0.042634 0.220745 -0.851607
    37 1.099666 0.000000 0.000000 0.008154 0.000000 0.000000
    38 0.806017 -0.359836 -1.318334 0.415058 0.423434 -0.720789
    39 1.789784 0.000000 -0.000001 0.015106 0.038911 0.767156
    40 1.206998 0.000000 0.000000 0.004784 0.022539 0.418309
    41 -0.044717 2.313936 4.661499 -0.037996 -0.116705 0.085654
    42 2.676088 -1.712442 0.000000 1.570797 0.000000 1.570797
    43 2.676088 -1.712443 0.000000 -1.570796 0.000000 -1.570796
  time 22
    0 44.825405 -0.104172 36.008246 1.534602 -0.015444 0.563789
    1 3.890452 -0.000004 -0.000003 -1.642260 0.030430 -1.934590
    2 17.848175 0.000000 0.000000 0.000000 0.000000 0.474075
    3 16.525249 0.000000 0.000000 0.327205 -0.057748 -1.235593
    4 6.879453 0.000000 0.000000 -0.007167 -0.003143 -0.630083
    5 -3.890452 0.000004 0.000007 -1.259679 -0.459031 -1.351893
    6 17.848171 0.000000 0.000000 0.000000 0.000000 0.609406
    7 16.525257 0.000000 0.000000 0.401902 -0.176384 -1.011858
    8 6.879454 0.000000 0.000000 -0.081333 -0.002951 -0.584373
    9 0.046881 3.345128 -2.981901 1.386788 0.067031 1.567033
    10 4.018331 0.000000 0.000000 -0.096781 -0.018552 0.065683
    11 3.518561 0.000000 0.000000 -0.305149 -0.003440 0.070213
    12 8.942642 0.000000 0.000000 0.020777 0.002253 0.152019
    13 3.307271 0.000000 0.000000 3.141590 0.000000 0.400478
    14 3.593710 -0.000003 0.000000 -0.045915 -0.004734 0.440785
    15 2.033346 1.000767 1.937660 1.802265 -1.395246 2.734691
    16 6.028142 0.000002 0.000000 -1.646649 0.185108 -1.103628
    17 11.692556 0.000000 -0.000001 0.000000 0.000000 -1.631811
    18 11.481671 0.000000 -0.000029 -0.661107 0.377097 -0.104893
    19 3.883691 -0.046771 0.431443 0.096615 -0.011011 -0.677044
    20 1.719575 0.000000 0.000000 0.055915 -0.087978 -1.150781
    21 1.209183 -0.000001 0.000000 0.009316 -0.033629 -0.339470
    22 3.859861 -0.137948 1.332466 0.537936 -0.132422 -0.946691
    23 1.719428 0.000001 0.000000 0.023476 -0.208311 -0.755744
    24 1.099667 0.000000 0.000000 0.026046 -0.124621 -0.538681
    25 0.806048 -0.348922 1.321258 -1.269164 -0.727275 -0.266407
    26 1.789783 0.000001 0.000001 -0.001068 -0.012855 -0.131880
    27 1.207000 0.000000 0.000001 -0.000100 -0.003217 -0.064874
    28 2.033354 1.000771 -1.937610 -2.173110 1.310585 2.445072
    29 6.028142 0.000004 0.000000 0.835906 0.396583 -0.661907
    30 11.692552 0.000000 0.000002 0.000000 0.000000 -1.729022
    31 11.481699 0.000000 0.000004 -1.106483 -0.316346 0.104501
    32 3.883657 -0.050329 -0.431043 0.047704 -0.153454 -0.767482
    33 1.719576 0.000003 0.000000 -0.053884 0.078890 -1.553283
    34 1.209180 -0.000001 0.000000 -0.013612 0.036967 -0.732282
    35 3.859830 -0.148938 -1.331282 -0.332627 0.218364 0.154975
    36 1.719426 0.000000 0.000000 -0.042634 0.220745 -0.851607
    37 1.099666 0.000000 0.000000 0.008154 0.000000 0.000000
    38 0.806017 -0.359836 -1.318334 0.415058 0.423434 -0.720789
    39 1.789784 0.000000 -0.000001 0.015106 0.038911 0.767156
    40 1.206998 0.000000 0.000000 0.004784 0.022539 0.418309
    41 -0.044717 2.313936 4.661499 -0.039816 -0.129866 0.095625
    42 2.676088 -1.712442 0.000000 1.570797 0.000000 1.570797
    43 2.676088 -1.712443 0.000000 -1.570796 0.000000 -1.570796
  time 23
    0 46.980576 -0.018379 35.812927 1.563163 0.018477 0.547312
    1 3.890452 -0.000004 -0.000003 -1.544560 0.011166 -1.946414
    2 17.848175 0.000000 0.000000 0.000000 0.000000 0.472784
    3 16.525249 0.000000 0.000000 0.080910 -0.161218 -1.289576
    4 6.879453 0.000000 0.000000 -0.007299 -0.002951 -0.584373
    5 -3.890452 0.000004 0.000007 -1.320158 -0.494661 -1.331595
    6 17.848171 0.000000 0.000000 0.000000 0.000000 0.673977
    7 16.525257 0.000000 0.000000 0.250336 -0.021414 -1.170081
    8 6.879454 0.000000 0.000000 -0.081333 -0.002951 -0.584373
    9 -0.058591 3.345128 -2.981901 1.385305 0.067048 1.567500
    10 4.018331 0.000000 0.000000 -0.072165 -0.012752 0.053676
    11 3.518561 0.000000 0.000000 -0.278062 0.005597 0.060653
    12 8.942642 0.000000 0.000000 0.032919 0.007047 0.160543
    13 3.307271 0.000000 0.000000 3.141590 0.000000 0.400478
    14 3.593710 -0.000003 0.000000 -0.051411 0.003154 0.430125
    15 2.033346 1.000767 1.937660 1.802265 -1.395246 2.734691
    16 6.028142 0.000002 0.000000 -1.581970 0.114702 -1.082741
    17 11.692556 0.000000 -0.000001 0.000000 0.000000 -1.564632
    18 11.481671 0.000000 -0.000029 -0.678305 0.374979 -0.118371
    19 3.883691 -0.046771 0.431443 0.096615 -0.011011 -0.677044
    20 1.719575 0.000000 0.000000 0.055915 -0.087978 -1.150781
    21 1.209183 -0.000001 0.000000 0.009316 -0.033629 -0.339470
    22 3.859861 -0.137948 1.332466 0.537936 -0.132422 -0.946691
    23 1.719428 0.000001 0.000000 0.023476 -0.208311 -0.755744
    24 1.099667 0.000000 0.000000 0.026046 -0.124621 -0.538681
    25 0.806048 -0.348922 1.321258 -1.269164 -0.727275 -0.266407
    26 1.789783 0.000001 0.000001 -0.001068 -0.012855 -0.131880
    27 1.207000 0.000000 0.000001 -0.000100 -0.003217 -0.064874
    28 2.033354 1.000771 -1.937610 -2.173110 1.310585 2.445072
    29 6.028142 0.000004 0.000000 0.861386 0.344380 -0.660009
    30 11.692552 0.000000 0.000002 0.000000 0.000000 -1.730903
    31 11.481699 0.000000 0.000004 -1.112831 -0.316209 0.113173
    32 3.883657 -0.050329 -0.431043 0.047704 -0.153454 -0.767482
    33 1.719576 0.000003 0.000000 -0.053884 0.078890 -1.553283
    34 1.209180 -0.000001 0.000000 -0.013612 0.036967 -0.732282
    35 3.859830 -0.148938 -1.331282 -0.332627 0.218364 0.154975
    36 1.719426 0.000000 0.000000 -0.042634 0.220745 -0.851607
    37 1.099666 0.000000 0.000000 0.008154 0.000000 0.000000
    38 0.806017 -0.359836 -1.318334 0.415058 0.423434 -0.720789
    39 1.789784 0.000000 -0.000001 0.015106 0.038911 0.767156
    40 1.206998 0.000000 0.000000 0.004784 0.022539 0.418309
    41 -0.044717 2.313936 4.661499 -0.041726 -0.141343 0.106148
    42 2.676088 -1.712442 0.000000 1.570797 0.000000 1.570797
    43 2.676088 -1.712443 0.000000 -1.570796 0.000000 -1.570796
  time 24
    0 48.893552 -0.189965 36.074654 1.561573 0.038030 0.540223
    1 3.890452 -0.000004 -0.000003 -1.486611 -0.048056 -1.957974
    2 17.848175 0.000000 0.000000 0.000000 0.000000 0.609590
    3 16.525249 0.000000 0.000000 -0.101697 -0.083608 -1.178466
    4 6.879453 0.000000 0.000000 -0.007299 -0.002951 -0.584373
    5 -3.890452 0.000004 0.000007 -1.416100 -0.436535 -1.309881
    6 17.848171 0.000000 0.000000 0.000000 0.000000 0.631903
    7 16.525257 0.000000 0.000000 0.174459 0.050663 -1.204856
    8 6.879454 0.000000 0.000000 -0.081333 -0.002951 -0.584373
    9 -0.124999 3.345128 -2.981901 1.385012 0.067031 1.582781
    10 4.018331 0.000000 0.000000 -0.070032 -0.005836 0.054686
    11 3.518561 0.000000 0.000000 -0.276227 0.012536 0.061491
    12 8.942642 0.000000 0.000000 0.034487 0.006735 0.160029
    13 3.307271 0.000000 0.000000 3.141590 0.000000 0.400478
    14 3.593710 -0.000003 0.000000 -0.055964 0.010619 0.433453
    15 2.033346 1.000767 1.937660 1.802265 -1.395246 2.734691
    16 6.028142 0.000002 0.000000 -1.579802 0.104136 -1.091281
    17 11.692556 0.000000 -0.000001 0.000000 0.000000 -1.545945
    18 11.481671 0.000000 -0.000029 -0.680407 0.373402 -0.136276
    19 3.883691 -0.046771 0.431443 0.096615 -0.011011 -0.677044
    20 1.719575 0.000000 0.000000 0.055915 -0.087978 -1.150781
    21 1.209183 -0.000001 0.000000 0.009316 -0.033629 -0.339470
    22 3.859861 -0.137948 1.332466 0.537936 -0.132422 -0.946691
    23 1.719428 0.000001 0.000000 0.023476 -0.208311 -0.755744
    24 1.099667 0.000000 0.000000 0.026046 -0.124621 -0.538681
    25 0.806048 -0.348922 1.321258 -1.269164 -0.727275 -0.266407
    26 1.789783 0.000001 0.000001 -0.001068 -0.012855 -0.131880
    27 1.207000 0.000000 0.000001 -0.000100 -0.003217 -0.064874
    28 2.033354 1.000771 -1.937610 -2.173110 1.310585 2.445072
    29 6.028142 0.000004 0.000000 0.864164 0.342722 -0.652608
    30 11.692552 0.000000 0.000002 0.000000 0.000000 -1.731843
    31 11.481699 0.000000 0.000004 -1.116783 -0.316105 0.118194
    32 3.883657 -0.050329 -0.431043 0.047704 -0.153454 -0.767482
    33 1.719576 0.000003 0.000000 -0.053884 0.078890 -1.553283
    34 1.209180 -0.000001 0.000000 -0.013612 0.036967 -0.732282
    35 3.859830 -0.148938 -1.331282 -0.332627 0.218364 0.154975
    36 1.719426 0.000000 0.000000 -0.042634 0.220745 -0.851607
    37 1.099666 0.000000 0.000000 0.008154 0.000000 0.000000
    38 0.806017 -0.359836 -1.318334 0.415058 0.423434 -0.720789
    39 1.789784 0.000000 -0.000001 0.015106 0.038911 0.767156
    40 1.206998 0.000000 0.000000 0.004784 0.022539 0.418309
    41 -0.044717 2.313936 4.661499 -0.040635 -0.143542 0.114645
    42 2.676088 -1.712442 0.000000 1.570797 0.000000 1.570797
    43 2.676088 -1.712443 0.000000 -1.570796 0.000000 -1.570796
  time 25
    0 50.697151 -0.324783 36.457478 1.558519 0.056948 0.525182
    1 3.890452 -0.000004 -0.000003 -1.751356 -0.127924 -1.823233
    2 17.848175 0.000000 0.000000 0.000000 0.000000 0.769324
    3 16.525249 0.000000 0.000000 -0.145127 0.222054 -1.033710
    4 6.879453 0.000000 0.000000 -0.007299 -0.002951 -0.584373
    5 -3.890452 0.000004 0.000007 -1.463161 -0.379439 -1.315734
    6 17.848171 0.000000 0.000000 0.000000 0.000000 0.589593
    7 16.525257 0.000000 0.000000 0.177921 0.063064 -1.219759
    8 6.879454 0.000000 0.000000 -0.081333 -0.002951 -0.584373
    9 -0.187501 3.341221 -2.981901 1.384884 0.067031 1.599259
    10 4.018331 0.000000 0.000000 -0.063826 -0.001306 0.056690
    11 3.518561 0.000000 0.000000 -0.269723 0.017330 0.063105
    12 8.942642 0.000000 0.000000 0.037183 0.007011 0.158791
    13 3.307271 0.000000 0.000000 3.141590 0.000000 0.400478
    14 3.593710 -0.000003 0.000000 -0.062404 0.016648 0.434993
    15 2.033346 1.000767 1.937660 1.802265 -1.395246 2.734691
    16 6.028142 0.000002 0.000000 -1.572353 0.077454 -1.098151
    17 11.692556 0.000000 -0.000001 0.000000 0.000000 -1.518506
    18 11.481671 0.000000 -0.000029 -0.684229 0.373277 -0.152995
    19 3.883691 -0.046771 0.431443 0.096615 -0.011011 -0.677044
    20 1.719575 0.000000 0.000000 0.055915 -0.087978 -1.150781
    21 1.209183 -0.000001 0.000000 0.009316 -0.033629 -0.339470
    22 3.859861 -0.137948 1.332466 0.537936 -0.132422 -0.946691
    23 1.719428 0.000001 0.000000 0.023476 -0.208311 -0.755744
    24 1.099667 0.000000 0.000000 0.026046 -0.124621 -0.538681
    25 0.806048 -0.348922 1.321258 -1.269164 -0.727275 -0.266407
    26 1.789783 0.000001 0.000001 -0.001068 -0.012855 -0.131880
    27 1.207000 0.000000 0.000001 -0.000100 -0.003217 -0.064874
    28 2.033354 1.000771 -1.937610 -2.173110 1.310585 2.445072
    29 6.028142 0.000004 0.000000 0.875371 0.335711 -0.645396
    30 11.692552 0.000000 0.000002 0.000000 0.000000 -1.732566
    31 11.481699 0.000000 0.000004 -1.120605 -0.315967 0.122930
    32 3.883657 -0.050329 -0.431043 0.047704 -0.153454 -0.767482
    33 1.719576 0.000003 0.000000 -0.053884 0.078890 -1.553283
    34 1.209180 -0.000001 0.000000 -0.013612 0.036967 -0.732282
    35 3.859830 -0.148938 -1.331282 -0.332627 0.218364 0.154975
    36 1.719426 0.000000 0.000000 -0.042634 0.220745 -0.851607
    37 1.099666 0.000000 0.000000 0.008154 0.000000 0.000000
    38 0.806017 -0.359836 -1.318334 0.415058 0.423434 -0.720789
    39 1.789784 0.000000 -0.000001 0.015106 0.038911 0.767156
    40 1.206998 0.000000 0.000000 0.004784 0.022539 0.418309
    41 -0.044717 2.313936 4.661499 -0.039497 -0.145881 0.124160
    42 2.676088 -1.712442 0.000000 1.570797 0.000000 1.570797
    43 2.676088 -1.712443 0.000000 -1.570796 0.000000 -1.570796
  time 26
    0 52.356213 -0.453473 36.836396 1.555466 0.064857 0.504681
    1 3.890452 -0.000004 -0.000003 -2.174046 -0.145424 -1.578104
    2 17.848175 0.000000 0.000000 0.000000 0.000000 0.947202
    3 16.525249 0.000000 0.000000 0.081905 0.398632 -0.912098
    4 6.879453 0.000000 0.000000 -0.007299 -0.002951 -0.584373
    5 -3.890452 0.000004 0.000007 -1.490285 -0.335086 -1.339714
    6 17.848171 0.000000 0.000000 0.000000 0.000000 0.562675
    7 16.525257 0.000000 0.000000 0.213473 0.050336 -1.228039
    8 6.879454 0.000000 0.000000 -0.081333 -0.002951 -0.584373
    9 -0.214845 3.341221 -2.981901 1.384939 0.067031 1.607481
    10 4.018331 0.000000 0.000000 -0.053883 0.000108 0.059374
    11 3.518561 0.000000 0.000000 -0.258942 0.019127 0.065200
    12 8.942642 0.000000 0.000000 0.040567 0.007670 0.156880
    13 3.307271 0.000000 0.000000 3.141590 0.000000 0.400478
    14 3.593710 -0.000003 0.000000 -0.070233 0.020366 0.436842
    15 2.033346 1.000767 1.937660 1.802265 -1.395246 2.734691
    16 6.028142 0.000002 0.000000 -1.558022 0.035630 -1.103535
    17 11.692556 0.000000 -0.000001 0.000000 0.000000 -1.483576
    18 11.481671 0.000000 -0.000029 -0.688337 0.374813 -0.166433
    19 3.883691 -0.046771 0.431443 0.096615 -0.011011 -0.677044
    20 1.719575 0.000000 0.000000 0.055915 -0.087978 -1.150781
    21 1.209183 -0.000001 0.000000 0.009316 -0.033629 -0.339470
    22 3.859861 -0.137948 1.332466 0.537936 -0.132422 -0.946691
    23 1.719428 0.000001 0.000000 0.023476 -0.208311 -0.755744
    24 1.099667 0.000000 0.000000 0.026046 -0.124621 -0.538681
    25 0.806048 -0.348922 1.321258 -1.269164 -0.727275 -0.266407
    26 1.789783 0.000001 0.000001 -0.001068 -0.012855 -0.131880
    27 1.207000 0.000000 0.000001 -0.000100 -0.003217 -0.064874
    28 2.033354 1.000771 -1.937610 -2.173110 1.310585 2.445072
    29 6.028142 0.000004 0.000000 0.895583 0.323299 -0.637614
    30 11.692552 0.000000 0.000002 0.000000 0.000000 -1.732855
    31 11.481699 0.000000 0.000004 -1.122289 -0.315933 0.124870
    32 3.883657 -0.050329 -0.431043 0.047704 -0.153454 -0.767482
    33 1.719576 0.000003 0.000000 -0.053884 0.078890 -1.553283
    34 1.209180 -0.000001 0.000000 -0.013612 0.036967 -0.732282
    35 3.859830 -0.148938 -1.331282 -0.332627 0.218364 0.154975
    36 1.719426 0.000000 0.000000 -0.042634 0.220745 -0.851607
    37 1.099666 0.000000 0.000000 0.008154 0.000000 0.000000
    38 0.806017 -0.359836 -1.318334 0.415058 0.423434 -0.720789
    39 1.789784 0.000000 -0.000001 0.015106 0.038911 0.767156
    40 1.206998 0.000000 0.000000 0.004784 0.022539 0.418309
    41 -0.044717 2.313936 4.661499 -0.038360 -0.148220 0.125383
    42 2.676088 -1.712442 0.000000 1.570797 0.000000 1.570797
    43 2.676088 -1.712443 0.000000 -1.570796 0.000000 -1.570796
  time 27
    0 53.937148 -0.569906 37.187969 1.553749 0.061220 0.480157
    1 3.890452 -0.000004 -0.000003 -2.422359 -0.132311 -1.377537
    2 17.848175 0.000000 0.000000 0.000000 0.000000 1.119007
    3 16.525249 0.000000 0.000000 0.293548 0.314433 -1.000731
    4 6.879453 0.000000 0.000000 -0.007299 -0.002951 -0.584373
    5 -3.890452 0.000004 0.000007 -1.532745 -0.271912 -1.361806
    6 17.848171 0.000000 0.000000 0.000000 0.000000 0.473712
    7 16.525257 0.000000 0.000000 0.154625 0.095443 -1.187388
    8 6.879454 0.000000 0.000000 -0.081333 -0.002951 -0.584373
    9 -0.203126 3.341221 -2.981901 1.385177 0.067031 1.607097
    10 4.018331 0.000000 0.000000 -0.040894 -0.001546 0.062459
    11 3.518561 0.000000 0.000000 -0.244703 0.017833 0.067559
    12 8.942642 0.000000 0.000000 0.044285 0.008389 0.154404
    13 3.307271 0.000000 0.000000 3.141590 0.000000 0.400478
    14 3.593710 -0.000003 0.000000 -0.078283 0.021352 0.441155
    15 2.033346 1.000767 1.937660 1.802265 -1.395246 2.734691
    16 6.028142 0.000002 0.000000 -1.537562 -0.018173 -1.107898
    17 11.692556 0.000000 -0.000001 0.000000 0.000000 -1.442339
    18 11.481671 0.000000 -0.000029 -0.692541 0.377969 -0.177658
    19 3.883691 -0.046771 0.431443 0.096615 -0.011011 -0.677044
    20 1.719575 0.000000 0.000000 0.055915 -0.087978 -1.150781
    21 1.209183 -0.000001 0.000000 0.009316 -0.033629 -0.339470
    22 3.859861 -0.137948 1.332466 0.537936 -0.132422 -0.946691
    23 1.719428 0.000001 0.000000 0.023476 -0.208311 -0.755744
    24 1.099667 0.000000 0.000000 0.026046 -0.124621 -0.538681
    25 0.806048 -0.348922 1.321258 -1.269164 -0.727275 -0.266407
    26 1.789783 0.000001 0.000001 -0.001068 -0.012855 -0.131880
    27 1.207000 0.000000 0.000001 -0.000100 -0.003217 -0.064874
    28 2.033354 1.000771 -1.937610 -2.173110 1.310585 2.445072
    29 6.028142 0.000004 0.000000 0.922978 0.306435 -0.629643
    30 11.692552 0.000000 0.000002 0.000000 0.000000 -1.732711
    31 11.481699 0.000000 0.000004 -1.121512 -0.315967 0.124014
    32 3.883657 -0.050329 -0.431043 0.047704 -0.153454 -0.767482
    33 1.719576 0.000003 0.000000 -0.053884 0.078890 -1.553283
    34 1.209180 -0.000001 0.000000 -0.013612 0.036967 -0.732282
    35 3.859830 -0.148938 -1.331282 -0.332627 0.218364 0.154975
    36 1.719426 0.000000 0.000000 -0.042634 0.220745 -0.851607
    37 1.099666 0.000000 0.000000 0.008154 0.000000 0.000000
    38 0.806017 -0.359836 -1.318334 0.415058 0.423434 -0.720789
    39 1.789784 0.000000 -0.000001 0.015106 0.038911 0.767156
    40 1.206998 0.000000 0.000000 0.004784 0.022539 0.418309
    41 -0.044717 2.313936 4.661499 -0.037132 -0.150419 0.118060
    42 2.676088 -1.712442 0.000000 1.570797 0.000000 1.570797
    43 2.676088 -1.712443 0.000000 -1.570796 0.000000 -1.570796
  time 28
    0 55.510270 -0.643443 37.543449 1.553685 0.048076 0.452280
    1 3.890452 -0.000004 -0.000003 -2.524565 -0.136269 -1.248001
    2 17.848175 0.000000 0.000000 0.000000 0.000000 1.201835
    3 16.525249 0.000000 0.000000 0.453658 0.185404 -1.191979
    4 6.879453 0.000000 0.000000 -0.007299 -0.002951 -0.584373
    5 -3.890452 0.000004 0.000007 -1.579710 -0.209719 -1.394094
    6 17.848171 0.000000 0.000000 0.000000 0.000000 0.380250
    7 16.525257 0.000000 0.000000 0.080619 0.154163 -1.140808
    8 6.879454 0.000000 0.000000 -0.081333 -0.002951 -0.584373
    9 -0.160156 3.345128 -2.981901 1.385562 0.067048 1.599523
    10 4.018331 0.000000 0.000000 -0.025867 -0.005669 0.065770
    11 3.518561 0.000000 0.000000 -0.228131 0.013998 0.070073
    12 8.942642 0.000000 0.000000 0.047986 0.008845 0.151453
    13 3.307271 0.000000 0.000000 3.141590 0.000000 0.400478
    14 3.593710 -0.000003 0.000000 -0.085501 0.019268 0.448734
    15 2.033346 1.000767 1.937660 1.802265 -1.395246 2.734691
    16 6.028142 0.000002 0.000000 -1.512388 -0.079961 -1.111983
    17 11.692556 0.000000 -0.000001 0.000000 0.000000 -1.395819
    18 11.481671 0.000000 -0.000029 -0.697127 0.382535 -0.188488
    19 3.883691 -0.046771 0.431443 0.096615 -0.011011 -0.677044
    20 1.719575 0.000000 0.000000 0.055915 -0.087978 -1.150781
    21 1.209183 -0.000001 0.000000 0.009316 -0.033629 -0.339470
    22 3.859861 -0.137948 1.332466 0.537936 -0.132422 -0.946691
    23 1.719428 0.000001 0.000000 0.023476 -0.208311 -0.755744
    24 1.099667 0.000000 0.000000 0.026046 -0.124621 -0.538681
    25 0.806048 -0.348922 1.321258 -1.269164 -0.727275 -0.266407
    26 1.789783 0.000001 0.000001 -0.001068 -0.012855 -0.131880
    27 1.207000 0.000000 0.000001 -0.000100 -0.003217 -0.064874
    28 2.033354 1.000771 -1.937610 -2.173110 1.310585 2.445072
    29 6.028142 0.000004 0.000000 0.954876 0.286444 -0.622431
    30 11.692552 0.000000 0.000002 0.000000 0.000000 -1.732277
    31 11.481699 0.000000 0.000004 -1.118856 -0.316036 0.120762
    32 3.883657 -0.050329 -0.431043 0.047704 -0.153454 -0.767482
    33 1.719576 0.000003 0.000000 -0.053884 0.078890 -1.553283
    34 1.209180 -0.000001 0.000000 -0.013612 0.036967 -0.732282
    35 3.859830 -0.148938 -1.331282 -0.332627 0.218364 0.154975
    36 1.719426 0.000000 0.000000 -0.042634 0.220745 -0.851607
    37 1.099666 0.000000 0.000000 0.008154 0.000000 0.000000
    38 0.806017 -0.359836 -1.318334 0.415058 0.423434 -0.720789
    39 1.789784 0.000000 -0.000001 0.015106 0.038911 0.767156
    40 1.206998 0.000000 0.000000 0.004784 0.022539 0.418309
    41 -0.044717 2.313936 4.661499 -0.035904 -0.152446 0.103691
    42 2.676088 -1.712442 0.000000 1.570797 0.000000 1.570797
    43 2.676088 -1.712443 0.000000 -1.570796 0.000000 -1.570796
  time 29
    0 57.114644 -0.649572 37.863771 1.554512 0.026289 0.422390
    1 3.890452 -0.000004 -0.000003 -2.545412 -0.157917 -1.174057
    2 17.848175 0.000000 0.000000 0.000000 0.000000 1.175187
    3 16.525249 0.000000 0.000000 0.540590 0.140518 -1.320480
    4 6.879453 0.000000 0.000000 -0.007299 -0.002951 -0.584373
    5 -3.890452 0.000004 0.000007 -1.619294 -0.162817 -1.441582
    6 17.848171 0.000000 0.000000 0.000000 0.000000 0.315995
    7 16.525257 0.000000 0.000000 0.020648 0.197218 -1.110467
    8 6.879454 0.000000 0.000000 -0.081333 -0.002951 -0.584373
    9 -0.085935 3.345128 -2.981901 1.386019 0.067048 1.584411
    10 4.018331 0.000000 0.000000 -0.009911 -0.011194 0.069133
    11 3.518561 0.000000 0.000000 -0.210560 0.008557 0.072618
    12 8.942642 0.000000 0.000000 0.051369 0.008809 0.148265
    13 3.307271 0.000000 0.000000 3.141590 0.000000 0.400478
    14 3.593710 -0.000003 0.000000 -0.091108 0.014169 0.458470
    15 2.033346 1.000767 1.937660 1.802265 -1.395246 2.734691
    16 6.028142 0.000002 0.000000 -1.484480 -0.145351 -1.117181
    17 11.692556 0.000000 -0.000001 0.000000 0.000000 -1.345672
    18 11.481671 0.000000 -0.000029 -0.701713 0.387974 -0.200424
    19 3.883691 -0.046771 0.431443 0.096615 -0.011011 -0.677044
    20 1.719575 0.000000 0.000000 0.055915 -0.087978 -1.150781
    21 1.209183 -0.000001 0.000000 0.009316 -0.033629 -0.339470
    22 3.859861 -0.137948 1.332466 0.537936 -0.132422 -0.946691
    23 1.719428 0.000001 0.000000 0.023476 -0.208311 -0.755744
    24 1.099667 0.000000 0.000000 0.026046 -0.124621 -0.538681
    25 0.806048 -0.348922 1.321258 -1.269164 -0.727275 -0.266407
    26 1.789783 0.000001 0.000001 -0.001068 -0.012855 -0.131880
    27 1.207000 0.000000 0.000001 -0.000100 -0.003217 -0.064874
    28 2.033354 1.000771 -1.937610 -2.173110 1.310585 2.445072
    29 6.028142 0.000004 0.000000 0.989073 0.264748 -0.616168
    30 11.692552 0.000000 0.000002 0.000000 0.000000 -1.731264
    31 11.481699 0.000000 0.000004 -1.114516 -0.316174 0.115284
    32 3.883657 -0.050329 -0.431043 0.047704 -0.153454 -0.767482
    33 1.719576 0.000003 0.000000 -0.053884 0.078890 -1.553283
    34 1.209180 -0.000001 0.000000 -0.013612 0.036967 -0.732282
    35 3.859830 -0.148938 -1.331282 -0.332627 0.218364 0.154975
    36 1.719426 0.000000 0.000000 -0.042634 0.220745 -0.851607
    37 1.099666 0.000000 0.000000 0.008154 0.000000 0.000000
    38 0.806017 -0.359836 -1.318334 0.415058 0.423434 -0.720789
    39 1.789784 0.000000 -0.000001 0.015106 0.038911 0.767156
    40 1.206998 0.000000 0.000000 0.004784 0.022539 0.418309
    41 -0.044717 2.313936 4.661499 -0.034676 -0.154255 0.082011
    42 2.676088 -1.712442 0.000000 1.570797 0.000000 1.570797
    43 2.676088 -1.712443 0.000000 -1.570796 0.000000 -1.570796
  time 30
    0 58.738549 -0.612803 38.066902 1.555148 0.004452 0.392405
    1 3.890452 -0.000004 -0.000003 -2.509901 -0.189912 -1.135849
    2 17.848175 0.000000 0.000000 0.000000 0.000000 1.069128
    3 16.525249 0.000000 0.000000 0.540128 0.182686 -1.359011
    4 6.879453 0.000000 0.000000 -0.007299 -0.002951 -0.584373
    5 -3.890452 0.000004 0.000007 -1.626291 -0.156789 -1.506347
    6 17.848171 0.000000 0.000000 0.000000 0.000000 0.337939
    7 16.525257 0.000000 0.000000 0.043850 0.152484 -1.135092
    8 6.879454 0.000000 0.000000 -0.081333 -0.002951 -0.584373
    9 -0.015620 3.345128 -2.981901 1.386441 0.067048 1.569166
    10 4.018331 0.000000 0.000000 0.005821 -0.016970 0.072288
    11 3.518561 0.000000 0.000000 -0.193293 0.002625 0.074993
    12 8.942642 0.000000 0.000000 0.054171 0.008114 0.145090
    13 3.307271 0.000000 0.000000 3.141590 0.000000 0.400478
    14 3.593710 -0.000003 0.000000 -0.094939 0.006901 0.468576
    15 2.033346 1.000767 1.937660 1.802265 -1.395246 2.734691
    16 6.028142 0.000002 0.000000 -1.456855 -0.208892 -1.123772
    17 11.692556 0.000000 -0.000001 0.000000 0.000000 -1.294815
    18 11.481671 0.000000 -0.000029 -0.707064 0.393911 -0.214890
    19 3.883691 -0.046771 0.431443 0.096615 -0.011011 -0.677044
    20 1.719575 0.000000 0.000000 0.055915 -0.087978 -1.150781
    21 1.209183 -0.000001 0.000000 0.009316 -0.033629 -0.339470
    22 3.859861 -0.137948 1.332466 0.537936 -0.132422 -0.946691
    23 1.719428 0.000001 0.000000 0.023476 -0.208311 -0.755744
    24 1.099667 0.000000 0.000000 0.026046 -0.124621 -0.538681
    25 0.806048 -0.348922 1.321258 -1.269164 -0.727275 -0.266407
    26 1.789783 0.000001 0.000001 -0.001068 -0.012855 -0.131880
    27 1.207000 0.000000 0.000001 -0.000100 -0.003217 -0.064874
    28 2.033354 1.000771 -1.937610 -2.173110 1.310585 2.445072
    29 6.028142 0.000004 0.000000 1.021832 0.243147 -0.612278
    30 11.692552 0.000000 0.000002 0.000000 0.000000 -1.730179
    31 11.481699 0.000000 0.000004 -1.110240 -0.316277 0.109636
    32 3.883657 -0.050329 -0.431043 0.047704 -0.153454 -0.767482
    33 1.719576 0.000003 0.000000 -0.053884 0.078890 -1.553283
    34 1.209180 -0.000001 0.000000 -0.013612 0.036967 -0.732282
    35 3.859830 -0.148938 -1.331282 -0.332627 0.218364 0.154975
    36 1.719426 0.000000 0.000000 -0.042634 0.220745 -0.851607
    37 1.099666 0.000000 0.000000 0.008154 0.000000 0.000000
    38 0.806017 -0.359836 -1.318334 0.415058 0.423434 -0.720789
    39 1.789784 0.000000 -0.000001 0.015106 0.038911 0.767156
    40 1.206998 0.000000 0.000000 0.004784 0.022539 0.418309
    41 -0.044717 2.313936 4.661499 -0.033493 -0.155877 0.060462
    42 2.676088 -1.712442 0.000000 1.570797 0.000000 1.570797
    43 2.676088 -1.712443 0.000000 -1.570796 0.000000 -1.570796
end
