// Created by Crowbar 0.68
version 1
nodes
  0 "ValveBiped.Bip01_Pelvis" -1
  1 "ValveBiped.Bip01_L_Thigh" 0
  2 "ValveBiped.Bip01_L_Calf" 1
  3 "ValveBiped.Bip01_L_Foot" 2
  4 "ValveBiped.Bip01_L_Toe0" 3
  5 "ValveBiped.Bip01_R_Thigh" 0
  6 "ValveBiped.Bip01_R_Calf" 5
  7 "ValveBiped.Bip01_R_Foot" 6
  8 "ValveBiped.Bip01_R_Toe0" 7
  9 "ValveBiped.Bip01_Spine" 0
  10 "ValveBiped.Bip01_Spine1" 9
  11 "ValveBiped.Bip01_Spine2" 10
  12 "ValveBiped.Bip01_Spine4" 11
  13 "ValveBiped.Bip01_Neck1" 12
  14 "ValveBiped.Bip01_Head1" 13
  15 "ValveBiped.Bip01_L_Clavicle" 12
  16 "ValveBiped.Bip01_L_UpperArm" 15
  17 "ValveBiped.Bip01_L_Forearm" 16
  18 "ValveBiped.Bip01_L_Hand" 17
  19 "ValveBiped.Bip01_L_Finger2" 18
  20 "ValveBiped.Bip01_L_Finger21" 19
  21 "ValveBiped.Bip01_L_Finger22" 20
  22 "ValveBiped.Bip01_L_Finger1" 18
  23 "ValveBiped.Bip01_L_Finger11" 22
  24 "ValveBiped.Bip01_L_Finger12" 23
  25 "ValveBiped.Bip01_L_Finger0" 18
  26 "ValveBiped.Bip01_L_Finger01" 25
  27 "ValveBiped.Bip01_L_Finger02" 26
  28 "ValveBiped.Bip01_R_Clavicle" 12
  29 "ValveBiped.Bip01_R_UpperArm" 28
  30 "ValveBiped.Bip01_R_Forearm" 29
  31 "ValveBiped.Bip01_R_Hand" 30
  32 "ValveBiped.Bip01_R_Finger2" 31
  33 "ValveBiped.Bip01_R_Finger21" 32
  34 "ValveBiped.Bip01_R_Finger22" 33
  35 "ValveBiped.Bip01_R_Finger1" 31
  36 "ValveBiped.Bip01_R_Finger11" 35
  37 "ValveBiped.Bip01_R_Finger12" 36
  38 "ValveBiped.Bip01_R_Finger0" 31
  39 "ValveBiped.Bip01_R_Finger01" 38
  40 "ValveBiped.Bip01_R_Finger02" 39
  41 "ValveBiped.Cod" 0
end
skeleton
  time 0
    0 -0.021881 -0.010152 36.312981 1.570796 0.066709 -0.376816
    1 3.890452 -0.000004 -0.000003 -2.224934 -0.369155 -1.240887
    2 17.848177 0.000000 0.000000 0.000000 0.000000 0.664528
    3 15.638507 0.000000 0.000000 0.332957 0.405204 -1.082829
    4 7.109929 0.000000 0.000000 -0.007119 -0.003131 -0.631738
    5 -3.890452 0.000004 0.000007 -1.503580 -0.122329 -1.536195
    6 17.848173 0.000000 0.000000 0.000000 0.000000 0.561647
    7 15.638511 0.000000 0.000000 0.225113 0.246252 -1.336070
    8 7.109930 0.000000 0.000000 -0.081154 -0.003131 -0.631749
    9 0.000005 3.345128 -2.981901 1.570796 -0.018415 1.570796
    10 4.018331 0.000000 0.000000 -0.011799 -0.120110 0.193933
    11 3.518565 0.000000 0.000000 -0.047849 -0.077576 0.445254
    12 8.942642 0.000000 0.000000 -0.076118 0.114357 0.246904
    13 3.307271 0.000000 0.000000 3.141590 0.000000 0.100304
    14 3.593712 -0.000001 0.000000 0.843531 -0.253441 0.085157
    15 2.033346 1.000768 1.101697 2.385451 -1.528127 2.146598
    16 6.809416 0.000001 0.000000 -2.184386 -0.489830 -0.639983
    17 12.391796 0.000000 0.000001 0.000000 0.000000 -1.437924
    18 9.337076 0.000000 -0.000031 -0.335937 0.409092 0.128775
    19 4.454020 -0.070210 0.572073 0.095490 -0.008587 -0.706366
    20 1.426597 -0.000001 0.000000 0.055908 -0.087976 -1.504206
    21 1.322468 -0.000002 0.000000 0.009312 -0.033625 -0.575065
    22 4.477066 -0.028570 1.582474 0.481653 -0.035390 -1.246096
    23 1.344418 0.000000 0.000000 0.023466 -0.208305 -0.755723
    24 1.224671 0.000000 0.000000 0.026043 -0.124620 -0.538676
    25 2.630323 -0.345015 1.907214 -0.354022 -0.915164 -1.788195
    26 1.059292 0.000000 0.000001 -0.001067 -0.012855 0.250988
    27 0.781203 0.000000 0.000000 -0.000096 -0.003210 0.062757
    28 2.033353 1.000771 -1.101647 -3.176988 1.193701 1.415651
    29 6.809417 0.000001 0.000000 0.705772 1.202577 -1.098776
    30 12.391794 0.000000 0.000001 0.000000 0.000000 -1.649833
    31 9.337102 0.000000 0.000003 -0.740417 0.045654 0.714409
    32 4.453986 -0.073766 -0.571672 0.047699 -0.153453 -0.767464
    33 1.426599 0.000002 0.000000 -0.053883 0.078890 -1.553256
    34 1.322465 -0.000001 0.000000 -0.013603 0.036958 -0.732277
    35 4.477036 -0.043465 -1.581290 -0.332631 0.218360 0.154973
    36 1.344414 0.000000 0.000000 -0.042629 0.220735 -0.851579
    37 1.224670 0.000001 0.000000 0.008150 -0.000004 -0.000025
    38 2.630291 -0.359835 -1.904289 0.415078 0.423437 -0.720800
    39 1.059293 0.000000 0.000000 0.015101 0.038905 0.767148
    40 0.781204 0.000000 0.000000 0.004782 0.022537 0.418308
    41 -0.044717 2.528787 4.661499 0.056640 0.024492 0.003727
  time 1
    0 -0.021881 -0.010152 36.312981 1.570796 0.066709 -0.376816
    1 3.890452 -0.000004 -0.000003 -2.224934 -0.369155 -1.240887
    2 17.848177 0.000000 0.000000 0.000000 0.000000 0.664528
    3 15.638507 0.000000 0.000000 0.332957 0.405204 -1.082829
    4 7.109929 0.000000 0.000000 -0.007119 -0.003131 -0.631738
    5 -3.890452 0.000004 0.000007 -1.503580 -0.122329 -1.536195
    6 17.848173 0.000000 0.000000 0.000000 0.000000 0.561647
    7 15.638511 0.000000 0.000000 0.225113 0.246252 -1.336070
    8 7.109930 0.000000 0.000000 -0.081154 -0.003131 -0.631749
    9 0.000005 3.345128 -2.981901 1.430257 -0.078030 1.567013
    10 4.018331 0.000000 0.000000 -0.366922 -0.130896 0.196159
    11 3.518565 0.000000 0.000000 -0.070830 -0.159647 0.457422
    12 8.942642 0.000000 0.000000 -0.076118 0.114357 0.246904
    13 3.307271 0.000000 0.000000 3.141590 0.000000 0.100304
    14 3.593712 -0.000001 0.000000 0.833025 -0.126539 0.005964
    15 2.033346 1.000768 1.101697 2.385451 -1.528127 2.146508
    16 6.809416 0.000001 0.000000 -2.454832 -0.714215 -0.338387
    17 12.391796 0.000000 0.000001 0.000000 0.000000 -1.240410
    18 9.337076 0.000000 -0.000031 -0.300427 0.607002 0.241340
    19 4.454020 -0.070210 0.572073 0.095490 -0.008587 -0.706335
    20 1.426597 -0.000001 0.000000 0.055908 -0.087976 -1.504206
    21 1.322468 -0.000002 0.000000 0.009312 -0.033625 -0.575065
    22 4.477066 -0.028570 1.582474 0.481653 -0.035390 -1.246096
    23 1.344418 0.000000 0.000000 0.023466 -0.208305 -0.755723
    24 1.224671 0.000000 0.000000 0.026043 -0.124620 -0.538676
    25 2.630323 -0.345015 1.907214 -0.354022 -0.915164 -1.788195
    26 1.059292 0.000000 0.000001 -0.001067 -0.012855 0.250988
    27 0.781203 0.000000 0.000000 -0.000096 -0.003210 0.062757
    28 2.033353 1.000771 -1.101647 -3.176988 1.193701 1.415651
    29 6.809417 0.000001 0.000000 1.028240 1.377860 -0.963030
    30 12.391794 0.000000 0.000001 0.000000 0.000000 -1.641071
    31 9.337102 0.000000 0.000003 -0.693693 -0.125017 0.867327
    32 4.453986 -0.073766 -0.571672 0.047699 -0.153453 -0.767464
    33 1.426599 0.000002 0.000000 -0.053883 0.078890 -1.553256
    34 1.322465 -0.000001 0.000000 -0.013603 0.036958 -0.732277
    35 4.477036 -0.043465 -1.581290 -0.332631 0.218360 0.154973
    36 1.344414 0.000000 0.000000 -0.042629 0.220735 -0.851579
    37 1.224670 0.000001 0.000000 0.008150 -0.000004 -0.000025
    38 2.630291 -0.359835 -1.904289 0.415078 0.423437 -0.720800
    39 1.059293 0.000000 0.000000 0.015101 0.038905 0.767148
    40 0.781204 0.000000 0.000000 0.004782 0.022537 0.418308
    41 -0.044717 2.528787 4.661499 0.107068 -0.056990 0.033547
  time 2
    0 -0.021881 -0.010152 36.312981 1.570796 0.066709 -0.376816
    1 3.890452 -0.000004 -0.000003 -2.224934 -0.369155 -1.240887
    2 17.848177 0.000000 0.000000 0.000000 0.000000 0.664528
    3 15.638507 0.000000 0.000000 0.332957 0.405204 -1.082829
    4 7.109929 0.000000 0.000000 -0.007119 -0.003131 -0.631738
    5 -3.890452 0.000004 0.000007 -1.503580 -0.122329 -1.536195
    6 17.848173 0.000000 0.000000 0.000000 0.000000 0.561647
    7 15.638511 0.000000 0.000000 0.225113 0.246252 -1.336070
    8 7.109930 0.000000 0.000000 -0.081154 -0.003131 -0.631749
    9 0.000005 3.345128 -2.981901 1.430688 -0.019266 1.558797
    10 4.018331 0.000000 0.000000 -0.740647 -0.141107 0.202525
    11 3.518565 0.000000 0.000000 0.040259 -0.158832 0.445680
    12 8.942642 0.000000 0.000000 -0.088414 0.069738 0.288226
    13 3.307271 0.000000 0.000000 3.141590 0.000000 0.100304
    14 3.593712 -0.000001 0.000000 0.673213 0.032699 -0.023582
    15 2.033346 1.000768 1.101697 2.385451 -1.528127 2.146508
    16 6.809416 0.000001 0.000000 -2.425186 -0.995064 -0.251582
    17 12.391796 0.000000 0.000001 0.000000 0.000000 -0.892375
    18 9.337076 0.000000 -0.000031 -0.073631 0.609994 0.175740
    19 4.454020 -0.070210 0.572073 0.095490 -0.008587 -0.706335
    20 1.426597 -0.000001 0.000000 0.055908 -0.087976 -1.504206
    21 1.322468 -0.000002 0.000000 0.009312 -0.033625 -0.575065
    22 4.477066 -0.028570 1.582474 0.481653 -0.035390 -1.246096
    23 1.344418 0.000000 0.000000 0.023466 -0.208305 -0.755723
    24 1.224671 0.000000 0.000000 0.026043 -0.124620 -0.538676
    25 2.630323 -0.345015 1.907214 -0.354022 -0.915164 -1.788195
    26 1.059292 0.000000 0.000001 -0.001067 -0.012855 0.250988
    27 0.781203 0.000000 0.000000 -0.000096 -0.003210 0.062757
    28 2.033353 1.000771 -1.101647 -3.176988 1.193701 1.415651
    29 6.809417 0.000001 0.000000 1.174187 1.159655 -0.829348
    30 12.391794 0.000000 0.000001 0.000000 0.000000 -1.643441
    31 9.337102 0.000000 0.000003 -0.585203 0.053421 0.718381
    32 4.453986 -0.073766 -0.571672 0.047699 -0.153453 -0.767464
    33 1.426599 0.000002 0.000000 -0.053883 0.078890 -1.553256
    34 1.322465 -0.000001 0.000000 -0.013603 0.036958 -0.732277
    35 4.477036 -0.043465 -1.581290 -0.332631 0.218360 0.154973
    36 1.344414 0.000000 0.000000 -0.042629 0.220735 -0.851579
    37 1.224670 0.000001 0.000000 0.008150 -0.000004 -0.000025
    38 2.630291 -0.359835 -1.904289 0.415078 0.423437 -0.720800
    39 1.059293 0.000000 0.000000 0.015101 0.038905 0.767148
    40 0.781204 0.000000 0.000000 0.004782 0.022537 0.418308
    41 -0.044717 2.528787 4.661499 0.051175 -0.062962 0.019038
  time 3
    0 -0.021881 -0.010152 36.312981 1.570796 0.066709 -0.376816
    1 3.890452 -0.000004 -0.000003 -2.224934 -0.369155 -1.240887
    2 17.848177 0.000000 0.000000 0.000000 0.000000 0.664528
    3 15.638507 0.000000 0.000000 0.332957 0.405204 -1.082829
    4 7.109929 0.000000 0.000000 -0.007119 -0.003131 -0.631738
    5 -3.890452 0.000004 0.000007 -1.503580 -0.122329 -1.536195
    6 17.848173 0.000000 0.000000 0.000000 0.000000 0.561647
    7 15.638511 0.000000 0.000000 0.225113 0.246252 -1.336070
    8 7.109930 0.000000 0.000000 -0.081154 -0.003131 -0.631749
    9 0.000005 3.345128 -2.981901 1.723460 0.093837 1.528948
    10 4.018331 0.000000 0.000000 -0.011799 -0.120110 0.193933
    11 3.518565 0.000000 0.000000 0.215217 -0.108904 0.331629
    12 8.942642 0.000000 0.000000 -0.078838 0.112907 0.222365
    13 3.307271 0.000000 0.000000 3.141590 0.000000 0.400478
    14 3.593712 -0.000001 0.000000 0.927403 -0.303165 0.428956
    15 2.033346 1.000768 1.101697 2.385451 -1.528127 2.146508
    16 6.809416 0.000001 0.000000 -3.007773 -0.962960 0.600572
    17 12.391796 0.000000 0.000001 0.000000 0.000000 -0.720171
    18 9.337076 0.000000 -0.000031 -0.262152 0.557352 -0.056429
    19 4.454020 -0.070210 0.572073 0.095490 -0.008587 -0.706335
    20 1.426597 -0.000001 0.000000 0.055908 -0.087976 -1.504206
    21 1.322468 -0.000002 0.000000 0.009312 -0.033625 -0.575065
    22 4.477066 -0.028570 1.582474 0.481653 -0.035390 -1.246096
    23 1.344418 0.000000 0.000000 0.023466 -0.208305 -0.755723
    24 1.224671 0.000000 0.000000 0.026043 -0.124620 -0.538676
    25 2.630323 -0.345015 1.907214 -0.354022 -0.915164 -1.788195
    26 1.059292 0.000000 0.000001 -0.001067 -0.012855 0.250988
    27 0.781203 0.000000 0.000000 -0.000096 -0.003210 0.062757
    28 2.033353 1.000771 -1.101647 -3.176988 1.193701 1.415651
    29 6.809417 0.000001 0.000000 1.794040 1.427090 -0.449810
    30 12.391794 0.000000 0.000001 0.000000 0.000000 -1.432925
    31 9.337102 0.000000 0.000003 -0.822344 0.097774 0.580746
    32 4.453986 -0.073766 -0.571672 0.047699 -0.153453 -0.767464
    33 1.426599 0.000002 0.000000 -0.053883 0.078890 -1.553256
    34 1.322465 -0.000001 0.000000 -0.013603 0.036958 -0.732277
    35 4.477036 -0.043465 -1.581290 -0.332631 0.218360 0.154973
    36 1.344414 0.000000 0.000000 -0.042629 0.220735 -0.851579
    37 1.224670 0.000001 0.000000 0.008150 -0.000004 -0.000025
    38 2.630291 -0.359835 -1.904289 0.415078 0.423437 -0.720800
    39 1.059293 0.000000 0.000000 0.015101 0.038905 0.767148
    40 0.781204 0.000000 0.000000 0.004782 0.022537 0.418308
    41 -0.044717 2.528787 4.661499 -0.055212 0.211535 -0.044569
  time 4
    0 -0.021881 -0.010152 36.312981 1.570796 0.066709 -0.376816
    1 3.890452 -0.000004 -0.000003 -2.224934 -0.369155 -1.240887
    2 17.848177 0.000000 0.000000 0.000000 0.000000 0.664528
    3 15.638507 0.000000 0.000000 0.332957 0.405204 -1.082829
    4 7.109929 0.000000 0.000000 -0.007119 -0.003131 -0.631738
    5 -3.890452 0.000004 0.000007 -1.503580 -0.122329 -1.536195
    6 17.848173 0.000000 0.000000 0.000000 0.000000 0.561647
    7 15.638511 0.000000 0.000000 0.225113 0.246252 -1.336070
    8 7.109930 0.000000 0.000000 -0.081154 -0.003131 -0.631749
    9 0.000005 3.345128 -2.981901 1.570796 0.086293 1.570796
    10 4.018331 0.000000 0.000000 -0.011799 -0.120110 0.193933
    11 3.518565 0.000000 0.000000 -0.039210 -0.083509 0.333403
    12 8.942642 0.000000 0.000000 -0.078838 0.112907 0.222365
    13 3.307271 0.000000 0.000000 3.141590 0.000000 0.400478
    14 3.593712 -0.000001 0.000000 0.443830 -0.456856 0.638584
    15 2.033346 1.000768 1.101697 3.050225 -1.224280 1.477139
    16 6.809416 0.000001 0.000000 -2.819953 -1.052705 0.490006
    17 12.391796 0.000000 0.000001 0.000000 0.000000 -0.798546
    18 9.337076 0.000000 -0.000031 -0.096204 0.569156 0.186760
    19 4.454020 -0.070210 0.572073 0.095490 -0.008587 -0.706335
    20 1.426597 -0.000001 0.000000 0.055908 -0.087976 -1.504206
    21 1.322468 -0.000002 0.000000 0.009312 -0.033625 -0.575065
    22 4.477066 -0.028570 1.582474 0.481653 -0.035390 -1.246096
    23 1.344418 0.000000 0.000000 0.023466 -0.208305 -0.755723
    24 1.224671 0.000000 0.000000 0.026043 -0.124620 -0.538676
    25 2.630323 -0.345015 1.907214 -0.354022 -0.915164 -1.788195
    26 1.059292 0.000000 0.000001 -0.001067 -0.012855 0.250988
    27 0.781203 0.000000 0.000000 -0.000096 -0.003210 0.062757
    28 2.033353 1.000771 -1.101647 -3.176988 1.193701 1.415651
    29 6.809417 0.000001 0.000000 1.802748 0.952311 -0.645428
    30 12.391794 0.000000 0.000001 0.000000 0.000000 -1.834708
    31 9.337102 0.000000 0.000003 -0.790533 0.086238 0.716395
    32 4.453986 -0.073766 -0.571672 0.047699 -0.153453 -0.767464
    33 1.426599 0.000002 0.000000 -0.053883 0.078890 -1.553256
    34 1.322465 -0.000001 0.000000 -0.013603 0.036958 -0.732277
    35 4.477036 -0.043465 -1.581290 -0.332631 0.218360 0.154973
    36 1.344414 0.000000 0.000000 -0.042629 0.220735 -0.851579
    37 1.224670 0.000001 0.000000 0.008150 -0.000004 -0.000025
    38 2.630291 -0.359835 -1.904289 0.415078 0.423437 -0.720800
    39 1.059293 0.000000 0.000000 0.015101 0.038905 0.767148
    40 0.781204 0.000000 0.000000 0.004782 0.022537 0.418308
    41 -0.044717 2.528787 4.661499 -0.046362 0.038851 -0.000762
  time 5
    0 -0.021881 -0.010152 36.312981 1.570796 0.066709 -0.376816
    1 3.890452 -0.000004 -0.000003 -2.224934 -0.369155 -1.240887
    2 17.848177 0.000000 0.000000 0.000000 0.000000 0.664528
    3 15.638507 0.000000 0.000000 0.332957 0.405204 -1.082829
    4 7.109929 0.000000 0.000000 -0.007119 -0.003131 -0.631738
    5 -3.890452 0.000004 0.000007 -1.503580 -0.122329 -1.536195
    6 17.848173 0.000000 0.000000 0.000000 0.000000 0.561647
    7 15.638511 0.000000 0.000000 0.225113 0.246252 -1.336070
    8 7.109930 0.000000 0.000000 -0.081154 -0.003131 -0.631749
    9 0.000005 3.345128 -2.981901 1.546277 0.086293 1.568727
    10 4.018331 0.000000 0.000000 -0.011799 -0.120110 0.193933
    11 3.518565 0.000000 0.000000 -0.489605 -0.048633 0.324144
    12 8.942642 0.000000 0.000000 -0.078838 0.112907 0.222365
    13 3.307271 0.000000 0.000000 3.141590 0.000000 0.400478
    14 3.593712 -0.000001 0.000000 0.472434 -0.559860 0.376916
    15 2.033346 1.000768 1.101697 3.007694 -1.341422 1.521416
    16 6.809416 0.000001 0.000000 -2.661491 -1.146860 0.402253
    17 12.391796 0.000000 0.000001 0.000000 0.000000 -0.616959
    18 9.337076 0.000000 -0.000031 -0.108694 0.646755 0.037616
    19 4.454020 -0.070210 0.572073 0.095490 -0.008587 -0.706335
    20 1.426597 -0.000001 0.000000 0.055908 -0.087976 -1.504206
    21 1.322468 -0.000002 0.000000 0.009312 -0.033625 -0.575065
    22 4.477066 -0.028570 1.582474 0.481653 -0.035390 -1.246096
    23 1.344418 0.000000 0.000000 0.023466 -0.208305 -0.755723
    24 1.224671 0.000000 0.000000 0.026043 -0.124620 -0.538676
    25 2.630323 -0.345015 1.907214 -0.354022 -0.915164 -1.788195
    26 1.059292 0.000000 0.000001 -0.001067 -0.012855 0.250988
    27 0.781203 0.000000 0.000000 -0.000096 -0.003210 0.062757
    28 2.033353 1.000771 -1.101647 -3.176988 1.193701 1.415651
    29 6.809417 0.000001 0.000000 1.406833 0.969217 -0.994342
    30 12.391794 0.000000 0.000001 0.000000 0.000000 -1.697237
    31 9.337102 0.000000 0.000003 -0.717887 0.243966 0.656989
    32 4.453986 -0.073766 -0.571672 0.047699 -0.153453 -0.767464
    33 1.426599 0.000002 0.000000 -0.053883 0.078890 -1.553256
    34 1.322465 -0.000001 0.000000 -0.013603 0.036958 -0.732277
    35 4.477036 -0.043465 -1.581290 -0.332631 0.218360 0.154973
    36 1.344414 0.000000 0.000000 -0.042629 0.220735 -0.851579
    37 1.224670 0.000001 0.000000 0.008150 -0.000004 -0.000025
    38 2.630291 -0.359835 -1.904289 0.415078 0.423437 -0.720800
    39 1.059293 0.000000 0.000000 0.015101 0.038905 0.767148
    40 0.781204 0.000000 0.000000 0.004782 0.022537 0.418308
    41 -0.044717 2.528787 4.661499 -0.044280 0.002383 -0.008297
  time 6
    0 -0.021881 -0.010152 36.312981 1.570796 0.066709 -0.376816
    1 3.890452 -0.000004 -0.000003 -2.224934 -0.369155 -1.240887
    2 17.848177 0.000000 0.000000 0.000000 0.000000 0.664528
    3 15.638507 0.000000 0.000000 0.332957 0.405204 -1.082829
    4 7.109929 0.000000 0.000000 -0.007119 -0.003131 -0.631738
    5 -3.890452 0.000004 0.000007 -1.503580 -0.122329 -1.536195
    6 17.848173 0.000000 0.000000 0.000000 0.000000 0.561647
    7 15.638511 0.000000 0.000000 0.225113 0.246252 -1.336070
    8 7.109930 0.000000 0.000000 -0.081154 -0.003131 -0.631749
    9 0.000005 3.345128 -2.981901 1.686385 0.085726 1.580726
    10 4.018331 0.000000 0.000000 -0.011799 -0.120110 0.193933
    11 3.518565 0.000000 0.000000 0.333204 -0.057394 0.146346
    12 8.942642 0.000000 0.000000 -0.078838 0.112907 0.222365
    13 3.307271 0.000000 0.000000 3.141686 0.216418 0.400478
    14 3.593712 -0.000001 0.000000 0.656464 -0.476237 0.533581
    15 2.033346 1.000768 1.101697 2.385451 -1.528127 2.146508
    16 6.809416 0.000001 0.000000 -3.648599 -1.017611 1.221653
    17 12.391796 0.000000 0.000001 0.000000 0.000000 -0.781278
    18 9.337076 0.000000 -0.000031 -0.015638 0.511647 0.152719
    19 4.454020 -0.070210 0.572073 0.095490 -0.008587 -0.706335
    20 1.426597 -0.000001 0.000000 0.055908 -0.087976 -1.504206
    21 1.322468 -0.000002 0.000000 0.009312 -0.033625 -0.575065
    22 4.477066 -0.028570 1.582474 0.481653 -0.035390 -1.246096
    23 1.344418 0.000000 0.000000 0.023466 -0.208305 -0.755723
    24 1.224671 0.000000 0.000000 0.026043 -0.124620 -0.538676
    25 2.630323 -0.345015 1.907214 -0.354022 -0.915164 -1.788195
    26 1.059292 0.000000 0.000001 -0.001067 -0.012855 0.250988
    27 0.781203 0.000000 0.000000 -0.000096 -0.003210 0.062757
    28 2.033353 1.000771 -1.101647 -3.176988 1.193701 1.415651
    29 6.809417 0.000001 0.000000 2.293121 1.127024 -0.051346
    30 12.391794 0.000000 0.000001 0.000000 0.000000 -1.837509
    31 9.337102 0.000000 0.000003 -0.818120 0.134360 0.684188
    32 4.453986 -0.073766 -0.571672 0.047699 -0.153453 -0.767464
    33 1.426599 0.000002 0.000000 -0.053883 0.078890 -1.553256
    34 1.322465 -0.000001 0.000000 -0.013603 0.036958 -0.732277
    35 4.477036 -0.043465 -1.581290 -0.332631 0.218360 0.154973
    36 1.344414 0.000000 0.000000 -0.042629 0.220735 -0.851579
    37 1.224670 0.000001 0.000000 0.008150 -0.000004 -0.000025
    38 2.630291 -0.359835 -1.904289 0.415078 0.423437 -0.720800
    39 1.059293 0.000000 0.000000 0.015101 0.038905 0.767148
    40 0.781204 0.000000 0.000000 0.004782 0.022537 0.418308
    41 -0.044717 2.528787 4.661499 -0.043499 0.141966 -0.006653
  time 7
    0 -0.021881 -0.010152 36.312981 1.570796 0.066709 -0.376816
    1 3.890452 -0.000004 -0.000003 -2.224934 -0.369155 -1.240887
    2 17.848177 0.000000 0.000000 0.000000 0.000000 0.664528
    3 15.638507 0.000000 0.000000 0.332957 0.405204 -1.082829
    4 7.109929 0.000000 0.000000 -0.007119 -0.003131 -0.631738
    5 -3.890452 0.000004 0.000007 -1.503580 -0.122329 -1.536195
    6 17.848173 0.000000 0.000000 0.000000 0.000000 0.561647
    7 15.638511 0.000000 0.000000 0.225113 0.246252 -1.336070
    8 7.109930 0.000000 0.000000 -0.081154 -0.003131 -0.631749
    9 0.000005 3.345128 -2.981901 1.590465 0.116724 1.669564
    10 4.018331 0.000000 0.000000 -0.064307 -0.076833 0.106044
    11 3.518565 0.000000 0.000000 -0.249311 0.017749 0.111475
    12 8.942642 0.000000 0.000000 -0.078838 0.112907 0.222365
    13 3.307271 0.000000 0.000000 3.141590 0.000000 0.358598
    14 3.593712 -0.000001 0.000000 0.761726 -0.197892 0.102070
    15 2.033346 1.000768 1.101697 2.385451 -1.528127 2.146508
    16 6.809416 0.000001 0.000000 -3.559470 -1.221949 0.787152
    17 12.391796 0.000000 0.000001 0.000000 0.000000 -0.720723
    18 9.337076 0.000000 -0.000031 0.412972 0.644355 0.334173
    19 4.454020 -0.070210 0.572073 0.095490 -0.008587 -0.706335
    20 1.426597 -0.000001 0.000000 0.055908 -0.087976 -1.504206
    21 1.322468 -0.000002 0.000000 0.009312 -0.033625 -0.575065
    22 4.477066 -0.028570 1.582474 0.481653 -0.035390 -1.246096
    23 1.344418 0.000000 0.000000 0.023466 -0.208305 -0.755723
    24 1.224671 0.000000 0.000000 0.026043 -0.124620 -0.538676
    25 2.630323 -0.345015 1.907214 -0.354022 -0.915164 -1.788195
    26 1.059292 0.000000 0.000001 -0.001067 -0.012855 0.250988
    27 0.781203 0.000000 0.000000 -0.000096 -0.003210 0.062757
    28 2.033353 1.000771 -1.101647 -3.176988 1.193701 1.415651
    29 6.809417 0.000001 0.000000 1.486811 1.231266 -0.907200
    30 12.391794 0.000000 0.000001 0.000000 0.000000 -1.568098
    31 9.337102 0.000000 0.000003 -0.898127 0.149931 0.493450
    32 4.453986 -0.073766 -0.571672 0.047699 -0.153453 -0.767464
    33 1.426599 0.000002 0.000000 -0.053883 0.078890 -1.553256
    34 1.322465 -0.000001 0.000000 -0.013603 0.036958 -0.732277
    35 4.477036 -0.043465 -1.581290 -0.332631 0.218360 0.154973
    36 1.344414 0.000000 0.000000 -0.042629 0.220735 -0.851579
    37 1.224670 0.000001 0.000000 0.008150 -0.000004 -0.000025
    38 2.630291 -0.359835 -1.904289 0.415078 0.423437 -0.720800
    39 1.059293 0.000000 0.000000 0.015101 0.038905 0.767148
    40 0.781204 0.000000 0.000000 0.004782 0.022537 0.418308
    41 -0.044717 2.528787 4.661499 -0.071284 0.052129 0.096834
  time 8
    0 -0.021881 -0.010152 36.312981 1.570796 0.066709 -0.376816
    1 3.890452 -0.000004 -0.000003 -2.224934 -0.369155 -1.240887
    2 17.848177 0.000000 0.000000 0.000000 0.000000 0.664528
    3 15.638507 0.000000 0.000000 0.332957 0.405204 -1.082829
    4 7.109929 0.000000 0.000000 -0.007119 -0.003131 -0.631738
    5 -3.890452 0.000004 0.000007 -1.503580 -0.122329 -1.536195
    6 17.848173 0.000000 0.000000 0.000000 0.000000 0.561647
    7 15.638511 0.000000 0.000000 0.225113 0.246252 -1.336070
    8 7.109930 0.000000 0.000000 -0.081154 -0.003131 -0.631749
    9 0.000005 3.345128 -2.981901 1.494329 0.196446 1.672637
    10 4.018331 0.000000 0.000000 -0.103501 0.054398 0.130081
    11 3.518565 0.000000 0.000000 -0.262814 0.037895 0.125168
    12 8.942642 0.000000 0.000000 -0.154984 0.133113 0.219972
    13 3.307271 0.000000 0.000000 3.141686 0.226892 0.400478
    14 3.593712 -0.000001 0.000000 0.681102 0.009336 0.249292
    15 2.033346 1.000768 1.101697 2.981768 -1.380307 1.547911
    16 6.809416 0.000001 0.000000 -3.327947 -1.297087 0.345740
    17 12.391796 0.000000 0.000001 0.000000 0.000000 -0.932114
    18 9.337076 0.000000 -0.000031 0.465433 0.701897 0.435198
    19 4.454020 -0.070210 0.572073 0.095490 -0.008587 -0.706335
    20 1.426597 -0.000001 0.000000 0.055908 -0.087976 -1.504206
    21 1.322468 -0.000002 0.000000 0.009312 -0.033625 -0.575065
    22 4.477066 -0.028570 1.582474 0.481653 -0.035390 -1.246096
    23 1.344418 0.000000 0.000000 0.023466 -0.208305 -0.755723
    24 1.224671 0.000000 0.000000 0.026043 -0.124620 -0.538676
    25 2.630323 -0.345015 1.907214 -0.354022 -0.915164 -1.788195
    26 1.059292 0.000000 0.000001 -0.001067 -0.012855 0.250988
    27 0.781203 0.000000 0.000000 -0.000096 -0.003210 0.062757
    28 2.033353 1.000771 -1.101647 -3.176988 1.193701 1.415651
    29 6.809417 0.000001 0.000000 1.689832 1.098205 -0.612739
    30 12.391794 0.000000 0.000001 0.000000 0.000000 -1.829033
    31 9.337102 0.000000 0.000003 -0.927441 0.204258 0.820787
    32 4.453986 -0.073766 -0.571672 0.047699 -0.153453 -0.767464
    33 1.426599 0.000002 0.000000 -0.053883 0.078890 -1.553256
    34 1.322465 -0.000001 0.000000 -0.013603 0.036958 -0.732277
    35 4.477036 -0.043465 -1.581290 -0.332631 0.218360 0.154973
    36 1.344414 0.000000 0.000000 -0.042629 0.220735 -0.851579
    37 1.224670 0.000001 0.000000 0.008150 -0.000004 -0.000025
    38 2.630291 -0.359835 -1.904289 0.415078 0.423437 -0.720800
    39 1.059293 0.000000 0.000000 0.015101 0.038905 0.767148
    40 0.781204 0.000000 0.000000 0.004782 0.022537 0.418308
    41 -0.044717 2.528787 4.661499 -0.150081 -0.036913 0.122486
end
