// Created by Crowbar 0.68
version 1
nodes
  0 "ValveBiped.Bip01_Pelvis" -1
  1 "ValveBiped.Bip01_L_Thigh" 0
  2 "ValveBiped.Bip01_L_Calf" 1
  3 "ValveBiped.Bip01_L_Foot" 2
  4 "ValveBiped.Bip01_L_Toe0" 3
  5 "ValveBiped.Bip01_R_Thigh" 0
  6 "ValveBiped.Bip01_R_Calf" 5
  7 "ValveBiped.Bip01_R_Foot" 6
  8 "ValveBiped.Bip01_R_Toe0" 7
  9 "ValveBiped.Bip01_Spine" 0
  10 "ValveBiped.Bip01_Spine1" 9
  11 "ValveBiped.Bip01_Spine2" 10
  12 "ValveBiped.Bip01_Spine4" 11
  13 "ValveBiped.Bip01_Neck1" 12
  14 "ValveBiped.Bip01_Head1" 13
  15 "ValveBiped.Bip01_L_Clavicle" 12
  16 "ValveBiped.Bip01_L_UpperArm" 15
  17 "ValveBiped.Bip01_L_Forearm" 16
  18 "ValveBiped.Bip01_L_Hand" 17
  19 "ValveBiped.Bip01_L_Finger2" 18
  20 "ValveBiped.Bip01_L_Finger21" 19
  21 "ValveBiped.Bip01_L_Finger22" 20
  22 "ValveBiped.Bip01_L_Finger1" 18
  23 "ValveBiped.Bip01_L_Finger11" 22
  24 "ValveBiped.Bip01_L_Finger12" 23
  25 "ValveBiped.Bip01_L_Finger0" 18
  26 "ValveBiped.Bip01_L_Finger01" 25
  27 "ValveBiped.Bip01_L_Finger02" 26
  28 "ValveBiped.Bip01_R_Clavicle" 12
  29 "ValveBiped.Bip01_R_UpperArm" 28
  30 "ValveBiped.Bip01_R_Forearm" 29
  31 "ValveBiped.Bip01_R_Hand" 30
  32 "ValveBiped.Bip01_R_Finger2" 31
  33 "ValveBiped.Bip01_R_Finger21" 32
  34 "ValveBiped.Bip01_R_Finger22" 33
  35 "ValveBiped.Bip01_R_Finger1" 31
  36 "ValveBiped.Bip01_R_Finger11" 35
  37 "ValveBiped.Bip01_R_Finger12" 36
  38 "ValveBiped.Bip01_R_Finger0" 31
  39 "ValveBiped.Bip01_R_Finger01" 38
  40 "ValveBiped.Bip01_R_Finger02" 39
  41 "ValveBiped.Cod" 0
  42 "ValveBiped.Anim_Attachment_LH" 18
  43 "ValveBiped.Anim_Attachment_RH" 31
end
skeleton
  time 0
    0 1.610982 -0.330911 38.195812 1.511893 -0.019586 0.001068
    1 3.890452 -0.000004 -0.000003 -1.632543 0.207332 -1.564074
    2 17.848175 0.000000 0.000000 0.000000 0.000000 0.000036
    3 16.525249 0.000000 0.000000 -0.219442 -0.263755 -1.095586
    4 6.879453 0.000000 0.000000 -0.007455 -0.002939 -0.584937
    5 -3.890452 0.000004 0.000007 -1.402202 0.214851 -1.679682
    6 17.848171 0.000000 0.000000 0.000000 0.000000 0.000007
    7 16.525257 0.000000 0.000000 0.218806 0.112716 -1.098394
    8 6.879454 0.000000 0.000000 -0.080207 -0.002975 -0.585398
    9 0.065674 3.343750 -2.980469 1.570793 0.066661 1.551157
    10 4.018331 0.000000 0.000000 0.000112 0.000000 -0.127408
    11 3.518561 0.000000 0.000000 0.044443 -0.003020 0.218066
    12 8.942642 0.000000 0.000000 0.000000 0.000000 0.292270
    13 3.307271 0.000000 0.000000 3.064068 0.060333 0.182153
    14 3.593710 -0.000003 0.000000 0.000000 -0.000001 0.229926
    15 2.033346 1.000767 1.937660 1.596637 -1.286515 2.942961
    16 6.028142 0.000002 0.000000 -0.927545 0.002082 -1.034841
    17 11.692556 0.000000 -0.000001 0.000000 0.000000 -0.334447
    18 11.481671 0.000000 -0.000029 1.848057 0.030831 0.044524
    19 3.883691 -0.046771 0.431443 0.085902 0.021830 -0.587867
    20 1.719575 0.000000 0.000000 0.000000 0.005516 -0.366478
    21 1.209183 -0.000001 0.000000 0.000000 0.003084 -0.216400
    22 3.859861 -0.137948 1.332466 0.354449 -0.042750 -0.531718
    23 1.719428 0.000001 0.000000 0.000000 0.004074 -0.363009
    24 1.099667 0.000000 0.000000 0.000000 0.002596 -0.244331
    25 0.806048 -0.348922 1.321258 -1.296888 -0.306559 -0.650551
    26 1.789783 0.000001 0.000001 -0.000001 -0.287136 0.051807
    27 1.207000 0.000000 0.000001 0.000000 0.011267 0.362860
    28 2.033354 1.000771 -1.937610 -1.668474 1.286518 2.942953
    29 6.028142 0.000004 0.000000 1.316958 -0.009202 -1.009029
    30 11.692552 0.000000 0.000002 0.000000 0.000000 -0.612177
    31 11.481699 0.000000 0.000004 -1.767053 0.057956 0.632151
    32 3.883657 -0.050329 -0.431043 -0.402871 0.046270 -0.600258
    33 1.719576 0.000003 0.000000 -0.133822 -0.007106 -0.484256
    34 1.209180 -0.000001 0.000000 -0.232654 0.350095 -0.393094
    35 3.859830 -0.148938 -1.331282 -0.406968 0.238495 -0.306073
    36 1.719426 0.000000 0.000000 0.003474 -0.005625 -0.621715
    37 1.099666 0.000000 0.000000 0.000167 -0.004206 -0.460295
    38 0.806017 -0.359836 -1.318334 0.726502 0.283516 -1.066701
    39 1.789784 0.000000 -0.000001 0.470744 -0.006283 0.346364
    40 1.206998 0.000000 0.000000 -0.006932 -0.006665 0.421832
    41 -0.044717 2.313936 4.661499 -0.039270 0.000000 0.000000
    42 2.676088 -1.712442 0.000000 1.570797 0.000000 1.570797
    43 2.676088 -1.712443 0.000000 -1.570796 0.000000 -1.570796
  time 1
    0 1.810207 -0.392192 36.633265 1.512148 0.176747 0.001164
    1 3.890452 -0.000004 -0.000003 -1.620264 -0.132693 -1.350535
    2 17.848175 0.000000 0.000000 0.000000 0.000000 0.732959
    3 16.525249 0.000000 0.000000 -0.217843 -0.264881 -1.491258
    4 6.879453 0.000000 0.000000 -0.007299 -0.002951 -0.584373
    5 -3.890452 0.000004 0.000007 -1.395397 0.023812 -1.526645
    6 17.848171 0.000000 0.000000 0.000000 0.000000 0.415298
    7 16.525257 0.000000 0.000000 0.227881 0.106749 -1.319170
    8 6.879454 0.000000 0.000000 -0.081333 -0.002951 -0.584373
    9 0.065674 3.343750 -2.980469 1.570793 0.066661 1.551157
    10 4.018331 0.000000 0.000000 0.002662 -0.078487 -0.127513
    11 3.518561 0.000000 0.000000 0.035052 -0.140148 0.218749
    12 8.942642 0.000000 0.000000 0.000000 0.000000 0.292270
    13 3.307271 0.000000 0.000000 3.064068 0.060333 0.182153
    14 3.593710 -0.000003 0.000000 -0.010049 0.923042 0.075386
    15 2.033346 1.000767 1.937660 1.596637 -1.286515 2.942961
    16 6.028142 0.000002 0.000000 -1.372471 0.162905 -0.704738
    17 11.692556 0.000000 -0.000001 0.000000 0.000000 -1.445966
    18 11.481671 0.000000 -0.000029 1.848057 0.030831 0.044524
    19 3.883691 -0.046771 0.431443 0.085902 0.021830 -0.587867
    20 1.719575 0.000000 0.000000 0.000000 0.005516 -0.366478
    21 1.209183 -0.000001 0.000000 0.000000 0.003084 -0.216400
    22 3.859861 -0.137948 1.332466 0.354449 -0.042750 -0.531718
    23 1.719428 0.000001 0.000000 0.000000 0.004074 -0.363009
    24 1.099667 0.000000 0.000000 0.000000 0.002596 -0.244331
    25 0.806048 -0.348922 1.321258 -1.296888 -0.306559 -0.650551
    26 1.789783 0.000001 0.000001 -0.000001 -0.287136 0.051807
    27 1.207000 0.000000 0.000001 0.000000 0.011267 0.362860
    28 2.033354 1.000771 -1.937610 -1.668474 1.286518 2.942953
    29 6.028142 0.000004 0.000000 1.560453 -0.009818 -1.025636
    30 11.692552 0.000000 0.000002 0.000000 0.000000 -1.165356
    31 11.481699 0.000000 0.000004 -1.811623 0.015685 -0.272466
    32 3.883657 -0.050329 -0.431043 -0.402871 0.046270 -0.600258
    33 1.719576 0.000003 0.000000 -0.133822 -0.007106 -0.484256
    34 1.209180 -0.000001 0.000000 -0.232654 0.350095 -0.393094
    35 3.859830 -0.148938 -1.331282 -0.406968 0.238495 -0.306073
    36 1.719426 0.000000 0.000000 0.003474 -0.005625 -0.621715
    37 1.099666 0.000000 0.000000 0.000167 -0.004206 -0.460295
    38 0.806017 -0.359836 -1.318334 0.726502 0.283516 -1.066701
    39 1.789784 0.000000 -0.000001 0.470744 -0.006283 0.346364
    40 1.206998 0.000000 0.000000 -0.006932 -0.006665 0.421832
    41 -0.044717 2.313936 4.661499 -0.039270 0.000000 0.000000
    42 2.676088 -1.712442 0.000000 1.570797 0.000000 1.570797
    43 2.676088 -1.712443 0.000000 -1.570796 0.000000 -1.570796
  time 2
    0 3.724327 -0.330911 37.234846 1.511703 -0.176665 0.001164
    1 3.890452 -0.000004 -0.000003 -1.644204 0.074202 -1.774172
    2 17.848175 0.000000 0.000000 0.000000 0.000000 0.278583
    3 16.525249 0.000000 0.000000 -0.167696 -0.298813 -1.261146
    4 6.879453 0.000000 0.000000 -0.007299 -0.002951 -0.584373
    5 -3.890452 0.000004 0.000007 -1.420892 -0.039460 -1.949316
    6 17.848171 0.000000 0.000000 0.000000 0.000000 0.542704
    7 16.525257 0.000000 0.000000 0.276907 0.072482 -1.371412
    8 6.879454 0.000000 0.000000 -0.081333 -0.002951 -0.584373
    9 0.065674 3.343750 -2.980469 1.570793 0.066661 1.551157
    10 4.018331 0.000000 0.000000 -0.003688 0.117749 -0.127635
    11 3.518561 0.000000 0.000000 0.062138 0.251616 0.220285
    12 8.942642 0.000000 0.000000 0.000000 0.000000 0.292270
    13 3.307271 0.000000 0.000000 3.064068 0.060333 0.182153
    14 3.593710 -0.000003 0.000000 -0.231185 -0.282864 0.054066
    15 2.033346 1.000767 1.937660 1.596637 -1.286515 2.942961
    16 6.028142 0.000002 0.000000 -1.365777 0.135493 -0.894111
    17 11.692556 0.000000 -0.000001 0.000000 0.000000 -1.202090
    18 11.481671 0.000000 -0.000029 1.848057 0.030831 0.044524
    19 3.883691 -0.046771 0.431443 0.085902 0.021830 -0.587867
    20 1.719575 0.000000 0.000000 0.000000 0.005516 -0.366478
    21 1.209183 -0.000001 0.000000 0.000000 0.003084 -0.216400
    22 3.859861 -0.137948 1.332466 0.354449 -0.042750 -0.531718
    23 1.719428 0.000001 0.000000 0.000000 0.004074 -0.363009
    24 1.099667 0.000000 0.000000 0.000000 0.002596 -0.244331
    25 0.806048 -0.348922 1.321258 -1.296888 -0.306559 -0.650551
    26 1.789783 0.000001 0.000001 -0.000001 -0.287136 0.051807
    27 1.207000 0.000000 0.000001 0.000000 0.011267 0.362860
    28 2.033354 1.000771 -1.937610 -1.668474 1.286518 2.942953
    29 6.028142 0.000004 0.000000 1.952996 0.022679 -1.047366
    30 11.692552 0.000000 0.000002 0.000000 0.000000 -0.987303
    31 11.481699 0.000000 0.000004 -1.767053 0.057956 0.632151
    32 3.883657 -0.050329 -0.431043 -0.402871 0.046270 -0.600258
    33 1.719576 0.000003 0.000000 -0.133822 -0.007106 -0.484256
    34 1.209180 -0.000001 0.000000 -0.232654 0.350095 -0.393094
    35 3.859830 -0.148938 -1.331282 -0.406968 0.238495 -0.306073
    36 1.719426 0.000000 0.000000 0.003474 -0.005625 -0.621715
    37 1.099666 0.000000 0.000000 0.000167 -0.004206 -0.460295
    38 0.806017 -0.359836 -1.318334 0.726502 0.283516 -1.066701
    39 1.789784 0.000000 -0.000001 0.470744 -0.006283 0.346364
    40 1.206998 0.000000 0.000000 -0.006932 -0.006665 0.421832
    41 -0.044717 2.313936 4.661499 -0.039270 0.000000 0.000000
    42 2.676088 -1.712442 0.000000 1.570797 0.000000 1.570797
    43 2.676088 -1.712443 0.000000 -1.570796 0.000000 -1.570796
  time 3
    0 3.216499 -0.422833 37.598138 1.511893 -0.019586 -0.195224
    1 3.890452 -0.000004 -0.000003 -1.830594 0.076682 -1.603517
    2 17.848175 0.000000 0.000000 0.000000 0.000000 0.324894
    3 16.525249 0.000000 0.000000 -0.182303 -0.289067 -1.305898
    4 6.879453 0.000000 0.000000 -0.007299 -0.002951 -0.584373
    5 -3.890452 0.000004 0.000007 -1.603288 0.005727 -1.750395
    6 17.848171 0.000000 0.000000 0.000000 0.000000 0.335492
    7 16.525257 0.000000 0.000000 0.258101 0.085629 -1.245079
    8 6.879454 0.000000 0.000000 -0.081333 -0.002951 -0.584373
    9 0.065674 3.343750 -2.980469 1.570793 0.066661 1.551157
    10 4.018331 0.000000 0.000000 0.000112 0.000000 -0.127408
    11 3.518561 0.000000 0.000000 -0.081099 -0.112559 0.218392
    12 8.942642 0.000000 0.000000 0.000000 0.000000 0.292270
    13 3.307271 0.000000 0.000000 3.064068 0.060333 0.182153
    14 3.593710 -0.000003 0.000000 -0.197762 -0.254158 0.171080
    15 2.033346 1.000767 1.937660 1.596637 -1.286515 2.942961
    16 6.028142 0.000002 0.000000 -1.435830 0.070297 -0.674754
    17 11.692556 0.000000 -0.000001 0.000000 0.000000 -1.222827
    18 11.481671 0.000000 -0.000029 1.848057 0.030831 0.044524
    19 3.883691 -0.046771 0.431443 0.085902 0.021830 -0.587867
    20 1.719575 0.000000 0.000000 0.000000 0.005516 -0.366478
    21 1.209183 -0.000001 0.000000 0.000000 0.003084 -0.216400
    22 3.859861 -0.137948 1.332466 0.354449 -0.042750 -0.531718
    23 1.719428 0.000001 0.000000 0.000000 0.004074 -0.363009
    24 1.099667 0.000000 0.000000 0.000000 0.002596 -0.244331
    25 0.806048 -0.348922 1.321258 -1.296888 -0.306559 -0.650551
    26 1.789783 0.000001 0.000001 -0.000001 -0.287136 0.051807
    27 1.207000 0.000000 0.000001 0.000000 0.011267 0.362860
    28 2.033354 1.000771 -1.937610 -0.684499 1.113539 3.983421
    29 6.028142 0.000004 0.000000 1.398762 -0.231375 -1.167882
    30 11.692552 0.000000 0.000002 0.000000 0.000000 -1.546124
    31 11.481699 0.000000 0.000004 -1.767053 0.057956 0.632151
    32 3.883657 -0.050329 -0.431043 -0.402871 0.046270 -0.600258
    33 1.719576 0.000003 0.000000 -0.133822 -0.007106 -0.484256
    34 1.209180 -0.000001 0.000000 -0.232654 0.350095 -0.393094
    35 3.859830 -0.148938 -1.331282 -0.406968 0.238495 -0.306073
    36 1.719426 0.000000 0.000000 0.003474 -0.005625 -0.621715
    37 1.099666 0.000000 0.000000 0.000167 -0.004206 -0.460295
    38 0.806017 -0.359836 -1.318334 0.726502 0.283516 -1.066701
    39 1.789784 0.000000 -0.000001 0.470744 -0.006283 0.346364
    40 1.206998 0.000000 0.000000 -0.006932 -0.006665 0.421832
    41 -0.044717 2.313936 4.661499 -0.039270 0.000000 0.000000
    42 2.676088 -1.712442 0.000000 1.570797 0.000000 1.570797
    43 2.676088 -1.712443 0.000000 -1.570796 0.000000 -1.570796
  time 4
    0 3.216499 -0.422833 37.598138 1.511893 -0.019586 -0.195224
    1 3.890452 -0.000004 -0.000003 -1.830594 0.076682 -1.603517
    2 17.848175 0.000000 0.000000 0.000000 0.000000 0.324894
    3 16.525249 0.000000 0.000000 -0.182303 -0.289067 -1.305898
    4 6.879453 0.000000 0.000000 -0.007299 -0.002951 -0.584373
    5 -3.890452 0.000004 0.000007 -1.603288 0.005727 -1.750395
    6 17.848171 0.000000 0.000000 0.000000 0.000000 0.335492
    7 16.525257 0.000000 0.000000 0.258101 0.085629 -1.245079
    8 6.879454 0.000000 0.000000 -0.081333 -0.002951 -0.584373
    9 0.065674 3.343750 -2.980469 1.570793 0.066661 1.551157
    10 4.018331 0.000000 0.000000 0.000112 0.000000 -0.127408
    11 3.518561 0.000000 0.000000 -0.081099 -0.112559 0.218392
    12 8.942642 0.000000 0.000000 0.000000 0.000000 0.292270
    13 3.307271 0.000000 0.000000 3.064068 0.060333 0.182153
    14 3.593710 -0.000003 0.000000 -0.197762 -0.254158 0.171080
    15 2.033346 1.000767 1.937660 1.596637 -1.286515 2.942961
    16 6.028142 0.000002 0.000000 -1.435830 0.070297 -0.674754
    17 11.692556 0.000000 -0.000001 0.000000 0.000000 -1.222827
    18 11.481671 0.000000 -0.000029 1.848057 0.030831 0.044524
    19 3.883691 -0.046771 0.431443 0.085902 0.021830 -0.587867
    20 1.719575 0.000000 0.000000 0.000000 0.005516 -0.366478
    21 1.209183 -0.000001 0.000000 0.000000 0.003084 -0.216400
    22 3.859861 -0.137948 1.332466 0.354449 -0.042750 -0.531718
    23 1.719428 0.000001 0.000000 0.000000 0.004074 -0.363009
    24 1.099667 0.000000 0.000000 0.000000 0.002596 -0.244331
    25 0.806048 -0.348922 1.321258 -1.296888 -0.306559 -0.650551
    26 1.789783 0.000001 0.000001 -0.000001 -0.287136 0.051807
    27 1.207000 0.000000 0.000001 0.000000 0.011267 0.362860
    28 2.033354 1.000771 -1.937610 -0.684499 1.113539 3.983421
    29 6.028142 0.000004 0.000000 1.398762 -0.231375 -1.167882
    30 11.692552 0.000000 0.000002 0.000000 0.000000 -1.546124
    31 11.481699 0.000000 0.000004 -1.767053 0.057956 0.632151
    32 3.883657 -0.050329 -0.431043 -0.402871 0.046270 -0.600258
    33 1.719576 0.000003 0.000000 -0.133822 -0.007106 -0.484256
    34 1.209180 -0.000001 0.000000 -0.232654 0.350095 -0.393094
    35 3.859830 -0.148938 -1.331282 -0.406968 0.238495 -0.306073
    36 1.719426 0.000000 0.000000 0.003474 -0.005625 -0.621715
    37 1.099666 0.000000 0.000000 0.000167 -0.004206 -0.460295
    38 0.806017 -0.359836 -1.318334 0.726502 0.283516 -1.066701
    39 1.789784 0.000000 -0.000001 0.470744 -0.006283 0.346364
    40 1.206998 0.000000 0.000000 -0.006932 -0.006665 0.421832
    41 -0.044717 2.313936 4.661499 -0.039270 0.000000 0.000000
    42 2.676088 -1.712442 0.000000 1.570797 0.000000 1.570797
    43 2.676088 -1.712443 0.000000 -1.570796 0.000000 -1.570796
  time 5
    0 4.880613 -0.140941 36.465291 1.585045 -0.058530 0.137198
    1 3.890452 -0.000004 -0.000003 -1.493590 -0.164020 -1.704463
    2 17.848175 0.000000 0.000000 0.000000 0.000000 0.609970
    3 16.525249 0.000000 0.000000 -0.134501 -0.320473 -1.429717
    4 6.879453 0.000000 0.000000 -0.007299 -0.002951 -0.584373
    5 -3.890452 0.000004 0.000007 -1.637313 -0.383507 -1.556856
    6 17.848171 0.000000 0.000000 0.000000 0.000000 1.188335
    7 16.525257 0.000000 0.000000 0.570963 0.591637 -1.069282
    8 6.879454 0.000000 0.000000 -0.081333 -0.002951 -0.584373
    9 0.065674 3.343750 -2.980469 1.570793 0.066661 1.551157
    10 4.018331 0.000000 0.000000 0.000112 0.000000 -0.127408
    11 3.518561 0.000000 0.000000 0.044443 -0.003020 0.316242
    12 8.942642 0.000000 0.000000 0.000000 0.000000 0.292270
    13 3.307271 0.000000 0.000000 3.064068 0.060333 0.182153
    14 3.593710 -0.000003 0.000000 0.000000 -0.000001 0.229926
    15 2.033346 1.000767 1.937660 1.596637 -1.286515 2.942961
    16 6.028142 0.000002 0.000000 -1.255842 -0.048799 -0.880929
    17 11.692556 0.000000 -0.000001 0.000000 0.000000 -1.064579
    18 11.481671 0.000000 -0.000029 1.848057 0.030831 0.044524
    19 3.883691 -0.046771 0.431443 0.085902 0.021830 -0.587867
    20 1.719575 0.000000 0.000000 0.000000 0.005516 -0.366478
    21 1.209183 -0.000001 0.000000 0.000000 0.003084 -0.216400
    22 3.859861 -0.137948 1.332466 0.354449 -0.042750 -0.531718
    23 1.719428 0.000001 0.000000 0.000000 0.004074 -0.363009
    24 1.099667 0.000000 0.000000 0.000000 0.002596 -0.244331
    25 0.806048 -0.348922 1.321258 -1.296888 -0.306559 -0.650551
    26 1.789783 0.000001 0.000001 -0.000001 -0.287136 0.051807
    27 1.207000 0.000000 0.000001 0.000000 0.011267 0.362860
    28 2.033354 1.000771 -1.937610 -1.668474 1.286518 2.942953
    29 6.028142 0.000004 0.000000 1.714865 0.093310 -0.928369
    30 11.692552 0.000000 0.000002 0.000000 0.000000 -1.142865
    31 11.481699 0.000000 0.000004 -1.767053 0.057956 0.632151
    32 3.883657 -0.050329 -0.431043 -0.402871 0.046270 -0.600258
    33 1.719576 0.000003 0.000000 -0.133822 -0.007106 -0.484256
    34 1.209180 -0.000001 0.000000 -0.232654 0.350095 -0.393094
    35 3.859830 -0.148938 -1.331282 -0.406968 0.238495 -0.306073
    36 1.719426 0.000000 0.000000 0.003474 -0.005625 -0.621715
    37 1.099666 0.000000 0.000000 0.000167 -0.004206 -0.460295
    38 0.806017 -0.359836 -1.318334 0.726502 0.283516 -1.066701
    39 1.789784 0.000000 -0.000001 0.470744 -0.006283 0.346364
    40 1.206998 0.000000 0.000000 -0.006932 -0.006665 0.421832
    41 -0.044717 2.313936 4.661499 -0.039270 0.000000 0.000000
    42 2.676088 -1.712442 0.000000 1.570797 0.000000 1.570797
    43 2.676088 -1.712443 0.000000 -1.570796 0.000000 -1.570796
  time 6
    0 4.880613 -0.140941 36.465291 1.585045 -0.058530 0.137198
    1 3.890452 -0.000004 -0.000003 -1.493590 -0.164020 -1.704463
    2 17.848175 0.000000 0.000000 0.000000 0.000000 0.609970
    3 16.525249 0.000000 0.000000 -0.134501 -0.320473 -1.429717
    4 6.879453 0.000000 0.000000 -0.007299 -0.002951 -0.584373
    5 -3.890452 0.000004 0.000007 -1.637313 -0.383507 -1.556856
    6 17.848171 0.000000 0.000000 0.000000 0.000000 1.188335
    7 16.525257 0.000000 0.000000 0.570963 0.591637 -1.069282
    8 6.879454 0.000000 0.000000 -0.081333 -0.002951 -0.584373
    9 0.065674 3.343750 -2.980469 1.570793 0.066661 1.551157
    10 4.018331 0.000000 0.000000 0.000112 0.000000 -0.127408
    11 3.518561 0.000000 0.000000 0.044443 -0.003020 0.316242
    12 8.942642 0.000000 0.000000 0.000000 0.000000 0.292270
    13 3.307271 0.000000 0.000000 3.064068 0.060333 0.182153
    14 3.593710 -0.000003 0.000000 0.000000 -0.000001 0.229926
    15 2.033346 1.000767 1.937660 1.596637 -1.286515 2.942961
    16 6.028142 0.000002 0.000000 -1.255842 -0.048799 -0.880929
    17 11.692556 0.000000 -0.000001 0.000000 0.000000 -1.064579
    18 11.481671 0.000000 -0.000029 1.848057 0.030831 0.044524
    19 3.883691 -0.046771 0.431443 0.085902 0.021830 -0.587867
    20 1.719575 0.000000 0.000000 0.000000 0.005516 -0.366478
    21 1.209183 -0.000001 0.000000 0.000000 0.003084 -0.216400
    22 3.859861 -0.137948 1.332466 0.354449 -0.042750 -0.531718
    23 1.719428 0.000001 0.000000 0.000000 0.004074 -0.363009
    24 1.099667 0.000000 0.000000 0.000000 0.002596 -0.244331
    25 0.806048 -0.348922 1.321258 -1.296888 -0.306559 -0.650551
    26 1.789783 0.000001 0.000001 -0.000001 -0.287136 0.051807
    27 1.207000 0.000000 0.000001 0.000000 0.011267 0.362860
    28 2.033354 1.000771 -1.937610 -1.668474 1.286518 2.942953
    29 6.028142 0.000004 0.000000 1.714865 0.093310 -0.928369
    30 11.692552 0.000000 0.000002 0.000000 0.000000 -1.142865
    31 11.481699 0.000000 0.000004 -1.767053 0.057956 0.632151
    32 3.883657 -0.050329 -0.431043 -0.402871 0.046270 -0.600258
    33 1.719576 0.000003 0.000000 -0.133822 -0.007106 -0.484256
    34 1.209180 -0.000001 0.000000 -0.232654 0.350095 -0.393094
    35 3.859830 -0.148938 -1.331282 -0.406968 0.238495 -0.306073
    36 1.719426 0.000000 0.000000 0.003474 -0.005625 -0.621715
    37 1.099666 0.000000 0.000000 0.000167 -0.004206 -0.460295
    38 0.806017 -0.359836 -1.318334 0.726502 0.283516 -1.066701
    39 1.789784 0.000000 -0.000001 0.470744 -0.006283 0.346364
    40 1.206998 0.000000 0.000000 -0.006932 -0.006665 0.421832
    41 -0.044717 2.313936 4.661499 -0.039270 0.000000 0.000000
    42 2.676088 -1.712442 0.000000 1.570797 0.000000 1.570797
    43 2.676088 -1.712443 0.000000 -1.570796 0.000000 -1.570796
end
