// Created by Crowbar 0.68
version 1
nodes
  0 "ValveBiped.Bip01_Pelvis" -1
  1 "ValveBiped.Bip01_L_Thigh" 0
  2 "ValveBiped.Bip01_L_Calf" 1
  3 "ValveBiped.Bip01_L_Foot" 2
  4 "ValveBiped.Bip01_L_Toe0" 3
  5 "ValveBiped.Bip01_R_Thigh" 0
  6 "ValveBiped.Bip01_R_Calf" 5
  7 "ValveBiped.Bip01_R_Foot" 6
  8 "ValveBiped.Bip01_R_Toe0" 7
  9 "ValveBiped.Bip01_Spine" 0
  10 "ValveBiped.Bip01_Spine1" 9
  11 "ValveBiped.Bip01_Spine2" 10
  12 "ValveBiped.Bip01_Spine4" 11
  13 "ValveBiped.Bip01_Neck1" 12
  14 "ValveBiped.Bip01_Head1" 13
  15 "ValveBiped.Bip01_L_Clavicle" 12
  16 "ValveBiped.Bip01_L_UpperArm" 15
  17 "ValveBiped.Bip01_L_Forearm" 16
  18 "ValveBiped.Bip01_L_Hand" 17
  19 "ValveBiped.Bip01_L_Finger2" 18
  20 "ValveBiped.Bip01_L_Finger21" 19
  21 "ValveBiped.Bip01_L_Finger22" 20
  22 "ValveBiped.Bip01_L_Finger1" 18
  23 "ValveBiped.Bip01_L_Finger11" 22
  24 "ValveBiped.Bip01_L_Finger12" 23
  25 "ValveBiped.Bip01_L_Finger0" 18
  26 "ValveBiped.Bip01_L_Finger01" 25
  27 "ValveBiped.Bip01_L_Finger02" 26
  28 "ValveBiped.Bip01_R_Clavicle" 12
  29 "ValveBiped.Bip01_R_UpperArm" 28
  30 "ValveBiped.Bip01_R_Forearm" 29
  31 "ValveBiped.Bip01_R_Hand" 30
  32 "ValveBiped.Bip01_R_Finger2" 31
  33 "ValveBiped.Bip01_R_Finger21" 32
  34 "ValveBiped.Bip01_R_Finger22" 33
  35 "ValveBiped.Bip01_R_Finger1" 31
  36 "ValveBiped.Bip01_R_Finger11" 35
  37 "ValveBiped.Bip01_R_Finger12" 36
  38 "ValveBiped.Bip01_R_Finger0" 31
  39 "ValveBiped.Bip01_R_Finger01" 38
  40 "ValveBiped.Bip01_R_Finger02" 39
  41 "ValveBiped.Cod" 0
  42 "ValveBiped.Anim_Attachment_LH" 18
  43 "ValveBiped.Anim_Attachment_RH" 31
end
skeleton
  time 0
    0 1.256836 0.768555 38.468750 1.570792 0.000003 -0.000003
    1 3.890452 -0.000004 -0.000003 -1.651551 0.010896 -1.511725
    2 17.848175 0.000000 0.000000 0.000000 0.000000 0.101018
    3 16.525249 0.000000 0.000000 -0.062439 0.005842 -1.092743
    4 6.879453 0.000000 0.000000 -0.007299 -0.002951 -0.584373
    5 -3.890452 0.000004 0.000007 -1.348251 -0.051916 -1.639811
    6 17.848171 0.000000 0.000000 0.000000 0.000000 0.153928
    7 16.525257 0.000000 0.000000 0.066895 -0.008216 -1.073973
    8 6.879454 0.000000 0.000000 -0.081333 -0.002951 -0.584373
    9 0.000005 3.345128 -2.981901 1.570793 0.145689 1.570793
    10 3.994141 0.000000 0.000000 0.000000 0.000000 -0.038124
    11 3.518561 0.000000 0.000000 0.000000 0.000000 0.157737
    12 8.914063 0.000000 0.000000 0.000000 0.000000 0.256937
    13 3.307271 0.000000 0.000000 3.138613 0.000636 0.420676
    14 3.601563 0.000000 0.000000 0.000000 0.000000 0.371395
    15 2.058594 0.977539 1.937500 1.991380 -1.117830 2.509053
    16 6.028142 0.000002 0.000000 -1.426496 0.032601 -0.997848
    17 11.692556 0.000000 -0.000001 0.000000 0.000000 -0.283493
    18 11.481671 0.000000 -0.000029 1.983090 0.183975 0.035458
    19 3.880859 0.214600 0.400146 0.087706 0.031640 -0.519952
    20 1.719575 0.000000 0.000000 0.000000 0.005005 -0.366486
    21 1.209183 -0.000001 0.000000 -0.000001 0.002797 -0.216403
    22 3.871094 0.117371 1.300781 0.347957 -0.062918 -0.381824
    23 1.719428 0.000001 0.000000 0.000000 0.005106 -0.703241
    24 1.099667 0.000000 0.000000 0.000000 0.003253 -0.244323
    25 0.838379 -0.300049 1.312500 -1.418344 -0.505333 -0.376588
    26 1.789783 0.000001 0.000001 0.000000 -0.002158 0.228628
    27 1.207000 0.000000 0.000001 0.000000 -0.003299 0.363013
    28 2.058594 0.977539 -1.937500 -2.007902 1.089440 2.563918
    29 6.028142 0.000004 0.000000 1.494576 0.049652 -0.926321
    30 11.692552 0.000000 0.000002 0.000000 0.000000 -0.328619
    31 11.481699 0.000000 0.000004 -1.916855 -0.157575 0.033887
    32 3.880859 0.211304 -0.401855 -0.088925 -0.030672 -0.462218
    33 1.719576 0.000003 0.000000 0.000001 -0.007582 -0.765280
    34 1.209180 -0.000001 0.000000 0.000000 -0.004241 -0.615216
    35 3.871094 0.106567 -1.301758 -0.347036 0.063961 -0.368914
    36 1.719426 0.000000 0.000000 0.000000 -0.007736 -0.783180
    37 1.099666 0.000000 0.000000 0.000000 -0.004929 -0.449661
    38 0.838379 -0.311035 -1.309570 1.355277 0.323271 -0.404484
    39 1.789784 0.000000 -0.000001 0.000002 0.003278 0.201467
    40 1.206998 0.000000 0.000000 0.000001 0.005010 0.631516
    41 -0.044717 2.313936 4.661499 -0.039270 0.000000 0.000000
    42 2.676088 -1.712442 0.000000 1.570797 0.000000 1.570797
    43 2.676088 -1.712443 0.000000 -1.570796 0.000000 -1.570796
end
