// Created by Crowbar 0.68
version 1
nodes
  0 "ValveBiped.Bip01_Pelvis" -1
  1 "ValveBiped.Bip01_L_Thigh" 0
  2 "ValveBiped.Bip01_L_Calf" 1
  3 "ValveBiped.Bip01_L_Foot" 2
  4 "ValveBiped.Bip01_L_Toe0" 3
  5 "ValveBiped.Bip01_R_Thigh" 0
  6 "ValveBiped.Bip01_R_Calf" 5
  7 "ValveBiped.Bip01_R_Foot" 6
  8 "ValveBiped.Bip01_R_Toe0" 7
  9 "ValveBiped.Bip01_Spine" 0
  10 "ValveBiped.Bip01_Spine1" 9
  11 "ValveBiped.Bip01_Spine2" 10
  12 "ValveBiped.Bip01_Spine4" 11
  13 "ValveBiped.Bip01_Neck1" 12
  14 "ValveBiped.Bip01_Head1" 13
  15 "ValveBiped.Bip01_L_Clavicle" 12
  16 "ValveBiped.Bip01_L_UpperArm" 15
  17 "ValveBiped.Bip01_L_Forearm" 16
  18 "ValveBiped.Bip01_L_Hand" 17
  19 "ValveBiped.Bip01_L_Finger2" 18
  20 "ValveBiped.Bip01_L_Finger21" 19
  21 "ValveBiped.Bip01_L_Finger22" 20
  22 "ValveBiped.Bip01_L_Finger1" 18
  23 "ValveBiped.Bip01_L_Finger11" 22
  24 "ValveBiped.Bip01_L_Finger12" 23
  25 "ValveBiped.Bip01_L_Finger0" 18
  26 "ValveBiped.Bip01_L_Finger01" 25
  27 "ValveBiped.Bip01_L_Finger02" 26
  28 "ValveBiped.Bip01_R_Clavicle" 12
  29 "ValveBiped.Bip01_R_UpperArm" 28
  30 "ValveBiped.Bip01_R_Forearm" 29
  31 "ValveBiped.Bip01_R_Hand" 30
  32 "ValveBiped.Bip01_R_Finger2" 31
  33 "ValveBiped.Bip01_R_Finger21" 32
  34 "ValveBiped.Bip01_R_Finger22" 33
  35 "ValveBiped.Bip01_R_Finger1" 31
  36 "ValveBiped.Bip01_R_Finger11" 35
  37 "ValveBiped.Bip01_R_Finger12" 36
  38 "ValveBiped.Bip01_R_Finger0" 31
  39 "ValveBiped.Bip01_R_Finger01" 38
  40 "ValveBiped.Bip01_R_Finger02" 39
  41 "ValveBiped.Cod" 0
  42 "ValveBiped.Anim_Attachment_LH" 18
  43 "ValveBiped.Anim_Attachment_RH" 31
end
skeleton
  time 0
    0 -0.959409 -39.078765 38.027838 1.522580 -0.001761 0.107117
    1 3.890452 -0.000004 -0.000003 -1.570796 0.051839 -1.565574
    2 17.848175 0.000000 0.000000 0.000000 0.000000 0.034200
    3 16.525249 0.000000 0.000000 -0.027915 -0.040782 -1.071638
    4 6.879453 0.000000 0.000000 -0.007299 -0.002951 -0.584373
    5 -3.890452 0.000004 0.000007 -1.570796 0.051845 -1.576021
    6 17.848171 0.000000 0.000000 0.000000 0.000000 0.034187
    7 16.525257 0.000000 0.000000 0.038611 0.040779 -1.071632
    8 6.879454 0.000000 0.000000 -0.081333 -0.002951 -0.584373
    9 0.003911 3.345128 -2.981901 1.567244 0.039235 1.479485
    10 4.018331 0.000000 0.000000 -0.048607 0.040736 0.099892
    11 3.518561 0.000000 0.000000 -0.048827 0.037488 0.072494
    12 8.942642 0.000000 0.000000 0.018415 -0.009851 0.134722
    13 3.307271 0.000000 0.000000 3.141590 0.000000 0.400478
    14 3.593710 -0.000003 0.000000 -0.024928 -0.009579 0.355505
    15 2.033346 1.000767 1.937660 1.802273 -1.395243 2.734683
    16 6.028142 0.000002 0.000000 -1.307886 -0.004735 -0.872110
    17 11.692556 0.000000 -0.000001 0.000000 0.000000 -2.054356
    18 11.481671 0.000000 -0.000029 2.607922 -0.205132 -0.039955
    19 3.883691 -0.046771 0.431443 0.096614 -0.011009 -0.677044
    20 1.719575 0.000000 0.000000 0.000000 0.000000 -0.154309
    21 1.209183 -0.000001 0.000000 0.000000 0.000000 -0.339470
    22 3.859861 -0.137948 1.332466 0.345266 0.010876 -0.494327
    23 1.719428 0.000001 0.000000 0.000000 0.000000 -0.309050
    24 1.099667 0.000000 0.000000 0.000000 0.000000 -0.538681
    25 0.806048 -0.348922 1.321258 -1.340931 -0.449481 -0.508806
    26 1.789783 0.000001 0.000001 -0.001068 -0.012853 0.157736
    27 1.207000 0.000000 0.000001 -0.000101 -0.003216 0.067661
    28 2.033354 1.000771 -1.937610 -2.173105 1.310587 2.445079
    29 6.028142 0.000004 0.000000 1.493018 0.581285 -0.668645
    30 11.692552 0.000000 0.000002 0.000000 0.000000 -1.299439
    31 11.481699 0.000000 0.000004 0.278727 0.222386 -0.297171
    32 3.883657 -0.050329 -0.431043 0.038252 0.016270 -0.451252
    33 1.719576 0.000003 0.000000 0.000000 0.000000 -0.483179
    34 1.209180 -0.000001 0.000000 0.000000 0.000000 -0.477027
    35 3.859830 -0.148938 -1.331282 -0.416102 -0.024164 -0.331351
    36 1.719426 0.000000 0.000000 -0.042633 0.230561 -0.493271
    37 1.099666 0.000000 0.000000 0.008154 0.000000 0.000000
    38 0.806017 -0.359836 -1.318334 0.415058 0.423434 -0.720789
    39 1.789784 0.000000 -0.000001 0.015105 0.038912 0.428454
    40 1.206998 0.000000 0.000000 0.004785 0.022541 0.418309
    41 -0.044717 2.313936 4.661499 -0.024987 -0.040747 -0.081124
    42 1.553711 -2.005859 -0.065857 -0.583922 0.091276 -1.371732
    43 2.676088 -1.712443 0.000000 -1.570796 0.000000 -1.570796
  time 1
    0 -1.021911 -41.493229 38.008307 1.524997 -0.013846 0.108841
    1 3.890452 -0.000004 -0.000003 -1.570796 0.051839 -1.565574
    2 17.848175 0.000000 0.000000 0.000000 0.000000 0.034200
    3 16.525249 0.000000 0.000000 -0.027915 -0.040782 -1.071638
    4 6.879453 0.000000 0.000000 -0.007299 -0.002951 -0.584373
    5 -3.890452 0.000004 0.000007 -1.570796 0.051845 -1.576021
    6 17.848171 0.000000 0.000000 0.000000 0.000000 0.034187
    7 16.525257 0.000000 0.000000 0.038611 0.040779 -1.071632
    8 6.879454 0.000000 0.000000 -0.081333 -0.002951 -0.584373
    9 0.042975 3.345128 -2.981901 1.567262 0.039235 1.471288
    10 4.018331 0.000000 0.000000 -0.041647 0.036781 0.100781
    11 3.518561 0.000000 0.000000 -0.040629 0.032826 0.073224
    12 8.942642 0.000000 0.000000 0.018345 -0.011589 0.134169
    13 3.307271 0.000000 0.000000 3.141590 0.000000 0.400478
    14 3.593710 -0.000003 0.000000 -0.033256 -0.021326 0.361420
    15 2.033346 1.000767 1.937660 1.802273 -1.395243 2.734683
    16 6.028142 0.000002 0.000000 -1.292990 -0.026596 -0.866169
    17 11.692556 0.000000 -0.000001 0.000000 0.000000 -2.048995
    18 11.481671 0.000000 -0.000029 2.606011 -0.208121 -0.032050
    19 3.883691 -0.046771 0.431443 0.096614 -0.011009 -0.677044
    20 1.719575 0.000000 0.000000 0.000000 0.000000 -0.154309
    21 1.209183 -0.000001 0.000000 0.000000 0.000000 -0.339470
    22 3.859861 -0.137948 1.332466 0.345266 0.010876 -0.494327
    23 1.719428 0.000001 0.000000 0.000000 0.000000 -0.309050
    24 1.099667 0.000000 0.000000 0.000000 0.000000 -0.538681
    25 0.806048 -0.348922 1.321258 -1.340931 -0.449481 -0.508806
    26 1.789783 0.000001 0.000001 -0.001068 -0.012853 0.157736
    27 1.207000 0.000000 0.000001 -0.000101 -0.003216 0.067661
    28 2.033354 1.000771 -1.937610 -2.173105 1.310587 2.445079
    29 6.028142 0.000004 0.000000 1.507961 0.558831 -0.665798
    30 11.692552 0.000000 0.000002 0.000000 0.000000 -1.315205
    31 11.481699 0.000000 0.000004 0.279310 0.224076 -0.295915
    32 3.883657 -0.050329 -0.431043 0.038252 0.016270 -0.451252
    33 1.719576 0.000003 0.000000 0.000000 0.000000 -0.483179
    34 1.209180 -0.000001 0.000000 0.000000 0.000000 -0.477027
    35 3.859830 -0.148938 -1.331282 -0.416102 -0.024164 -0.331351
    36 1.719426 0.000000 0.000000 -0.042633 0.230561 -0.493271
    37 1.099666 0.000000 0.000000 0.008154 0.000000 0.000000
    38 0.806017 -0.359836 -1.318334 0.415058 0.423434 -0.720789
    39 1.789784 0.000000 -0.000001 0.015105 0.038912 0.428454
    40 1.206998 0.000000 0.000000 0.004785 0.022541 0.418309
    41 -0.044717 2.313936 4.661499 -0.024714 -0.060364 -0.093863
    42 1.553711 -2.005859 -0.065857 -0.583922 0.091276 -1.371732
    43 2.676088 -1.712443 0.000000 -1.570796 0.000000 -1.570796
  time 2
    0 -1.084413 -43.956718 37.711423 1.529004 -0.019260 0.105967
    1 3.890452 -0.000004 -0.000003 -1.570796 0.051839 -1.565574
    2 17.848175 0.000000 0.000000 0.000000 0.000000 0.034200
    3 16.525249 0.000000 0.000000 -0.027915 -0.040782 -1.071638
    4 6.879453 0.000000 0.000000 -0.007299 -0.002951 -0.584373
    5 -3.890452 0.000004 0.000007 -1.570796 0.051845 -1.576021
    6 17.848171 0.000000 0.000000 0.000000 0.000000 0.034187
    7 16.525257 0.000000 0.000000 0.038611 0.040779 -1.071632
    8 6.879454 0.000000 0.000000 -0.081333 -0.002951 -0.584373
    9 0.058601 3.345128 -2.981901 1.567281 0.039235 1.469430
    10 4.018331 0.000000 0.000000 -0.035505 0.032838 0.100694
    11 3.518561 0.000000 0.000000 -0.033163 0.028332 0.072944
    12 8.942642 0.000000 0.000000 0.018680 -0.012716 0.133642
    13 3.307271 0.000000 0.000000 3.141590 0.000000 0.400478
    14 3.593710 -0.000003 0.000000 -0.038864 -0.031271 0.368322
    15 2.033346 1.000767 1.937660 1.802273 -1.395243 2.734683
    16 6.028142 0.000002 0.000000 -1.277998 -0.047241 -0.860970
    17 11.692556 0.000000 -0.000001 0.000000 0.000000 -2.041820
    18 11.481671 0.000000 -0.000029 2.603718 -0.211442 -0.025054
    19 3.883691 -0.046771 0.431443 0.096614 -0.011009 -0.677044
    20 1.719575 0.000000 0.000000 0.000000 0.000000 -0.154309
    21 1.209183 -0.000001 0.000000 0.000000 0.000000 -0.339470
    22 3.859861 -0.137948 1.332466 0.345266 0.010876 -0.494327
    23 1.719428 0.000001 0.000000 0.000000 0.000000 -0.309050
    24 1.099667 0.000000 0.000000 0.000000 0.000000 -0.538681
    25 0.806048 -0.348922 1.321258 -1.340931 -0.449481 -0.508806
    26 1.789783 0.000001 0.000001 -0.001068 -0.012853 0.157736
    27 1.207000 0.000000 0.000001 -0.000101 -0.003216 0.067661
    28 2.033354 1.000771 -1.937610 -2.173105 1.310587 2.445079
    29 6.028142 0.000004 0.000000 1.519935 0.538177 -0.663331
    30 11.692552 0.000000 0.000002 0.000000 0.000000 -1.326270
    31 11.481699 0.000000 0.000004 0.280994 0.226524 -0.296315
    32 3.883657 -0.050329 -0.431043 0.038252 0.016270 -0.451252
    33 1.719576 0.000003 0.000000 0.000000 0.000000 -0.483179
    34 1.209180 -0.000001 0.000000 0.000000 0.000000 -0.477027
    35 3.859830 -0.148938 -1.331282 -0.416102 -0.024164 -0.331351
    36 1.719426 0.000000 0.000000 -0.042633 0.230561 -0.493271
    37 1.099666 0.000000 0.000000 0.008154 0.000000 0.000000
    38 0.806017 -0.359836 -1.318334 0.415058 0.423434 -0.720789
    39 1.789784 0.000000 -0.000001 0.015105 0.038912 0.428454
    40 1.206998 0.000000 0.000000 0.004785 0.022541 0.418309
    41 -0.044717 2.313936 4.661499 -0.024487 -0.073151 -0.098909
    42 1.553711 -2.005859 -0.065857 -0.583922 0.091276 -1.371732
    43 2.676088 -1.712443 0.000000 -1.570796 0.000000 -1.570796
  time 3
    0 -1.107851 -46.463103 37.176250 1.533902 -0.015884 0.097154
    1 3.890452 -0.000004 -0.000003 -1.570796 0.051839 -1.565574
    2 17.848175 0.000000 0.000000 0.000000 0.000000 0.034200
    3 16.525249 0.000000 0.000000 -0.027915 -0.040782 -1.071638
    4 6.879453 0.000000 0.000000 -0.007299 -0.002951 -0.584373
    5 -3.890452 0.000004 0.000007 -1.570796 0.051845 -1.576021
    6 17.848171 0.000000 0.000000 0.000000 0.000000 0.034187
    7 16.525257 0.000000 0.000000 0.038611 0.040779 -1.071632
    8 6.879454 0.000000 0.000000 -0.081333 -0.002951 -0.584373
    9 0.046881 3.345128 -2.981901 1.567317 0.039235 1.476298
    10 4.018331 0.000000 0.000000 -0.030229 0.028871 0.100101
    11 3.518561 0.000000 0.000000 -0.026427 0.024029 0.072044
    12 8.942642 0.000000 0.000000 0.019473 -0.013003 0.132746
    13 3.307271 0.000000 0.000000 3.141590 0.000000 0.400478
    14 3.593710 -0.000003 0.000000 -0.042251 -0.039158 0.375038
    15 2.033346 1.000767 1.937660 1.802273 -1.395243 2.734683
    16 6.028142 0.000002 0.000000 -1.263196 -0.065840 -0.856607
    17 11.692556 0.000000 -0.000001 0.000000 0.000000 -2.033541
    18 11.481671 0.000000 -0.000029 2.600851 -0.215303 -0.019362
    19 3.883691 -0.046771 0.431443 0.096614 -0.011009 -0.677044
    20 1.719575 0.000000 0.000000 0.000000 0.000000 -0.154309
    21 1.209183 -0.000001 0.000000 0.000000 0.000000 -0.339470
    22 3.859861 -0.137948 1.332466 0.345266 0.010876 -0.494327
    23 1.719428 0.000001 0.000000 0.000000 0.000000 -0.309050
    24 1.099667 0.000000 0.000000 0.000000 0.000000 -0.538681
    25 0.806048 -0.348922 1.321258 -1.340931 -0.449481 -0.508806
    26 1.789783 0.000001 0.000001 -0.001068 -0.012853 0.157736
    27 1.207000 0.000000 0.000001 -0.000101 -0.003216 0.067661
    28 2.033354 1.000771 -1.937610 -2.173105 1.310587 2.445079
    29 6.028142 0.000004 0.000000 1.529130 0.519086 -0.660958
    30 11.692552 0.000000 0.000002 0.000000 0.000000 -1.334514
    31 11.481699 0.000000 0.000004 0.283391 0.229489 -0.297342
    32 3.883657 -0.050329 -0.431043 0.038252 0.016270 -0.451252
    33 1.719576 0.000003 0.000000 0.000000 0.000000 -0.483179
    34 1.209180 -0.000001 0.000000 0.000000 0.000000 -0.477027
    35 3.859830 -0.148938 -1.331282 -0.416102 -0.024164 -0.331351
    36 1.719426 0.000000 0.000000 -0.042633 0.230561 -0.493271
    37 1.099666 0.000000 0.000000 0.008154 0.000000 0.000000
    38 0.806017 -0.359836 -1.318334 0.415058 0.423434 -0.720789
    39 1.789784 0.000000 -0.000001 0.015105 0.038912 0.428454
    40 1.206998 0.000000 0.000000 0.004785 0.022541 0.418309
    41 -0.044717 2.313936 4.661499 -0.024441 -0.078687 -0.093887
    42 1.553711 -2.005859 -0.065857 -0.583922 0.091276 -1.371732
    43 2.676088 -1.712443 0.000000 -1.570796 0.000000 -1.570796
  time 4
    0 -1.072694 -49.000128 36.508261 1.538037 -0.008888 0.083551
    1 3.890452 -0.000004 -0.000003 -1.570796 0.051839 -1.565574
    2 17.848175 0.000000 0.000000 0.000000 0.000000 0.034200
    3 16.525249 0.000000 0.000000 -0.027915 -0.040782 -1.071638
    4 6.879453 0.000000 0.000000 -0.007299 -0.002951 -0.584373
    5 -3.890452 0.000004 0.000007 -1.570796 0.051845 -1.576021
    6 17.848171 0.000000 0.000000 0.000000 0.000000 0.034187
    7 16.525257 0.000000 0.000000 0.038611 0.040779 -1.071632
    8 6.879454 0.000000 0.000000 -0.081333 -0.002951 -0.584373
    9 0.023443 3.345128 -2.981901 1.567317 0.039235 1.487323
    10 4.018331 0.000000 0.000000 -0.026028 0.024640 0.099526
    11 3.518561 0.000000 0.000000 -0.020582 0.019703 0.070942
    12 8.942642 0.000000 0.000000 0.020636 -0.012212 0.131258
    13 3.307271 0.000000 0.000000 3.141590 0.000000 0.400478
    14 3.593710 -0.000003 0.000000 -0.043972 -0.045469 0.380830
    15 2.033346 1.000767 1.937660 1.802273 -1.395243 2.734683
    16 6.028142 0.000002 0.000000 -1.249619 -0.081129 -0.853358
    17 11.692556 0.000000 -0.000001 0.000000 0.000000 -2.025340
    18 11.481671 0.000000 -0.000029 2.597603 -0.219289 -0.015608
    19 3.883691 -0.046771 0.431443 0.096614 -0.011009 -0.677044
    20 1.719575 0.000000 0.000000 0.000000 0.000000 -0.154309
    21 1.209183 -0.000001 0.000000 0.000000 0.000000 -0.339470
    22 3.859861 -0.137948 1.332466 0.345266 0.010876 -0.494327
    23 1.719428 0.000001 0.000000 0.000000 0.000000 -0.309050
    24 1.099667 0.000000 0.000000 0.000000 0.000000 -0.538681
    25 0.806048 -0.348922 1.321258 -1.340931 -0.449481 -0.508806
    26 1.789783 0.000001 0.000001 -0.001068 -0.012853 0.157736
    27 1.207000 0.000000 0.000001 -0.000101 -0.003216 0.067661
    28 2.033354 1.000771 -1.937610 -2.173105 1.310587 2.445079
    29 6.028142 0.000004 0.000000 1.536027 0.502127 -0.658491
    30 11.692552 0.000000 0.000002 0.000000 0.000000 -1.341312
    31 11.481699 0.000000 0.000004 0.285658 0.232316 -0.297912
    32 3.883657 -0.050329 -0.431043 0.038252 0.016270 -0.451252
    33 1.719576 0.000003 0.000000 0.000000 0.000000 -0.483179
    34 1.209180 -0.000001 0.000000 0.000000 0.000000 -0.477027
    35 3.859830 -0.148938 -1.331282 -0.416102 -0.024164 -0.331351
    36 1.719426 0.000000 0.000000 -0.042633 0.230561 -0.493271
    37 1.099666 0.000000 0.000000 0.008154 0.000000 0.000000
    38 0.806017 -0.359836 -1.318334 0.415058 0.423434 -0.720789
    39 1.789784 0.000000 -0.000001 0.015105 0.038912 0.428454
    40 1.206998 0.000000 0.000000 0.004785 0.022541 0.418309
    41 -0.044717 2.313936 4.661499 -0.024487 -0.079342 -0.083976
    42 1.553711 -2.005859 -0.065857 -0.583922 0.091276 -1.371732
    43 2.676088 -1.712443 0.000000 -1.570796 0.000000 -1.570796
  time 5
    0 -0.982847 -51.610690 35.832459 1.539945 -0.002952 0.068031
    1 3.890452 -0.000004 -0.000003 -1.570796 0.051839 -1.565574
    2 17.848175 0.000000 0.000000 0.000000 0.000000 0.034200
    3 16.525249 0.000000 0.000000 -0.027915 -0.040782 -1.071638
    4 6.879453 0.000000 0.000000 -0.007299 -0.002951 -0.584373
    5 -3.890452 0.000004 0.000007 -1.570796 0.051845 -1.576021
    6 17.848171 0.000000 0.000000 0.000000 0.000000 0.034187
    7 16.525257 0.000000 0.000000 0.038611 0.040779 -1.071632
    8 6.879454 0.000000 0.000000 -0.081333 -0.002951 -0.584373
    9 0.003911 3.345128 -2.981901 1.567299 0.039218 1.498805
    10 4.018331 0.000000 0.000000 -0.023253 0.019882 0.099369
    11 3.518561 0.000000 0.000000 -0.015967 0.015137 0.070058
    12 8.942642 0.000000 0.000000 0.022010 -0.010211 0.129123
    13 3.307271 0.000000 0.000000 3.141590 0.000000 0.400478
    14 3.593710 -0.000003 0.000000 -0.044360 -0.050765 0.385698
    15 2.033346 1.000767 1.937660 1.802273 -1.395243 2.734683
    16 6.028142 0.000002 0.000000 -1.238965 -0.091305 -0.851316
    17 11.692556 0.000000 -0.000001 0.000000 0.000000 -2.018559
    18 11.481671 0.000000 -0.000029 2.594354 -0.222569 -0.014461
    19 3.883691 -0.046771 0.431443 0.096614 -0.011009 -0.677044
    20 1.719575 0.000000 0.000000 0.000000 0.000000 -0.154309
    21 1.209183 -0.000001 0.000000 0.000000 0.000000 -0.339470
    22 3.859861 -0.137948 1.332466 0.345266 0.010876 -0.494327
    23 1.719428 0.000001 0.000000 0.000000 0.000000 -0.309050
    24 1.099667 0.000000 0.000000 0.000000 0.000000 -0.538681
    25 0.806048 -0.348922 1.321258 -1.340931 -0.449481 -0.508806
    26 1.789783 0.000001 0.000001 -0.001068 -0.012853 0.157736
    27 1.207000 0.000000 0.000001 -0.000101 -0.003216 0.067661
    28 2.033354 1.000771 -1.937610 -2.173105 1.310587 2.445079
    29 6.028142 0.000004 0.000000 1.540529 0.488437 -0.656403
    30 11.692552 0.000000 0.000002 0.000000 0.000000 -1.347676
    31 11.481699 0.000000 0.000004 0.286824 0.234350 -0.297171
    32 3.883657 -0.050329 -0.431043 0.038252 0.016270 -0.451252
    33 1.719576 0.000003 0.000000 0.000000 0.000000 -0.483179
    34 1.209180 -0.000001 0.000000 0.000000 0.000000 -0.477027
    35 3.859830 -0.148938 -1.331282 -0.416102 -0.024164 -0.331351
    36 1.719426 0.000000 0.000000 -0.042633 0.230561 -0.493271
    37 1.099666 0.000000 0.000000 0.008154 0.000000 0.000000
    38 0.806017 -0.359836 -1.318334 0.415058 0.423434 -0.720789
    39 1.789784 0.000000 -0.000001 0.015105 0.038912 0.428454
    40 1.206998 0.000000 0.000000 0.004785 0.022541 0.418309
    41 -0.044717 2.313936 4.661499 -0.024668 -0.076114 -0.073094
    42 1.553711 -2.005859 -0.065857 -0.583922 0.091276 -1.371732
    43 2.676088 -1.712443 0.000000 -1.570796 0.000000 -1.570796
  time 6
    0 -0.853937 -54.349942 35.281661 1.538482 -0.001451 0.053853
    1 3.890452 -0.000004 -0.000003 -1.570796 0.051839 -1.565574
    2 17.848175 0.000000 0.000000 0.000000 0.000000 0.034200
    3 16.525249 0.000000 0.000000 -0.027915 -0.040782 -1.071638
    4 6.879453 0.000000 0.000000 -0.007299 -0.002951 -0.584373
    5 -3.890452 0.000004 0.000007 -1.570796 0.051845 -1.576021
    6 17.848171 0.000000 0.000000 0.000000 0.000000 0.034187
    7 16.525257 0.000000 0.000000 0.038611 0.040779 -1.071632
    8 6.879454 0.000000 0.000000 -0.081333 -0.002951 -0.584373
    9 0.000005 3.345128 -2.981901 1.567226 0.039184 1.508093
    10 4.018331 0.000000 0.000000 -0.022275 0.014549 0.099840
    11 3.518561 0.000000 0.000000 -0.012955 0.010259 0.069654
    12 8.942642 0.000000 0.000000 0.023385 -0.007215 0.126568
    13 3.307271 0.000000 0.000000 3.141590 0.000000 0.400478
    14 3.593710 -0.000003 0.000000 -0.043361 -0.055385 0.389334
    15 2.033346 1.000767 1.937660 1.802273 -1.395243 2.734683
    16 6.028142 0.000002 0.000000 -1.233025 -0.094908 -0.851038
    17 11.692556 0.000000 -0.000001 0.000000 0.000000 -2.014381
    18 11.481671 0.000000 -0.000029 2.591775 -0.223897 -0.016121
    19 3.883691 -0.046771 0.431443 0.096614 -0.011009 -0.677044
    20 1.719575 0.000000 0.000000 0.000000 0.000000 -0.154309
    21 1.209183 -0.000001 0.000000 0.000000 0.000000 -0.339470
    22 3.859861 -0.137948 1.332466 0.345266 0.010876 -0.494327
    23 1.719428 0.000001 0.000000 0.000000 0.000000 -0.309050
    24 1.099667 0.000000 0.000000 0.000000 0.000000 -0.538681
    25 0.806048 -0.348922 1.321258 -1.340931 -0.449481 -0.508806
    26 1.789783 0.000001 0.000001 -0.001068 -0.012853 0.157736
    27 1.207000 0.000000 0.000001 -0.000101 -0.003216 0.067661
    28 2.033354 1.000771 -1.937610 -2.173105 1.310587 2.445079
    29 6.028142 0.000004 0.000000 1.542637 0.479436 -0.655075
    30 11.692552 0.000000 0.000002 0.000000 0.000000 -1.353896
    31 11.481699 0.000000 0.000004 0.286306 0.235040 -0.294603
    32 3.883657 -0.050329 -0.431043 0.038252 0.016270 -0.451252
    33 1.719576 0.000003 0.000000 0.000000 0.000000 -0.483179
    34 1.209180 -0.000001 0.000000 0.000000 0.000000 -0.477027
    35 3.859830 -0.148938 -1.331282 -0.416102 -0.024164 -0.331351
    36 1.719426 0.000000 0.000000 -0.042633 0.230561 -0.493271
    37 1.099666 0.000000 0.000000 0.008154 0.000000 0.000000
    38 0.806017 -0.359836 -1.318334 0.415058 0.423434 -0.720789
    39 1.789784 0.000000 -0.000001 0.015105 0.038912 0.428454
    40 1.206998 0.000000 0.000000 0.004785 0.022541 0.418309
    41 -0.044717 2.313936 4.661499 -0.024896 -0.070110 -0.064106
    42 1.553711 -2.005859 -0.065857 -0.583922 0.091276 -1.371732
    43 2.676088 -1.712443 0.000000 -1.570796 0.000000 -1.570796
  time 7
    0 -0.697682 -57.230140 34.941807 1.533584 -0.012247 0.043602
    1 3.890452 -0.000004 -0.000003 -1.570796 0.051839 -1.565574
    2 17.848175 0.000000 0.000000 0.000000 0.000000 0.034200
    3 16.525249 0.000000 0.000000 -0.027915 -0.040782 -1.071638
    4 6.879453 0.000000 0.000000 -0.007299 -0.002951 -0.584373
    5 -3.890452 0.000004 0.000007 -1.570796 0.051845 -1.576021
    6 17.848171 0.000000 0.000000 0.000000 0.000000 0.034187
    7 16.525257 0.000000 0.000000 0.038611 0.040779 -1.071632
    8 6.879454 0.000000 0.000000 -0.081333 -0.002951 -0.584373
    9 0.039069 3.345128 -2.981901 1.567116 0.039151 1.507110
    10 4.018331 0.000000 0.000000 -0.023285 0.008941 0.100938
    11 3.518561 0.000000 0.000000 -0.011886 0.005261 0.069825
    12 8.942642 0.000000 0.000000 0.024671 -0.003655 0.123920
    13 3.307271 0.000000 0.000000 3.141590 0.000000 0.400478
    14 3.593710 -0.000003 0.000000 -0.040363 -0.058850 0.391121
    15 2.033346 1.000767 1.937660 1.802273 -1.395243 2.734683
    16 6.028142 0.000002 0.000000 -1.233025 -0.091451 -0.852337
    17 11.692556 0.000000 -0.000001 0.000000 0.000000 -2.013434
    18 11.481671 0.000000 -0.000029 2.590246 -0.222776 -0.020430
    19 3.883691 -0.046771 0.431443 0.096614 -0.011009 -0.677044
    20 1.719575 0.000000 0.000000 0.000000 0.000000 -0.154309
    21 1.209183 -0.000001 0.000000 0.000000 0.000000 -0.339470
    22 3.859861 -0.137948 1.332466 0.345266 0.010876 -0.494327
    23 1.719428 0.000001 0.000000 0.000000 0.000000 -0.309050
    24 1.099667 0.000000 0.000000 0.000000 0.000000 -0.538681
    25 0.806048 -0.348922 1.321258 -1.340931 -0.449481 -0.508806
    26 1.789783 0.000001 0.000001 -0.001068 -0.012853 0.157736
    27 1.207000 0.000000 0.000001 -0.000101 -0.003216 0.067661
    28 2.033354 1.000771 -1.937610 -2.173105 1.310587 2.445079
    29 6.028142 0.000004 0.000000 1.542254 0.476215 -0.654885
    30 11.692552 0.000000 0.000002 0.000000 0.000000 -1.359392
    31 11.481699 0.000000 0.000004 0.283844 0.234212 -0.290381
    32 3.883657 -0.050329 -0.431043 0.038252 0.016270 -0.451252
    33 1.719576 0.000003 0.000000 0.000000 0.000000 -0.483179
    34 1.209180 -0.000001 0.000000 0.000000 0.000000 -0.477027
    35 3.859830 -0.148938 -1.331282 -0.416102 -0.024164 -0.331351
    36 1.719426 0.000000 0.000000 -0.042633 0.230561 -0.493271
    37 1.099666 0.000000 0.000000 0.008154 0.000000 0.000000
    38 0.806017 -0.359836 -1.318334 0.415058 0.423434 -0.720789
    39 1.789784 0.000000 -0.000001 0.015105 0.038912 0.428454
    40 1.206998 0.000000 0.000000 0.004785 0.022541 0.418309
    41 -0.044717 2.313936 4.661499 -0.025078 -0.062516 -0.065268
    42 1.553711 -2.005859 -0.065857 -0.583922 0.091276 -1.371732
    43 2.676088 -1.712443 0.000000 -1.570796 0.000000 -1.570796
  time 8
    0 -0.525802 -60.165491 34.824616 1.526015 -0.036057 0.038717
    1 3.890452 -0.000004 -0.000003 -1.570796 0.051839 -1.565574
    2 17.848175 0.000000 0.000000 0.000000 0.000000 0.034200
    3 16.525249 0.000000 0.000000 -0.027915 -0.040782 -1.071638
    4 6.879453 0.000000 0.000000 -0.007299 -0.002951 -0.584373
    5 -3.890452 0.000004 0.000007 -1.570796 0.051845 -1.576021
    6 17.848171 0.000000 0.000000 0.000000 0.000000 0.034187
    7 16.525257 0.000000 0.000000 0.038611 0.040779 -1.071632
    8 6.879454 0.000000 0.000000 -0.081333 -0.002951 -0.584373
    9 0.117196 3.345128 -2.981901 1.566933 0.039101 1.494083
    10 4.018331 0.000000 0.000000 -0.026220 0.003631 0.102332
    11 3.518561 0.000000 0.000000 -0.012848 0.000659 0.070461
    12 8.942642 0.000000 0.000000 0.025834 -0.000156 0.121746
    13 3.307271 0.000000 0.000000 3.141590 0.000000 0.400478
    14 3.593710 -0.000003 0.000000 -0.034756 -0.060174 0.389642
    15 2.033346 1.000767 1.937660 1.802273 -1.395243 2.734683
    16 6.028142 0.000002 0.000000 -1.239059 -0.081713 -0.855029
    17 11.692556 0.000000 -0.000001 0.000000 0.000000 -2.015642
    18 11.481671 0.000000 -0.000029 2.589673 -0.219040 -0.026793
    19 3.883691 -0.046771 0.431443 0.096614 -0.011009 -0.677044
    20 1.719575 0.000000 0.000000 0.000000 0.000000 -0.154309
    21 1.209183 -0.000001 0.000000 0.000000 0.000000 -0.339470
    22 3.859861 -0.137948 1.332466 0.345266 0.010876 -0.494327
    23 1.719428 0.000001 0.000000 0.000000 0.000000 -0.309050
    24 1.099667 0.000000 0.000000 0.000000 0.000000 -0.538681
    25 0.806048 -0.348922 1.321258 -1.340931 -0.449481 -0.508806
    26 1.789783 0.000001 0.000001 -0.001068 -0.012853 0.157736
    27 1.207000 0.000000 0.000001 -0.000101 -0.003216 0.067661
    28 2.033354 1.000771 -1.937610 -2.173105 1.310587 2.445079
    29 6.028142 0.000004 0.000000 1.539284 0.479152 -0.656024
    30 11.692552 0.000000 0.000002 0.000000 0.000000 -1.363442
    31 11.481699 0.000000 0.000004 0.279763 0.232213 -0.285132
    32 3.883657 -0.050329 -0.431043 0.038252 0.016270 -0.451252
    33 1.719576 0.000003 0.000000 0.000000 0.000000 -0.483179
    34 1.209180 -0.000001 0.000000 0.000000 0.000000 -0.477027
    35 3.859830 -0.148938 -1.331282 -0.416102 -0.024164 -0.331351
    36 1.719426 0.000000 0.000000 -0.042633 0.230561 -0.493271
    37 1.099666 0.000000 0.000000 0.008154 0.000000 0.000000
    38 0.806017 -0.359836 -1.318334 0.415058 0.423434 -0.720789
    39 1.789784 0.000000 -0.000001 0.015105 0.038912 0.428454
    40 1.206998 0.000000 0.000000 0.004785 0.022541 0.418309
    41 -0.044717 2.313936 4.661499 -0.025214 -0.054423 -0.078499
    42 1.553711 -2.005859 -0.065857 -0.583922 0.091276 -1.371732
    43 2.676088 -1.712443 0.000000 -1.570796 0.000000 -1.570796
  time 9
    0 -0.338297 -63.033433 34.914462 1.517555 -0.065200 0.038429
    1 3.890452 -0.000004 -0.000003 -1.570796 0.051839 -1.565574
    2 17.848175 0.000000 0.000000 0.000000 0.000000 0.034200
    3 16.525249 0.000000 0.000000 -0.027915 -0.040782 -1.071638
    4 6.879453 0.000000 0.000000 -0.007299 -0.002951 -0.584373
    5 -3.890452 0.000004 0.000007 -1.570796 0.051845 -1.576021
    6 17.848171 0.000000 0.000000 0.000000 0.000000 0.034187
    7 16.525257 0.000000 0.000000 0.038611 0.040779 -1.071632
    8 6.879454 0.000000 0.000000 -0.081333 -0.002951 -0.584373
    9 0.214855 3.341221 -2.981901 1.566731 0.039051 1.475147
    10 4.018331 0.000000 0.000000 -0.030726 -0.000623 0.103586
    11 3.518561 0.000000 0.000000 -0.015717 -0.002924 0.071299
    12 8.942642 0.000000 0.000000 0.026804 0.002685 0.120587
    13 3.307271 0.000000 0.000000 3.141590 0.000000 0.400478
    14 3.593710 -0.000003 0.000000 -0.025928 -0.058624 0.384158
    15 2.033346 1.000767 1.937660 1.802273 -1.395243 2.734683
    16 6.028142 0.000002 0.000000 -1.249996 -0.067447 -0.858557
    17 11.692556 0.000000 -0.000001 0.000000 0.000000 -2.019979
    18 11.481671 0.000000 -0.000029 2.589864 -0.213435 -0.034382
    19 3.883691 -0.046771 0.431443 0.096614 -0.011009 -0.677044
    20 1.719575 0.000000 0.000000 0.000000 0.000000 -0.154309
    21 1.209183 -0.000001 0.000000 0.000000 0.000000 -0.339470
    22 3.859861 -0.137948 1.332466 0.345266 0.010876 -0.494327
    23 1.719428 0.000001 0.000000 0.000000 0.000000 -0.309050
    24 1.099667 0.000000 0.000000 0.000000 0.000000 -0.538681
    25 0.806048 -0.348922 1.321258 -1.340931 -0.449481 -0.508806
    26 1.789783 0.000001 0.000001 -0.001068 -0.012853 0.157736
    27 1.207000 0.000000 0.000001 -0.000101 -0.003216 0.067661
    28 2.033354 1.000771 -1.937610 -2.173105 1.310587 2.445079
    29 6.028142 0.000004 0.000000 1.533920 0.488058 -0.658111
    30 11.692552 0.000000 0.000002 0.000000 0.000000 -1.364599
    31 11.481699 0.000000 0.000004 0.275034 0.229765 -0.279826
    32 3.883657 -0.050329 -0.431043 0.038252 0.016270 -0.451252
    33 1.719576 0.000003 0.000000 0.000000 0.000000 -0.483179
    34 1.209180 -0.000001 0.000000 0.000000 0.000000 -0.477027
    35 3.859830 -0.148938 -1.331282 -0.416102 -0.024164 -0.331351
    36 1.719426 0.000000 0.000000 -0.042633 0.230561 -0.493271
    37 1.099666 0.000000 0.000000 0.008154 0.000000 0.000000
    38 0.806017 -0.359836 -1.318334 0.415058 0.423434 -0.720789
    39 1.789784 0.000000 -0.000001 0.015105 0.038912 0.428454
    40 1.206998 0.000000 0.000000 0.004785 0.022541 0.418309
    41 -0.044717 2.313936 4.661499 -0.025260 -0.046860 -0.097722
    42 1.553711 -2.005859 -0.065857 -0.583922 0.091276 -1.371732
    43 2.676088 -1.712443 0.000000 -1.570796 0.000000 -1.570796
  time 10
    0 -0.166416 -65.735916 35.207440 1.510112 -0.088797 0.039866
    1 3.890452 -0.000004 -0.000003 -1.570796 0.051839 -1.565574
    2 17.848175 0.000000 0.000000 0.000000 0.000000 0.034200
    3 16.525249 0.000000 0.000000 -0.027915 -0.040782 -1.071638
    4 6.879453 0.000000 0.000000 -0.007299 -0.002951 -0.584373
    5 -3.890452 0.000004 0.000007 -1.570796 0.051845 -1.576021
    6 17.848171 0.000000 0.000000 0.000000 0.000000 0.034187
    7 16.525257 0.000000 0.000000 0.038611 0.040779 -1.071632
    8 6.879454 0.000000 0.000000 -0.081333 -0.002951 -0.584373
    9 0.296889 3.333409 -2.981901 1.566530 0.039017 1.459699
    10 4.018331 0.000000 0.000000 -0.036275 -0.003236 0.104179
    11 3.518561 0.000000 0.000000 -0.020226 -0.004974 0.071967
    12 8.942642 0.000000 0.000000 0.027597 0.004542 0.120837
    13 3.307271 0.000000 0.000000 3.141590 0.000000 0.400478
    14 3.593710 -0.000003 0.000000 -0.014047 -0.054314 0.374853
    15 2.033346 1.000767 1.937660 1.802273 -1.395243 2.734683
    16 6.028142 0.000002 0.000000 -1.264327 -0.050747 -0.862549
    17 11.692556 0.000000 -0.000001 0.000000 0.000000 -2.025419
    18 11.481671 0.000000 -0.000029 2.590341 -0.206959 -0.042287
    19 3.883691 -0.046771 0.431443 0.096614 -0.011009 -0.677044
    20 1.719575 0.000000 0.000000 0.000000 0.000000 -0.154309
    21 1.209183 -0.000001 0.000000 0.000000 0.000000 -0.339470
    22 3.859861 -0.137948 1.332466 0.345266 0.010876 -0.494327
    23 1.719428 0.000001 0.000000 0.000000 0.000000 -0.309050
    24 1.099667 0.000000 0.000000 0.000000 0.000000 -0.538681
    25 0.806048 -0.348922 1.321258 -1.340931 -0.449481 -0.508806
    26 1.789783 0.000001 0.000001 -0.001068 -0.012853 0.157736
    27 1.207000 0.000000 0.000001 -0.000101 -0.003216 0.067661
    28 2.033354 1.000771 -1.937610 -2.173105 1.310587 2.445079
    29 6.028142 0.000004 0.000000 1.526065 0.502127 -0.660579
    30 11.692552 0.000000 0.000002 0.000000 0.000000 -1.361851
    31 11.481699 0.000000 0.000004 0.270694 0.227799 -0.275490
    32 3.883657 -0.050329 -0.431043 0.038252 0.016270 -0.451252
    33 1.719576 0.000003 0.000000 0.000000 0.000000 -0.483179
    34 1.209180 -0.000001 0.000000 0.000000 0.000000 -0.477027
    35 3.859830 -0.148938 -1.331282 -0.416102 -0.024164 -0.331351
    36 1.719426 0.000000 0.000000 -0.042633 0.230561 -0.493271
    37 1.099666 0.000000 0.000000 0.008154 0.000000 0.000000
    38 0.806017 -0.359836 -1.318334 0.415058 0.423434 -0.720789
    39 1.789784 0.000000 -0.000001 0.015105 0.038912 0.428454
    40 1.206998 0.000000 0.000000 0.004785 0.022541 0.418309
    41 -0.044717 2.313936 4.661499 -0.025214 -0.040700 -0.113578
    42 1.553711 -2.005859 -0.065857 -0.583922 0.091276 -1.371732
    43 2.676088 -1.712443 0.000000 -1.570796 0.000000 -1.570796
  time 11
    0 -0.041412 -68.272942 35.711362 1.505023 -0.100392 0.040345
    1 3.890452 -0.000004 -0.000003 -1.570796 0.051839 -1.565574
    2 17.848175 0.000000 0.000000 0.000000 0.000000 0.034200
    3 16.525249 0.000000 0.000000 -0.027915 -0.040782 -1.071638
    4 6.879453 0.000000 0.000000 -0.007299 -0.002951 -0.584373
    5 -3.890452 0.000004 0.000007 -1.570796 0.051845 -1.576021
    6 17.848171 0.000000 0.000000 0.000000 0.000000 0.034187
    7 16.525257 0.000000 0.000000 0.038611 0.040779 -1.071632
    8 6.879454 0.000000 0.000000 -0.081333 -0.002951 -0.584373
    9 0.332046 3.329502 -2.981901 1.566402 0.038984 1.453359
    10 4.018331 0.000000 0.000000 -0.042433 -0.003931 0.103761
    11 3.518561 0.000000 0.000000 -0.025999 -0.005237 0.072168
    12 8.942642 0.000000 0.000000 0.028143 0.005357 0.122655
    13 3.307271 0.000000 0.000000 3.141590 0.000000 0.400478
    14 3.593710 -0.000003 0.000000 0.000000 -0.047891 0.363269
    15 2.033346 1.000767 1.937660 1.802273 -1.395243 2.734683
    16 6.028142 0.000002 0.000000 -1.280544 -0.033218 -0.866633
    17 11.692556 0.000000 -0.000001 0.000000 0.000000 -2.030702
    18 11.481671 0.000000 -0.000029 2.590724 -0.200440 -0.049994
    19 3.883691 -0.046771 0.431443 0.096614 -0.011009 -0.677044
    20 1.719575 0.000000 0.000000 0.000000 0.000000 -0.154309
    21 1.209183 -0.000001 0.000000 0.000000 0.000000 -0.339470
    22 3.859861 -0.137948 1.332466 0.345266 0.010876 -0.494327
    23 1.719428 0.000001 0.000000 0.000000 0.000000 -0.309050
    24 1.099667 0.000000 0.000000 0.000000 0.000000 -0.538681
    25 0.806048 -0.348922 1.321258 -1.340931 -0.449481 -0.508806
    26 1.789783 0.000001 0.000001 -0.001068 -0.012853 0.157736
    27 1.207000 0.000000 0.000001 -0.000101 -0.003216 0.067661
    28 2.033354 1.000771 -1.937610 -2.173105 1.310587 2.445079
    29 6.028142 0.000004 0.000000 1.515912 0.520412 -0.663141
    30 11.692552 0.000000 0.000002 0.000000 0.000000 -1.354258
    31 11.481699 0.000000 0.000004 0.267520 0.226696 -0.272922
    32 3.883657 -0.050329 -0.431043 0.038252 0.016270 -0.451252
    33 1.719576 0.000003 0.000000 0.000000 0.000000 -0.483179
    34 1.209180 -0.000001 0.000000 0.000000 0.000000 -0.477027
    35 3.859830 -0.148938 -1.331282 -0.416102 -0.024164 -0.331351
    36 1.719426 0.000000 0.000000 -0.042633 0.230561 -0.493271
    37 1.099666 0.000000 0.000000 0.008154 0.000000 0.000000
    38 0.806017 -0.359836 -1.318334 0.415058 0.423434 -0.720789
    39 1.789784 0.000000 -0.000001 0.015105 0.038912 0.428454
    40 1.206998 0.000000 0.000000 0.004785 0.022541 0.418309
    41 -0.044717 2.313936 4.661499 -0.024941 -0.034743 -0.120193
    42 1.553711 -2.005859 -0.065857 -0.583922 0.091276 -1.371732
    43 2.676088 -1.712443 0.000000 -1.570796 0.000000 -1.570796
  time 12
    0 0.036715 -70.718046 36.371538 1.502352 -0.098598 0.039483
    1 3.890452 -0.000004 -0.000003 -1.570796 0.051839 -1.565574
    2 17.848175 0.000000 0.000000 0.000000 0.000000 0.034200
    3 16.525249 0.000000 0.000000 -0.027915 -0.040782 -1.071638
    4 6.879453 0.000000 0.000000 -0.007299 -0.002951 -0.584373
    5 -3.890452 0.000004 0.000007 -1.570796 0.051845 -1.576021
    6 17.848171 0.000000 0.000000 0.000000 0.000000 0.034187
    7 16.525257 0.000000 0.000000 0.038611 0.040779 -1.071632
    8 6.879454 0.000000 0.000000 -0.081333 -0.002951 -0.584373
    9 0.328140 3.329502 -2.981901 1.566347 0.038984 1.457434
    10 4.018331 0.000000 0.000000 -0.048928 -0.002804 0.102210
    11 3.518561 0.000000 0.000000 -0.032771 -0.003775 0.071718
    12 8.942642 0.000000 0.000000 0.028460 0.005345 0.125856
    13 3.307271 0.000000 0.000000 3.141590 0.000000 0.400478
    14 3.593710 -0.000003 0.000000 0.014713 -0.039863 0.351808
    15 2.033346 1.000767 1.937660 1.802273 -1.395243 2.734683
    16 6.028142 0.000002 0.000000 -1.297704 -0.015690 -0.870903
    17 11.692556 0.000000 -0.000001 0.000000 0.000000 -2.035196
    18 11.481671 0.000000 -0.000029 2.591010 -0.194213 -0.057424
    19 3.883691 -0.046771 0.431443 0.096614 -0.011009 -0.677044
    20 1.719575 0.000000 0.000000 0.000000 0.000000 -0.154309
    21 1.209183 -0.000001 0.000000 0.000000 0.000000 -0.339470
    22 3.859861 -0.137948 1.332466 0.345266 0.010876 -0.494327
    23 1.719428 0.000001 0.000000 0.000000 0.000000 -0.309050
    24 1.099667 0.000000 0.000000 0.000000 0.000000 -0.538681
    25 0.806048 -0.348922 1.321258 -1.340931 -0.449481 -0.508806
    26 1.789783 0.000001 0.000001 -0.001068 -0.012853 0.157736
    27 1.207000 0.000000 0.000001 -0.000101 -0.003216 0.067661
    28 2.033354 1.000771 -1.937610 -2.173105 1.310587 2.445079
    29 6.028142 0.000004 0.000000 1.503746 0.541919 -0.665893
    30 11.692552 0.000000 0.000002 0.000000 0.000000 -1.341818
    31 11.481699 0.000000 0.000004 0.265641 0.226386 -0.272466
    32 3.883657 -0.050329 -0.431043 0.038252 0.016270 -0.451252
    33 1.719576 0.000003 0.000000 0.000000 0.000000 -0.483179
    34 1.209180 -0.000001 0.000000 0.000000 0.000000 -0.477027
    35 3.859830 -0.148938 -1.331282 -0.416102 -0.024164 -0.331351
    36 1.719426 0.000000 0.000000 -0.042633 0.230561 -0.493271
    37 1.099666 0.000000 0.000000 0.008154 0.000000 0.000000
    38 0.806017 -0.359836 -1.318334 0.415058 0.423434 -0.720789
    39 1.789784 0.000000 -0.000001 0.015105 0.038912 0.428454
    40 1.206998 0.000000 0.000000 0.004785 0.022541 0.418309
    41 -0.044717 2.313936 4.661499 -0.024487 -0.027601 -0.115915
    42 1.553711 -2.005859 -0.065857 -0.583922 0.091276 -1.371732
    43 2.676088 -1.712443 0.000000 -1.570796 0.000000 -1.570796
  time 13
    0 -0.006255 -73.138638 37.059059 1.501843 -0.087966 0.038429
    1 3.890452 -0.000004 -0.000003 -1.570796 0.051839 -1.565574
    2 17.848175 0.000000 0.000000 0.000000 0.000000 0.034200
    3 16.525249 0.000000 0.000000 -0.027915 -0.040782 -1.071638
    4 6.879453 0.000000 0.000000 -0.007299 -0.002951 -0.584373
    5 -3.890452 0.000004 0.000007 -1.570796 0.051845 -1.576021
    6 17.848171 0.000000 0.000000 0.000000 0.000000 0.034187
    7 16.525257 0.000000 0.000000 0.038611 0.040779 -1.071632
    8 6.879454 0.000000 0.000000 -0.081333 -0.002951 -0.584373
    9 0.292983 3.333409 -2.981901 1.566402 0.039000 1.468040
    10 4.018331 0.000000 0.000000 -0.055615 -0.000336 0.099526
    11 3.518561 0.000000 0.000000 -0.040237 -0.001007 0.070539
    12 8.942642 0.000000 0.000000 0.028566 0.004842 0.130204
    13 3.307271 0.000000 0.000000 3.141590 0.000000 0.400478
    14 3.593710 -0.000003 0.000000 0.028315 -0.030510 0.342380
    15 2.033346 1.000767 1.937660 1.802273 -1.395243 2.734683
    16 6.028142 0.000002 0.000000 -1.315335 0.001595 -0.875823
    17 11.692556 0.000000 -0.000001 0.000000 0.000000 -2.038350
    18 11.481671 0.000000 -0.000029 2.591106 -0.188193 -0.064736
    19 3.883691 -0.046771 0.431443 0.096614 -0.011009 -0.677044
    20 1.719575 0.000000 0.000000 0.000000 0.000000 -0.154309
    21 1.209183 -0.000001 0.000000 0.000000 0.000000 -0.339470
    22 3.859861 -0.137948 1.332466 0.345266 0.010876 -0.494327
    23 1.719428 0.000001 0.000000 0.000000 0.000000 -0.309050
    24 1.099667 0.000000 0.000000 0.000000 0.000000 -0.538681
    25 0.806048 -0.348922 1.321258 -1.340931 -0.449481 -0.508806
    26 1.789783 0.000001 0.000001 -0.001068 -0.012853 0.157736
    27 1.207000 0.000000 0.000001 -0.000101 -0.003216 0.067661
    28 2.033354 1.000771 -1.937610 -2.173105 1.310587 2.445079
    29 6.028142 0.000004 0.000000 1.489761 0.565936 -0.668929
    30 11.692552 0.000000 0.000002 0.000000 0.000000 -1.324751
    31 11.481699 0.000000 0.000004 0.265058 0.226627 -0.274006
    32 3.883657 -0.050329 -0.431043 0.038252 0.016270 -0.451252
    33 1.719576 0.000003 0.000000 0.000000 0.000000 -0.483179
    34 1.209180 -0.000001 0.000000 0.000000 0.000000 -0.477027
    35 3.859830 -0.148938 -1.331282 -0.416102 -0.024164 -0.331351
    36 1.719426 0.000000 0.000000 -0.042633 0.230561 -0.493271
    37 1.099666 0.000000 0.000000 0.008154 0.000000 0.000000
    38 0.806017 -0.359836 -1.318334 0.415058 0.423434 -0.720789
    39 1.789784 0.000000 -0.000001 0.015105 0.038912 0.428454
    40 1.206998 0.000000 0.000000 0.004785 0.022541 0.418309
    41 -0.044717 2.313936 4.661499 -0.023986 -0.019820 -0.104649
    42 1.553711 -2.005859 -0.065857 -0.583922 0.091276 -1.371732
    43 2.676088 -1.712443 0.000000 -1.570796 0.000000 -1.570796
  time 14
    0 0.001558 -75.589870 37.594231 1.509603 -0.085797 0.053182
    1 3.890452 -0.000004 -0.000003 -1.570796 0.051839 -1.565574
    2 17.848175 0.000000 0.000000 0.000000 0.000000 0.034200
    3 16.525249 0.000000 0.000000 -0.027915 -0.040782 -1.071638
    4 6.879453 0.000000 0.000000 -0.007299 -0.002951 -0.584373
    5 -3.890452 0.000004 0.000007 -1.570796 0.051845 -1.576021
    6 17.848171 0.000000 0.000000 0.000000 0.000000 0.034187
    7 16.525257 0.000000 0.000000 0.038611 0.040779 -1.071632
    8 6.879454 0.000000 0.000000 -0.081333 -0.002951 -0.584373
    9 0.285170 3.333409 -2.981901 1.566988 0.039034 1.474536
    10 4.018331 0.000000 0.000000 -0.064115 0.000959 0.091632
    11 3.518561 0.000000 0.000000 -0.048720 0.001127 0.067528
    12 8.942642 0.000000 0.000000 0.030610 0.005860 0.144761
    13 3.307271 0.000000 0.000000 3.141590 0.000000 0.400478
    14 3.593710 -0.000003 0.000000 0.036088 -0.010875 0.322909
    15 2.033346 1.000767 1.937660 1.802273 -1.395243 2.734683
    16 6.028142 0.000002 0.000000 -1.340037 0.013281 -0.886313
    17 11.692556 0.000000 -0.000001 0.000000 0.000000 -2.032831
    18 11.481671 0.000000 -0.000029 2.588240 -0.178063 -0.077582
    19 3.883691 -0.046771 0.431443 0.096614 -0.011009 -0.677044
    20 1.719575 0.000000 0.000000 0.000000 0.000000 -0.154309
    21 1.209183 -0.000001 0.000000 0.000000 0.000000 -0.339470
    22 3.859861 -0.137948 1.332466 0.345266 0.010876 -0.494327
    23 1.719428 0.000001 0.000000 0.000000 0.000000 -0.309050
    24 1.099667 0.000000 0.000000 0.000000 0.000000 -0.538681
    25 0.806048 -0.348922 1.321258 -1.340931 -0.449481 -0.508806
    26 1.789783 0.000001 0.000001 -0.001068 -0.012853 0.157736
    27 1.207000 0.000000 0.000001 -0.000101 -0.003216 0.067661
    28 2.033354 1.000771 -1.937610 -2.173105 1.310587 2.445079
    29 6.028142 0.000004 0.000000 1.475584 0.600991 -0.663425
    30 11.692552 0.000000 0.000002 0.000000 0.000000 -1.299366
    31 11.481699 0.000000 0.000004 0.267390 0.230075 -0.274405
    32 3.883657 -0.050329 -0.431043 0.038252 0.016270 -0.451252
    33 1.719576 0.000003 0.000000 0.000000 0.000000 -0.483179
    34 1.209180 -0.000001 0.000000 0.000000 0.000000 -0.477027
    35 3.859830 -0.148938 -1.331282 -0.416102 -0.024164 -0.331351
    36 1.719426 0.000000 0.000000 -0.042633 0.230561 -0.493271
    37 1.099666 0.000000 0.000000 0.008154 0.000000 0.000000
    38 0.806017 -0.359836 -1.318334 0.415058 0.423434 -0.720789
    39 1.789784 0.000000 -0.000001 0.015105 0.038912 0.428454
    40 1.206998 0.000000 0.000000 0.004785 0.022541 0.418309
    41 -0.044717 2.313936 4.661499 -0.023440 -0.011290 -0.097147
    42 1.553711 -2.005859 -0.065857 -0.583922 0.091276 -1.371732
    43 2.676088 -1.712443 0.000000 -1.570796 0.000000 -1.570796
  time 15
    0 0.044528 -0.067404 38.133310 1.518382 -0.085193 0.070043
    1 3.890452 -0.000004 -0.000003 -1.570796 0.051839 -1.565574
    2 17.848175 0.000000 0.000000 0.000000 0.000000 0.034200
    3 16.525249 0.000000 0.000000 -0.027915 -0.040782 -1.071638
    4 6.879453 0.000000 0.000000 -0.007299 -0.002951 -0.584373
    5 -3.890452 0.000004 0.000007 -1.570796 0.051845 -1.576021
    6 17.848171 0.000000 0.000000 0.000000 0.000000 0.034187
    7 16.525257 0.000000 0.000000 0.038611 0.040779 -1.071632
    8 6.879454 0.000000 0.000000 -0.081333 -0.002951 -0.584373
    9 0.281264 3.333409 -2.981901 1.567647 0.039067 1.480169
    10 4.018331 0.000000 0.000000 -0.072630 0.001989 0.083127
    11 3.518561 0.000000 0.000000 -0.057113 0.003116 0.064284
    12 8.942642 0.000000 0.000000 0.032919 0.007047 0.160543
    13 3.307271 0.000000 0.000000 3.141590 0.000000 0.400478
    14 3.593710 -0.000003 0.000000 0.041696 0.010309 0.302759
    15 2.033346 1.000767 1.937660 1.802273 -1.395243 2.734683
    16 6.028142 0.000002 0.000000 -1.364928 0.022970 -0.897545
    17 11.692556 0.000000 -0.000001 0.000000 0.000000 -2.025892
    18 11.481671 0.000000 -0.000029 2.584513 -0.168016 -0.090862
    19 3.883691 -0.046771 0.431443 0.096614 -0.011009 -0.677044
    20 1.719575 0.000000 0.000000 0.000000 0.000000 -0.154309
    21 1.209183 -0.000001 0.000000 0.000000 0.000000 -0.339470
    22 3.859861 -0.137948 1.332466 0.345266 0.010876 -0.494327
    23 1.719428 0.000001 0.000000 0.000000 0.000000 -0.309050
    24 1.099667 0.000000 0.000000 0.000000 0.000000 -0.538681
    25 0.806048 -0.348922 1.321258 -1.340931 -0.449481 -0.508806
    26 1.789783 0.000001 0.000001 -0.001068 -0.012853 0.157736
    27 1.207000 0.000000 0.000001 -0.000101 -0.003216 0.067661
    28 2.033354 1.000771 -1.937610 -2.173105 1.310587 2.445079
    29 6.028142 0.000004 0.000000 1.461982 0.636852 -0.657068
    30 11.692552 0.000000 0.000002 0.000000 0.000000 -1.272752
    31 11.481699 0.000000 0.000004 0.270370 0.233626 -0.274976
    32 3.883657 -0.050329 -0.431043 0.038252 0.016270 -0.451252
    33 1.719576 0.000003 0.000000 0.000000 0.000000 -0.483179
    34 1.209180 -0.000001 0.000000 0.000000 0.000000 -0.477027
    35 3.859830 -0.148938 -1.331282 -0.416102 -0.024164 -0.331351
    36 1.719426 0.000000 0.000000 -0.042633 0.230561 -0.493271
    37 1.099666 0.000000 0.000000 0.008154 0.000000 0.000000
    38 0.806017 -0.359836 -1.318334 0.415058 0.423434 -0.720789
    39 1.789784 0.000000 -0.000001 0.015105 0.038912 0.428454
    40 1.206998 0.000000 0.000000 0.004785 0.022541 0.418309
    41 -0.044717 2.313936 4.661499 -0.022985 -0.003306 -0.090400
    42 1.553711 -2.005859 -0.065857 -0.583922 0.091276 -1.371732
    43 2.676088 -1.712443 0.000000 -1.570796 0.000000 -1.570796
  time 16
    0 0.153906 -2.549277 38.238782 1.525061 -0.077952 0.077324
    1 3.890452 -0.000004 -0.000003 -1.570796 0.051839 -1.565574
    2 17.848175 0.000000 0.000000 0.000000 0.000000 0.034200
    3 16.525249 0.000000 0.000000 -0.027915 -0.040782 -1.071638
    4 6.879453 0.000000 0.000000 -0.007299 -0.002951 -0.584373
    5 -3.890452 0.000004 0.000007 -1.570796 0.051845 -1.576021
    6 17.848171 0.000000 0.000000 0.000000 0.000000 0.034187
    7 16.525257 0.000000 0.000000 0.038611 0.040779 -1.071632
    8 6.879454 0.000000 0.000000 -0.081333 -0.002951 -0.584373
    9 0.253919 3.337315 -2.981901 1.568031 0.039117 1.486041
    10 4.018331 0.000000 0.000000 -0.081370 0.005285 0.079328
    11 3.518561 0.000000 0.000000 -0.066843 0.007071 0.062050
    12 8.942642 0.000000 0.000000 0.033095 0.007550 0.165167
    13 3.307271 0.000000 0.000000 3.141590 0.000000 0.400478
    14 3.593710 -0.000003 0.000000 0.042750 0.011465 0.314775
    15 2.033346 1.000767 1.937660 1.802273 -1.395243 2.734683
    16 6.028142 0.000002 0.000000 -1.385011 0.043712 -0.905343
    17 11.692556 0.000000 -0.000001 0.000000 0.000000 -2.028100
    18 11.481671 0.000000 -0.000029 2.584609 -0.162328 -0.099320
    19 3.883691 -0.046771 0.431443 0.096614 -0.011009 -0.677044
    20 1.719575 0.000000 0.000000 0.000000 0.000000 -0.154309
    21 1.209183 -0.000001 0.000000 0.000000 0.000000 -0.339470
    22 3.859861 -0.137948 1.332466 0.345266 0.010876 -0.494327
    23 1.719428 0.000001 0.000000 0.000000 0.000000 -0.309050
    24 1.099667 0.000000 0.000000 0.000000 0.000000 -0.538681
    25 0.806048 -0.348922 1.321258 -1.340931 -0.449481 -0.508806
    26 1.789783 0.000001 0.000001 -0.001068 -0.012853 0.157736
    27 1.207000 0.000000 0.000001 -0.000101 -0.003216 0.067661
    28 2.033354 1.000771 -1.937610 -2.173105 1.310587 2.445079
    29 6.028142 0.000004 0.000000 1.440909 0.667027 -0.660674
    30 11.692552 0.000000 0.000002 0.000000 0.000000 -1.246283
    31 11.481699 0.000000 0.000004 0.273544 0.235971 -0.280054
    32 3.883657 -0.050329 -0.431043 0.038252 0.016270 -0.451252
    33 1.719576 0.000003 0.000000 0.000000 0.000000 -0.483179
    34 1.209180 -0.000001 0.000000 0.000000 0.000000 -0.477027
    35 3.859830 -0.148938 -1.331282 -0.416102 -0.024164 -0.331351
    36 1.719426 0.000000 0.000000 -0.042633 0.230561 -0.493271
    37 1.099666 0.000000 0.000000 0.008154 0.000000 0.000000
    38 0.806017 -0.359836 -1.318334 0.415058 0.423434 -0.720789
    39 1.789784 0.000000 -0.000001 0.015105 0.038912 0.428454
    40 1.206998 0.000000 0.000000 0.004785 0.022541 0.418309
    41 -0.044717 2.313936 4.661499 -0.023304 0.007797 -0.080177
    42 1.553711 -2.005859 -0.065857 -0.583922 0.091276 -1.371732
    43 2.676088 -1.712443 0.000000 -1.570796 0.000000 -1.570796
  time 17
    0 0.259378 -5.025021 38.000494 1.532503 -0.075229 0.085754
    1 3.890452 -0.000004 -0.000003 -1.570796 0.051839 -1.565574
    2 17.848175 0.000000 0.000000 0.000000 0.000000 0.034200
    3 16.525249 0.000000 0.000000 -0.027915 -0.040782 -1.071638
    4 6.879453 0.000000 0.000000 -0.007299 -0.002951 -0.584373
    5 -3.890452 0.000004 0.000007 -1.570796 0.051845 -1.576021
    6 17.848171 0.000000 0.000000 0.000000 0.000000 0.034187
    7 16.525257 0.000000 0.000000 0.038611 0.040779 -1.071632
    8 6.879454 0.000000 0.000000 -0.081333 -0.002951 -0.584373
    9 0.238294 3.337315 -2.981901 1.568416 0.039168 1.487455
    10 4.018331 0.000000 0.000000 -0.089918 0.008293 0.075459
    11 3.518561 0.000000 0.000000 -0.076376 0.010918 0.059380
    12 8.942642 0.000000 0.000000 0.033112 0.009144 0.168816
    13 3.307271 0.000000 0.000000 3.141590 0.000000 0.400478
    14 3.593710 -0.000003 0.000000 0.043417 0.013465 0.328270
    15 2.033346 1.000767 1.937660 1.802273 -1.395243 2.734683
    16 6.028142 0.000002 0.000000 -1.403773 0.064503 -0.914348
    17 11.692556 0.000000 -0.000001 0.000000 0.000000 -2.029283
    18 11.481671 0.000000 -0.000029 2.585278 -0.157097 -0.107660
    19 3.883691 -0.046771 0.431443 0.096614 -0.011009 -0.677044
    20 1.719575 0.000000 0.000000 0.000000 0.000000 -0.154309
    21 1.209183 -0.000001 0.000000 0.000000 0.000000 -0.339470
    22 3.859861 -0.137948 1.332466 0.345266 0.010876 -0.494327
    23 1.719428 0.000001 0.000000 0.000000 0.000000 -0.309050
    24 1.099667 0.000000 0.000000 0.000000 0.000000 -0.538681
    25 0.806048 -0.348922 1.321258 -1.340931 -0.449481 -0.508806
    26 1.789783 0.000001 0.000001 -0.001068 -0.012853 0.157736
    27 1.207000 0.000000 0.000001 -0.000101 -0.003216 0.067661
    28 2.033354 1.000771 -1.937610 -2.173105 1.310587 2.445079
    29 6.028142 0.000004 0.000000 1.418398 0.696019 -0.665418
    30 11.692552 0.000000 0.000002 0.000000 0.000000 -1.218078
    31 11.481699 0.000000 0.000004 0.277626 0.238246 -0.286558
    32 3.883657 -0.050329 -0.431043 0.038252 0.016270 -0.451252
    33 1.719576 0.000003 0.000000 0.000000 0.000000 -0.483179
    34 1.209180 -0.000001 0.000000 0.000000 0.000000 -0.477027
    35 3.859830 -0.148938 -1.331282 -0.416102 -0.024164 -0.331351
    36 1.719426 0.000000 0.000000 -0.042633 0.230561 -0.493271
    37 1.099666 0.000000 0.000000 0.008154 0.000000 0.000000
    38 0.806017 -0.359836 -1.318334 0.415058 0.423434 -0.720789
    39 1.789784 0.000000 -0.000001 0.015105 0.038912 0.428454
    40 1.206998 0.000000 0.000000 0.004785 0.022541 0.418309
    41 -0.044717 2.313936 4.661499 -0.023486 0.021083 -0.074077
    42 1.553711 -2.005859 -0.065857 -0.583922 0.091276 -1.371732
    43 2.676088 -1.712443 0.000000 -1.570796 0.000000 -1.570796
  time 18
    0 0.317973 -7.519150 37.496572 1.539500 -0.076876 0.095621
    1 3.890452 -0.000004 -0.000003 -1.570796 0.051839 -1.565574
    2 17.848175 0.000000 0.000000 0.000000 0.000000 0.034200
    3 16.525249 0.000000 0.000000 -0.027915 -0.040782 -1.071638
    4 6.879453 0.000000 0.000000 -0.007299 -0.002951 -0.584373
    5 -3.890452 0.000004 0.000007 -1.570796 0.051845 -1.576021
    6 17.848171 0.000000 0.000000 0.000000 0.000000 0.034187
    7 16.525257 0.000000 0.000000 0.038611 0.040779 -1.071632
    8 6.879454 0.000000 0.000000 -0.081333 -0.002951 -0.584373
    9 0.238294 3.337315 -2.981901 1.568745 0.039201 1.483860
    10 4.018331 0.000000 0.000000 -0.098048 0.011122 0.071852
    11 3.518561 0.000000 0.000000 -0.085536 0.014669 0.056432
    12 8.942642 0.000000 0.000000 0.032883 0.011385 0.170976
    13 3.307271 0.000000 0.000000 3.141590 0.000000 0.400478
    14 3.593710 -0.000003 0.000000 0.044472 0.016282 0.340963
    15 2.033346 1.000767 1.937660 1.802273 -1.395243 2.734683
    16 6.028142 0.000002 0.000000 -1.420556 0.085391 -0.923538
    17 11.692556 0.000000 -0.000001 0.000000 0.000000 -2.030071
    18 11.481671 0.000000 -0.000029 2.586233 -0.152779 -0.115446
    19 3.883691 -0.046771 0.431443 0.096614 -0.011009 -0.677044
    20 1.719575 0.000000 0.000000 0.000000 0.000000 -0.154309
    21 1.209183 -0.000001 0.000000 0.000000 0.000000 -0.339470
    22 3.859861 -0.137948 1.332466 0.345266 0.010876 -0.494327
    23 1.719428 0.000001 0.000000 0.000000 0.000000 -0.309050
    24 1.099667 0.000000 0.000000 0.000000 0.000000 -0.538681
    25 0.806048 -0.348922 1.321258 -1.340931 -0.449481 -0.508806
    26 1.789783 0.000001 0.000001 -0.001068 -0.012853 0.157736
    27 1.207000 0.000000 0.000001 -0.000101 -0.003216 0.067661
    28 2.033354 1.000771 -1.937610 -2.173105 1.310587 2.445079
    29 6.028142 0.000004 0.000000 1.394834 0.722926 -0.672535
    30 11.692552 0.000000 0.000002 0.000000 0.000000 -1.189005
    31 11.481699 0.000000 0.000004 0.281836 0.239763 -0.294432
    32 3.883657 -0.050329 -0.431043 0.038252 0.016270 -0.451252
    33 1.719576 0.000003 0.000000 0.000000 0.000000 -0.483179
    34 1.209180 -0.000001 0.000000 0.000000 0.000000 -0.477027
    35 3.859830 -0.148938 -1.331282 -0.416102 -0.024164 -0.331351
    36 1.719426 0.000000 0.000000 -0.042633 0.230561 -0.493271
    37 1.099666 0.000000 0.000000 0.008154 0.000000 0.000000
    38 0.806017 -0.359836 -1.318334 0.415058 0.423434 -0.720789
    39 1.789784 0.000000 -0.000001 0.015105 0.038912 0.428454
    40 1.206998 0.000000 0.000000 0.004785 0.022541 0.418309
    41 -0.044717 2.313936 4.661499 -0.023622 0.035663 -0.073022
    42 1.553711 -2.005859 -0.065857 -0.583922 0.091276 -1.371732
    43 2.676088 -1.712443 0.000000 -1.570796 0.000000 -1.570796
  time 19
    0 0.298442 -10.092944 36.871553 1.544970 -0.073109 0.105967
    1 3.890452 -0.000004 -0.000003 -1.570796 0.051839 -1.565574
    2 17.848175 0.000000 0.000000 0.000000 0.000000 0.034200
    3 16.525249 0.000000 0.000000 -0.027915 -0.040782 -1.071638
    4 6.879453 0.000000 0.000000 -0.007299 -0.002951 -0.584373
    5 -3.890452 0.000004 0.000007 -1.570796 0.051845 -1.576021
    6 17.848171 0.000000 0.000000 0.000000 0.000000 0.034187
    7 16.525257 0.000000 0.000000 0.038611 0.040779 -1.071632
    8 6.879454 0.000000 0.000000 -0.081333 -0.002951 -0.584373
    9 0.222668 3.341221 -2.981901 1.568947 0.039251 1.483752
    10 4.018331 0.000000 0.000000 -0.105249 0.014190 0.068767
    11 3.518561 0.000000 0.000000 -0.093929 0.018564 0.053436
    12 8.942642 0.000000 0.000000 0.032302 0.013579 0.171490
    13 3.307271 0.000000 0.000000 3.141590 0.000000 0.400478
    14 3.593710 -0.000003 0.000000 0.046026 0.020169 0.350945
    15 2.033346 1.000767 1.937660 1.802273 -1.395243 2.734683
    16 6.028142 0.000002 0.000000 -1.434133 0.105208 -0.931521
    17 11.692556 0.000000 -0.000001 0.000000 0.000000 -2.030781
    18 11.481671 0.000000 -0.000029 2.587475 -0.150164 -0.121810
    19 3.883691 -0.046771 0.431443 0.096614 -0.011009 -0.677044
    20 1.719575 0.000000 0.000000 0.000000 0.000000 -0.154309
    21 1.209183 -0.000001 0.000000 0.000000 0.000000 -0.339470
    22 3.859861 -0.137948 1.332466 0.345266 0.010876 -0.494327
    23 1.719428 0.000001 0.000000 0.000000 0.000000 -0.309050
    24 1.099667 0.000000 0.000000 0.000000 0.000000 -0.538681
    25 0.806048 -0.348922 1.321258 -1.340931 -0.449481 -0.508806
    26 1.789783 0.000001 0.000001 -0.001068 -0.012853 0.157736
    27 1.207000 0.000000 0.000001 -0.000101 -0.003216 0.067661
    28 2.033354 1.000771 -1.937610 -2.173105 1.310587 2.445079
    29 6.028142 0.000004 0.000000 1.371558 0.746280 -0.682404
    30 11.692552 0.000000 0.000002 0.000000 0.000000 -1.160656
    31 11.481699 0.000000 0.000004 0.285399 0.240074 -0.303561
    32 3.883657 -0.050329 -0.431043 0.038252 0.016270 -0.451252
    33 1.719576 0.000003 0.000000 0.000000 0.000000 -0.483179
    34 1.209180 -0.000001 0.000000 0.000000 0.000000 -0.477027
    35 3.859830 -0.148938 -1.331282 -0.416102 -0.024164 -0.331351
    36 1.719426 0.000000 0.000000 -0.042633 0.230561 -0.493271
    37 1.099666 0.000000 0.000000 0.008154 0.000000 0.000000
    38 0.806017 -0.359836 -1.318334 0.415058 0.423434 -0.720789
    39 1.789784 0.000000 -0.000001 0.015105 0.038912 0.428454
    40 1.206998 0.000000 0.000000 0.004785 0.022541 0.418309
    41 -0.044717 2.313936 4.661499 -0.023577 0.050618 -0.068792
    42 1.553711 -2.005859 -0.065857 -0.583922 0.091276 -1.371732
    43 2.676088 -1.712443 0.000000 -1.570796 0.000000 -1.570796
  time 20
    0 0.200782 -12.795427 36.262160 1.548215 -0.074414 0.115356
    1 3.890452 -0.000004 -0.000003 -1.570796 0.051839 -1.565574
    2 17.848175 0.000000 0.000000 0.000000 0.000000 0.034200
    3 16.525249 0.000000 0.000000 -0.027915 -0.040782 -1.071638
    4 6.879453 0.000000 0.000000 -0.007299 -0.002951 -0.584373
    5 -3.890452 0.000004 0.000007 -1.570796 0.051845 -1.576021
    6 17.848171 0.000000 0.000000 0.000000 0.000000 0.034187
    7 16.525257 0.000000 0.000000 0.038611 0.040779 -1.071632
    8 6.879454 0.000000 0.000000 -0.081333 -0.002951 -0.584373
    9 0.230481 3.337315 -2.981901 1.569002 0.039268 1.475075
    10 4.018331 0.000000 0.000000 -0.110733 0.018013 0.066484
    11 3.518561 0.000000 0.000000 -0.100932 0.022939 0.050721
    12 8.942642 0.000000 0.000000 0.031244 0.014993 0.170397
    13 3.307271 0.000000 0.000000 3.141590 0.000000 0.400478
    14 3.593710 -0.000003 0.000000 0.047858 0.025409 0.357600
    15 2.033346 1.000767 1.937660 1.802273 -1.395243 2.734683
    16 6.028142 0.000002 0.000000 -1.442901 0.122006 -0.936627
    17 11.692556 0.000000 -0.000001 0.000000 0.000000 -2.031727
    18 11.481671 0.000000 -0.000029 2.588813 -0.150164 -0.125644
    19 3.883691 -0.046771 0.431443 0.096614 -0.011009 -0.677044
    20 1.719575 0.000000 0.000000 0.000000 0.000000 -0.154309
    21 1.209183 -0.000001 0.000000 0.000000 0.000000 -0.339470
    22 3.859861 -0.137948 1.332466 0.345266 0.010876 -0.494327
    23 1.719428 0.000001 0.000000 0.000000 0.000000 -0.309050
    24 1.099667 0.000000 0.000000 0.000000 0.000000 -0.538681
    25 0.806048 -0.348922 1.321258 -1.340931 -0.449481 -0.508806
    26 1.789783 0.000001 0.000001 -0.001068 -0.012853 0.157736
    27 1.207000 0.000000 0.000001 -0.000101 -0.003216 0.067661
    28 2.033354 1.000771 -1.937610 -2.173105 1.310587 2.445079
    29 6.028142 0.000004 0.000000 1.351155 0.764092 -0.694456
    30 11.692552 0.000000 0.000002 0.000000 0.000000 -1.135271
    31 11.481699 0.000000 0.000004 0.287861 0.238798 -0.313431
    32 3.883657 -0.050329 -0.431043 0.038252 0.016270 -0.451252
    33 1.719576 0.000003 0.000000 0.000000 0.000000 -0.483179
    34 1.209180 -0.000001 0.000000 0.000000 0.000000 -0.477027
    35 3.859830 -0.148938 -1.331282 -0.416102 -0.024164 -0.331351
    36 1.719426 0.000000 0.000000 -0.042633 0.230561 -0.493271
    37 1.099666 0.000000 0.000000 0.008154 0.000000 0.000000
    38 0.806017 -0.359836 -1.318334 0.415058 0.423434 -0.720789
    39 1.789784 0.000000 -0.000001 0.015105 0.038912 0.428454
    40 1.206998 0.000000 0.000000 0.004785 0.022541 0.418309
    41 -0.044717 2.313936 4.661499 -0.023486 0.064949 -0.073657
    42 1.553711 -2.005859 -0.065857 -0.583922 0.091276 -1.371732
    43 2.676088 -1.712443 0.000000 -1.570796 0.000000 -1.570796
  time 21
    0 0.056247 -15.651113 35.773863 1.548978 -0.082405 0.122253
    1 3.890452 -0.000004 -0.000003 -1.570796 0.051839 -1.565574
    2 17.848175 0.000000 0.000000 0.000000 0.000000 0.034200
    3 16.525249 0.000000 0.000000 -0.027915 -0.040782 -1.071638
    4 6.879453 0.000000 0.000000 -0.007299 -0.002951 -0.584373
    5 -3.890452 0.000004 0.000007 -1.570796 0.051845 -1.576021
    6 17.848171 0.000000 0.000000 0.000000 0.000000 0.034187
    7 16.525257 0.000000 0.000000 0.038611 0.040779 -1.071632
    8 6.879454 0.000000 0.000000 -0.081333 -0.002951 -0.584373
    9 0.261732 3.337315 -2.981901 1.568874 0.039285 1.455732
    10 4.018331 0.000000 0.000000 -0.113716 0.022927 0.065334
    11 3.518561 0.000000 0.000000 -0.105850 0.028008 0.048703
    12 8.942642 0.000000 0.000000 0.029764 0.015113 0.167880
    13 3.307271 0.000000 0.000000 3.141590 0.000000 0.400478
    14 3.593710 -0.000003 0.000000 0.049357 0.031691 0.361420
    15 2.033346 1.000767 1.937660 1.802273 -1.395243 2.734683
    16 6.028142 0.000002 0.000000 -1.445353 0.133642 -0.938019
    17 11.692556 0.000000 -0.000001 0.000000 0.000000 -2.033225
    18 11.481671 0.000000 -0.000029 2.590724 -0.153070 -0.125999
    19 3.883691 -0.046771 0.431443 0.096614 -0.011009 -0.677044
    20 1.719575 0.000000 0.000000 0.000000 0.000000 -0.154309
    21 1.209183 -0.000001 0.000000 0.000000 0.000000 -0.339470
    22 3.859861 -0.137948 1.332466 0.345266 0.010876 -0.494327
    23 1.719428 0.000001 0.000000 0.000000 0.000000 -0.309050
    24 1.099667 0.000000 0.000000 0.000000 0.000000 -0.538681
    25 0.806048 -0.348922 1.321258 -1.340931 -0.449481 -0.508806
    26 1.789783 0.000001 0.000001 -0.001068 -0.012853 0.157736
    27 1.207000 0.000000 0.000001 -0.000101 -0.003216 0.067661
    28 2.033354 1.000771 -1.937610 -2.173105 1.310587 2.445079
    29 6.028142 0.000004 0.000000 1.336691 0.774277 -0.706223
    30 11.692552 0.000000 0.000002 0.000000 0.000000 -1.116034
    31 11.481699 0.000000 0.000004 0.289156 0.236178 -0.322960
    32 3.883657 -0.050329 -0.431043 0.038252 0.016270 -0.451252
    33 1.719576 0.000003 0.000000 0.000000 0.000000 -0.483179
    34 1.209180 -0.000001 0.000000 0.000000 0.000000 -0.477027
    35 3.859830 -0.148938 -1.331282 -0.416102 -0.024164 -0.331351
    36 1.719426 0.000000 0.000000 -0.042633 0.230561 -0.493271
    37 1.099666 0.000000 0.000000 0.008154 0.000000 0.000000
    38 0.806017 -0.359836 -1.318334 0.415058 0.423434 -0.720789
    39 1.789784 0.000000 -0.000001 0.015105 0.038912 0.428454
    40 1.206998 0.000000 0.000000 0.004785 0.022541 0.418309
    41 -0.044717 2.313936 4.661499 -0.023304 0.077424 -0.089848
    42 1.553711 -2.005859 -0.065857 -0.583922 0.091276 -1.371732
    43 2.676088 -1.712443 0.000000 -1.570796 0.000000 -1.570796
  time 22
    0 -0.107821 -18.660001 35.449635 1.547451 -0.070500 0.125031
    1 3.890452 -0.000004 -0.000003 -1.570796 0.051839 -1.565574
    2 17.848175 0.000000 0.000000 0.000000 0.000000 0.034200
    3 16.525249 0.000000 0.000000 -0.027915 -0.040782 -1.071638
    4 6.879453 0.000000 0.000000 -0.007299 -0.002951 -0.584373
    5 -3.890452 0.000004 0.000007 -1.570796 0.051845 -1.576021
    6 17.848171 0.000000 0.000000 0.000000 0.000000 0.034187
    7 16.525257 0.000000 0.000000 0.038611 0.040779 -1.071632
    8 6.879454 0.000000 0.000000 -0.081333 -0.002951 -0.584373
    9 0.226574 3.341221 -2.981901 1.568617 0.039285 1.454282
    10 4.018331 0.000000 0.000000 -0.113604 0.028871 0.065718
    11 3.518561 0.000000 0.000000 -0.107989 0.033653 0.047865
    12 8.942642 0.000000 0.000000 0.027914 0.013770 0.164179
    13 3.307271 0.000000 0.000000 3.141590 0.000000 0.400478
    14 3.593710 -0.000003 0.000000 0.049690 0.038114 0.363207
    15 2.033346 1.000767 1.937660 1.802273 -1.395243 2.734683
    16 6.028142 0.000002 0.000000 -1.441675 0.138511 -0.936627
    17 11.692556 0.000000 -0.000001 0.000000 0.000000 -2.035827
    18 11.481671 0.000000 -0.000029 2.593877 -0.157346 -0.122245
    19 3.883691 -0.046771 0.431443 0.096614 -0.011009 -0.677044
    20 1.719575 0.000000 0.000000 0.000000 0.000000 -0.154309
    21 1.209183 -0.000001 0.000000 0.000000 0.000000 -0.339470
    22 3.859861 -0.137948 1.332466 0.345266 0.010876 -0.494327
    23 1.719428 0.000001 0.000000 0.000000 0.000000 -0.309050
    24 1.099667 0.000000 0.000000 0.000000 0.000000 -0.538681
    25 0.806048 -0.348922 1.321258 -1.340931 -0.449481 -0.508806
    26 1.789783 0.000001 0.000001 -0.001068 -0.012853 0.157736
    27 1.207000 0.000000 0.000001 -0.000101 -0.003216 0.067661
    28 2.033354 1.000771 -1.937610 -2.173105 1.310587 2.445079
    29 6.028142 0.000004 0.000000 1.331135 0.775319 -0.714668
    30 11.692552 0.000000 0.000002 0.000000 0.000000 -1.106415
    31 11.481699 0.000000 0.000004 0.289545 0.233040 -0.330548
    32 3.883657 -0.050329 -0.431043 0.038252 0.016270 -0.451252
    33 1.719576 0.000003 0.000000 0.000000 0.000000 -0.483179
    34 1.209180 -0.000001 0.000000 0.000000 0.000000 -0.477027
    35 3.859830 -0.148938 -1.331282 -0.416102 -0.024164 -0.331351
    36 1.719426 0.000000 0.000000 -0.042633 0.230561 -0.493271
    37 1.099666 0.000000 0.000000 0.008154 0.000000 0.000000
    38 0.806017 -0.359836 -1.318334 0.415058 0.423434 -0.720789
    39 1.789784 0.000000 -0.000001 0.015105 0.038912 0.428454
    40 1.206998 0.000000 0.000000 0.004785 0.022541 0.418309
    41 -0.044717 2.313936 4.661499 -0.023167 0.086655 -0.088914
    42 1.553711 -2.005859 -0.065857 -0.583922 0.091276 -1.371732
    43 2.676088 -1.712443 0.000000 -1.570796 0.000000 -1.570796
  time 23
    0 -0.275795 -21.705657 35.324631 1.544207 -0.045173 0.123499
    1 3.890452 -0.000004 -0.000003 -1.570796 0.051839 -1.565574
    2 17.848175 0.000000 0.000000 0.000000 0.000000 0.034200
    3 16.525249 0.000000 0.000000 -0.027915 -0.040782 -1.071638
    4 6.879453 0.000000 0.000000 -0.007299 -0.002951 -0.584373
    5 -3.890452 0.000004 0.000007 -1.570796 0.051845 -1.576021
    6 17.848171 0.000000 0.000000 0.000000 0.000000 0.034187
    7 16.525257 0.000000 0.000000 0.038611 0.040779 -1.071632
    8 6.879454 0.000000 0.000000 -0.081333 -0.002951 -0.584373
    9 0.144541 3.345128 -2.981901 1.568288 0.039285 1.464972
    10 4.018331 0.000000 0.000000 -0.110188 0.035271 0.067879
    11 3.518561 0.000000 0.000000 -0.106991 0.039345 0.048548
    12 8.942642 0.000000 0.000000 0.025940 0.011194 0.159594
    13 3.307271 0.000000 0.000000 3.141590 0.000000 0.400478
    14 3.593710 -0.000003 0.000000 0.048191 0.043185 0.363454
    15 2.033346 1.000767 1.937660 1.802273 -1.395243 2.734683
    16 6.028142 0.000002 0.000000 -1.431776 0.135736 -0.931985
    17 11.692556 0.000000 -0.000001 0.000000 0.000000 -2.039533
    18 11.481671 0.000000 -0.000029 2.597889 -0.163366 -0.114656
    19 3.883691 -0.046771 0.431443 0.096614 -0.011009 -0.677044
    20 1.719575 0.000000 0.000000 0.000000 0.000000 -0.154309
    21 1.209183 -0.000001 0.000000 0.000000 0.000000 -0.339470
    22 3.859861 -0.137948 1.332466 0.345266 0.010876 -0.494327
    23 1.719428 0.000001 0.000000 0.000000 0.000000 -0.309050
    24 1.099667 0.000000 0.000000 0.000000 0.000000 -0.538681
    25 0.806048 -0.348922 1.321258 -1.340931 -0.449481 -0.508806
    26 1.789783 0.000001 0.000001 -0.001068 -0.012853 0.157736
    27 1.207000 0.000000 0.000001 -0.000101 -0.003216 0.067661
    28 2.033354 1.000771 -1.937610 -2.173105 1.310587 2.445079
    29 6.028142 0.000004 0.000000 1.336212 0.766603 -0.717705
    30 11.692552 0.000000 0.000002 0.000000 0.000000 -1.109019
    31 11.481699 0.000000 0.000004 0.289156 0.229696 -0.334656
    32 3.883657 -0.050329 -0.431043 0.038252 0.016270 -0.451252
    33 1.719576 0.000003 0.000000 0.000000 0.000000 -0.483179
    34 1.209180 -0.000001 0.000000 0.000000 0.000000 -0.477027
    35 3.859830 -0.148938 -1.331282 -0.416102 -0.024164 -0.331351
    36 1.719426 0.000000 0.000000 -0.042633 0.230561 -0.493271
    37 1.099666 0.000000 0.000000 0.008154 0.000000 0.000000
    38 0.806017 -0.359836 -1.318334 0.415058 0.423434 -0.720789
    39 1.789784 0.000000 -0.000001 0.015105 0.038912 0.428454
    40 1.206998 0.000000 0.000000 0.004785 0.022541 0.418309
    41 -0.044717 2.313936 4.661499 -0.023076 0.091100 -0.076641
    42 1.553711 -2.005859 -0.065857 -0.583922 0.091276 -1.371732
    43 2.676088 -1.712443 0.000000 -1.570796 0.000000 -1.570796
  time 24
    0 -0.435956 -24.610367 35.414477 1.539754 -0.010323 0.118134
    1 3.890452 -0.000004 -0.000003 -1.570796 0.051839 -1.565574
    2 17.848175 0.000000 0.000000 0.000000 0.000000 0.034200
    3 16.525249 0.000000 0.000000 -0.027915 -0.040782 -1.071638
    4 6.879453 0.000000 0.000000 -0.007299 -0.002951 -0.584373
    5 -3.890452 0.000004 0.000007 -1.570796 0.051845 -1.576021
    6 17.848171 0.000000 0.000000 0.000000 0.000000 0.034187
    7 16.525257 0.000000 0.000000 0.038611 0.040779 -1.071632
    8 6.879454 0.000000 0.000000 -0.081333 -0.002951 -0.584373
    9 0.031256 3.345128 -2.981901 1.567940 0.039268 1.486005
    10 4.018331 0.000000 0.000000 -0.103805 0.041251 0.071817
    11 3.518561 0.000000 0.000000 -0.102857 0.044331 0.050829
    12 8.942642 0.000000 0.000000 0.024037 0.007874 0.154509
    13 3.307271 0.000000 0.000000 3.141590 0.000000 0.400478
    14 3.593710 -0.000003 0.000000 0.043972 0.045157 0.362222
    15 2.033346 1.000767 1.937660 1.802273 -1.395243 2.734683
    16 6.028142 0.000002 0.000000 -1.416596 0.125560 -0.924837
    17 11.692556 0.000000 -0.000001 0.000000 0.000000 -2.044264
    18 11.481671 0.000000 -0.000029 2.602284 -0.170466 -0.104182
    19 3.883691 -0.046771 0.431443 0.096614 -0.011009 -0.677044
    20 1.719575 0.000000 0.000000 0.000000 0.000000 -0.154309
    21 1.209183 -0.000001 0.000000 0.000000 0.000000 -0.339470
    22 3.859861 -0.137948 1.332466 0.345266 0.010876 -0.494327
    23 1.719428 0.000001 0.000000 0.000000 0.000000 -0.309050
    24 1.099667 0.000000 0.000000 0.000000 0.000000 -0.538681
    25 0.806048 -0.348922 1.321258 -1.340931 -0.449481 -0.508806
    26 1.789783 0.000001 0.000001 -0.001068 -0.012853 0.157736
    27 1.207000 0.000000 0.000001 -0.000101 -0.003216 0.067661
    28 2.033354 1.000771 -1.937610 -2.173105 1.310587 2.445079
    29 6.028142 0.000004 0.000000 1.351250 0.748791 -0.714763
    30 11.692552 0.000000 0.000002 0.000000 0.000000 -1.124351
    31 11.481699 0.000000 0.000004 0.288120 0.226696 -0.334428
    32 3.883657 -0.050329 -0.431043 0.038252 0.016270 -0.451252
    33 1.719576 0.000003 0.000000 0.000000 0.000000 -0.483179
    34 1.209180 -0.000001 0.000000 0.000000 0.000000 -0.477027
    35 3.859830 -0.148938 -1.331282 -0.416102 -0.024164 -0.331351
    36 1.719426 0.000000 0.000000 -0.042633 0.230561 -0.493271
    37 1.099666 0.000000 0.000000 0.008154 0.000000 0.000000
    38 0.806017 -0.359836 -1.318334 0.415058 0.423434 -0.720789
    39 1.789784 0.000000 -0.000001 0.015105 0.038912 0.428454
    40 1.206998 0.000000 0.000000 0.004785 0.022541 0.418309
    41 -0.044717 2.313936 4.661499 -0.023213 0.089275 -0.054913
    42 1.553711 -2.005859 -0.065857 -0.583922 0.091276 -1.371732
    43 2.676088 -1.712443 0.000000 -1.570796 0.000000 -1.570796
  time 25
    0 -0.572679 -27.282210 35.691830 1.534602 0.024266 0.110757
    1 3.890452 -0.000004 -0.000003 -1.570796 0.051839 -1.565574
    2 17.848175 0.000000 0.000000 0.000000 0.000000 0.034200
    3 16.525249 0.000000 0.000000 -0.027915 -0.040782 -1.071638
    4 6.879453 0.000000 0.000000 -0.007299 -0.002951 -0.584373
    5 -3.890452 0.000004 0.000007 -1.570796 0.051845 -1.576021
    6 17.848171 0.000000 0.000000 0.000000 0.000000 0.034187
    7 16.525257 0.000000 0.000000 0.038611 0.040779 -1.071632
    8 6.879454 0.000000 0.000000 -0.081333 -0.002951 -0.584373
    9 -0.082029 3.345128 -2.981901 1.567647 0.039251 1.509339
    10 4.018331 0.000000 0.000000 -0.095162 0.045877 0.077115
    11 3.518561 0.000000 0.000000 -0.096014 0.047807 0.054445
    12 8.942642 0.000000 0.000000 0.022416 0.004302 0.149385
    13 3.307271 0.000000 0.000000 3.141590 0.000000 0.400478
    14 3.593710 -0.000003 0.000000 0.036588 0.043044 0.359572
    15 2.033346 1.000767 1.937660 1.802273 -1.395243 2.734683
    16 6.028142 0.000002 0.000000 -1.397928 0.109200 -0.915926
    17 11.692556 0.000000 -0.000001 0.000000 0.000000 -2.049310
    18 11.481671 0.000000 -0.000029 2.606106 -0.178146 -0.092127
    19 3.883691 -0.046771 0.431443 0.096614 -0.011009 -0.677044
    20 1.719575 0.000000 0.000000 0.000000 0.000000 -0.154309
    21 1.209183 -0.000001 0.000000 0.000000 0.000000 -0.339470
    22 3.859861 -0.137948 1.332466 0.345266 0.010876 -0.494327
    23 1.719428 0.000001 0.000000 0.000000 0.000000 -0.309050
    24 1.099667 0.000000 0.000000 0.000000 0.000000 -0.538681
    25 0.806048 -0.348922 1.321258 -1.340931 -0.449481 -0.508806
    26 1.789783 0.000001 0.000001 -0.001068 -0.012853 0.157736
    27 1.207000 0.000000 0.000001 -0.000101 -0.003216 0.067661
    28 2.033354 1.000771 -1.937610 -2.173105 1.310587 2.445079
    29 6.028142 0.000004 0.000000 1.373857 0.723779 -0.707267
    30 11.692552 0.000000 0.000002 0.000000 0.000000 -1.150386
    31 11.481699 0.000000 0.000004 0.286436 0.224145 -0.330206
    32 3.883657 -0.050329 -0.431043 0.038252 0.016270 -0.451252
    33 1.719576 0.000003 0.000000 0.000000 0.000000 -0.483179
    34 1.209180 -0.000001 0.000000 0.000000 0.000000 -0.477027
    35 3.859830 -0.148938 -1.331282 -0.416102 -0.024164 -0.331351
    36 1.719426 0.000000 0.000000 -0.042633 0.230561 -0.493271
    37 1.099666 0.000000 0.000000 0.008154 0.000000 0.000000
    38 0.806017 -0.359836 -1.318334 0.415058 0.423434 -0.720789
    39 1.789784 0.000000 -0.000001 0.015105 0.038912 0.428454
    40 1.206998 0.000000 0.000000 0.004785 0.022541 0.418309
    41 -0.044717 2.313936 4.661499 -0.023531 0.078157 -0.032047
    42 1.553711 -2.005859 -0.065857 -0.583922 0.091276 -1.371732
    43 2.676088 -1.712443 0.000000 -1.570796 0.000000 -1.570796
  time 26
    0 -0.689870 -29.751827 36.141062 1.529640 0.044456 0.104147
    1 3.890452 -0.000004 -0.000003 -1.570796 0.051839 -1.565574
    2 17.848175 0.000000 0.000000 0.000000 0.000000 0.034200
    3 16.525249 0.000000 0.000000 -0.027915 -0.040782 -1.071638
    4 6.879453 0.000000 0.000000 -0.007299 -0.002951 -0.584373
    5 -3.890452 0.000004 0.000007 -1.570796 0.051845 -1.576021
    6 17.848171 0.000000 0.000000 0.000000 0.000000 0.034187
    7 16.525257 0.000000 0.000000 0.038611 0.040779 -1.071632
    8 6.879454 0.000000 0.000000 -0.081333 -0.002951 -0.584373
    9 -0.148437 3.345128 -2.981901 1.567445 0.039235 1.522127
    10 4.018331 0.000000 0.000000 -0.085267 0.048490 0.083092
    11 3.518561 0.000000 0.000000 -0.087246 0.049233 0.058868
    12 8.942642 0.000000 0.000000 0.021112 0.000851 0.144655
    13 3.307271 0.000000 0.000000 3.141590 0.000000 0.400478
    14 3.593710 -0.000003 0.000000 0.025983 0.036931 0.355936
    15 2.033346 1.000767 1.937660 1.802273 -1.395243 2.734683
    16 6.028142 0.000002 0.000000 -1.377939 0.088556 -0.906179
    17 11.692556 0.000000 -0.000001 0.000000 0.000000 -2.053883
    18 11.481671 0.000000 -0.000029 2.608877 -0.185619 -0.079874
    19 3.883691 -0.046771 0.431443 0.096614 -0.011009 -0.677044
    20 1.719575 0.000000 0.000000 0.000000 0.000000 -0.154309
    21 1.209183 -0.000001 0.000000 0.000000 0.000000 -0.339470
    22 3.859861 -0.137948 1.332466 0.345266 0.010876 -0.494327
    23 1.719428 0.000001 0.000000 0.000000 0.000000 -0.309050
    24 1.099667 0.000000 0.000000 0.000000 0.000000 -0.538681
    25 0.806048 -0.348922 1.321258 -1.340931 -0.449481 -0.508806
    26 1.789783 0.000001 0.000001 -0.001068 -0.012853 0.157736
    27 1.207000 0.000000 0.000001 -0.000101 -0.003216 0.067661
    28 2.033354 1.000771 -1.937610 -2.173105 1.310587 2.445079
    29 6.028142 0.000004 0.000000 1.400294 0.694456 -0.697492
    30 11.692552 0.000000 0.000002 0.000000 0.000000 -1.183075
    31 11.481699 0.000000 0.000004 0.284427 0.222283 -0.323074
    32 3.883657 -0.050329 -0.431043 0.038252 0.016270 -0.451252
    33 1.719576 0.000003 0.000000 0.000000 0.000000 -0.483179
    34 1.209180 -0.000001 0.000000 0.000000 0.000000 -0.477027
    35 3.859830 -0.148938 -1.331282 -0.416102 -0.024164 -0.331351
    36 1.719426 0.000000 0.000000 -0.042633 0.230561 -0.493271
    37 1.099666 0.000000 0.000000 0.008154 0.000000 0.000000
    38 0.806017 -0.359836 -1.318334 0.415058 0.423434 -0.720789
    39 1.789784 0.000000 -0.000001 0.015105 0.038912 0.428454
    40 1.206998 0.000000 0.000000 0.004785 0.022541 0.418309
    41 -0.044717 2.313936 4.661499 -0.024032 0.058508 -0.021045
    42 1.553711 -2.005859 -0.065857 -0.583922 0.091276 -1.371732
    43 2.676088 -1.712443 0.000000 -1.570796 0.000000 -1.570796
  time 27
    0 -0.783623 -32.105010 36.719205 1.525633 0.045646 0.100411
    1 3.890452 -0.000004 -0.000003 -1.570796 0.051839 -1.565574
    2 17.848175 0.000000 0.000000 0.000000 0.000000 0.034200
    3 16.525249 0.000000 0.000000 -0.027915 -0.040782 -1.071638
    4 6.879453 0.000000 0.000000 -0.007299 -0.002951 -0.584373
    5 -3.890452 0.000004 0.000007 -1.570796 0.051845 -1.576021
    6 17.848171 0.000000 0.000000 0.000000 0.000000 0.034187
    7 16.525257 0.000000 0.000000 0.038611 0.040779 -1.071632
    8 6.879454 0.000000 0.000000 -0.081333 -0.002951 -0.584373
    9 -0.152343 3.345128 -2.981901 1.567317 0.039218 1.520089
    10 4.018331 0.000000 0.000000 -0.075084 0.048909 0.088948
    11 3.518561 0.000000 0.000000 -0.077428 0.048502 0.063431
    12 8.942642 0.000000 0.000000 0.020125 -0.002301 0.140677
    13 3.307271 0.000000 0.000000 3.141590 0.000000 0.400478
    14 3.593710 -0.000003 0.000000 0.013103 0.027635 0.352486
    15 2.033346 1.000767 1.937660 1.802273 -1.395243 2.734683
    16 6.028142 0.000002 0.000000 -1.358140 0.065476 -0.896431
    17 11.692556 0.000000 -0.000001 0.000000 0.000000 -2.057116
    18 11.481671 0.000000 -0.000029 2.610215 -0.192262 -0.068333
    19 3.883691 -0.046771 0.431443 0.096614 -0.011009 -0.677044
    20 1.719575 0.000000 0.000000 0.000000 0.000000 -0.154309
    21 1.209183 -0.000001 0.000000 0.000000 0.000000 -0.339470
    22 3.859861 -0.137948 1.332466 0.345266 0.010876 -0.494327
    23 1.719428 0.000001 0.000000 0.000000 0.000000 -0.309050
    24 1.099667 0.000000 0.000000 0.000000 0.000000 -0.538681
    25 0.806048 -0.348922 1.321258 -1.340931 -0.449481 -0.508806
    26 1.789783 0.000001 0.000001 -0.001068 -0.012853 0.157736
    27 1.207000 0.000000 0.000001 -0.000101 -0.003216 0.067661
    28 2.033354 1.000771 -1.937610 -2.173105 1.310587 2.445079
    29 6.028142 0.000004 0.000000 1.427403 0.663617 -0.687718
    30 11.692552 0.000000 0.000002 0.000000 0.000000 -1.217789
    31 11.481699 0.000000 0.000004 0.282355 0.221248 -0.314744
    32 3.883657 -0.050329 -0.431043 0.038252 0.016270 -0.451252
    33 1.719576 0.000003 0.000000 0.000000 0.000000 -0.483179
    34 1.209180 -0.000001 0.000000 0.000000 0.000000 -0.477027
    35 3.859830 -0.148938 -1.331282 -0.416102 -0.024164 -0.331351
    36 1.719426 0.000000 0.000000 -0.042633 0.230561 -0.493271
    37 1.099666 0.000000 0.000000 0.008154 0.000000 0.000000
    38 0.806017 -0.359836 -1.318334 0.415058 0.423434 -0.720789
    39 1.789784 0.000000 -0.000001 0.015105 0.038912 0.428454
    40 1.206998 0.000000 0.000000 0.004785 0.022541 0.418309
    41 -0.044717 2.313936 4.661499 -0.024577 0.034322 -0.026162
    42 1.553711 -2.005859 -0.065857 -0.583922 0.091276 -1.371732
    43 2.676088 -1.712443 0.000000 -1.570796 0.000000 -1.570796
  time 28
    0 -0.850031 -34.409168 37.309067 1.523025 0.033334 0.100411
    1 3.890452 -0.000004 -0.000003 -1.570796 0.051839 -1.565574
    2 17.848175 0.000000 0.000000 0.000000 0.000000 0.034200
    3 16.525249 0.000000 0.000000 -0.027915 -0.040782 -1.071638
    4 6.879453 0.000000 0.000000 -0.007299 -0.002951 -0.584373
    5 -3.890452 0.000004 0.000007 -1.570796 0.051845 -1.576021
    6 17.848171 0.000000 0.000000 0.000000 0.000000 0.034187
    7 16.525257 0.000000 0.000000 0.038611 0.040779 -1.071632
    8 6.879454 0.000000 0.000000 -0.081333 -0.002951 -0.584373
    9 -0.109373 3.345128 -2.981901 1.567244 0.039218 1.508117
    10 4.018331 0.000000 0.000000 -0.065333 0.047375 0.093949
    11 3.518561 0.000000 0.000000 -0.067395 0.045913 0.067481
    12 8.942642 0.000000 0.000000 0.019367 -0.005153 0.137699
    13 3.307271 0.000000 0.000000 3.141590 0.000000 0.400478
    14 3.593710 -0.000003 0.000000 -0.000722 0.016056 0.350760
    15 2.033346 1.000767 1.937660 1.802273 -1.395243 2.734683
    16 6.028142 0.000002 0.000000 -1.339849 0.041667 -0.887334
    17 11.692556 0.000000 -0.000001 0.000000 0.000000 -2.058378
    18 11.481671 0.000000 -0.000029 2.610215 -0.197700 -0.057899
    19 3.883691 -0.046771 0.431443 0.096614 -0.011009 -0.677044
    20 1.719575 0.000000 0.000000 0.000000 0.000000 -0.154309
    21 1.209183 -0.000001 0.000000 0.000000 0.000000 -0.339470
    22 3.859861 -0.137948 1.332466 0.345266 0.010876 -0.494327
    23 1.719428 0.000001 0.000000 0.000000 0.000000 -0.309050
    24 1.099667 0.000000 0.000000 0.000000 0.000000 -0.538681
    25 0.806048 -0.348922 1.321258 -1.340931 -0.449481 -0.508806
    26 1.789783 0.000001 0.000001 -0.001068 -0.012853 0.157736
    27 1.207000 0.000000 0.000001 -0.000101 -0.003216 0.067661
    28 2.033354 1.000771 -1.937610 -2.173105 1.310587 2.445079
    29 6.028142 0.000004 0.000000 1.452499 0.633725 -0.679273
    30 11.692552 0.000000 0.000002 0.000000 0.000000 -1.250261
    31 11.481699 0.000000 0.000004 0.280541 0.221007 -0.306870
    32 3.883657 -0.050329 -0.431043 0.038252 0.016270 -0.451252
    33 1.719576 0.000003 0.000000 0.000000 0.000000 -0.483179
    34 1.209180 -0.000001 0.000000 0.000000 0.000000 -0.477027
    35 3.859830 -0.148938 -1.331282 -0.416102 -0.024164 -0.331351
    36 1.719426 0.000000 0.000000 -0.042633 0.230561 -0.493271
    37 1.099666 0.000000 0.000000 0.008154 0.000000 0.000000
    38 0.806017 -0.359836 -1.318334 0.415058 0.423434 -0.720789
    39 1.789784 0.000000 -0.000001 0.015105 0.038912 0.428454
    40 1.206998 0.000000 0.000000 0.004785 0.022541 0.418309
    41 -0.044717 2.313936 4.661499 -0.024941 0.008468 -0.042378
    42 1.553711 -2.005859 -0.065857 -0.583922 0.091276 -1.371732
    43 2.676088 -1.712443 0.000000 -1.570796 0.000000 -1.570796
  time 29
    0 -0.900814 -36.719454 37.777831 1.522007 0.015134 0.103477
    1 3.890452 -0.000004 -0.000003 -1.570796 0.051839 -1.565574
    2 17.848175 0.000000 0.000000 0.000000 0.000000 0.034200
    3 16.525249 0.000000 0.000000 -0.027915 -0.040782 -1.071638
    4 6.879453 0.000000 0.000000 -0.007299 -0.002951 -0.584373
    5 -3.890452 0.000004 0.000007 -1.570796 0.051845 -1.576021
    6 17.848171 0.000000 0.000000 0.000000 0.000000 0.034187
    7 16.525257 0.000000 0.000000 0.038611 0.040779 -1.071632
    8 6.879454 0.000000 0.000000 -0.081333 -0.002951 -0.584373
    9 -0.050778 3.345128 -2.981901 1.567226 0.039218 1.492644
    10 4.018331 0.000000 0.000000 -0.056481 0.044439 0.097661
    11 3.518561 0.000000 0.000000 -0.057772 0.042030 0.070585
    12 8.942642 0.000000 0.000000 0.018785 -0.007682 0.135776
    13 3.307271 0.000000 0.000000 3.141590 0.000000 0.400478
    14 3.593710 -0.000003 0.000000 -0.013880 0.003239 0.351808
    15 2.033346 1.000767 1.937660 1.802273 -1.395243 2.734683
    16 6.028142 0.000002 0.000000 -1.323255 0.018101 -0.879165
    17 11.692556 0.000000 -0.000001 0.000000 0.000000 -2.057510
    18 11.481671 0.000000 -0.000029 2.609355 -0.201811 -0.048492
    19 3.883691 -0.046771 0.431443 0.096614 -0.011009 -0.677044
    20 1.719575 0.000000 0.000000 0.000000 0.000000 -0.154309
    21 1.209183 -0.000001 0.000000 0.000000 0.000000 -0.339470
    22 3.859861 -0.137948 1.332466 0.345266 0.010876 -0.494327
    23 1.719428 0.000001 0.000000 0.000000 0.000000 -0.309050
    24 1.099667 0.000000 0.000000 0.000000 0.000000 -0.538681
    25 0.806048 -0.348922 1.321258 -1.340931 -0.449481 -0.508806
    26 1.789783 0.000001 0.000001 -0.001068 -0.012853 0.157736
    27 1.207000 0.000000 0.000001 -0.000101 -0.003216 0.067661
    28 2.033354 1.000771 -1.937610 -2.173105 1.310587 2.445079
    29 6.028142 0.000004 0.000000 1.474531 0.606155 -0.672915
    30 11.692552 0.000000 0.000002 0.000000 0.000000 -1.277887
    31 11.481699 0.000000 0.000004 0.279245 0.221421 -0.300822
    32 3.883657 -0.050329 -0.431043 0.038252 0.016270 -0.451252
    33 1.719576 0.000003 0.000000 0.000000 0.000000 -0.483179
    34 1.209180 -0.000001 0.000000 0.000000 0.000000 -0.477027
    35 3.859830 -0.148938 -1.331282 -0.416102 -0.024164 -0.331351
    36 1.719426 0.000000 0.000000 -0.042633 0.230561 -0.493271
    37 1.099666 0.000000 0.000000 0.008154 0.000000 0.000000
    38 0.806017 -0.359836 -1.318334 0.415058 0.423434 -0.720789
    39 1.789784 0.000000 -0.000001 0.015105 0.038912 0.428454
    40 1.206998 0.000000 0.000000 0.004785 0.022541 0.418309
    41 -0.044717 2.313936 4.661499 -0.025078 -0.017107 -0.062823
    42 1.553711 -2.005859 -0.065857 -0.583922 0.091276 -1.371732
    43 2.676088 -1.712443 0.000000 -1.570796 0.000000 -1.570796
  time 30
    0 -0.959409 -39.078765 38.027838 1.522580 -0.001761 0.107117
    1 3.890452 -0.000004 -0.000003 -1.570796 0.051839 -1.565574
    2 17.848175 0.000000 0.000000 0.000000 0.000000 0.034200
    3 16.525249 0.000000 0.000000 -0.027915 -0.040782 -1.071638
    4 6.879453 0.000000 0.000000 -0.007299 -0.002951 -0.584373
    5 -3.890452 0.000004 0.000007 -1.570796 0.051845 -1.576021
    6 17.848171 0.000000 0.000000 0.000000 0.000000 0.034187
    7 16.525257 0.000000 0.000000 0.038611 0.040779 -1.071632
    8 6.879454 0.000000 0.000000 -0.081333 -0.002951 -0.584373
    9 0.003911 3.345128 -2.981901 1.567244 0.039235 1.479485
    10 4.018331 0.000000 0.000000 -0.048607 0.040736 0.099892
    11 3.518561 0.000000 0.000000 -0.048827 0.037488 0.072494
    12 8.942642 0.000000 0.000000 0.018415 -0.009851 0.134722
    13 3.307271 0.000000 0.000000 3.141590 0.000000 0.400478
    14 3.593710 -0.000003 0.000000 -0.024928 -0.009579 0.355505
    15 2.033346 1.000767 1.937660 1.802273 -1.395243 2.734683
    16 6.028142 0.000002 0.000000 -1.307886 -0.004735 -0.872110
    17 11.692556 0.000000 -0.000001 0.000000 0.000000 -2.054356
    18 11.481671 0.000000 -0.000029 2.607922 -0.205132 -0.039955
    19 3.883691 -0.046771 0.431443 0.096614 -0.011009 -0.677044
    20 1.719575 0.000000 0.000000 0.000000 0.000000 -0.154309
    21 1.209183 -0.000001 0.000000 0.000000 0.000000 -0.339470
    22 3.859861 -0.137948 1.332466 0.345266 0.010876 -0.494327
    23 1.719428 0.000001 0.000000 0.000000 0.000000 -0.309050
    24 1.099667 0.000000 0.000000 0.000000 0.000000 -0.538681
    25 0.806048 -0.348922 1.321258 -1.340931 -0.449481 -0.508806
    26 1.789783 0.000001 0.000001 -0.001068 -0.012853 0.157736
    27 1.207000 0.000000 0.000001 -0.000101 -0.003216 0.067661
    28 2.033354 1.000771 -1.937610 -2.173105 1.310587 2.445079
    29 6.028142 0.000004 0.000000 1.493018 0.581285 -0.668645
    30 11.692552 0.000000 0.000002 0.000000 0.000000 -1.299439
    31 11.481699 0.000000 0.000004 0.278727 0.222386 -0.297171
    32 3.883657 -0.050329 -0.431043 0.038252 0.016270 -0.451252
    33 1.719576 0.000003 0.000000 0.000000 0.000000 -0.483179
    34 1.209180 -0.000001 0.000000 0.000000 0.000000 -0.477027
    35 3.859830 -0.148938 -1.331282 -0.416102 -0.024164 -0.331351
    36 1.719426 0.000000 0.000000 -0.042633 0.230561 -0.493271
    37 1.099666 0.000000 0.000000 0.008154 0.000000 0.000000
    38 0.806017 -0.359836 -1.318334 0.415058 0.423434 -0.720789
    39 1.789784 0.000000 -0.000001 0.015105 0.038912 0.428454
    40 1.206998 0.000000 0.000000 0.004785 0.022541 0.418309
    41 -0.044717 2.313936 4.661499 -0.024987 -0.040747 -0.081124
    42 1.553711 -2.005859 -0.065857 -0.583922 0.091276 -1.371732
    43 2.676088 -1.712443 0.000000 -1.570796 0.000000 -1.570796
end
