// Created by Crowbar 0.68
version 1
nodes
  0 "ValveBiped.Bip01_Pelvis" -1
  1 "ValveBiped.Bip01_L_Thigh" 0
  2 "ValveBiped.Bip01_L_Calf" 1
  3 "ValveBiped.Bip01_L_Foot" 2
  4 "ValveBiped.Bip01_L_Toe0" 3
  5 "ValveBiped.Bip01_R_Thigh" 0
  6 "ValveBiped.Bip01_R_Calf" 5
  7 "ValveBiped.Bip01_R_Foot" 6
  8 "ValveBiped.Bip01_R_Toe0" 7
  9 "ValveBiped.Bip01_Spine" 0
  10 "ValveBiped.Bip01_Spine1" 9
  11 "ValveBiped.Bip01_Spine2" 10
  12 "ValveBiped.Bip01_Spine4" 11
  13 "ValveBiped.Bip01_Neck1" 12
  14 "ValveBiped.Bip01_Head1" 13
  15 "ValveBiped.Bip01_L_Clavicle" 12
  16 "ValveBiped.Bip01_L_UpperArm" 15
  17 "ValveBiped.Bip01_L_Forearm" 16
  18 "ValveBiped.Bip01_L_Hand" 17
  19 "ValveBiped.Bip01_L_Finger2" 18
  20 "ValveBiped.Bip01_L_Finger21" 19
  21 "ValveBiped.Bip01_L_Finger22" 20
  22 "ValveBiped.Bip01_L_Finger1" 18
  23 "ValveBiped.Bip01_L_Finger11" 22
  24 "ValveBiped.Bip01_L_Finger12" 23
  25 "ValveBiped.Bip01_L_Finger0" 18
  26 "ValveBiped.Bip01_L_Finger01" 25
  27 "ValveBiped.Bip01_L_Finger02" 26
  28 "ValveBiped.Bip01_R_Clavicle" 12
  29 "ValveBiped.Bip01_R_UpperArm" 28
  30 "ValveBiped.Bip01_R_Forearm" 29
  31 "ValveBiped.Bip01_R_Hand" 30
  32 "ValveBiped.Bip01_R_Finger2" 31
  33 "ValveBiped.Bip01_R_Finger21" 32
  34 "ValveBiped.Bip01_R_Finger22" 33
  35 "ValveBiped.Bip01_R_Finger1" 31
  36 "ValveBiped.Bip01_R_Finger11" 35
  37 "ValveBiped.Bip01_R_Finger12" 36
  38 "ValveBiped.Bip01_R_Finger0" 31
  39 "ValveBiped.Bip01_R_Finger01" 38
  40 "ValveBiped.Bip01_R_Finger02" 39
  41 "ValveBiped.Cod" 0
  42 "ValveBiped.Anim_Attachment_LH" 18
  43 "ValveBiped.Anim_Attachment_RH" 31
end
skeleton
  time 0
    0 2.669608 2.224498 38.484884 1.615386 -0.120582 -3.409172
    1 3.890452 -0.000004 -0.000003 -1.496063 -0.111569 -1.327593
    2 17.848175 0.000000 0.000000 0.000000 0.000000 0.428523
    3 16.525249 0.000000 0.000000 -0.177256 0.087561 -0.645663
    4 6.879453 0.000000 0.000000 -0.006089 -0.004365 -0.847468
    5 -3.890452 0.000004 0.000007 -1.272235 -0.255837 -1.806097
    6 17.848171 0.000000 0.000000 0.000000 0.000000 0.414351
    7 16.525257 0.000000 0.000000 0.115049 0.107331 -1.115969
    8 6.879454 0.000000 0.000000 -0.081333 -0.002951 -0.584373
    9 0.226574 3.337315 -2.981901 1.575703 0.086159 1.561208
    10 4.018331 0.000000 0.000000 0.038360 0.028739 -0.029242
    11 3.518561 0.000000 0.000000 -0.030739 0.054242 -0.017410
    12 8.942642 0.000000 0.000000 -0.064762 0.042761 0.118031
    13 3.307271 0.000000 0.000000 3.141590 0.000000 0.477036
    14 3.593710 -0.000003 0.000000 -0.798877 -0.265172 0.410839
    15 2.033346 1.000767 1.937660 -0.817075 -1.439959 5.350746
    16 6.028142 0.000002 0.000000 -1.872931 -0.336508 -1.033077
    17 11.692556 0.000000 -0.000001 0.000000 0.000000 -2.162772
    18 11.481671 0.000000 -0.000029 -0.105807 0.198160 0.519949
    19 3.883691 -0.046771 0.431443 0.096615 -0.011011 -0.677044
    20 1.719575 0.000000 0.000000 0.055915 -0.087978 -1.150781
    21 1.209183 -0.000001 0.000000 0.009316 -0.033629 -0.339470
    22 3.859861 -0.137948 1.332466 0.537935 -0.132420 -0.946691
    23 1.719428 0.000001 0.000000 0.023476 -0.208311 -0.755744
    24 1.099667 0.000000 0.000000 0.026046 -0.124621 -0.538681
    25 0.806048 -0.348922 1.321258 -1.269164 -0.727275 -0.266407
    26 1.789783 0.000001 0.000001 -0.001067 -0.012843 -0.131867
    27 1.207000 0.000000 0.000001 -0.000100 -0.003215 -0.064874
    28 2.033354 1.000771 -1.937610 -3.682505 1.538865 0.924799
    29 6.028142 0.000004 0.000000 0.687050 0.762244 -1.097091
    30 11.692552 0.000000 0.000002 0.000000 0.000000 -1.913222
    31 11.481699 0.000000 0.000004 -0.910521 0.131121 -0.031748
    32 3.883657 -0.050329 -0.431043 0.047704 -0.153454 -0.767482
    33 1.719576 0.000003 0.000000 -0.053884 0.078890 -1.553283
    34 1.209180 -0.000001 0.000000 -0.013612 0.036967 -0.732282
    35 3.859830 -0.148938 -1.331282 -0.332627 0.218366 0.154975
    36 1.719426 0.000000 0.000000 -0.042634 0.220745 -0.851607
    37 1.099666 0.000000 0.000000 0.008154 0.000000 0.000000
    38 0.806017 -0.359836 -1.318334 0.415058 0.423434 -0.720789
    39 1.789784 0.000000 -0.000001 0.015106 0.038911 0.767156
    40 1.206998 0.000000 0.000000 0.004785 0.022541 0.418309
    41 -0.044717 2.313936 4.661499 -0.240189 0.315169 -0.030201
    42 2.676088 -1.712442 0.000000 1.570797 0.000000 1.570797
    43 2.676088 -1.712443 0.000000 -1.570796 0.000000 -1.570796
  time 1
    0 3.048862 2.660970 38.090340 1.634597 -0.157911 -3.484662
    1 3.890452 -0.000004 -0.000003 -1.533695 -0.179946 -1.383978
    2 17.848175 0.000000 0.000000 0.000000 0.000000 0.590231
    3 16.525249 0.000000 0.000000 -0.155612 0.017419 -0.697037
    4 6.879453 0.000000 0.000000 -0.006089 -0.004365 -0.846799
    5 -3.890452 0.000004 0.000007 -1.270126 -0.358463 -1.852357
    6 17.848171 0.000000 0.000000 0.000000 0.000000 0.568358
    7 16.525257 0.000000 0.000000 0.118978 0.146703 -1.135466
    8 6.879454 0.000000 0.000000 -0.081082 -0.002963 -0.606505
    9 0.226574 3.341221 -2.981901 1.575080 0.084385 1.562035
    10 4.018331 0.000000 0.000000 0.031672 0.025779 -0.020546
    11 3.518561 0.000000 0.000000 -0.035426 0.051773 -0.006298
    12 8.942642 0.000000 0.000000 -0.068075 0.044175 0.115159
    13 3.307271 0.000000 0.000000 3.141590 0.000000 0.476533
    14 3.593710 -0.000003 0.000000 -0.786218 -0.266637 0.408312
    15 2.033346 1.000767 1.937660 -0.910870 -1.451065 5.445257
    16 6.028142 0.000002 0.000000 -1.823526 -0.319467 -1.059255
    17 11.692556 0.000000 -0.000001 0.000000 0.000000 -2.311637
    18 11.481671 0.000000 -0.000029 -0.021346 0.197247 0.628325
    19 3.883691 -0.046771 0.431443 0.096615 -0.011011 -0.677044
    20 1.719575 0.000000 0.000000 0.055915 -0.087978 -1.150781
    21 1.209183 -0.000001 0.000000 0.009316 -0.033629 -0.339470
    22 3.859861 -0.137948 1.332466 0.537935 -0.132420 -0.946691
    23 1.719428 0.000001 0.000000 0.023476 -0.208311 -0.755744
    24 1.099667 0.000000 0.000000 0.026046 -0.124621 -0.538681
    25 0.806048 -0.348922 1.321258 -1.269164 -0.727275 -0.266407
    26 1.789783 0.000001 0.000001 -0.001067 -0.012855 -0.131867
    27 1.207000 0.000000 0.000001 -0.000100 -0.003215 -0.064874
    28 2.033354 1.000771 -1.937610 -3.684916 1.535660 0.922277
    29 6.028142 0.000004 0.000000 0.711859 0.449923 -1.213811
    30 11.692552 0.000000 0.000002 0.000000 0.000000 -2.025753
    31 11.481699 0.000000 0.000004 -1.133237 -0.006381 -0.094167
    32 3.883657 -0.050329 -0.431043 0.047704 -0.153454 -0.767482
    33 1.719576 0.000003 0.000000 -0.053884 0.078890 -1.553283
    34 1.209180 -0.000001 0.000000 -0.013612 0.036967 -0.732282
    35 3.859830 -0.148938 -1.331282 -0.332627 0.218366 0.154975
    36 1.719426 0.000000 0.000000 -0.042634 0.220745 -0.851607
    37 1.099666 0.000000 0.000000 0.008154 0.000000 0.000000
    38 0.806017 -0.359836 -1.318334 0.415058 0.423434 -0.720789
    39 1.789784 0.000000 -0.000001 0.015106 0.038911 0.767156
    40 1.206998 0.000000 0.000000 0.004785 0.022541 0.418309
    41 -0.044717 2.313936 4.661499 -0.298322 0.267607 -0.023729
    42 2.676088 -1.712442 0.000000 1.570797 0.000000 1.570797
    43 2.676088 -1.712443 0.000000 -1.570796 0.000000 -1.570796
  time 2
    0 3.829476 3.516163 37.418445 1.698079 -0.233450 -3.681911
    1 3.890452 -0.000004 -0.000003 -1.608869 -0.319656 -1.511484
    2 17.848175 0.000000 0.000000 0.000000 0.000000 0.853442
    3 16.525249 0.000000 0.000000 -0.098250 -0.159214 -0.751087
    4 6.879453 0.000000 0.000000 -0.006101 -0.004353 -0.844580
    5 -3.890452 0.000004 0.000007 -1.217506 -0.549159 -1.943840
    6 17.848171 0.000000 0.000000 0.000000 0.000000 0.778649
    7 16.525257 0.000000 0.000000 0.115985 0.230995 -1.098448
    8 6.879454 0.000000 0.000000 -0.080411 -0.002999 -0.670997
    9 0.222668 3.341221 -2.981901 1.573286 0.079532 1.563533
    10 4.018331 0.000000 0.000000 0.014289 0.018229 0.002388
    11 3.518561 0.000000 0.000000 -0.047971 0.045553 0.022910
    12 8.942642 0.000000 0.000000 -0.076622 0.047938 0.107927
    13 3.307271 0.000000 0.000000 3.141590 0.000000 0.475122
    14 3.593710 -0.000003 0.000000 -0.750019 -0.269961 0.401719
    15 2.033346 1.000767 1.937660 -1.239060 -1.473005 5.775520
    16 6.028142 0.000002 0.000000 -1.478635 -0.483601 -1.056285
    17 11.692556 0.000000 -0.000001 0.000000 0.000000 -2.443077
    18 11.481671 0.000000 -0.000029 0.113275 -0.036824 0.892428
    19 3.883691 -0.046771 0.431443 0.096615 -0.011011 -0.677044
    20 1.719575 0.000000 0.000000 0.055915 -0.087978 -1.150781
    21 1.209183 -0.000001 0.000000 0.009316 -0.033629 -0.339470
    22 3.859861 -0.137948 1.332466 0.537935 -0.132420 -0.946691
    23 1.719428 0.000001 0.000000 0.023476 -0.208311 -0.755744
    24 1.099667 0.000000 0.000000 0.026046 -0.124621 -0.538681
    25 0.806048 -0.348922 1.321258 -1.269164 -0.727275 -0.266407
    26 1.789783 0.000001 0.000001 -0.001067 -0.012843 -0.131867
    27 1.207000 0.000000 0.000001 -0.000100 -0.003215 -0.064874
    28 2.033354 1.000771 -1.937610 -3.689739 1.526791 0.917143
    29 6.028142 0.000004 0.000000 1.294064 -0.328723 -1.712383
    30 11.692552 0.000000 0.000002 0.000000 0.000000 -2.163162
    31 11.481699 0.000000 0.000004 -1.352909 -0.826427 -0.333515
    32 3.883657 -0.050329 -0.431043 0.047704 -0.153454 -0.767482
    33 1.719576 0.000003 0.000000 -0.053884 0.078890 -1.553283
    34 1.209180 -0.000001 0.000000 -0.013612 0.036967 -0.732282
    35 3.859830 -0.148938 -1.331282 -0.332627 0.218366 0.154975
    36 1.719426 0.000000 0.000000 -0.042634 0.220745 -0.851607
    37 1.099666 0.000000 0.000000 0.008154 0.000000 0.000000
    38 0.806017 -0.359836 -1.318334 0.415058 0.423434 -0.720789
    39 1.789784 0.000000 -0.000001 0.015106 0.038911 0.767156
    40 1.206998 0.000000 0.000000 0.004785 0.022541 0.418309
    41 -0.044717 2.313936 4.661499 -0.445474 0.147971 -0.008293
    42 2.676088 -1.712442 0.000000 1.570797 0.000000 1.570797
    43 2.676088 -1.712443 0.000000 -1.570796 0.000000 -1.570796
  time 3
    0 4.909883 4.532696 36.621546 1.804180 -0.293822 -3.976013
    1 3.890452 -0.000004 -0.000003 -1.643762 -0.518111 -1.670402
    2 17.848175 0.000000 0.000000 0.000000 0.000000 1.109138
    3 16.525249 0.000000 0.000000 -0.045330 -0.346087 -0.769348
    4 6.879453 0.000000 0.000000 -0.006125 -0.004329 -0.840249
    5 -3.890452 0.000004 0.000007 -1.021500 -0.740150 -2.068555
    6 17.848171 0.000000 0.000000 0.000000 0.000000 0.949312
    7 16.525257 0.000000 0.000000 0.049277 0.306988 -1.064688
    8 6.879454 0.000000 0.000000 -0.079608 -0.003047 -0.764003
    9 0.214855 3.341221 -2.981901 1.570485 0.072236 1.564181
    10 4.018331 0.000000 0.000000 -0.009814 0.008090 0.034785
    11 3.518561 0.000000 0.000000 -0.066130 0.037284 0.064067
    12 8.942642 0.000000 0.000000 -0.088253 0.053307 0.098323
    13 3.307271 0.000000 0.000000 3.141590 0.000000 0.472992
    14 3.593710 -0.000003 0.000000 -0.693167 -0.273483 0.392538
    15 2.033346 1.000767 1.937660 4.440182 -1.478061 0.098817
    16 6.028142 0.000002 0.000000 -1.132613 -0.764737 -1.188196
    17 11.692556 0.000000 -0.000001 0.000000 0.000000 -2.175467
    18 11.481671 0.000000 -0.000029 0.152639 -0.184996 0.901914
    19 3.883691 -0.046771 0.431443 0.096615 -0.011011 -0.677044
    20 1.719575 0.000000 0.000000 0.055915 -0.087978 -1.150781
    21 1.209183 -0.000001 0.000000 0.009316 -0.033629 -0.339470
    22 3.859861 -0.137948 1.332466 0.537935 -0.132420 -0.946691
    23 1.719428 0.000001 0.000000 0.023476 -0.208311 -0.755744
    24 1.099667 0.000000 0.000000 0.026046 -0.124621 -0.538681
    25 0.806048 -0.348922 1.321258 -1.269164 -0.727275 -0.266407
    26 1.789783 0.000001 0.000001 -0.001067 -0.012843 -0.131867
    27 1.207000 0.000000 0.000001 -0.000100 -0.003215 -0.064874
    28 2.033354 1.000771 -1.937610 -3.694115 1.513423 0.912459
    29 6.028142 0.000004 0.000000 1.804811 -0.331187 -1.927034
    30 11.692552 0.000000 0.000002 0.000000 0.000000 -2.118396
    31 11.481699 0.000000 0.000004 -0.886357 -1.023198 -0.765483
    32 3.883657 -0.050329 -0.431043 0.047704 -0.153454 -0.767482
    33 1.719576 0.000003 0.000000 -0.053884 0.078890 -1.553283
    34 1.209180 -0.000001 0.000000 -0.013612 0.036967 -0.732282
    35 3.859830 -0.148938 -1.331282 -0.332627 0.218366 0.154975
    36 1.719426 0.000000 0.000000 -0.042634 0.220745 -0.851607
    37 1.099666 0.000000 0.000000 0.008154 0.000000 0.000000
    38 0.806017 -0.359836 -1.318334 0.415058 0.423434 -0.720789
    39 1.789784 0.000000 -0.000001 0.015106 0.038911 0.767156
    40 1.206998 0.000000 0.000000 0.004785 0.022541 0.418309
    41 -0.044717 2.313936 4.661499 -0.640798 -0.009154 0.010103
    42 2.676088 -1.712442 0.000000 1.570797 0.000000 1.570797
    43 2.676088 -1.712443 0.000000 -1.570796 0.000000 -1.570796
  time 4
    0 6.293990 5.594137 35.734800 1.923258 -0.299090 -4.332576
    1 3.890452 -0.000004 -0.000003 -1.526981 -0.768588 -1.871764
    2 17.848175 0.000000 0.000000 0.000000 0.000000 1.332795
    3 16.525249 0.000000 0.000000 -0.075113 -0.415708 -0.744397
    4 6.879453 0.000000 0.000000 -0.006161 -0.004293 -0.833382
    5 -3.890452 0.000004 0.000007 -0.746325 -0.860615 -2.176370
    6 17.848171 0.000000 0.000000 0.000000 0.000000 1.079401
    7 16.525257 0.000000 0.000000 -0.051300 0.344868 -1.126065
    8 6.879454 0.000000 0.000000 -0.078913 -0.003083 -0.858151
    9 0.207043 3.341221 -2.981901 1.566860 0.063132 1.562479
    10 4.018331 0.000000 0.000000 -0.036740 -0.002625 0.071904
    11 3.518561 0.000000 0.000000 -0.087603 0.028715 0.111013
    12 8.942642 0.000000 0.000000 -0.100905 0.059575 0.088377
    13 3.307271 0.000000 0.000000 3.141590 0.000000 0.470361
    14 3.593710 -0.000003 0.000000 -0.618437 -0.275398 0.382494
    15 2.033346 1.000767 1.937660 3.920093 -1.449033 0.621549
    16 6.028142 0.000002 0.000000 -1.215488 -0.813670 -1.150600
    17 11.692556 0.000000 -0.000001 0.000000 0.000000 -1.957137
    18 11.481671 0.000000 -0.000029 0.125600 -0.103831 0.704133
    19 3.883691 -0.046771 0.431443 0.096615 -0.011011 -0.677044
    20 1.719575 0.000000 0.000000 0.055915 -0.087978 -1.150781
    21 1.209183 -0.000001 0.000000 0.009316 -0.033629 -0.339470
    22 3.859861 -0.137948 1.332466 0.537935 -0.132420 -0.946691
    23 1.719428 0.000001 0.000000 0.023476 -0.208311 -0.755744
    24 1.099667 0.000000 0.000000 0.026046 -0.124621 -0.538681
    25 0.806048 -0.348922 1.321258 -1.269164 -0.727275 -0.266407
    26 1.789783 0.000001 0.000001 -0.001067 -0.012843 -0.131867
    27 1.207000 0.000000 0.000001 -0.000100 -0.003215 -0.064874
    28 2.033354 1.000771 -1.937610 -3.697151 1.496785 0.909036
    29 6.028142 0.000004 0.000000 1.629421 -0.209299 -1.686857
    30 11.692552 0.000000 0.000002 0.000000 0.000000 -2.015339
    31 11.481699 0.000000 0.000004 -1.029653 -0.715164 -0.615712
    32 3.883657 -0.050329 -0.431043 0.047704 -0.153454 -0.767482
    33 1.719576 0.000003 0.000000 -0.053884 0.078890 -1.553283
    34 1.209180 -0.000001 0.000000 -0.013612 0.036967 -0.732282
    35 3.859830 -0.148938 -1.331282 -0.332627 0.218366 0.154975
    36 1.719426 0.000000 0.000000 -0.042634 0.220745 -0.851607
    37 1.099666 0.000000 0.000000 0.008154 0.000000 0.000000
    38 0.806017 -0.359836 -1.318334 0.415058 0.423434 -0.720789
    39 1.789784 0.000000 -0.000001 0.015106 0.038911 0.767156
    40 1.206998 0.000000 0.000000 0.004785 0.022541 0.418309
    41 -0.044717 2.313936 4.661499 -0.843491 -0.169241 0.025491
    42 2.676088 -1.712442 0.000000 1.570797 0.000000 1.570797
    43 2.676088 -1.712443 0.000000 -1.570796 0.000000 -1.570796
  time 5
    0 8.028673 6.620820 34.762114 2.007286 -0.246349 -4.704370
    1 3.890452 -0.000004 -0.000003 -1.280346 -1.007144 -2.094568
    2 17.848175 0.000000 0.000000 0.000000 0.000000 1.511357
    3 16.525249 0.000000 0.000000 -0.144523 -0.330494 -0.793965
    4 6.879453 0.000000 0.000000 -0.006221 -0.004245 -0.823486
    5 -3.890452 0.000004 0.000007 -0.686134 -0.931287 -2.137851
    6 17.848171 0.000000 0.000000 0.000000 0.000000 1.190703
    7 16.525257 0.000000 0.000000 -0.017244 0.343423 -1.225849
    8 6.879454 0.000000 0.000000 -0.078481 -0.003107 -0.925776
    9 0.199230 3.341221 -2.981901 1.562685 0.052874 1.556930
    10 4.018331 0.000000 0.000000 -0.062479 -0.011925 0.108989
    11 3.518561 0.000000 0.000000 -0.110163 0.021584 0.157618
    12 8.942642 0.000000 0.000000 -0.112430 0.066011 0.080157
    13 3.307271 0.000000 0.000000 3.141590 0.000000 0.467370
    14 3.593710 -0.000003 0.000000 -0.528883 -0.274018 0.373498
    15 2.033346 1.000767 1.937660 3.657848 -1.406146 0.885931
    16 6.028142 0.000002 0.000000 -1.454310 -0.721354 -0.986291
    17 11.692556 0.000000 -0.000001 0.000000 0.000000 -1.972039
    18 11.481671 0.000000 -0.000029 0.034547 -0.025697 0.555442
    19 3.883691 -0.046771 0.431443 0.096615 -0.011011 -0.677044
    20 1.719575 0.000000 0.000000 0.055915 -0.087978 -1.150781
    21 1.209183 -0.000001 0.000000 0.009316 -0.033629 -0.339470
    22 3.859861 -0.137948 1.332466 0.537935 -0.132420 -0.946691
    23 1.719428 0.000001 0.000000 0.023476 -0.208311 -0.755744
    24 1.099667 0.000000 0.000000 0.026046 -0.124621 -0.538681
    25 0.806048 -0.348922 1.321258 -1.269164 -0.727275 -0.266407
    26 1.789783 0.000001 0.000001 -0.001067 -0.012843 -0.131867
    27 1.207000 0.000000 0.000001 -0.000100 -0.003215 -0.064874
    28 2.033354 1.000771 -1.937610 -3.699116 1.478011 0.906784
    29 6.028142 0.000004 0.000000 1.361691 -0.109156 -1.472491
    30 11.692552 0.000000 0.000002 0.000000 0.000000 -2.023945
    31 11.481699 0.000000 0.000004 -1.234490 -0.399268 -0.446029
    32 3.883657 -0.050329 -0.431043 0.047704 -0.153454 -0.767482
    33 1.719576 0.000003 0.000000 -0.053884 0.078890 -1.553283
    34 1.209180 -0.000001 0.000000 -0.013612 0.036967 -0.732282
    35 3.859830 -0.148938 -1.331282 -0.332627 0.218366 0.154975
    36 1.719426 0.000000 0.000000 -0.042634 0.220745 -0.851607
    37 1.099666 0.000000 0.000000 0.008154 0.000000 0.000000
    38 0.806017 -0.359836 -1.318334 0.415058 0.423434 -0.720789
    39 1.789784 0.000000 -0.000001 0.015106 0.038911 0.767156
    40 1.206998 0.000000 0.000000 0.004785 0.022541 0.418309
    41 -0.044717 2.313936 4.661499 -1.012614 -0.297719 0.031855
    42 2.676088 -1.712442 0.000000 1.570797 0.000000 1.570797
    43 2.676088 -1.712443 0.000000 -1.570796 0.000000 -1.570796
  time 6
    0 10.242842 7.514697 33.687862 2.028596 -0.169131 1.229207
    1 3.890452 -0.000004 -0.000003 -1.177875 -1.191914 -2.161365
    2 17.848175 0.000000 0.000000 0.000000 0.000000 1.631536
    3 16.525249 0.000000 0.000000 -0.155114 -0.246734 -0.985948
    4 6.879453 0.000000 0.000000 -0.006281 -0.004185 -0.810139
    5 -3.890452 0.000004 0.000007 -0.862970 -0.961085 -1.982831
    6 17.848171 0.000000 0.000000 0.000000 0.000000 1.294980
    7 16.525257 0.000000 0.000000 0.135913 0.299948 -1.299459
    8 6.879454 0.000000 0.000000 -0.078325 -0.003119 -0.952504
    9 0.187511 3.341221 -2.981901 1.558273 0.042080 1.546012
    10 4.018331 0.000000 0.000000 -0.083102 -0.017809 0.141229
    11 3.518561 0.000000 0.000000 -0.131511 0.017629 0.197736
    12 8.942642 0.000000 0.000000 -0.120731 0.071908 0.075730
    13 3.307271 0.000000 0.000000 3.141590 0.000000 0.464236
    14 3.593710 -0.000003 0.000000 -0.427615 -0.267764 0.367521
    15 2.033346 1.000767 1.937660 3.536583 -1.371205 1.008499
    16 6.028142 0.000002 0.000000 -1.642783 -0.664387 -0.771390
    17 11.692556 0.000000 -0.000001 0.000000 0.000000 -1.975193
    18 11.481671 0.000000 -0.000029 -0.165713 -0.035204 0.385092
    19 3.883691 -0.046771 0.431443 0.096615 -0.011011 -0.677044
    20 1.719575 0.000000 0.000000 0.055915 -0.087978 -1.150781
    21 1.209183 -0.000001 0.000000 0.009316 -0.033629 -0.339470
    22 3.859861 -0.137948 1.332466 0.537935 -0.132420 -0.946691
    23 1.719428 0.000001 0.000000 0.023476 -0.208311 -0.755744
    24 1.099667 0.000000 0.000000 0.026046 -0.124621 -0.538681
    25 0.806048 -0.348922 1.321258 -1.269164 -0.727275 -0.266407
    26 1.789783 0.000001 0.000001 -0.001067 -0.012843 -0.131867
    27 1.207000 0.000000 0.000001 -0.000100 -0.003215 -0.064874
    28 2.033354 1.000771 -1.937610 -3.700455 1.458299 0.905343
    29 6.028142 0.000004 0.000000 1.196456 0.020974 -1.294660
    30 11.692552 0.000000 0.000002 0.000000 0.000000 -2.087153
    31 11.481699 0.000000 0.000004 -1.389510 -0.115404 -0.293804
    32 3.883657 -0.050329 -0.431043 0.047704 -0.153454 -0.767482
    33 1.719576 0.000003 0.000000 -0.053884 0.078890 -1.553283
    34 1.209180 -0.000001 0.000000 -0.013612 0.036967 -0.732282
    35 3.859830 -0.148938 -1.331282 -0.332627 0.218366 0.154975
    36 1.719426 0.000000 0.000000 -0.042634 0.220745 -0.851607
    37 1.099666 0.000000 0.000000 0.008154 0.000000 0.000000
    38 0.806017 -0.359836 -1.318334 0.415058 0.423434 -0.720789
    39 1.789784 0.000000 -0.000001 0.015106 0.038911 0.767156
    40 1.206998 0.000000 0.000000 0.004785 0.022541 0.418309
    41 -0.044717 2.313936 4.661499 -1.107365 -0.360017 0.023226
    42 2.676088 -1.712442 0.000000 1.570797 0.000000 1.570797
    43 2.676088 -1.712443 0.000000 -1.570796 0.000000 -1.570796
  time 7
    0 13.209944 8.140948 32.469075 1.997745 -0.107535 0.928782
    1 3.890452 -0.000004 -0.000003 -1.124432 -1.334485 -2.158718
    2 17.848175 0.000000 0.000000 0.000000 0.000000 1.652718
    3 16.525249 0.000000 0.000000 -0.072554 -0.306060 -1.195123
    4 6.879453 0.000000 0.000000 -0.006376 -0.004102 -0.792849
    5 -3.890452 0.000004 0.000007 -1.016421 -0.915114 -1.895785
    6 17.848171 0.000000 0.000000 0.000000 0.000000 1.397757
    7 16.525257 0.000000 0.000000 0.324154 0.201157 -1.350205
    8 6.879454 0.000000 0.000000 -0.078493 -0.003107 -0.924254
    9 0.179698 3.341221 -2.981901 1.554006 0.031419 1.528227
    10 4.018331 0.000000 0.000000 -0.094632 -0.018265 0.163884
    11 3.518561 0.000000 0.000000 -0.149420 0.018564 0.225221
    12 8.942642 0.000000 0.000000 -0.123691 0.076546 0.077180
    13 3.307271 0.000000 0.000000 3.141590 0.000000 0.461150
    14 3.593710 -0.000003 0.000000 -0.317907 -0.255313 0.366473
    15 2.033346 1.000767 1.937660 3.489207 -1.358610 1.055994
    16 6.028142 0.000002 0.000000 -1.764692 -0.647929 -0.635579
    17 11.692556 0.000000 -0.000001 0.000000 0.000000 -1.994038
    18 11.481671 0.000000 -0.000029 -0.290971 -0.053264 0.312485
    19 3.883691 -0.046771 0.431443 0.096615 -0.011011 -0.677044
    20 1.719575 0.000000 0.000000 0.055915 -0.087978 -1.150781
    21 1.209183 -0.000001 0.000000 0.009316 -0.033629 -0.339470
    22 3.859861 -0.137948 1.332466 0.537935 -0.132420 -0.946691
    23 1.719428 0.000001 0.000000 0.023476 -0.208311 -0.755744
    24 1.099667 0.000000 0.000000 0.026046 -0.124621 -0.538681
    25 0.806048 -0.348922 1.321258 -1.269164 -0.727275 -0.266407
    26 1.789783 0.000001 0.000001 -0.001067 -0.012843 -0.131867
    27 1.207000 0.000000 0.000001 -0.000100 -0.003215 -0.064874
    28 2.033354 1.000771 -1.937610 -3.701348 1.438813 0.904532
    29 6.028142 0.000004 0.000000 1.113502 0.119459 -1.162947
    30 11.692552 0.000000 0.000002 0.000000 0.000000 -2.170900
    31 11.481699 0.000000 0.000004 -1.464138 0.095642 -0.177696
    32 3.883657 -0.050329 -0.431043 0.047704 -0.153454 -0.767482
    33 1.719576 0.000003 0.000000 -0.053884 0.078890 -1.553283
    34 1.209180 -0.000001 0.000000 -0.013612 0.036967 -0.732282
    35 3.859830 -0.148938 -1.331282 -0.332627 0.218366 0.154975
    36 1.719426 0.000000 0.000000 -0.042634 0.220745 -0.851607
    37 1.099666 0.000000 0.000000 0.008154 0.000000 0.000000
    38 0.806017 -0.359836 -1.318334 0.415058 0.423434 -0.720789
    39 1.789784 0.000000 -0.000001 0.015106 0.038911 0.767156
    40 1.206998 0.000000 0.000000 0.004785 0.022541 0.418309
    41 -0.044717 2.313936 4.661499 -1.129199 -0.350317 -0.005453
    42 2.676088 -1.712442 0.000000 1.570797 0.000000 1.570797
    43 2.676088 -1.712443 0.000000 -1.570796 0.000000 -1.570796
  time 8
    0 16.687784 8.542471 31.344041 1.943359 -0.068102 0.667252
    1 3.890452 -0.000004 -0.000003 -1.299073 -1.426560 -1.863999
    2 17.848175 0.000000 0.000000 0.000000 0.000000 1.527679
    3 16.525249 0.000000 0.000000 0.111510 -0.277482 -1.303088
    4 6.879453 0.000000 0.000000 -0.006496 -0.003970 -0.767599
    5 -3.890452 0.000004 0.000007 -1.058210 -0.830818 -1.921654
    6 17.848171 0.000000 0.000000 0.000000 0.000000 1.476458
    7 16.525257 0.000000 0.000000 0.467206 0.145724 -1.311211
    8 6.879454 0.000000 0.000000 -0.078973 -0.003083 -0.849135
    9 0.171885 3.341221 -2.981901 1.549759 0.020157 1.495844
    10 4.018331 0.000000 0.000000 -0.093975 -0.010606 0.176222
    11 3.518561 0.000000 0.000000 -0.166723 0.027193 0.238459
    12 8.942642 0.000000 0.000000 -0.119691 0.080824 0.088087
    13 3.307271 0.000000 0.000000 3.141590 0.000000 0.457896
    14 3.593710 -0.000003 0.000000 -0.185548 -0.234494 0.373744
    15 2.033346 1.000767 1.937660 3.501458 -1.379466 1.042684
    16 6.028142 0.000002 0.000000 -1.841157 -0.682986 -0.575519
    17 11.692556 0.000000 -0.000001 0.000000 0.000000 -1.996245
    18 11.481671 0.000000 -0.000029 -0.343711 -0.015858 0.329085
    19 3.883691 -0.046771 0.431443 0.096615 -0.011011 -0.677044
    20 1.719575 0.000000 0.000000 0.055915 -0.087978 -1.150781
    21 1.209183 -0.000001 0.000000 0.009316 -0.033629 -0.339470
    22 3.859861 -0.137948 1.332466 0.537935 -0.132420 -0.946691
    23 1.719428 0.000001 0.000000 0.023476 -0.208311 -0.755744
    24 1.099667 0.000000 0.000000 0.026046 -0.124621 -0.538681
    25 0.806048 -0.348922 1.321258 -1.269164 -0.727275 -0.266407
    26 1.789783 0.000001 0.000001 -0.001067 -0.012843 -0.131867
    27 1.207000 0.000000 0.000001 -0.000100 -0.003215 -0.064874
    28 2.033354 1.000771 -1.937610 -3.702063 1.418323 0.904172
    29 6.028142 0.000004 0.000000 1.080743 0.193596 -1.078207
    30 11.692552 0.000000 0.000002 0.000000 0.000000 -2.237941
    31 11.481699 0.000000 0.000004 -1.441011 0.225765 -0.076765
    32 3.883657 -0.050329 -0.431043 0.047704 -0.153454 -0.767482
    33 1.719576 0.000003 0.000000 -0.053884 0.078890 -1.553283
    34 1.209180 -0.000001 0.000000 -0.013612 0.036967 -0.732282
    35 3.859830 -0.148938 -1.331282 -0.332627 0.218366 0.154975
    36 1.719426 0.000000 0.000000 -0.042634 0.220745 -0.851607
    37 1.099666 0.000000 0.000000 0.008154 0.000000 0.000000
    38 0.806017 -0.359836 -1.318334 0.415058 0.423434 -0.720789
    39 1.789784 0.000000 -0.000001 0.015106 0.038911 0.767156
    40 1.206998 0.000000 0.000000 0.004785 0.022541 0.418309
    41 -0.044717 2.313936 4.661499 -1.113369 -0.296331 -0.050419
    42 2.676088 -1.712442 0.000000 1.570797 0.000000 1.570797
    43 2.676088 -1.712443 0.000000 -1.570796 0.000000 -1.570796
  time 9
    0 20.051342 8.927621 30.586205 1.880576 -0.043673 0.415876
    1 3.890452 -0.000004 -0.000003 -1.932710 -1.339158 -1.100730
    2 17.848175 0.000000 0.000000 0.000000 0.000000 1.272288
    3 16.525249 0.000000 0.000000 0.162653 -0.058214 -1.275060
    4 6.879453 0.000000 0.000000 -0.006676 -0.003766 -0.729883
    5 -3.890452 0.000004 0.000007 -1.097890 -0.775290 -1.957529
    6 17.848171 0.000000 0.000000 0.000000 0.000000 1.533767
    7 16.525257 0.000000 0.000000 0.467487 0.234888 -1.192409
    8 6.879454 0.000000 0.000000 -0.079656 -0.003047 -0.756919
    9 0.160166 3.345128 -2.981901 1.545877 0.007472 1.448002
    10 4.018331 0.000000 0.000000 -0.083695 0.004207 0.182130
    11 3.518561 0.000000 0.000000 -0.186076 0.042785 0.242230
    12 8.942642 0.000000 0.000000 -0.110051 0.085570 0.107637
    13 3.307271 0.000000 0.000000 3.141590 0.000000 0.454212
    14 3.593710 -0.000003 0.000000 -0.016823 -0.203535 0.393647
    15 2.033346 1.000767 1.937660 3.589128 -1.428086 0.952960
    16 6.028142 0.000002 0.000000 -1.919035 -0.747160 -0.525298
    17 11.692556 0.000000 -0.000001 0.000000 0.000000 -1.934429
    18 11.481671 0.000000 -0.000029 -0.380686 0.050237 0.343670
    19 3.883691 -0.046771 0.431443 0.096615 -0.011011 -0.677044
    20 1.719575 0.000000 0.000000 0.055915 -0.087978 -1.150781
    21 1.209183 -0.000001 0.000000 0.009316 -0.033629 -0.339470
    22 3.859861 -0.137948 1.332466 0.537935 -0.132420 -0.946691
    23 1.719428 0.000001 0.000000 0.023476 -0.208311 -0.755744
    24 1.099667 0.000000 0.000000 0.026046 -0.124621 -0.538681
    25 0.806048 -0.348922 1.321258 -1.269164 -0.727275 -0.266407
    26 1.789783 0.000001 0.000001 -0.001067 -0.012843 -0.131867
    27 1.207000 0.000000 0.000001 -0.000100 -0.003215 -0.064874
    28 2.033354 1.000771 -1.937610 -3.702599 1.395244 0.904082
    29 6.028142 0.000004 0.000000 1.107947 0.309561 -1.043096
    30 11.692552 0.000000 0.000002 0.000000 0.000000 -2.252116
    31 11.481699 0.000000 0.000004 -1.333669 0.261209 0.047730
    32 3.883657 -0.050329 -0.431043 0.047704 -0.153454 -0.767482
    33 1.719576 0.000003 0.000000 -0.053884 0.078890 -1.553283
    34 1.209180 -0.000001 0.000000 -0.013612 0.036967 -0.732282
    35 3.859830 -0.148938 -1.331282 -0.332627 0.218366 0.154975
    36 1.719426 0.000000 0.000000 -0.042634 0.220745 -0.851607
    37 1.099666 0.000000 0.000000 0.008154 0.000000 0.000000
    38 0.806017 -0.359836 -1.318334 0.415058 0.423434 -0.720789
    39 1.789784 0.000000 -0.000001 0.015106 0.038911 0.767156
    40 1.206998 0.000000 0.000000 0.004785 0.022541 0.418309
    41 -0.044717 2.313936 4.661499 -1.069655 -0.213855 -0.104434
    42 2.676088 -1.712442 0.000000 1.570797 0.000000 1.570797
    43 2.676088 -1.712443 0.000000 -1.570796 0.000000 -1.570796
  time 10
    0 23.296712 9.302526 30.164317 1.822055 -0.035470 0.181265
    1 3.890452 -0.000004 -0.000003 -2.062918 -1.122965 -0.905633
    2 17.848175 0.000000 0.000000 0.000000 0.000000 1.020312
    3 16.525249 0.000000 0.000000 0.033250 0.145158 -1.249172
    4 6.879453 0.000000 0.000000 -0.006892 -0.003514 -0.683646
    5 -3.890452 0.000004 0.000007 -1.163832 -0.745149 -1.975373
    6 17.848171 0.000000 0.000000 0.000000 0.000000 1.572446
    7 16.525257 0.000000 0.000000 0.340340 0.424521 -1.128522
    8 6.879454 0.000000 0.000000 -0.080351 -0.002999 -0.677350
    9 0.148447 3.345128 -2.981901 1.543149 -0.006100 1.393544
    10 4.018331 0.000000 0.000000 -0.068204 0.022783 0.183594
    11 3.518561 0.000000 0.000000 -0.204840 0.061924 0.239980
    12 8.942642 0.000000 0.000000 -0.096958 0.089908 0.131442
    13 3.307271 0.000000 0.000000 3.141590 0.000000 0.450264
    14 3.593710 -0.000003 0.000000 0.177442 -0.164744 0.427907
    15 2.033346 1.000767 1.937660 3.876258 -1.487541 0.663586
    16 6.028142 0.000002 0.000000 -2.000591 -0.807487 -0.473406
    17 11.692556 0.000000 -0.000001 0.000000 0.000000 -1.845488
    18 11.481671 0.000000 -0.000029 -0.413362 0.120026 0.353828
    19 3.883691 -0.046771 0.431443 0.096615 -0.011011 -0.677044
    20 1.719575 0.000000 0.000000 0.055915 -0.087978 -1.150781
    21 1.209183 -0.000001 0.000000 0.009316 -0.033629 -0.339470
    22 3.859861 -0.137948 1.332466 0.537935 -0.132420 -0.946691
    23 1.719428 0.000001 0.000000 0.023476 -0.208311 -0.755744
    24 1.099667 0.000000 0.000000 0.026046 -0.124621 -0.538681
    25 0.806048 -0.348922 1.321258 -1.269164 -0.727275 -0.266407
    26 1.789783 0.000001 0.000001 -0.001067 -0.012843 -0.131867
    27 1.207000 0.000000 0.000001 -0.000100 -0.003215 -0.064874
    28 2.033354 1.000771 -1.937610 -3.703224 1.370385 0.904352
    29 6.028142 0.000004 0.000000 1.163313 0.455513 -1.024497
    30 11.692552 0.000000 0.000002 0.000000 0.000000 -2.228106
    31 11.481699 0.000000 0.000004 -1.185256 0.228972 0.177532
    32 3.883657 -0.050329 -0.431043 0.047704 -0.153454 -0.767482
    33 1.719576 0.000003 0.000000 -0.053884 0.078890 -1.553283
    34 1.209180 -0.000001 0.000000 -0.013612 0.036967 -0.732282
    35 3.859830 -0.148938 -1.331282 -0.332627 0.218366 0.154975
    36 1.719426 0.000000 0.000000 -0.042634 0.220745 -0.851607
    37 1.099666 0.000000 0.000000 0.008154 0.000000 0.000000
    38 0.806017 -0.359836 -1.318334 0.415058 0.423434 -0.720789
    39 1.789784 0.000000 -0.000001 0.015106 0.038911 0.767156
    40 1.206998 0.000000 0.000000 0.004785 0.022541 0.418309
    41 -0.044717 2.313936 4.661499 -1.007792 -0.118670 -0.160222
    42 2.676088 -1.712442 0.000000 1.570797 0.000000 1.570797
    43 2.676088 -1.712443 0.000000 -1.570796 0.000000 -1.570796
  time 11
    0 26.451238 9.667185 30.047126 1.777019 -0.036514 -0.030258
    1 3.890452 -0.000004 -0.000003 -2.146308 -0.962370 -0.850219
    2 17.848175 0.000000 0.000000 0.000000 0.000000 0.969219
    3 16.525249 0.000000 0.000000 -0.099316 0.228642 -1.244356
    4 6.879453 0.000000 0.000000 -0.007072 -0.003275 -0.640929
    5 -3.890452 0.000004 0.000007 -1.268976 -0.719762 -1.963383
    6 17.848171 0.000000 0.000000 0.000000 0.000000 1.577182
    7 16.525257 0.000000 0.000000 0.197943 0.586601 -1.162709
    8 6.879454 0.000000 0.000000 -0.080722 -0.002975 -0.640229
    9 0.136728 3.345128 -2.981901 1.541886 -0.020040 1.341267
    10 4.018331 0.000000 0.000000 -0.052007 0.041682 0.182653
    11 3.518561 0.000000 0.000000 -0.220379 0.081124 0.235153
    12 8.942642 0.000000 0.000000 -0.082631 0.092941 0.155076
    13 3.307271 0.000000 0.000000 3.141590 0.000000 0.446125
    14 3.593710 -0.000003 0.000000 0.374371 -0.124938 0.472458
    15 2.033346 1.000767 1.937660 -1.407031 -1.520451 5.945008
    16 6.028142 0.000002 0.000000 -2.081298 -0.852476 -0.413902
    17 11.692556 0.000000 -0.000001 0.000000 0.000000 -1.755602
    18 11.481671 0.000000 -0.000029 -0.446516 0.177153 0.366515
    19 3.883691 -0.046771 0.431443 0.096615 -0.011011 -0.677044
    20 1.719575 0.000000 0.000000 0.055915 -0.087978 -1.150781
    21 1.209183 -0.000001 0.000000 0.009316 -0.033629 -0.339470
    22 3.859861 -0.137948 1.332466 0.537935 -0.132420 -0.946691
    23 1.719428 0.000001 0.000000 0.023476 -0.208311 -0.755744
    24 1.099667 0.000000 0.000000 0.026046 -0.124621 -0.538681
    25 0.806048 -0.348922 1.321258 -1.269164 -0.727275 -0.266407
    26 1.789783 0.000001 0.000001 -0.001067 -0.012855 -0.131867
    27 1.207000 0.000000 0.000001 -0.000100 -0.003215 -0.064874
    28 2.033354 1.000771 -1.937610 -3.703849 1.344458 0.904983
    29 6.028142 0.000004 0.000000 1.232568 0.607908 -0.989481
    30 11.692552 0.000000 0.000002 0.000000 0.000000 -2.180664
    31 11.481699 0.000000 0.000004 -1.027968 0.162427 0.280745
    32 3.883657 -0.050329 -0.431043 0.047704 -0.153454 -0.767482
    33 1.719576 0.000003 0.000000 -0.053884 0.078890 -1.553283
    34 1.209180 -0.000001 0.000000 -0.013612 0.036967 -0.732282
    35 3.859830 -0.148938 -1.331282 -0.332627 0.218366 0.154975
    36 1.719426 0.000000 0.000000 -0.042634 0.220745 -0.851607
    37 1.099666 0.000000 0.000000 0.008154 0.000000 0.000000
    38 0.806017 -0.359836 -1.318334 0.415058 0.423434 -0.720789
    39 1.789784 0.000000 -0.000001 0.015106 0.038911 0.767156
    40 1.206998 0.000000 0.000000 0.004785 0.022541 0.418309
    41 -0.044717 2.313936 4.661499 -0.937605 -0.026588 -0.210569
    42 2.676088 -1.712442 0.000000 1.570797 0.000000 1.570797
    43 2.676088 -1.712443 0.000000 -1.570796 0.000000 -1.570796
  time 12
    0 29.564615 10.034870 30.199475 1.743815 -0.037084 -0.216299
    1 3.890452 -0.000004 -0.000003 -2.251782 -0.879259 -0.827012
    2 17.848175 0.000000 0.000000 0.000000 0.000000 1.054172
    3 16.525249 0.000000 0.000000 -0.117157 0.259994 -1.200541
    4 6.879453 0.000000 0.000000 -0.007203 -0.003107 -0.611137
    5 -3.890452 0.000004 0.000007 -1.389263 -0.679231 -1.925430
    6 17.848171 0.000000 0.000000 0.000000 0.000000 1.544660
    7 16.525257 0.000000 0.000000 0.189335 0.613152 -1.232366
    8 6.879454 0.000000 0.000000 -0.080339 -0.002999 -0.678521
    9 0.121102 3.345128 -2.981901 1.541758 -0.033863 1.300016
    10 4.018331 0.000000 0.000000 -0.039514 0.057478 0.181328
    11 3.518561 0.000000 0.000000 -0.230073 0.096931 0.231242
    12 8.942642 0.000000 0.000000 -0.069309 0.093791 0.174138
    13 3.307271 0.000000 0.000000 3.141590 0.000000 0.441939
    14 3.593710 -0.000003 0.000000 0.541486 -0.092514 0.514112
    15 2.033346 1.000767 1.937660 -0.570813 -1.490204 5.107622
    16 6.028142 0.000002 0.000000 -2.148806 -0.875945 -0.354212
    17 11.692556 0.000000 -0.000001 0.000000 0.000000 -1.672654
    18 11.481671 0.000000 -0.000029 -0.482918 0.213023 0.377463
    19 3.883691 -0.046771 0.431443 0.096615 -0.011011 -0.677044
    20 1.719575 0.000000 0.000000 0.055915 -0.087978 -1.150781
    21 1.209183 -0.000001 0.000000 0.009316 -0.033629 -0.339470
    22 3.859861 -0.137948 1.332466 0.537935 -0.132420 -0.946691
    23 1.719428 0.000001 0.000000 0.023476 -0.208311 -0.755744
    24 1.099667 0.000000 0.000000 0.026046 -0.124621 -0.538681
    25 0.806048 -0.348922 1.321258 -1.269164 -0.727275 -0.266407
    26 1.789783 0.000001 0.000001 -0.001067 -0.012855 -0.131867
    27 1.207000 0.000000 0.000001 -0.000100 -0.003215 -0.064874
    28 2.033354 1.000771 -1.937610 -3.704474 1.318207 0.905883
    29 6.028142 0.000004 0.000000 1.318107 0.744006 -0.923435
    30 11.692552 0.000000 0.000002 0.000000 0.000000 -2.114780
    31 11.481699 0.000000 0.000004 -0.879231 0.080954 0.337116
    32 3.883657 -0.050329 -0.431043 0.047704 -0.153454 -0.767482
    33 1.719576 0.000003 0.000000 -0.053884 0.078890 -1.553283
    34 1.209180 -0.000001 0.000000 -0.013612 0.036967 -0.732282
    35 3.859830 -0.148938 -1.331282 -0.332627 0.218366 0.154975
    36 1.719426 0.000000 0.000000 -0.042634 0.220745 -0.851607
    37 1.099666 0.000000 0.000000 0.008154 0.000000 0.000000
    38 0.806017 -0.359836 -1.318334 0.415058 0.423434 -0.720789
    39 1.789784 0.000000 -0.000001 0.015106 0.038911 0.767156
    40 1.206998 0.000000 0.000000 0.004785 0.022541 0.418309
    41 -0.044717 2.313936 4.661499 -0.868873 0.046626 -0.248225
    42 2.676088 -1.712442 0.000000 1.570797 0.000000 1.570797
    43 2.676088 -1.712443 0.000000 -1.570796 0.000000 -1.570796
  time 13
    0 32.685804 10.396427 30.594018 1.713791 -0.031915 -0.379061
    1 3.890452 -0.000004 -0.000003 -2.335613 -0.815889 -0.834866
    2 17.848175 0.000000 0.000000 0.000000 0.000000 1.112782
    3 16.525249 0.000000 0.000000 -0.080124 0.237949 -1.161877
    4 6.879453 0.000000 0.000000 -0.007263 -0.003011 -0.594903
    5 -3.890452 0.000004 0.000007 -1.471499 -0.578859 -1.900412
    6 17.848171 0.000000 0.000000 0.000000 0.000000 1.464696
    7 16.525257 0.000000 0.000000 0.280742 0.468089 -1.309768
    8 6.879454 0.000000 0.000000 -0.079560 -0.003047 -0.769858
    9 0.109383 3.345128 -2.981901 1.541867 -0.047385 1.278600
    10 4.018331 0.000000 0.000000 -0.035217 0.066742 0.181642
    11 3.518561 0.000000 0.000000 -0.231303 0.105920 0.231646
    12 8.942642 0.000000 0.000000 -0.059193 0.091610 0.184282
    13 3.307271 0.000000 0.000000 3.141590 0.000000 0.437824
    14 3.593710 -0.000003 0.000000 0.649528 -0.072062 0.535062
    15 2.033346 1.000767 1.937660 -0.347425 -1.460680 4.883840
    16 6.028142 0.000002 0.000000 -2.188970 -0.869372 -0.316430
    17 11.692556 0.000000 -0.000001 0.000000 0.000000 -1.596881
    18 11.481671 0.000000 -0.000029 -0.521709 0.223070 0.373392
    19 3.883691 -0.046771 0.431443 0.096615 -0.011011 -0.677044
    20 1.719575 0.000000 0.000000 0.055915 -0.087978 -1.150781
    21 1.209183 -0.000001 0.000000 0.009316 -0.033629 -0.339470
    22 3.859861 -0.137948 1.332466 0.537935 -0.132420 -0.946691
    23 1.719428 0.000001 0.000000 0.023476 -0.208311 -0.755744
    24 1.099667 0.000000 0.000000 0.026046 -0.124621 -0.538681
    25 0.806048 -0.348922 1.321258 -1.269164 -0.727275 -0.266407
    26 1.789783 0.000001 0.000001 -0.001067 -0.012843 -0.131867
    27 1.207000 0.000000 0.000001 -0.000100 -0.003215 -0.064874
    28 2.033354 1.000771 -1.937610 -3.705099 1.292441 0.907054
    29 6.028142 0.000004 0.000000 1.412843 0.855093 -0.834519
    30 11.692552 0.000000 0.000002 0.000000 0.000000 -2.023222
    31 11.481699 0.000000 0.000004 -0.758804 -0.005381 0.338143
    32 3.883657 -0.050329 -0.431043 0.047704 -0.153454 -0.767482
    33 1.719576 0.000003 0.000000 -0.053884 0.078890 -1.553283
    34 1.209180 -0.000001 0.000000 -0.013612 0.036967 -0.732282
    35 3.859830 -0.148938 -1.331282 -0.332627 0.218366 0.154975
    36 1.719426 0.000000 0.000000 -0.042634 0.220745 -0.851607
    37 1.099666 0.000000 0.000000 0.008154 0.000000 0.000000
    38 0.806017 -0.359836 -1.318334 0.415058 0.423434 -0.720789
    39 1.789784 0.000000 -0.000001 0.015106 0.038911 0.767156
    40 1.206998 0.000000 0.000000 0.004785 0.022541 0.418309
    41 -0.044717 2.313936 4.661499 -0.811377 0.085205 -0.265950
    42 2.676088 -1.712442 0.000000 1.570797 0.000000 1.570797
    43 2.676088 -1.712443 0.000000 -1.570796 0.000000 -1.570796
  time 14
    0 35.353854 10.923442 31.109659 1.682304 -0.020728 -0.484152
    1 3.890452 -0.000004 -0.000003 -2.365382 -0.783322 -0.874132
    2 17.848175 0.000000 0.000000 0.000000 0.000000 1.109973
    3 16.525249 0.000000 0.000000 -0.058977 0.147381 -1.157395
    4 6.879453 0.000000 0.000000 -0.007299 -0.002951 -0.584408
    5 -3.890452 0.000004 0.000007 -1.467761 -0.396642 -1.922031
    6 17.848171 0.000000 0.000000 0.000000 0.000000 1.316451
    7 16.525257 0.000000 0.000000 0.342679 0.208640 -1.393741
    8 6.879454 0.000000 0.000000 -0.078901 -0.003083 -0.860962
    9 0.097664 3.345128 -2.981901 1.541428 -0.062212 1.276047
    10 4.018331 0.000000 0.000000 -0.038905 0.070170 0.183402
    11 3.518561 0.000000 0.000000 -0.223409 0.108688 0.236270
    12 8.942642 0.000000 0.000000 -0.051263 0.085858 0.186113
    13 3.307271 0.000000 0.000000 3.141590 0.000000 0.433350
    14 3.593710 -0.000003 0.000000 0.712765 -0.058202 0.538451
    15 2.033346 1.000767 1.937660 -0.255448 -1.448491 4.791914
    16 6.028142 0.000002 0.000000 -2.214616 -0.868057 -0.286261
    17 11.692556 0.000000 -0.000001 0.000000 0.000000 -1.504392
    18 11.481671 0.000000 -0.000029 -0.561168 0.234986 0.324105
    19 3.883691 -0.046771 0.431443 0.096615 -0.011011 -0.677044
    20 1.719575 0.000000 0.000000 0.055915 -0.087978 -1.150781
    21 1.209183 -0.000001 0.000000 0.009316 -0.033629 -0.339470
    22 3.859861 -0.137948 1.332466 0.537935 -0.132420 -0.946691
    23 1.719428 0.000001 0.000000 0.023476 -0.208311 -0.755744
    24 1.099667 0.000000 0.000000 0.026046 -0.124621 -0.538681
    25 0.806048 -0.348922 1.321258 -1.269164 -0.727275 -0.266407
    26 1.789783 0.000001 0.000001 -0.001067 -0.012843 -0.131867
    27 1.207000 0.000000 0.000001 -0.000100 -0.003215 -0.064874
    28 2.033354 1.000771 -1.937610 -3.705992 1.264475 0.908496
    29 6.028142 0.000004 0.000000 1.471657 0.927713 -0.791912
    30 11.692552 0.000000 0.000002 0.000000 0.000000 -1.944103
    31 11.481699 0.000000 0.000004 -0.709700 -0.060858 0.346759
    32 3.883657 -0.050329 -0.431043 0.047704 -0.153454 -0.767482
    33 1.719576 0.000003 0.000000 -0.053884 0.078890 -1.553283
    34 1.209180 -0.000001 0.000000 -0.013612 0.036967 -0.732282
    35 3.859830 -0.148938 -1.331282 -0.332627 0.218366 0.154975
    36 1.719426 0.000000 0.000000 -0.042634 0.220745 -0.851607
    37 1.099666 0.000000 0.000000 0.008154 0.000000 0.000000
    38 0.806017 -0.359836 -1.318334 0.415058 0.423434 -0.720789
    39 1.789784 0.000000 -0.000001 0.015106 0.038911 0.767156
    40 1.206998 0.000000 0.000000 0.004785 0.022541 0.418309
    41 -0.044717 2.313936 4.661499 -0.759703 0.058649 -0.237630
    42 2.676088 -1.712442 0.000000 1.570797 0.000000 1.570797
    43 2.676088 -1.712443 0.000000 -1.570796 0.000000 -1.570796
  time 15
    0 37.139065 11.732349 31.613580 1.651453 -0.006050 -0.538183
    1 3.890452 -0.000004 -0.000003 -2.348775 -0.765107 -0.916046
    2 17.848175 0.000000 0.000000 0.000000 0.000000 1.058424
    3 16.525249 0.000000 0.000000 -0.052900 0.081165 -1.113714
    4 6.879453 0.000000 0.000000 -0.007299 -0.002951 -0.584127
    5 -3.890452 0.000004 0.000007 -1.427889 -0.247849 -1.935815
    6 17.848171 0.000000 0.000000 0.000000 0.000000 1.175311
    7 16.525257 0.000000 0.000000 0.351660 0.012223 -1.449242
    8 6.879454 0.000000 0.000000 -0.078649 -0.003095 -0.898521
    9 0.082039 3.345128 -2.981901 1.540275 -0.079399 1.283657
    10 4.018331 0.000000 0.000000 -0.046635 0.071105 0.185023
    11 3.518561 0.000000 0.000000 -0.208850 0.108604 0.242338
    12 8.942642 0.000000 0.000000 -0.043228 0.077277 0.183886
    13 3.307271 0.000000 0.000000 3.141590 0.000000 0.428206
    14 3.593710 -0.000003 0.000000 0.761345 -0.045018 0.538698
    15 2.033346 1.000767 1.937660 -0.184144 -1.443435 4.721055
    16 6.028142 0.000002 0.000000 -2.243467 -0.859439 -0.262310
    17 11.692556 0.000000 -0.000001 0.000000 0.000000 -1.425702
    18 11.481671 0.000000 -0.000029 -0.601870 0.271977 0.242448
    19 3.883691 -0.046771 0.431443 0.096615 -0.011011 -0.677044
    20 1.719575 0.000000 0.000000 0.055915 -0.087978 -1.150781
    21 1.209183 -0.000001 0.000000 0.009316 -0.033629 -0.339470
    22 3.859861 -0.137948 1.332466 0.537935 -0.132420 -0.946691
    23 1.719428 0.000001 0.000000 0.023476 -0.208311 -0.755744
    24 1.099667 0.000000 0.000000 0.026046 -0.124621 -0.538681
    25 0.806048 -0.348922 1.321258 -1.269164 -0.727275 -0.266407
    26 1.789783 0.000001 0.000001 -0.001067 -0.012843 -0.131867
    27 1.207000 0.000000 0.000001 -0.000100 -0.003215 -0.064874
    28 2.033354 1.000771 -1.937610 -3.707064 1.232462 0.910567
    29 6.028142 0.000004 0.000000 1.457480 0.984275 -0.827782
    30 11.692552 0.000000 0.000002 0.000000 0.000000 -1.908811
    31 11.481699 0.000000 0.000004 -0.727968 -0.066512 0.418135
    32 3.883657 -0.050329 -0.431043 0.047704 -0.153454 -0.767482
    33 1.719576 0.000003 0.000000 -0.053884 0.078890 -1.553283
    34 1.209180 -0.000001 0.000000 -0.013612 0.036967 -0.732282
    35 3.859830 -0.148938 -1.331282 -0.332627 0.218366 0.154975
    36 1.719426 0.000000 0.000000 -0.042634 0.220745 -0.851607
    37 1.099666 0.000000 0.000000 0.008154 0.000000 0.000000
    38 0.806017 -0.359836 -1.318334 0.415058 0.423434 -0.720789
    39 1.789784 0.000000 -0.000001 0.015106 0.038911 0.767156
    40 1.206998 0.000000 0.000000 0.004785 0.022541 0.418309
    41 -0.044717 2.313936 4.661499 -0.702343 -0.024030 -0.165903
    42 2.676088 -1.712442 0.000000 1.570797 0.000000 1.570797
    43 2.676088 -1.712443 0.000000 -1.570796 0.000000 -1.570796
  time 16
    0 38.232848 12.676073 32.070625 1.622638 0.010388 -0.567689
    1 3.890452 -0.000004 -0.000003 -2.308670 -0.746129 -0.951253
    2 17.848175 0.000000 0.000000 0.000000 0.000000 0.984327
    3 16.525249 0.000000 0.000000 -0.061607 0.035291 -1.052306
    4 6.879453 0.000000 0.000000 -0.007299 -0.002951 -0.584303
    5 -3.890452 0.000004 0.000007 -1.408432 -0.170168 -1.917122
    6 17.848171 0.000000 0.000000 0.000000 0.000000 1.077586
    7 16.525257 0.000000 0.000000 0.353438 -0.037196 -1.505865
    8 6.879454 0.000000 0.000000 -0.079008 -0.003083 -0.845505
    9 0.066413 3.345128 -2.981901 1.538224 -0.097907 1.298770
    10 4.018331 0.000000 0.000000 -0.057235 0.070098 0.186521
    11 3.518561 0.000000 0.000000 -0.189693 0.106339 0.249322
    12 8.942642 0.000000 0.000000 -0.035333 0.066778 0.178630
    13 3.307271 0.000000 0.000000 3.141590 0.000000 0.422751
    14 3.593710 -0.000003 0.000000 0.799099 -0.032200 0.536849
    15 2.033346 1.000767 1.937660 -0.120497 -1.444112 4.658047
    16 6.028142 0.000002 0.000000 -2.269960 -0.834363 -0.252563
    17 11.692556 0.000000 -0.000001 0.000000 0.000000 -1.377605
    18 11.481671 0.000000 -0.000029 -0.639514 0.318226 0.160948
    19 3.883691 -0.046771 0.431443 0.096615 -0.011011 -0.677044
    20 1.719575 0.000000 0.000000 0.055915 -0.087978 -1.150781
    21 1.209183 -0.000001 0.000000 0.009316 -0.033629 -0.339470
    22 3.859861 -0.137948 1.332466 0.537935 -0.132420 -0.946691
    23 1.719428 0.000001 0.000000 0.023476 -0.208311 -0.755744
    24 1.099667 0.000000 0.000000 0.026046 -0.124621 -0.538681
    25 0.806048 -0.348922 1.321258 -1.269164 -0.727275 -0.266407
    26 1.789783 0.000001 0.000001 -0.001067 -0.012843 -0.131867
    27 1.207000 0.000000 0.000001 -0.000100 -0.003215 -0.064874
    28 2.033354 1.000771 -1.937610 -3.708404 1.198378 0.913179
    29 6.028142 0.000004 0.000000 1.396175 1.031978 -0.905880
    30 11.692552 0.000000 0.000002 0.000000 0.000000 -1.897384
    31 11.481699 0.000000 0.000004 -0.771047 -0.039757 0.513646
    32 3.883657 -0.050329 -0.431043 0.047704 -0.153454 -0.767482
    33 1.719576 0.000003 0.000000 -0.053884 0.078890 -1.553283
    34 1.209180 -0.000001 0.000000 -0.013612 0.036967 -0.732282
    35 3.859830 -0.148938 -1.331282 -0.332627 0.218366 0.154975
    36 1.719426 0.000000 0.000000 -0.042634 0.220745 -0.851607
    37 1.099666 0.000000 0.000000 0.008154 0.000000 0.000000
    38 0.806017 -0.359836 -1.318334 0.415058 0.423434 -0.720789
    39 1.789784 0.000000 -0.000001 0.015106 0.038911 0.767156
    40 1.206998 0.000000 0.000000 0.004785 0.022541 0.418309
    41 -0.044717 2.313936 4.661499 -0.639752 -0.119465 -0.086565
    42 2.676088 -1.712442 0.000000 1.570797 0.000000 1.570797
    43 2.676088 -1.712443 0.000000 -1.570796 0.000000 -1.570796
  time 17
    0 38.834429 13.570773 32.437824 1.597067 0.027218 -0.582537
    1 3.890452 -0.000004 -0.000003 -2.255315 -0.725769 -0.979048
    2 17.848175 0.000000 0.000000 0.000000 0.000000 0.907193
    3 16.525249 0.000000 0.000000 -0.081759 0.003720 -0.989159
    4 6.879453 0.000000 0.000000 -0.007299 -0.002951 -0.584373
    5 -3.890452 0.000004 0.000007 -1.402106 -0.122825 -1.881152
    6 17.848171 0.000000 0.000000 0.000000 0.000000 0.992017
    7 16.525257 0.000000 0.000000 0.348386 -0.014724 -1.572263
    8 6.879454 0.000000 0.000000 -0.079811 -0.003035 -0.737949
    9 0.046881 3.345128 -2.981901 1.535203 -0.116751 1.318784
    10 4.018331 0.000000 0.000000 -0.069471 0.067701 0.187846
    11 3.518561 0.000000 0.000000 -0.167917 0.102576 0.256663
    12 8.942642 0.000000 0.000000 -0.027896 0.055321 0.171371
    13 3.307271 0.000000 0.000000 3.141590 0.000000 0.417249
    14 3.593710 -0.000003 0.000000 0.828303 -0.019890 0.533645
    15 2.033346 1.000767 1.937660 -0.058381 -1.448898 4.596476
    16 6.028142 0.000002 0.000000 -2.292777 -0.813378 -0.246901
    17 11.692556 0.000000 -0.000001 0.000000 0.000000 -1.344489
    18 11.481671 0.000000 -0.000029 -0.666267 0.360490 0.098855
    19 3.883691 -0.046771 0.431443 0.096615 -0.011011 -0.677044
    20 1.719575 0.000000 0.000000 0.055915 -0.087978 -1.150781
    21 1.209183 -0.000001 0.000000 0.009316 -0.033629 -0.339470
    22 3.859861 -0.137948 1.332466 0.537935 -0.132420 -0.946691
    23 1.719428 0.000001 0.000000 0.023476 -0.208311 -0.755744
    24 1.099667 0.000000 0.000000 0.026046 -0.124621 -0.538681
    25 0.806048 -0.348922 1.321258 -1.269164 -0.727275 -0.266407
    26 1.789783 0.000001 0.000001 -0.001067 -0.012843 -0.131867
    27 1.207000 0.000000 0.000001 -0.000100 -0.003215 -0.064874
    28 2.033354 1.000771 -1.937610 -3.710011 1.164261 0.916062
    29 6.028142 0.000004 0.000000 1.340139 1.060827 -0.977145
    30 11.692552 0.000000 0.000002 0.000000 0.000000 -1.895287
    31 11.481699 0.000000 0.000004 -0.805446 -0.005002 0.594380
    32 3.883657 -0.050329 -0.431043 0.047704 -0.153454 -0.767482
    33 1.719576 0.000003 0.000000 -0.053884 0.078890 -1.553283
    34 1.209180 -0.000001 0.000000 -0.013612 0.036967 -0.732282
    35 3.859830 -0.148938 -1.331282 -0.332627 0.218366 0.154975
    36 1.719426 0.000000 0.000000 -0.042634 0.220745 -0.851607
    37 1.099666 0.000000 0.000000 0.008154 0.000000 0.000000
    38 0.806017 -0.359836 -1.318334 0.415058 0.423434 -0.720789
    39 1.789784 0.000000 -0.000001 0.015106 0.038911 0.767156
    40 1.206998 0.000000 0.000000 0.004785 0.022541 0.418309
    41 -0.044717 2.313936 4.661499 -0.572476 -0.184258 -0.035426
    42 2.676088 -1.712442 0.000000 1.570797 0.000000 1.570797
    43 2.676088 -1.712443 0.000000 -1.570796 0.000000 -1.570796
  time 18
    0 39.111781 14.312271 32.703457 1.575503 0.043070 -0.588094
    1 3.890452 -0.000004 -0.000003 -2.198073 -0.706457 -1.000226
    2 17.848175 0.000000 0.000000 0.000000 0.000000 0.839625
    3 16.525249 0.000000 0.000000 -0.107774 -0.018160 -0.934307
    4 6.879453 0.000000 0.000000 -0.007299 -0.002951 -0.584373
    5 -3.890452 0.000004 0.000007 -1.408336 -0.095576 -1.839329
    6 17.848171 0.000000 0.000000 0.000000 0.000000 0.922789
    7 16.525257 0.000000 0.000000 0.334352 0.038331 -1.620820
    8 6.879454 0.000000 0.000000 -0.080806 -0.002975 -0.632150
    9 0.031256 3.345128 -2.981901 1.531358 -0.134774 1.341099
    10 4.018331 0.000000 0.000000 -0.082172 0.064501 0.188979
    11 3.518561 0.000000 0.000000 -0.145589 0.097974 0.263817
    12 8.942642 0.000000 0.000000 -0.021182 0.043828 0.163151
    13 3.307271 0.000000 0.000000 3.141590 0.000000 0.412057
    14 3.593710 -0.000003 0.000000 0.850622 -0.008480 0.529763
    15 2.033346 1.000767 1.937660 0.005075 -1.456166 4.533564
    16 6.028142 0.000002 0.000000 -2.316631 -0.806561 -0.235668
    17 11.692556 0.000000 -0.000001 0.000000 0.000000 -1.307903
    18 11.481671 0.000000 -0.000029 -0.683464 0.394077 0.048304
    19 3.883691 -0.046771 0.431443 0.096615 -0.011011 -0.677044
    20 1.719575 0.000000 0.000000 0.055915 -0.087978 -1.150781
    21 1.209183 -0.000001 0.000000 0.009316 -0.033629 -0.339470
    22 3.859861 -0.137948 1.332466 0.537935 -0.132420 -0.946691
    23 1.719428 0.000001 0.000000 0.023476 -0.208311 -0.755744
    24 1.099667 0.000000 0.000000 0.026046 -0.124621 -0.538681
    25 0.806048 -0.348922 1.321258 -1.269164 -0.727275 -0.266407
    26 1.789783 0.000001 0.000001 -0.001067 -0.012843 -0.131867
    27 1.207000 0.000000 0.000001 -0.000100 -0.003215 -0.064874
    28 2.033354 1.000771 -1.937610 -3.711708 1.132054 0.919215
    29 6.028142 0.000004 0.000000 1.316287 1.077786 -1.015482
    30 11.692552 0.000000 0.000002 0.000000 0.000000 -1.893190
    31 11.481699 0.000000 0.000004 -0.825722 0.026374 0.653775
    32 3.883657 -0.050329 -0.431043 0.047704 -0.153454 -0.767482
    33 1.719576 0.000003 0.000000 -0.053884 0.078890 -1.553283
    34 1.209180 -0.000001 0.000000 -0.013612 0.036967 -0.732282
    35 3.859830 -0.148938 -1.331282 -0.332627 0.218366 0.154975
    36 1.719426 0.000000 0.000000 -0.042634 0.220745 -0.851607
    37 1.099666 0.000000 0.000000 0.008154 0.000000 0.000000
    38 0.806017 -0.359836 -1.318334 0.415058 0.423434 -0.720789
    39 1.789784 0.000000 -0.000001 0.015106 0.038911 0.767156
    40 1.206998 0.000000 0.000000 0.004785 0.022541 0.418309
    41 -0.044717 2.313936 4.661499 -0.487823 -0.211376 -0.019846
    42 2.676088 -1.712442 0.000000 1.570797 0.000000 1.570797
    43 2.676088 -1.712443 0.000000 -1.570796 0.000000 -1.570796
  time 19
    0 39.213347 14.863798 32.883150 1.558519 0.056622 -0.587806
    1 3.890452 -0.000004 -0.000003 -2.148163 -0.689816 -1.014609
    2 17.848175 0.000000 0.000000 0.000000 0.000000 0.787469
    3 16.525249 0.000000 0.000000 -0.131302 -0.031887 -0.892164
    4 6.879453 0.000000 0.000000 -0.007299 -0.002951 -0.584373
    5 -3.890452 0.000004 0.000007 -1.421851 -0.082882 -1.802981
    6 17.848171 0.000000 0.000000 0.000000 0.000000 0.889556
    7 16.525257 0.000000 0.000000 0.323125 0.080664 -1.631610
    8 6.879454 0.000000 0.000000 -0.081333 -0.002951 -0.584373
    9 0.019537 3.345128 -2.981901 1.527092 -0.150856 1.363079
    10 4.018331 0.000000 0.000000 -0.094135 0.061038 0.189902
    11 3.518561 0.000000 0.000000 -0.124704 0.093204 0.270273
    12 8.942642 0.000000 0.000000 -0.015455 0.033257 0.154997
    13 3.307271 0.000000 0.000000 3.141590 0.000000 0.407464
    14 3.593710 -0.000003 0.000000 0.867055 0.001520 0.525573
    15 2.033346 1.000767 1.937660 0.069200 -1.464292 4.469791
    16 6.028142 0.000002 0.000000 -2.341333 -0.804760 -0.221372
    17 11.692556 0.000000 -0.000001 0.000000 0.000000 -1.271555
    18 11.481671 0.000000 -0.000029 -0.699898 0.419070 -0.000233
    19 3.883691 -0.046771 0.431443 0.096615 -0.011011 -0.677044
    20 1.719575 0.000000 0.000000 0.055915 -0.087978 -1.150781
    21 1.209183 -0.000001 0.000000 0.009316 -0.033629 -0.339470
    22 3.859861 -0.137948 1.332466 0.537935 -0.132420 -0.946691
    23 1.719428 0.000001 0.000000 0.023476 -0.208311 -0.755744
    24 1.099667 0.000000 0.000000 0.026046 -0.124621 -0.538681
    25 0.806048 -0.348922 1.321258 -1.269164 -0.727275 -0.266407
    26 1.789783 0.000001 0.000001 -0.001067 -0.012843 -0.131867
    27 1.207000 0.000000 0.000001 -0.000100 -0.003215 -0.064874
    28 2.033354 1.000771 -1.937610 -3.713405 1.103667 0.922277
    29 6.028142 0.000004 0.000000 1.311498 1.093845 -1.028103
    30 11.692552 0.000000 0.000002 0.000000 0.000000 -1.890442
    31 11.481699 0.000000 0.000004 -0.838679 0.057680 0.703413
    32 3.883657 -0.050329 -0.431043 0.047704 -0.153454 -0.767482
    33 1.719576 0.000003 0.000000 -0.053884 0.078890 -1.553283
    34 1.209180 -0.000001 0.000000 -0.013612 0.036967 -0.732282
    35 3.859830 -0.148938 -1.331282 -0.332627 0.218366 0.154975
    36 1.719426 0.000000 0.000000 -0.042634 0.220745 -0.851607
    37 1.099666 0.000000 0.000000 0.008154 0.000000 0.000000
    38 0.806017 -0.359836 -1.318334 0.415058 0.423434 -0.720789
    39 1.789784 0.000000 -0.000001 0.015106 0.038911 0.767156
    40 1.206998 0.000000 0.000000 0.004785 0.022541 0.418309
    41 -0.044717 2.313936 4.661499 -0.386477 -0.225441 -0.018972
    42 2.676088 -1.712442 0.000000 1.570797 0.000000 1.570797
    43 2.676088 -1.712443 0.000000 -1.570796 0.000000 -1.570796
  time 20
    0 39.228972 15.225355 32.992529 1.546052 0.066814 -0.584358
    1 3.890452 -0.000004 -0.000003 -2.118924 -0.676370 -1.021227
    2 17.848175 0.000000 0.000000 0.000000 0.000000 0.751787
    3 16.525249 0.000000 0.000000 -0.141964 -0.036389 -0.863668
    4 6.879453 0.000000 0.000000 -0.007299 -0.002951 -0.584373
    5 -3.890452 0.000004 0.000007 -1.428752 -0.080089 -1.782022
    6 17.848171 0.000000 0.000000 0.000000 0.000000 0.888925
    7 16.525257 0.000000 0.000000 0.319944 0.094301 -1.622582
    8 6.879454 0.000000 0.000000 -0.081333 -0.002951 -0.584373
    9 0.007818 3.345128 -2.981901 1.523027 -0.163792 1.382099
    10 4.018331 0.000000 0.000000 -0.104158 0.057862 0.190599
    11 3.518561 0.000000 0.000000 -0.107276 0.088962 0.275503
    12 8.942642 0.000000 0.000000 -0.011032 0.024544 0.147909
    13 3.307271 0.000000 0.000000 3.141590 0.000000 0.403780
    14 3.593710 -0.000003 0.000000 0.878437 0.009521 0.521629
    15 2.033346 1.000767 1.937660 0.129498 -1.471741 4.409848
    16 6.028142 0.000002 0.000000 -2.362830 -0.807389 -0.207262
    17 11.692556 0.000000 -0.000001 0.000000 0.000000 -1.239306
    18 11.481671 0.000000 -0.000029 -0.713274 0.434888 -0.040785
    19 3.883691 -0.046771 0.431443 0.096615 -0.011011 -0.677044
    20 1.719575 0.000000 0.000000 0.055915 -0.087978 -1.150781
    21 1.209183 -0.000001 0.000000 0.009316 -0.033629 -0.339470
    22 3.859861 -0.137948 1.332466 0.537935 -0.132420 -0.946691
    23 1.719428 0.000001 0.000000 0.023476 -0.208311 -0.755744
    24 1.099667 0.000000 0.000000 0.026046 -0.124621 -0.538681
    25 0.806048 -0.348922 1.321258 -1.269164 -0.727275 -0.266407
    26 1.789783 0.000001 0.000001 -0.001067 -0.012843 -0.131867
    27 1.207000 0.000000 0.000001 -0.000100 -0.003215 -0.064874
    28 2.033354 1.000771 -1.937610 -3.714834 1.081041 0.924799
    29 6.028142 0.000004 0.000000 1.324238 1.106067 -1.018424
    30 11.692552 0.000000 0.000002 0.000000 0.000000 -1.888561
    31 11.481699 0.000000 0.000004 -0.844379 0.082816 0.741241
    32 3.883657 -0.050329 -0.431043 0.047704 -0.153454 -0.767482
    33 1.719576 0.000003 0.000000 -0.053884 0.078890 -1.553283
    34 1.209180 -0.000001 0.000000 -0.013612 0.036967 -0.732282
    35 3.859830 -0.148938 -1.331282 -0.332627 0.218366 0.154975
    36 1.719426 0.000000 0.000000 -0.042634 0.220745 -0.851607
    37 1.099666 0.000000 0.000000 0.008154 0.000000 0.000000
    38 0.806017 -0.359836 -1.318334 0.415058 0.423434 -0.720789
    39 1.789784 0.000000 -0.000001 0.015106 0.038911 0.767156
    40 1.206998 0.000000 0.000000 0.004785 0.022541 0.418309
    41 -0.044717 2.313936 4.661499 -0.288815 -0.230478 -0.026354
    42 2.676088 -1.712442 0.000000 1.570797 0.000000 1.570797
    43 2.676088 -1.712443 0.000000 -1.570796 0.000000 -1.570796
end
