// Created by Crowbar 0.68
version 1
nodes
  0 "ValveBiped.Bip01_Pelvis" -1
  1 "ValveBiped.Bip01_L_Thigh" 0
  2 "ValveBiped.Bip01_L_Calf" 1
  3 "ValveBiped.Bip01_L_Foot" 2
  4 "ValveBiped.Bip01_L_Toe0" 3
  5 "ValveBiped.Bip01_R_Thigh" 0
  6 "ValveBiped.Bip01_R_Calf" 5
  7 "ValveBiped.Bip01_R_Foot" 6
  8 "ValveBiped.Bip01_R_Toe0" 7
  9 "ValveBiped.Bip01_Spine" 0
  10 "ValveBiped.Bip01_Spine1" 9
  11 "ValveBiped.Bip01_Spine2" 10
  12 "ValveBiped.Bip01_Spine4" 11
  13 "ValveBiped.Bip01_Neck1" 12
  14 "ValveBiped.Bip01_Head1" 13
  15 "ValveBiped.Bip01_L_Clavicle" 12
  16 "ValveBiped.Bip01_L_UpperArm" 15
  17 "ValveBiped.Bip01_L_Forearm" 16
  18 "ValveBiped.Bip01_L_Hand" 17
  19 "ValveBiped.Bip01_L_Finger2" 18
  20 "ValveBiped.Bip01_L_Finger21" 19
  21 "ValveBiped.Bip01_L_Finger22" 20
  22 "ValveBiped.Bip01_L_Finger1" 18
  23 "ValveBiped.Bip01_L_Finger11" 22
  24 "ValveBiped.Bip01_L_Finger12" 23
  25 "ValveBiped.Bip01_L_Finger0" 18
  26 "ValveBiped.Bip01_L_Finger01" 25
  27 "ValveBiped.Bip01_L_Finger02" 26
  28 "ValveBiped.Bip01_R_Clavicle" 12
  29 "ValveBiped.Bip01_R_UpperArm" 28
  30 "ValveBiped.Bip01_R_Forearm" 29
  31 "ValveBiped.Bip01_R_Hand" 30
  32 "ValveBiped.Bip01_R_Finger2" 31
  33 "ValveBiped.Bip01_R_Finger21" 32
  34 "ValveBiped.Bip01_R_Finger22" 33
  35 "ValveBiped.Bip01_R_Finger1" 31
  36 "ValveBiped.Bip01_R_Finger11" 35
  37 "ValveBiped.Bip01_R_Finger12" 36
  38 "ValveBiped.Bip01_R_Finger0" 31
  39 "ValveBiped.Bip01_R_Finger01" 38
  40 "ValveBiped.Bip01_R_Finger02" 39
  41 "ValveBiped.Cod" 0
  42 "ValveBiped.Anim_Attachment_LH" 18
  43 "ValveBiped.Anim_Attachment_RH" 31
end
skeleton
  time 0
    0 2.669608 2.224498 18.324112 1.668946 0.029876 -1.271042
    1 3.890452 -0.000004 -0.000003 -3.552801 -1.166499 0.292478
    2 17.848175 0.000000 0.000000 0.000000 0.000000 2.112408
    3 16.525249 0.000000 0.000000 0.118618 -0.067466 -1.478950
    4 6.879453 0.000000 0.000000 -0.007299 -0.002951 -0.584373
    5 -3.890452 0.000004 0.000007 -1.782617 -0.518578 -1.818747
    6 17.848171 0.000000 0.000000 0.000000 0.000000 2.275071
    7 16.525257 0.000000 0.000000 0.342772 -0.286551 -1.342033
    8 6.879454 0.000000 0.000000 -0.078457 -0.005480 -1.129236
    9 0.457050 3.313877 -2.981901 1.488221 -0.075031 1.433608
    10 4.018331 0.000000 0.000000 0.003640 -0.079050 0.136942
    11 3.518561 0.000000 0.000000 0.011031 -0.079602 0.216763
    12 8.942642 0.000000 0.000000 -0.012230 -0.002505 0.028094
    13 3.307271 0.000000 0.000000 3.141590 0.000000 0.400478
    14 3.593710 -0.000003 0.000000 1.170916 0.143473 0.429263
    15 2.033346 1.000767 1.937660 0.194295 -1.479277 -1.937994
    16 6.028142 0.000002 0.000000 -1.993897 -0.116527 -0.867004
    17 11.692556 0.000000 -0.000001 0.000000 0.000000 -1.800230
    18 11.481671 0.000000 -0.000029 -0.846558 0.000749 -0.008296
    19 3.883691 -0.046771 0.431443 0.096615 -0.011011 -0.677044
    20 1.719575 0.000000 0.000000 0.055915 -0.087978 -1.150781
    21 1.209183 -0.000001 0.000000 0.009316 -0.033629 -0.339470
    22 3.859861 -0.137948 1.332466 0.537935 -0.132420 -0.946691
    23 1.719428 0.000001 0.000000 0.023476 -0.208311 -0.755744
    24 1.099667 0.000000 0.000000 0.026046 -0.124621 -0.538681
    25 0.806048 -0.348922 1.321258 -1.269164 -0.727275 -0.266407
    26 1.789783 0.000001 0.000001 -0.001067 -0.012843 -0.131867
    27 1.207000 0.000000 0.000001 -0.000100 -0.003217 -0.064874
    28 2.033354 1.000771 -1.937610 -3.791994 1.002514 0.869493
    29 6.028142 0.000004 0.000000 1.220307 1.056280 -0.895536
    30 11.692552 0.000000 0.000002 0.000000 0.000000 -1.987496
    31 11.481699 0.000000 0.000004 -0.981844 -0.181431 0.781580
    32 3.883657 -0.050329 -0.431043 0.047706 -0.153454 -0.767483
    33 1.719576 0.000003 0.000000 -0.053884 0.078890 -1.553283
    34 1.209180 -0.000001 0.000000 -0.013612 0.036967 -0.732282
    35 3.859830 -0.148938 -1.331282 -0.332627 0.218364 0.154975
    36 1.719426 0.000000 0.000000 -0.042633 0.220746 -0.851607
    37 1.099666 0.000000 0.000000 0.008154 0.000000 0.000000
    38 0.806017 -0.359836 -1.318334 0.415058 0.423434 -0.720789
    39 1.789784 0.000000 -0.000001 0.015106 0.038911 0.767156
    40 1.206998 0.000000 0.000000 0.004784 0.022539 0.418309
    41 -0.044717 2.313936 4.661499 -0.343264 -0.229683 -0.040029
    42 2.676088 -1.712442 0.000000 1.570797 0.000000 1.570797
    43 2.676088 -1.712443 0.000000 -1.570796 0.000000 -1.570796
  time 1
    0 2.606787 2.127453 18.378801 1.665829 0.026876 -1.269893
    1 3.890452 -0.000004 -0.000003 -3.532749 -1.173222 0.268036
    2 17.848175 0.000000 0.000000 0.000000 0.000000 2.112408
    3 16.525249 0.000000 0.000000 0.118227 -0.069525 -1.486241
    4 6.879453 0.000000 0.000000 -0.007299 -0.002951 -0.584373
    5 -3.890452 0.000004 0.000007 -1.781658 -0.508923 -1.824790
    6 17.848171 0.000000 0.000000 0.000000 0.000000 2.266624
    7 16.525257 0.000000 0.000000 0.342024 -0.288766 -1.338347
    8 6.879454 0.000000 0.000000 -0.078457 -0.005480 -1.129236
    9 0.457050 3.313877 -2.981901 1.488203 -0.072588 1.433656
    10 4.018331 0.000000 0.000000 0.003785 -0.077349 0.133613
    11 3.518561 0.000000 0.000000 0.011209 -0.079889 0.217616
    12 8.942642 0.000000 0.000000 -0.012230 -0.002541 0.029188
    13 3.307271 0.000000 0.000000 3.141590 0.000000 0.400478
    14 3.593710 -0.000003 0.000000 1.161756 0.148572 0.432097
    15 2.033346 1.000767 1.937660 0.194295 -1.479277 -1.937994
    16 6.028142 0.000002 0.000000 -2.053202 -0.165022 -0.881022
    17 11.692556 0.000000 -0.000001 0.000000 0.000000 -1.793606
    18 11.481671 0.000000 -0.000029 -0.808436 0.078136 0.008740
    19 3.883691 -0.046771 0.431443 0.096615 -0.011011 -0.677044
    20 1.719575 0.000000 0.000000 0.055915 -0.087978 -1.150781
    21 1.209183 -0.000001 0.000000 0.009316 -0.033629 -0.339470
    22 3.859861 -0.137948 1.332466 0.537935 -0.132420 -0.946691
    23 1.719428 0.000001 0.000000 0.023476 -0.208311 -0.755744
    24 1.099667 0.000000 0.000000 0.026046 -0.124621 -0.538681
    25 0.806048 -0.348922 1.321258 -1.269164 -0.727275 -0.266407
    26 1.789783 0.000001 0.000001 -0.001067 -0.012843 -0.131867
    27 1.207000 0.000000 0.000001 -0.000100 -0.003217 -0.064874
    28 2.033354 1.000771 -1.937610 -3.785653 1.004748 0.874987
    29 6.028142 0.000004 0.000000 1.239177 1.071391 -0.887091
    30 11.692552 0.000000 0.000002 0.000000 0.000000 -1.980770
    31 11.481699 0.000000 0.000004 -0.969018 -0.175328 0.779754
    32 3.883657 -0.050329 -0.431043 0.047706 -0.153454 -0.767483
    33 1.719576 0.000003 0.000000 -0.053884 0.078890 -1.553283
    34 1.209180 -0.000001 0.000000 -0.013612 0.036967 -0.732282
    35 3.859830 -0.148938 -1.331282 -0.332627 0.218364 0.154975
    36 1.719426 0.000000 0.000000 -0.042633 0.220746 -0.851607
    37 1.099666 0.000000 0.000000 0.008154 0.000000 0.000000
    38 0.806017 -0.359836 -1.318334 0.415058 0.423434 -0.720789
    39 1.789784 0.000000 -0.000001 0.015106 0.038911 0.767156
    40 1.206998 0.000000 0.000000 0.004784 0.022539 0.418309
    41 -0.044717 2.313936 4.661499 -0.348358 -0.232459 -0.054098
    42 2.676088 -1.712442 0.000000 1.570797 0.000000 1.570797
    43 2.676088 -1.712443 0.000000 -1.570796 0.000000 -1.570796
  time 2
    0 2.441762 1.885341 18.531150 1.658069 0.019472 -1.266636
    1 3.890452 -0.000004 -0.000003 -3.475860 -1.188529 0.199474
    2 17.848175 0.000000 0.000000 0.000000 0.000000 2.111041
    3 16.525249 0.000000 0.000000 0.118298 -0.073835 -1.504436
    4 6.879453 0.000000 0.000000 -0.007299 -0.002951 -0.584373
    5 -3.890452 0.000004 0.000007 -1.779262 -0.485104 -1.838951
    6 17.848171 0.000000 0.000000 0.000000 0.000000 2.244838
    7 16.525257 0.000000 0.000000 0.340808 -0.293218 -1.328945
    8 6.879454 0.000000 0.000000 -0.078457 -0.005480 -1.129236
    9 0.457050 3.313877 -2.981901 1.488167 -0.066446 1.433776
    10 4.018331 0.000000 0.000000 0.004073 -0.072938 0.125213
    11 3.518561 0.000000 0.000000 0.011601 -0.080512 0.219835
    12 8.942642 0.000000 0.000000 -0.012248 -0.002613 0.032047
    13 3.307271 0.000000 0.000000 3.141590 0.000000 0.400478
    14 3.593710 -0.000003 0.000000 1.138271 0.161333 0.439307
    15 2.033346 1.000767 1.937660 0.194295 -1.479277 -1.937994
    16 6.028142 0.000002 0.000000 -2.172565 -0.284215 -0.871182
    17 11.692556 0.000000 -0.000001 0.000000 0.000000 -1.764038
    18 11.481671 0.000000 -0.000029 -0.731332 0.233408 0.056406
    19 3.883691 -0.046771 0.431443 0.096615 -0.011011 -0.677044
    20 1.719575 0.000000 0.000000 0.055915 -0.087978 -1.150781
    21 1.209183 -0.000001 0.000000 0.009316 -0.033629 -0.339470
    22 3.859861 -0.137948 1.332466 0.537935 -0.132420 -0.946691
    23 1.719428 0.000001 0.000000 0.023476 -0.208311 -0.755744
    24 1.099667 0.000000 0.000000 0.026046 -0.124621 -0.538681
    25 0.806048 -0.348922 1.321258 -1.269164 -0.727275 -0.266407
    26 1.789783 0.000001 0.000001 -0.001067 -0.012843 -0.131867
    27 1.207000 0.000000 0.000001 -0.000100 -0.003217 -0.064874
    28 2.033354 1.000771 -1.937610 -3.769310 1.010412 0.889129
    29 6.028142 0.000004 0.000000 1.290712 1.112747 -0.858243
    30 11.692552 0.000000 0.000002 0.000000 0.000000 -1.959363
    31 11.481699 0.000000 0.000004 -0.931186 -0.157330 0.775360
    32 3.883657 -0.050329 -0.431043 0.047706 -0.153454 -0.767483
    33 1.719576 0.000003 0.000000 -0.053884 0.078890 -1.553283
    34 1.209180 -0.000001 0.000000 -0.013612 0.036967 -0.732282
    35 3.859830 -0.148938 -1.331282 -0.332627 0.218364 0.154975
    36 1.719426 0.000000 0.000000 -0.042633 0.220746 -0.851607
    37 1.099666 0.000000 0.000000 0.008154 0.000000 0.000000
    38 0.806017 -0.359836 -1.318334 0.415058 0.423434 -0.720789
    39 1.789784 0.000000 -0.000001 0.015106 0.038911 0.767156
    40 1.206998 0.000000 0.000000 0.004784 0.022539 0.418309
    41 -0.044717 2.313936 4.661499 -0.362596 -0.238571 -0.089968
    42 2.676088 -1.712442 0.000000 1.570797 0.000000 1.570797
    43 2.676088 -1.712443 0.000000 -1.570796 0.000000 -1.570796
  time 3
    0 2.217503 1.583957 18.773345 1.647637 0.009948 -1.261654
    1 3.890452 -0.000004 -0.000003 -3.387170 -1.204264 0.094469
    2 17.848175 0.000000 0.000000 0.000000 0.000000 2.106410
    3 16.525249 0.000000 0.000000 0.120857 -0.077184 -1.527648
    4 6.879453 0.000000 0.000000 -0.007299 -0.002951 -0.584373
    5 -3.890452 0.000004 0.000007 -1.775716 -0.454669 -1.855756
    6 17.848171 0.000000 0.000000 0.000000 0.000000 2.215788
    7 16.525257 0.000000 0.000000 0.340153 -0.296925 -1.316766
    8 6.879454 0.000000 0.000000 -0.078457 -0.005480 -1.129236
    9 0.460957 3.313877 -2.981901 1.488130 -0.058396 1.433896
    10 4.018331 0.000000 0.000000 0.004314 -0.066886 0.114078
    11 3.518561 0.000000 0.000000 0.011993 -0.081148 0.222862
    12 8.942642 0.000000 0.000000 -0.012283 -0.002685 0.035985
    13 3.307271 0.000000 0.000000 3.141590 0.000000 0.400478
    14 3.593710 -0.000003 0.000000 1.106347 0.177982 0.449042
    15 2.033346 1.000767 1.937660 0.194295 -1.479277 -1.937994
    16 6.028142 0.000002 0.000000 -2.300226 -0.428045 -0.790791
    17 11.692556 0.000000 -0.000001 0.000000 0.000000 -1.696150
    18 11.481671 0.000000 -0.000029 -0.653846 0.384860 0.113519
    19 3.883691 -0.046771 0.431443 0.096615 -0.011011 -0.677044
    20 1.719575 0.000000 0.000000 0.055915 -0.087978 -1.150781
    21 1.209183 -0.000001 0.000000 0.009316 -0.033629 -0.339470
    22 3.859861 -0.137948 1.332466 0.537935 -0.132420 -0.946691
    23 1.719428 0.000001 0.000000 0.023476 -0.208311 -0.755744
    24 1.099667 0.000000 0.000000 0.026046 -0.124621 -0.538681
    25 0.806048 -0.348922 1.321258 -1.269164 -0.727275 -0.266407
    26 1.789783 0.000001 0.000001 -0.001067 -0.012843 -0.131867
    27 1.207000 0.000000 0.000001 -0.000100 -0.003217 -0.064874
    28 2.033354 1.000771 -1.937610 -3.746894 1.017825 0.908586
    29 6.028142 0.000004 0.000000 1.372707 1.173761 -0.798365
    30 11.692552 0.000000 0.000002 0.000000 0.000000 -1.920599
    31 11.481699 0.000000 0.000004 -0.869320 -0.128264 0.770340
    32 3.883657 -0.050329 -0.431043 0.047706 -0.153454 -0.767483
    33 1.719576 0.000003 0.000000 -0.053884 0.078890 -1.553283
    34 1.209180 -0.000001 0.000000 -0.013612 0.036967 -0.732282
    35 3.859830 -0.148938 -1.331282 -0.332627 0.218364 0.154975
    36 1.719426 0.000000 0.000000 -0.042633 0.220746 -0.851607
    37 1.099666 0.000000 0.000000 0.008154 0.000000 0.000000
    38 0.806017 -0.359836 -1.318334 0.415058 0.423434 -0.720789
    39 1.789784 0.000000 -0.000001 0.015106 0.038911 0.767156
    40 1.206998 0.000000 0.000000 0.004784 0.022539 0.418309
    41 -0.044717 2.313936 4.661499 -0.384157 -0.244669 -0.138110
    42 2.676088 -1.712442 0.000000 1.570797 0.000000 1.570797
    43 2.676088 -1.712443 0.000000 -1.570796 0.000000 -1.570796
  time 4
    0 1.973075 1.309093 19.081948 1.636759 0.000603 -1.255331
    1 3.890452 -0.000004 -0.000003 -3.279135 -1.212561 -0.031360
    2 17.848175 0.000000 0.000000 0.000000 0.000000 2.097224
    3 16.525249 0.000000 0.000000 0.128001 -0.075674 -1.550057
    4 6.879453 0.000000 0.000000 -0.007299 -0.002951 -0.584373
    5 -3.890452 0.000004 0.000007 -1.770827 -0.424773 -1.870201
    6 17.848171 0.000000 0.000000 0.000000 0.000000 2.185555
    7 16.525257 0.000000 0.000000 0.340901 -0.297228 -1.305441
    8 6.879454 0.000000 0.000000 -0.078457 -0.005480 -1.129236
    9 0.460957 3.313877 -2.981901 1.488130 -0.050230 1.433944
    10 4.018331 0.000000 0.000000 0.004282 -0.060282 0.102576
    11 3.518561 0.000000 0.000000 0.012171 -0.081435 0.226167
    12 8.942642 0.000000 0.000000 -0.012283 -0.002721 0.040359
    13 3.307271 0.000000 0.000000 3.141590 0.000000 0.400478
    14 3.593710 -0.000003 0.000000 1.072146 0.194856 0.459394
    15 2.033346 1.000767 1.937660 0.194295 -1.479277 -1.937994
    16 6.028142 0.000002 0.000000 -2.429489 -0.558778 -0.651825
    17 11.692556 0.000000 -0.000001 0.000000 0.000000 -1.590179
    18 11.481671 0.000000 -0.000029 -0.586392 0.509618 0.154862
    19 3.883691 -0.046771 0.431443 0.096615 -0.011011 -0.677044
    20 1.719575 0.000000 0.000000 0.055915 -0.087978 -1.150781
    21 1.209183 -0.000001 0.000000 0.009316 -0.033629 -0.339470
    22 3.859861 -0.137948 1.332466 0.537935 -0.132420 -0.946691
    23 1.719428 0.000001 0.000000 0.023476 -0.208311 -0.755744
    24 1.099667 0.000000 0.000000 0.026046 -0.124621 -0.538681
    25 0.806048 -0.348922 1.321258 -1.269164 -0.727275 -0.266407
    26 1.789783 0.000001 0.000001 -0.001067 -0.012843 -0.131867
    27 1.207000 0.000000 0.000001 -0.000100 -0.003217 -0.064874
    28 2.033354 1.000771 -1.937610 -3.722693 1.025431 0.929573
    29 6.028142 0.000004 0.000000 1.489282 1.242403 -0.695120
    30 11.692552 0.000000 0.000002 0.000000 0.000000 -1.867299
    31 11.481699 0.000000 0.000004 -0.791324 -0.092889 0.766346
    32 3.883657 -0.050329 -0.431043 0.047706 -0.153454 -0.767483
    33 1.719576 0.000003 0.000000 -0.053884 0.078890 -1.553283
    34 1.209180 -0.000001 0.000000 -0.013612 0.036967 -0.732282
    35 3.859830 -0.148938 -1.331282 -0.332627 0.218364 0.154975
    36 1.719426 0.000000 0.000000 -0.042633 0.220746 -0.851607
    37 1.099666 0.000000 0.000000 0.008154 0.000000 0.000000
    38 0.806017 -0.359836 -1.318334 0.415058 0.423434 -0.720789
    39 1.789784 0.000000 -0.000001 0.015106 0.038911 0.767156
    40 1.206998 0.000000 0.000000 0.004784 0.022539 0.418309
    41 -0.044717 2.313936 4.661499 -0.411404 -0.247444 -0.188997
    42 2.676088 -1.712442 0.000000 1.570797 0.000000 1.570797
    43 2.676088 -1.712443 0.000000 -1.570796 0.000000 -1.570796
  time 5
    0 1.751446 1.134285 19.441334 1.627600 -0.006328 -1.247572
    1 3.890452 -0.000004 -0.000003 -3.173573 -1.212036 -0.151012
    2 17.848175 0.000000 0.000000 0.000000 0.000000 2.082647
    3 16.525249 0.000000 0.000000 0.136886 -0.068235 -1.565777
    4 6.879453 0.000000 0.000000 -0.007299 -0.002951 -0.584373
    5 -3.890452 0.000004 0.000007 -1.763639 -0.402327 -1.878509
    6 17.848171 0.000000 0.000000 0.000000 0.000000 2.160769
    7 16.525257 0.000000 0.000000 0.343801 -0.291750 -1.299031
    8 6.879454 0.000000 0.000000 -0.078457 -0.005480 -1.129236
    9 0.460957 3.313877 -2.981901 1.488167 -0.043720 1.433872
    10 4.018331 0.000000 0.000000 0.003817 -0.054158 0.093061
    11 3.518561 0.000000 0.000000 0.011922 -0.081028 0.229225
    12 8.942642 0.000000 0.000000 -0.012265 -0.002673 0.044496
    13 3.307271 0.000000 0.000000 3.141590 0.000000 0.400478
    14 3.593710 -0.000003 0.000000 1.041832 0.208434 0.468514
    15 2.033346 1.000767 1.937660 0.194295 -1.479277 -1.937994
    16 6.028142 0.000002 0.000000 -2.552341 -0.653967 -0.496892
    17 11.692556 0.000000 -0.000001 0.000000 0.000000 -1.471986
    18 11.481671 0.000000 -0.000029 -0.531168 0.603238 0.174110
    19 3.883691 -0.046771 0.431443 0.096615 -0.011011 -0.677044
    20 1.719575 0.000000 0.000000 0.055915 -0.087978 -1.150781
    21 1.209183 -0.000001 0.000000 0.009316 -0.033629 -0.339470
    22 3.859861 -0.137948 1.332466 0.537935 -0.132420 -0.946691
    23 1.719428 0.000001 0.000000 0.023476 -0.208311 -0.755744
    24 1.099667 0.000000 0.000000 0.026046 -0.124621 -0.538681
    25 0.806048 -0.348922 1.321258 -1.269164 -0.727275 -0.266407
    26 1.789783 0.000001 0.000001 -0.001067 -0.012843 -0.131867
    27 1.207000 0.000000 0.000001 -0.000100 -0.003217 -0.064874
    28 2.033354 1.000771 -1.937610 -3.701527 1.031905 0.948039
    29 6.028142 0.000004 0.000000 1.638713 1.301712 -0.549458
    30 11.692552 0.000000 0.000002 0.000000 0.000000 -1.811685
    31 11.481699 0.000000 0.000004 -0.713846 -0.059789 0.764178
    32 3.883657 -0.050329 -0.431043 0.047706 -0.153454 -0.767483
    33 1.719576 0.000003 0.000000 -0.053884 0.078890 -1.553283
    34 1.209180 -0.000001 0.000000 -0.013612 0.036967 -0.732282
    35 3.859830 -0.148938 -1.331282 -0.332627 0.218364 0.154975
    36 1.719426 0.000000 0.000000 -0.042633 0.220746 -0.851607
    37 1.099666 0.000000 0.000000 0.008154 0.000000 0.000000
    38 0.806017 -0.359836 -1.318334 0.415058 0.423434 -0.720789
    39 1.789784 0.000000 -0.000001 0.015106 0.038911 0.767156
    40 1.206998 0.000000 0.000000 0.004784 0.022539 0.418309
    41 -0.044717 2.313936 4.661499 -0.442518 -0.243561 -0.233112
    42 2.676088 -1.712442 0.000000 1.570797 0.000000 1.570797
    43 2.676088 -1.712443 0.000000 -1.570796 0.000000 -1.570796
  time 6
    0 1.587775 1.145328 19.831971 1.622384 -0.008627 -1.238471
    1 3.890452 -0.000004 -0.000003 -3.091243 -1.207125 -0.236781
    2 17.848175 0.000000 0.000000 0.000000 0.000000 2.062529
    3 16.525249 0.000000 0.000000 0.142430 -0.055771 -1.569255
    4 6.879453 0.000000 0.000000 -0.007299 -0.002951 -0.584373
    5 -3.890452 0.000004 0.000007 -1.752808 -0.390712 -1.874543
    6 17.848171 0.000000 0.000000 0.000000 0.000000 2.145376
    7 16.525257 0.000000 0.000000 0.349602 -0.279208 -1.297909
    8 6.879454 0.000000 0.000000 -0.078865 -0.005264 -1.064334
    9 0.457050 3.313877 -2.981901 1.488240 -0.040674 1.433608
    10 4.018331 0.000000 0.000000 0.002694 -0.049616 0.087920
    11 3.518561 0.000000 0.000000 0.011031 -0.079602 0.231490
    12 8.942642 0.000000 0.000000 -0.012230 -0.002505 0.047723
    13 3.307271 0.000000 0.000000 3.141590 0.000000 0.400478
    14 3.593710 -0.000003 0.000000 1.021956 0.215364 0.474491
    15 2.033346 1.000767 1.937660 0.194295 -1.479277 -1.937994
    16 6.028142 0.000002 0.000000 -2.638705 -0.704312 -0.385217
    17 11.692556 0.000000 -0.000001 0.000000 0.000000 -1.389747
    18 11.481671 0.000000 -0.000029 -0.493523 0.658081 0.183003
    19 3.883691 -0.046771 0.431443 0.096615 -0.011011 -0.677044
    20 1.719575 0.000000 0.000000 0.055915 -0.087978 -1.150781
    21 1.209183 -0.000001 0.000000 0.009316 -0.033629 -0.339470
    22 3.859861 -0.137948 1.332466 0.537935 -0.132420 -0.946691
    23 1.719428 0.000001 0.000000 0.023476 -0.208311 -0.755744
    24 1.099667 0.000000 0.000000 0.026046 -0.124621 -0.538681
    25 0.806048 -0.348922 1.321258 -1.269164 -0.727275 -0.266407
    26 1.789783 0.000001 0.000001 -0.001067 -0.012843 -0.131867
    27 1.207000 0.000000 0.000001 -0.000100 -0.003217 -0.064874
    28 2.033354 1.000771 -1.937610 -3.688310 1.035984 0.959569
    29 6.028142 0.000004 0.000000 1.773296 1.334825 -0.413190
    30 11.692552 0.000000 0.000002 0.000000 0.000000 -1.775669
    31 11.481699 0.000000 0.000004 -0.660142 -0.037929 0.763493
    32 3.883657 -0.050329 -0.431043 0.047706 -0.153454 -0.767483
    33 1.719576 0.000003 0.000000 -0.053884 0.078890 -1.553283
    34 1.209180 -0.000001 0.000000 -0.013612 0.036967 -0.732282
    35 3.859830 -0.148938 -1.331282 -0.332627 0.218364 0.154975
    36 1.719426 0.000000 0.000000 -0.042633 0.220746 -0.851607
    37 1.099666 0.000000 0.000000 0.008154 0.000000 0.000000
    38 0.806017 -0.359836 -1.318334 0.415058 0.423434 -0.720789
    39 1.789784 0.000000 -0.000001 0.015106 0.038911 0.767156
    40 1.206998 0.000000 0.000000 0.004784 0.022539 0.418309
    41 -0.044717 2.313936 4.661499 -0.475769 -0.229683 -0.260917
    42 2.676088 -1.712442 0.000000 1.570797 0.000000 1.570797
    43 2.676088 -1.712443 0.000000 -1.570796 0.000000 -1.570796
  time 7
    0 1.482061 1.299325 20.117136 1.620539 -0.006637 -1.227741
    1 3.890452 -0.000004 -0.000003 -3.049107 -1.201689 -0.274812
    2 17.848175 0.000000 0.000000 0.000000 0.000000 2.045675
    3 16.525249 0.000000 0.000000 0.147299 -0.041111 -1.563971
    4 6.879453 0.000000 0.000000 -0.007299 -0.002951 -0.584373
    5 -3.890452 0.000004 0.000007 -1.736706 -0.385173 -1.865197
    6 17.848171 0.000000 0.000000 0.000000 0.000000 2.142534
    7 16.525257 0.000000 0.000000 0.354374 -0.265129 -1.306296
    8 6.879454 0.000000 0.000000 -0.079416 -0.004928 -0.974607
    9 0.449237 3.317783 -2.981901 1.488331 -0.040340 1.433225
    10 4.018331 0.000000 0.000000 0.000818 -0.046380 0.086822
    11 3.518561 0.000000 0.000000 0.009445 -0.077037 0.233027
    12 8.942642 0.000000 0.000000 -0.012159 -0.002265 0.050068
    13 3.307271 0.000000 0.000000 3.141590 0.000000 0.400478
    14 3.593710 -0.000003 0.000000 1.011130 0.217026 0.477757
    15 2.033346 1.000767 1.937660 0.194295 -1.479277 -1.937994
    16 6.028142 0.000002 0.000000 -2.680850 -0.723545 -0.333789
    17 11.692556 0.000000 -0.000001 0.000000 0.000000 -1.358839
    18 11.481671 0.000000 -0.000029 -0.471357 0.682949 0.193991
    19 3.883691 -0.046771 0.431443 0.096615 -0.011011 -0.677044
    20 1.719575 0.000000 0.000000 0.055915 -0.087978 -1.150781
    21 1.209183 -0.000001 0.000000 0.009316 -0.033629 -0.339470
    22 3.859861 -0.137948 1.332466 0.537935 -0.132420 -0.946691
    23 1.719428 0.000001 0.000000 0.023476 -0.208311 -0.755744
    24 1.099667 0.000000 0.000000 0.026046 -0.124621 -0.538681
    25 0.806048 -0.348922 1.321258 -1.269164 -0.727275 -0.266407
    26 1.789783 0.000001 0.000001 -0.001067 -0.012843 -0.131867
    27 1.207000 0.000000 0.000001 -0.000100 -0.003217 -0.064874
    28 2.033354 1.000771 -1.937610 -3.682058 1.038120 0.964973
    29 6.028142 0.000004 0.000000 1.848778 1.345720 -0.334049
    30 11.692552 0.000000 0.000002 0.000000 0.000000 -1.764315
    31 11.481699 0.000000 0.000004 -0.632028 -0.026276 0.763778
    32 3.883657 -0.050329 -0.431043 0.047706 -0.153454 -0.767483
    33 1.719576 0.000003 0.000000 -0.053884 0.078890 -1.553283
    34 1.209180 -0.000001 0.000000 -0.013612 0.036967 -0.732282
    35 3.859830 -0.148938 -1.331282 -0.332627 0.218364 0.154975
    36 1.719426 0.000000 0.000000 -0.042633 0.220746 -0.851607
    37 1.099666 0.000000 0.000000 0.008154 0.000000 0.000000
    38 0.806017 -0.359836 -1.318334 0.415058 0.423434 -0.720789
    39 1.789784 0.000000 -0.000001 0.015106 0.038911 0.767156
    40 1.206998 0.000000 0.000000 0.004784 0.022539 0.418309
    41 -0.044717 2.313936 4.661499 -0.513433 -0.204717 -0.273872
    42 2.676088 -1.712442 0.000000 1.570797 0.000000 1.570797
    43 2.676088 -1.712443 0.000000 -1.570796 0.000000 -1.570796
  time 8
    0 1.403053 1.534994 20.222608 1.619776 -0.002675 -1.215575
    1 3.890452 -0.000004 -0.000003 -3.042746 -1.197970 -0.273488
    2 17.848175 0.000000 0.000000 0.000000 0.000000 2.038235
    3 16.525249 0.000000 0.000000 0.152737 -0.026616 -1.555676
    4 6.879453 0.000000 0.000000 -0.007299 -0.002951 -0.584373
    5 -3.890452 0.000004 0.000007 -1.715045 -0.381106 -1.860193
    6 17.848171 0.000000 0.000000 0.000000 0.000000 2.152086
    7 16.525257 0.000000 0.000000 0.353999 -0.253403 -1.327877
    8 6.879454 0.000000 0.000000 -0.079943 -0.004521 -0.880459
    9 0.445331 3.317783 -2.981901 1.488423 -0.040909 1.432829
    10 4.018331 0.000000 0.000000 -0.001604 -0.043456 0.087606
    11 3.518561 0.000000 0.000000 0.007324 -0.073633 0.234315
    12 8.942642 0.000000 0.000000 -0.012107 -0.002025 0.051965
    13 3.307271 0.000000 0.000000 3.141590 0.000000 0.400478
    14 3.593710 -0.000003 0.000000 1.003968 0.216914 0.479975
    15 2.033346 1.000767 1.937660 0.194295 -1.479277 -1.937994
    16 6.028142 0.000002 0.000000 -2.702158 -0.730800 -0.311696
    17 11.692556 0.000000 -0.000001 0.000000 0.000000 -1.353635
    18 11.481671 0.000000 -0.000029 -0.455019 0.696525 0.208812
    19 3.883691 -0.046771 0.431443 0.096615 -0.011011 -0.677044
    20 1.719575 0.000000 0.000000 0.055915 -0.087978 -1.150781
    21 1.209183 -0.000001 0.000000 0.009316 -0.033629 -0.339470
    22 3.859861 -0.137948 1.332466 0.537935 -0.132420 -0.946691
    23 1.719428 0.000001 0.000000 0.023476 -0.208311 -0.755744
    24 1.099667 0.000000 0.000000 0.026046 -0.124621 -0.538681
    25 0.806048 -0.348922 1.321258 -1.269164 -0.727275 -0.266407
    26 1.789783 0.000001 0.000001 -0.001067 -0.012843 -0.131867
    27 1.207000 0.000000 0.000001 -0.000100 -0.003217 -0.064874
    28 2.033354 1.000771 -1.937610 -3.678575 1.039544 0.967946
    29 6.028142 0.000004 0.000000 1.887477 1.348326 -0.290492
    30 11.692552 0.000000 0.000002 0.000000 0.000000 -1.764532
    31 11.481699 0.000000 0.000004 -0.614537 -0.018242 0.764691
    32 3.883657 -0.050329 -0.431043 0.047706 -0.153454 -0.767483
    33 1.719576 0.000003 0.000000 -0.053884 0.078890 -1.553283
    34 1.209180 -0.000001 0.000000 -0.013612 0.036967 -0.732282
    35 3.859830 -0.148938 -1.331282 -0.332627 0.218364 0.154975
    36 1.719426 0.000000 0.000000 -0.042633 0.220746 -0.851607
    37 1.099666 0.000000 0.000000 0.008154 0.000000 0.000000
    38 0.806017 -0.359836 -1.318334 0.415058 0.423434 -0.720789
    39 1.789784 0.000000 -0.000001 0.015106 0.038911 0.767156
    40 1.206998 0.000000 0.000000 0.004784 0.022539 0.418309
    41 -0.044717 2.313936 4.661499 -0.557237 -0.171549 -0.280703
    42 2.676088 -1.712442 0.000000 1.570797 0.000000 1.570797
    43 2.676088 -1.712443 0.000000 -1.570796 0.000000 -1.570796
  time 9
    0 1.339033 1.827824 20.210889 1.620157 0.002870 -1.202259
    1 3.890452 -0.000004 -0.000003 -3.059795 -1.195919 -0.244810
    2 17.848175 0.000000 0.000000 0.000000 0.000000 2.036185
    3 16.525249 0.000000 0.000000 0.157037 -0.012093 -1.544237
    4 6.879453 0.000000 0.000000 -0.007299 -0.002951 -0.584373
    5 -3.890452 0.000004 0.000007 -1.689166 -0.380616 -1.856700
    6 17.848171 0.000000 0.000000 0.000000 0.000000 2.170873
    7 16.525257 0.000000 0.000000 0.350725 -0.240186 -1.358432
    8 6.879454 0.000000 0.000000 -0.080399 -0.004102 -0.792868
    9 0.437518 3.317783 -2.981901 1.488533 -0.042498 1.432398
    10 4.018331 0.000000 0.000000 -0.004426 -0.040843 0.089819
    11 3.518561 0.000000 0.000000 0.004865 -0.069654 0.235401
    12 8.942642 0.000000 0.000000 -0.012018 -0.001750 0.053506
    13 3.307271 0.000000 0.000000 3.141590 0.000000 0.400478
    14 3.593710 -0.000003 0.000000 1.000359 0.214829 0.481084
    15 2.033346 1.000767 1.937660 0.194295 -1.479277 -1.937994
    16 6.028142 0.000002 0.000000 -2.706873 -0.730118 -0.312810
    17 11.692556 0.000000 -0.000001 0.000000 0.000000 -1.369089
    18 11.481671 0.000000 -0.000029 -0.443459 0.701134 0.226875
    19 3.883691 -0.046771 0.431443 0.096615 -0.011011 -0.677044
    20 1.719575 0.000000 0.000000 0.055915 -0.087978 -1.150781
    21 1.209183 -0.000001 0.000000 0.009316 -0.033629 -0.339470
    22 3.859861 -0.137948 1.332466 0.537935 -0.132420 -0.946691
    23 1.719428 0.000001 0.000000 0.023476 -0.208311 -0.755744
    24 1.099667 0.000000 0.000000 0.026046 -0.124621 -0.538681
    25 0.806048 -0.348922 1.321258 -1.269164 -0.727275 -0.266407
    26 1.789783 0.000001 0.000001 -0.001067 -0.012843 -0.131867
    27 1.207000 0.000000 0.000001 -0.000100 -0.003217 -0.064874
    28 2.033354 1.000771 -1.937610 -3.677682 1.040224 0.968576
    29 6.028142 0.000004 0.000000 1.891404 1.344962 -0.282616
    30 11.692552 0.000000 0.000002 0.000000 0.000000 -1.774440
    31 11.481699 0.000000 0.000004 -0.607217 -0.013243 0.765718
    32 3.883657 -0.050329 -0.431043 0.047706 -0.153454 -0.767483
    33 1.719576 0.000003 0.000000 -0.053884 0.078890 -1.553283
    34 1.209180 -0.000001 0.000000 -0.013612 0.036967 -0.732282
    35 3.859830 -0.148938 -1.331282 -0.332627 0.218364 0.154975
    36 1.719426 0.000000 0.000000 -0.042633 0.220746 -0.851607
    37 1.099666 0.000000 0.000000 0.008154 0.000000 0.000000
    38 0.806017 -0.359836 -1.318334 0.415058 0.423434 -0.720789
    39 1.789784 0.000000 -0.000001 0.015106 0.038911 0.767156
    40 1.206998 0.000000 0.000000 0.004784 0.022539 0.418309
    41 -0.044717 2.313936 4.661499 -0.604772 -0.132860 -0.282800
    42 2.676088 -1.712442 0.000000 1.570797 0.000000 1.570797
    43 2.676088 -1.712443 0.000000 -1.570796 0.000000 -1.570796
  time 10
    0 1.286094 2.190071 20.152293 1.621620 0.009671 -1.188081
    1 3.890452 -0.000004 -0.000003 -3.089300 -1.194918 -0.199191
    2 17.848175 0.000000 0.000000 0.000000 0.000000 2.035502
    3 16.525249 0.000000 0.000000 0.158743 0.002512 -1.529253
    4 6.879453 0.000000 0.000000 -0.007299 -0.002951 -0.584373
    5 -3.890452 0.000004 0.000007 -1.661563 -0.385860 -1.851319
    6 17.848171 0.000000 0.000000 0.000000 0.000000 2.195659
    7 16.525257 0.000000 0.000000 0.347076 -0.221724 -1.393901
    8 6.879454 0.000000 0.000000 -0.080758 -0.003718 -0.720735
    9 0.429706 3.317783 -2.981901 1.488698 -0.045193 1.431871
    10 4.018331 0.000000 0.000000 -0.007425 -0.038495 0.093008
    11 3.518561 0.000000 0.000000 0.002210 -0.065388 0.236379
    12 8.942642 0.000000 0.000000 -0.011948 -0.001426 0.054863
    13 3.307271 0.000000 0.000000 3.141590 0.000000 0.400478
    14 3.593710 -0.000003 0.000000 0.999637 0.210744 0.481269
    15 2.033346 1.000767 1.937660 0.194295 -1.479277 -1.937994
    16 6.028142 0.000002 0.000000 -2.700273 -0.724519 -0.328962
    17 11.692556 0.000000 -0.000001 0.000000 0.000000 -1.398578
    18 11.481671 0.000000 -0.000029 -0.435911 0.698809 0.246914
    19 3.883691 -0.046771 0.431443 0.096615 -0.011011 -0.677044
    20 1.719575 0.000000 0.000000 0.055915 -0.087978 -1.150781
    21 1.209183 -0.000001 0.000000 0.009316 -0.033629 -0.339470
    22 3.859861 -0.137948 1.332466 0.537935 -0.132420 -0.946691
    23 1.719428 0.000001 0.000000 0.023476 -0.208311 -0.755744
    24 1.099667 0.000000 0.000000 0.026046 -0.124621 -0.538681
    25 0.806048 -0.348922 1.321258 -1.269164 -0.727275 -0.266407
    26 1.789783 0.000001 0.000001 -0.001067 -0.012843 -0.131867
    27 1.207000 0.000000 0.000001 -0.000100 -0.003217 -0.064874
    28 2.033354 1.000771 -1.937610 -3.679379 1.040289 0.966955
    29 6.028142 0.000004 0.000000 1.870331 1.337099 -0.301879
    30 11.692552 0.000000 0.000002 0.000000 0.000000 -1.791579
    31 11.481699 0.000000 0.000004 -0.608577 -0.010691 0.766403
    32 3.883657 -0.050329 -0.431043 0.047706 -0.153454 -0.767483
    33 1.719576 0.000003 0.000000 -0.053884 0.078890 -1.553283
    34 1.209180 -0.000001 0.000000 -0.013612 0.036967 -0.732282
    35 3.859830 -0.148938 -1.331282 -0.332627 0.218364 0.154975
    36 1.719426 0.000000 0.000000 -0.042633 0.220746 -0.851607
    37 1.099666 0.000000 0.000000 0.008154 0.000000 0.000000
    38 0.806017 -0.359836 -1.318334 0.415058 0.423434 -0.720789
    39 1.789784 0.000000 -0.000001 0.015106 0.038911 0.767156
    40 1.206998 0.000000 0.000000 0.004784 0.022539 0.418309
    41 -0.044717 2.313936 4.661499 -0.653717 -0.091318 -0.281554
    42 2.676088 -1.712442 0.000000 1.570797 0.000000 1.570797
    43 2.676088 -1.712443 0.000000 -1.570796 0.000000 -1.570796
  time 11
    0 1.232516 2.615607 20.117136 1.624101 0.017303 -1.173424
    1 3.890452 -0.000004 -0.000003 -3.120482 -1.194489 -0.148189
    2 17.848175 0.000000 0.000000 0.000000 0.000000 2.032085
    3 16.525249 0.000000 0.000000 0.156789 0.017089 -1.511058
    4 6.879453 0.000000 0.000000 -0.007299 -0.002951 -0.584373
    5 -3.890452 0.000004 0.000007 -1.635780 -0.399533 -1.840084
    6 17.848171 0.000000 0.000000 0.000000 0.000000 2.222656
    7 16.525257 0.000000 0.000000 0.346982 -0.194171 -1.429744
    8 6.879454 0.000000 0.000000 -0.080962 -0.003466 -0.673866
    9 0.421893 3.321690 -2.981901 1.488899 -0.048975 1.431235
    10 4.018331 0.000000 0.000000 -0.010440 -0.036397 0.096703
    11 3.518561 0.000000 0.000000 -0.000428 -0.061097 0.237310
    12 8.942642 0.000000 0.000000 -0.011825 -0.001031 0.056299
    13 3.307271 0.000000 0.000000 3.141590 0.000000 0.400478
    14 3.593710 -0.000003 0.000000 1.000748 0.204800 0.480961
    15 2.033346 1.000767 1.937660 0.194295 -1.479277 -1.937994
    16 6.028142 0.000002 0.000000 -2.687921 -0.716728 -0.351706
    17 11.692556 0.000000 -0.000001 0.000000 0.000000 -1.435085
    18 11.481671 0.000000 -0.000029 -0.431324 0.691543 0.267348
    19 3.883691 -0.046771 0.431443 0.096615 -0.011011 -0.677044
    20 1.719575 0.000000 0.000000 0.055915 -0.087978 -1.150781
    21 1.209183 -0.000001 0.000000 0.009316 -0.033629 -0.339470
    22 3.859861 -0.137948 1.332466 0.537935 -0.132420 -0.946691
    23 1.719428 0.000001 0.000000 0.023476 -0.208311 -0.755744
    24 1.099667 0.000000 0.000000 0.026046 -0.124621 -0.538681
    25 0.806048 -0.348922 1.321258 -1.269164 -0.727275 -0.266407
    26 1.789783 0.000001 0.000001 -0.001067 -0.012843 -0.131867
    27 1.207000 0.000000 0.000001 -0.000100 -0.003217 -0.064874
    28 2.033354 1.000771 -1.937610 -3.682862 1.040030 0.963802
    29 6.028142 0.000004 0.000000 1.838145 1.325777 -0.334808
    30 11.692552 0.000000 0.000002 0.000000 0.000000 -1.813131
    31 11.481699 0.000000 0.000004 -0.615962 -0.010105 0.766175
    32 3.883657 -0.050329 -0.431043 0.047706 -0.153454 -0.767483
    33 1.719576 0.000003 0.000000 -0.053884 0.078890 -1.553283
    34 1.209180 -0.000001 0.000000 -0.013612 0.036967 -0.732282
    35 3.859830 -0.148938 -1.331282 -0.332627 0.218364 0.154975
    36 1.719426 0.000000 0.000000 -0.042633 0.220746 -0.851607
    37 1.099666 0.000000 0.000000 0.008154 0.000000 0.000000
    38 0.806017 -0.359836 -1.318334 0.415058 0.423434 -0.720789
    39 1.789784 0.000000 -0.000001 0.015106 0.038911 0.767156
    40 1.206998 0.000000 0.000000 0.004784 0.022539 0.418309
    41 -0.044717 2.313936 4.661499 -0.701706 -0.049589 -0.278330
    42 2.676088 -1.712442 0.000000 1.570797 0.000000 1.570797
    43 2.676088 -1.712443 0.000000 -1.570796 0.000000 -1.570796
  time 12
    0 1.170488 3.079918 20.167918 1.627536 0.025326 -1.158575
    1 3.890452 -0.000004 -0.000003 -3.140977 -1.194441 -0.105128
    2 17.848175 0.000000 0.000000 0.000000 0.000000 2.022140
    3 16.525249 0.000000 0.000000 0.150605 0.031200 -1.490656
    4 6.879453 0.000000 0.000000 -0.007299 -0.002951 -0.584373
    5 -3.890452 0.000004 0.000007 -1.616706 -0.425116 -1.818464
    6 17.848171 0.000000 0.000000 0.000000 0.000000 2.247679
    7 16.525257 0.000000 0.000000 0.354187 -0.153773 -1.459819
    8 6.879454 0.000000 0.000000 -0.080998 -0.003418 -0.666021
    9 0.410174 3.321690 -2.981901 1.489210 -0.053677 1.430421
    10 4.018331 0.000000 0.000000 -0.013278 -0.034528 0.100467
    11 3.518561 0.000000 0.000000 -0.002922 -0.057059 0.238226
    12 8.942642 0.000000 0.000000 -0.011701 -0.000539 0.058117
    13 3.307271 0.000000 0.000000 3.141590 0.000000 0.400478
    14 3.593710 -0.000003 0.000000 1.001914 0.197420 0.480653
    15 2.033346 1.000767 1.937660 0.194295 -1.479277 -1.937994
    16 6.028142 0.000002 0.000000 -2.674816 -0.709376 -0.372871
    17 11.692556 0.000000 -0.000001 0.000000 0.000000 -1.471828
    18 11.481671 0.000000 -0.000029 -0.428554 0.681164 0.286952
    19 3.883691 -0.046771 0.431443 0.096615 -0.011011 -0.677044
    20 1.719575 0.000000 0.000000 0.055915 -0.087978 -1.150781
    21 1.209183 -0.000001 0.000000 0.009316 -0.033629 -0.339470
    22 3.859861 -0.137948 1.332466 0.537935 -0.132420 -0.946691
    23 1.719428 0.000001 0.000000 0.023476 -0.208311 -0.755744
    24 1.099667 0.000000 0.000000 0.026046 -0.124621 -0.538681
    25 0.806048 -0.348922 1.321258 -1.269164 -0.727275 -0.266407
    26 1.789783 0.000001 0.000001 -0.001067 -0.012855 -0.131867
    27 1.207000 0.000000 0.000001 -0.000100 -0.003217 -0.064874
    28 2.033354 1.000771 -1.937610 -3.687059 1.039674 0.959839
    29 6.028142 0.000004 0.000000 1.809505 1.311992 -0.366407
    30 11.692552 0.000000 0.000002 0.000000 0.000000 -1.836129
    31 11.481699 0.000000 0.000004 -0.625873 -0.011036 0.764463
    32 3.883657 -0.050329 -0.431043 0.047706 -0.153454 -0.767483
    33 1.719576 0.000003 0.000000 -0.053884 0.078890 -1.553283
    34 1.209180 -0.000001 0.000000 -0.013612 0.036967 -0.732282
    35 3.859830 -0.148938 -1.331282 -0.332627 0.218364 0.154975
    36 1.719426 0.000000 0.000000 -0.042633 0.220746 -0.851607
    37 1.099666 0.000000 0.000000 0.008154 0.000000 0.000000
    38 0.806017 -0.359836 -1.318334 0.415058 0.423434 -0.720789
    39 1.789784 0.000000 -0.000001 0.015106 0.038911 0.767156
    40 1.206998 0.000000 0.000000 0.004784 0.022539 0.418309
    41 -0.044717 2.313936 4.661499 -0.746420 -0.010323 -0.274531
    42 2.676088 -1.712442 0.000000 1.570797 0.000000 1.570797
    43 2.676088 -1.712443 0.000000 -1.570796 0.000000 -1.570796
  time 13
    0 1.088289 3.564622 20.398394 1.631798 0.033138 -1.143726
    1 3.890452 -0.000004 -0.000003 -3.136736 -1.194823 -0.086156
    2 17.848175 0.000000 0.000000 0.000000 0.000000 2.001186
    3 16.525249 0.000000 0.000000 0.140049 0.043993 -1.469384
    4 6.879453 0.000000 0.000000 -0.007299 -0.002951 -0.584373
    5 -3.890452 0.000004 0.000007 -1.612489 -0.468784 -1.773242
    6 17.848171 0.000000 0.000000 0.000000 0.000000 2.272387
    7 16.525257 0.000000 0.000000 0.372337 -0.080274 -1.479583
    8 6.879454 0.000000 0.000000 -0.080974 -0.003466 -0.673691
    9 0.394548 3.321690 -2.981901 1.489650 -0.059032 1.429426
    10 4.018331 0.000000 0.000000 -0.015748 -0.032862 0.103848
    11 3.518561 0.000000 0.000000 -0.005097 -0.053547 0.239219
    12 8.942642 0.000000 0.000000 -0.011543 0.000072 0.060633
    13 3.307271 0.000000 0.000000 3.141590 0.000000 0.400478
    14 3.593710 -0.000003 0.000000 1.001358 0.189250 0.480838
    15 2.033346 1.000767 1.937660 0.194295 -1.479277 -1.937994
    16 6.028142 0.000002 0.000000 -2.665670 -0.705481 -0.384939
    17 11.692556 0.000000 -0.000001 0.000000 0.000000 -1.502185
    18 11.481671 0.000000 -0.000029 -0.426261 0.669581 0.304817
    19 3.883691 -0.046771 0.431443 0.096615 -0.011011 -0.677044
    20 1.719575 0.000000 0.000000 0.055915 -0.087978 -1.150781
    21 1.209183 -0.000001 0.000000 0.009316 -0.033629 -0.339470
    22 3.859861 -0.137948 1.332466 0.537935 -0.132420 -0.946691
    23 1.719428 0.000001 0.000000 0.023476 -0.208311 -0.755744
    24 1.099667 0.000000 0.000000 0.026046 -0.124621 -0.538681
    25 0.806048 -0.348922 1.321258 -1.269164 -0.727275 -0.266407
    26 1.789783 0.000001 0.000001 -0.001067 -0.012855 -0.131867
    27 1.207000 0.000000 0.000001 -0.000100 -0.003217 -0.064874
    28 2.033354 1.000771 -1.937610 -3.690810 1.039674 0.956326
    29 6.028142 0.000004 0.000000 1.796573 1.297259 -0.384058
    30 11.692552 0.000000 0.000002 0.000000 0.000000 -1.857319
    31 11.481699 0.000000 0.000004 -0.634424 -0.012898 0.760640
    32 3.883657 -0.050329 -0.431043 0.047706 -0.153454 -0.767483
    33 1.719576 0.000003 0.000000 -0.053884 0.078890 -1.553283
    34 1.209180 -0.000001 0.000000 -0.013612 0.036967 -0.732282
    35 3.859830 -0.148938 -1.331282 -0.332627 0.218364 0.154975
    36 1.719426 0.000000 0.000000 -0.042633 0.220746 -0.851607
    37 1.099666 0.000000 0.000000 0.008154 0.000000 0.000000
    38 0.806017 -0.359836 -1.318334 0.415058 0.423434 -0.720789
    39 1.789784 0.000000 -0.000001 0.015106 0.038911 0.767156
    40 1.206998 0.000000 0.000000 0.004784 0.022539 0.418309
    41 -0.044717 2.313936 4.661499 -0.785449 0.023781 -0.271535
    42 2.676088 -1.712442 0.000000 1.570797 0.000000 1.570797
    43 2.676088 -1.712443 0.000000 -1.570796 0.000000 -1.570796
  time 14
    0 0.978108 4.045205 20.906222 1.636696 0.039971 -1.129260
    1 3.890452 -0.000004 -0.000003 -3.091508 -1.194823 -0.110422
    2 17.848175 0.000000 0.000000 0.000000 0.000000 1.963454
    3 16.525249 0.000000 0.000000 0.125158 0.054096 -1.448246
    4 6.879453 0.000000 0.000000 -0.007299 -0.002951 -0.584373
    5 -3.890452 0.000004 0.000007 -1.621882 -0.536760 -1.714047
    6 17.848171 0.000000 0.000000 0.000000 0.000000 2.287938
    7 16.525257 0.000000 0.000000 0.388055 0.019589 -1.476271
    8 6.879454 0.000000 0.000000 -0.081010 -0.003406 -0.662888
    9 0.375016 3.325596 -2.981901 1.490217 -0.064689 1.428215
    10 4.018331 0.000000 0.000000 -0.017656 -0.031376 0.106375
    11 3.518561 0.000000 0.000000 -0.006789 -0.050851 0.240336
    12 8.942642 0.000000 0.000000 -0.011331 0.000803 0.064045
    13 3.307271 0.000000 0.000000 3.141590 0.000000 0.400478
    14 3.593710 -0.000003 0.000000 0.997527 0.180912 0.482008
    15 2.033346 1.000767 1.937660 0.194295 -1.479277 -1.937994
    16 6.028142 0.000002 0.000000 -2.665105 -0.708159 -0.380669
    17 11.692556 0.000000 -0.000001 0.000000 0.000000 -1.519847
    18 11.481671 0.000000 -0.000029 -0.422917 0.659119 0.320311
    19 3.883691 -0.046771 0.431443 0.096615 -0.011011 -0.677044
    20 1.719575 0.000000 0.000000 0.055915 -0.087978 -1.150781
    21 1.209183 -0.000001 0.000000 0.009316 -0.033629 -0.339470
    22 3.859861 -0.137948 1.332466 0.537935 -0.132420 -0.946691
    23 1.719428 0.000001 0.000000 0.023476 -0.208311 -0.755744
    24 1.099667 0.000000 0.000000 0.026046 -0.124621 -0.538681
    25 0.806048 -0.348922 1.321258 -1.269164 -0.727275 -0.266407
    26 1.789783 0.000001 0.000001 -0.001067 -0.012843 -0.131867
    27 1.207000 0.000000 0.000001 -0.000100 -0.003217 -0.064874
    28 2.033354 1.000771 -1.937610 -3.693043 1.040321 0.954164
    29 6.028142 0.000004 0.000000 1.808164 1.283332 -0.378269
    30 11.692552 0.000000 0.000002 0.000000 0.000000 -1.873591
    31 11.481699 0.000000 0.000004 -0.637599 -0.015070 0.754250
    32 3.883657 -0.050329 -0.431043 0.047706 -0.153454 -0.767483
    33 1.719576 0.000003 0.000000 -0.053884 0.078890 -1.553283
    34 1.209180 -0.000001 0.000000 -0.013612 0.036967 -0.732282
    35 3.859830 -0.148938 -1.331282 -0.332627 0.218364 0.154975
    36 1.719426 0.000000 0.000000 -0.042633 0.220746 -0.851607
    37 1.099666 0.000000 0.000000 0.008154 0.000000 0.000000
    38 0.806017 -0.359836 -1.318334 0.415058 0.423434 -0.720789
    39 1.789784 0.000000 -0.000001 0.015106 0.038911 0.767156
    40 1.206998 0.000000 0.000000 0.004784 0.022539 0.418309
    41 -0.044717 2.313936 4.661499 -0.816471 0.050103 -0.270732
    42 2.676088 -1.712442 0.000000 1.570797 0.000000 1.570797
    43 2.676088 -1.712443 0.000000 -1.570796 0.000000 -1.570796
  time 15
    0 0.859476 4.540053 21.660151 1.645919 0.040835 -1.118531
    1 3.890452 -0.000004 -0.000003 -3.012889 -1.197207 -0.171131
    2 17.848175 0.000000 0.000000 0.000000 0.000000 1.908641
    3 16.525249 0.000000 0.000000 0.096050 0.054947 -1.426305
    4 6.879453 0.000000 0.000000 -0.007299 -0.002951 -0.584373
    5 -3.890452 0.000004 0.000007 -1.665876 -0.630417 -1.650321
    6 17.848171 0.000000 0.000000 0.000000 0.000000 2.283359
    7 16.525257 0.000000 0.000000 0.407048 0.110991 -1.446731
    8 6.879454 0.000000 0.000000 -0.081094 -0.003287 -0.643420
    9 0.367204 3.325596 -2.981901 1.490565 -0.067617 1.427556
    10 4.018331 0.000000 0.000000 -0.017624 -0.031388 0.106323
    11 3.518561 0.000000 0.000000 -0.006772 -0.050875 0.240274
    12 8.942642 0.000000 0.000000 -0.011225 0.001210 0.066035
    13 3.307271 0.000000 0.000000 3.141590 0.000000 0.400478
    14 3.593710 -0.000003 0.000000 0.994585 0.176686 0.482933
    15 2.033346 1.000767 1.937660 0.194295 -1.479277 -1.937994
    16 6.028142 0.000002 0.000000 -2.669159 -0.723496 -0.364702
    17 11.692556 0.000000 -0.000001 0.000000 0.000000 -1.508571
    18 11.481671 0.000000 -0.000029 -0.409445 0.645460 0.327070
    19 3.883691 -0.046771 0.431443 0.096615 -0.011011 -0.677044
    20 1.719575 0.000000 0.000000 0.055915 -0.087978 -1.150781
    21 1.209183 -0.000001 0.000000 0.009316 -0.033629 -0.339470
    22 3.859861 -0.137948 1.332466 0.537935 -0.132420 -0.946691
    23 1.719428 0.000001 0.000000 0.023476 -0.208311 -0.755744
    24 1.099667 0.000000 0.000000 0.026046 -0.124621 -0.538681
    25 0.806048 -0.348922 1.321258 -1.269164 -0.727275 -0.266407
    26 1.789783 0.000001 0.000001 -0.001067 -0.012843 -0.131867
    27 1.207000 0.000000 0.000001 -0.000100 -0.003217 -0.064874
    28 2.033354 1.000771 -1.937610 -3.693579 1.040871 0.953443
    29 6.028142 0.000004 0.000000 1.838433 1.266325 -0.354546
    30 11.692552 0.000000 0.000002 0.000000 0.000000 -1.869179
    31 11.481699 0.000000 0.000004 -0.632805 -0.020724 0.726064
    32 3.883657 -0.050329 -0.431043 0.047706 -0.153454 -0.767483
    33 1.719576 0.000003 0.000000 -0.053884 0.078890 -1.553283
    34 1.209180 -0.000001 0.000000 -0.013612 0.036967 -0.732282
    35 3.859830 -0.148938 -1.331282 -0.332627 0.218364 0.154975
    36 1.719426 0.000000 0.000000 -0.042633 0.220746 -0.851607
    37 1.099666 0.000000 0.000000 0.008154 0.000000 0.000000
    38 0.806017 -0.359836 -1.318334 0.415058 0.423434 -0.720789
    39 1.789784 0.000000 -0.000001 0.015106 0.038911 0.767156
    40 1.206998 0.000000 0.000000 0.004784 0.022539 0.418309
    41 -0.044717 2.313936 4.661499 -0.843309 0.068348 -0.274915
    42 2.676088 -1.712442 0.000000 1.570797 0.000000 1.570797
    43 2.676088 -1.712443 0.000000 -1.570796 0.000000 -1.570796
  time 16
    0 0.724580 5.134957 22.550804 1.660231 0.032404 -1.111729
    1 3.890452 -0.000004 -0.000003 -2.926142 -1.193297 -0.248781
    2 17.848175 0.000000 0.000000 0.000000 0.000000 1.839782
    3 16.525249 0.000000 0.000000 0.052549 0.041385 -1.399481
    4 6.879453 0.000000 0.000000 -0.007299 -0.002951 -0.584373
    5 -3.890452 0.000004 0.000007 -1.791530 -0.731181 -1.559594
    6 17.848171 0.000000 0.000000 0.000000 0.000000 2.250126
    7 16.525257 0.000000 0.000000 0.466458 0.170434 -1.396358
    8 6.879454 0.000000 0.000000 -0.081178 -0.003191 -0.625797
    9 0.378923 3.325596 -2.981901 1.490199 -0.064521 1.428263
    10 4.018331 0.000000 0.000000 -0.015700 -0.033113 0.102959
    11 3.518561 0.000000 0.000000 -0.005079 -0.053595 0.238226
    12 8.942642 0.000000 0.000000 -0.011349 0.000779 0.063940
    13 3.307271 0.000000 0.000000 3.141590 0.000000 0.400478
    14 3.593710 -0.000003 0.000000 0.997694 0.181137 0.482008
    15 2.033346 1.000767 1.937660 0.194295 -1.479277 -1.937994
    16 6.028142 0.000002 0.000000 -2.664728 -0.751396 -0.356440
    17 11.692556 0.000000 -0.000001 0.000000 0.000000 -1.460711
    18 11.481671 0.000000 -0.000029 -0.381546 0.626445 0.316121
    19 3.883691 -0.046771 0.431443 0.096615 -0.011011 -0.677044
    20 1.719575 0.000000 0.000000 0.055915 -0.087978 -1.150781
    21 1.209183 -0.000001 0.000000 0.009316 -0.033629 -0.339470
    22 3.859861 -0.137948 1.332466 0.537935 -0.132420 -0.946691
    23 1.719428 0.000001 0.000000 0.023476 -0.208311 -0.755744
    24 1.099667 0.000000 0.000000 0.026046 -0.124621 -0.538681
    25 0.806048 -0.348922 1.321258 -1.269164 -0.727275 -0.266407
    26 1.789783 0.000001 0.000001 -0.001067 -0.012843 -0.131867
    27 1.207000 0.000000 0.000001 -0.000100 -0.003217 -0.064874
    28 2.033354 1.000771 -1.937610 -3.692954 1.040289 0.954164
    29 6.028142 0.000004 0.000000 1.857112 1.245482 -0.337939
    30 11.692552 0.000000 0.000002 0.000000 0.000000 -1.832513
    31 11.481699 0.000000 0.000004 -0.620173 -0.028862 0.666156
    32 3.883657 -0.050329 -0.431043 0.047706 -0.153454 -0.767483
    33 1.719576 0.000003 0.000000 -0.053884 0.078890 -1.553283
    34 1.209180 -0.000001 0.000000 -0.013612 0.036967 -0.732282
    35 3.859830 -0.148938 -1.331282 -0.332627 0.218364 0.154975
    36 1.719426 0.000000 0.000000 -0.042633 0.220746 -0.851607
    37 1.099666 0.000000 0.000000 0.008154 0.000000 0.000000
    38 0.806017 -0.359836 -1.318334 0.415058 0.423434 -0.720789
    39 1.789784 0.000000 -0.000001 0.015106 0.038911 0.767156
    40 1.206998 0.000000 0.000000 0.004784 0.022539 0.418309
    41 -0.044717 2.313936 4.661499 -0.865598 0.079030 -0.282357
    42 2.676088 -1.712442 0.000000 1.570797 0.000000 1.570797
    43 2.676088 -1.712443 0.000000 -1.570796 0.000000 -1.570796
  time 17
    0 0.549982 5.872816 23.582085 1.674989 0.021918 -1.103203
    1 3.890452 -0.000004 -0.000003 -2.836304 -1.168883 -0.339667
    2 17.848175 0.000000 0.000000 0.000000 0.000000 1.760902
    3 16.525249 0.000000 0.000000 0.000269 0.009704 -1.371520
    4 6.879453 0.000000 0.000000 -0.007299 -0.002951 -0.584373
    5 -3.890452 0.000004 0.000007 -1.916897 -0.834493 -1.519092
    6 17.848171 0.000000 0.000000 0.000000 0.000000 2.168110
    7 16.525257 0.000000 0.000000 0.518477 0.182019 -1.339522
    8 6.879454 0.000000 0.000000 -0.081214 -0.003131 -0.615053
    9 0.390642 3.325596 -2.981901 1.489759 -0.060371 1.429198
    10 4.018331 0.000000 0.000000 -0.013792 -0.034827 0.101495
    11 3.518561 0.000000 0.000000 -0.003404 -0.056292 0.237822
    12 8.942642 0.000000 0.000000 -0.011490 0.000204 0.061108
    13 3.307271 0.000000 0.000000 3.141590 0.000000 0.400478
    14 3.593710 -0.000003 0.000000 1.001914 0.187109 0.480653
    15 2.033346 1.000767 1.937660 0.194295 -1.479277 -1.937994
    16 6.028142 0.000002 0.000000 -2.662182 -0.782703 -0.349849
    17 11.692556 0.000000 -0.000001 0.000000 0.000000 -1.405044
    18 11.481671 0.000000 -0.000029 -0.354507 0.607680 0.297663
    19 3.883691 -0.046771 0.431443 0.096615 -0.011011 -0.677044
    20 1.719575 0.000000 0.000000 0.055915 -0.087978 -1.150781
    21 1.209183 -0.000001 0.000000 0.009316 -0.033629 -0.339470
    22 3.859861 -0.137948 1.332466 0.537935 -0.132420 -0.946691
    23 1.719428 0.000001 0.000000 0.023476 -0.208311 -0.755744
    24 1.099667 0.000000 0.000000 0.026046 -0.124621 -0.538681
    25 0.806048 -0.348922 1.321258 -1.269164 -0.727275 -0.266407
    26 1.789783 0.000001 0.000001 -0.001067 -0.012843 -0.131867
    27 1.207000 0.000000 0.000001 -0.000100 -0.003217 -0.064874
    28 2.033354 1.000771 -1.937610 -3.692150 1.039544 0.955155
    29 6.028142 0.000004 0.000000 1.879143 1.226770 -0.314121
    30 11.692552 0.000000 0.000002 0.000000 0.000000 -1.790422
    31 11.481699 0.000000 0.000004 -0.606504 -0.035826 0.606932
    32 3.883657 -0.050329 -0.431043 0.047706 -0.153454 -0.767483
    33 1.719576 0.000003 0.000000 -0.053884 0.078890 -1.553283
    34 1.209180 -0.000001 0.000000 -0.013612 0.036967 -0.732282
    35 3.859830 -0.148938 -1.331282 -0.332627 0.218364 0.154975
    36 1.719426 0.000000 0.000000 -0.042633 0.220746 -0.851607
    37 1.099666 0.000000 0.000000 0.008154 0.000000 0.000000
    38 0.806017 -0.359836 -1.318334 0.415058 0.423434 -0.720789
    39 1.789784 0.000000 -0.000001 0.015106 0.038911 0.767156
    40 1.206998 0.000000 0.000000 0.004784 0.022539 0.418309
    41 -0.044717 2.313936 4.661499 -0.874423 0.080574 -0.287714
    42 2.676088 -1.712442 0.000000 1.570797 0.000000 1.570797
    43 2.676088 -1.712443 0.000000 -1.570796 0.000000 -1.570796
  time 18
    0 0.304431 6.698475 24.765715 1.685357 0.016732 -1.087205
    1 3.890452 -0.000004 -0.000003 -2.755300 -1.118483 -0.429318
    2 17.848175 0.000000 0.000000 0.000000 0.000000 1.672001
    3 16.525249 0.000000 0.000000 -0.042842 -0.020384 -1.340481
    4 6.879453 0.000000 0.000000 -0.007299 -0.002951 -0.584373
    5 -3.890452 0.000004 0.000007 -1.927728 -0.920309 -1.588105
    6 17.848171 0.000000 0.000000 0.000000 0.000000 2.024207
    7 16.525257 0.000000 0.000000 0.518009 0.179921 -1.297642
    8 6.879454 0.000000 0.000000 -0.081238 -0.003083 -0.608349
    9 0.390642 3.325596 -2.981901 1.489778 -0.060522 1.429162
    10 4.018331 0.000000 0.000000 -0.013808 -0.034815 0.105364
    11 3.518561 0.000000 0.000000 -0.003421 -0.056280 0.241175
    12 8.942642 0.000000 0.000000 -0.011490 0.000228 0.061213
    13 3.307271 0.000000 0.000000 3.141590 0.000000 0.400478
    14 3.593710 -0.000003 0.000000 1.001747 0.186912 0.480714
    15 2.033346 1.000767 1.937660 0.194295 -1.479277 -1.937994
    16 6.028142 0.000002 0.000000 -2.665388 -0.808558 -0.341216
    17 11.692556 0.000000 -0.000001 0.000000 0.000000 -1.371376
    18 11.481671 0.000000 -0.000029 -0.340845 0.593025 0.284739
    19 3.883691 -0.046771 0.431443 0.096615 -0.011011 -0.677044
    20 1.719575 0.000000 0.000000 0.055915 -0.087978 -1.150781
    21 1.209183 -0.000001 0.000000 0.009316 -0.033629 -0.339470
    22 3.859861 -0.137948 1.332466 0.537935 -0.132420 -0.946691
    23 1.719428 0.000001 0.000000 0.023476 -0.208311 -0.755744
    24 1.099667 0.000000 0.000000 0.026046 -0.124621 -0.538681
    25 0.806048 -0.348922 1.321258 -1.269164 -0.727275 -0.266407
    26 1.789783 0.000001 0.000001 -0.001067 -0.012843 -0.131867
    27 1.207000 0.000000 0.000001 -0.000100 -0.003217 -0.064874
    28 2.033354 1.000771 -1.937610 -3.692150 1.039576 0.955065
    29 6.028142 0.000004 0.000000 1.911328 1.210001 -0.280339
    30 11.692552 0.000000 0.000002 0.000000 0.000000 -1.771764
    31 11.481699 0.000000 0.000004 -0.598665 -0.041136 0.576636
    32 3.883657 -0.050329 -0.431043 0.047706 -0.153454 -0.767483
    33 1.719576 0.000003 0.000000 -0.053884 0.078890 -1.553283
    34 1.209180 -0.000001 0.000000 -0.013612 0.036967 -0.732282
    35 3.859830 -0.148938 -1.331282 -0.332627 0.218364 0.154975
    36 1.719426 0.000000 0.000000 -0.042633 0.220746 -0.851607
    37 1.099666 0.000000 0.000000 0.008154 0.000000 0.000000
    38 0.806017 -0.359836 -1.318334 0.415058 0.423434 -0.720789
    39 1.789784 0.000000 -0.000001 0.015106 0.038911 0.767156
    40 1.206998 0.000000 0.000000 0.004784 0.022539 0.418309
    41 -0.044717 2.313936 4.661499 -0.861004 0.071451 -0.285617
    42 2.676088 -1.712442 0.000000 1.570797 0.000000 1.570797
    43 2.676088 -1.712443 0.000000 -1.570796 0.000000 -1.570796
  time 19
    0 -0.051136 7.556782 26.129038 1.686757 0.018183 -1.058178
    1 3.890452 -0.000004 -0.000003 -2.681450 -1.048056 -0.518969
    2 17.848175 0.000000 0.000000 0.000000 0.000000 1.567992
    3 16.525249 0.000000 0.000000 -0.076570 -0.051131 -1.301416
    4 6.879453 0.000000 0.000000 -0.007299 -0.002951 -0.584373
    5 -3.890452 0.000004 0.000007 -1.840508 -0.933493 -1.715369
    6 17.848171 0.000000 0.000000 0.000000 0.000000 1.831125
    7 16.525257 0.000000 0.000000 0.488818 0.193488 -1.279801
    8 6.879454 0.000000 0.000000 -0.081274 -0.003047 -0.602026
    9 0.375016 3.325596 -2.981901 1.490217 -0.064689 1.428215
    10 4.018331 0.000000 0.000000 -0.017656 -0.031376 0.113258
    11 3.518561 0.000000 0.000000 -0.006789 -0.050851 0.247227
    12 8.942642 0.000000 0.000000 -0.011331 0.000803 0.064045
    13 3.307271 0.000000 0.000000 3.141590 0.000000 0.400478
    14 3.593710 -0.000003 0.000000 0.997527 0.180912 0.482008
    15 2.033346 1.000767 1.937660 0.194295 -1.479277 -1.937994
    16 6.028142 0.000002 0.000000 -2.656996 -0.822629 -0.347714
    17 11.692556 0.000000 -0.000001 0.000000 0.000000 -1.364122
    18 11.481671 0.000000 -0.000029 -0.343998 0.585427 0.274897
    19 3.883691 -0.046771 0.431443 0.096615 -0.011011 -0.677044
    20 1.719575 0.000000 0.000000 0.055915 -0.087978 -1.150781
    21 1.209183 -0.000001 0.000000 0.009316 -0.033629 -0.339470
    22 3.859861 -0.137948 1.332466 0.537935 -0.132420 -0.946691
    23 1.719428 0.000001 0.000000 0.023476 -0.208311 -0.755744
    24 1.099667 0.000000 0.000000 0.026046 -0.124621 -0.538681
    25 0.806048 -0.348922 1.321258 -1.269164 -0.727275 -0.266407
    26 1.789783 0.000001 0.000001 -0.001067 -0.012843 -0.131867
    27 1.207000 0.000000 0.000001 -0.000100 -0.003217 -0.064874
    28 2.033354 1.000771 -1.937610 -3.693043 1.040321 0.954164
    29 6.028142 0.000004 0.000000 1.922727 1.196026 -0.265915
    30 11.692552 0.000000 0.000002 0.000000 0.000000 -1.779719
    31 11.481699 0.000000 0.000004 -0.598342 -0.042446 0.582969
    32 3.883657 -0.050329 -0.431043 0.047706 -0.153454 -0.767483
    33 1.719576 0.000003 0.000000 -0.053884 0.078890 -1.553283
    34 1.209180 -0.000001 0.000000 -0.013612 0.036967 -0.732282
    35 3.859830 -0.148938 -1.331282 -0.332627 0.218364 0.154975
    36 1.719426 0.000000 0.000000 -0.042633 0.220746 -0.851607
    37 1.099666 0.000000 0.000000 0.008154 0.000000 0.000000
    38 0.806017 -0.359836 -1.318334 0.415058 0.423434 -0.720789
    39 1.789784 0.000000 -0.000001 0.015106 0.038911 0.767156
    40 1.206998 0.000000 0.000000 0.004784 0.022539 0.418309
    41 -0.044717 2.313936 4.661499 -0.816471 0.050103 -0.270732
    42 2.676088 -1.712442 0.000000 1.570797 0.000000 1.570797
    43 2.676088 -1.712443 0.000000 -1.570796 0.000000 -1.570796
  time 20
    0 -0.532345 8.386457 27.465016 1.679314 0.023565 -1.014206
    1 3.890452 -0.000004 -0.000003 -2.620321 -0.972717 -0.596620
    2 17.848175 0.000000 0.000000 0.000000 0.000000 1.459428
    3 16.525249 0.000000 0.000000 -0.108272 -0.084954 -1.254992
    4 6.879453 0.000000 0.000000 -0.007299 -0.002951 -0.584373
    5 -3.890452 0.000004 0.000007 -1.742457 -0.868016 -1.817048
    6 17.848171 0.000000 0.000000 0.000000 0.000000 1.639701
    7 16.525257 0.000000 0.000000 0.441010 0.212976 -1.298764
    8 6.879454 0.000000 0.000000 -0.081286 -0.003011 -0.596317
    9 0.355485 3.329502 -2.981901 1.491004 -0.071148 1.426753
    10 4.018331 0.000000 0.000000 -0.025514 -0.024317 0.122530
    11 3.518561 0.000000 0.000000 -0.013686 -0.039729 0.253776
    12 8.942642 0.000000 0.000000 -0.011102 0.001690 0.068432
    13 3.307271 0.000000 0.000000 3.141590 0.000000 0.400478
    14 3.593710 -0.000003 0.000000 0.991032 0.171615 0.484042
    15 2.033346 1.000767 1.937660 0.194295 -1.479277 -1.937994
    16 6.028142 0.000002 0.000000 -2.626448 -0.827888 -0.375192
    17 11.692556 0.000000 -0.000001 0.000000 0.000000 -1.366566
    18 11.481671 0.000000 -0.000029 -0.359571 0.582355 0.258416
    19 3.883691 -0.046771 0.431443 0.096615 -0.011011 -0.677044
    20 1.719575 0.000000 0.000000 0.055915 -0.087978 -1.150781
    21 1.209183 -0.000001 0.000000 0.009316 -0.033629 -0.339470
    22 3.859861 -0.137948 1.332466 0.537935 -0.132420 -0.946691
    23 1.719428 0.000001 0.000000 0.023476 -0.208311 -0.755744
    24 1.099667 0.000000 0.000000 0.026046 -0.124621 -0.538681
    25 0.806048 -0.348922 1.321258 -1.269164 -0.727275 -0.266407
    26 1.789783 0.000001 0.000001 -0.001067 -0.012843 -0.131867
    27 1.207000 0.000000 0.000001 -0.000100 -0.003217 -0.064874
    28 2.033354 1.000771 -1.937610 -3.694293 1.041486 0.952633
    29 6.028142 0.000004 0.000000 1.895810 1.184562 -0.286886
    30 11.692552 0.000000 0.000002 0.000000 0.000000 -1.800258
    31 11.481699 0.000000 0.000004 -0.603848 -0.037688 0.612410
    32 3.883657 -0.050329 -0.431043 0.047706 -0.153454 -0.767483
    33 1.719576 0.000003 0.000000 -0.053884 0.078890 -1.553283
    34 1.209180 -0.000001 0.000000 -0.013612 0.036967 -0.732282
    35 3.859830 -0.148938 -1.331282 -0.332627 0.218364 0.154975
    36 1.719426 0.000000 0.000000 -0.042633 0.220746 -0.851607
    37 1.099666 0.000000 0.000000 0.008154 0.000000 0.000000
    38 0.806017 -0.359836 -1.318334 0.415058 0.423434 -0.720789
    39 1.789784 0.000000 -0.000001 0.015106 0.038911 0.767156
    40 1.206998 0.000000 0.000000 0.004784 0.022539 0.418309
    41 -0.044717 2.313936 4.661499 -0.720674 0.007563 -0.235665
    42 2.676088 -1.712442 0.000000 1.570797 0.000000 1.570797
    43 2.676088 -1.712443 0.000000 -1.570796 0.000000 -1.570796
  time 21
    0 -1.126114 9.164724 28.605676 1.667228 0.029371 -0.959601
    1 3.890452 -0.000004 -0.000003 -2.574386 -0.904293 -0.656446
    2 17.848175 0.000000 0.000000 0.000000 0.000000 1.357165
    3 16.525249 0.000000 0.000000 -0.138517 -0.118144 -1.204086
    4 6.879453 0.000000 0.000000 -0.007299 -0.002951 -0.584373
    5 -3.890452 0.000004 0.000007 -1.664150 -0.743777 -1.883984
    6 17.848171 0.000000 0.000000 0.000000 0.000000 1.470853
    7 16.525257 0.000000 0.000000 0.361952 0.183558 -1.386690
    8 6.879454 0.000000 0.000000 -0.081310 -0.002987 -0.591428
    9 0.328140 3.329502 -2.981901 1.492103 -0.079081 1.424932
    10 4.018331 0.000000 0.000000 -0.035826 -0.015077 0.131696
    11 3.518561 0.000000 0.000000 -0.022703 -0.025168 0.259472
    12 8.942642 0.000000 0.000000 -0.010802 0.002792 0.073847
    13 3.307271 0.000000 0.000000 3.141590 0.000000 0.400478
    14 3.593710 -0.000003 0.000000 0.983092 0.160150 0.486568
    15 2.033346 1.000767 1.937660 0.194295 -1.479277 -1.937994
    16 6.028142 0.000002 0.000000 -2.582983 -0.832513 -0.409353
    17 11.692556 0.000000 -0.000001 0.000000 0.000000 -1.360731
    18 11.481671 0.000000 -0.000029 -0.380209 0.579573 0.230946
    19 3.883691 -0.046771 0.431443 0.096615 -0.011011 -0.677044
    20 1.719575 0.000000 0.000000 0.055915 -0.087978 -1.150781
    21 1.209183 -0.000001 0.000000 0.009316 -0.033629 -0.339470
    22 3.859861 -0.137948 1.332466 0.537935 -0.132420 -0.946691
    23 1.719428 0.000001 0.000000 0.023476 -0.208311 -0.755744
    24 1.099667 0.000000 0.000000 0.026046 -0.124621 -0.538681
    25 0.806048 -0.348922 1.321258 -1.269164 -0.727275 -0.266407
    26 1.789783 0.000001 0.000001 -0.001067 -0.012843 -0.131867
    27 1.207000 0.000000 0.000001 -0.000100 -0.003217 -0.064874
    28 2.033354 1.000771 -1.937610 -3.695901 1.042943 0.950831
    29 6.028142 0.000004 0.000000 1.843797 1.173240 -0.332530
    30 11.692552 0.000000 0.000002 0.000000 0.000000 -1.819423
    31 11.481699 0.000000 0.000004 -0.612464 -0.027448 0.646244
    32 3.883657 -0.050329 -0.431043 0.047706 -0.153454 -0.767483
    33 1.719576 0.000003 0.000000 -0.053884 0.078890 -1.553283
    34 1.209180 -0.000001 0.000000 -0.013612 0.036967 -0.732282
    35 3.859830 -0.148938 -1.331282 -0.332627 0.218364 0.154975
    36 1.719426 0.000000 0.000000 -0.042633 0.220746 -0.851607
    37 1.099666 0.000000 0.000000 0.008154 0.000000 0.000000
    38 0.806017 -0.359836 -1.318334 0.415058 0.423434 -0.720789
    39 1.789784 0.000000 -0.000001 0.015106 0.038911 0.767156
    40 1.206998 0.000000 0.000000 0.004784 0.022539 0.418309
    41 -0.044717 2.313936 4.661499 -0.579481 -0.055093 -0.183987
    42 2.676088 -1.712442 0.000000 1.570797 0.000000 1.570797
    43 2.676088 -1.712443 0.000000 -1.570796 0.000000 -1.570796
  time 22
    0 -1.790196 9.881709 29.597894 1.651262 0.034801 -0.897811
    1 3.890452 -0.000004 -0.000003 -2.528363 -0.846787 -0.711331
    2 17.848175 0.000000 0.000000 0.000000 0.000000 1.256800
    3 16.525249 0.000000 0.000000 -0.159272 -0.138789 -1.149033
    4 6.879453 0.000000 0.000000 -0.007299 -0.002951 -0.584373
    5 -3.890452 0.000004 0.000007 -1.602521 -0.582437 -1.925052
    6 17.848171 0.000000 0.000000 0.000000 0.000000 1.304768
    7 16.525257 0.000000 0.000000 0.314237 0.083461 -1.520555
    8 6.879454 0.000000 0.000000 -0.081322 -0.002963 -0.587652
    9 0.296889 3.333409 -2.981901 1.493604 -0.088486 1.422750
    10 4.018331 0.000000 0.000000 -0.047789 -0.004350 0.140706
    11 3.518561 0.000000 0.000000 -0.033199 -0.008257 0.264392
    12 8.942642 0.000000 0.000000 -0.010450 0.004099 0.080289
    13 3.307271 0.000000 0.000000 3.141590 0.000000 0.400478
    14 3.593710 -0.000003 0.000000 0.973654 0.146487 0.489526
    15 2.033346 1.000767 1.937660 0.194295 -1.479277 -1.937994
    16 6.028142 0.000002 0.000000 -2.536218 -0.838648 -0.440265
    17 11.692556 0.000000 -0.000001 0.000000 0.000000 -1.344252
    18 11.481671 0.000000 -0.000029 -0.402757 0.577746 0.194702
    19 3.883691 -0.046771 0.431443 0.096615 -0.011011 -0.677044
    20 1.719575 0.000000 0.000000 0.055915 -0.087978 -1.150781
    21 1.209183 -0.000001 0.000000 0.009316 -0.033629 -0.339470
    22 3.859861 -0.137948 1.332466 0.537935 -0.132420 -0.946691
    23 1.719428 0.000001 0.000000 0.023476 -0.208311 -0.755744
    24 1.099667 0.000000 0.000000 0.026046 -0.124621 -0.538681
    25 0.806048 -0.348922 1.321258 -1.269164 -0.727275 -0.266407
    26 1.789783 0.000001 0.000001 -0.001067 -0.012843 -0.131867
    27 1.207000 0.000000 0.000001 -0.000100 -0.003217 -0.064874
    28 2.033354 1.000771 -1.937610 -3.697776 1.044626 0.948669
    29 6.028142 0.000004 0.000000 1.777703 1.162629 -0.393832
    30 11.692552 0.000000 0.000002 0.000000 0.000000 -1.834827
    31 11.481699 0.000000 0.000004 -0.623606 -0.011519 0.680477
    32 3.883657 -0.050329 -0.431043 0.047706 -0.153454 -0.767483
    33 1.719576 0.000003 0.000000 -0.053884 0.078890 -1.553283
    34 1.209180 -0.000001 0.000000 -0.013612 0.036967 -0.732282
    35 3.859830 -0.148938 -1.331282 -0.332627 0.218364 0.154975
    36 1.719426 0.000000 0.000000 -0.042633 0.220746 -0.851607
    37 1.099666 0.000000 0.000000 0.008154 0.000000 0.000000
    38 0.806017 -0.359836 -1.318334 0.415058 0.423434 -0.720789
    39 1.789784 0.000000 -0.000001 0.015106 0.038911 0.767156
    40 1.206998 0.000000 0.000000 0.004784 0.022539 0.418309
    41 -0.044717 2.313936 4.661499 -0.423140 -0.124486 -0.126773
    42 2.676088 -1.712442 0.000000 1.570797 0.000000 1.570797
    43 2.676088 -1.712443 0.000000 -1.570796 0.000000 -1.570796
  time 23
    0 -2.485530 10.519030 30.457295 1.632370 0.039563 -0.832859
    1 3.890452 -0.000004 -0.000003 -2.475185 -0.802013 -0.768245
    2 17.848175 0.000000 0.000000 0.000000 0.000000 1.156359
    3 16.525249 0.000000 0.000000 -0.156038 -0.130910 -1.093512
    4 6.879453 0.000000 0.000000 -0.007299 -0.002951 -0.584373
    5 -3.890452 0.000004 0.000007 -1.563320 -0.423352 -1.929584
    6 17.848171 0.000000 0.000000 0.000000 0.000000 1.157550
    7 16.525257 0.000000 0.000000 0.344176 -0.006379 -1.637700
    8 6.879454 0.000000 0.000000 -0.081333 -0.002951 -0.585222
    9 0.261732 3.337315 -2.981901 1.495618 -0.099330 1.420198
    10 4.018331 0.000000 0.000000 -0.060651 0.007167 0.149541
    11 3.518561 0.000000 0.000000 -0.044479 0.009899 0.268597
    12 8.942642 0.000000 0.000000 -0.010045 0.005609 0.087719
    13 3.307271 0.000000 0.000000 3.141590 0.000000 0.400478
    14 3.593710 -0.000003 0.000000 0.962827 0.130711 0.492977
    15 2.033346 1.000767 1.937660 0.194295 -1.479277 -1.937994
    16 6.028142 0.000002 0.000000 -2.494168 -0.848191 -0.460409
    17 11.692556 0.000000 -0.000001 0.000000 0.000000 -1.316813
    18 11.481671 0.000000 -0.000029 -0.425019 0.577456 0.152846
    19 3.883691 -0.046771 0.431443 0.096615 -0.011011 -0.677044
    20 1.719575 0.000000 0.000000 0.055915 -0.087978 -1.150781
    21 1.209183 -0.000001 0.000000 0.009316 -0.033629 -0.339470
    22 3.859861 -0.137948 1.332466 0.537935 -0.132420 -0.946691
    23 1.719428 0.000001 0.000000 0.023476 -0.208311 -0.755744
    24 1.099667 0.000000 0.000000 0.026046 -0.124621 -0.538681
    25 0.806048 -0.348922 1.321258 -1.269164 -0.727275 -0.266407
    26 1.789783 0.000001 0.000001 -0.001067 -0.012843 -0.131867
    27 1.207000 0.000000 0.000001 -0.000100 -0.003217 -0.064874
    28 2.033354 1.000771 -1.937610 -3.699919 1.046600 0.946057
    29 6.028142 0.000004 0.000000 1.705957 1.153249 -0.464718
    30 11.692552 0.000000 0.000002 0.000000 0.000000 -1.844880
    31 11.481699 0.000000 0.000004 -0.637404 0.009513 0.711686
    32 3.883657 -0.050329 -0.431043 0.047706 -0.153454 -0.767483
    33 1.719576 0.000003 0.000000 -0.053884 0.078890 -1.553283
    34 1.209180 -0.000001 0.000000 -0.013612 0.036967 -0.732282
    35 3.859830 -0.148938 -1.331282 -0.332627 0.218364 0.154975
    36 1.719426 0.000000 0.000000 -0.042633 0.220746 -0.851607
    37 1.099666 0.000000 0.000000 0.008154 0.000000 0.000000
    38 0.806017 -0.359836 -1.318334 0.415058 0.423434 -0.720789
    39 1.789784 0.000000 -0.000001 0.015106 0.038911 0.767156
    40 1.206998 0.000000 0.000000 0.004784 0.022539 0.418309
    41 -0.044717 2.313936 4.661499 -0.281992 -0.187158 -0.075095
    42 2.676088 -1.712442 0.000000 1.570797 0.000000 1.570797
    43 2.676088 -1.712443 0.000000 -1.570796 0.000000 -1.570796
  time 24
    0 -3.180864 11.076685 31.199505 1.611443 0.043820 -0.768291
    1 3.890452 -0.000004 -0.000003 -2.411936 -0.767587 -0.828777
    2 17.848175 0.000000 0.000000 0.000000 0.000000 1.054628
    3 16.525249 0.000000 0.000000 -0.135993 -0.101700 -1.036319
    4 6.879453 0.000000 0.000000 -0.007299 -0.002951 -0.584373
    5 -3.890452 0.000004 0.000007 -1.541755 -0.310434 -1.899279
    6 17.848171 0.000000 0.000000 0.000000 0.000000 1.065192
    7 16.525257 0.000000 0.000000 0.371308 -0.007148 -1.678511
    8 6.879454 0.000000 0.000000 -0.081333 -0.002951 -0.584373
    9 0.218762 3.341221 -2.981901 1.498255 -0.111530 1.417273
    10 4.018331 0.000000 0.000000 -0.073640 0.018804 0.158150
    11 3.518561 0.000000 0.000000 -0.055866 0.028260 0.272136
    12 8.942642 0.000000 0.000000 -0.009587 0.007323 0.096110
    13 3.307271 0.000000 0.000000 3.141590 0.000000 0.400478
    14 3.593710 -0.000003 0.000000 0.950724 0.112851 0.496859
    15 2.033346 1.000767 1.937660 0.194295 -1.479277 -1.937994
    16 6.028142 0.000002 0.000000 -2.462206 -0.861435 -0.465051
    17 11.692556 0.000000 -0.000001 0.000000 0.000000 -1.281332
    18 11.481671 0.000000 -0.000029 -0.446325 0.578452 0.109013
    19 3.883691 -0.046771 0.431443 0.096615 -0.011011 -0.677044
    20 1.719575 0.000000 0.000000 0.055915 -0.087978 -1.150781
    21 1.209183 -0.000001 0.000000 0.009316 -0.033629 -0.339470
    22 3.859861 -0.137948 1.332466 0.537935 -0.132420 -0.946691
    23 1.719428 0.000001 0.000000 0.023476 -0.208311 -0.755744
    24 1.099667 0.000000 0.000000 0.026046 -0.124621 -0.538681
    25 0.806048 -0.348922 1.321258 -1.269164 -0.727275 -0.266407
    26 1.789783 0.000001 0.000001 -0.001067 -0.012843 -0.131867
    27 1.207000 0.000000 0.000001 -0.000100 -0.003217 -0.064874
    28 2.033354 1.000771 -1.937610 -3.702420 1.048834 0.943175
    29 6.028142 0.000004 0.000000 1.634594 1.145480 -0.541771
    30 11.692552 0.000000 0.000002 0.000000 0.000000 -1.849870
    31 11.481699 0.000000 0.000004 -0.654442 0.033994 0.737076
    32 3.883657 -0.050329 -0.431043 0.047706 -0.153454 -0.767483
    33 1.719576 0.000003 0.000000 -0.053884 0.078890 -1.553283
    34 1.209180 -0.000001 0.000000 -0.013612 0.036967 -0.732282
    35 3.859830 -0.148938 -1.331282 -0.332627 0.218364 0.154975
    36 1.719426 0.000000 0.000000 -0.042633 0.220746 -0.851607
    37 1.099666 0.000000 0.000000 0.008154 0.000000 0.000000
    38 0.806017 -0.359836 -1.318334 0.415058 0.423434 -0.720789
    39 1.789784 0.000000 -0.000001 0.015106 0.038911 0.767156
    40 1.206998 0.000000 0.000000 0.004784 0.022539 0.418309
    41 -0.044717 2.313936 4.661499 -0.186195 -0.229683 -0.040029
    42 2.676088 -1.712442 0.000000 1.570797 0.000000 1.570797
    43 2.676088 -1.712443 0.000000 -1.570796 0.000000 -1.570796
  time 25
    0 -3.833228 11.554675 31.828431 1.589943 0.048174 -0.708034
    1 3.890452 -0.000004 -0.000003 -2.336320 -0.738595 -0.890633
    2 17.848175 0.000000 0.000000 0.000000 0.000000 0.954415
    3 16.525249 0.000000 0.000000 -0.120995 -0.072023 -0.977453
    4 6.879453 0.000000 0.000000 -0.007299 -0.002951 -0.584373
    5 -3.890452 0.000004 0.000007 -1.521723 -0.239419 -1.857455
    6 17.848171 0.000000 0.000000 0.000000 0.000000 1.016725
    7 16.525257 0.000000 0.000000 0.358677 0.041315 -1.661844
    8 6.879454 0.000000 0.000000 -0.081333 -0.002951 -0.584373
    9 0.171885 3.341221 -2.981901 1.501606 -0.124934 1.413978
    10 4.018331 0.000000 0.000000 -0.085989 0.029878 0.166463
    11 3.518561 0.000000 0.000000 -0.066682 0.045709 0.275022
    12 8.942642 0.000000 0.000000 -0.009076 0.009204 0.105384
    13 3.307271 0.000000 0.000000 3.141590 0.000000 0.400478
    14 3.593710 -0.000003 0.000000 0.937399 0.093103 0.501110
    15 2.033346 1.000767 1.937660 0.194295 -1.479277 -1.937994
    16 6.028142 0.000002 0.000000 -2.442972 -0.876578 -0.451405
    17 11.692556 0.000000 -0.000001 0.000000 0.000000 -1.243248
    18 11.481671 0.000000 -0.000029 -0.467631 0.579283 0.067117
    19 3.883691 -0.046771 0.431443 0.096615 -0.011011 -0.677044
    20 1.719575 0.000000 0.000000 0.055915 -0.087978 -1.150781
    21 1.209183 -0.000001 0.000000 0.009316 -0.033629 -0.339470
    22 3.859861 -0.137948 1.332466 0.537935 -0.132420 -0.946691
    23 1.719428 0.000001 0.000000 0.023476 -0.208311 -0.755744
    24 1.099667 0.000000 0.000000 0.026046 -0.124621 -0.538681
    25 0.806048 -0.348922 1.321258 -1.269164 -0.727275 -0.266407
    26 1.789783 0.000001 0.000001 -0.001067 -0.012843 -0.131867
    27 1.207000 0.000000 0.000001 -0.000100 -0.003217 -0.064874
    28 2.033354 1.000771 -1.937610 -3.705278 1.051262 0.939932
    29 6.028142 0.000004 0.000000 1.566680 1.139322 -0.624329
    30 11.692552 0.000000 0.000002 0.000000 0.000000 -1.851533
    31 11.481699 0.000000 0.000004 -0.676726 0.059267 0.755220
    32 3.883657 -0.050329 -0.431043 0.047706 -0.153454 -0.767483
    33 1.719576 0.000003 0.000000 -0.053884 0.078890 -1.553283
    34 1.209180 -0.000001 0.000000 -0.013612 0.036967 -0.732282
    35 3.859830 -0.148938 -1.331282 -0.332627 0.218364 0.154975
    36 1.719426 0.000000 0.000000 -0.042633 0.220746 -0.851607
    37 1.099666 0.000000 0.000000 0.008154 0.000000 0.000000
    38 0.806017 -0.359836 -1.318334 0.415058 0.423434 -0.720789
    39 1.789784 0.000000 -0.000001 0.015106 0.038911 0.767156
    40 1.206998 0.000000 0.000000 0.004784 0.022539 0.418309
    41 -0.044717 2.313936 4.661499 -0.145847 -0.247585 -0.025264
    42 2.676088 -1.712442 0.000000 1.570797 0.000000 1.570797
    43 2.676088 -1.712443 0.000000 -1.570796 0.000000 -1.570796
  time 26
    0 -4.403557 11.928488 32.336259 1.569587 0.053441 -0.655536
    1 3.890452 -0.000004 -0.000003 -2.249573 -0.713371 -0.950106
    2 17.848175 0.000000 0.000000 0.000000 0.000000 0.863615
    3 16.525249 0.000000 0.000000 -0.120853 -0.051900 -0.923671
    4 6.879453 0.000000 0.000000 -0.007299 -0.002951 -0.584373
    5 -3.890452 0.000004 0.000007 -1.494406 -0.176246 -1.823657
    6 17.848171 0.000000 0.000000 0.000000 0.000000 0.970941
    7 16.525257 0.000000 0.000000 0.345392 0.075116 -1.645979
    8 6.879454 0.000000 0.000000 -0.081333 -0.002951 -0.584373
    9 0.125009 3.345128 -2.981901 1.505725 -0.139259 1.410346
    10 4.018331 0.000000 0.000000 -0.096926 0.039693 0.174340
    11 3.518561 0.000000 0.000000 -0.076269 0.061169 0.277288
    12 8.942642 0.000000 0.000000 -0.008547 0.011230 0.115370
    13 3.307271 0.000000 0.000000 3.141590 0.000000 0.400478
    14 3.593710 -0.000003 0.000000 0.923242 0.071806 0.505670
    15 2.033346 1.000767 1.937660 0.194295 -1.479277 -1.937994
    16 6.028142 0.000002 0.000000 -2.435900 -0.889919 -0.419564
    17 11.692556 0.000000 -0.000001 0.000000 0.000000 -1.210447
    18 11.481671 0.000000 -0.000029 -0.491421 0.577373 0.031110
    19 3.883691 -0.046771 0.431443 0.096615 -0.011011 -0.677044
    20 1.719575 0.000000 0.000000 0.055915 -0.087978 -1.150781
    21 1.209183 -0.000001 0.000000 0.009316 -0.033629 -0.339470
    22 3.859861 -0.137948 1.332466 0.537935 -0.132420 -0.946691
    23 1.719428 0.000001 0.000000 0.023476 -0.208311 -0.755744
    24 1.099667 0.000000 0.000000 0.026046 -0.124621 -0.538681
    25 0.806048 -0.348922 1.321258 -1.269164 -0.727275 -0.266407
    26 1.789783 0.000001 0.000001 -0.001067 -0.012843 -0.131867
    27 1.207000 0.000000 0.000001 -0.000100 -0.003217 -0.064874
    28 2.033354 1.000771 -1.937610 -3.708314 1.053916 0.936509
    29 6.028142 0.000004 0.000000 1.503555 1.133922 -0.713530
    30 11.692552 0.000000 0.000002 0.000000 0.000000 -1.853413
    31 11.481699 0.000000 0.000004 -0.707303 0.081919 0.765946
    32 3.883657 -0.050329 -0.431043 0.047706 -0.153454 -0.767483
    33 1.719576 0.000003 0.000000 -0.053884 0.078890 -1.553283
    34 1.209180 -0.000001 0.000000 -0.013612 0.036967 -0.732282
    35 3.859830 -0.148938 -1.331282 -0.332627 0.218364 0.154975
    36 1.719426 0.000000 0.000000 -0.042633 0.220746 -0.851607
    37 1.099666 0.000000 0.000000 0.008154 0.000000 0.000000
    38 0.806017 -0.359836 -1.318334 0.415058 0.423434 -0.720789
    39 1.789784 0.000000 -0.000001 0.015106 0.038911 0.767156
    40 1.206998 0.000000 0.000000 0.004784 0.022539 0.418309
    41 -0.044717 2.313936 4.661499 -0.140798 -0.249830 -0.023418
    42 2.676088 -1.712442 0.000000 1.570797 0.000000 1.570797
    43 2.676088 -1.712443 0.000000 -1.570796 0.000000 -1.570796
  time 27
    0 -4.860603 12.204252 32.722989 1.552222 0.060340 -0.614343
    1 3.890452 -0.000004 -0.000003 -2.170336 -0.690293 -0.996343
    2 17.848175 0.000000 0.000000 0.000000 0.000000 0.790581
    3 16.525249 0.000000 0.000000 -0.132191 -0.043692 -0.880725
    4 6.879453 0.000000 0.000000 -0.007299 -0.002951 -0.584373
    5 -3.890452 0.000004 0.000007 -1.464215 -0.124491 -1.797317
    6 17.848171 0.000000 0.000000 0.000000 0.000000 0.930761
    7 16.525257 0.000000 0.000000 0.332294 0.093834 -1.631930
    8 6.879454 0.000000 0.000000 -0.081333 -0.002951 -0.584373
    9 0.074226 3.345128 -2.981901 1.510540 -0.153936 1.406499
    10 4.018331 0.000000 0.000000 -0.105698 0.047555 0.181607
    11 3.518561 0.000000 0.000000 -0.083968 0.073549 0.278933
    12 8.942642 0.000000 0.000000 -0.007983 0.013327 0.125672
    13 3.307271 0.000000 0.000000 3.141590 0.000000 0.400478
    14 3.593710 -0.000003 0.000000 0.908806 0.049777 0.510415
    15 2.033346 1.000767 1.937660 0.194295 -1.479277 -1.937994
    16 6.028142 0.000002 0.000000 -2.438069 -0.896833 -0.372500
    17 11.692556 0.000000 -0.000001 0.000000 0.000000 -1.191366
    18 11.481671 0.000000 -0.000029 -0.519798 0.569983 0.005064
    19 3.883691 -0.046771 0.431443 0.096615 -0.011011 -0.677044
    20 1.719575 0.000000 0.000000 0.055915 -0.087978 -1.150781
    21 1.209183 -0.000001 0.000000 0.009316 -0.033629 -0.339470
    22 3.859861 -0.137948 1.332466 0.537935 -0.132420 -0.946691
    23 1.719428 0.000001 0.000000 0.023476 -0.208311 -0.755744
    24 1.099667 0.000000 0.000000 0.026046 -0.124621 -0.538681
    25 0.806048 -0.348922 1.321258 -1.269164 -0.727275 -0.266407
    26 1.789783 0.000001 0.000001 -0.001067 -0.012843 -0.131867
    27 1.207000 0.000000 0.000001 -0.000100 -0.003217 -0.064874
    28 2.033354 1.000771 -1.937610 -3.711440 1.056602 0.932816
    29 6.028142 0.000004 0.000000 1.445219 1.127906 -0.810701
    30 11.692552 0.000000 0.000002 0.000000 0.000000 -1.859922
    31 11.481699 0.000000 0.000004 -0.749151 0.098124 0.770625
    32 3.883657 -0.050329 -0.431043 0.047706 -0.153454 -0.767483
    33 1.719576 0.000003 0.000000 -0.053884 0.078890 -1.553283
    34 1.209180 -0.000001 0.000000 -0.013612 0.036967 -0.732282
    35 3.859830 -0.148938 -1.331282 -0.332627 0.218364 0.154975
    36 1.719426 0.000000 0.000000 -0.042633 0.220746 -0.851607
    37 1.099666 0.000000 0.000000 0.008154 0.000000 0.000000
    38 0.806017 -0.359836 -1.318334 0.415058 0.423434 -0.720789
    39 1.789784 0.000000 -0.000001 0.015106 0.038911 0.767156
    40 1.206998 0.000000 0.000000 0.004784 0.022539 0.418309
    41 -0.044717 2.313936 4.661499 -0.155900 -0.243109 -0.028955
    42 2.676088 -1.712442 0.000000 1.570797 0.000000 1.570797
    43 2.676088 -1.712443 0.000000 -1.570796 0.000000 -1.570796
  time 28
    0 -5.161393 12.375838 32.972997 1.540200 0.068787 -0.587519
    1 3.890452 -0.000004 -0.000003 -2.119807 -0.672412 -1.020786
    2 17.848175 0.000000 0.000000 0.000000 0.000000 0.742069
    3 16.525249 0.000000 0.000000 -0.139690 -0.038338 -0.852563
    4 6.879453 0.000000 0.000000 -0.007299 -0.002951 -0.584373
    5 -3.890452 0.000004 0.000007 -1.437378 -0.088469 -1.778340
    6 17.848171 0.000000 0.000000 0.000000 0.000000 0.900528
    7 16.525257 0.000000 0.000000 0.321067 0.099429 -1.621087
    8 6.879454 0.000000 0.000000 -0.081333 -0.002951 -0.584373
    9 0.027350 3.345128 -2.981901 1.515594 -0.167608 1.402760
    10 4.018331 0.000000 0.000000 -0.111503 0.052768 0.187776
    11 3.518561 0.000000 0.000000 -0.089064 0.081783 0.279957
    12 8.942642 0.000000 0.000000 -0.007454 0.015292 0.135355
    13 3.307271 0.000000 0.000000 3.141590 0.000000 0.400478
    14 3.593710 -0.000003 0.000000 0.895315 0.029015 0.514790
    15 2.033346 1.000767 1.937660 0.194295 -1.479277 -1.937994
    16 6.028142 0.000002 0.000000 -2.444857 -0.894106 -0.318844
    17 11.692556 0.000000 -0.000001 0.000000 0.000000 -1.191839
    18 11.481671 0.000000 -0.000029 -0.552187 0.556241 -0.007386
    19 3.883691 -0.046771 0.431443 0.096615 -0.011011 -0.677044
    20 1.719575 0.000000 0.000000 0.055915 -0.087978 -1.150781
    21 1.209183 -0.000001 0.000000 0.009316 -0.033629 -0.339470
    22 3.859861 -0.137948 1.332466 0.537935 -0.132420 -0.946691
    23 1.719428 0.000001 0.000000 0.023476 -0.208311 -0.755744
    24 1.099667 0.000000 0.000000 0.026046 -0.124621 -0.538681
    25 0.806048 -0.348922 1.321258 -1.269164 -0.727275 -0.266407
    26 1.789783 0.000001 0.000001 -0.001067 -0.012843 -0.131867
    27 1.207000 0.000000 0.000001 -0.000100 -0.003217 -0.064874
    28 2.033354 1.000771 -1.937610 -3.714476 1.059160 0.929393
    29 6.028142 0.000004 0.000000 1.393877 1.120137 -0.910719
    30 11.692552 0.000000 0.000002 0.000000 0.000000 -1.873952
    31 11.481699 0.000000 0.000004 -0.801235 0.104572 0.771880
    32 3.883657 -0.050329 -0.431043 0.047706 -0.153454 -0.767483
    33 1.719576 0.000003 0.000000 -0.053884 0.078890 -1.553283
    34 1.209180 -0.000001 0.000000 -0.013612 0.036967 -0.732282
    35 3.859830 -0.148938 -1.331282 -0.332627 0.218364 0.154975
    36 1.719426 0.000000 0.000000 -0.042633 0.220746 -0.851607
    37 1.099666 0.000000 0.000000 0.008154 0.000000 0.000000
    38 0.806017 -0.359836 -1.318334 0.415058 0.423434 -0.720789
    39 1.789784 0.000000 -0.000001 0.015106 0.038911 0.767156
    40 1.206998 0.000000 0.000000 0.004784 0.022539 0.418309
    41 -0.044717 2.313936 4.661499 -0.176097 -0.234158 -0.036337
    42 2.676088 -1.712442 0.000000 1.570797 0.000000 1.570797
    43 2.676088 -1.712443 0.000000 -1.570796 0.000000 -1.570796
  time 29
    0 -5.270771 12.430991 33.062843 1.535747 0.074968 -0.578035
    1 3.890452 -0.000004 -0.000003 -2.102140 -0.666023 -1.025462
    2 17.848175 0.000000 0.000000 0.000000 0.000000 0.725822
    3 16.525249 0.000000 0.000000 -0.142426 -0.036362 -0.842998
    4 6.879453 0.000000 0.000000 -0.007299 -0.002951 -0.584373
    5 -3.890452 0.000004 0.000007 -1.424055 -0.074355 -1.769560
    6 17.848171 0.000000 0.000000 0.000000 0.000000 0.887504
    7 16.525257 0.000000 0.000000 0.315547 0.097914 -1.616172
    8 6.879454 0.000000 0.000000 -0.081333 -0.002951 -0.584373
    9 0.000005 3.345128 -2.981901 1.518780 -0.175540 1.400531
    10 4.018331 0.000000 0.000000 -0.113620 0.054662 0.191192
    11 3.518561 0.000000 0.000000 -0.090917 0.084767 0.280299
    12 8.942642 0.000000 0.000000 -0.007137 0.016443 0.141032
    13 3.307271 0.000000 0.000000 3.141590 0.000000 0.400478
    14 3.593710 -0.000003 0.000000 0.887487 0.016873 0.517378
    15 2.033346 1.000767 1.937660 0.194295 -1.479277 -1.937994
    16 6.028142 0.000002 0.000000 -2.450231 -0.886949 -0.284033
    17 11.692556 0.000000 -0.000001 0.000000 0.000000 -1.203509
    18 11.481671 0.000000 -0.000029 -0.574449 0.544409 -0.007307
    19 3.883691 -0.046771 0.431443 0.096615 -0.011011 -0.677044
    20 1.719575 0.000000 0.000000 0.055915 -0.087978 -1.150781
    21 1.209183 -0.000001 0.000000 0.009316 -0.033629 -0.339470
    22 3.859861 -0.137948 1.332466 0.537935 -0.132420 -0.946691
    23 1.719428 0.000001 0.000000 0.023476 -0.208311 -0.755744
    24 1.099667 0.000000 0.000000 0.026046 -0.124621 -0.538681
    25 0.806048 -0.348922 1.321258 -1.269164 -0.727275 -0.266407
    26 1.789783 0.000001 0.000001 -0.001067 -0.012843 -0.131867
    27 1.207000 0.000000 0.000001 -0.000100 -0.003217 -0.064874
    28 2.033354 1.000771 -1.937610 -3.716262 1.060649 0.927321
    29 6.028142 0.000004 0.000000 1.365427 1.114168 -0.973729
    30 11.692552 0.000000 0.000002 0.000000 0.000000 -1.887983
    31 11.481699 0.000000 0.000004 -0.838808 0.103055 0.772736
    32 3.883657 -0.050329 -0.431043 0.047706 -0.153454 -0.767483
    33 1.719576 0.000003 0.000000 -0.053884 0.078890 -1.553283
    34 1.209180 -0.000001 0.000000 -0.013612 0.036967 -0.732282
    35 3.859830 -0.148938 -1.331282 -0.332627 0.218364 0.154975
    36 1.719426 0.000000 0.000000 -0.042633 0.220746 -0.851607
    37 1.099666 0.000000 0.000000 0.008154 0.000000 0.000000
    38 0.806017 -0.359836 -1.318334 0.415058 0.423434 -0.720789
    39 1.789784 0.000000 -0.000001 0.015106 0.038911 0.767156
    40 1.206998 0.000000 0.000000 0.004784 0.022539 0.418309
    41 -0.044717 2.313936 4.661499 -0.186195 -0.229683 -0.040029
    42 2.676088 -1.712442 0.000000 1.570797 0.000000 1.570797
    43 2.676088 -1.712443 0.000000 -1.570796 0.000000 -1.570796
end
