// Created by Crowbar 0.68
version 1
nodes
  0 "ValveBiped.Bip01_Pelvis" -1
  1 "ValveBiped.Bip01_L_Thigh" 0
  2 "ValveBiped.Bip01_L_Calf" 1
  3 "ValveBiped.Bip01_L_Foot" 2
  4 "ValveBiped.Bip01_L_Toe0" 3
  5 "ValveBiped.Bip01_R_Thigh" 0
  6 "ValveBiped.Bip01_R_Calf" 5
  7 "ValveBiped.Bip01_R_Foot" 6
  8 "ValveBiped.Bip01_R_Toe0" 7
  9 "ValveBiped.Bip01_Spine" 0
  10 "ValveBiped.Bip01_Spine1" 9
  11 "ValveBiped.Bip01_Spine2" 10
  12 "ValveBiped.Bip01_Spine4" 11
  13 "ValveBiped.Bip01_Neck1" 12
  14 "ValveBiped.Bip01_Head1" 13
  15 "ValveBiped.Bip01_L_Clavicle" 12
  16 "ValveBiped.Bip01_L_UpperArm" 15
  17 "ValveBiped.Bip01_L_Forearm" 16
  18 "ValveBiped.Bip01_L_Hand" 17
  19 "ValveBiped.Bip01_L_Finger2" 18
  20 "ValveBiped.Bip01_L_Finger21" 19
  21 "ValveBiped.Bip01_L_Finger22" 20
  22 "ValveBiped.Bip01_L_Finger1" 18
  23 "ValveBiped.Bip01_L_Finger11" 22
  24 "ValveBiped.Bip01_L_Finger12" 23
  25 "ValveBiped.Bip01_L_Finger0" 18
  26 "ValveBiped.Bip01_L_Finger01" 25
  27 "ValveBiped.Bip01_L_Finger02" 26
  28 "ValveBiped.Bip01_R_Clavicle" 12
  29 "ValveBiped.Bip01_R_UpperArm" 28
  30 "ValveBiped.Bip01_R_Forearm" 29
  31 "ValveBiped.Bip01_R_Hand" 30
  32 "ValveBiped.Bip01_R_Finger2" 31
  33 "ValveBiped.Bip01_R_Finger21" 32
  34 "ValveBiped.Bip01_R_Finger22" 33
  35 "ValveBiped.Bip01_R_Finger1" 31
  36 "ValveBiped.Bip01_R_Finger11" 35
  37 "ValveBiped.Bip01_R_Finger12" 36
  38 "ValveBiped.Bip01_R_Finger0" 31
  39 "ValveBiped.Bip01_R_Finger01" 38
  40 "ValveBiped.Bip01_R_Finger02" 39
  41 "ValveBiped.Cod" 0
  42 "ValveBiped.Anim_Attachment_LH" 18
  43 "ValveBiped.Anim_Attachment_RH" 31
end
skeleton
  time 0
    0 0.355225 3.666016 36.937500 1.838744 0.092453 -0.575295
    1 3.890452 -0.000004 -0.000003 -2.232327 -0.600594 -1.146930
    2 17.848175 0.000000 0.000000 0.000000 0.000000 0.585002
    3 15.632813 0.000000 0.000000 -0.083570 -0.016663 -1.079702
    4 7.109375 0.000000 -0.000001 -0.007119 -0.003131 -0.631763
    5 -3.890452 0.000004 0.000007 -1.422827 -0.366985 -1.679268
    6 17.848171 0.000000 0.000000 0.000000 0.000000 0.412775
    7 15.632813 0.000000 0.000000 0.218705 -0.018545 -1.201705
    8 7.109375 0.000000 0.000001 -0.080940 -0.003137 -0.650348
    9 -1.156250 2.925781 -3.189453 1.931191 -0.003623 1.520560
    10 4.018331 0.000000 0.000000 0.004865 0.008394 0.067892
    11 3.518561 0.000000 0.000000 0.016791 -0.014020 0.192362
    12 8.942642 0.000000 0.000000 0.001190 0.002764 0.233286
    13 3.307271 0.000000 0.000000 3.141590 0.000000 0.400478
    14 3.593710 -0.000003 0.000000 0.119584 0.053762 0.761341
    15 2.033203 1.000000 1.100586 2.070583 -1.104808 2.422807
    16 6.808594 -0.000002 0.000000 -1.627443 -0.514820 -0.635198
    17 12.390625 0.000001 -0.000001 0.000000 0.000000 -1.874872
    18 9.328125 0.000001 -0.000033 1.517538 -0.147219 -0.047692
    19 4.453125 -0.071045 0.573730 0.022719 0.095944 -1.575312
    20 1.425781 0.000001 0.000001 0.000000 0.005003 -1.600486
    21 1.324219 0.000002 0.000000 0.000001 0.002797 -1.450404
    22 4.476563 -0.026367 1.583008 0.230390 0.164922 -1.430028
    23 1.341797 -0.000001 -0.000001 -0.000001 0.005105 -1.596998
    24 1.225586 0.000003 0.000000 -0.000001 0.003254 -1.478326
    25 2.630859 -0.344482 1.908203 -1.318008 -0.356105 -0.583634
    26 1.057617 0.000000 -0.000001 0.000001 0.306448 0.197922
    27 0.778320 0.000001 -0.000002 -0.000001 -0.003299 1.172837
    28 2.033203 1.000000 -1.100586 -2.037249 1.212963 2.552658
    29 6.808594 -0.000003 -0.000002 1.579013 1.110045 -0.631587
    30 12.390625 -0.000003 -0.000001 0.000000 0.000000 -1.385239
    31 9.328125 0.000000 0.000000 -1.101944 -0.109244 0.161008
    32 4.453125 -0.076355 -0.573242 -0.033741 -0.191187 -1.449641
    33 1.425781 0.000000 -0.000003 0.000000 -0.098503 -1.641085
    34 1.324219 -0.000001 0.000001 -0.000001 -0.061033 -1.493709
    35 4.476563 -0.041046 -1.583008 -0.247417 -0.267013 -1.360110
    36 1.341797 0.000001 -0.000001 0.000000 -0.007735 -1.620634
    37 1.225586 -0.000002 0.000003 0.000000 -0.004928 -1.501976
    38 2.630859 -0.362305 -1.904297 1.374968 0.306082 -0.379497
    39 1.057617 -0.000003 -0.000003 0.000002 0.003278 0.279991
    40 0.778320 -0.000002 0.000001 0.000001 0.005009 0.998386
    41 -0.044708 2.527344 4.660156 -0.026886 0.015425 0.043375
    42 2.676088 -1.712442 0.000000 1.570797 0.000000 1.570797
    43 2.676088 -1.712443 0.000000 -1.570796 0.000000 -1.570796
end
