// Created by Crowbar 0.68
version 1
nodes
  0 "ValveBiped.Bip01" -1
  1 "ValveBiped.Bip01_Pelvis" 0
  2 "ValveBiped.Bip01_Guts01" 1
  3 "ValveBiped.Bip01_Guts02" 2
  4 "ValveBiped.Bip01_Spine" 0
  5 "ValveBiped.Bip01_Spine1" 4
  6 "ValveBiped.Bip01_Spine2" 5
  7 "ValveBiped.Bip01_Spine4" 6
  8 "ValveBiped.Bip01_L_Clavicle" 7
  9 "ValveBiped.Bip01_L_UpperArm" 8
  10 "ValveBiped.Bip01_L_Forearm" 9
  11 "ValveBiped.Bip01_L_Hand" 10
  12 "ValveBiped.Bip01_L_Finger3" 11
  13 "ValveBiped.Bip01_L_Finger31" 12
  14 "ValveBiped.Bip01_L_Finger32" 13
  15 "ValveBiped.Bip01_L_Finger2" 11
  16 "ValveBiped.Bip01_L_Finger21" 15
  17 "ValveBiped.Bip01_L_Finger22" 16
  18 "ValveBiped.Bip01_L_Finger1" 11
  19 "ValveBiped.Bip01_L_Finger11" 18
  20 "ValveBiped.Bip01_L_Finger12" 19
  21 "ValveBiped.Bip01_R_Clavicle" 7
  22 "ValveBiped.Bip01_R_UpperArm" 21
  23 "ValveBiped.Bip01_R_Forearm" 22
  24 "ValveBiped.Bip01_R_Hand" 23
  25 "ValveBiped.Bip01_R_Finger3" 24
  26 "ValveBiped.Bip01_R_Finger31" 25
  27 "ValveBiped.Bip01_R_Finger32" 26
  28 "ValveBiped.Bip01_R_Finger2" 24
  29 "ValveBiped.Bip01_R_Finger21" 28
  30 "ValveBiped.Bip01_R_Finger22" 29
  31 "ValveBiped.Bip01_R_Finger1" 24
  32 "ValveBiped.Bip01_R_Finger11" 31
  33 "ValveBiped.Bip01_R_Finger12" 32
  34 "ValveBiped.HC_Body_Bone" 7
  35 "ValveBiped.HC_Head_Bone" 34
  36 "ValveBiped.HC_FangL_Bone1" 35
  37 "ValveBiped.HC_FangL_Bone2" 36
  38 "ValveBiped.HC_FangR_Bone1" 35
  39 "ValveBiped.HC_FangR_Bone2" 38
end
skeleton
  time 0
    0 6.855996 12.578514 4.802191 2.836086 0.000000 -0.000002
    1 0.000000 0.000000 0.000000 -0.006604 0.000000 -0.017450
    2 -0.000001 -3.955229 0.500835 1.555023 0.077411 1.369490
    3 -4.800704 0.326238 3.435441 -0.002888 -0.017208 0.253082
    4 0.000003 3.345130 -2.981985 1.399045 0.133249 1.812452
    5 4.126699 0.000002 0.000001 -0.109959 -0.029051 -0.157393
    6 3.613468 -0.000002 0.000001 0.022597 -0.057766 0.061717
    7 9.183788 -0.000001 0.000003 -0.195660 0.038411 0.190877
    8 1.673223 1.247216 2.595494 1.597167 -1.286516 2.942410
    9 6.028146 0.000003 0.000002 -1.924402 0.419268 -0.981091
    10 11.692554 0.000002 -0.000005 0.000000 0.000000 -2.054283
    11 12.075555 -0.000001 -0.000029 2.761931 -0.225949 -0.873964
    12 5.564230 -0.209470 -0.526841 0.428919 0.419035 0.375422
    13 5.508580 0.000000 0.000001 -0.124304 -0.106113 -0.479744
    14 3.853065 0.000000 0.000003 -0.042725 -0.050719 -0.723594
    15 5.744637 0.209469 0.526833 0.072700 0.091193 0.238048
    16 6.052550 0.000000 0.000000 -0.163098 -0.138916 -0.471928
    17 3.325012 0.000003 -0.000001 -0.051450 -0.055541 -0.575378
    18 5.613002 0.274427 1.782148 -0.245222 -0.411618 0.009367
    19 5.643137 0.000003 -0.000003 -0.130800 -0.044290 -0.215533
    20 3.079110 -0.000002 0.000000 -0.034719 -0.037507 -0.576667
    21 1.673237 1.247218 -2.595441 -1.669005 1.286518 2.942401
    22 6.028142 -0.000005 0.000000 4.465501 0.965237 1.832742
    23 11.692556 -0.000001 0.000014 0.000000 0.000000 -0.727553
    24 12.075576 -0.000001 0.000006 -2.956424 -0.148304 -0.238646
    25 5.943744 -0.452099 0.398080 0.058311 -0.465185 0.295218
    26 5.043449 -0.000001 -0.000002 0.292448 0.276522 -0.463003
    27 4.081748 -0.000001 0.000001 0.122051 0.150031 -0.798363
    28 6.213900 0.452098 -0.398079 -0.097729 -0.389265 0.524803
    29 5.536297 -0.000002 -0.000002 0.337552 0.318271 -0.436470
    30 3.312726 -0.000002 0.000001 0.127780 0.137309 -0.562988
    31 5.899519 1.061162 -1.488764 -0.003921 -0.111150 0.933507
    32 5.285239 -0.000001 0.000002 0.327059 0.308520 -0.443231
    33 3.098850 -0.000010 0.000004 0.122099 0.131263 -0.564292
    34 9.612428 -1.623318 0.198972 2.970651 -0.314114 1.046648
    35 3.465150 1.617051 -0.112957 -0.154028 0.012135 -0.066859
    36 2.912172 -2.840581 -3.638641 -3.466619 -0.216347 -1.464716
    37 3.007449 -0.000001 -0.000001 0.000000 0.000000 0.668196
    38 3.486280 -3.699984 2.728128 -2.134182 0.404439 -1.855904
    39 3.042607 -0.000001 0.000001 0.000000 0.000000 0.380452
  time 1
    0 6.617707 12.432350 4.802191 2.836290 0.011397 0.036100
    1 0.000000 0.000000 0.000000 -0.006604 0.000000 0.014669
    2 -0.000001 -3.955229 0.500835 1.559577 0.078202 1.428095
    3 -4.800704 0.326238 3.435441 -0.004650 -0.028427 0.249638
    4 0.000003 3.345130 -2.981985 1.477975 0.094874 1.878150
    5 4.126699 0.000002 0.000001 -0.065184 -0.014693 -0.130320
    6 3.613468 -0.000002 0.000001 0.064269 -0.059995 0.041134
    7 9.183788 -0.000001 0.000003 -0.148429 0.013806 0.193418
    8 1.673223 1.247216 2.595494 1.597167 -1.286516 2.942410
    9 6.028146 0.000003 0.000002 -1.670920 0.313131 -0.936718
    10 11.692554 0.000002 -0.000005 0.000000 0.000000 -1.947558
    11 12.075555 -0.000001 -0.000029 2.822757 -0.296160 -1.089182
    12 5.564230 -0.209470 -0.526841 0.519327 0.408253 0.549041
    13 5.508580 0.000000 0.000001 -0.086469 -0.158450 -0.764776
    14 3.853065 0.000000 0.000003 -0.042725 -0.050719 -0.723594
    15 5.744637 0.209469 0.526833 0.153740 0.046083 0.322203
    16 6.052550 0.000000 0.000000 -0.113902 -0.207743 -0.755142
    17 3.325012 0.000003 -0.000001 -0.051450 -0.055541 -0.575378
    18 5.613002 0.274427 1.782148 -0.111847 -0.387949 0.160843
    19 5.643137 0.000003 -0.000003 -0.094307 -0.123724 -0.643616
    20 3.079110 -0.000002 0.000000 -0.034719 -0.037507 -0.576643
    21 1.673237 1.247218 -2.595441 -1.887763 1.430884 2.719283
    22 6.028142 -0.000005 0.000000 4.191783 0.877548 1.509565
    23 11.692556 -0.000001 0.000014 0.000000 0.000000 -0.846685
    24 12.075576 -0.000001 0.000006 -3.016957 0.043054 -0.126127
    25 5.943744 -0.452099 0.398080 0.110098 -0.381101 0.155956
    26 5.043449 -0.000001 -0.000002 0.294965 0.271635 -0.453746
    27 4.081748 -0.000001 0.000001 0.122051 0.150019 -0.798363
    28 6.213900 0.452098 -0.398079 -0.032042 -0.265565 0.324998
    29 5.536297 -0.000002 -0.000002 0.339957 0.313362 -0.428778
    30 3.312726 -0.000002 0.000001 0.129086 0.135200 -0.553227
    31 5.899519 1.061162 -1.488764 -0.004817 0.088918 0.672499
    32 5.285239 -0.000001 0.000002 0.327059 0.308520 -0.443231
    33 3.098850 -0.000010 0.000004 0.122099 0.131263 -0.564292
    34 9.585083 -1.525659 0.210691 3.013088 -0.270777 1.015079
    35 3.465150 1.617051 -0.112957 -0.154028 0.012135 -0.066859
    36 2.908266 -2.840581 -3.638641 -3.476571 -0.167318 -1.358014
    37 3.003542 -0.000001 -0.000001 0.000000 0.000000 0.776147
    38 3.486280 -3.699984 2.732034 -2.083063 0.440249 -1.798064
    39 3.038701 -0.000001 0.000001 0.000000 0.000000 0.183792
  time 2
    0 6.445827 11.434179 4.802191 2.837145 0.025827 0.081968
    1 0.000000 0.000000 0.000000 -0.006604 0.000000 0.051606
    2 -0.000001 -3.955229 0.500835 1.564587 0.078765 1.491984
    3 -4.800704 0.326238 3.435441 -0.006028 -0.037272 0.246179
    4 0.000003 3.345130 -2.981985 1.559734 0.048146 1.948120
    5 4.126699 0.000002 0.000001 -0.015868 0.003152 -0.100538
    6 3.613468 -0.000002 0.000001 0.106315 -0.057969 0.020808
    7 9.183788 -0.000001 0.000003 -0.096812 -0.012859 0.194808
    8 1.673223 1.247216 2.595494 1.597167 -1.286516 2.942410
    9 6.028146 0.000003 0.000002 -1.420303 0.190941 -0.926956
    10 11.692554 0.000002 -0.000005 0.000000 0.000000 -1.833419
    11 12.075555 -0.000001 -0.000029 2.855891 -0.315609 -1.197571
    12 5.564230 -0.209470 -0.526841 0.602007 0.382014 0.713281
    13 5.508580 0.000000 0.000001 -0.048310 -0.189886 -0.984082
    14 3.853065 0.000000 0.000003 -0.042725 -0.050719 -0.723623
    15 5.744637 0.209469 0.526833 0.230621 -0.003353 0.413195
    16 6.052550 0.000000 0.000000 -0.063878 -0.249306 -0.975213
    17 3.325012 0.000003 -0.000001 -0.051450 -0.055541 -0.575352
    18 5.613002 0.274427 1.782148 -0.006575 -0.379308 0.310419
    19 5.643137 0.000003 -0.000003 -0.043444 -0.171135 -0.986333
    20 3.079110 -0.000002 0.000000 -0.034719 -0.037507 -0.576643
    21 1.673237 1.247218 -2.595441 -3.392331 1.509263 1.210408
    22 6.028142 -0.000005 0.000000 3.954284 0.753883 1.274420
    23 11.692556 -0.000001 0.000014 0.000000 0.000000 -0.869942
    24 12.075576 -0.000001 0.000006 -3.050579 0.166507 0.001255
    25 5.943744 -0.452099 0.398080 0.145308 -0.298317 0.035293
    26 5.043449 -0.000001 -0.000002 0.297218 0.267147 -0.445329
    27 4.081748 -0.000001 0.000001 0.122051 0.150031 -0.798363
    28 6.213900 0.452098 -0.398079 0.004595 -0.139578 0.148831
    29 5.536297 -0.000002 -0.000002 0.342108 0.308833 -0.421767
    30 3.312726 -0.000002 0.000001 0.130297 0.133282 -0.544320
    31 5.899519 1.061162 -1.488764 -0.055424 0.273666 0.413492
    32 5.285239 -0.000001 0.000002 0.327059 0.308520 -0.443231
    33 3.098850 -0.000010 0.000004 0.122099 0.131263 -0.564292
    34 9.561645 -1.435812 0.218504 3.057066 -0.224217 0.979547
    35 3.465150 1.620957 -0.112957 -0.154028 0.012135 -0.066859
    36 2.912172 -2.836675 -3.638641 -3.486122 -0.096393 -1.198902
    37 3.007449 -0.000001 -0.000001 0.000000 0.000000 1.044409
    38 3.490187 -3.699984 2.728128 -2.021954 0.406764 -1.703671
    39 3.038701 -0.000001 0.000001 0.000000 0.000000 0.183792
  time 3
    0 6.242696 10.435589 4.802191 2.838488 0.038674 0.123048
    1 0.000000 0.000000 0.000000 -0.006604 0.000000 0.086133
    2 -0.000001 -3.955229 0.500835 1.569429 0.078992 1.553262
    3 -4.800704 0.326238 3.435441 -0.007550 -0.047321 0.242752
    4 0.000003 3.345130 -2.981985 1.635417 -0.002129 2.010405
    5 4.126699 0.000002 0.000001 0.031867 0.017210 -0.071032
    6 3.613468 -0.000002 0.000001 0.148257 -0.056807 0.000379
    7 9.183788 -0.000001 0.000003 -0.047399 -0.038590 0.194904
    8 1.673223 1.247216 2.595494 1.597167 -1.286516 2.942410
    9 6.028146 0.000003 0.000002 -1.190919 0.081885 -0.932349
    10 11.692554 0.000002 -0.000005 0.000000 0.000000 -1.721370
    11 12.075555 -0.000001 -0.000029 2.827724 -0.315427 -1.149538
    12 5.564230 -0.209470 -0.526841 0.657767 0.338121 0.837969
    13 5.508580 0.000000 0.000001 -0.077217 -0.167427 -0.821806
    14 3.853065 0.000000 0.000003 -0.042737 -0.050719 -0.723623
    15 5.744637 0.209469 0.526833 0.301881 -0.049770 0.560198
    16 6.052550 0.000000 0.000000 -0.101809 -0.219620 -0.812173
    17 3.325012 0.000003 -0.000001 -0.051450 -0.055541 -0.575352
    18 5.613002 0.274427 1.782148 -0.061892 -0.353661 0.441070
    19 5.643137 0.000003 -0.000003 -0.069511 -0.150952 -0.824255
    20 3.079110 -0.000002 0.000000 -0.034719 -0.037519 -0.576667
    21 1.673237 1.247218 -2.595441 -4.259024 1.399604 0.339566
    22 6.028142 -0.000005 0.000000 3.796124 0.656485 1.245839
    23 11.692556 -0.000001 0.000014 0.000000 0.000000 -0.358278
    24 12.075576 -0.000001 0.000006 -3.025767 0.240755 0.105209
    25 5.943744 -0.452099 0.398080 0.159918 -0.250947 -0.027829
    26 5.043449 -0.000001 -0.000002 0.298261 0.265003 -0.441315
    27 4.081748 -0.000001 0.000001 0.122063 0.150031 -0.798363
    28 6.213900 0.452098 -0.398079 0.015897 -0.050422 0.033220
    29 5.536297 -0.000002 -0.000002 0.343111 0.306671 -0.418424
    30 3.312726 -0.000002 0.000001 0.130860 0.132360 -0.540080
    31 5.899519 1.061162 -1.488764 -0.127235 0.399632 0.201118
    32 5.285239 -0.000001 0.000002 0.327059 0.308520 -0.443231
    33 3.098850 -0.000010 0.000004 0.122087 0.131263 -0.564292
    34 9.534301 -1.353778 0.226317 3.097295 -0.177310 0.949487
    35 3.465150 1.617051 -0.112957 -0.154028 0.012135 -0.066859
    36 2.912172 -2.840581 -3.638641 -3.482831 -0.028932 -1.058059
    37 3.007449 -0.000001 -0.000001 0.000000 0.000000 1.237389
    38 3.490187 -3.699984 2.728128 -1.938568 0.088106 -1.488818
    39 3.038701 -0.000001 0.000001 0.000000 0.000000 1.100173
  time 4
    0 5.906748 9.432674 4.802191 2.839425 0.045505 0.144974
    1 0.000000 0.000000 0.000000 -0.006604 0.000000 0.111073
    2 -0.000001 -3.955229 0.500835 1.573396 0.078957 1.603885
    3 -4.800704 0.326238 3.435441 -0.009708 -0.062154 0.239389
    4 0.000003 3.345130 -2.981985 1.698060 -0.048474 2.054781
    5 4.126699 0.000002 0.000001 0.071392 0.020817 -0.045637
    6 3.613468 -0.000002 0.000001 0.189971 -0.061541 -0.021031
    7 9.183788 -0.000001 0.000003 -0.006843 -0.060271 0.194125
    8 1.673223 1.247216 2.595494 1.597167 -1.286516 2.942410
    9 6.028146 0.000003 0.000002 -0.992269 -0.001167 -0.926615
    10 11.692554 0.000002 -0.000005 0.000000 0.000000 -1.610304
    11 12.075555 -0.000001 -0.000029 2.762988 -0.345981 -1.223315
    12 5.564230 -0.209470 -0.526841 0.695358 0.289736 0.953496
    13 5.508580 0.000000 0.000001 -0.101114 -0.141792 -0.666890
    14 3.853065 0.000000 0.000003 -0.042725 -0.050719 -0.723623
    15 5.744637 0.209469 0.526833 0.363530 -0.103700 0.698677
    16 6.052550 0.000000 0.000000 -0.132993 -0.185799 -0.657589
    17 3.325012 0.000003 -0.000001 -0.051438 -0.055541 -0.575378
    18 5.613002 0.274427 1.782148 -0.104016 -0.322573 0.563917
    19 5.643137 0.000003 -0.000003 -0.091071 -0.127858 -0.669321
    20 3.079110 -0.000002 0.000000 -0.034719 -0.037507 -0.576643
    21 1.673237 1.247218 -2.595441 -4.447944 1.190677 0.144306
    22 6.028142 -0.000005 0.000000 3.574321 0.635506 1.088091
    23 11.692556 -0.000001 0.000014 0.000000 0.000000 -0.015205
    24 12.075576 -0.000001 0.000006 -2.820016 0.226300 -0.092947
    25 5.943744 -0.452099 0.398080 0.094182 -0.407640 0.210398
    26 5.043449 -0.000001 -0.000002 0.292448 0.276522 -0.463003
    27 4.081748 -0.000001 0.000001 0.122051 0.150031 -0.798363
    28 6.213900 0.452098 -0.398079 -0.002308 -0.145976 0.170024
    29 5.536297 -0.000002 -0.000002 0.337552 0.318271 -0.436499
    30 3.312726 -0.000002 0.000001 0.127780 0.137309 -0.563016
    31 5.899519 1.061162 -1.488764 -0.098510 0.368070 0.244113
    32 5.285239 -0.000001 0.000002 0.327059 0.308520 -0.443231
    33 3.098850 -0.000010 0.000004 0.122099 0.131263 -0.564292
    34 9.514769 -1.275651 0.230223 3.129704 -0.133973 0.933482
    35 3.465150 1.617051 -0.112957 -0.154028 0.012135 -0.066859
    36 2.912172 -2.840581 -3.642548 -3.470391 0.034874 -0.930719
    37 3.007449 -0.000001 -0.000001 0.000000 0.000000 1.356251
    38 3.490187 -3.699984 2.728128 -1.896888 0.003363 -1.386979
    39 3.038701 -0.000001 0.000001 0.000000 0.000000 1.217170
  time 5
    0 5.344231 8.433245 4.802191 2.838895 0.041850 0.133192
    1 0.000000 0.000000 0.000000 -0.006604 0.000000 0.119259
    2 -0.000001 -3.955229 0.500835 1.575912 0.078825 1.635943
    3 -4.800704 0.326238 3.435441 -0.012907 -0.085316 0.236155
    4 0.000003 3.345130 -2.981985 1.741876 -0.081863 2.072354
    5 4.126699 0.000002 0.000001 0.095709 0.007946 -0.028571
    6 3.613468 -0.000002 0.000001 0.231540 -0.077205 -0.044695
    7 9.183788 -0.000001 0.000003 0.018193 -0.074880 0.193310
    8 1.673223 1.247216 2.595494 1.597167 -1.286516 2.942410
    9 6.028146 0.000003 0.000002 -0.842374 -0.031195 -0.865858
    10 11.692554 0.000002 -0.000005 0.000000 0.000000 -1.564149
    11 12.075555 -0.000001 -0.000029 2.675422 -0.421168 -1.184716
    12 5.564230 -0.209470 -0.526841 0.647019 0.252915 1.033695
    13 5.508580 0.000000 0.000001 -0.115496 -0.121466 -0.557308
    14 3.853065 0.000000 0.000003 -0.042737 -0.050719 -0.723623
    15 5.744637 0.209469 0.526833 0.402852 -0.147013 0.795804
    16 6.052550 0.000000 0.000000 -0.151701 -0.159062 -0.548725
    17 3.325012 0.000003 -0.000001 -0.051438 -0.055541 -0.575352
    18 5.613002 0.274427 1.782148 -0.080119 -0.297573 0.649764
    19 5.643137 0.000003 -0.000003 -0.104086 -0.109546 -0.559502
    20 3.079110 -0.000002 0.000000 -0.034719 -0.037507 -0.576667
    21 1.673237 1.247218 -2.595441 -4.455769 1.169620 0.135915
    22 6.028142 -0.000005 0.000000 3.140114 0.620161 0.596309
    23 11.692556 -0.000001 0.000014 0.000000 0.000000 -0.637368
    24 12.075576 -0.000001 0.000006 -2.748936 0.182842 0.194457
    25 5.943744 -0.452099 0.398080 0.013851 -0.451138 0.247093
    26 5.043449 -0.000001 -0.000002 0.291873 0.277656 -0.465159
    27 4.081748 -0.000001 0.000001 0.122063 0.150031 -0.798363
    28 6.213900 0.452098 -0.398079 -0.058947 -0.176190 0.195394
    29 5.536297 -0.000002 -0.000002 0.336996 0.319425 -0.438274
    30 3.312726 -0.000002 0.000001 0.127456 0.137801 -0.565293
    31 5.899519 1.061162 -1.488764 -0.095749 0.364878 0.248232
    32 5.285239 -0.000001 0.000002 0.327059 0.308520 -0.443231
    33 3.098850 -0.000010 0.000004 0.122099 0.131263 -0.564292
    34 9.491331 -1.201430 0.238036 3.151006 -0.098559 0.939488
    35 3.465150 1.617051 -0.112957 -0.154028 0.012135 -0.066859
    36 2.912172 -2.840581 -3.642548 -3.450406 0.099243 -0.803406
    37 3.007449 -0.000001 -0.000001 0.000000 0.000000 1.450837
    38 3.490187 -3.699984 2.728128 -1.865686 -0.074429 -1.286080
    39 3.038701 -0.000001 0.000001 0.000000 0.000000 1.289718
  time 6
    0 4.512174 7.433398 4.802191 2.836819 0.021369 0.067792
    1 0.000000 0.000000 0.000000 -0.006604 0.000000 0.095937
    2 -0.000001 -3.955229 0.500835 1.576104 0.078825 1.638232
    3 -4.800704 0.326238 3.435441 -0.018852 -0.125135 0.236959
    4 0.000003 3.345130 -2.981985 1.762430 -0.095262 2.056909
    5 4.126699 0.000002 0.000001 0.098118 -0.028823 -0.022483
    6 3.613468 -0.000002 0.000001 0.280006 -0.110929 -0.073798
    7 9.183788 -0.000001 0.000003 0.021177 -0.080009 0.193489
    8 1.673223 1.247216 2.595494 1.597167 -1.286516 2.942410
    9 6.028146 0.000003 0.000002 -0.751431 0.043897 -0.652936
    10 11.692554 0.000002 -0.000005 0.000000 0.000000 -1.720387
    11 12.075555 -0.000001 -0.000029 2.484067 -0.531642 -0.742522
    12 5.564230 -0.209470 -0.526841 0.420833 0.238389 1.108903
    13 5.508580 0.000000 0.000001 -0.120673 -0.112825 -0.513170
    14 3.853065 0.000000 0.000003 -0.043780 -0.049521 -0.702826
    15 5.744637 0.209469 0.526833 0.417928 -0.165121 0.861696
    16 6.052550 0.000000 0.000000 -0.158376 -0.147700 -0.504982
    17 3.325012 0.000003 -0.000001 -0.052564 -0.053743 -0.554625
    18 5.613002 0.274427 1.782148 0.090385 -0.286331 0.707953
    19 5.643137 0.000003 -0.000003 -0.108748 -0.101768 -0.515272
    20 3.079110 -0.000002 0.000000 -0.035486 -0.036321 -0.555886
    21 1.673237 1.247218 -2.595441 -4.457833 1.163724 0.133665
    22 6.028142 -0.000005 0.000000 2.881746 0.595974 0.236280
    23 11.692556 -0.000001 0.000014 0.000000 0.000000 -1.057000
    24 12.075576 -0.000001 0.000006 -2.747737 0.206405 0.338377
    25 5.943744 -0.452099 0.398080 -0.078916 -0.488926 0.272357
    26 5.043449 -0.000001 -0.000002 0.291693 0.277968 -0.465788
    27 4.081748 -0.000001 0.000001 0.122051 0.150031 -0.798363
    28 6.213900 0.452098 -0.398079 -0.126936 -0.203338 0.215331
    29 5.536297 -0.000002 -0.000002 0.336839 0.319747 -0.438777
    30 3.312726 -0.000002 0.000001 0.127360 0.137944 -0.565919
    31 5.899519 1.061162 -1.488764 -0.094986 0.363984 0.249472
    32 5.285239 -0.000001 0.000002 0.327059 0.308520 -0.443201
    33 3.098850 -0.000010 0.000004 0.122099 0.131263 -0.564292
    34 9.471799 -1.135022 0.245848 3.159095 -0.075836 0.980773
    35 3.465150 1.620957 -0.112957 -0.154028 0.012135 -0.066859
    36 2.908266 -2.840581 -3.642548 -3.450406 0.099243 -0.803406
    37 3.003542 -0.000001 -0.000001 0.000000 0.000000 1.450837
    38 3.490187 -3.699984 2.728128 -1.865686 -0.074429 -1.286080
    39 3.038701 -0.000001 0.000001 0.000000 0.000000 1.289699
  time 7
    0 3.469174 7.433161 4.802191 2.836371 -0.013075 -0.041586
    1 0.000000 0.000000 0.000000 -0.006604 0.000000 0.045913
    2 -0.000001 -3.955229 0.500835 1.574354 0.078909 1.616037
    3 -4.800704 0.326238 3.435441 -0.027493 -0.179167 0.242108
    4 0.000003 3.345130 -2.981985 1.764827 -0.092517 2.016268
    5 4.126699 0.000002 0.000001 0.083221 -0.084803 -0.024149
    6 3.613468 -0.000002 0.000001 0.336550 -0.158724 -0.109389
    7 9.183788 -0.000001 0.000003 0.006532 -0.077708 0.194652
    8 1.673223 1.247216 2.595494 1.597167 -1.286516 2.942410
    9 6.028146 0.000003 0.000002 -0.675854 0.135838 -0.397142
    10 11.692554 0.000002 -0.000005 0.000000 0.000000 -1.823468
    11 12.075555 -0.000001 -0.000029 2.212439 -0.532491 -0.228943
    12 5.564230 -0.209470 -0.526841 0.130570 0.249803 1.156573
    13 5.508580 0.000000 0.000001 -0.121680 -0.111003 -0.504028
    14 3.853065 0.000000 0.000003 -0.044774 -0.048287 -0.682087
    15 5.744637 0.209469 0.526833 0.421140 -0.168693 0.896678
    16 6.052550 0.000000 0.000000 -0.159707 -0.145316 -0.495941
    17 3.325012 0.000003 -0.000001 -0.053655 -0.051958 -0.533899
    18 5.613002 0.274427 1.782148 0.309975 -0.289975 0.738361
    19 5.643137 0.000003 -0.000003 -0.109671 -0.100126 -0.506139
    20 3.079110 -0.000002 0.000000 -0.036229 -0.035086 -0.535154
    21 1.673237 1.247218 -2.595441 -4.456371 1.167918 0.135222
    22 6.028142 -0.000005 0.000000 2.675724 0.651674 -0.077665
    23 11.692556 -0.000001 0.000014 0.000000 0.000000 -1.306394
    24 12.075576 -0.000001 0.000006 -2.825590 0.282984 0.356973
    25 5.943744 -0.452099 0.398080 -0.172256 -0.520242 0.289290
    26 5.043449 -0.000001 -0.000002 0.291825 0.277744 -0.465339
    27 4.081748 -0.000001 0.000001 0.122051 0.150031 -0.798363
    28 6.213900 0.452098 -0.398079 -0.196722 -0.226132 0.230750
    29 5.536297 -0.000002 -0.000002 0.336960 0.319513 -0.438422
    30 3.312726 -0.000002 0.000001 0.127432 0.137849 -0.565435
    31 5.899519 1.061162 -1.488764 -0.095531 0.364623 0.248592
    32 5.285239 -0.000001 0.000002 0.327059 0.308520 -0.443231
    33 3.098850 -0.000010 0.000004 0.122099 0.131263 -0.564292
    34 9.452267 -1.072520 0.249755 3.157375 -0.063216 1.050893
    35 3.465150 1.617051 -0.112957 -0.154028 0.012135 -0.066828
    36 2.912172 -2.836675 -3.638641 -3.450406 0.099243 -0.803406
    37 3.003542 -0.000001 -0.000001 0.000000 0.000000 1.450837
    38 3.490187 -3.699984 2.728128 -1.865686 -0.074429 -1.286080
    39 3.038701 -0.000001 0.000001 0.000000 0.000000 1.289718
  time 8
    0 2.289451 6.432475 4.802191 2.840361 -0.051725 -0.165014
    1 0.000000 0.000000 0.000000 -0.006604 0.000000 -0.008725
    2 -0.000001 -3.955229 0.500835 1.572006 0.078992 1.586183
    3 -4.800704 0.326238 3.435441 -0.036373 -0.235024 0.245970
    4 0.000003 3.345130 -2.981985 1.757396 -0.081383 1.962616
    5 4.126699 0.000002 0.000001 0.060894 -0.147914 -0.029026
    6 3.613468 -0.000002 0.000001 0.392286 -0.209287 -0.148715
    7 9.183788 -0.000001 0.000003 -0.015951 -0.071560 0.196090
    8 1.673223 1.247216 2.595494 1.597167 -1.286516 2.942410
    9 6.028146 0.000003 0.000002 -0.667961 0.232246 -0.094791
    10 11.692554 0.000002 -0.000005 0.000000 0.000000 -1.933388
    11 12.075555 -0.000001 -0.000029 1.977803 -0.412702 0.081842
    12 5.564230 -0.209470 -0.526841 -0.094722 0.252898 1.033695
    13 5.508580 0.000000 0.000001 -0.115496 -0.121466 -0.557284
    14 3.853065 0.000000 0.000003 -0.042725 -0.050719 -0.723623
    15 5.744637 0.209469 0.526833 0.402852 -0.147025 0.795804
    16 6.052550 0.000000 0.000000 -0.151713 -0.159062 -0.548725
    17 3.325012 0.000003 -0.000001 -0.051450 -0.055541 -0.575378
    18 5.613002 0.274427 1.782148 0.452164 -0.297561 0.649764
    19 5.643137 0.000003 -0.000003 -0.104086 -0.109546 -0.559502
    20 3.079110 -0.000002 0.000000 -0.034719 -0.037507 -0.576643
    21 1.673237 1.247218 -2.595441 -4.453103 1.177194 0.138769
    22 6.028142 -0.000005 0.000000 2.443659 0.736761 -0.412142
    23 11.692556 -0.000001 0.000014 0.000000 0.000000 -1.450631
    24 12.075576 -0.000001 0.000006 -2.967572 0.364190 0.280233
    25 5.943744 -0.452099 0.398080 -0.254040 -0.544238 0.299558
    26 5.043449 -0.000001 -0.000002 0.292089 0.277245 -0.464381
    27 4.081748 -0.000001 0.000001 0.122051 0.150031 -0.798363
    28 6.213900 0.452098 -0.398079 -0.258623 -0.243598 0.241924
    29 5.536297 -0.000002 -0.000002 0.337202 0.319016 -0.437624
    30 3.312726 -0.000002 0.000001 0.127564 0.137633 -0.564439
    31 5.899519 1.061162 -1.488764 -0.096742 0.366027 0.246752
    32 5.285239 -0.000001 0.000002 0.327059 0.308520 -0.443201
    33 3.098850 -0.000010 0.000004 0.122099 0.131263 -0.564264
    34 9.436641 -1.017831 0.257568 3.150723 -0.053880 1.128339
    35 3.465150 1.617051 -0.112957 -0.154028 0.012135 -0.066828
    36 2.912172 -2.840581 -3.638641 -3.450406 0.099243 -0.803406
    37 3.003542 -0.000001 -0.000001 0.000000 0.000000 1.450837
    38 3.490187 -3.699984 2.728128 -1.865699 -0.074429 -1.286080
    39 3.038701 -0.000001 0.000001 0.000000 0.000000 1.289699
  time 9
    0 1.047225 5.435277 4.802191 2.847730 -0.084683 -0.272754
    1 0.000000 0.000000 0.000000 -0.006604 0.000000 -0.045925
    2 -0.000001 -3.955229 0.500835 1.570400 0.078992 1.565522
    3 -4.800704 0.326238 3.435441 -0.042330 -0.280280 0.242333
    4 0.000003 3.345130 -2.981985 1.749043 -0.069231 1.907892
    5 4.126699 0.000002 0.000001 0.040736 -0.206015 -0.033880
    6 3.613468 -0.000002 0.000001 0.436755 -0.252491 -0.186630
    7 9.183788 -0.000001 0.000003 -0.036553 -0.065172 0.197229
    8 1.673223 1.247216 2.595494 1.597088 -1.286851 2.942410
    9 6.028146 0.000003 0.000002 -0.778812 0.331086 0.229200
    10 11.692554 0.000002 -0.000005 0.000000 0.000000 -2.029055
    11 12.075555 -0.000001 -0.000029 1.758915 -0.239573 0.134293
    12 5.564230 -0.209470 -0.526841 -0.225152 0.184829 0.643888
    13 5.508580 0.000000 0.000001 -0.095613 -0.148431 -0.704863
    14 3.853065 0.000000 0.000003 -0.034791 -0.058473 -0.868855
    15 5.744637 0.209469 0.526833 0.347651 -0.108554 0.463117
    16 6.052550 0.000000 0.000000 -0.125874 -0.194524 -0.695256
    17 3.325012 0.000003 -0.000001 -0.042473 -0.067346 -0.720982
    18 5.613002 0.274427 1.782148 0.488850 -0.297178 0.360358
    19 5.643137 0.000003 -0.000003 -0.086193 -0.133743 -0.706664
    20 3.079110 -0.000002 0.000000 -0.028703 -0.045453 -0.721766
    21 1.673237 1.247218 -2.595441 -4.449578 1.186458 0.142576
    22 6.028142 -0.000005 0.000000 2.192621 0.777940 -0.758139
    23 11.692556 -0.000001 0.000014 0.000000 0.000000 -1.537572
    24 12.075576 -0.000001 0.000006 -3.135624 0.406871 0.150775
    25 5.943744 -0.452099 0.398080 -0.311979 -0.559783 0.304634
    26 5.043449 -0.000001 -0.000002 0.292328 0.276746 -0.463452
    27 4.081748 -0.000001 0.000001 0.122063 0.150031 -0.798363
    28 6.213900 0.452098 -0.398079 -0.302870 -0.254813 0.248716
    29 5.536297 -0.000002 -0.000002 0.337443 0.318505 -0.436825
    30 3.312726 -0.000002 0.000001 0.127720 0.137405 -0.563443
    31 5.899519 1.061162 -1.488764 -0.097953 0.367432 0.244953
    32 5.285239 -0.000001 0.000002 0.327059 0.308520 -0.443231
    33 3.098850 -0.000010 0.000004 0.122099 0.131263 -0.564264
    34 9.421016 -0.963141 0.261474 3.144213 -0.041644 1.191636
    35 3.465150 1.620957 -0.112957 -0.154028 0.012135 -0.066859
    36 2.912172 -2.840581 -3.642548 -3.450406 0.099243 -0.803406
    37 3.007449 -0.000001 -0.000001 0.000000 0.000000 1.450837
    38 3.490187 -3.699984 2.728128 -1.865686 -0.074429 -1.286080
    39 3.038701 -0.000001 0.000001 0.000000 0.000000 1.289699
  time 10
    0 -0.206719 4.433753 4.802191 2.853471 -0.103020 -0.334121
    1 0.000000 0.000000 0.000000 -0.006604 0.000000 -0.043624
    2 -0.000001 -3.955229 0.500835 1.570795 0.078992 1.570795
    3 -4.800704 0.326238 3.435441 -0.041634 -0.302650 0.224505
    4 0.000003 3.345130 -2.981985 1.749510 -0.062352 1.864267
    5 4.126699 0.000002 0.000001 0.032155 -0.246859 -0.037008
    6 3.613468 -0.000002 0.000001 0.457922 -0.279469 -0.216025
    7 9.183788 -0.000001 0.000003 -0.045553 -0.062236 0.197648
    8 1.673223 1.247216 2.595494 1.596930 -1.287438 2.942568
    9 6.028146 0.000003 0.000002 -1.005750 0.402286 0.486632
    10 11.692554 0.000002 -0.000005 0.000000 0.000000 -2.025779
    11 12.075555 -0.000001 -0.000029 1.509799 -0.033279 0.054803
    12 5.564230 -0.209470 -0.526841 -0.262206 0.059473 0.111015
    13 5.508580 0.000000 0.000001 -0.061313 -0.180694 -0.913457
    14 3.853065 0.000000 0.000003 -0.021992 -0.067222 -1.072063
    15 5.744637 0.209469 0.526833 0.257538 -0.090230 -0.007066
    16 6.052550 0.000000 0.000000 -0.081040 -0.237106 -0.903906
    17 3.325012 0.000003 -0.000001 -0.027253 -0.081428 -0.925137
    18 5.613002 0.274427 1.782148 0.477817 -0.300341 -0.047851
    19 5.643137 0.000003 -0.000003 -0.055465 -0.162661 -0.914151
    20 3.079110 -0.000002 0.000000 -0.018468 -0.054921 -0.924821
    21 1.673237 1.247218 -2.595441 -4.447944 1.190677 0.144393
    22 6.028142 -0.000005 0.000000 1.991601 0.725058 -1.040845
    23 11.692556 -0.000001 0.000014 0.000000 0.000000 -1.623714
    24 12.075576 -0.000001 0.000006 -3.274669 0.408985 0.034540
    25 5.943744 -0.452099 0.398080 -0.333901 -0.565351 0.305952
    26 5.043449 -0.000001 -0.000002 0.292448 0.276522 -0.463003
    27 4.081748 -0.000001 0.000001 0.122051 0.150019 -0.798363
    28 6.213900 0.452098 -0.398079 -0.319768 -0.258827 0.250958
    29 5.536297 -0.000002 -0.000002 0.337552 0.318271 -0.436499
    30 3.312726 -0.000002 0.000001 0.127780 0.137309 -0.563016
    31 5.899519 1.061162 -1.488764 -0.098510 0.368070 0.244113
    32 5.285239 -0.000001 0.000002 0.327059 0.308520 -0.443231
    33 3.098850 -0.000010 0.000004 0.122099 0.131263 -0.564292
    34 9.409297 -0.920171 0.265380 3.143109 -0.021294 1.219463
    35 3.465150 1.617051 -0.112957 -0.154028 0.012135 -0.066859
    36 2.912172 -2.840581 -3.642548 -3.450406 0.099243 -0.803406
    37 3.003542 -0.000001 -0.000001 0.000000 0.000000 1.450837
    38 3.490187 -3.699984 2.728128 -1.865686 -0.074429 -1.286080
    39 3.038701 -0.000001 0.000001 0.000000 0.000000 1.289718
  time 11
    0 -1.546604 3.435716 4.802191 2.853064 -0.102396 -0.325678
    1 0.000000 0.000000 0.000000 -0.006604 0.000000 0.037871
    2 -0.000001 -3.955229 0.500835 1.574570 0.078909 1.618961
    3 -4.800704 0.326238 3.435441 -0.029027 -0.311082 0.173017
    4 0.000003 3.345130 -2.981985 1.764719 -0.061489 1.834662
    5 4.126699 0.000002 0.000001 0.042929 -0.263685 -0.040771
    6 3.613468 -0.000002 0.000001 0.433316 -0.287942 -0.231119
    7 9.183788 -0.000001 0.000003 -0.035510 -0.064249 0.197025
    8 1.673223 1.247216 2.595494 1.596930 -1.287558 2.942568
    9 6.028146 0.000003 0.000002 -1.294854 0.385127 0.653065
    10 11.692554 0.000002 -0.000005 0.000000 0.000000 -1.893458
    11 12.075555 -0.000001 -0.000029 1.246943 0.128745 -0.091455
    12 5.564230 -0.209470 -0.526841 -0.201891 -0.022855 -0.381428
    13 5.508580 0.000000 0.000001 -0.023370 -0.203980 -1.111362
    14 3.853065 0.000000 0.000003 -0.008425 -0.072987 -1.264989
    15 5.744637 0.209469 0.526833 0.161614 -0.105282 -0.433836
    16 6.052550 0.000000 0.000000 -0.031016 -0.267966 -1.103441
    17 3.325012 0.000003 -0.000001 -0.010510 -0.091639 -1.118328
    18 5.613002 0.274427 1.782148 0.434362 -0.326899 -0.415947
    19 5.643137 0.000003 -0.000003 -0.021357 -0.183646 -1.111362
    20 3.079110 -0.000002 0.000000 -0.007203 -0.061812 -1.117558
    21 1.673237 1.247218 -2.595441 -4.447944 1.190677 0.144306
    22 6.028142 -0.000005 0.000000 1.880871 0.581584 -1.202064
    23 11.692556 -0.000001 0.000014 0.000000 0.000000 -1.733563
    24 12.075576 -0.000001 0.000006 -3.367625 0.417839 -0.053330
    25 5.943744 -0.452099 0.398080 -0.272584 -0.542966 0.276115
    26 5.043449 -0.000001 -0.000002 0.290650 0.279950 -0.469533
    27 4.081748 -0.000001 0.000001 0.121068 0.150978 -0.804909
    28 6.213900 0.452098 -0.398079 -0.274586 -0.239949 0.228203
    29 5.536297 -0.000002 -0.000002 0.335582 0.322274 -0.442771
    30 3.312726 -0.000002 0.000001 0.126893 0.138700 -0.569476
    31 5.899519 1.061162 -1.488764 -0.100666 0.382293 0.231594
    32 5.285239 -0.000001 0.000002 0.325142 0.312369 -0.449553
    33 3.098850 -0.000010 0.000004 0.121248 0.132606 -0.570753
    34 9.397578 -0.877201 0.269287 3.146717 0.013138 1.187768
    35 3.461244 1.617051 -0.112957 -0.154028 0.012135 -0.066859
    36 2.912172 -2.840581 -3.642548 -3.450406 0.099243 -0.803406
    37 3.003542 -0.000001 -0.000001 0.000000 0.000000 1.450837
    38 3.490187 -3.699984 2.728128 -1.865686 -0.074429 -1.286080
    39 3.038701 -0.000001 0.000001 0.000000 0.000000 1.289699
  time 12
    0 -3.011492 2.433353 4.802191 2.848097 -0.087547 -0.265382
    1 0.000000 0.000000 0.000000 -0.006604 0.000000 0.179961
    2 -0.000001 -3.955229 0.500835 1.580838 0.078345 1.698719
    3 -4.800704 0.326238 3.435441 -0.007383 -0.303992 0.094948
    4 0.000003 3.345130 -2.981985 1.787525 -0.061920 1.811181
    5 4.126699 0.000002 0.000001 0.066155 -0.263337 -0.046608
    6 3.613468 -0.000002 0.000001 0.369938 -0.283136 -0.234045
    7 9.183788 -0.000001 0.000003 -0.013471 -0.068648 0.195563
    8 1.673223 1.247216 2.595494 1.597167 -1.286516 2.942410
    9 6.028146 0.000003 0.000002 -1.550431 0.296414 0.791713
    10 11.692554 0.000002 -0.000005 0.000000 0.000000 -1.654370
    11 12.075555 -0.000001 -0.000029 1.026945 0.202870 -0.263456
    12 5.564230 -0.209470 -0.526841 -0.143137 -0.019710 -0.640843
    13 5.508580 0.000000 0.000001 0.000000 -0.213723 -1.223992
    14 3.853065 0.000000 0.000003 0.000000 -0.075108 -1.378996
    15 5.744637 0.209469 0.526833 0.085296 -0.117962 -0.637785
    16 6.052550 0.000000 0.000000 0.000000 -0.280945 -1.217796
    17 3.325012 0.000003 -0.000001 0.000000 -0.096001 -1.230572
    18 5.613002 0.274427 1.782148 0.378929 -0.371446 -0.586631
    19 5.643137 0.000003 -0.000003 0.000000 -0.192563 -1.225564
    20 3.079110 -0.000002 0.000000 0.000000 -0.064808 -1.231461
    21 1.673237 1.247218 -2.595441 -4.447944 1.190677 0.144306
    22 6.028142 -0.000005 0.000000 1.821971 0.395717 -1.276950
    23 11.692556 -0.000001 0.000014 0.000000 0.000000 -1.847805
    24 12.075576 -0.000001 0.000006 -3.436548 0.452551 -0.133088
    25 5.943744 -0.452099 0.398080 -0.138308 -0.488955 0.222797
    26 5.043449 -0.000001 -0.000002 0.287606 0.285635 -0.480467
    27 4.081748 -0.000001 0.000001 0.119427 0.152524 -0.815849
    28 6.213900 0.452098 -0.398079 -0.174335 -0.196867 0.185749
    29 5.536297 -0.000002 -0.000002 0.332247 0.328863 -0.453214
    30 3.312726 -0.000002 0.000001 0.125383 0.141001 -0.580233
    31 5.899519 1.061162 -1.488764 -0.104686 0.405964 0.210597
    32 5.285239 -0.000001 0.000002 0.321834 0.318769 -0.460121
    33 3.098850 -0.000010 0.000004 0.119810 0.134775 -0.581540
    34 9.385859 -0.842044 0.273193 3.148862 0.057732 1.111045
    35 3.465150 1.617051 -0.112957 -0.154028 0.012135 -0.066859
    36 2.912172 -2.836675 -3.638641 -3.450406 0.099243 -0.803406
    37 3.003542 -0.000001 -0.000001 0.000000 0.000000 1.450837
    38 3.490187 -3.699984 2.732034 -1.865686 -0.074429 -1.286080
    39 3.038701 -0.000001 0.000001 0.000000 0.000000 1.289718
  time 13
    0 -4.449036 1.434478 4.802191 2.842315 -0.063698 -0.185239
    1 0.000000 0.000000 0.000000 -0.006604 0.000000 0.317136
    2 -0.000001 -3.955229 0.500835 1.587526 0.077219 1.784516
    3 -4.800704 0.326238 3.435441 0.010427 -0.254606 0.025471
    4 0.000003 3.345130 -2.981985 1.808654 -0.061369 1.789751
    5 4.126699 0.000002 0.000001 0.089117 -0.253965 -0.051593
    6 3.613468 -0.000002 0.000001 0.299869 -0.267101 -0.229794
    7 9.183788 -0.000001 0.000003 0.008569 -0.072986 0.194029
    8 1.673223 1.247216 2.595494 1.598270 -1.282237 2.941538
    9 6.028146 0.000003 0.000002 -1.732248 0.181831 0.874930
    10 11.692554 0.000002 -0.000005 0.000000 0.000000 -1.453410
    11 12.075555 -0.000001 -0.000029 0.903972 0.111723 -0.351981
    12 5.564230 -0.209470 -0.526841 -0.122768 0.101719 -0.419663
    13 5.508580 0.000000 0.000001 -0.012680 -0.208821 -1.163563
    14 3.853065 0.000000 0.000003 -0.003152 -0.074437 -1.336530
    15 5.744637 0.209469 0.526833 0.030263 -0.047600 -0.391548
    16 6.052550 0.000000 0.000000 -0.016551 -0.274533 -1.157434
    17 3.325012 0.000003 -0.000001 -0.004662 -0.094227 -1.181367
    18 5.613002 0.274427 1.782148 0.255295 -0.420091 -0.339764
    19 5.643137 0.000003 -0.000003 -0.010091 -0.188716 -1.172238
    20 3.079110 -0.000002 0.000000 -0.002709 -0.063789 -1.189017
    21 1.673237 1.247218 -2.595441 -4.447944 1.190677 0.144306
    22 6.028142 -0.000005 0.000000 1.783854 0.198711 -1.310996
    23 11.692556 -0.000001 0.000014 0.000000 0.000000 -1.957254
    24 12.075576 -0.000001 0.000006 -3.482757 0.489558 -0.196011
    25 5.943744 -0.452099 0.398080 0.001767 -0.430817 0.191915
    26 5.043449 -0.000001 -0.000002 0.286983 0.286769 -0.482653
    27 4.081748 -0.000001 0.000001 0.119103 0.152823 -0.818031
    28 6.213900 0.452098 -0.398079 -0.068763 -0.154515 0.158103
    29 5.536297 -0.000002 -0.000002 0.331558 0.330207 -0.455314
    30 3.312726 -0.000002 0.000001 0.125071 0.141456 -0.582367
    31 5.899519 1.061162 -1.488764 -0.105558 0.410688 0.206317
    32 5.285239 -0.000001 0.000002 0.321175 0.320052 -0.462288
    33 3.098850 -0.000010 0.000004 0.119510 0.135218 -0.583703
    34 9.378046 -0.814699 0.277099 3.148348 0.102315 1.025392
    35 3.461244 1.617051 -0.112957 -0.154028 0.012135 -0.066859
    36 2.912172 -2.836675 -3.638641 -3.450406 0.099243 -0.803406
    37 3.003542 -0.000001 -0.000001 0.000000 0.000000 1.450837
    38 3.490187 -3.699984 2.732034 -1.865686 -0.074429 -1.286080
    39 3.038701 -0.000001 0.000001 0.000000 0.000000 1.289718
  time 14
    0 -5.702981 0.435183 4.802191 2.838244 -0.036649 -0.116689
    1 0.000000 0.000000 0.000000 -0.006604 0.000000 0.383950
    2 -0.000001 -3.955229 0.500835 1.592595 0.075924 1.850863
    3 -4.800704 0.326238 3.435441 0.012009 -0.139108 -0.000837
    4 0.000003 3.345130 -2.981985 1.818685 -0.057846 1.766407
    5 4.126699 0.000002 0.000001 0.099376 -0.243898 -0.053355
    6 3.613468 -0.000002 0.000001 0.255483 -0.242352 -0.222841
    7 9.183788 -0.000001 0.000003 0.018600 -0.074964 0.193286
    8 1.673223 1.247216 2.595494 1.600005 -1.276269 2.940350
    9 6.028146 0.000003 0.000002 -1.913994 0.071006 0.919849
    10 11.692554 0.000002 -0.000005 0.000000 0.000000 -1.270551
    11 12.075555 -0.000001 -0.000029 0.839289 -0.066322 -0.394367
    12 5.564230 -0.209470 -0.526841 -0.031131 0.280219 0.124565
    13 5.508580 0.000000 0.000001 -0.046512 -0.191024 -0.993505
    14 3.853065 0.000000 0.000003 -0.013543 -0.071165 -1.194174
    15 5.744637 0.209469 0.526833 0.047101 0.085656 0.137267
    16 6.052550 0.000000 0.000000 -0.060966 -0.251175 -0.986927
    17 3.325012 0.000003 -0.000001 -0.018468 -0.087324 -1.029289
    18 5.613002 0.274427 1.782148 0.071039 -0.402007 0.177786
    19 5.643137 0.000003 -0.000003 -0.038950 -0.173975 -1.012591
    20 3.079110 -0.000002 0.000000 -0.011493 -0.059535 -1.046810
    21 1.673237 1.247218 -2.595441 -4.447944 1.190677 0.144306
    22 6.028142 -0.000005 0.000000 1.752119 0.012714 -1.343417
    23 11.692556 -0.000001 0.000014 0.000000 0.000000 -2.054676
    24 12.075576 -0.000001 0.000006 -3.500437 0.489774 -0.235489
    25 5.943744 -0.452099 0.398080 0.094182 -0.407640 0.210398
    26 5.043449 -0.000001 -0.000002 0.292448 0.276522 -0.463003
    27 4.081748 -0.000001 0.000001 0.122051 0.150031 -0.798363
    28 6.213900 0.452098 -0.398079 -0.002308 -0.145976 0.170024
    29 5.536297 -0.000002 -0.000002 0.337552 0.318271 -0.436470
    30 3.312726 -0.000002 0.000001 0.127780 0.137309 -0.563016
    31 5.899519 1.061162 -1.488764 -0.098510 0.368070 0.244113
    32 5.285239 -0.000001 0.000002 0.327059 0.308520 -0.443231
    33 3.098850 -0.000010 0.000004 0.122087 0.131263 -0.564292
    34 9.370233 -0.787355 0.277099 3.148451 0.136831 0.967410
    35 3.465150 1.620957 -0.112957 -0.154028 0.012135 -0.066859
    36 2.912172 -2.840581 -3.642548 -3.450406 0.099243 -0.803406
    37 3.003542 -0.000001 -0.000001 0.000000 0.000000 1.450837
    38 3.486280 -3.699984 2.728128 -1.865686 -0.074429 -1.286080
    39 3.038701 -0.000001 0.000001 0.000000 0.000000 1.289718
  time 15
    0 -6.847547 -0.564530 4.802191 2.835150 -0.003080 -0.063449
    1 0.000000 0.000000 0.000000 -0.006604 0.000000 0.346570
    2 -0.000001 -3.955229 0.500835 1.595999 0.074870 1.895973
    3 -4.800704 0.326238 3.435441 -0.002445 0.092612 0.032904
    4 0.000003 3.345130 -2.981985 1.814419 -0.049732 1.742100
    5 4.126699 0.000002 0.000001 0.094498 -0.237451 -0.051581
    6 3.613468 -0.000002 0.000001 0.254634 -0.205524 -0.210363
    7 9.183788 -0.000001 0.000003 0.013183 -0.075575 0.193298
    8 1.673223 1.247216 2.595494 1.600714 -1.273261 2.939716
    9 6.028146 0.000003 0.000002 -2.134227 -0.051317 0.974530
    10 11.692554 0.000002 -0.000005 0.000000 0.000000 -1.067749
    11 12.075555 -0.000001 -0.000029 0.871631 -0.192391 -0.404166
    12 5.564230 -0.209470 -0.526841 0.095998 0.364826 0.563962
    13 5.508580 0.000000 0.000001 -0.069978 -0.173790 -0.864420
    14 3.853065 0.000000 0.000003 -0.021153 -0.067678 -1.084582
    15 5.744637 0.209469 0.526833 0.107827 0.166277 0.542964
    16 6.052550 0.000000 0.000000 -0.091610 -0.228608 -0.858076
    17 3.325012 0.000003 -0.000001 -0.028272 -0.080661 -0.912685
    18 5.613002 0.274427 1.782148 -0.040155 -0.334402 0.552635
    19 5.643137 0.000003 -0.000003 -0.059204 -0.159749 -0.890839
    20 3.079110 -0.000002 0.000000 -0.017785 -0.055424 -0.937318
    21 1.673237 1.247218 -2.595441 -4.461186 1.185500 0.131675
    22 6.028142 -0.000005 0.000000 1.741856 -0.177791 -1.391864
    23 11.692556 -0.000001 0.000014 0.000000 0.000000 -2.127294
    24 12.075576 -0.000001 0.000006 -3.462739 0.412978 -0.262790
    25 5.943744 -0.452099 0.398080 0.123181 -0.450403 0.308122
    26 5.043449 -0.000001 -0.000002 0.308507 0.242814 -0.400485
    27 4.081748 -0.000001 0.000001 0.131207 0.140623 -0.735137
    28 6.213900 0.452098 -0.398079 0.005338 -0.201757 0.249599
    29 5.536297 -0.000002 -0.000002 0.355172 0.279219 -0.376712
    30 3.312726 -0.000002 0.000001 0.135869 0.123659 -0.500695
    31 5.899519 1.061162 -1.488764 -0.087648 0.229669 0.360458
    32 5.285239 -0.000001 0.000002 0.344341 0.270725 -0.382703
    33 3.098850 -0.000010 0.000004 0.129853 0.118212 -0.501905
    34 9.366327 -0.767823 0.281006 3.154216 0.164850 0.945588
    35 3.465150 1.617051 -0.112957 -0.154028 0.012135 -0.066859
    36 2.908266 -2.836675 -3.642548 -3.450406 0.099243 -0.803406
    37 3.003542 -0.000001 -0.000001 0.000000 0.000000 1.450837
    38 3.486280 -3.699984 2.728128 -1.865686 -0.074429 -1.286080
    39 3.038701 -0.000001 0.000001 0.000000 0.000000 1.289718
  time 16
    0 -7.921798 -1.564663 4.802191 2.833277 0.038423 -0.010398
    1 0.000000 0.000000 0.000000 -0.006604 0.000000 0.245373
    2 -0.000001 -3.955229 0.500835 1.598659 0.073923 1.931783
    3 -4.800704 0.326238 3.435441 -0.008018 0.413365 0.104940
    4 0.000003 3.345130 -2.981985 1.800924 -0.039042 1.718174
    5 4.126699 0.000002 0.000001 0.080896 -0.229457 -0.047578
    6 3.613468 -0.000002 0.000001 0.277583 -0.156890 -0.190313
    7 9.183788 -0.000001 0.000003 -0.001186 -0.075551 0.193717
    8 1.673223 1.247216 2.595494 1.601502 -1.270312 2.939241
    9 6.028146 0.000003 0.000002 -2.407825 -0.139676 1.063959
    10 11.692554 0.000002 -0.000005 0.000000 0.000000 -0.908152
    11 12.075555 -0.000001 -0.000029 1.049775 -0.225403 -0.376529
    12 5.564230 -0.209470 -0.526841 0.131337 0.377405 0.661442
    13 5.508580 0.000000 0.000001 -0.074472 -0.169895 -0.838003
    14 3.853065 0.000000 0.000003 -0.022615 -0.066875 -1.062768
    15 5.744637 0.209469 0.526833 0.122724 0.183199 0.632364
    16 6.052550 0.000000 0.000000 -0.097495 -0.223539 -0.831830
    17 3.325012 0.000003 -0.000001 -0.030141 -0.079175 -0.889192
    18 5.613002 0.274427 1.782148 -0.064689 -0.314723 0.632983
    19 5.643137 0.000003 -0.000003 -0.063087 -0.156573 -0.866201
    20 3.079110 -0.000002 0.000000 -0.018996 -0.054525 -0.915557
    21 1.673237 1.247218 -2.595441 -4.482512 1.176739 0.111518
    22 6.028142 -0.000005 0.000000 1.754792 -0.373020 -1.444077
    23 11.692556 -0.000001 0.000014 0.000000 0.000000 -2.164476
    24 12.075576 -0.000001 0.000006 -3.393396 0.277112 -0.309124
    25 5.943744 -0.452099 0.398080 0.108762 -0.532339 0.464627
    26 5.043449 -0.000001 -0.000002 0.328090 0.191241 -0.309630
    27 4.081748 -0.000001 0.000001 0.143623 0.125654 -0.641705
    28 6.213900 0.452098 -0.398079 -0.028962 -0.295462 0.378795
    29 5.536297 -0.000002 -0.000002 0.376453 0.219626 -0.290477
    30 3.312726 -0.000002 0.000001 0.146272 0.102542 -0.408693
    31 5.899519 1.061162 -1.488764 -0.101405 0.024442 0.526918
    32 5.285239 -0.000001 0.000002 0.365290 0.213009 -0.295311
    33 3.098850 -0.000010 0.000004 0.139800 0.098030 -0.409719
    34 9.362420 -0.756104 0.281006 3.164411 0.189671 0.941217
    35 3.465150 1.620957 -0.112957 -0.154028 0.012135 -0.066859
    36 2.912172 -2.836675 -3.642548 -3.450406 0.099243 -0.803406
    37 3.003542 -0.000001 -0.000001 0.000000 0.000000 1.450837
    38 3.486280 -3.699984 2.728128 -1.865686 -0.074429 -1.286080
    39 3.038701 -0.000001 0.000001 0.000000 0.000000 1.289718
  time 17
    0 -8.738229 -2.565215 4.802191 2.833643 0.078835 0.039754
    1 0.000000 0.000000 0.000000 -0.006604 0.000000 0.126186
    2 -0.000001 -3.955229 0.500835 1.600241 0.073300 1.953379
    3 -4.800704 0.326238 3.435441 0.019882 0.728164 0.202446
    4 0.000003 3.345130 -2.981985 1.781257 -0.029310 1.691249
    5 4.126699 0.000002 0.000001 0.059563 -0.214177 -0.041790
    6 3.613468 -0.000002 0.000001 0.300034 -0.104937 -0.167991
    7 9.183788 -0.000001 0.000003 -0.021728 -0.072039 0.195035
    8 1.673223 1.247216 2.595494 1.601502 -1.270312 2.939241
    9 6.028146 0.000003 0.000002 -2.705660 -0.181865 1.172980
    10 11.692554 0.000002 -0.000005 0.000000 0.000000 -0.770465
    11 12.075555 -0.000001 -0.000029 1.334561 -0.230561 -0.357130
    12 5.564230 -0.209470 -0.526841 0.113476 0.371515 0.612565
    13 5.508580 0.000000 0.000001 -0.072243 -0.171861 -0.851223
    14 3.853065 0.000000 0.000003 -0.021884 -0.067294 -1.073719
    15 5.744637 0.209469 0.526833 0.115078 0.174894 0.587641
    16 6.052550 0.000000 0.000000 -0.094570 -0.226104 -0.844972
    17 3.325012 0.000003 -0.000001 -0.029206 -0.079930 -0.900939
    18 5.613002 0.274427 1.782148 -0.052653 -0.324778 0.592991
    19 5.643137 0.000003 -0.000003 -0.061145 -0.158179 -0.878502
    20 3.079110 -0.000002 0.000000 -0.018384 -0.054981 -0.926438
    21 1.673237 1.247218 -2.595441 -4.486725 1.174953 0.107625
    22 6.028142 -0.000005 0.000000 1.763761 -0.539641 -1.482037
    23 11.692556 -0.000001 0.000014 0.000000 0.000000 -2.181095
    24 12.075576 -0.000001 0.000006 -3.345690 0.130331 -0.365889
    25 5.943744 -0.452099 0.398080 0.066372 -0.607096 0.618963
    26 5.043449 -0.000001 -0.000002 0.341561 0.143147 -0.228840
    27 4.081748 -0.000001 0.000001 0.153619 0.111153 -0.557261
    28 6.213900 0.452098 -0.398079 -0.083336 -0.378148 0.505987
    29 5.536297 -0.000002 -0.000002 0.391003 0.164255 -0.214271
    30 3.312726 -0.000002 0.000001 0.153942 0.082636 -0.325627
    31 5.899519 1.061162 -1.488764 -0.143486 -0.157369 0.682138
    32 5.285239 -0.000001 0.000002 0.379636 0.159326 -0.217952
    33 3.098850 -0.000010 0.000004 0.147183 0.079023 -0.326499
    34 9.358514 -0.748291 0.281006 3.175531 0.201152 0.950147
    35 3.465150 1.620957 -0.112957 -0.154028 0.012135 -0.066859
    36 2.912172 -2.840581 -3.642548 -3.450406 0.099243 -0.803406
    37 3.007449 -0.000001 -0.000001 0.000000 0.000000 1.450837
    38 3.490187 -3.699984 2.728128 -1.865686 -0.074429 -1.286080
    39 3.038701 -0.000001 0.000001 0.000000 0.000000 1.289718
  time 18
    0 -9.097615 -3.566186 4.802191 2.836249 0.108976 0.084551
    1 0.000000 0.000000 0.000000 -0.006604 0.000000 0.034887
    2 -0.000001 -3.955229 0.500835 1.600421 0.073228 1.955836
    3 -4.800704 0.326238 3.435441 0.081268 0.941712 0.305793
    4 0.000003 3.345130 -2.981985 1.758499 -0.024073 1.658155
    5 4.126699 0.000002 0.000001 0.031699 -0.185785 -0.035031
    6 3.613468 -0.000002 0.000001 0.297218 -0.056843 -0.151262
    7 9.183788 -0.000001 0.000003 -0.045494 -0.062260 0.197648
    8 1.673223 1.247216 2.595494 1.597167 -1.286516 2.942410
    9 6.028146 0.000003 0.000002 -2.970876 -0.220340 1.258176
    10 11.692554 0.000002 -0.000005 0.000000 0.000000 -0.638840
    11 12.075555 -0.000001 -0.000029 1.613535 -0.251497 -0.379519
    12 5.564230 -0.209470 -0.526841 0.095998 0.364826 0.563962
    13 5.508580 0.000000 0.000001 -0.069978 -0.173790 -0.864420
    14 3.853065 0.000000 0.000003 -0.021153 -0.067678 -1.084582
    15 5.744637 0.209469 0.526833 0.107815 0.166277 0.542964
    16 6.052550 0.000000 0.000000 -0.091610 -0.228608 -0.858076
    17 3.325012 0.000003 -0.000001 -0.028272 -0.080661 -0.912685
    18 5.613002 0.274427 1.782148 -0.040155 -0.334402 0.552635
    19 5.643137 0.000003 -0.000003 -0.059192 -0.159761 -0.890839
    20 3.079110 -0.000002 0.000000 -0.017785 -0.055424 -0.937318
    21 1.673237 1.247218 -2.595441 -4.447944 1.190677 0.144306
    22 6.028142 -0.000005 0.000000 1.735647 -0.674923 -1.477606
    23 11.692556 -0.000001 0.000014 0.000000 0.000000 -2.214185
    24 12.075576 -0.000001 0.000006 -3.348087 0.032176 -0.401372
    25 5.943744 -0.452099 0.398080 0.039532 -0.638299 0.690958
    26 5.043449 -0.000001 -0.000002 0.346151 0.121867 -0.194002
    27 4.081748 -0.000001 0.000001 0.157550 0.104585 -0.520566
    28 6.213900 0.452098 -0.398079 -0.113429 -0.412327 0.565015
    29 5.536297 -0.000002 -0.000002 0.395982 0.139784 -0.181523
    30 3.312726 -0.000002 0.000001 0.156770 0.073779 -0.289458
    31 5.899519 1.061162 -1.488764 -0.171193 -0.234103 0.753809
    32 5.285239 -0.000001 0.000002 0.384526 0.135614 -0.184646
    33 3.098850 -0.000010 0.000004 0.149879 0.070537 -0.290239
    34 9.358514 -0.744385 0.281006 3.183415 0.189191 0.967756
    35 3.465150 1.617051 -0.112957 -0.154028 0.012135 -0.066859
    36 2.908266 -2.840581 -3.638641 -3.450406 0.099243 -0.803406
    37 3.003542 -0.000001 -0.000001 0.000000 0.000000 1.450837
    38 3.490187 -3.699984 2.732034 -1.865686 -0.074429 -1.286080
    39 3.038701 -0.000001 0.000001 0.000000 0.000000 1.289718
  time 19
    0 -8.949173 -4.567576 4.802191 2.839995 0.126401 0.121977
    1 0.000000 0.000000 0.000000 -0.006604 0.000000 -0.026726
    2 -0.000001 -3.955229 0.500835 1.598899 0.073827 1.935055
    3 -4.800704 0.326238 3.435441 0.144894 1.048779 0.387836
    4 0.000003 3.345130 -2.981985 1.732684 -0.024457 1.613411
    5 4.126699 0.000002 0.000001 -0.003979 -0.139393 -0.025599
    6 3.613468 -0.000002 0.000001 0.262753 -0.012045 -0.142571
    7 9.183788 -0.000001 0.000003 -0.072722 -0.043876 0.201783
    8 1.673223 1.247216 2.595494 1.584080 -1.326484 2.952946
    9 6.028146 0.000003 0.000002 -3.200609 -0.294636 1.311014
    10 11.692554 0.000002 -0.000005 0.000000 0.000000 -0.539773
    11 12.075555 -0.000001 -0.000029 1.868781 -0.312514 -0.496013
    12 5.564230 -0.209470 -0.526841 0.095998 0.364826 0.563962
    13 5.508580 0.000000 0.000001 -0.069966 -0.173790 -0.864420
    14 3.853065 0.000000 0.000003 -0.021153 -0.067678 -1.084582
    15 5.744637 0.209469 0.526833 0.107815 0.166277 0.542964
    16 6.052550 0.000000 0.000000 -0.091610 -0.228608 -0.858076
    17 3.325012 0.000003 -0.000001 -0.028272 -0.080661 -0.912685
    18 5.613002 0.274427 1.782148 -0.040155 -0.334402 0.552635
    19 5.643137 0.000003 -0.000003 -0.059204 -0.159749 -0.890839
    20 3.079110 -0.000002 0.000000 -0.017785 -0.055412 -0.937318
    21 1.673237 1.247218 -2.595441 -4.334609 1.227829 0.253745
    22 6.028142 -0.000005 0.000000 1.658206 -0.828323 -1.419854
    23 11.692556 -0.000001 0.000014 0.000000 0.000000 -2.285754
    24 12.075576 -0.000001 0.000006 -3.405683 0.000265 -0.425568
    25 5.943744 -0.452099 0.398080 0.044744 -0.625100 0.652171
    26 5.043449 -0.000001 -0.000002 0.343922 0.132700 -0.211676
    27 4.081748 -0.000001 0.000001 0.155009 0.108912 -0.544541
    28 6.213900 0.452098 -0.398079 -0.101049 -0.396077 0.534550
    29 5.536297 -0.000002 -0.000002 0.393529 0.152421 -0.198385
    30 3.312726 -0.000002 0.000001 0.155141 0.079052 -0.310943
    31 5.899519 1.061162 -1.488764 -0.153864 -0.186658 0.712814
    32 5.285239 -0.000001 0.000002 0.381877 0.148993 -0.203377
    33 3.098850 -0.000010 0.000004 0.148154 0.076086 -0.313947
    34 9.362420 -0.748291 0.281006 3.189039 0.151404 0.994011
    35 3.465150 1.617051 -0.112957 -0.154028 0.012135 -0.066859
    36 2.908266 -2.840581 -3.642548 -3.450406 0.099243 -0.803406
    37 3.003542 -0.000001 -0.000001 0.000000 0.000000 1.450837
    38 3.490187 -3.699984 2.732034 -1.865686 -0.074429 -1.286080
    39 3.038701 -0.000001 0.000001 0.000000 0.000000 1.289699
  time 20
    0 -8.460877 -5.565479 4.802191 2.844025 0.136972 0.154047
    1 0.000000 0.000000 0.000000 -0.006604 0.000000 -0.083892
    2 -0.000001 -3.955229 0.500835 1.596047 0.074846 1.896632
    3 -4.800704 0.326238 3.435441 0.205835 1.108628 0.460129
    4 0.000003 3.345130 -2.981985 1.703202 -0.028963 1.559622
    5 4.126699 0.000002 0.000001 -0.046249 -0.079566 -0.014825
    6 3.613468 -0.000002 0.000001 0.212050 0.033317 -0.138630
    7 9.183788 -0.000001 0.000003 -0.103954 -0.019175 0.206565
    8 1.673223 1.247216 2.595494 1.557198 -1.382620 2.977108
    9 6.028146 0.000003 0.000002 -3.424265 -0.385604 1.369040
    10 11.692554 0.000002 -0.000005 0.000000 0.000000 -0.444064
    11 12.075555 -0.000001 -0.000029 2.125771 -0.342127 -0.617158
    12 5.564230 -0.209470 -0.526841 0.095998 0.364826 0.563907
    13 5.508580 0.000000 0.000001 -0.069978 -0.173790 -0.864420
    14 3.853065 0.000000 0.000003 -0.021153 -0.067678 -1.084582
    15 5.744637 0.209469 0.526833 0.107815 0.166277 0.542964
    16 6.052550 0.000000 0.000000 -0.091610 -0.228608 -0.858076
    17 3.325012 0.000003 -0.000001 -0.028272 -0.080661 -0.912685
    18 5.613002 0.274427 1.782148 -0.040155 -0.334402 0.552635
    19 5.643137 0.000003 -0.000003 -0.059204 -0.159749 -0.890839
    20 3.079110 -0.000002 0.000000 -0.017785 -0.055424 -0.937318
    21 1.673237 1.247218 -2.595441 -4.131931 1.270950 0.453245
    22 6.028142 -0.000005 0.000000 1.529539 -1.005564 -1.287954
    23 11.692556 -0.000001 0.000014 0.000000 0.000000 -2.346493
    24 12.075576 -0.000001 0.000006 -3.484555 0.000825 -0.478042
    25 5.943744 -0.452099 0.398080 0.056858 -0.589318 0.555842
    26 5.043449 -0.000001 -0.000002 0.337187 0.160562 -0.257747
    27 4.081748 -0.000001 0.000001 0.148261 0.119255 -0.603718
    28 6.213900 0.452098 -0.398079 -0.072454 -0.352362 0.458405
    29 5.536297 -0.000002 -0.000002 0.386157 0.184811 -0.242227
    30 3.312726 -0.000002 0.000001 0.150527 0.092127 -0.364869
    31 5.899519 1.061162 -1.488764 -0.119569 -0.066208 0.613507
    32 5.285239 -0.000001 0.000002 0.373967 0.182657 -0.251199
    33 3.098850 -0.000010 0.000004 0.143324 0.089557 -0.372264
    34 9.362420 -0.756104 0.281006 3.193597 0.096263 1.028914
    35 3.465150 1.620957 -0.112957 -0.154028 0.012135 -0.066859
    36 2.912172 -2.836675 -3.642548 -3.450406 0.099243 -0.803406
    37 3.007449 -0.000001 -0.000001 0.000000 0.000000 1.450837
    38 3.490187 -3.699984 2.732034 -1.865686 -0.074429 -1.286080
    39 3.038701 -0.000001 0.000001 0.000000 0.000000 1.289718
  time 21
    0 -7.769450 -6.567707 4.802191 2.848341 0.143887 0.184289
    1 0.000000 0.000000 0.000000 -0.006604 0.000000 -0.131207
    2 -0.000001 -3.955229 0.500835 1.592535 0.075936 1.850228
    3 -4.800704 0.326238 3.435441 0.249268 1.127660 0.508657
    4 0.000003 3.345130 -2.981985 1.672258 -0.036693 1.505771
    5 4.126699 0.000002 0.000001 -0.090627 -0.015149 -0.007742
    6 3.613468 -0.000002 0.000001 0.152068 0.077720 -0.140230
    7 9.183788 -0.000001 0.000003 -0.136948 0.007658 0.210831
    8 1.673223 1.247216 2.595494 1.499807 -1.445275 3.032561
    9 6.028146 0.000003 0.000002 -3.634230 -0.479491 1.430958
    10 11.692554 0.000002 -0.000005 0.000000 0.000000 -0.284467
    11 12.075555 -0.000001 -0.000029 2.326533 -0.263239 -0.727773
    12 5.564230 -0.209470 -0.526841 0.095998 0.364826 0.563907
    13 5.508580 0.000000 0.000001 -0.069978 -0.173790 -0.864420
    14 3.853065 0.000000 0.000003 -0.021153 -0.067678 -1.084582
    15 5.744637 0.209469 0.526833 0.107827 0.166277 0.542964
    16 6.052550 0.000000 0.000000 -0.091610 -0.228608 -0.858076
    17 3.325012 0.000003 -0.000001 -0.028272 -0.080661 -0.912685
    18 5.613002 0.274427 1.782148 -0.040155 -0.334402 0.552635
    19 5.643137 0.000003 -0.000003 -0.059204 -0.159749 -0.890839
    20 3.079110 -0.000002 0.000000 -0.017785 -0.055412 -0.937318
    21 1.673237 1.247218 -2.595441 -3.851775 1.299761 0.733028
    22 6.028142 -0.000005 0.000000 1.307736 -1.141150 -1.013815
    23 11.692556 -0.000001 0.000014 0.000000 0.000000 -2.369650
    24 12.075576 -0.000001 0.000006 -3.533580 0.021786 -0.537093
    25 5.943744 -0.452099 0.398080 0.070102 -0.536720 0.432001
    26 5.043449 -0.000001 -0.000002 0.325705 0.198422 -0.321972
    27 4.081748 -0.000001 0.000001 0.138878 0.131743 -0.678716
    28 6.213900 0.452098 -0.398079 -0.040695 -0.288992 0.359334
    29 5.536297 -0.000002 -0.000002 0.373613 0.228684 -0.303257
    30 3.312726 -0.000002 0.000001 0.143444 0.108798 -0.435500
    31 5.899519 1.061162 -1.488764 -0.093158 0.092749 0.487482
    32 5.285239 -0.000001 0.000002 0.360856 0.226797 -0.315734
    33 3.098850 -0.000010 0.000004 0.136085 0.106156 -0.446235
    34 9.366327 -0.767823 0.281006 3.192891 0.030467 1.068502
    35 3.465150 1.617051 -0.112957 -0.154028 0.012135 -0.066828
    36 2.908266 -2.840581 -3.642548 -3.450406 0.099243 -0.803406
    37 3.007449 -0.000001 -0.000001 0.000000 0.000000 1.450837
    38 3.490187 -3.699984 2.728128 -1.865686 -0.074429 -1.286080
    39 3.038701 -0.000001 0.000001 0.000000 0.000000 1.289737
  time 22
    0 -7.007708 -7.566449 4.802191 2.853145 0.150395 0.216107
    1 0.000000 0.000000 0.000000 -0.006604 0.000000 -0.163218
    2 -0.000001 -3.955229 0.500835 1.589143 0.076835 1.805501
    3 -4.800704 0.326238 3.435441 0.268443 1.111897 0.527209
    4 0.000003 3.345130 -2.981985 1.641925 -0.045981 1.460844
    5 4.126699 0.000002 0.000001 -0.133508 0.044511 -0.008089
    6 3.613468 -0.000002 0.000001 0.089849 0.119379 -0.147338
    7 9.183788 -0.000001 0.000003 -0.169498 0.032562 0.213779
    8 1.673223 1.247216 2.595494 1.047225 -1.534465 3.484029
    9 6.028146 0.000003 0.000002 -3.868782 -0.786669 1.521001
    10 11.692554 0.000002 -0.000005 0.000000 0.000000 -0.018268
    11 12.075555 -0.000001 -0.000029 2.344712 0.169767 -0.554111
    12 5.564230 -0.209470 -0.526841 0.095998 0.364826 0.563907
    13 5.508580 0.000000 0.000001 -0.069978 -0.173790 -0.864420
    14 3.853065 0.000000 0.000003 -0.021153 -0.067678 -1.084582
    15 5.744637 0.209469 0.526833 0.107827 0.166277 0.542964
    16 6.052550 0.000000 0.000000 -0.091610 -0.228608 -0.858076
    17 3.325012 0.000003 -0.000001 -0.028272 -0.080661 -0.912685
    18 5.613002 0.274427 1.782148 -0.040155 -0.334402 0.552635
    19 5.643137 0.000003 -0.000003 -0.059204 -0.159749 -0.890839
    20 3.079110 -0.000002 0.000000 -0.017785 -0.055424 -0.937318
    21 1.673237 1.247218 -2.595441 -3.569900 1.304435 1.017483
    22 6.028142 -0.000005 0.000000 1.023065 -1.170365 -0.621438
    23 11.692556 -0.000001 0.000014 0.000000 0.000000 -2.373194
    24 12.075576 -0.000001 0.000006 -3.516918 0.049650 -0.547420
    25 5.943744 -0.452099 0.398080 0.081687 -0.473777 0.308587
    26 5.043449 -0.000001 -0.000002 0.310053 0.239261 -0.394015
    27 4.081748 -0.000001 0.000001 0.129098 0.142912 -0.750183
    28 6.213900 0.452098 -0.398079 -0.015731 -0.216085 0.257581
    29 5.536297 -0.000002 -0.000002 0.356561 0.275771 -0.371594
    30 3.312726 -0.000002 0.000001 0.135102 0.125025 -0.506899
    31 5.899519 1.061162 -1.488764 -0.087188 0.251144 0.357139
    32 5.285239 -0.000001 0.000002 0.343934 0.271712 -0.384247
    33 3.098850 -0.000010 0.000004 0.128079 0.121364 -0.516705
    34 9.374140 -0.787355 0.281006 3.183569 -0.038912 1.109379
    35 3.465150 1.617051 -0.112957 -0.154028 0.012135 -0.066859
    36 2.908266 -2.836675 -3.642548 -3.450406 0.099243 -0.803406
    37 3.007449 -0.000001 -0.000001 0.000000 0.000000 1.450837
    38 3.486280 -3.699984 2.728128 -1.865686 -0.074429 -1.286080
    39 3.038701 -0.000001 0.000001 0.000000 0.000000 1.289718
  time 23
    0 -6.312374 -8.565609 4.802191 2.858886 0.159671 0.253155
    1 0.000000 0.000000 0.000000 -0.006604 0.000000 -0.174532
    2 -0.000001 -3.955229 0.500835 1.586555 0.077411 1.772100
    3 -4.800704 0.326238 3.435441 0.268766 1.066228 0.521626
    4 0.000003 3.345130 -2.981985 1.613905 -0.054454 1.433674
    5 4.126699 0.000002 0.000001 -0.171559 0.089813 -0.018408
    6 3.613468 -0.000002 0.000001 0.032684 0.156651 -0.159076
    7 9.183788 -0.000001 0.000003 -0.199543 0.051294 0.214978
    8 1.673223 1.247216 2.595494 0.673239 -1.545575 3.858101
    9 6.028146 0.000003 0.000002 -3.441447 -0.857471 1.311287
    10 11.692554 0.000002 -0.000005 0.000000 0.000000 -0.247118
    11 12.075555 -0.000001 -0.000029 2.378639 -0.143480 -0.418250
    12 5.564230 -0.209470 -0.526841 0.003799 0.318438 0.290395
    13 5.508580 0.000000 0.000001 -0.069978 -0.173790 -0.864420
    14 3.853065 0.000000 0.000003 -0.021153 -0.067678 -1.084582
    15 5.744637 0.209469 0.526833 0.071789 0.111771 0.284410
    16 6.052550 0.000000 0.000000 -0.091610 -0.228608 -0.858076
    17 3.325012 0.000003 -0.000001 -0.028272 -0.080661 -0.912685
    18 5.613002 0.274427 1.782148 0.057094 -0.385660 0.278150
    19 5.643137 0.000003 -0.000003 -0.059204 -0.159749 -0.890839
    20 3.079110 -0.000002 0.000000 -0.017797 -0.055424 -0.937318
    21 1.673237 1.247218 -2.595441 -3.383388 1.295338 1.207466
    22 6.028142 -0.000005 0.000000 0.883705 -1.075524 -0.339028
    23 11.692556 -0.000001 0.000014 0.000000 0.000000 -2.383974
    24 12.075576 -0.000001 0.000006 -3.423003 0.058287 -0.465377
    25 5.943744 -0.452099 0.398080 0.094182 -0.407640 0.210398
    26 5.043449 -0.000001 -0.000002 0.292460 0.276522 -0.463003
    27 4.081748 -0.000001 0.000001 0.122063 0.150031 -0.798363
    28 6.213900 0.452098 -0.398079 -0.002320 -0.145976 0.170024
    29 5.536297 -0.000002 -0.000002 0.337552 0.318271 -0.436470
    30 3.312726 -0.000002 0.000001 0.127780 0.137309 -0.563016
    31 5.899519 1.061162 -1.488764 -0.098510 0.368070 0.244113
    32 5.285239 -0.000001 0.000002 0.327059 0.308520 -0.443231
    33 3.098850 -0.000010 0.000004 0.122099 0.131263 -0.564292
    34 9.378046 -0.810793 0.277099 3.163256 -0.104575 1.148715
    35 3.465150 1.617051 -0.112957 -0.154028 0.012135 -0.066859
    36 2.912172 -2.836675 -3.642548 -3.450406 0.099243 -0.803406
    37 3.007449 -0.000001 -0.000001 0.000000 0.000000 1.450837
    38 3.490187 -3.699984 2.728128 -1.865686 -0.074429 -1.286080
    39 3.038701 -0.000001 0.000001 0.000000 0.000000 1.289699
  time 24
    0 -5.738138 -9.565188 4.802191 2.867517 0.174939 0.304945
    1 0.000000 0.000000 0.000000 -0.006604 0.000000 -0.151713
    2 -0.000001 -3.955229 0.500835 1.585548 0.077602 1.758941
    3 -4.800704 0.326238 3.435441 0.250238 0.971379 0.487032
    4 0.000003 3.345130 -2.981985 1.587658 -0.062520 1.428209
    5 4.126699 0.000002 0.000001 -0.207621 0.119474 -0.041670
    6 3.613468 -0.000002 0.000001 -0.024709 0.192449 -0.178059
    7 9.183788 -0.000001 0.000003 -0.229457 0.063111 0.214510
    8 1.673223 1.247216 2.595494 0.650299 -1.545958 3.880995
    9 6.028146 0.000003 0.000002 -2.911505 -0.845000 0.795741
    10 11.692554 0.000002 -0.000005 0.000000 0.000000 -0.693677
    11 12.075555 -0.000001 -0.000029 2.417798 -0.198399 -0.264054
    12 5.564230 -0.209470 -0.526841 0.021737 0.331582 0.138772
    13 5.508580 0.000000 0.000001 -0.082490 -0.162441 -0.789646
    14 3.853065 0.000000 0.000003 -0.025767 -0.065041 -1.014929
    15 5.744637 0.209469 0.526833 0.060907 0.079604 0.154642
    16 6.052550 0.000000 0.000000 -0.108185 -0.213556 -0.782596
    17 3.325012 0.000003 -0.000001 -0.033377 -0.076442 -0.847531
    18 5.613002 0.274427 1.782148 0.033717 -0.410108 0.133791
    19 5.643137 0.000003 -0.000003 -0.078978 -0.141676 -0.759217
    20 3.079110 -0.000002 0.000000 -0.021536 -0.052476 -0.867698
    21 1.673237 1.247218 -2.595441 -3.317347 1.286326 1.274773
    22 6.028142 -0.000005 0.000000 0.947176 -0.827500 -0.247821
    23 11.692556 -0.000001 0.000014 0.000000 0.000000 -2.402640
    24 12.075576 -0.000001 0.000006 -3.243024 0.010493 -0.240670
    25 5.943744 -0.452099 0.398080 0.111302 -0.333364 0.143634
    26 5.043449 -0.000001 -0.000002 0.269402 0.316651 -0.541846
    27 4.081748 -0.000001 0.000001 0.118839 0.153063 -0.819639
    28 6.213900 0.452098 -0.398079 0.000101 -0.075040 0.092452
    29 5.536297 -0.000002 -0.000002 0.313117 0.363298 -0.509599
    30 3.312726 -0.000002 0.000001 0.121596 0.146549 -0.606727
    31 5.899519 1.061162 -1.488764 -0.117002 0.441075 0.142285
    32 5.285239 -0.000001 0.000002 0.309418 0.341367 -0.498444
    33 3.098850 -0.000010 0.000004 0.119307 0.135542 -0.585268
    34 9.385859 -0.842044 0.277099 3.124593 -0.174146 1.195660
    35 3.461244 1.617051 -0.112957 -0.154028 0.012135 -0.066859
    36 2.912172 -2.840581 -3.642548 -3.450406 0.099243 -0.803406
    37 3.003542 -0.000001 -0.000001 0.000000 0.000000 1.450837
    38 3.490187 -3.699984 2.728128 -1.865686 -0.074429 -1.286080
    39 3.038701 -0.000001 0.000001 0.000000 0.000000 1.289699
  time 25
    0 -5.195152 -10.565187 4.802191 2.879364 0.193743 0.369652
    1 0.000000 0.000000 0.000000 -0.006604 0.000000 -0.098382
    2 -0.000001 -3.955229 0.500835 1.585584 0.077590 1.759576
    3 -4.800704 0.326238 3.435441 0.224483 0.823702 0.433870
    4 0.000003 3.345130 -2.981985 1.561820 -0.070693 1.438618
    5 4.126699 0.000002 0.000001 -0.244498 0.139021 -0.075347
    6 3.613468 -0.000002 0.000001 -0.087985 0.226916 -0.205062
    7 9.183788 -0.000001 0.000003 -0.260701 0.070721 0.213012
    8 1.673223 1.247216 2.595494 0.625072 -1.546330 3.906266
    9 6.028146 0.000003 0.000002 -2.541376 -0.738244 0.456526
    10 11.692554 0.000002 -0.000005 0.000000 0.000000 -0.948286
    11 12.075555 -0.000001 -0.000029 2.485283 -0.237995 -0.232132
    12 5.564230 -0.209470 -0.526841 0.044793 0.356457 -0.018720
    13 5.508580 0.000000 0.000001 -0.095961 -0.148012 -0.702449
    14 3.853065 0.000000 0.000003 -0.030920 -0.061530 -0.933396
    15 5.744637 0.209469 0.526833 0.054603 0.046059 0.025388
    16 6.052550 0.000000 0.000000 -0.125970 -0.194416 -0.694853
    17 3.325012 0.000003 -0.000001 -0.039010 -0.071109 -0.771336
    18 5.613002 0.274427 1.782148 -0.000075 -0.440369 -0.009072
    19 5.643137 0.000003 -0.000003 -0.098825 -0.117492 -0.606052
    20 3.079110 -0.000002 0.000000 -0.025671 -0.048689 -0.786240
    21 1.673237 1.247218 -2.595441 -3.324656 1.280621 1.266728
    22 6.028142 -0.000005 0.000000 1.085932 -0.425381 -0.223449
    23 11.692556 -0.000001 0.000014 0.000000 0.000000 -2.362064
    24 12.075576 -0.000001 0.000006 -2.985252 -0.120368 0.018944
    25 5.943744 -0.452099 0.398080 0.131168 -0.245945 0.092059
    26 5.043449 -0.000001 -0.000002 0.236864 0.362426 -0.639471
    27 4.081748 -0.000001 0.000001 0.117725 0.154106 -0.827047
    28 6.213900 0.452098 -0.398079 -0.006635 0.003656 0.012061
    29 5.536297 -0.000002 -0.000002 0.278808 0.414549 -0.599946
    30 3.312726 -0.000002 0.000001 0.115280 0.155154 -0.648729
    31 5.899519 1.061162 -1.488764 -0.141331 0.495031 0.034099
    32 5.285239 -0.000001 0.000002 0.287966 0.375765 -0.559595
    33 3.098850 -0.000010 0.000004 0.118312 0.137016 -0.592611
    34 9.397578 -0.877201 0.273193 3.066799 -0.250320 1.255592
    35 3.465150 1.617051 -0.112957 -0.154028 0.012135 -0.066859
    36 2.908266 -2.840581 -3.642548 -3.450406 0.099243 -0.803406
    37 3.007449 -0.000001 -0.000001 0.000000 0.000000 1.450837
    38 3.490187 -3.699984 2.732034 -1.865686 -0.074441 -1.286080
    39 3.038701 -0.000001 0.000001 0.000000 0.000000 1.289718
  time 26
    0 -4.601384 -11.565605 4.802191 2.891986 0.210881 0.432595
    1 0.000000 0.000000 0.000000 -0.006604 0.000000 -0.034647
    2 -0.000001 -3.955229 0.500835 1.585668 0.077578 1.760667
    3 -4.800704 0.326238 3.435441 0.205775 0.651624 0.382189
    4 0.000003 3.345130 -2.981985 1.536640 -0.076733 1.458839
    5 4.126699 0.000002 0.000001 -0.278102 0.149532 -0.112583
    6 3.613468 -0.000002 0.000001 -0.149334 0.255008 -0.234854
    7 9.183788 -0.000001 0.000003 -0.289799 0.075167 0.210951
    8 1.673223 1.247216 2.595494 0.666302 -1.545694 3.865072
    9 6.028146 0.000003 0.000002 -2.276579 -0.600266 0.208379
    10 11.692554 0.000002 -0.000005 0.000000 0.000000 -1.141179
    11 12.075555 -0.000001 -0.000029 2.573218 -0.255957 -0.245950
    12 5.564230 -0.209470 -0.526841 0.070920 0.389252 -0.158767
    13 5.508580 0.000000 0.000001 -0.108293 -0.132252 -0.614314
    14 3.853065 0.000000 0.000003 -0.035858 -0.057563 -0.850614
    15 5.744637 0.209469 0.526833 0.052973 0.015930 -0.087802
    16 6.052550 0.000000 0.000000 -0.142149 -0.173503 -0.606415
    17 3.325012 0.000003 -0.000001 -0.044271 -0.065261 -0.693965
    18 5.613002 0.274427 1.782148 -0.038052 -0.472967 -0.136529
    19 5.643137 0.000003 -0.000003 -0.114872 -0.090155 -0.451413
    20 3.079110 -0.000002 0.000000 -0.029518 -0.044494 -0.703534
    21 1.673237 1.247218 -2.595441 -3.363008 1.279471 1.226932
    22 6.028142 -0.000005 0.000000 1.207183 0.009983 -0.196272
    23 11.692556 -0.000001 0.000014 0.000000 0.000000 -2.208894
    24 12.075576 -0.000001 0.000006 -2.719748 -0.288670 0.108035
    25 5.943744 -0.452099 0.398080 0.151637 -0.152506 0.045367
    26 5.043449 -0.000001 -0.000002 0.200394 0.403552 -0.736916
    27 4.081748 -0.000001 0.000001 0.117892 0.153926 -0.825784
    28 6.213900 0.452098 -0.398079 -0.020369 0.082036 -0.068533
    29 5.536297 -0.000002 -0.000002 0.240342 0.460833 -0.690618
    30 3.312726 -0.000002 0.000001 0.109611 0.162249 -0.684500
    31 5.899519 1.061162 -1.488764 -0.168372 0.532389 -0.068728
    32 5.285239 -0.000001 0.000002 0.266118 0.406047 -0.616946
    33 3.098850 -0.000010 0.000004 0.118480 0.136764 -0.591388
    34 9.409297 -0.920171 0.269287 3.000415 -0.319914 1.317631
    35 3.461244 1.620957 -0.112957 -0.154028 0.012135 -0.066828
    36 2.908266 -2.836675 -3.642548 -3.450406 0.099243 -0.803406
    37 3.003542 -0.000001 -0.000001 0.000000 0.000000 1.450837
    38 3.486280 -3.696078 2.732034 -1.865686 -0.074429 -1.286080
    39 3.038701 -0.000001 0.000001 0.000000 0.000000 1.289718
  time 27
    0 -3.866987 -12.566442 4.802191 2.901920 0.221859 0.478967
    1 0.000000 0.000000 0.000000 -0.006604 0.000000 0.019355
    2 -0.000001 -3.955229 0.500835 1.584757 0.077746 1.748862
    3 -4.800704 0.326238 3.435441 0.194666 0.484433 0.339228
    4 0.000003 3.345130 -2.981985 1.512683 -0.078711 1.482749
    5 4.126699 0.000002 0.000001 -0.304265 0.152816 -0.146595
    6 3.613468 -0.000002 0.000001 -0.200120 0.272769 -0.260824
    7 9.183788 -0.000001 0.000003 -0.313313 0.077480 0.208698
    8 1.673223 1.247216 2.595494 0.819081 -1.542626 3.712259
    9 6.028146 0.000003 0.000002 -2.097906 -0.452559 0.015390
    10 11.692554 0.000002 -0.000005 0.000000 0.000000 -1.303601
    11 12.075555 -0.000001 -0.000029 2.666808 -0.246217 -0.274052
    12 5.564230 -0.209470 -0.526841 0.100911 0.424443 -0.257563
    13 5.508580 0.000000 0.000001 -0.117988 -0.117403 -0.536399
    14 3.853065 0.000000 0.000003 -0.039945 -0.053704 -0.777184
    15 5.744637 0.209469 0.526833 0.054232 -0.006122 -0.169335
    16 6.052550 0.000000 0.000000 -0.154865 -0.153837 -0.528446
    17 3.325012 0.000003 -0.000001 -0.048549 -0.059748 -0.625366
    18 5.613002 0.274427 1.782148 -0.075721 -0.502006 -0.234669
    19 5.643137 0.000003 -0.000003 -0.125419 -0.064064 -0.314820
    20 3.079110 -0.000002 0.000000 -0.032634 -0.040539 -0.630163
    21 1.673237 1.247218 -2.595441 -3.395426 1.283701 1.193797
    22 6.028142 -0.000005 0.000000 1.292903 0.361777 -0.173968
    23 11.692556 -0.000001 0.000014 0.000000 0.000000 -1.981710
    24 12.075576 -0.000001 0.000006 -2.509443 -0.394830 0.019415
    25 5.943744 -0.452099 0.398080 0.169697 -0.060112 -0.007408
    26 5.043449 -0.000001 -0.000002 0.169678 0.432249 -0.812614
    27 4.081748 -0.000001 0.000001 0.118612 0.153279 -0.821190
    28 6.213900 0.452098 -0.398079 -0.037387 0.152510 -0.146105
    29 5.536297 -0.000002 -0.000002 0.207786 0.493427 -0.761529
    30 3.312726 -0.000002 0.000001 0.105548 0.167055 -0.709343
    31 5.899519 1.061162 -1.488764 -0.194577 0.556546 -0.153958
    32 5.285239 -0.000001 0.000002 0.248800 0.427405 -0.659692
    33 3.098850 -0.000010 0.000004 0.119103 0.135853 -0.586805
    34 9.421016 -0.963141 0.265380 2.940155 -0.372718 1.366904
    35 3.465150 1.617051 -0.112957 -0.154028 0.012135 -0.066859
    36 2.912172 -2.840581 -3.642548 -3.450406 0.099243 -0.803406
    37 3.007449 -0.000001 -0.000001 0.000000 0.000000 1.450837
    38 3.490187 -3.699984 2.732034 -1.865686 -0.074429 -1.286080
    39 3.038701 -0.000001 0.000001 0.000000 0.000000 1.289718
  time 28
    0 -2.902113 -13.567698 4.802191 2.904810 0.222710 0.493710
    1 0.000000 0.000000 0.000000 -0.006604 0.000000 0.043624
    2 -0.000001 -3.955229 0.500835 1.581797 0.078225 1.710835
    3 -4.800704 0.326238 3.435441 0.186324 0.351486 0.308995
    4 0.000003 3.345130 -2.981985 1.490631 -0.075008 1.504056
    5 4.126699 0.000002 0.000001 -0.318838 0.151329 -0.170828
    6 3.613468 -0.000002 0.000001 -0.231126 0.277216 -0.275866
    7 9.183788 -0.000001 0.000003 -0.327779 0.078787 0.206625
    8 1.673223 1.247216 2.595494 1.047225 -1.534477 3.484029
    9 6.028146 0.000003 0.000002 -1.997673 -0.305515 -0.143738
    10 11.692554 0.000002 -0.000005 0.000000 0.000000 -1.457587
    11 12.075555 -0.000001 -0.000029 2.746659 -0.209443 -0.289831
    12 5.564230 -0.209470 -0.526841 0.138374 0.454692 -0.290312
    13 5.508580 0.000000 0.000001 -0.124316 -0.106113 -0.479744
    14 3.853065 0.000000 0.000003 -0.042737 -0.050719 -0.723623
    15 5.744637 0.209469 0.526833 0.055766 -0.015829 -0.203475
    16 6.052550 0.000000 0.000000 -0.163098 -0.138916 -0.471928
    17 3.325012 0.000003 -0.000001 -0.051450 -0.055541 -0.575378
    18 5.613002 0.274427 1.782148 -0.109880 -0.519839 -0.289744
    19 5.643137 0.000003 -0.000003 -0.130800 -0.044290 -0.215533
    20 3.079110 -0.000002 0.000000 -0.034719 -0.037519 -0.576643
    21 1.673237 1.247218 -2.595441 -3.383388 1.295338 1.207466
    22 6.028142 -0.000005 0.000000 1.368792 0.586482 -0.164220
    23 11.692556 -0.000001 0.000014 0.000000 0.000000 -1.766653
    24 12.075576 -0.000001 0.000006 -2.387719 -0.396546 -0.109746
    25 5.943744 -0.452099 0.398080 0.180944 0.024254 -0.078008
    26 5.043449 -0.000001 -0.000002 0.156759 0.442995 -0.843078
    27 4.081748 -0.000001 0.000001 0.119031 0.152895 -0.818491
    28 6.213900 0.452098 -0.398079 -0.052308 0.208314 -0.216307
    29 5.536297 -0.000002 -0.000002 0.194045 0.505714 -0.790165
    30 3.312726 -0.000002 0.000001 0.103990 0.168829 -0.718620
    31 5.899519 1.061162 -1.488764 -0.216944 0.571714 -0.209231
    32 5.285239 -0.000001 0.000002 0.241789 0.435454 -0.676435
    33 3.098850 -0.000010 0.000004 0.119451 0.135314 -0.584158
    34 9.436641 -1.017831 0.261474 2.904228 -0.401409 1.384701
    35 3.465150 1.617051 -0.112957 -0.154028 0.012135 -0.066859
    36 2.908266 -2.840581 -3.638641 -3.450406 0.099243 -0.803406
    37 3.003542 -0.000001 -0.000001 0.000000 0.000000 1.450837
    38 3.486280 -3.699984 2.728128 -1.865686 -0.074429 -1.286080
    39 3.038701 -0.000001 0.000001 0.000000 0.000000 1.289699
  time 29
    0 -1.480195 -14.565467 4.802191 2.896138 0.207357 0.455529
    1 0.000000 0.000000 0.000000 -0.006604 0.000000 0.016227
    2 -0.000001 -3.955229 0.500835 1.574570 0.078909 1.618949
    3 -4.800704 0.326238 3.435441 0.172686 0.263313 0.290684
    4 0.000003 3.345130 -2.981985 1.472055 -0.063071 1.520496
    5 4.126699 0.000002 0.000001 -0.314835 0.141862 -0.180859
    6 3.613468 -0.000002 0.000001 -0.231126 0.261576 -0.278138
    7 9.183788 -0.000001 0.000003 -0.328018 0.077804 0.204839
    8 1.673223 1.247216 2.595494 1.266382 -1.516800 3.264910
    9 6.028146 0.000003 0.000002 -1.972527 -0.169969 -0.305870
    10 11.692554 0.000002 -0.000005 0.000000 0.000000 -1.625293
    11 12.075555 -0.000001 -0.000029 2.787984 -0.121695 -0.274883
    12 5.564230 -0.209470 -0.526841 0.203091 0.473161 -0.195631
    13 5.508580 0.000000 0.000001 -0.126785 -0.101284 -0.455929
    14 3.853065 0.000000 0.000003 -0.043864 -0.049425 -0.701083
    15 5.744637 0.209469 0.526833 0.055742 -0.002598 -0.147839
    16 6.052550 0.000000 0.000000 -0.166310 -0.132504 -0.448207
    17 3.325012 0.000003 -0.000001 -0.052576 -0.053719 -0.554312
    18 5.613002 0.274427 1.782148 -0.148262 -0.512864 -0.264390
    19 5.643137 0.000003 -0.000003 -0.132478 -0.035817 -0.173770
    20 3.079110 -0.000002 0.000000 -0.035546 -0.036213 -0.554122
    21 1.673237 1.247218 -2.595441 -3.301869 1.318361 1.293114
    22 6.028142 -0.000005 0.000000 1.490818 0.669575 -0.139701
    23 11.692556 -0.000001 0.000014 0.000000 0.000000 -1.627457
    24 12.075576 -0.000001 0.000006 -2.343908 -0.216138 -0.197145
    25 5.943744 -0.452099 0.398080 0.183866 0.121594 -0.208359
    26 5.043449 -0.000001 -0.000002 0.179182 0.423872 -0.789728
    27 4.081748 -0.000001 0.000001 0.119427 0.152524 -0.815820
    28 6.213900 0.452098 -0.398079 -0.063202 0.260081 -0.298667
    29 5.536297 -0.000002 -0.000002 0.218058 0.483697 -0.739637
    30 3.312726 -0.000002 0.000001 0.107442 0.164862 -0.697903
    31 5.899519 1.061162 -1.488764 -0.243828 0.579196 -0.237067
    32 5.285239 -0.000001 0.000002 0.255224 0.419736 -0.644078
    33 3.098850 -0.000010 0.000004 0.119822 0.134787 -0.581540
    34 9.452267 -1.072520 0.253661 2.893327 -0.410338 1.371148
    35 3.465150 1.617051 -0.112957 -0.154028 0.012135 -0.066859
    36 2.912172 -2.840581 -3.642548 -3.450406 0.099243 -0.803406
    37 3.007449 -0.000001 -0.000001 0.000000 0.000000 1.450837
    38 3.490187 -3.699984 2.728128 -1.865686 -0.074429 -1.286080
    39 3.038701 -0.000001 0.000001 0.000000 0.000000 1.289699
  time 30
    0 0.332360 -15.567561 4.802191 2.879609 0.177336 0.373999
    1 0.000000 0.000000 0.000000 -0.006604 0.000000 -0.048250
    2 -0.000001 -3.955229 0.500835 1.564036 0.078717 1.484854
    3 -4.800704 0.326238 3.435441 0.151473 0.202467 0.278810
    4 0.000003 3.345130 -2.981985 1.456918 -0.043428 1.537151
    5 4.126699 0.000002 0.000001 -0.293634 0.122698 -0.180512
    6 3.613468 -0.000002 0.000001 -0.204076 0.227456 -0.269636
    7 9.183788 -0.000001 0.000003 -0.315554 0.073645 0.203113
    8 1.673223 1.247216 2.595494 1.405129 -1.489654 3.126356
    9 6.028146 0.000003 0.000002 -1.995857 -0.050079 -0.487458
    10 11.692554 0.000002 -0.000005 0.000000 0.000000 -1.790705
    11 12.075555 -0.000001 -0.000029 2.790310 0.008653 -0.252627
    12 5.564230 -0.209470 -0.526841 0.293268 0.470116 0.009751
    13 5.508580 0.000000 0.000001 -0.126509 -0.101823 -0.458601
    14 3.853065 0.000000 0.000003 -0.043744 -0.049569 -0.703581
    15 5.744637 0.209469 0.526833 0.057635 0.030707 -0.013294
    16 6.052550 0.000000 0.000000 -0.165963 -0.133223 -0.450879
    17 3.325012 0.000003 -0.000001 -0.052456 -0.053935 -0.556662
    18 5.613002 0.274427 1.782148 -0.190907 -0.481225 -0.169202
    19 5.643137 0.000003 -0.000003 -0.132298 -0.036751 -0.178411
    20 3.079110 -0.000002 0.000000 -0.035462 -0.036357 -0.556646
    21 1.673237 1.247218 -2.595441 -3.148291 1.348826 1.452212
    22 6.028142 -0.000005 0.000000 1.681404 0.684010 -0.090885
    23 11.692556 -0.000001 0.000014 0.000000 0.000000 -1.537172
    24 12.075576 -0.000001 0.000006 -2.321613 0.106298 -0.241001
    25 5.943744 -0.452099 0.398080 0.170945 0.226536 -0.385207
    26 5.043449 -0.000001 -0.000002 0.225538 0.376164 -0.670804
    27 4.081748 -0.000001 0.000001 0.120349 0.151661 -0.809676
    28 6.213900 0.452098 -0.398079 -0.071112 0.306180 -0.386802
    29 5.536297 -0.000002 -0.000002 0.267267 0.429481 -0.628139
    30 3.312726 -0.000002 0.000001 0.115016 0.155502 -0.650351
    31 5.899519 1.061162 -1.488764 -0.268411 0.574318 -0.232828
    32 5.285239 -0.000001 0.000002 0.283543 0.382222 -0.571528
    33 3.098850 -0.000010 0.000004 0.120625 0.133552 -0.575449
    34 9.471799 -1.135022 0.249755 2.893776 -0.409643 1.341686
    35 3.465150 1.620957 -0.112957 -0.154028 0.012135 -0.066859
    36 2.912172 -2.840581 -3.642548 -3.450406 0.099243 -0.803406
    37 3.007449 -0.000001 -0.000001 0.000000 0.000000 1.450837
    38 3.486280 -3.699984 2.728128 -1.865686 -0.074429 -1.286080
    39 3.038701 -0.000001 0.000001 0.000000 0.000000 1.289718
  time 31
    0 2.160541 -16.566169 4.802191 2.863446 0.140591 0.279491
    1 0.000000 0.000000 0.000000 -0.006604 0.000000 -0.115328
    2 -0.000001 -3.955229 0.500835 1.553837 0.077159 1.353946
    3 -4.800704 0.326238 3.435441 0.126354 0.156556 0.270861
    4 0.000003 3.345130 -2.981985 1.443723 -0.019195 1.558948
    5 4.126699 0.000002 0.000001 -0.264116 0.098621 -0.175622
    6 3.613468 -0.000002 0.000001 -0.163770 0.184203 -0.249138
    7 9.183788 -0.000001 0.000003 -0.296762 0.067977 0.201363
    8 1.673223 1.247216 2.595494 1.481203 -1.457512 3.050781
    9 6.028146 0.000003 0.000002 -2.035741 0.056545 -0.665565
    10 11.692554 0.000002 -0.000005 0.000000 0.000000 -1.922330
    11 12.075555 -0.000001 -0.000029 2.771338 0.129564 -0.261795
    12 5.564230 -0.209470 -0.526841 0.376588 0.444792 0.229943
    13 5.508580 0.000000 0.000001 -0.125155 -0.104508 -0.471821
    14 3.853065 0.000000 0.000003 -0.043120 -0.050300 -0.716100
    15 5.744637 0.209469 0.526833 0.064790 0.067332 0.136659
    16 6.052550 0.000000 0.000000 -0.164201 -0.136771 -0.464057
    17 3.325012 0.000003 -0.000001 -0.051821 -0.054942 -0.568356
    18 5.613002 0.274427 1.782148 -0.224777 -0.440585 -0.060912
    19 5.643137 0.000003 -0.000003 -0.131387 -0.041461 -0.201612
    20 3.079110 -0.000002 0.000000 -0.034995 -0.037088 -0.569144
    21 1.673237 1.247218 -2.595441 -2.913882 1.375371 1.691767
    22 6.028142 -0.000005 0.000000 1.921317 0.711881 -0.012749
    23 11.692556 -0.000001 0.000014 0.000000 0.000000 -1.454474
    24 12.075576 -0.000001 0.000006 -2.291107 0.416755 -0.239885
    25 5.943744 -0.452099 0.398080 0.149552 0.292956 -0.534428
    26 5.043449 -0.000001 -0.000002 0.268395 0.318221 -0.545021
    27 4.081748 -0.000001 0.000001 0.121380 0.150678 -0.802928
    28 6.213900 0.452098 -0.398079 -0.067900 0.323160 -0.434248
    29 5.536297 -0.000002 -0.000002 0.312367 0.364555 -0.511670
    30 3.312726 -0.000002 0.000001 0.122842 0.144776 -0.598104
    31 5.899519 1.061162 -1.488764 -0.267236 0.552741 -0.174955
    32 5.285239 -0.000001 0.000002 0.310880 0.338830 -0.494081
    33 3.098850 -0.000010 0.000004 0.121512 0.132186 -0.568789
    34 9.491331 -1.201430 0.241942 2.902636 -0.401170 1.300180
    35 3.465150 1.620957 -0.112957 -0.154028 0.012135 -0.066859
    36 2.908266 -2.836675 -3.642548 -3.450406 0.099243 -0.803406
    37 3.007449 -0.000001 -0.000001 0.000000 0.000000 1.450837
    38 3.486280 -3.699984 2.732034 -1.865686 -0.074441 -1.286080
    39 3.038701 -0.000001 0.000001 0.000000 0.000000 1.289718
  time 32
    0 3.668400 -17.565195 4.802191 2.852412 0.106986 0.200860
    1 0.000000 0.000000 0.000000 -0.006604 0.000000 -0.150443
    2 -0.000001 -3.955229 0.500835 1.547569 0.075517 1.271803
    3 -4.800704 0.326238 3.435441 0.101593 0.113193 0.264377
    4 0.000003 3.345130 -2.981985 1.431128 0.006727 1.590772
    5 4.126699 0.000002 0.000001 -0.234958 0.074508 -0.171511
    6 3.613468 -0.000002 0.000001 -0.124044 0.141107 -0.214253
    7 9.183788 -0.000001 0.000003 -0.278066 0.062356 0.199506
    8 1.673223 1.247216 2.595494 1.523852 -1.424878 3.009033
    9 6.028146 0.000003 0.000002 -2.068360 0.158304 -0.810426
    10 11.692554 0.000002 -0.000005 0.000000 0.000000 -2.012264
    11 12.075555 -0.000001 -0.000029 2.750675 0.185878 -0.322417
    12 5.564230 -0.209470 -0.526841 0.428919 0.419035 0.375422
    13 5.508580 0.000000 0.000001 -0.124304 -0.106113 -0.479744
    14 3.853065 0.000000 0.000003 -0.042725 -0.050719 -0.723594
    15 5.744637 0.209469 0.526833 0.072700 0.091193 0.238048
    16 6.052550 0.000000 0.000000 -0.163098 -0.138916 -0.471928
    17 3.325012 0.000003 -0.000001 -0.051450 -0.055541 -0.575378
    18 5.613002 0.274427 1.782148 -0.245222 -0.411618 0.009367
    19 5.643137 0.000003 -0.000003 -0.130800 -0.044290 -0.215533
    20 3.079110 -0.000002 0.000000 -0.034719 -0.037507 -0.576643
    21 1.673237 1.247218 -2.595441 -2.626676 1.388159 1.982883
    22 6.028142 -0.000005 0.000000 2.188999 0.806201 0.095592
    23 11.692556 -0.000001 0.000014 0.000000 0.000000 -1.355954
    24 12.075576 -0.000001 0.000006 -2.296141 0.561295 -0.226819
    25 5.943744 -0.452099 0.398080 0.149126 0.282159 -0.571898
    26 5.043449 -0.000001 -0.000002 0.292448 0.276522 -0.463003
    27 4.081748 -0.000001 0.000001 0.122051 0.150031 -0.798363
    28 6.213900 0.452098 -0.398079 -0.044182 0.287157 -0.394545
    29 5.536297 -0.000002 -0.000002 0.337552 0.318271 -0.436470
    30 3.312726 -0.000002 0.000001 0.127780 0.137309 -0.563016
    31 5.899519 1.061162 -1.488764 -0.222503 0.505782 -0.046531
    32 5.285239 -0.000001 0.000002 0.327059 0.308520 -0.443231
    33 3.098850 -0.000010 0.000004 0.122099 0.131263 -0.564292
    34 9.510862 -1.275651 0.234129 2.916670 -0.386728 1.250656
    35 3.465150 1.617051 -0.112957 -0.154028 0.012135 -0.066859
    36 2.912172 -2.840581 -3.642548 -3.450406 0.099243 -0.803406
    37 3.003542 -0.000001 -0.000001 0.000000 0.000000 1.450837
    38 3.490187 -3.699984 2.728128 -1.865686 -0.074429 -1.286080
    39 3.038701 -0.000001 0.000001 0.000000 0.000000 1.289699
  time 33
    0 4.703588 -18.564641 4.802191 2.845898 0.079338 0.144407
    1 0.000000 0.000000 0.000000 -0.006604 0.000000 -0.140196
    2 -0.000001 -3.955229 0.500835 1.546562 0.075181 1.258501
    3 -4.800704 0.326238 3.435441 0.077265 0.072961 0.259244
    4 0.000003 3.345130 -2.981985 1.419562 0.034951 1.636755
    5 4.126699 0.000002 0.000001 -0.206483 0.050647 -0.168419
    6 3.613468 -0.000002 0.000001 -0.086411 0.098070 -0.158697
    7 9.183788 -0.000001 0.000003 -0.259802 0.056867 0.197540
    8 1.673223 1.247216 2.595494 1.551049 -1.392076 2.982891
    9 6.028146 0.000003 0.000002 -2.076462 0.255817 -0.905043
    10 11.692554 0.000002 -0.000005 0.000000 0.000000 -2.072589
    11 12.075555 -0.000001 -0.000029 2.738468 0.140669 -0.430375
    12 5.564230 -0.209470 -0.526841 0.447139 0.410150 0.420623
    13 5.508580 0.000000 0.000001 -0.124304 -0.106113 -0.479744
    14 3.853065 0.000000 0.000003 -0.042725 -0.050719 -0.723594
    15 5.744637 0.209469 0.526833 0.075660 0.098288 0.269284
    16 6.052550 0.000000 0.000000 -0.163098 -0.138916 -0.471928
    17 3.325012 0.000003 -0.000001 -0.051450 -0.055541 -0.575378
    18 5.613002 0.274427 1.782148 -0.253091 -0.402750 0.029181
    19 5.643137 0.000003 -0.000003 -0.130800 -0.044290 -0.215533
    20 3.079110 -0.000002 0.000000 -0.034719 -0.037507 -0.576667
    21 1.673237 1.247218 -2.595441 -2.326914 1.384408 2.285160
    22 6.028142 -0.000005 0.000000 2.517650 0.961552 0.262645
    23 11.692556 -0.000001 0.000014 0.000000 0.000000 -1.259879
    24 12.075576 -0.000001 0.000006 -2.396409 0.474831 -0.243356
    25 5.943744 -0.452099 0.398080 0.178815 0.164498 -0.452940
    26 5.043449 -0.000001 -0.000002 0.299123 0.263208 -0.437960
    27 4.081748 -0.000001 0.000001 0.122279 0.149815 -0.796956
    28 6.213900 0.452098 -0.398079 -0.005100 0.172263 -0.240081
    29 5.536297 -0.000002 -0.000002 0.344549 0.303574 -0.413602
    30 3.312726 -0.000002 0.000001 0.129254 0.134960 -0.552117
    31 5.899519 1.061162 -1.488764 -0.134525 0.410433 0.166202
    32 5.285239 -0.000001 0.000002 0.331721 0.298962 -0.427616
    33 3.098850 -0.000010 0.000004 0.122291 0.130988 -0.562869
    34 9.534301 -1.353778 0.226317 2.932913 -0.368296 1.197013
    35 3.465150 1.620957 -0.112957 -0.154028 0.012135 -0.066859
    36 2.908266 -2.840581 -3.642548 -3.450406 0.099243 -0.803406
    37 3.003542 -0.000001 -0.000001 0.000000 0.000000 1.450837
    38 3.486280 -3.699984 2.728128 -1.865686 -0.074429 -1.286080
    39 3.038701 -0.000001 0.000001 0.000000 0.000000 1.289699
  time 34
    0 5.473142 -19.564505 4.802191 2.841297 0.052756 0.094695
    1 0.000000 0.000000 0.000000 -0.006604 0.000000 -0.104386
    2 -0.000001 -3.955229 0.500835 1.548707 0.075853 1.287108
    3 -4.800704 0.326238 3.435441 0.050911 0.041230 0.256171
    4 0.000003 3.345130 -2.981985 1.410538 0.066710 1.693331
    5 4.126699 0.000002 0.000001 -0.174831 0.024604 -0.164248
    6 3.613468 -0.000002 0.000001 -0.046830 0.049257 -0.086809
    7 9.183788 -0.000001 0.000003 -0.238949 0.050791 0.195455
    8 1.673223 1.247216 2.595494 1.570994 -1.357297 2.964512
    9 6.028146 0.000003 0.000002 -2.050968 0.336879 -0.956652
    10 11.692554 0.000002 -0.000005 0.000000 0.000000 -2.101503
    11 12.075555 -0.000001 -0.000029 2.735138 0.024552 -0.568561
    12 5.564230 -0.209470 -0.526841 0.445143 0.411165 0.415577
    13 5.508580 0.000000 0.000001 -0.124316 -0.106113 -0.479744
    14 3.853065 0.000000 0.000003 -0.042737 -0.050719 -0.723623
    15 5.744637 0.209469 0.526833 0.075337 0.097509 0.265818
    16 6.052550 0.000000 0.000000 -0.163098 -0.138916 -0.471928
    17 3.325012 0.000003 -0.000001 -0.051450 -0.055541 -0.575352
    18 5.613002 0.274427 1.782148 -0.252223 -0.403756 0.027038
    19 5.643137 0.000003 -0.000003 -0.130800 -0.044290 -0.215533
    20 3.079110 -0.000002 0.000000 -0.034719 -0.037507 -0.576667
    21 1.673237 1.247218 -2.595441 -2.047189 1.363638 2.565982
    22 6.028142 -0.000005 0.000000 3.031023 1.117554 0.622305
    23 11.692556 -0.000001 0.000014 0.000000 0.000000 -1.157916
    24 12.075576 -0.000001 0.000006 -2.554633 0.258536 -0.247561
    25 5.943744 -0.452099 0.398080 0.194070 -0.036653 -0.237226
    26 5.043449 -0.000001 -0.000002 0.298404 0.264704 -0.440746
    27 4.081748 -0.000001 0.000001 0.122255 0.149839 -0.797100
    28 6.213900 0.452098 -0.398079 0.014075 -0.008288 -0.009913
    29 5.536297 -0.000002 -0.000002 0.343800 0.305210 -0.416146
    30 3.312726 -0.000002 0.000001 0.129074 0.135224 -0.553341
    31 5.899519 1.061162 -1.488764 -0.047940 0.258166 0.426690
    32 5.285239 -0.000001 0.000002 0.331206 0.300019 -0.429338
    33 3.098850 -0.000010 0.000004 0.122267 0.131024 -0.563040
    34 9.557739 -1.439718 0.218504 2.948694 -0.348258 1.142929
    35 3.465150 1.617051 -0.112957 -0.154028 0.012135 -0.066859
    36 2.912172 -2.840581 -3.642548 -3.450406 0.099243 -0.803406
    37 3.007449 -0.000001 -0.000001 0.000000 0.000000 1.450837
    38 3.490187 -3.699984 2.728128 -1.865686 -0.074429 -1.286080
    39 3.038701 -0.000001 0.000001 0.000000 0.000000 1.289718
  time 35
    0 6.137225 -20.564789 4.802191 2.838081 0.026594 0.047945
    1 0.000000 0.000000 0.000000 -0.006604 0.000000 -0.058365
    2 -0.000001 -3.955229 0.500835 1.552171 0.076763 1.332481
    3 -4.800704 0.326238 3.435441 0.023729 0.012871 0.254337
    4 0.000003 3.345130 -2.981985 1.403959 0.100111 1.754039
    5 4.126699 0.000002 0.000001 -0.142017 -0.002373 -0.160234
    6 3.613468 -0.000002 0.000001 -0.009590 -0.003607 -0.009792
    7 9.183788 -0.000001 0.000003 -0.217077 0.044511 0.193238
    8 1.673223 1.247216 2.595494 1.585893 -1.321714 2.951441
    9 6.028146 0.000003 0.000002 -1.993412 0.393176 -0.974947
    10 11.692554 0.000002 -0.000005 0.000000 0.000000 -2.095196
    11 12.075555 -0.000001 -0.000029 2.747029 -0.114868 -0.721595
    12 5.564230 -0.209470 -0.526841 0.435035 0.416173 0.390507
    13 5.508580 0.000000 0.000001 -0.124316 -0.106113 -0.479744
    14 3.853065 0.000000 0.000003 -0.042725 -0.050719 -0.723623
    15 5.744637 0.209469 0.526833 0.073671 0.093566 0.248444
    16 6.052550 0.000000 0.000000 -0.163098 -0.138916 -0.471928
    17 3.325012 0.000003 -0.000001 -0.051450 -0.055541 -0.575378
    18 5.613002 0.274427 1.782148 -0.247864 -0.408682 0.016039
    19 5.643137 0.000003 -0.000003 -0.130800 -0.044290 -0.215533
    20 3.079110 -0.000002 0.000000 -0.034719 -0.037507 -0.576667
    21 1.673237 1.247218 -2.595441 -1.827398 1.329135 2.785812
    22 6.028142 -0.000005 0.000000 3.830361 1.153661 1.296206
    23 11.692556 -0.000001 0.000014 0.000000 0.000000 -1.001552
    24 12.075576 -0.000001 0.000006 -2.746598 0.018606 -0.227237
    25 5.943744 -0.452099 0.398080 0.155146 -0.267142 0.024830
    26 5.043449 -0.000001 -0.000002 0.294713 0.272097 -0.454645
    27 4.081748 -0.000001 0.000001 0.122135 0.149971 -0.797903
    28 6.213900 0.452098 -0.398079 -0.016594 -0.211828 0.255373
    29 5.536297 -0.000002 -0.000002 0.339945 0.313392 -0.428837
    30 3.312726 -0.000002 0.000001 0.128259 0.136518 -0.559374
    31 5.899519 1.061162 -1.488764 -0.000978 0.071503 0.689817
    32 5.285239 -0.000001 0.000002 0.328629 0.305334 -0.437976
    33 3.098850 -0.000010 0.000004 0.122159 0.131167 -0.563837
    34 9.585083 -1.525659 0.210691 2.961843 -0.329214 1.091802
    35 3.461244 1.617051 -0.112957 -0.154028 0.012135 -0.066859
    36 2.908266 -2.836675 -3.642548 -3.450406 0.099243 -0.803406
    37 3.003542 -0.000001 -0.000001 0.000000 0.000000 1.450837
    38 3.486280 -3.696078 2.728128 -1.865686 -0.074429 -1.286080
    39 3.038701 -0.000001 0.000001 0.000000 0.000000 1.289718
  time 36
    0 6.855997 -21.565492 4.802191 2.836086 0.000000 -0.000002
    1 0.000000 0.000000 0.000000 -0.006604 0.000000 -0.017450
    2 -0.000001 -3.955229 0.500835 1.555023 0.077411 1.369490
    3 -4.800704 0.326238 3.435441 -0.002888 -0.017208 0.253082
    4 0.000003 3.345130 -2.981985 1.399045 0.133249 1.812452
    5 4.126699 0.000002 0.000001 -0.109959 -0.029051 -0.157393
    6 3.613468 -0.000002 0.000001 0.022597 -0.057766 0.061717
    7 9.183788 -0.000001 0.000003 -0.195660 0.038411 0.190877
    8 1.673223 1.247216 2.595494 1.597167 -1.286516 2.942410
    9 6.028146 0.000003 0.000002 -1.924402 0.419268 -0.981091
    10 11.692554 0.000002 -0.000005 0.000000 0.000000 -2.054283
    11 12.075555 -0.000001 -0.000029 2.761931 -0.225949 -0.873964
    12 5.564230 -0.209470 -0.526841 0.428919 0.419035 0.375422
    13 5.508580 0.000000 0.000001 -0.124304 -0.106113 -0.479744
    14 3.853065 0.000000 0.000003 -0.042725 -0.050719 -0.723594
    15 5.744637 0.209469 0.526833 0.072700 0.091193 0.238048
    16 6.052550 0.000000 0.000000 -0.163098 -0.138916 -0.471928
    17 3.325012 0.000003 -0.000001 -0.051450 -0.055541 -0.575378
    18 5.613002 0.274427 1.782148 -0.245222 -0.411618 0.009367
    19 5.643137 0.000003 -0.000003 -0.130800 -0.044290 -0.215533
    20 3.079110 -0.000002 0.000000 -0.034719 -0.037507 -0.576667
    21 1.673237 1.247218 -2.595441 -1.669005 1.286518 2.942401
    22 6.028142 -0.000005 0.000000 4.465501 0.965237 1.832742
    23 11.692556 -0.000001 0.000014 0.000000 0.000000 -0.727553
    24 12.075576 -0.000001 0.000006 -2.956424 -0.148304 -0.238646
    25 5.943744 -0.452099 0.398080 0.058311 -0.465185 0.295218
    26 5.043449 -0.000001 -0.000002 0.292448 0.276522 -0.463003
    27 4.081748 -0.000001 0.000001 0.122051 0.150031 -0.798363
    28 6.213900 0.452098 -0.398079 -0.097729 -0.389265 0.524803
    29 5.536297 -0.000002 -0.000002 0.337552 0.318271 -0.436470
    30 3.312726 -0.000002 0.000001 0.127780 0.137309 -0.562988
    31 5.899519 1.061162 -1.488764 -0.003921 -0.111150 0.933507
    32 5.285239 -0.000001 0.000002 0.327059 0.308520 -0.443231
    33 3.098850 -0.000010 0.000004 0.122099 0.131263 -0.564292
    34 9.612428 -1.623318 0.198972 2.970651 -0.314114 1.046648
    35 3.465150 1.617051 -0.112957 -0.154028 0.012135 -0.066859
    36 2.912172 -2.840581 -3.638641 -3.466619 -0.216347 -1.464716
    37 3.007449 -0.000001 -0.000001 0.000000 0.000000 0.668196
    38 3.486280 -3.699984 2.728128 -2.134182 0.404439 -1.855904
    39 3.042607 -0.000001 0.000001 0.000000 0.000000 0.380452
end
