// Created by Crowbar 0.68
version 1
nodes
  0 "Bone01" -1
  1 "Bone02" 0
  2 "Bone03" 1
  3 "Bone04" 2
  4 "Bone05" 3
  5 "Bone06" 4
end
skeleton
  time 0
    0 -4.123252 0.000000 1.263682 1.570796 0.008722 0.000000
    1 0.000000 0.000000 0.000000 0.000000 0.000000 0.000000
    2 0.091964 19.864290 -0.000001 0.000000 0.000000 -0.130834
    3 0.551786 14.162503 0.000000 0.000000 0.000000 -0.244222
    4 3.034824 13.150896 -0.000001 0.000000 0.000000 -0.244221
    5 5.425897 10.300008 -0.000001 0.000000 0.000000 -0.043608
end
triangles
lightside
  5 23.149151 5.178050 51.342205 0.794215 0.589411 -0.147703 0.973300 0.971400 1 5 1.000000
  5 23.048851 2.244200 50.724205 0.924393 0.048100 -0.378397 0.990300 0.963300 1 5 1.000000
  5 21.097900 4.470600 48.893353 0.581605 0.509305 -0.634306 0.968000 0.921200 1 5 1.000000
lightside
  5 23.149151 5.178050 51.342205 0.794215 0.589411 -0.147703 0.973300 0.971400 1 5 1.000000
  5 23.241602 2.688150 53.940502 0.958944 0.221010 0.177708 0.887100 1.001500 1 5 1.000000
  5 23.048851 2.244200 50.724205 0.924393 0.048100 -0.378397 0.990300 0.963300 1 5 1.000000
lightside
  5 23.149151 5.178050 51.342205 0.794215 0.589411 -0.147703 0.973300 0.971400 1 5 1.000000
  5 21.942450 4.664250 54.410202 0.558900 0.753601 0.346000 0.813500 0.992300 1 5 1.000000
  5 23.241602 2.688150 53.940502 0.958944 0.221010 0.177708 0.887100 1.001500 1 5 1.000000
lightside
  5 23.149151 5.178050 51.342205 0.794215 0.589411 -0.147703 0.973300 0.971400 1 5 1.000000
  5 20.343750 5.950700 50.848553 0.285184 0.948847 -0.135493 0.866900 0.935100 1 5 1.000000
  5 21.942450 4.664250 54.410202 0.558900 0.753601 0.346000 0.813500 0.992300 1 5 1.000000
lightside
  5 23.149151 5.178050 51.342205 0.794215 0.589411 -0.147703 0.973300 0.971400 1 5 1.000000
  5 21.097900 4.470600 48.893353 0.581605 0.509305 -0.634306 0.968000 0.921200 1 5 1.000000
  5 20.343750 5.950700 50.848553 0.285184 0.948847 -0.135493 0.866900 0.935100 1 5 1.000000
lightside
  1 -10.181900 2.489950 11.605851 -0.966744 0.246511 0.068103 0.004600 0.183400 1 1 1.000000
  1 -5.389700 -1.171150 21.181499 -0.404081 -0.812662 0.419880 0.105800 0.335500 1 1 1.000000
  1 -8.368650 3.132950 22.108002 -0.497711 0.566113 0.657115 0.019900 0.338000 1 1 1.000000
lightside
  1 -3.899450 1.041700 23.250549 0.102000 -0.065900 0.992599 0.187900 0.366200 1 1 1.000000
  1 -8.368650 3.132950 22.108002 -0.497711 0.566113 0.657115 0.019900 0.338000 1 1 1.000000
  1 -5.389700 -1.171150 21.181499 -0.404081 -0.812662 0.419880 0.105800 0.335500 1 1 1.000000
lightside
  1 -1.801300 0.235150 -2.164800 0.311089 -0.039299 -0.949568 0.317100 -0.001000 1 1 1.000000
  1 -10.761450 0.698850 0.047400 -0.714229 -0.281912 -0.640626 0.067600 0.029600 1 1 1.000000
  1 -1.872100 4.422000 -0.032450 0.231091 0.862567 -0.450083 0.312100 0.029700 1 1 1.000000
lightside
  1 -1.872100 4.422000 -0.032450 0.231091 0.862567 -0.450083 0.312100 0.029700 1 1 1.000000
  1 -10.761450 0.698850 0.047400 -0.714229 -0.281912 -0.640626 0.067600 0.029600 1 1 1.000000
  1 -10.181900 2.489950 11.605851 -0.966744 0.246511 0.068103 0.004600 0.183400 1 1 1.000000
lightside
  1 -10.761450 0.698850 0.047400 -0.714229 -0.281912 -0.640626 0.067600 0.029600 1 1 1.000000
  1 -4.571200 -2.310250 10.610901 -0.212910 -0.973244 0.086404 0.156500 0.182500 1 1 1.000000
  1 -10.181900 2.489950 11.605851 -0.966744 0.246511 0.068103 0.004600 0.183400 1 1 1.000000
lightside
  1 -10.181900 2.489950 11.605851 -0.966744 0.246511 0.068103 0.004600 0.183400 1 1 1.000000
  1 -4.571200 -2.310250 10.610901 -0.212910 -0.973244 0.086404 0.156500 0.182500 1 1 1.000000
  1 -5.389700 -1.171150 21.181499 -0.404081 -0.812662 0.419880 0.105800 0.335500 1 1 1.000000
lightside
  1 -4.571200 -2.310250 10.610901 -0.212910 -0.973244 0.086404 0.156500 0.182500 1 1 1.000000
  1 0.446300 -0.922350 20.894550 0.566295 -0.584995 0.580595 0.360400 0.333200 1 1 1.000000
  1 -5.389700 -1.171150 21.181499 -0.404081 -0.812662 0.419880 0.105800 0.335500 1 1 1.000000
lightside
  1 -3.899450 1.041700 23.250549 0.102000 -0.065900 0.992599 0.187900 0.366200 1 1 1.000000
  1 -5.389700 -1.171150 21.181499 -0.404081 -0.812662 0.419880 0.105800 0.335500 1 1 1.000000
  1 0.446300 -0.922350 20.894550 0.566295 -0.584995 0.580595 0.360400 0.333200 1 1 1.000000
lightside
  1 -3.899450 1.041700 23.250549 0.102000 -0.065900 0.992599 0.187900 0.366200 1 1 1.000000
  1 0.446300 -0.922350 20.894550 0.566295 -0.584995 0.580595 0.360400 0.333200 1 1 1.000000
  1 -2.364950 3.381750 21.116501 0.500391 0.741187 0.447492 0.274500 0.335600 1 1 1.000000
lightside
  1 -3.899450 1.041700 23.250549 0.102000 -0.065900 0.992599 0.187900 0.366200 1 1 1.000000
  1 -2.364950 3.381750 21.116501 0.500391 0.741187 0.447492 0.274500 0.335600 1 1 1.000000
  1 -8.368650 3.132950 22.108002 -0.497711 0.566113 0.657115 0.019900 0.338000 1 1 1.000000
lightside
  1 -2.129300 4.443200 10.580351 0.353415 0.935439 0.007200 0.292600 0.182700 1 1 1.000000
  1 -8.368650 3.132950 22.108002 -0.497711 0.566113 0.657115 0.019900 0.338000 1 1 1.000000
  1 -2.364950 3.381750 21.116501 0.500391 0.741187 0.447492 0.274500 0.335600 1 1 1.000000
lightside
  1 -2.129300 4.443200 10.580351 0.353415 0.935439 0.007200 0.292600 0.182700 1 1 1.000000
  1 -10.181900 2.489950 11.605851 -0.966744 0.246511 0.068103 0.004600 0.183400 1 1 1.000000
  1 -8.368650 3.132950 22.108002 -0.497711 0.566113 0.657115 0.019900 0.338000 1 1 1.000000
lightside
  1 -1.872100 4.422000 -0.032450 0.231091 0.862567 -0.450083 0.312100 0.029700 1 1 1.000000
  1 -10.181900 2.489950 11.605851 -0.966744 0.246511 0.068103 0.004600 0.183400 1 1 1.000000
  1 -2.129300 4.443200 10.580351 0.353415 0.935439 0.007200 0.292600 0.182700 1 1 1.000000
lightside
  1 0.024600 0.167450 -0.050550 0.918391 0.113999 -0.378896 0.527900 0.029600 1 1 1.000000
  1 -1.872100 4.422000 -0.032450 0.231091 0.862567 -0.450083 0.312100 0.029700 1 1 1.000000
  1 -2.129300 4.443200 10.580351 0.353415 0.935439 0.007200 0.292600 0.182700 1 1 1.000000
lightside
  1 -1.801300 0.235150 -2.164800 0.311089 -0.039299 -0.949568 0.317100 -0.001000 1 1 1.000000
  1 -1.872100 4.422000 -0.032450 0.231091 0.862567 -0.450083 0.312100 0.029700 1 1 1.000000
  1 0.024600 0.167450 -0.050550 0.918391 0.113999 -0.378896 0.527900 0.029600 1 1 1.000000
lightside
  1 -1.801300 0.235150 -2.164800 0.311089 -0.039299 -0.949568 0.317100 -0.001000 1 1 1.000000
  1 0.024600 0.167450 -0.050550 0.918391 0.113999 -0.378896 0.527900 0.029600 1 1 1.000000
  1 -2.385600 -3.555650 -0.027900 0.281194 -0.869681 -0.405691 0.283400 0.029500 1 1 1.000000
lightside
  1 -1.801300 0.235150 -2.164800 0.311089 -0.039299 -0.949568 0.317100 -0.001000 1 1 1.000000
  1 -2.385600 -3.555650 -0.027900 0.281194 -0.869681 -0.405691 0.283400 0.029500 1 1 1.000000
  1 -10.761450 0.698850 0.047400 -0.714229 -0.281912 -0.640626 0.067600 0.029600 1 1 1.000000
lightside
  1 -10.761450 0.698850 0.047400 -0.714229 -0.281912 -0.640626 0.067600 0.029600 1 1 1.000000
  1 -2.385600 -3.555650 -0.027900 0.281194 -0.869681 -0.405691 0.283400 0.029500 1 1 1.000000
  1 -4.571200 -2.310250 10.610901 -0.212910 -0.973244 0.086404 0.156500 0.182500 1 1 1.000000
lightside
  1 -2.385600 -3.555650 -0.027900 0.281194 -0.869681 -0.405691 0.283400 0.029500 1 1 1.000000
  1 2.786250 -0.357000 10.464350 0.989887 -0.139898 0.023500 0.444400 0.181800 1 1 1.000000
  1 -4.571200 -2.310250 10.610901 -0.212910 -0.973244 0.086404 0.156500 0.182500 1 1 1.000000
lightside
  1 -4.571200 -2.310250 10.610901 -0.212910 -0.973244 0.086404 0.156500 0.182500 1 1 1.000000
  1 2.786250 -0.357000 10.464350 0.989887 -0.139898 0.023500 0.444400 0.181800 1 1 1.000000
  1 0.446300 -0.922350 20.894550 0.566295 -0.584995 0.580595 0.360400 0.333200 1 1 1.000000
lightside
  1 2.786250 -0.357000 10.464350 0.989887 -0.139898 0.023500 0.444400 0.181800 1 1 1.000000
  1 -2.364950 3.381750 21.116501 0.500391 0.741187 0.447492 0.274500 0.335600 1 1 1.000000
  1 0.446300 -0.922350 20.894550 0.566295 -0.584995 0.580595 0.360400 0.333200 1 1 1.000000
lightside
  1 2.786250 -0.357000 10.464350 0.989887 -0.139898 0.023500 0.444400 0.181800 1 1 1.000000
  1 -2.129300 4.443200 10.580351 0.353415 0.935439 0.007200 0.292600 0.182700 1 1 1.000000
  1 -2.364950 3.381750 21.116501 0.500391 0.741187 0.447492 0.274500 0.335600 1 1 1.000000
lightside
  1 0.024600 0.167450 -0.050550 0.918391 0.113999 -0.378896 0.527900 0.029600 1 1 1.000000
  1 -2.129300 4.443200 10.580351 0.353415 0.935439 0.007200 0.292600 0.182700 1 1 1.000000
  1 2.786250 -0.357000 10.464350 0.989887 -0.139898 0.023500 0.444400 0.181800 1 1 1.000000
lightside
  1 -2.385600 -3.555650 -0.027900 0.281194 -0.869681 -0.405691 0.283400 0.029500 1 1 1.000000
  1 0.024600 0.167450 -0.050550 0.918391 0.113999 -0.378896 0.527900 0.029600 1 1 1.000000
  1 2.786250 -0.357000 10.464350 0.989887 -0.139898 0.023500 0.444400 0.181800 1 1 1.000000
lightside
  5 16.813101 0.231450 51.592953 -0.216598 -0.927592 0.304397 0.685700 0.905200 1 5 1.000000
  5 21.228849 0.277100 49.484955 0.273898 -0.689795 -0.670196 0.953200 0.929200 1 5 1.000000
  5 20.484600 -0.270700 53.707054 0.184404 -0.875520 0.446610 0.773800 0.968400 1 5 1.000000
lightside
  5 16.115650 1.617800 52.618202 -0.600598 -0.075300 0.795997 0.619400 0.909200 1 5 1.000000
  5 16.813101 0.231450 51.592953 -0.216598 -0.927592 0.304397 0.685700 0.905200 1 5 1.000000
  5 20.484600 -0.270700 53.707054 0.184404 -0.875520 0.446610 0.773800 0.968400 1 5 1.000000
lightside
  5 16.115650 1.617800 52.618202 -0.600598 -0.075300 0.795997 0.619400 0.909200 1 5 1.000000
  5 20.484600 -0.270700 53.707054 0.184404 -0.875520 0.446610 0.773800 0.968400 1 5 1.000000
  5 18.861300 2.789100 55.642105 -0.293403 0.081501 0.952508 0.635000 0.972100 1 5 1.000000
lightside
  5 15.853050 2.948550 51.412704 -0.521107 0.846412 0.109702 0.649800 0.893000 1 5 1.000000
  5 16.115650 1.617800 52.618202 -0.600598 -0.075300 0.795997 0.619400 0.909200 1 5 1.000000
  5 18.861300 2.789100 55.642105 -0.293403 0.081501 0.952508 0.635000 0.972100 1 5 1.000000
lightside
  5 16.801001 0.665850 49.721153 0.074601 -0.699211 -0.711012 0.750200 0.884200 1 5 1.000000
  5 18.821850 3.969300 48.672104 -0.294007 0.365109 -0.883321 0.875500 0.894100 1 5 1.000000
  5 21.228849 0.277100 49.484955 0.273898 -0.689795 -0.670196 0.953200 0.929200 1 5 1.000000
lightside
  5 16.813101 0.231450 51.592953 -0.216598 -0.927592 0.304397 0.685700 0.905200 1 5 1.000000
  5 16.801001 0.665850 49.721153 0.074601 -0.699211 -0.711012 0.750200 0.884200 1 5 1.000000
  5 21.228849 0.277100 49.484955 0.273898 -0.689795 -0.670196 0.953200 0.929200 1 5 1.000000
lightside
  4 6.406949 -0.747500 46.392296 -0.311611 -0.884932 0.346113 0.384700 0.742800 1 4 1.000000
  5 16.801001 0.665850 49.721153 0.074601 -0.699211 -0.711012 0.750200 0.884200 1 5 1.000000
  5 16.813101 0.231450 51.592953 -0.216598 -0.927592 0.304397 0.685700 0.905200 1 5 1.000000
lightside
  4 5.971349 0.635150 46.877598 -0.645121 0.129504 0.753025 0.349100 0.744200 1 4 1.000000
  4 6.406949 -0.747500 46.392296 -0.311611 -0.884932 0.346113 0.384700 0.742800 1 4 1.000000
  5 16.813101 0.231450 51.592953 -0.216598 -0.927592 0.304397 0.685700 0.905200 1 5 1.000000
lightside
  4 5.971349 0.635150 46.877598 -0.645121 0.129504 0.753025 0.349100 0.744200 1 4 1.000000
  5 16.813101 0.231450 51.592953 -0.216598 -0.927592 0.304397 0.685700 0.905200 1 5 1.000000
  5 16.115650 1.617800 52.618202 -0.600598 -0.075300 0.795997 0.619400 0.909200 1 5 1.000000
lightside
  4 6.128299 1.587200 45.772995 -0.020599 0.994468 0.102997 0.392400 0.733000 1 4 1.000000
  4 5.971349 0.635150 46.877598 -0.645121 0.129504 0.753025 0.349100 0.744200 1 4 1.000000
  5 16.115650 1.617800 52.618202 -0.600598 -0.075300 0.795997 0.619400 0.909200 1 5 1.000000
lightside
  4 6.128299 1.587200 45.772995 -0.020599 0.994468 0.102997 0.392400 0.733000 1 4 1.000000
  5 16.115650 1.617800 52.618202 -0.600598 -0.075300 0.795997 0.619400 0.909200 1 5 1.000000
  5 15.853050 2.948550 51.412704 -0.521107 0.846412 0.109702 0.649800 0.893000 1 5 1.000000
lightside
  4 6.300599 0.793700 44.922245 0.591883 0.473087 -0.652582 0.454700 0.724800 1 4 1.000000
  4 6.128299 1.587200 45.772995 -0.020599 0.994468 0.102997 0.392400 0.733000 1 4 1.000000
  5 15.853050 2.948550 51.412704 -0.521107 0.846412 0.109702 0.649800 0.893000 1 5 1.000000
lightside
  3 -0.534300 -0.445600 34.375252 0.672408 -0.681809 -0.288104 0.278800 0.538000 1 3 1.000000
  3 -0.189300 1.223350 34.174850 0.856080 0.426390 -0.292093 0.300900 0.537400 1 3 1.000000
  4 6.300599 0.793700 44.922245 0.591883 0.473087 -0.652582 0.454700 0.724800 1 4 1.000000
lightside
  3 -0.189300 1.223350 34.174850 0.856080 0.426390 -0.292093 0.300900 0.537400 1 3 1.000000
  4 6.128299 1.587200 45.772995 -0.020599 0.994468 0.102997 0.392400 0.733000 1 4 1.000000
  4 6.300599 0.793700 44.922245 0.591883 0.473087 -0.652582 0.454700 0.724800 1 4 1.000000
lightside
  3 -0.189300 1.223350 34.174850 0.856080 0.426390 -0.292093 0.300900 0.537400 1 3 1.000000
  3 -1.300750 2.050250 34.975052 -0.095096 0.983858 0.151593 0.226600 0.541600 1 3 1.000000
  4 6.128299 1.587200 45.772995 -0.020599 0.994468 0.102997 0.392400 0.733000 1 4 1.000000
lightside
  3 -1.300750 2.050250 34.975052 -0.095096 0.983858 0.151593 0.226600 0.541600 1 3 1.000000
  4 5.971349 0.635150 46.877598 -0.645121 0.129504 0.753025 0.349100 0.744200 1 4 1.000000
  4 6.128299 1.587200 45.772995 -0.020599 0.994468 0.102997 0.392400 0.733000 1 4 1.000000
lightside
  3 -1.300750 2.050250 34.975052 -0.095096 0.983858 0.151593 0.226600 0.541600 1 3 1.000000
  3 -2.333100 0.896150 35.673851 -0.887366 0.152594 0.435083 0.158600 0.544800 1 3 1.000000
  4 5.971349 0.635150 46.877598 -0.645121 0.129504 0.753025 0.349100 0.744200 1 4 1.000000
lightside
  3 -2.333100 0.896150 35.673851 -0.887366 0.152594 0.435083 0.158600 0.544800 1 3 1.000000
  4 6.406949 -0.747500 46.392296 -0.311611 -0.884932 0.346113 0.384700 0.742800 1 4 1.000000
  4 5.971349 0.635150 46.877598 -0.645121 0.129504 0.753025 0.349100 0.744200 1 4 1.000000
lightside
  3 -2.333100 0.896150 35.673851 -0.887366 0.152594 0.435083 0.158600 0.544800 1 3 1.000000
  3 -1.862550 -0.648400 35.301899 -0.415381 -0.897758 0.146593 0.190700 0.542500 1 3 1.000000
  4 6.406949 -0.747500 46.392296 -0.311611 -0.884932 0.346113 0.384700 0.742800 1 4 1.000000
lightside
  3 -1.862550 -0.648400 35.301899 -0.415381 -0.897758 0.146593 0.190700 0.542500 1 3 1.000000
  4 6.838999 -0.645900 45.000496 0.473985 -0.622881 -0.622381 0.449900 0.730800 1 4 1.000000
  4 6.406949 -0.747500 46.392296 -0.311611 -0.884932 0.346113 0.384700 0.742800 1 4 1.000000
lightside
  4 6.406949 -0.747500 46.392296 -0.311611 -0.884932 0.346113 0.384700 0.742800 1 4 1.000000
  4 6.838999 -0.645900 45.000496 0.473985 -0.622881 -0.622381 0.449900 0.730800 1 4 1.000000
  5 16.801001 0.665850 49.721153 0.074601 -0.699211 -0.711012 0.750200 0.884200 1 5 1.000000
lightside
  4 6.838999 -0.645900 45.000496 0.473985 -0.622881 -0.622381 0.449900 0.730800 1 4 1.000000
  5 16.213551 2.332600 49.602654 -0.120601 0.541502 -0.832004 0.728500 0.876700 1 5 1.000000
  5 16.801001 0.665850 49.721153 0.074601 -0.699211 -0.711012 0.750200 0.884200 1 5 1.000000
lightside
  5 16.801001 0.665850 49.721153 0.074601 -0.699211 -0.711012 0.750200 0.884200 1 5 1.000000
  5 16.213551 2.332600 49.602654 -0.120601 0.541502 -0.832004 0.728500 0.876700 1 5 1.000000
  5 18.821850 3.969300 48.672104 -0.294007 0.365109 -0.883321 0.875500 0.894100 1 5 1.000000
lightside
  5 16.213551 2.332600 49.602654 -0.120601 0.541502 -0.832004 0.728500 0.876700 1 5 1.000000
  5 18.541599 5.785150 53.140205 -0.469289 0.876780 0.104998 0.708000 0.941100 1 5 1.000000
  5 18.821850 3.969300 48.672104 -0.294007 0.365109 -0.883321 0.875500 0.894100 1 5 1.000000
lightside
  2 -4.039100 -0.637600 20.698851 -0.100103 -0.994934 0.009200 0.184500 0.328700 1 2 1.000000
  2 -2.014651 -0.071200 20.313400 0.928964 -0.343687 -0.137495 0.299400 0.327600 1 2 1.000000
  3 -0.534300 -0.445600 34.375252 0.672408 -0.681809 -0.288104 0.278800 0.538000 1 3 1.000000
lightside
  2 -2.014651 -0.071200 20.313400 0.928964 -0.343687 -0.137495 0.299400 0.327600 1 2 1.000000
  3 -0.189300 1.223350 34.174850 0.856080 0.426390 -0.292093 0.300900 0.537400 1 3 1.000000
  3 -0.534300 -0.445600 34.375252 0.672408 -0.681809 -0.288104 0.278800 0.538000 1 3 1.000000
lightside
  2 -2.014651 -0.071200 20.313400 0.928964 -0.343687 -0.137495 0.299400 0.327600 1 2 1.000000
  2 -2.838400 1.967700 20.559650 0.646065 0.757559 -0.093295 0.252000 0.329400 1 2 1.000000
  3 -0.189300 1.223350 34.174850 0.856080 0.426390 -0.292093 0.300900 0.537400 1 3 1.000000
lightside
  2 -2.838400 1.967700 20.559650 0.646065 0.757559 -0.093295 0.252000 0.329400 1 2 1.000000
  3 -1.300750 2.050250 34.975052 -0.095096 0.983858 0.151593 0.226600 0.541600 1 3 1.000000
  3 -0.189300 1.223350 34.174850 0.856080 0.426390 -0.292093 0.300900 0.537400 1 3 1.000000
lightside
  2 -2.838400 1.967700 20.559650 0.646065 0.757559 -0.093295 0.252000 0.329400 1 2 1.000000
  2 -5.231700 2.893450 21.010950 -0.483982 0.858169 0.171194 0.116300 0.330600 1 2 1.000000
  3 -1.300750 2.050250 34.975052 -0.095096 0.983858 0.151593 0.226600 0.541600 1 3 1.000000
lightside
  2 -5.231700 2.893450 21.010950 -0.483982 0.858169 0.171194 0.116300 0.330600 1 2 1.000000
  3 -2.333100 0.896150 35.673851 -0.887366 0.152594 0.435083 0.158600 0.544800 1 3 1.000000
  3 -1.300750 2.050250 34.975052 -0.095096 0.983858 0.151593 0.226600 0.541600 1 3 1.000000
lightside
  2 -5.231700 2.893450 21.010950 -0.483982 0.858169 0.171194 0.116300 0.330600 1 2 1.000000
  2 -6.016250 1.209450 21.147800 -0.944964 -0.248091 0.213292 0.071900 0.330800 1 2 1.000000
  3 -2.333100 0.896150 35.673851 -0.887366 0.152594 0.435083 0.158600 0.544800 1 3 1.000000
lightside
  2 -6.016250 1.209450 21.147800 -0.944964 -0.248091 0.213292 0.071900 0.330800 1 2 1.000000
  3 -1.862550 -0.648400 35.301899 -0.415381 -0.897758 0.146593 0.190700 0.542500 1 3 1.000000
  3 -2.333100 0.896150 35.673851 -0.887366 0.152594 0.435083 0.158600 0.544800 1 3 1.000000
lightside
  2 -6.016250 1.209450 21.147800 -0.944964 -0.248091 0.213292 0.071900 0.330800 1 2 1.000000
  2 -4.039100 -0.637600 20.698851 -0.100103 -0.994934 0.009200 0.184500 0.328700 1 2 1.000000
  3 -1.862550 -0.648400 35.301899 -0.415381 -0.897758 0.146593 0.190700 0.542500 1 3 1.000000
lightside
  2 -4.039100 -0.637600 20.698851 -0.100103 -0.994934 0.009200 0.184500 0.328700 1 2 1.000000
  3 -0.534300 -0.445600 34.375252 0.672408 -0.681809 -0.288104 0.278800 0.538000 1 3 1.000000
  3 -1.862550 -0.648400 35.301899 -0.415381 -0.897758 0.146593 0.190700 0.542500 1 3 1.000000
lightside
  3 -1.862550 -0.648400 35.301899 -0.415381 -0.897758 0.146593 0.190700 0.542500 1 3 1.000000
  3 -0.534300 -0.445600 34.375252 0.672408 -0.681809 -0.288104 0.278800 0.538000 1 3 1.000000
  4 6.838999 -0.645900 45.000496 0.473985 -0.622881 -0.622381 0.449900 0.730800 1 4 1.000000
lightside
  3 -0.534300 -0.445600 34.375252 0.672408 -0.681809 -0.288104 0.278800 0.538000 1 3 1.000000
  4 6.300599 0.793700 44.922245 0.591883 0.473087 -0.652582 0.454700 0.724800 1 4 1.000000
  4 6.838999 -0.645900 45.000496 0.473985 -0.622881 -0.622381 0.449900 0.730800 1 4 1.000000
lightside
  4 6.838999 -0.645900 45.000496 0.473985 -0.622881 -0.622381 0.449900 0.730800 1 4 1.000000
  4 6.300599 0.793700 44.922245 0.591883 0.473087 -0.652582 0.454700 0.724800 1 4 1.000000
  5 16.213551 2.332600 49.602654 -0.120601 0.541502 -0.832004 0.728500 0.876700 1 5 1.000000
lightside
  4 6.300599 0.793700 44.922245 0.591883 0.473087 -0.652582 0.454700 0.724800 1 4 1.000000
  5 15.853050 2.948550 51.412704 -0.521107 0.846412 0.109702 0.649800 0.893000 1 5 1.000000
  5 16.213551 2.332600 49.602654 -0.120601 0.541502 -0.832004 0.728500 0.876700 1 5 1.000000
lightside
  5 16.213551 2.332600 49.602654 -0.120601 0.541502 -0.832004 0.728500 0.876700 1 5 1.000000
  5 15.853050 2.948550 51.412704 -0.521107 0.846412 0.109702 0.649800 0.893000 1 5 1.000000
  5 18.541599 5.785150 53.140205 -0.469289 0.876780 0.104998 0.708000 0.941100 1 5 1.000000
lightside
  5 15.853050 2.948550 51.412704 -0.521107 0.846412 0.109702 0.649800 0.893000 1 5 1.000000
  5 18.861300 2.789100 55.642105 -0.293403 0.081501 0.952508 0.635000 0.972100 1 5 1.000000
  5 18.541599 5.785150 53.140205 -0.469289 0.876780 0.104998 0.708000 0.941100 1 5 1.000000
lightside
  5 18.541599 5.785150 53.140205 -0.469289 0.876780 0.104998 0.708000 0.941100 1 5 1.000000
  5 18.861300 2.789100 55.642105 -0.293403 0.081501 0.952508 0.635000 0.972100 1 5 1.000000
  5 21.942450 4.664250 54.410202 0.196899 0.622196 0.757695 0.813500 0.992300 1 5 1.000000
lightside
  5 18.861300 2.789100 55.642105 -0.293403 0.081501 0.952508 0.635000 0.972100 1 5 1.000000
  5 23.241602 2.688150 53.940502 0.555905 -0.407504 0.724507 0.887100 1.001500 1 5 1.000000
  5 21.942450 4.664250 54.410202 0.196899 0.622196 0.757695 0.813500 0.992300 1 5 1.000000
lightside
  5 18.861300 2.789100 55.642105 -0.293403 0.081501 0.952508 0.635000 0.972100 1 5 1.000000
  5 20.484600 -0.270700 53.707054 0.184404 -0.875520 0.446610 0.773800 0.968400 1 5 1.000000
  5 23.241602 2.688150 53.940502 0.555905 -0.407504 0.724507 0.887100 1.001500 1 5 1.000000
lightside
  5 20.484600 -0.270700 53.707054 0.184404 -0.875520 0.446610 0.773800 0.968400 1 5 1.000000
  5 23.048851 2.244200 50.724205 0.788795 -0.556397 -0.261198 0.990300 0.963300 1 5 1.000000
  5 23.241602 2.688150 53.940502 0.555905 -0.407504 0.724507 0.887100 1.001500 1 5 1.000000
lightside
  5 20.484600 -0.270700 53.707054 0.184404 -0.875520 0.446610 0.773800 0.968400 1 5 1.000000
  5 21.228849 0.277100 49.484955 0.273898 -0.689795 -0.670196 0.953200 0.929200 1 5 1.000000
  5 23.048851 2.244200 50.724205 0.788795 -0.556397 -0.261198 0.990300 0.963300 1 5 1.000000
lightside
  5 21.228849 0.277100 49.484955 0.273898 -0.689795 -0.670196 0.953200 0.929200 1 5 1.000000
  5 21.097900 4.470600 48.893353 0.253510 0.216309 -0.942838 0.968000 0.921200 1 5 1.000000
  5 23.048851 2.244200 50.724205 0.788795 -0.556397 -0.261198 0.990300 0.963300 1 5 1.000000
lightside
  5 21.228849 0.277100 49.484955 0.273898 -0.689795 -0.670196 0.953200 0.929200 1 5 1.000000
  5 18.821850 3.969300 48.672104 -0.294007 0.365109 -0.883321 0.875500 0.894100 1 5 1.000000
  5 21.097900 4.470600 48.893353 0.253510 0.216309 -0.942838 0.968000 0.921200 1 5 1.000000
lightside
  5 18.821850 3.969300 48.672104 -0.294007 0.365109 -0.883321 0.875500 0.894100 1 5 1.000000
  5 20.343750 5.950700 50.848553 -0.153700 0.947999 -0.278700 0.866900 0.935100 1 5 1.000000
  5 21.097900 4.470600 48.893353 0.253510 0.216309 -0.942838 0.968000 0.921200 1 5 1.000000
lightside
  5 18.821850 3.969300 48.672104 -0.294007 0.365109 -0.883321 0.875500 0.894100 1 5 1.000000
  5 18.541599 5.785150 53.140205 -0.469289 0.876780 0.104998 0.708000 0.941100 1 5 1.000000
  5 20.343750 5.950700 50.848553 -0.153700 0.947999 -0.278700 0.866900 0.935100 1 5 1.000000
lightside
  5 18.541599 5.785150 53.140205 -0.469289 0.876780 0.104998 0.708000 0.941100 1 5 1.000000
  5 21.942450 4.664250 54.410202 0.196899 0.622196 0.757695 0.813500 0.992300 1 5 1.000000
  5 20.343750 5.950700 50.848553 -0.153700 0.947999 -0.278700 0.866900 0.935100 1 5 1.000000
end
