// Created by Crowbar 0.68
version 1
nodes
  0 "Bone01" -1
  1 "Bone02" 0
  2 "Bone03" 1
  3 "Bone04" 2
  4 "Bone05" 3
  5 "Bone06" 4
end
skeleton
  time 0
    0 -4.121220 0.002032 1.263682 1.570796 0.008722 0.000000
    1 0.000000 0.000000 0.000000 0.000000 0.000000 0.000000
    2 -3.728465 -0.972283 -0.000001 0.000000 0.000000 -0.130834
    3 0.637726 0.650372 0.000000 0.000000 0.000000 -0.183182
    4 -1.758291 11.072708 -0.000001 0.000000 0.000000 0.480950
    5 5.425897 10.300008 -0.000001 0.000000 0.000000 -0.043608
  time 1
    0 -4.121220 0.002032 1.263682 1.570796 0.008722 0.000000
    1 0.000000 0.000000 0.000000 0.000000 0.000000 0.000000
    2 -3.728465 -0.972283 -0.000001 0.000000 0.000000 -0.130834
    3 0.637726 0.650372 0.000000 0.000000 0.000000 -0.183182
    4 -1.758291 11.072708 -0.000001 0.000000 0.000000 0.480950
    5 5.425897 10.300008 -0.000001 0.000000 0.000000 -0.043608
  time 2
    0 -4.121220 0.002032 1.263682 1.570796 0.008722 0.000000
    1 0.000000 0.000000 0.000000 0.000000 0.000000 0.000000
    2 -3.728465 -0.972283 -0.000001 0.000000 0.000000 -0.130834
    3 0.637726 0.650372 0.000000 0.000000 0.000000 -0.183182
    4 -1.758291 11.072708 -0.000001 0.000000 0.000000 0.480950
    5 5.425897 10.300008 -0.000001 0.000000 0.000000 -0.043608
end
