// Created by Crowbar 0.68
version 1
nodes
  0 "Bone01" -1
  1 "Bone02" 0
  2 "Bone03" 1
  3 "Bone04" 2
  4 "Bone05" 3
  5 "Bone06" 4
end
skeleton
  time 0
    0 -4.121220 0.002032 1.263682 1.570796 0.008722 0.000000
    1 0.000000 0.000000 0.000000 0.000000 0.000000 0.000000
    2 0.091964 19.864290 -0.000001 0.000000 0.000000 -0.130834
    3 0.551786 14.162503 0.000000 0.000000 0.000000 -0.244222
    4 3.034824 13.150896 -0.000001 0.000000 0.000000 -0.244221
    5 5.425897 10.300008 -0.000001 0.000000 0.000000 -0.043608
  time 1
    0 -4.121220 0.002032 1.263682 1.570796 0.008722 0.000000
    1 0.000000 0.000000 0.000000 0.000000 0.000000 0.000000
    2 -0.036946 17.653285 -0.000001 0.000000 0.000000 -0.128665
    3 0.376000 13.053094 0.000000 0.000000 0.000000 -0.240855
    4 2.394179 12.432124 -0.000001 0.000000 0.000000 -0.172620
    5 5.425897 10.300008 -0.000001 0.000000 0.000000 -0.045701
  time 2
    0 -4.121220 0.002032 1.263682 1.570796 0.008722 0.000000
    1 0.000000 0.000000 0.000000 0.000000 0.000000 0.000000
    2 -0.173669 15.563378 -0.000001 0.000000 0.000000 -0.126412
    3 0.215838 11.986656 0.000000 0.000000 0.000000 -0.237194
    4 1.796505 11.779760 -0.000001 0.000000 0.000000 -0.099368
    5 5.425897 10.300008 -0.000001 0.000000 0.000000 -0.047793
  time 3
    0 -4.121220 0.002032 1.263682 1.570796 0.008722 0.000000
    1 0.000000 0.000000 0.000000 0.000000 0.000000 0.000000
    2 -0.322111 13.598474 -0.000001 0.000000 0.000000 -0.124099
    3 0.075209 10.963187 0.000000 0.000000 0.000000 -0.233312
    4 1.237894 11.197711 -0.000001 0.000000 0.000000 -0.025104
    5 5.425897 10.300008 -0.000001 0.000000 0.000000 -0.049886
  time 4
    0 -4.121220 0.002032 1.263682 1.570796 0.008722 0.000000
    1 0.000000 0.000000 0.000000 0.000000 0.000000 0.000000
    2 -0.474459 11.754668 -0.000001 0.000000 0.000000 -0.121738
    3 -0.041982 9.986595 0.000000 0.000000 0.000000 -0.229234
    4 0.726160 10.678164 -0.000001 0.000000 0.000000 0.049586
    5 5.425897 10.300008 -0.000001 0.000000 0.000000 -0.051979
  time 5
    0 -4.121220 0.002032 1.263682 1.570796 0.008722 0.000000
    1 0.000000 0.000000 0.000000 0.000000 0.000000 0.000000
    2 -0.634620 10.039772 -0.000001 0.000000 0.000000 -0.119305
    3 -0.139641 9.052972 0.000000 0.000000 0.000000 -0.225047
    4 0.257395 10.232838 -0.000001 0.000000 0.000000 0.124089
    5 5.425897 10.300008 -0.000001 0.000000 0.000000 -0.054072
  time 6
    0 -4.121220 0.002032 1.263682 1.570796 0.008722 0.000000
    1 0.000000 0.000000 0.000000 0.000000 0.000000 0.000000
    2 -0.806501 8.445973 -0.000001 0.000000 0.000000 -0.116824
    3 -0.217769 8.162320 0.000000 0.000000 0.000000 -0.220786
    4 -0.168399 9.850014 -0.000001 0.000000 0.000000 0.197741
    5 5.425897 10.300008 -0.000001 0.000000 0.000000 -0.056164
  time 7
    0 -4.121220 0.002032 1.263682 1.570796 0.008722 0.000000
    1 0.000000 0.000000 0.000000 0.000000 0.000000 0.000000
    2 -0.982287 6.977178 -0.000001 0.000000 0.000000 -0.114295
    3 -0.272458 7.318544 0.000000 0.000000 0.000000 -0.216500
    4 -0.551223 9.537505 -0.000001 0.000000 0.000000 0.269981
    5 5.425897 10.300008 -0.000001 0.000000 0.000000 -0.058257
  time 8
    0 -4.121220 0.002032 1.263682 1.570796 0.008722 0.000000
    1 0.000000 0.000000 0.000000 0.000000 0.000000 0.000000
    2 -1.169793 5.629481 -0.000001 0.000000 0.000000 -0.111731
    3 -0.311521 6.517739 0.000000 0.000000 0.000000 -0.212251
    4 -0.887171 9.291403 -0.000001 0.000000 0.000000 0.340144
    5 5.425897 10.300008 -0.000001 0.000000 0.000000 -0.060350
  time 9
    0 -4.121220 0.002032 1.263682 1.570796 0.008722 0.000000
    1 0.000000 0.000000 0.000000 0.000000 0.000000 0.000000
    2 -1.361205 4.410694 -0.000001 0.000000 0.000000 -0.109106
    3 -0.327147 5.763809 0.000000 0.000000 0.000000 -0.208100
    4 -1.184055 9.115617 -0.000001 0.000000 0.000000 0.407644
    5 5.425897 10.300008 -0.000001 0.000000 0.000000 -0.062443
  time 10
    0 -4.121220 0.002032 1.263682 1.570796 0.008722 0.000000
    1 0.000000 0.000000 0.000000 0.000000 0.000000 0.000000
    2 -1.564336 3.313004 -0.000001 0.000000 0.000000 -0.106457
    3 -0.323241 5.052850 0.000000 0.000000 0.000000 -0.204084
    4 -1.437969 9.006238 -0.000001 0.000000 0.000000 0.471870
    5 5.425897 10.300008 -0.000001 0.000000 0.000000 -0.064535
  time 11
    0 -4.121220 0.002032 1.263682 1.570796 0.008722 0.000000
    1 0.000000 0.000000 0.000000 0.000000 0.000000 0.000000
    2 -1.771374 2.340318 -0.000001 0.000000 0.000000 -0.103761
    3 -0.295896 4.384861 0.000000 0.000000 0.000000 -0.200264
    4 -1.645006 8.963268 -0.000001 0.000000 0.000000 0.532181
    5 5.425897 10.300008 -0.000001 0.000000 0.000000 -0.066628
  time 12
    0 -4.121220 0.002032 1.263682 1.570796 0.008722 0.000000
    1 0.000000 0.000000 0.000000 0.000000 0.000000 0.000000
    2 -1.990130 1.492636 -0.000001 0.000000 0.000000 -0.101040
    3 -0.249020 3.763748 0.000000 0.000000 0.000000 -0.196700
    4 -1.809074 8.990613 -0.000001 0.000000 0.000000 0.581122
    5 5.425897 10.300008 -0.000001 0.000000 0.000000 -0.068721
  time 13
    0 -4.121220 0.002032 1.263682 1.570796 0.008722 0.000000
    1 0.000000 0.000000 0.000000 0.000000 0.000000 0.000000
    2 -2.216700 0.766051 -0.000001 0.000000 0.000000 -0.098284
    3 -0.186518 3.185606 0.000000 0.000000 0.000000 -0.193431
    4 -1.934078 9.084366 -0.000001 0.000000 0.000000 0.612515
    5 5.425897 10.300008 -0.000001 0.000000 0.000000 -0.070814
  time 14
    0 -4.121220 0.002032 1.263682 1.570796 0.008722 0.000000
    1 0.000000 0.000000 0.000000 0.000000 0.000000 0.000000
    2 -2.447176 0.168377 -0.000001 0.000000 0.000000 -0.095503
    3 -0.096671 2.650433 0.000000 0.000000 0.000000 -0.190517
    4 -2.012205 9.244527 -0.000001 0.000000 0.000000 0.627773
    5 5.425897 10.300008 -0.000001 0.000000 0.000000 -0.072906
  time 15
    0 -4.121220 0.002032 1.263682 1.570796 0.008722 0.000000
    1 0.000000 0.000000 0.000000 0.000000 0.000000 0.000000
    2 -2.689371 -0.308200 -0.000001 0.000000 0.000000 -0.092699
    3 0.008801 2.162137 0.000000 0.000000 0.000000 -0.188019
    4 -2.047362 9.475003 -0.000001 0.000000 0.000000 0.628252
    5 5.425897 10.300008 -0.000001 0.000000 0.000000 -0.074999
  time 16
    0 -4.121220 0.002032 1.263682 1.570796 0.008722 0.000000
    1 0.000000 0.000000 0.000000 0.000000 0.000000 0.000000
    2 -2.935472 -0.659774 -0.000001 0.000000 0.000000 -0.089883
    3 0.137711 1.716811 0.000000 0.000000 0.000000 -0.185986
    4 -2.039550 9.771887 -0.000001 0.000000 0.000000 0.603036
    5 5.425897 10.300008 -0.000001 0.000000 0.000000 -0.077092
  time 17
    0 -4.121220 0.002032 1.263682 1.570796 0.008722 0.000000
    1 0.000000 0.000000 0.000000 0.000000 0.000000 0.000000
    2 -3.193292 -0.890249 -0.000001 0.000000 0.000000 -0.087042
    3 0.282247 1.318361 0.000000 0.000000 0.000000 -0.184456
    4 -1.988767 10.139085 -0.000001 0.000000 0.000000 0.555133
    5 5.425897 10.300008 -0.000001 0.000000 0.000000 -0.079185
  time 18
    0 -4.121220 0.002032 1.263682 1.570796 0.008722 0.000000
    1 0.000000 0.000000 0.000000 0.000000 0.000000 0.000000
    2 -3.458925 -0.991815 -0.000001 0.000000 0.000000 -0.084202
    3 0.454127 0.962882 0.000000 0.000000 0.000000 -0.183501
    4 -1.895014 10.572692 -0.000001 0.000000 0.000000 0.506964
    5 5.425897 10.300008 -0.000001 0.000000 0.000000 -0.081277
  time 19
    0 -4.121220 0.002032 1.263682 1.570796 0.008722 0.000000
    1 0.000000 0.000000 0.000000 0.000000 0.000000 0.000000
    2 -3.728465 -0.972283 -0.000001 0.000000 0.000000 -0.081350
    3 0.637726 0.650372 0.000000 0.000000 0.000000 -0.183182
    4 -1.758291 11.072708 -0.000001 0.000000 0.000000 0.480950
    5 5.425897 10.300008 -0.000001 0.000000 0.000000 -0.083370
end
