// Created by Crowbar 0.68

$modelname "antlion_grub.mdl"

$bodygroup "studio"
{
	studio "grub_reference.smd"
}


$contents "solid"

$illumposition 0.681 2.994 5.807

$eyeposition 0 0 4

$cdmaterials "models\antlion_grub\"

$cbox 0 0 0 0 0 0

$bbox -23.425 -10.231 -0.853 17.437 11.593 12.467

$definebone "Grub_body2" "" -0.02003 1.623815 6.388797 0 0 0 0 0 0 0 0 0
$definebone "Grub_body3" "Grub_body2" 0.02003 4.778408 -0.229358 0 0 0 0 0 0 0 0 0
$definebone "Grub_body4" "Grub_body3" 0 6.818245 -0.688073 0 0 0 0 0 0 0 0 0
$definebone "Grub_body1" "Grub_body2" 0.02003 -5.056679 -0.275229 0 0 0 0 0 0 0 0 0
$definebone "Grub_Lleg3" "Grub_body1" 7.278677 -0.297133 -5.307796 0.000019 108.999984 90.000016 0 0 0 0 0 0
$definebone "Grub_Lleg2" "Grub_body1" 5.419727 -6.961226 -5.307796 0 90.999963 89.999982 0 0 0 0 0 0
$definebone "Grub_Lleg1" "Grub_body1" 1.744062 -10.518919 -5.307796 0 76.999967 89.999982 0 0 0 0 0 0
$definebone "Grub_Rleg1" "Grub_body1" -1.655354 -10.518919 -6.064207 0 102.99999 -89.999982 0 0 0 0 0 0
$definebone "Grub_Rleg2" "Grub_body1" -5.303473 -6.961226 -6.064207 0 89.000001 -89.999982 0 0 0 0 0 0
$definebone "Grub_Rleg3" "Grub_body1" -7.13229 -0.297133 -5.307796 0 -109.000004 -89.999982 0 0 0 0 0 0
$definebone "Grub_head" "Grub_body1" 0.208053 -9.951975 -2.522932 0 0 0 0 0 0 0 0 0

$animation "a_idle" "antlion_grub_anims\idle.smd" {
	fps 30
	loop
}

$animation "a_idle2" "antlion_grub_anims\idle2.smd" {
	fps 30
	loop
}

$animation "a_walk" "antlion_grub_anims\walk.smd" {
	fps 15
	loop
	walkframe 34 LX LY
}

$animation "a_run" "antlion_grub_anims\run.smd" {
	fps 30
	loop
	walkframe 34 LX LY
}

$animation "a_alert" "antlion_grub_anims\alert.smd" {
	fps 30
	loop
}

$animation "a_pain" "antlion_grub_anims\pain.smd" {
	fps 30
	loop
}

$animation "a_heal" "antlion_grub_anims\heal.smd" {
	fps 5
	loop
}

$animation "a_die" "antlion_grub_anims\die.smd" {
	fps 15
}

$animation "a_attack" "antlion_grub_anims\attack.smd" {
	fps 30
	loop
}

$sequence "idle" {
	"a_idle"
	activity "ACT_IDLE" 1
	fadein 0.2
	fadeout 0.2
}

$sequence "idle2" {
	"a_idle2"
	activity "ACT_IDLE" 1
	fadein 0.2
	fadeout 0.2
}

$sequence "walk" {
	"a_walk"
	activity "ACT_WALK" 1
	{ event 11 0 "" }
	{ event 12 13 "" }
	fadein 0.2
	fadeout 0.2
}

$sequence "run" {
	"a_run"
	activity "ACT_RUN" 1
	{ event 11 0 "" }
	{ event 12 13 "" }
	fadein 0.2
	fadeout 0.2
}

$sequence "alert" {
	"a_alert"
	activity "ACT_ANTLIONGRUB_SQUIRM" 1
	fadein 0.2
	fadeout 0.2
}

$sequence "pain" {
	"a_pain"
	activity "ACT_SMALL_FLINCH" 1
	fadein 0.2
	fadeout 0.2
}

$sequence "heal" {
	"a_heal"
	activity "ACT_ANTLIONGRUB_HEAL" 1
	fadein 0.2
	fadeout 0.2
}

$sequence "die" {
	"a_die"
	activity "ACT_DIESIMPLE" 1
	fadein 0.2
	fadeout 0.2
}

$sequence "attack" {
	"a_attack"
	activity "ACT_MELEE_ATTACK1" 1
	fadein 0.2
	fadeout 0.2
}

