// Created by Crowbar 0.68
version 1
nodes
  0 "ValveBiped.Bip01_Pelvis" -1
  1 "ValveBiped.Bip01_Spine" 0
  2 "ValveBiped.Bip01_Spine1" 1
  3 "ValveBiped.Bip01_Spine2" 2
  4 "ValveBiped.Bip01_Spine4" 3
  5 "ValveBiped.Bip01_Neck1" 4
  6 "ValveBiped.Bip01_Head1" 5
  7 "ValveBiped.forward" 6
  8 "ValveBiped.Bip01_L_Clavicle" 4
  9 "ValveBiped.Bip01_L_UpperArm" 8
  10 "ValveBiped.Bip01_L_Forearm" 9
  11 "ValveBiped.Bip01_L_Hand" 10
  12 "ValveBiped.Anim_Attachment_LH" 11
  13 "ValveBiped.Bip01_R_Clavicle" 4
  14 "ValveBiped.Bip01_R_UpperArm" 13
  15 "ValveBiped.Bip01_R_Forearm" 14
  16 "ValveBiped.Bip01_R_Hand" 15
  17 "ValveBiped.Anim_Attachment_RH" 16
  18 "ValveBiped.Bip01_L_Thigh" 0
  19 "ValveBiped.Bip01_L_Calf" 18
  20 "ValveBiped.Bip01_L_Foot" 19
  21 "ValveBiped.Bip01_R_Thigh" 0
  22 "ValveBiped.Bip01_R_Calf" 21
  23 "ValveBiped.Bip01_R_Foot" 22
  24 "ValveBiped.Bip01_L_Finger4" 11
  25 "ValveBiped.Bip01_L_Finger41" 24
  26 "ValveBiped.Bip01_L_Finger42" 25
  27 "ValveBiped.Bip01_L_Finger3" 11
  28 "ValveBiped.Bip01_L_Finger31" 27
  29 "ValveBiped.Bip01_L_Finger32" 28
  30 "ValveBiped.Bip01_L_Finger2" 11
  31 "ValveBiped.Bip01_L_Finger21" 30
  32 "ValveBiped.Bip01_L_Finger22" 31
  33 "ValveBiped.Bip01_L_Finger1" 11
  34 "ValveBiped.Bip01_L_Finger11" 33
  35 "ValveBiped.Bip01_L_Finger12" 34
  36 "ValveBiped.Bip01_L_Finger0" 11
  37 "ValveBiped.Bip01_L_Finger01" 36
  38 "ValveBiped.Bip01_L_Finger02" 37
  39 "ValveBiped.Bip01_L_Ulna" 10
  40 "ValveBiped.Bip01_L_Wrist" 10
  41 "ValveBiped.Bip01_L_Bicep" 9
  42 "ValveBiped.Bip01_L_Shoulder" 9
  43 "ValveBiped.Bip01_L_Trapezius" 8
  44 "ValveBiped.Bip01_R_Finger4" 16
  45 "ValveBiped.Bip01_R_Finger41" 44
  46 "ValveBiped.Bip01_R_Finger42" 45
  47 "ValveBiped.Bip01_R_Finger3" 16
  48 "ValveBiped.Bip01_R_Finger31" 47
  49 "ValveBiped.Bip01_R_Finger32" 48
  50 "ValveBiped.Bip01_R_Finger2" 16
  51 "ValveBiped.Bip01_R_Finger21" 50
  52 "ValveBiped.Bip01_R_Finger22" 51
  53 "ValveBiped.Bip01_R_Finger1" 16
  54 "ValveBiped.Bip01_R_Finger11" 53
  55 "ValveBiped.Bip01_R_Finger12" 54
  56 "ValveBiped.Bip01_R_Finger0" 16
  57 "ValveBiped.Bip01_R_Finger01" 56
  58 "ValveBiped.Bip01_R_Finger02" 57
  59 "ValveBiped.Bip01_R_Ulna" 15
  60 "ValveBiped.Bip01_R_Wrist" 15
  61 "ValveBiped.Bip01_R_Shoulder" 14
  62 "ValveBiped.Bip01_R_Bicep" 14
  63 "ValveBiped.Bip01_R_Trapezius" 13
  64 "ValveBiped.Bip01_L_Latt" 3
  65 "ValveBiped.Bip01_L_Pectoral" 3
  66 "ValveBiped.Bip01_R_Pectoral" 3
  67 "ValveBiped.Bip01_R_Latt" 3
  68 "ValveBiped.Bip01_L_Toe0" 20
  69 "ValveBiped.Bip01_R_Toe0" 23
end
skeleton
  time 0
    0 -0.000005 -0.788086 37.906250 1.570674 0.000061 -0.000061
    1 0.000005 4.212784 -1.689857 1.570796 -0.027977 1.570796
    2 3.837408 0.000000 0.000000 0.000000 0.000000 -0.112614
    3 3.617872 0.000000 0.000000 0.000000 0.000000 -0.012635
    4 7.539783 0.000000 0.000000 0.000000 0.000000 0.155813
    5 3.178296 0.000000 0.000000 3.141590 0.000000 0.224127
    6 2.970273 -0.000001 0.000000 0.000000 0.000000 0.109880
    7 0.000001 0.000000 0.000000 -1.570796 0.000000 -1.326450
    8 2.023707 0.907460 0.852579 1.638357 -1.334136 2.900115
    9 4.983668 -0.000006 -0.000001 -1.519239 0.241014 -0.753622
    10 11.123063 -0.000001 -0.000005 0.000000 0.000000 -0.203544
    11 11.208311 -0.000002 -0.000008 1.505416 -0.038605 0.036303
    12 2.676090 -1.712449 0.000000 1.570797 0.000000 1.570797
    13 2.023711 0.907462 -0.852528 -1.710117 1.334139 2.900106
    14 4.983665 -0.000004 0.000000 1.572515 -0.191592 -0.765064
    15 11.123055 0.000001 0.000010 0.000000 0.000000 -0.203508
    16 11.208299 -0.000001 0.000008 -1.496970 0.038596 0.036303
    17 2.676092 -1.712447 0.000000 -1.570796 0.000000 -1.570795
    18 3.984014 -0.000004 -0.000003 -1.570796 0.051767 -1.611082
    19 15.940014 0.000000 0.000000 0.000000 0.000000 0.051654
    20 17.709562 0.000000 0.000000 0.017106 -0.070055 -1.175216
    21 -3.984013 0.000007 0.000007 -1.570796 0.051767 -1.530513
    22 15.940012 0.000000 0.000000 0.000000 0.000000 0.051654
    23 17.709553 0.000000 0.000000 -0.006396 0.070030 -1.178168
    24 3.549247 0.198817 -1.489469 -0.315312 0.227351 -0.148551
    25 1.218999 -0.000003 0.000001 -0.004606 0.097462 -0.488673
    26 0.680000 0.000001 0.000000 0.011347 0.086929 -0.295053
    27 3.698007 0.267550 -0.728978 -0.138758 0.151755 -0.263420
    28 1.749003 -0.000004 0.000000 0.000193 0.027032 -0.312329
    29 0.960001 -0.000007 0.000000 0.002326 0.039385 -0.359998
    30 3.768502 0.152543 0.071385 0.087975 0.028306 -0.125561
    31 2.038005 0.000002 0.000000 0.001507 -0.004323 -0.697532
    32 1.066996 0.000006 0.000000 -0.001214 -0.005662 -0.221151
    33 3.783923 -0.017266 0.794555 0.338407 -0.147751 -0.066264
    34 1.629000 -0.000006 0.000001 0.018822 -0.066639 -0.590930
    35 0.955999 0.000002 0.000000 0.000005 -0.069664 -0.292108
    36 1.258964 -0.297986 1.252591 -1.289008 -0.530146 -0.654404
    37 1.393002 0.000004 0.000000 0.000031 0.001961 0.218206
    38 1.100001 -0.000001 -0.000003 -0.000041 0.013123 -0.024904
    39 5.604148 0.000000 -0.000006 -0.030876 0.000000 0.000000
    40 11.208295 -0.000004 -0.000012 -0.057543 0.000000 0.000000
    41 5.560003 -0.700002 -0.500004 0.000000 0.000000 0.000000
    42 1.500001 0.000000 0.000000 0.000000 0.000000 0.000000
    43 4.271699 -0.000001 -0.000001 0.000000 0.000000 0.000000
    44 3.549273 0.211405 1.487673 0.315198 -0.227317 -0.149652
    45 1.218998 -0.000005 0.000004 0.004606 -0.097462 -0.488673
    46 0.679999 -0.000001 0.000000 -0.011347 -0.086929 -0.295053
    47 3.698025 0.273707 0.726626 0.138771 -0.151764 -0.264288
    48 1.748998 -0.000006 0.000002 -0.000193 -0.027032 -0.312329
    49 0.959998 -0.000003 0.000000 -0.002326 -0.039385 -0.359998
    50 3.768500 0.151950 -0.072740 -0.087975 -0.028306 -0.125561
    51 2.038002 -0.000005 0.000000 -0.001507 0.004323 -0.697532
    52 1.066996 -0.000001 0.000000 0.001214 0.005662 -0.221151
    53 3.783905 -0.023955 -0.794452 -0.338422 0.147792 -0.065652
    54 1.628999 0.000003 -0.000001 -0.018822 0.066639 -0.590930
    55 0.956000 -0.000003 0.000000 -0.000005 0.069664 -0.292108
    56 1.258940 -0.308547 -1.250054 1.289008 0.530146 -0.654404
    57 1.392999 0.000000 -0.000002 -0.000031 -0.001961 0.218206
    58 1.100001 0.000002 0.000003 0.000041 -0.013123 -0.024904
    59 5.604146 -0.000001 -0.000002 0.034930 -0.000001 0.000000
    60 11.208297 -0.000001 0.000004 0.065171 -0.000001 0.000000
    61 1.499997 0.000000 0.000000 0.000000 0.000000 0.000000
    62 5.560003 -0.700000 0.500008 0.000000 0.000000 0.000000
    63 4.271698 -0.000003 0.000000 0.000000 0.000000 0.000000
    64 2.132026 1.532023 5.000000 0.000000 0.000000 0.000000
    65 2.000002 4.938048 2.578000 0.000000 0.000000 0.000000
    66 2.000008 4.938046 -2.578000 0.000000 0.000000 0.000000
    67 2.132023 1.532021 -5.000000 0.000000 0.000000 0.000000
    68 6.203997 0.000001 0.000000 -0.011146 0.000934 -0.500515
    69 6.203991 0.000003 0.000000 -0.078650 -0.006185 -0.498943
end
