// Created by Crowbar 0.34.0.0
version 1
nodes
  0 "ValveBiped.Bip01_Pelvis" -1
  1 "ValveBiped.Bip01_Spine" 0
  2 "ValveBiped.Bip01_Spine1" 1
  3 "ValveBiped.Bip01_Spine2" 2
  4 "ValveBiped.Bip01_Spine4" 3
  5 "ValveBiped.Bip01_Neck1" 4
  6 "ValveBiped.Bip01_Head1" 5
  7 "ValveBiped.Bip01_R_Clavicle" 4
  8 "ValveBiped.Bip01_R_UpperArm" 7
  9 "ValveBiped.Bip01_R_Forearm" 8
  10 "ValveBiped.Bip01_R_Hand" 9
  11 "ValveBiped.Bip01_R_Finger2" 10
  12 "ValveBiped.Bip01_L_Clavicle" 4
  13 "ValveBiped.Bip01_L_UpperArm" 12
  14 "ValveBiped.Bip01_L_Forearm" 13
  15 "ValveBiped.Bip01_L_Hand" 14
  16 "ValveBiped.Bip01_L_Finger2" 15
  17 "ValveBiped.Bip01_R_Thigh" 0
  18 "ValveBiped.Bip01_R_Calf" 17
  19 "ValveBiped.Bip01_R_Foot" 18
  20 "ValveBiped.Bip01_L_Thigh" 0
  21 "ValveBiped.Bip01_L_Calf" 20
  22 "ValveBiped.Bip01_L_Foot" 21
  23 "ValveBiped.HC_Body_Bone" 4
  24 "ValveBiped.HC_Head_Bone" 23
  25 "ValveBiped.HC_ThighL_Bone" 23
  26 "ValveBiped.HC_CalfL_Bone" 25
  27 "ValveBiped.HC_ThighR_Bone" 23
  28 "ValveBiped.HC_CalfR_Bone" 27
  29 "ValveBiped.HC_UpperArmL_Bone" 23
  30 "ValveBiped.HC_ForeArmL_Bone" 29
  31 "ValveBiped.HC_UpperArmR_Bone" 23
  32 "ValveBiped.HC_ForeArmR_Bone" 31
end
skeleton
  time 0
    0 -0.002346 -0.531266 38.566914 1.570796 0.000000 0.000000
    1 0.000000 3.345132 -2.981898 1.570796 0.086285 1.570796
    2 4.015379 0.000000 0.000000 0.000000 0.000000 -0.029235
    3 3.520295 0.000000 0.000000 0.000000 0.000000 0.100327
    4 8.941010 0.000000 0.000000 0.000000 0.000000 0.194095
    5 3.306362 0.000001 0.000000 3.141590 0.000000 0.400488
    6 3.594190 0.000006 0.000000 0.000000 -0.000001 0.406579
    7 2.036093 0.997455 -1.937661 -1.668472 1.286515 2.942956
    8 6.028141 0.000001 0.000000 1.639474 -0.008073 -0.586837
    9 11.692556 0.000000 0.000012 0.000000 0.000000 -0.060372
    10 11.481692 0.000000 0.000013 -1.564931 0.106605 0.044184
    11 3.881341 -0.046461 -0.429370 -0.085907 -0.026415 -0.587690
    12 2.036098 0.997455 1.937661 1.596631 -1.286515 2.942968
    13 6.028142 0.000001 0.000000 -1.579607 0.047812 -0.585163
    14 11.692553 0.000000 -0.000004 0.000000 0.000000 -0.060372
    15 11.481669 0.000000 -0.000037 1.573182 -0.106602 0.044184
    16 3.881369 -0.043129 0.427602 0.085909 0.021838 -0.587857
    17 -3.890447 0.000000 0.000000 -1.570796 0.051839 -1.576018
    18 17.848167 0.000000 0.000000 0.000000 0.000000 0.034188
    19 16.525246 0.000000 0.000000 0.038609 0.040781 -1.071639
    20 3.890447 0.000000 0.000000 -1.570796 0.051839 -1.565574
    21 17.848173 0.000000 0.000000 0.000000 0.000000 0.034200
    22 16.525240 0.000000 0.000000 -0.027915 -0.040781 -1.071638
    23 7.991548 1.665787 2.804528 2.703516 -0.158578 1.262175
    24 3.738596 -2.965122 -0.136397 0.215984 -0.078540 -0.078540
    25 -9.104419 0.438528 -6.643023 -2.851787 -0.050748 -0.919910
    26 6.098813 -0.000004 0.000000 0.000000 0.000000 0.000000
    27 -7.019177 -5.213706 4.114695 3.033069 0.386917 -1.227442
    28 6.098812 -0.000002 0.000000 0.000000 0.000000 -2.270475
    29 2.630714 -3.155083 -5.016711 0.032818 0.297699 -0.502588
    30 8.255679 0.000002 0.000000 0.000000 0.000000 -2.112525
    31 2.630416 -3.155084 5.016867 -2.297150 -0.072314 -1.106009
    32 8.255678 0.000005 0.000004 0.000000 0.000000 1.931636
end
triangles
end
