// Created by Crowbar 0.68
version 1
nodes
  0 "ValveBiped.Bip01" -1
  1 "ValveBiped.Bip01_Pelvis" 0
  2 "ValveBiped.Bip01_L_Thigh" 1
  3 "ValveBiped.Bip01_L_Calf" 2
  4 "ValveBiped.Bip01_L_Foot" 3
  5 "ValveBiped.Bip01_L_Toe0" 4
  6 "ValveBiped.Bip01_R_Thigh" 1
  7 "ValveBiped.Bip01_R_Calf" 6
  8 "ValveBiped.Bip01_R_Foot" 7
  9 "ValveBiped.Bip01_R_Toe0" 8
  10 "ValveBiped.Bip01_Spine" 0
  11 "ValveBiped.Bip01_Spine1" 10
  12 "ValveBiped.Bip01_Spine2" 11
  13 "ValveBiped.Bip01_Spine4" 12
  14 "ValveBiped.Bip01_Head1" 13
  15 "ValveBiped.Bip01_L_Clavicle" 13
  16 "ValveBiped.Bip01_L_UpperArm" 15
  17 "ValveBiped.Bip01_L_Forearm" 16
  18 "ValveBiped.Bip01_L_Hand" 17
  19 "ValveBiped.Bip01_L_Finger3" 18
  20 "ValveBiped.Bip01_L_Finger31" 19
  21 "ValveBiped.Bip01_L_Finger32" 20
  22 "ValveBiped.Bip01_L_Finger1" 18
  23 "ValveBiped.Bip01_L_Finger11" 22
  24 "ValveBiped.Bip01_L_Finger12" 23
  25 "ValveBiped.Bip01_L_Finger2" 18
  26 "ValveBiped.Bip01_L_Finger21" 25
  27 "ValveBiped.Bip01_L_Finger22" 26
  28 "ValveBiped.Bip01_R_Clavicle" 13
  29 "ValveBiped.Bip01_R_UpperArm" 28
  30 "ValveBiped.Bip01_R_Forearm" 29
  31 "ValveBiped.Bip01_R_Hand" 30
  32 "ValveBiped.Bip01_R_Finger3" 31
  33 "ValveBiped.Bip01_R_Finger31" 32
  34 "ValveBiped.Bip01_R_Finger32" 33
  35 "ValveBiped.Bip01_R_Finger2" 31
  36 "ValveBiped.Bip01_R_Finger21" 35
  37 "ValveBiped.Bip01_R_Finger22" 36
  38 "ValveBiped.Bip01_R_Finger1" 31
  39 "ValveBiped.Bip01_R_Finger11" 38
  40 "ValveBiped.Bip01_R_Finger12" 39
  41 "ValveBiped.HC_BodyCube" 13
  42 "ValveBiped.HC_HeadCube" 41
  43 "ValveBiped.HC_BoneLF" 42
  44 "ValveBiped.HC_BoneLF1" 43
  45 "ValveBiped.HC_BoneRF" 42
  46 "ValveBiped.HC_BoneRF1" 45
  47 "ValveBiped.HC_BoneLB" 41
  48 "ValveBiped.HC_BoneLB1" 47
  49 "ValveBiped.HC_BoneLB2" 48
  50 "ValveBiped.HC_BoneRB" 41
  51 "ValveBiped.HC_BoneRB1" 50
  52 "ValveBiped.HC_BoneRB2" 51
end
skeleton
  time 0
    0 0.000407 1.515671 38.353989 1.570796 0.000000 -0.000037
    1 0.000000 0.000000 0.000000 0.000000 0.000000 0.000000
    2 3.890447 0.000000 0.000000 -1.570796 -0.054711 -1.451993
    3 17.591007 0.000000 -0.000003 0.000000 0.000000 0.153903
    4 17.699610 -0.000001 -0.000002 -0.122557 0.022046 -1.083904
    5 6.879457 0.000008 0.000001 -0.007299 -0.002951 -0.584373
    6 -3.890447 0.000000 0.000000 -1.570797 -0.054710 -1.689600
    7 17.590990 0.000000 0.000001 0.000000 0.000000 0.153903
    8 17.699574 0.000001 0.000001 0.133252 -0.022046 -1.083904
    9 6.879451 -0.000002 -0.000002 -0.081334 -0.002949 -0.584373
    10 0.000000 3.345131 -2.981898 1.570796 0.052893 1.570796
    11 4.126656 0.000000 0.000000 0.000000 0.000000 -0.109958
    12 3.612865 0.000000 0.000000 0.000000 0.000000 0.157085
    13 9.183983 0.000000 0.000000 0.000000 0.000000 0.173457
    14 4.149971 -1.375574 0.000000 3.141592 0.000000 -0.533455
    15 1.663036 1.210508 2.595493 1.585881 -1.286514 2.954168
    16 6.028141 0.000004 0.000000 -1.570685 -0.056434 -0.592417
    17 12.692978 0.000001 0.000023 0.000000 0.000000 -0.762857
    18 11.575961 0.000002 -0.000019 1.151993 -0.002657 0.038189
    19 5.562228 -0.288269 -0.510574 2.698539 0.164142 -0.072684
    20 5.158491 0.000002 0.000004 -0.077769 0.016694 -0.169947
    21 3.326000 -0.000004 0.000008 -0.167863 -0.022104 0.128689
    22 5.591165 -0.279015 1.848881 2.781024 -0.133989 -0.071714
    23 5.292999 0.000000 0.000008 0.148040 -0.018938 -0.050991
    24 3.079115 -0.000004 0.000000 -0.128819 0.052126 -0.017018
    25 5.739734 -0.095432 0.607277 2.696272 -0.031745 -0.113412
    26 5.652496 -0.000002 0.000000 -0.049157 0.013205 -0.213065
    27 3.325010 -0.000003 -0.000008 -0.238441 -0.099948 -0.001110
    28 1.663048 1.210514 -2.595442 -1.665774 1.282032 2.945760
    29 6.028137 0.000004 0.000000 1.632088 0.067144 -0.580410
    30 12.693001 0.000000 0.000004 0.000000 0.000000 -0.811694
    31 11.599612 0.000008 -0.000004 -1.164891 -0.106508 0.028596
    32 5.928187 0.378914 0.637287 -2.866070 -0.158281 0.032451
    33 5.073999 0.000000 0.000008 -0.011476 -0.038386 -0.192037
    34 3.325997 0.000002 0.000004 -1.772641 0.171824 0.192119
    35 6.189649 0.568802 -0.554352 -2.277125 -0.007849 0.031558
    36 5.510998 0.000005 0.000008 -0.615569 -0.066018 -0.013999
    37 3.325017 -0.000004 0.000008 -0.148443 0.137349 -0.096853
    38 5.900459 0.299202 -1.780357 -2.362020 0.135820 0.078172
    39 5.248498 0.000008 -0.000008 0.049087 -0.030110 -0.001051
    40 3.151004 0.000002 0.000000 -0.425292 0.093144 -0.036701
    41 8.405151 -2.842091 2.280943 -0.458581 -1.186067 2.931448
    42 0.051796 -3.221540 -2.149796 1.570796 -0.003965 -3.124561
    43 -3.929419 0.000004 0.000002 0.456323 0.600730 -2.513550
    44 13.106233 0.000004 0.000002 0.000000 0.000000 2.026915
    45 3.929420 -0.000004 0.000000 -0.411327 0.538162 -0.583342
    46 13.106235 0.000008 -0.000001 0.000000 0.000000 -2.064136
    47 3.007648 4.344526 0.542816 1.321605 -0.270767 0.706112
    48 10.074757 0.000000 -0.000002 0.000000 0.000000 -1.630424
    49 10.292004 -0.000004 0.000000 0.000000 0.000000 -0.425803
    50 -2.753412 4.323162 0.558395 1.931780 -0.224239 2.278513
    51 10.074760 0.000004 0.000004 0.000000 0.000000 -1.604180
    52 10.292000 -0.000004 -0.000004 0.000000 0.000000 -0.406073
end
triangles
  phy
    0 5.514746 -2.220758 35.596748 0.554147 -0.747663 -0.365952 0 0
    0 7.704176 1.985833 36.059261 0.949688 0.000000 -0.313198 0 0
    0 4.582130 -1.646512 42.382957 0.613572 -0.591998 0.522559 0 0
  phy
    0 4.582130 -1.646512 42.382957 0.613572 -0.591998 0.522559 0 0
    0 7.704176 1.985833 36.059261 0.949688 0.000000 -0.313198 0 0
    0 6.385225 1.828128 42.382957 0.708948 0.000000 0.705261 0 0
  phy
    0 4.582130 -1.646512 42.382957 0.613572 -0.591998 0.522559 0 0
    0 0.229337 -3.085621 42.382957 0.000000 -0.930294 0.366815 0 0
    0 5.514746 -2.220758 35.596748 0.554147 -0.747663 -0.365952 0 0
  phy
    0 6.385225 1.828128 42.382957 0.708948 0.000000 0.705261 0 0
    0 0.229519 1.828356 43.572994 0.000000 0.000000 1.000000 0 0
    0 4.582130 -1.646512 42.382957 0.613572 -0.591998 0.522559 0 0
  phy
    0 4.582130 -1.646512 42.382957 0.613572 -0.591998 0.522559 0 0
    0 0.229519 1.828356 43.572994 0.000000 0.000000 1.000000 0 0
    0 0.229337 -3.085621 42.382957 0.000000 -0.930294 0.366815 0 0
  phy
    0 -4.123351 -1.646190 42.382957 -0.613571 -0.591998 0.522559 0 0
    0 -5.926187 1.828583 42.382957 -0.708948 0.000000 0.705261 0 0
    0 -7.245127 1.986386 36.059261 -0.949688 0.000000 -0.313198 0 0
  phy
    0 -5.926187 1.828583 42.382957 -0.708948 0.000000 0.705261 0 0
    0 -4.123094 5.303223 42.382957 -0.604828 0.584857 0.540486 0 0
    0 -7.245127 1.986386 36.059261 -0.949688 0.000000 -0.313198 0 0
  phy
    0 -4.123351 -1.646190 42.382957 -0.613571 -0.591998 0.522559 0 0
    0 0.229519 1.828356 43.572994 0.000000 0.000000 1.000000 0 0
    0 -5.926187 1.828583 42.382957 -0.708948 0.000000 0.705261 0 0
  phy
    0 -5.926187 1.828583 42.382957 -0.708948 0.000000 0.705261 0 0
    0 0.229519 1.828356 43.572994 0.000000 0.000000 1.000000 0 0
    0 -4.123094 5.303223 42.382957 -0.604828 0.584857 0.540486 0 0
  phy
    0 -5.056006 -2.220367 35.596748 -0.554147 -0.747663 -0.365952 0 0
    0 0.229337 -3.085621 42.382957 0.000000 -0.930294 0.366815 0 0
    0 -4.123351 -1.646190 42.382957 -0.613571 -0.591998 0.522559 0 0
  phy
    0 0.229304 -3.963023 34.619701 0.000000 -0.887595 -0.460624 0 0
    0 0.229337 -3.085621 42.382957 0.000000 -0.930294 0.366815 0 0
    0 -5.056006 -2.220367 35.596748 -0.554147 -0.747663 -0.365952 0 0
  phy
    0 -5.056006 -2.220367 35.596748 -0.554147 -0.747663 -0.365952 0 0
    0 -4.123351 -1.646190 42.382957 -0.613571 -0.591998 0.522559 0 0
    0 -7.245127 1.986386 36.059261 -0.949688 0.000000 -0.313198 0 0
  phy
    0 0.229304 -3.963023 34.619701 0.000000 -0.887595 -0.460624 0 0
    0 -5.056006 -2.220367 35.596748 -0.554147 -0.747663 -0.365952 0 0
    0 0.229524 1.986110 32.610034 0.000000 0.000000 -1.000000 0 0
  phy
    0 0.229524 1.986110 32.610034 0.000000 0.000000 -1.000000 0 0
    0 -5.056006 -2.220367 35.596748 -0.554147 -0.747663 -0.365952 0 0
    0 -7.245127 1.986386 36.059261 -0.949688 0.000000 -0.313198 0 0
  phy
    0 5.514746 -2.220758 35.596748 0.554147 -0.747663 -0.365952 0 0
    0 0.229337 -3.085621 42.382957 0.000000 -0.930294 0.366815 0 0
    0 0.229304 -3.963023 34.619701 0.000000 -0.887595 -0.460624 0 0
  phy
    0 5.514746 -2.220758 35.596748 0.554147 -0.747663 -0.365952 0 0
    0 0.229304 -3.963023 34.619701 0.000000 -0.887595 -0.460624 0 0
    0 0.229524 1.986110 32.610034 0.000000 0.000000 -1.000000 0 0
  phy
    0 5.514746 -2.220758 35.596748 0.554147 -0.747663 -0.365952 0 0
    0 0.229524 1.986110 32.610034 0.000000 0.000000 -1.000000 0 0
    0 7.704176 1.985833 36.059261 0.949688 0.000000 -0.313198 0 0
  phy
    0 5.515057 6.192588 35.596748 0.557291 0.756516 -0.342215 0 0
    0 0.229700 6.742331 42.382957 0.000000 0.917183 0.398466 0 0
    0 4.582388 5.302900 42.382957 0.604828 0.584857 0.540486 0 0
  phy
    0 0.229700 6.742331 42.382957 0.000000 0.917183 0.398466 0 0
    0 5.515057 6.192588 35.596748 0.557291 0.756516 -0.342215 0 0
    0 0.229745 7.935242 34.619701 0.000000 0.899169 -0.437601 0 0
  phy
    0 0.229700 6.742331 42.382957 0.000000 0.917183 0.398466 0 0
    0 -5.055695 6.192979 35.596748 -0.557291 0.756516 -0.342215 0 0
    0 -4.123094 5.303223 42.382957 -0.604828 0.584857 0.540486 0 0
  phy
    0 -5.055695 6.192979 35.596748 -0.557291 0.756516 -0.342215 0 0
    0 0.229700 6.742331 42.382957 0.000000 0.917183 0.398466 0 0
    0 0.229745 7.935242 34.619701 0.000000 0.899169 -0.437601 0 0
  phy
    0 0.229700 6.742331 42.382957 0.000000 0.917183 0.398466 0 0
    0 0.229519 1.828356 43.572994 0.000000 0.000000 1.000000 0 0
    0 4.582388 5.302900 42.382957 0.604828 0.584857 0.540486 0 0
  phy
    0 -4.123094 5.303223 42.382957 -0.604828 0.584857 0.540486 0 0
    0 0.229519 1.828356 43.572994 0.000000 0.000000 1.000000 0 0
    0 0.229700 6.742331 42.382957 0.000000 0.917183 0.398466 0 0
  phy
    0 6.385225 1.828128 42.382957 0.708948 0.000000 0.705261 0 0
    0 7.704176 1.985833 36.059261 0.949688 0.000000 -0.313198 0 0
    0 4.582388 5.302900 42.382957 0.604828 0.584857 0.540486 0 0
  phy
    0 4.582388 5.302900 42.382957 0.604828 0.584857 0.540486 0 0
    0 0.229519 1.828356 43.572994 0.000000 0.000000 1.000000 0 0
    0 6.385225 1.828128 42.382957 0.708948 0.000000 0.705261 0 0
  phy
    0 5.515057 6.192588 35.596748 0.557291 0.756516 -0.342215 0 0
    0 0.229524 1.986110 32.610034 0.000000 0.000000 -1.000000 0 0
    0 0.229745 7.935242 34.619701 0.000000 0.899169 -0.437601 0 0
  phy
    0 0.229524 1.986110 32.610034 0.000000 0.000000 -1.000000 0 0
    0 5.515057 6.192588 35.596748 0.557291 0.756516 -0.342215 0 0
    0 7.704176 1.985833 36.059261 0.949688 0.000000 -0.313198 0 0
  phy
    0 4.582388 5.302900 42.382957 0.604828 0.584857 0.540486 0 0
    0 7.704176 1.985833 36.059261 0.949688 0.000000 -0.313198 0 0
    0 5.515057 6.192588 35.596748 0.557291 0.756516 -0.342215 0 0
  phy
    0 0.229337 -3.085621 42.382957 0.000000 -0.930294 0.366815 0 0
    0 0.229519 1.828356 43.572994 0.000000 0.000000 1.000000 0 0
    0 -4.123351 -1.646190 42.382957 -0.613571 -0.591998 0.522559 0 0
  phy
    0 0.229524 1.986110 32.610034 0.000000 0.000000 -1.000000 0 0
    0 -5.055695 6.192979 35.596748 -0.557291 0.756516 -0.342215 0 0
    0 0.229745 7.935242 34.619701 0.000000 0.899169 -0.437601 0 0
  phy
    0 -5.055695 6.192979 35.596748 -0.557291 0.756516 -0.342215 0 0
    0 0.229524 1.986110 32.610034 0.000000 0.000000 -1.000000 0 0
    0 -7.245127 1.986386 36.059261 -0.949688 0.000000 -0.313198 0 0
  phy
    0 -4.123094 5.303223 42.382957 -0.604828 0.584857 0.540486 0 0
    0 -5.055695 6.192979 35.596748 -0.557291 0.756516 -0.342215 0 0
    0 -7.245127 1.986386 36.059261 -0.949688 0.000000 -0.313198 0 0
  phy
    10 -6.558853 2.220505 42.438103 -0.329217 0.944094 -0.017429 0 0
    10 -4.570436 6.134317 42.438103 -0.358937 0.437602 -0.824420 0 0
    10 0.229533 2.215734 41.252606 -0.998601 0.000000 -0.052869 0 0
  phy
    10 -4.570726 -1.747578 42.438103 -0.559582 0.542013 0.626969 0 0
    10 -6.558853 2.220505 42.438103 -0.329217 0.944094 -0.017429 0 0
    10 0.229533 2.215734 41.252606 -0.998601 0.000000 -0.052869 0 0
  phy
    10 -4.270814 -1.558606 50.601044 0.305140 0.583017 0.752982 0 0
    10 -6.558853 2.220505 42.438103 -0.329217 0.944094 -0.017429 0 0
    10 -4.570726 -1.747578 42.438103 -0.559582 0.542013 0.626969 0 0
  phy
    10 -6.558853 2.220505 42.438103 -0.329217 0.944094 -0.017429 0 0
    10 -4.270814 -1.558606 50.601044 0.305140 0.583017 0.752982 0 0
    10 -6.156642 2.204505 50.592804 0.586570 0.809303 0.031055 0 0
  phy
    10 -4.570436 6.134317 42.438103 -0.358937 0.437602 -0.824420 0 0
    10 -6.558853 2.220505 42.438103 -0.329217 0.944094 -0.017429 0 0
    10 -4.270529 6.161929 50.601041 0.453602 0.659902 -0.598978 0 0
  phy
    10 -4.270529 6.161929 50.601041 0.453602 0.659902 -0.598978 0 0
    10 -6.558853 2.220505 42.438103 -0.329217 0.944094 -0.017429 0 0
    10 -6.156642 2.204505 50.592804 0.586570 0.809303 0.031055 0 0
  phy
    10 6.615709 2.204031 50.592804 0.586571 -0.809302 0.031054 0 0
    10 0.229535 2.239511 51.791073 0.998601 0.000000 0.052868 0 0
    10 4.729605 -1.558940 50.601041 0.305140 -0.583017 0.752981 0 0
  phy
    10 4.729890 6.161594 50.601040 0.453602 -0.659902 -0.598978 0 0
    10 0.229535 2.239511 51.791073 0.998601 0.000000 0.052868 0 0
    10 6.615709 2.204031 50.592804 0.586571 -0.809302 0.031054 0 0
  phy
    10 4.729605 -1.558940 50.601041 0.305140 -0.583017 0.752981 0 0
    10 7.017920 2.220001 42.438103 -0.329216 -0.944094 -0.017430 0 0
    10 6.615709 2.204031 50.592804 0.586571 -0.809302 0.031054 0 0
  phy
    10 6.615709 2.204031 50.592804 0.586571 -0.809302 0.031054 0 0
    10 7.017920 2.220001 42.438103 -0.329216 -0.944094 -0.017430 0 0
    10 4.729890 6.161594 50.601040 0.453602 -0.659902 -0.598978 0 0
  phy
    10 -4.570436 6.134317 42.438103 -0.358937 0.437602 -0.824420 0 0
    10 0.229709 6.973348 42.438103 -0.437823 0.000000 -0.899061 0 0
    10 0.229533 2.215734 41.252606 -0.998601 0.000000 -0.052869 0 0
  phy
    10 -4.570436 6.134317 42.438103 -0.358937 0.437602 -0.824420 0 0
    10 -4.270529 6.161929 50.601041 0.453602 0.659902 -0.598978 0 0
    10 0.229726 7.396726 50.601036 0.305645 0.000000 -0.952146 0 0
  phy
    10 0.229709 6.973348 42.438103 -0.437823 0.000000 -0.899061 0 0
    10 -4.570436 6.134317 42.438103 -0.358937 0.437602 -0.824420 0 0
    10 0.229726 7.396726 50.601036 0.305645 0.000000 -0.952146 0 0
  phy
    10 0.229709 6.973348 42.438103 -0.437823 0.000000 -0.899061 0 0
    10 5.029792 6.133961 42.438103 -0.358937 -0.437602 -0.824420 0 0
    10 0.229533 2.215734 41.252606 -0.998601 0.000000 -0.052869 0 0
  phy
    10 5.029792 6.133961 42.438103 -0.358937 -0.437602 -0.824420 0 0
    10 7.017920 2.220001 42.438103 -0.329216 -0.944094 -0.017430 0 0
    10 0.229533 2.215734 41.252606 -0.998601 0.000000 -0.052869 0 0
  phy
    10 4.729890 6.161594 50.601040 0.453602 -0.659902 -0.598978 0 0
    10 7.017920 2.220001 42.438103 -0.329216 -0.944094 -0.017430 0 0
    10 5.029792 6.133961 42.438103 -0.358937 -0.437602 -0.824420 0 0
  phy
    10 4.729890 6.161594 50.601040 0.453602 -0.659902 -0.598978 0 0
    10 5.029792 6.133961 42.438103 -0.358937 -0.437602 -0.824420 0 0
    10 0.229726 7.396726 50.601036 0.305645 0.000000 -0.952146 0 0
  phy
    10 5.029792 6.133961 42.438103 -0.358937 -0.437602 -0.824420 0 0
    10 0.229709 6.973348 42.438103 -0.437823 0.000000 -0.899061 0 0
    10 0.229726 7.396726 50.601036 0.305645 0.000000 -0.952146 0 0
  phy
    10 4.729605 -1.558940 50.601041 0.305140 -0.583017 0.752981 0 0
    10 0.229535 2.239511 51.791073 0.998601 0.000000 0.052868 0 0
    10 0.229354 -2.648000 50.601041 0.469766 0.000000 0.882791 0 0
  phy
    10 5.029502 -1.747934 42.438103 -0.559582 -0.542014 0.626968 0 0
    10 7.017920 2.220001 42.438103 -0.329216 -0.944094 -0.017430 0 0
    10 4.729605 -1.558940 50.601041 0.305140 -0.583017 0.752981 0 0
  phy
    10 0.229354 -2.648000 50.601041 0.469766 0.000000 0.882791 0 0
    10 0.229326 -3.391358 42.438103 -0.312807 0.000000 0.949817 0 0
    10 4.729605 -1.558940 50.601041 0.305140 -0.583017 0.752981 0 0
  phy
    10 4.729605 -1.558940 50.601041 0.305140 -0.583017 0.752981 0 0
    10 0.229326 -3.391358 42.438103 -0.312807 0.000000 0.949817 0 0
    10 5.029502 -1.747934 42.438103 -0.559582 -0.542014 0.626968 0 0
  phy
    10 -4.270814 -1.558606 50.601044 0.305140 0.583017 0.752982 0 0
    10 0.229326 -3.391358 42.438103 -0.312807 0.000000 0.949817 0 0
    10 0.229354 -2.648000 50.601041 0.469766 0.000000 0.882791 0 0
  phy
    10 -4.570726 -1.747578 42.438103 -0.559582 0.542013 0.626969 0 0
    10 0.229326 -3.391358 42.438103 -0.312807 0.000000 0.949817 0 0
    10 -4.270814 -1.558606 50.601044 0.305140 0.583017 0.752982 0 0
  phy
    10 0.229354 -2.648000 50.601041 0.469766 0.000000 0.882791 0 0
    10 0.229535 2.239511 51.791073 0.998601 0.000000 0.052868 0 0
    10 -4.270814 -1.558606 50.601044 0.305140 0.583017 0.752982 0 0
  phy
    10 -4.270814 -1.558606 50.601044 0.305140 0.583017 0.752982 0 0
    10 0.229535 2.239511 51.791073 0.998601 0.000000 0.052868 0 0
    10 -6.156642 2.204505 50.592804 0.586570 0.809303 0.031055 0 0
  phy
    10 -4.270529 6.161929 50.601041 0.453602 0.659902 -0.598978 0 0
    10 0.229535 2.239511 51.791073 0.998601 0.000000 0.052868 0 0
    10 0.229726 7.396726 50.601036 0.305645 0.000000 -0.952146 0 0
  phy
    10 -6.156642 2.204505 50.592804 0.586570 0.809303 0.031055 0 0
    10 0.229535 2.239511 51.791073 0.998601 0.000000 0.052868 0 0
    10 -4.270529 6.161929 50.601041 0.453602 0.659902 -0.598978 0 0
  phy
    10 0.229726 7.396726 50.601036 0.305645 0.000000 -0.952146 0 0
    10 0.229535 2.239511 51.791073 0.998601 0.000000 0.052868 0 0
    10 4.729890 6.161594 50.601040 0.453602 -0.659902 -0.598978 0 0
  phy
    10 0.229326 -3.391358 42.438103 -0.312807 0.000000 0.949817 0 0
    10 -4.570726 -1.747578 42.438103 -0.559582 0.542013 0.626969 0 0
    10 0.229533 2.215734 41.252606 -0.998601 0.000000 -0.052869 0 0
  phy
    10 5.029502 -1.747934 42.438103 -0.559582 -0.542014 0.626968 0 0
    10 0.229326 -3.391358 42.438103 -0.312807 0.000000 0.949817 0 0
    10 0.229533 2.215734 41.252606 -0.998601 0.000000 -0.052869 0 0
  phy
    10 7.017920 2.220001 42.438103 -0.329216 -0.944094 -0.017430 0 0
    10 5.029502 -1.747934 42.438103 -0.559582 -0.542014 0.626968 0 0
    10 0.229533 2.215734 41.252606 -0.998601 0.000000 -0.052869 0 0
  phy
    12 5.389124 -0.865001 57.818742 0.216759 -0.531962 0.818555 0 0
    12 7.791816 3.138435 58.685921 0.127756 -0.991591 0.020609 0 0
    12 3.850198 1.157143 63.264468 0.531043 -0.563819 0.632536 0 0
  phy
    12 5.176149 -1.063618 50.385861 -0.357954 -0.596300 0.718537 0 0
    12 7.791816 3.138435 58.685921 0.127756 -0.991591 0.020609 0 0
    12 5.389124 -0.865001 57.818742 0.216759 -0.531962 0.818555 0 0
  phy
    12 5.389124 -0.865001 57.818742 0.216759 -0.531962 0.818555 0 0
    12 3.850198 1.157143 63.264468 0.531043 -0.563819 0.632536 0 0
    12 0.115778 -0.482260 62.584139 0.448693 -0.000252 0.893686 0 0
  phy
    12 0.115778 -0.482260 62.584139 0.448693 -0.000252 0.893686 0 0
    12 0.236709 -2.549812 57.295587 0.133678 -0.072360 0.988380 0 0
    12 5.389124 -0.865001 57.818742 0.216759 -0.531962 0.818555 0 0
  phy
    12 5.389124 -0.865001 57.818742 0.216759 -0.531962 0.818555 0 0
    12 0.236709 -2.549812 57.295587 0.133678 -0.072360 0.988380 0 0
    12 5.176149 -1.063618 50.385861 -0.357954 -0.596300 0.718537 0 0
  phy
    12 4.706672 4.280618 64.079379 0.633953 -0.761560 0.134648 0 0
    12 0.251130 3.276052 67.761889 0.953306 -0.001180 0.302003 0 0
    12 3.850198 1.157143 63.264468 0.531043 -0.563819 0.632536 0 0
  phy
    12 3.360570 7.392323 65.139010 0.486155 -0.619723 -0.616114 0 0
    12 0.251130 3.276052 67.761889 0.953306 -0.001180 0.302003 0 0
    12 4.706672 4.280618 64.079379 0.633953 -0.761560 0.134648 0 0
  phy
    12 3.850198 1.157143 63.264468 0.531043 -0.563819 0.632536 0 0
    12 7.791816 3.138435 58.685921 0.127756 -0.991591 0.020609 0 0
    12 4.706672 4.280618 64.079379 0.633953 -0.761560 0.134648 0 0
  phy
    12 4.706672 4.280618 64.079379 0.633953 -0.761560 0.134648 0 0
    12 7.791816 3.138435 58.685921 0.127756 -0.991591 0.020609 0 0
    12 3.360570 7.392323 65.139010 0.486155 -0.619723 -0.616114 0 0
  phy
    12 5.176149 -1.063618 50.385861 -0.357954 -0.596300 0.718537 0 0
    12 0.260343 -2.639598 50.385552 -0.405987 0.094255 0.909005 0 0
    12 0.259931 2.741976 49.248650 -0.999981 0.000018 -0.006119 0 0
  phy
    12 0.260343 -2.639598 50.385552 -0.405987 0.094255 0.909005 0 0
    12 -4.698495 -1.063106 50.385140 -0.457880 0.650480 0.605989 0 0
    12 0.259931 2.741976 49.248650 -0.999981 0.000018 -0.006119 0 0
  phy
    12 -4.966685 -0.889833 57.777181 0.167191 0.493084 0.853765 0 0
    12 -4.698495 -1.063106 50.385140 -0.457880 0.650480 0.605989 0 0
    12 0.260343 -2.639598 50.385552 -0.405987 0.094255 0.909005 0 0
  phy
    12 0.260343 -2.639598 50.385552 -0.405987 0.094255 0.909005 0 0
    12 0.236709 -2.549812 57.295587 0.133678 -0.072360 0.988380 0 0
    12 -4.966685 -0.889833 57.777181 0.167191 0.493084 0.853765 0 0
  phy
    12 5.176149 -1.063618 50.385861 -0.357954 -0.596300 0.718537 0 0
    12 0.236709 -2.549812 57.295587 0.133678 -0.072360 0.988380 0 0
    12 0.260343 -2.639598 50.385552 -0.405987 0.094255 0.909005 0 0
  phy
    12 6.666890 2.741904 50.384728 -0.623782 -0.781589 -0.003822 0 0
    12 5.176149 -1.063618 50.385861 -0.357954 -0.596300 0.718537 0 0
    12 0.259931 2.741976 49.248650 -0.999981 0.000018 -0.006119 0 0
  phy
    12 5.176110 6.637751 50.388226 -0.371181 -0.555699 -0.743924 0 0
    12 6.666890 2.741904 50.384728 -0.623782 -0.781589 -0.003822 0 0
    12 0.259931 2.741976 49.248650 -0.999981 0.000018 -0.006119 0 0
  phy
    12 6.666890 2.741904 50.384728 -0.623782 -0.781589 -0.003822 0 0
    12 7.791816 3.138435 58.685921 0.127756 -0.991591 0.020609 0 0
    12 5.176149 -1.063618 50.385861 -0.357954 -0.596300 0.718537 0 0
  phy
    12 5.176110 6.637751 50.388226 -0.371181 -0.555699 -0.743924 0 0
    12 7.791816 3.138435 58.685921 0.127756 -0.991591 0.020609 0 0
    12 6.666890 2.741904 50.384728 -0.623782 -0.781589 -0.003822 0 0
  phy
    12 -4.966685 -0.889833 57.777181 0.167191 0.493084 0.853765 0 0
    12 -3.620154 1.157008 63.273582 0.527172 0.566431 0.633439 0 0
    12 -7.321403 3.139607 58.683018 0.111596 0.993658 0.013766 0 0
  phy
    12 -4.698495 -1.063106 50.385140 -0.457880 0.650480 0.605989 0 0
    12 -4.966685 -0.889833 57.777181 0.167191 0.493084 0.853765 0 0
    12 -7.321403 3.139607 58.683018 0.111596 0.993658 0.013766 0 0
  phy
    12 0.115778 -0.482260 62.584139 0.448693 -0.000252 0.893686 0 0
    12 -3.620154 1.157008 63.273582 0.527172 0.566431 0.633439 0 0
    12 -4.966685 -0.889833 57.777181 0.167191 0.493084 0.853765 0 0
  phy
    12 -4.966685 -0.889833 57.777181 0.167191 0.493084 0.853765 0 0
    12 0.236709 -2.549812 57.295587 0.133678 -0.072360 0.988380 0 0
    12 0.115778 -0.482260 62.584139 0.448693 -0.000252 0.893686 0 0
  phy
    12 -3.620154 1.157008 63.273582 0.527172 0.566431 0.633439 0 0
    12 0.251130 3.276052 67.761889 0.953306 -0.001180 0.302003 0 0
    12 -4.477693 4.280452 64.090570 0.635332 0.760258 0.135503 0 0
  phy
    12 -4.477693 4.280452 64.090570 0.635332 0.760258 0.135503 0 0
    12 0.251130 3.276052 67.761889 0.953306 -0.001180 0.302003 0 0
    12 -3.133755 7.392206 65.146929 0.476604 0.622378 -0.620882 0 0
  phy
    12 -3.620154 1.157008 63.273582 0.527172 0.566431 0.633439 0 0
    12 -4.477693 4.280452 64.090570 0.635332 0.760258 0.135503 0 0
    12 -7.321403 3.139607 58.683018 0.111596 0.993658 0.013766 0 0
  phy
    12 -4.477693 4.280452 64.090570 0.635332 0.760258 0.135503 0 0
    12 -3.133755 7.392206 65.146929 0.476604 0.622378 -0.620882 0 0
    12 -7.321403 3.139607 58.683018 0.111596 0.993658 0.013766 0 0
  phy
    12 3.850198 1.157143 63.264468 0.531043 -0.563819 0.632536 0 0
    12 0.251130 3.276052 67.761889 0.953306 -0.001180 0.302003 0 0
    12 0.115778 -0.482260 62.584139 0.448693 -0.000252 0.893686 0 0
  phy
    12 0.115778 -0.482260 62.584139 0.448693 -0.000252 0.893686 0 0
    12 0.251130 3.276052 67.761889 0.953306 -0.001180 0.302003 0 0
    12 -3.620154 1.157008 63.273582 0.527172 0.566431 0.633439 0 0
  phy
    12 -4.698495 -1.063106 50.385140 -0.457880 0.650480 0.605989 0 0
    12 -6.228528 2.742088 50.386182 -0.626392 0.779499 -0.003771 0 0
    12 0.259931 2.741976 49.248650 -0.999981 0.000018 -0.006119 0 0
  phy
    12 -6.228528 2.742088 50.386182 -0.626392 0.779499 -0.003771 0 0
    12 -4.698534 6.638264 50.387501 -0.372778 0.553197 -0.744990 0 0
    12 0.259931 2.741976 49.248650 -0.999981 0.000018 -0.006119 0 0
  phy
    12 -6.228528 2.742088 50.386182 -0.626392 0.779499 -0.003771 0 0
    12 -4.698495 -1.063106 50.385140 -0.457880 0.650480 0.605989 0 0
    12 -7.321403 3.139607 58.683018 0.111596 0.993658 0.013766 0 0
  phy
    12 -4.698534 6.638264 50.387501 -0.372778 0.553197 -0.744990 0 0
    12 -6.228528 2.742088 50.386182 -0.626392 0.779499 -0.003771 0 0
    12 -7.321403 3.139607 58.683018 0.111596 0.993658 0.013766 0 0
  phy
    12 3.360570 7.392323 65.139010 0.486155 -0.619723 -0.616114 0 0
    12 5.577700 7.366804 59.555456 0.040055 -0.615693 -0.786967 0 0
    12 0.234414 9.001983 59.747347 -0.031713 0.000004 -0.999497 0 0
  phy
    12 5.577700 7.366804 59.555456 0.040055 -0.615693 -0.786967 0 0
    12 5.176110 6.637751 50.388226 -0.371181 -0.555699 -0.743924 0 0
    12 0.234414 9.001983 59.747347 -0.031713 0.000004 -0.999497 0 0
  phy
    12 3.360570 7.392323 65.139010 0.486155 -0.619723 -0.616114 0 0
    12 7.791816 3.138435 58.685921 0.127756 -0.991591 0.020609 0 0
    12 5.577700 7.366804 59.555456 0.040055 -0.615693 -0.786967 0 0
  phy
    12 5.577700 7.366804 59.555456 0.040055 -0.615693 -0.786967 0 0
    12 7.791816 3.138435 58.685921 0.127756 -0.991591 0.020609 0 0
    12 5.176110 6.637751 50.388226 -0.371181 -0.555699 -0.743924 0 0
  phy
    12 0.112100 8.367443 65.415767 0.586004 -0.000664 -0.810308 0 0
    12 0.251130 3.276052 67.761889 0.953306 -0.001180 0.302003 0 0
    12 3.360570 7.392323 65.139010 0.486155 -0.619723 -0.616114 0 0
  phy
    12 -3.133755 7.392206 65.146929 0.476604 0.622378 -0.620882 0 0
    12 0.251130 3.276052 67.761889 0.953306 -0.001180 0.302003 0 0
    12 0.112100 8.367443 65.415767 0.586004 -0.000664 -0.810308 0 0
  phy
    12 0.112100 8.367443 65.415767 0.586004 -0.000664 -0.810308 0 0
    12 3.360570 7.392323 65.139010 0.486155 -0.619723 -0.616114 0 0
    12 0.234414 9.001983 59.747347 -0.031713 0.000004 -0.999497 0 0
  phy
    12 -3.133755 7.392206 65.146929 0.476604 0.622378 -0.620882 0 0
    12 0.112100 8.367443 65.415767 0.586004 -0.000664 -0.810308 0 0
    12 0.234414 9.001983 59.747347 -0.031713 0.000004 -0.999497 0 0
  phy
    12 0.259762 7.754205 50.389676 -0.507174 -0.000050 -0.861844 0 0
    12 5.176110 6.637751 50.388226 -0.371181 -0.555699 -0.743924 0 0
    12 0.259931 2.741976 49.248650 -0.999981 0.000018 -0.006119 0 0
  phy
    12 -4.698534 6.638264 50.387501 -0.372778 0.553197 -0.744990 0 0
    12 0.259762 7.754205 50.389676 -0.507174 -0.000050 -0.861844 0 0
    12 0.259931 2.741976 49.248650 -0.999981 0.000018 -0.006119 0 0
  phy
    12 5.176110 6.637751 50.388226 -0.371181 -0.555699 -0.743924 0 0
    12 0.259762 7.754205 50.389676 -0.507174 -0.000050 -0.861844 0 0
    12 0.234414 9.001983 59.747347 -0.031713 0.000004 -0.999497 0 0
  phy
    12 0.259762 7.754205 50.389676 -0.507174 -0.000050 -0.861844 0 0
    12 -4.698534 6.638264 50.387501 -0.372778 0.553197 -0.744990 0 0
    12 0.234414 9.001983 59.747347 -0.031713 0.000004 -0.999497 0 0
  phy
    12 -3.133755 7.392206 65.146929 0.476604 0.622378 -0.620882 0 0
    12 -5.108959 7.367634 59.553399 0.029487 0.615033 -0.787949 0 0
    12 -7.321403 3.139607 58.683018 0.111596 0.993658 0.013766 0 0
  phy
    12 -5.108959 7.367634 59.553399 0.029487 0.615033 -0.787949 0 0
    12 -4.698534 6.638264 50.387501 -0.372778 0.553197 -0.744990 0 0
    12 -7.321403 3.139607 58.683018 0.111596 0.993658 0.013766 0 0
  phy
    12 -5.108959 7.367634 59.553399 0.029487 0.615033 -0.787949 0 0
    12 -3.133755 7.392206 65.146929 0.476604 0.622378 -0.620882 0 0
    12 0.234414 9.001983 59.747347 -0.031713 0.000004 -0.999497 0 0
  phy
    12 -4.698534 6.638264 50.387501 -0.372778 0.553197 -0.744990 0 0
    12 -5.108959 7.367634 59.553399 0.029487 0.615033 -0.787949 0 0
    12 0.234414 9.001983 59.747347 -0.031713 0.000004 -0.999497 0 0
  phy
    16 18.153026 3.995282 49.426483 0.084453 -0.880327 0.466789 0 0
    16 17.557049 2.947731 47.424271 0.999983 -0.005883 -0.000047 0 0
    16 16.882774 5.018610 48.271736 0.176122 -0.016288 0.984234 0 0
  phy
    16 16.882774 5.018610 48.271736 0.176122 -0.016288 0.984234 0 0
    16 17.557049 2.947731 47.424271 0.999983 -0.005883 -0.000047 0 0
    16 15.507988 4.047622 47.194092 0.082488 0.900522 0.426913 0 0
  phy
    16 7.425218 6.797423 59.424560 -0.046321 -0.044834 0.997920 0 0
    16 18.153026 3.995282 49.426483 0.084453 -0.880327 0.466789 0 0
    16 16.882774 5.018610 48.271736 0.176122 -0.016288 0.984234 0 0
  phy
    16 16.882774 5.018610 48.271736 0.176122 -0.016288 0.984234 0 0
    16 15.507988 4.047622 47.194092 0.082488 0.900522 0.426913 0 0
    16 7.425218 6.797423 59.424560 -0.046321 -0.044834 0.997920 0 0
  phy
    16 8.620035 5.376553 61.248828 -0.100614 -0.875363 0.472881 0 0
    16 7.425218 6.797423 59.424560 -0.046321 -0.044834 0.997920 0 0
    16 6.581874 4.055691 61.204195 -0.989988 0.141111 0.003371 0 0
  phy
    16 7.425218 6.797423 59.424560 -0.046321 -0.044834 0.997920 0 0
    16 6.067673 5.638938 58.357102 -0.140460 0.923210 0.357706 0 0
    16 6.581874 4.055691 61.204195 -0.989988 0.141111 0.003371 0 0
  phy
    16 7.425218 6.797423 59.424560 -0.046321 -0.044834 0.997920 0 0
    16 8.620035 5.376553 61.248828 -0.100614 -0.875363 0.472881 0 0
    16 18.153026 3.995282 49.426483 0.084453 -0.880327 0.466789 0 0
  phy
    16 15.507988 4.047622 47.194092 0.082488 0.900522 0.426913 0 0
    16 6.067673 5.638938 58.357102 -0.140460 0.923210 0.357706 0 0
    16 7.425218 6.797423 59.424560 -0.046321 -0.044834 0.997920 0 0
  phy
    16 18.048496 2.000965 49.503575 0.099023 -0.765269 -0.636049 0 0
    16 17.557049 2.947731 47.424271 0.999983 -0.005883 -0.000047 0 0
    16 18.153026 3.995282 49.426483 0.084453 -0.880327 0.466789 0 0
  phy
    16 16.673710 1.029977 48.425928 0.176209 0.014215 -0.984250 0 0
    16 17.557049 2.947731 47.424271 0.999983 -0.005883 -0.000047 0 0
    16 18.048496 2.000965 49.503575 0.099023 -0.765269 -0.636049 0 0
  phy
    16 18.048496 2.000965 49.503575 0.099023 -0.765269 -0.636049 0 0
    16 7.127221 1.112074 59.644340 -0.046460 -0.077448 -0.995913 0 0
    16 16.673710 1.029977 48.425928 0.176209 0.014215 -0.984250 0 0
  phy
    16 7.127221 1.112074 59.644340 -0.046460 -0.077448 -0.995913 0 0
    16 18.048496 2.000965 49.503575 0.099023 -0.765269 -0.636049 0 0
    16 8.517855 2.822768 61.402841 -0.069418 -0.935353 -0.346836 0 0
  phy
    16 18.153026 3.995282 49.426483 0.084453 -0.880327 0.466789 0 0
    16 8.517855 2.822768 61.402841 -0.069418 -0.935353 -0.346836 0 0
    16 18.048496 2.000965 49.503575 0.099023 -0.765269 -0.636049 0 0
  phy
    16 15.403458 2.053306 47.271189 0.126274 0.767061 -0.629025 0 0
    16 17.557049 2.947731 47.424271 0.999983 -0.005883 -0.000047 0 0
    16 16.673710 1.029977 48.425928 0.176209 0.014215 -0.984250 0 0
  phy
    16 15.507988 4.047622 47.194092 0.082488 0.900522 0.426913 0 0
    16 17.557049 2.947731 47.424271 0.999983 -0.005883 -0.000047 0 0
    16 15.403458 2.053306 47.271189 0.126274 0.767061 -0.629025 0 0
  phy
    16 7.127221 1.112074 59.644340 -0.046460 -0.077448 -0.995913 0 0
    16 15.403458 2.053306 47.271189 0.126274 0.767061 -0.629025 0 0
    16 16.673710 1.029977 48.425928 0.176209 0.014215 -0.984250 0 0
  phy
    16 15.403458 2.053306 47.271189 0.126274 0.767061 -0.629025 0 0
    16 7.127221 1.112074 59.644340 -0.046460 -0.077448 -0.995913 0 0
    16 5.857075 2.154851 58.488967 -0.102069 0.964132 -0.245014 0 0
  phy
    16 15.507988 4.047622 47.194092 0.082488 0.900522 0.426913 0 0
    16 15.403458 2.053306 47.271189 0.126274 0.767061 -0.629025 0 0
    16 5.857075 2.154851 58.488967 -0.102069 0.964132 -0.245014 0 0
  phy
    16 7.127221 1.112074 59.644340 -0.046460 -0.077448 -0.995913 0 0
    16 8.517855 2.822768 61.402841 -0.069418 -0.935353 -0.346836 0 0
    16 6.581874 4.055691 61.204195 -0.989988 0.141111 0.003371 0 0
  phy
    16 5.857075 2.154851 58.488967 -0.102069 0.964132 -0.245014 0 0
    16 7.127221 1.112074 59.644340 -0.046460 -0.077448 -0.995913 0 0
    16 6.581874 4.055691 61.204195 -0.989988 0.141111 0.003371 0 0
  phy
    16 18.153026 3.995282 49.426483 0.084453 -0.880327 0.466789 0 0
    16 8.620035 5.376553 61.248828 -0.100614 -0.875363 0.472881 0 0
    16 8.517855 2.822768 61.402841 -0.069418 -0.935353 -0.346836 0 0
  phy
    16 6.067673 5.638938 58.357102 -0.140460 0.923210 0.357706 0 0
    16 15.507988 4.047622 47.194092 0.082488 0.900522 0.426913 0 0
    16 5.857075 2.154851 58.488967 -0.102069 0.964132 -0.245014 0 0
  phy
    16 8.517855 2.822768 61.402841 -0.069418 -0.935353 -0.346836 0 0
    16 8.620035 5.376553 61.248828 -0.100614 -0.875363 0.472881 0 0
    16 6.581874 4.055691 61.204195 -0.989988 0.141111 0.003371 0 0
  phy
    16 6.067673 5.638938 58.357102 -0.140460 0.923210 0.357706 0 0
    16 5.857075 2.154851 58.488967 -0.102069 0.964132 -0.245014 0 0
    16 6.581874 4.055691 61.204195 -0.989988 0.141111 0.003371 0 0
  phy
    17 20.350157 -6.232287 42.150271 0.138343 0.881752 -0.450971 0 0
    17 20.871069 -6.728920 43.270850 0.080149 0.015732 -0.996659 0 0
    17 14.741904 2.473465 48.122933 -0.058218 0.874015 -0.482399 0 0
  phy
    17 21.032493 -5.273138 41.364289 0.106026 0.951422 0.289059 0 0
    17 20.350157 -6.232287 42.150271 0.138343 0.881752 -0.450971 0 0
    17 14.741904 2.473465 48.122933 -0.058218 0.874015 -0.482399 0 0
  phy
    17 20.350157 -6.232287 42.150271 0.138343 0.881752 -0.450971 0 0
    17 21.984775 -6.509692 41.956411 0.999979 0.006453 0.000048 0 0
    17 20.871069 -6.728920 43.270850 0.080149 0.015732 -0.996659 0 0
  phy
    17 21.032493 -5.273138 41.364289 0.106026 0.951422 0.289059 0 0
    17 21.984775 -6.509692 41.956411 0.999979 0.006453 0.000048 0 0
    17 20.350157 -6.232287 42.150271 0.138343 0.881752 -0.450971 0 0
  phy
    17 20.871069 -6.728920 43.270850 0.080149 0.015732 -0.996659 0 0
    17 15.612970 1.784873 49.798100 -0.122120 0.014363 -0.992411 0 0
    17 14.741904 2.473465 48.122933 -0.058218 0.874015 -0.482399 0 0
  phy
    17 20.871069 -6.728920 43.270850 0.080149 0.015732 -0.996659 0 0
    17 21.984775 -6.509692 41.956411 0.999979 0.006453 0.000048 0 0
    17 22.074326 -6.266403 43.605447 0.121627 -0.949590 -0.288937 0 0
  phy
    17 15.612970 1.784873 49.798100 -0.122120 0.014363 -0.992411 0 0
    17 20.871069 -6.728920 43.270850 0.080149 0.015732 -0.996659 0 0
    17 17.425978 2.420351 50.388267 -0.066099 -0.776257 -0.626941 0 0
  phy
    17 20.871069 -6.728920 43.270850 0.080149 0.015732 -0.996659 0 0
    17 22.074326 -6.266403 43.605447 0.121627 -0.949590 -0.288937 0 0
    17 17.425978 2.420351 50.388267 -0.066099 -0.776257 -0.626941 0 0
  phy
    17 21.032493 -5.273138 41.364289 0.106026 0.951422 0.289059 0 0
    17 14.741904 2.473465 48.122933 -0.058218 0.874015 -0.482399 0 0
    17 15.683843 3.797534 47.037921 -0.069359 0.775743 0.627226 0 0
  phy
    17 21.032493 -5.273138 41.364289 0.106026 0.951422 0.289059 0 0
    17 15.683843 3.797534 47.037921 -0.069359 0.775743 0.627226 0 0
    17 22.235742 -4.810621 41.698899 0.104014 -0.014512 0.994470 0 0
  phy
    17 22.235742 -4.810621 41.698899 0.104014 -0.014512 0.994470 0 0
    17 21.984775 -6.509692 41.956411 0.999979 0.006453 0.000048 0 0
    17 21.032493 -5.273138 41.364289 0.106026 0.951422 0.289059 0 0
  phy
    17 14.741904 2.473465 48.122933 -0.058218 0.874015 -0.482399 0 0
    17 15.612970 1.784873 49.798100 -0.122120 0.014363 -0.992411 0 0
    17 16.223024 3.678217 49.119670 -0.999979 -0.006453 -0.000048 0 0
  phy
    17 15.612970 1.784873 49.798100 -0.122120 0.014363 -0.992411 0 0
    17 17.425978 2.420351 50.388267 -0.066099 -0.776257 -0.626941 0 0
    17 16.223024 3.678217 49.119670 -0.999979 -0.006453 -0.000048 0 0
  phy
    17 22.235742 -4.810621 41.698899 0.104014 -0.014512 0.994470 0 0
    17 18.367916 3.744421 49.303255 -0.026338 -0.875324 0.482818 0 0
    17 22.756658 -5.307257 42.819473 0.168320 -0.877193 0.449667 0 0
  phy
    17 17.496851 4.433013 47.628080 -0.099096 -0.015829 0.994952 0 0
    17 18.367916 3.744421 49.303255 -0.026338 -0.875324 0.482818 0 0
    17 22.235742 -4.810621 41.698899 0.104014 -0.014512 0.994470 0 0
  phy
    17 22.756658 -5.307257 42.819473 0.168320 -0.877193 0.449667 0 0
    17 21.984775 -6.509692 41.956411 0.999979 0.006453 0.000048 0 0
    17 22.235742 -4.810621 41.698899 0.104014 -0.014512 0.994470 0 0
  phy
    17 22.235742 -4.810621 41.698899 0.104014 -0.014512 0.994470 0 0
    17 15.683843 3.797534 47.037921 -0.069359 0.775743 0.627226 0 0
    17 17.496851 4.433013 47.628080 -0.099096 -0.015829 0.994952 0 0
  phy
    17 22.756658 -5.307257 42.819473 0.168320 -0.877193 0.449667 0 0
    17 18.367916 3.744421 49.303255 -0.026338 -0.875324 0.482818 0 0
    17 22.074326 -6.266403 43.605447 0.121627 -0.949590 -0.288937 0 0
  phy
    17 22.074326 -6.266403 43.605447 0.121627 -0.949590 -0.288937 0 0
    17 21.984775 -6.509692 41.956411 0.999979 0.006453 0.000048 0 0
    17 22.756658 -5.307257 42.819473 0.168320 -0.877193 0.449667 0 0
  phy
    17 22.074326 -6.266403 43.605447 0.121627 -0.949590 -0.288937 0 0
    17 18.367916 3.744421 49.303255 -0.026338 -0.875324 0.482818 0 0
    17 17.425978 2.420351 50.388267 -0.066099 -0.776257 -0.626941 0 0
  phy
    17 17.496851 4.433013 47.628080 -0.099096 -0.015829 0.994952 0 0
    17 15.683843 3.797534 47.037921 -0.069359 0.775743 0.627226 0 0
    17 16.223024 3.678217 49.119670 -0.999979 -0.006453 -0.000048 0 0
  phy
    17 18.367916 3.744421 49.303255 -0.026338 -0.875324 0.482818 0 0
    17 17.496851 4.433013 47.628080 -0.099096 -0.015829 0.994952 0 0
    17 16.223024 3.678217 49.119670 -0.999979 -0.006453 -0.000048 0 0
  phy
    17 15.683843 3.797534 47.037921 -0.069359 0.775743 0.627226 0 0
    17 14.741904 2.473465 48.122933 -0.058218 0.874015 -0.482399 0 0
    17 16.223024 3.678217 49.119670 -0.999979 -0.006453 -0.000048 0 0
  phy
    17 17.425978 2.420351 50.388267 -0.066099 -0.776257 -0.626941 0 0
    17 18.367916 3.744421 49.303255 -0.026338 -0.875324 0.482818 0 0
    17 16.223024 3.678217 49.119670 -0.999979 -0.006453 -0.000048 0 0
  phy
    18 19.814163 -13.970432 38.498130 -0.152119 -0.514191 -0.844078 0 0
    18 23.443219 -6.864038 44.404095 -0.130814 -0.857415 0.497721 0 0
    18 20.413913 -7.085057 43.543635 -0.647273 -0.536922 -0.541065 0 0
  phy
    18 19.814163 -13.970432 38.498130 -0.152119 -0.514191 -0.844078 0 0
    18 20.413913 -7.085057 43.543635 -0.647273 -0.536922 -0.541065 0 0
    18 20.973328 -4.725989 40.918668 -0.695495 0.329878 -0.638332 0 0
  phy
    18 20.413913 -7.085057 43.543635 -0.647273 -0.536922 -0.541065 0 0
    18 23.443219 -6.864038 44.404095 -0.130814 -0.857415 0.497721 0 0
    18 20.973328 -4.725989 40.918668 -0.695495 0.329878 -0.638332 0 0
  phy
    18 19.814163 -13.970432 38.498130 -0.152119 -0.514191 -0.844078 0 0
    18 20.627234 -10.542814 34.680878 -0.158749 0.809936 -0.564626 0 0
    18 24.107000 -11.917012 34.218130 0.755801 0.543941 0.364545 0 0
  phy
    18 23.293780 -15.344688 38.035518 0.555887 -0.434333 0.708762 0 0
    18 19.814163 -13.970432 38.498130 -0.152119 -0.514191 -0.844078 0 0
    18 24.107000 -11.917012 34.218130 0.755801 0.543941 0.364545 0 0
  phy
    18 19.814163 -13.970432 38.498130 -0.152119 -0.514191 -0.844078 0 0
    18 23.293780 -15.344688 38.035518 0.555887 -0.434333 0.708762 0 0
    18 23.443219 -6.864038 44.404095 -0.130814 -0.857415 0.497721 0 0
  phy
    18 20.627234 -10.542814 34.680878 -0.158749 0.809936 -0.564626 0 0
    18 19.814163 -13.970432 38.498130 -0.152119 -0.514191 -0.844078 0 0
    18 20.973328 -4.725989 40.918668 -0.695495 0.329878 -0.638332 0 0
  phy
    18 20.627234 -10.542814 34.680878 -0.158749 0.809936 -0.564626 0 0
    18 24.002638 -4.504970 41.779128 0.250270 0.515394 0.819594 0 0
    18 24.107000 -11.917012 34.218130 0.755801 0.543941 0.364545 0 0
  phy
    18 24.002638 -4.504970 41.779128 0.250270 0.515394 0.819594 0 0
    18 20.627234 -10.542814 34.680878 -0.158749 0.809936 -0.564626 0 0
    18 20.973328 -4.725989 40.918668 -0.695495 0.329878 -0.638332 0 0
  phy
    18 23.443219 -6.864038 44.404095 -0.130814 -0.857415 0.497721 0 0
    18 23.293780 -15.344688 38.035518 0.555887 -0.434333 0.708762 0 0
    18 24.002638 -4.504970 41.779128 0.250270 0.515394 0.819594 0 0
  phy
    18 23.443219 -6.864038 44.404095 -0.130814 -0.857415 0.497721 0 0
    18 24.002638 -4.504970 41.779128 0.250270 0.515394 0.819594 0 0
    18 20.973328 -4.725989 40.918668 -0.695495 0.329878 -0.638332 0 0
  phy
    18 23.293780 -15.344688 38.035518 0.555887 -0.434333 0.708762 0 0
    18 24.107000 -11.917012 34.218130 0.755801 0.543941 0.364545 0 0
    18 24.002638 -4.504970 41.779128 0.250270 0.515394 0.819594 0 0
  phy
    29 -16.881714 5.019903 48.271789 0.202432 0.015176 0.979179 0 0
    29 -17.556143 2.949073 47.424318 0.999641 0.001212 -0.026766 0 0
    29 -18.152038 3.996664 49.426534 0.101012 0.879786 0.464513 0 0
  phy
    29 -15.507002 4.048814 47.194137 0.089652 -0.901023 0.424405 0 0
    29 -17.556143 2.949073 47.424318 0.999641 0.001212 -0.026766 0 0
    29 -16.881714 5.019903 48.271789 0.202432 0.015176 0.979179 0 0
  phy
    29 -16.881714 5.019903 48.271789 0.202432 0.015176 0.979179 0 0
    29 -18.152038 3.996664 49.426534 0.101012 0.879786 0.464513 0 0
    29 -7.423994 6.797985 59.424599 -0.019431 0.044758 0.998809 0 0
  phy
    29 -7.423994 6.797985 59.424599 -0.019431 0.044758 0.998809 0 0
    29 -15.507002 4.048814 47.194137 0.089652 -0.901023 0.424405 0 0
    29 -16.881714 5.019903 48.271789 0.202432 0.015176 0.979179 0 0
  phy
    29 -7.423994 6.797985 59.424599 -0.019431 0.044758 0.998809 0 0
    29 -8.618910 5.377193 61.248866 -0.083847 0.875685 0.475547 0 0
    29 -6.580849 4.056178 61.204224 -0.990194 -0.136487 0.029799 0 0
  phy
    29 -6.066540 5.639399 58.357133 -0.135169 -0.922649 0.361175 0 0
    29 -7.423994 6.797985 59.424599 -0.019431 0.044758 0.998809 0 0
    29 -6.580849 4.056178 61.204224 -0.990194 -0.136487 0.029799 0 0
  phy
    29 -18.152038 3.996664 49.426534 0.101012 0.879786 0.464513 0 0
    29 -8.618910 5.377193 61.248866 -0.083847 0.875685 0.475547 0 0
    29 -7.423994 6.797985 59.424599 -0.019431 0.044758 0.998809 0 0
  phy
    29 -7.423994 6.797985 59.424599 -0.019431 0.044758 0.998809 0 0
    29 -6.066540 5.639399 58.357133 -0.135169 -0.922649 0.361175 0 0
    29 -15.507002 4.048814 47.194137 0.089652 -0.901023 0.424405 0 0
  phy
    29 -18.152038 3.996664 49.426534 0.101012 0.879786 0.464513 0 0
    29 -17.556143 2.949073 47.424318 0.999641 0.001212 -0.026766 0 0
    29 -18.047652 2.002336 49.503621 0.085571 0.764985 -0.638338 0 0
  phy
    29 -18.047652 2.002336 49.503621 0.085571 0.764985 -0.638338 0 0
    29 -17.556143 2.949073 47.424318 0.999641 0.001212 -0.026766 0 0
    29 -16.672944 1.031247 48.425970 0.149780 -0.014749 -0.988609 0 0
  phy
    29 -7.126417 1.112603 59.644366 -0.072691 0.077956 -0.994303 0 0
    29 -18.047652 2.002336 49.503621 0.085571 0.764985 -0.638338 0 0
    29 -16.672944 1.031247 48.425970 0.149780 -0.014749 -0.988609 0 0
  phy
    29 -18.047652 2.002336 49.503621 0.085571 0.764985 -0.638338 0 0
    29 -7.126417 1.112603 59.644366 -0.072691 0.077956 -0.994303 0 0
    29 -8.516920 2.823396 61.402873 -0.074285 0.935769 -0.344699 0 0
  phy
    29 -18.152038 3.996664 49.426534 0.101012 0.879786 0.464513 0 0
    29 -18.047652 2.002336 49.503621 0.085571 0.764985 -0.638338 0 0
    29 -8.516920 2.823396 61.402873 -0.074285 0.935769 -0.344699 0 0
  phy
    29 -16.672944 1.031247 48.425970 0.149780 -0.014749 -0.988609 0 0
    29 -17.556143 2.949073 47.424318 0.999641 0.001212 -0.026766 0 0
    29 -15.402618 2.054487 47.271227 0.105832 -0.767459 -0.632303 0 0
  phy
    29 -15.402618 2.054487 47.271227 0.105832 -0.767459 -0.632303 0 0
    29 -17.556143 2.949073 47.424318 0.999641 0.001212 -0.026766 0 0
    29 -15.507002 4.048814 47.194137 0.089652 -0.901023 0.424405 0 0
  phy
    29 -15.402618 2.054487 47.271227 0.105832 -0.767459 -0.632303 0 0
    29 -7.126417 1.112603 59.644366 -0.072691 0.077956 -0.994303 0 0
    29 -16.672944 1.031247 48.425970 0.149780 -0.014749 -0.988609 0 0
  phy
    29 -7.126417 1.112603 59.644366 -0.072691 0.077956 -0.994303 0 0
    29 -15.402618 2.054487 47.271227 0.105832 -0.767459 -0.632303 0 0
    29 -5.856199 2.155291 58.488990 -0.113088 -0.963573 -0.242361 0 0
  phy
    29 -15.507002 4.048814 47.194137 0.089652 -0.901023 0.424405 0 0
    29 -5.856199 2.155291 58.488990 -0.113088 -0.963573 -0.242361 0 0
    29 -15.402618 2.054487 47.271227 0.105832 -0.767459 -0.632303 0 0
  phy
    29 -8.516920 2.823396 61.402873 -0.074285 0.935769 -0.344699 0 0
    29 -7.126417 1.112603 59.644366 -0.072691 0.077956 -0.994303 0 0
    29 -6.580849 4.056178 61.204224 -0.990194 -0.136487 0.029799 0 0
  phy
    29 -7.126417 1.112603 59.644366 -0.072691 0.077956 -0.994303 0 0
    29 -5.856199 2.155291 58.488990 -0.113088 -0.963573 -0.242361 0 0
    29 -6.580849 4.056178 61.204224 -0.990194 -0.136487 0.029799 0 0
  phy
    29 -18.152038 3.996664 49.426534 0.101012 0.879786 0.464513 0 0
    29 -8.516920 2.823396 61.402873 -0.074285 0.935769 -0.344699 0 0
    29 -8.618910 5.377193 61.248866 -0.083847 0.875685 0.475547 0 0
  phy
    29 -6.066540 5.639399 58.357133 -0.135169 -0.922649 0.361175 0 0
    29 -5.856199 2.155291 58.488990 -0.113088 -0.963573 -0.242361 0 0
    29 -15.507002 4.048814 47.194137 0.089652 -0.901023 0.424405 0 0
  phy
    29 -8.618910 5.377193 61.248866 -0.083847 0.875685 0.475547 0 0
    29 -8.516920 2.823396 61.402873 -0.074285 0.935769 -0.344699 0 0
    29 -6.580849 4.056178 61.204224 -0.990194 -0.136487 0.029799 0 0
  phy
    29 -5.856199 2.155291 58.488990 -0.113088 -0.963573 -0.242361 0 0
    29 -6.066540 5.639399 58.357133 -0.135169 -0.922649 0.361175 0 0
    29 -6.580849 4.056178 61.204224 -0.990194 -0.136487 0.029799 0 0
  phy
    30 -20.870867 -6.727351 43.270816 0.102122 -0.012559 -0.994693 0 0
    30 -20.349919 -6.230751 42.150241 0.145551 -0.880631 -0.450893 0 0
    30 -14.741009 2.474583 48.122906 -0.050242 -0.872161 -0.486632 0 0
  phy
    30 -21.032189 -5.271548 41.364260 0.096659 -0.952742 0.287991 0 0
    30 -14.741009 2.474583 48.122906 -0.050242 -0.872161 -0.486632 0 0
    30 -20.349919 -6.230751 42.150241 0.145551 -0.880631 -0.450893 0 0
  phy
    30 -20.870867 -6.727351 43.270816 0.102122 -0.012559 -0.994693 0 0
    30 -21.984560 -6.508035 41.956384 0.999709 -0.009628 0.022130 0 0
    30 -20.349919 -6.230751 42.150241 0.145551 -0.880631 -0.450893 0 0
  phy
    30 -20.349919 -6.230751 42.150241 0.145551 -0.880631 -0.450893 0 0
    30 -21.984560 -6.508035 41.956384 0.999709 -0.009628 0.022130 0 0
    30 -21.032189 -5.271548 41.364260 0.096659 -0.952742 0.287991 0 0
  phy
    30 -15.612121 1.786051 49.798076 -0.100185 -0.010562 -0.994913 0 0
    30 -20.870867 -6.727351 43.270816 0.102122 -0.012559 -0.994693 0 0
    30 -14.741009 2.474583 48.122906 -0.050242 -0.872161 -0.486632 0 0
  phy
    30 -22.074084 -6.264747 43.605420 0.130928 0.950188 -0.282844 0 0
    30 -21.984560 -6.508035 41.956384 0.999709 -0.009628 0.022130 0 0
    30 -20.870867 -6.727351 43.270816 0.102122 -0.012559 -0.994693 0 0
  phy
    30 -20.870867 -6.727351 43.270816 0.102122 -0.012559 -0.994693 0 0
    30 -15.612121 1.786051 49.798076 -0.100185 -0.010562 -0.994913 0 0
    30 -17.425080 2.421662 50.388247 -0.049812 0.778615 -0.625522 0 0
  phy
    30 -22.074084 -6.264747 43.605420 0.130928 0.950188 -0.282844 0 0
    30 -20.870867 -6.727351 43.270816 0.102122 -0.012559 -0.994693 0 0
    30 -17.425080 2.421662 50.388247 -0.049812 0.778615 -0.625522 0 0
  phy
    30 -21.032189 -5.271548 41.364260 0.096659 -0.952742 0.287991 0 0
    30 -15.682853 3.798729 47.037902 -0.085617 -0.777672 0.622813 0 0
    30 -14.741009 2.474583 48.122906 -0.050242 -0.872161 -0.486632 0 0
  phy
    30 -22.235404 -4.808944 41.698869 0.082039 0.010761 0.996571 0 0
    30 -15.682853 3.798729 47.037902 -0.085617 -0.777672 0.622813 0 0
    30 -21.032189 -5.271548 41.364260 0.096659 -0.952742 0.287991 0 0
  phy
    30 -21.032189 -5.271548 41.364260 0.096659 -0.952742 0.287991 0 0
    30 -21.984560 -6.508035 41.956384 0.999709 -0.009628 0.022130 0 0
    30 -22.235404 -4.808944 41.698869 0.082039 0.010761 0.996571 0 0
  phy
    30 -15.612121 1.786051 49.798076 -0.100185 -0.010562 -0.994913 0 0
    30 -14.741009 2.474583 48.122906 -0.050242 -0.872161 -0.486632 0 0
    30 -16.222038 3.679444 49.119651 -0.999709 0.009628 -0.022132 0 0
  phy
    30 -17.425080 2.421662 50.388247 -0.049812 0.778615 -0.625522 0 0
    30 -15.612121 1.786051 49.798076 -0.100185 -0.010562 -0.994913 0 0
    30 -16.222038 3.679444 49.119651 -0.999709 0.009628 -0.022132 0 0
  phy
    30 -22.756350 -5.305541 42.819447 0.161050 0.875104 0.456351 0 0
    30 -18.366924 3.745807 49.303243 -0.034298 0.873739 0.485185 0 0
    30 -22.235404 -4.808944 41.698869 0.082039 0.010761 0.996571 0 0
  phy
    30 -22.235404 -4.808944 41.698869 0.082039 0.010761 0.996571 0 0
    30 -18.366924 3.745807 49.303243 -0.034298 0.873739 0.485185 0 0
    30 -17.495813 4.434340 47.628069 -0.121027 0.012722 0.992568 0 0
  phy
    30 -22.235404 -4.808944 41.698869 0.082039 0.010761 0.996571 0 0
    30 -21.984560 -6.508035 41.956384 0.999709 -0.009628 0.022130 0 0
    30 -22.756350 -5.305541 42.819447 0.161050 0.875104 0.456351 0 0
  phy
    30 -17.495813 4.434340 47.628069 -0.121027 0.012722 0.992568 0 0
    30 -15.682853 3.798729 47.037902 -0.085617 -0.777672 0.622813 0 0
    30 -22.235404 -4.808944 41.698869 0.082039 0.010761 0.996571 0 0
  phy
    30 -22.756350 -5.305541 42.819447 0.161050 0.875104 0.456351 0 0
    30 -22.074084 -6.264747 43.605420 0.130928 0.950188 -0.282844 0 0
    30 -18.366924 3.745807 49.303243 -0.034298 0.873739 0.485185 0 0
  phy
    30 -22.756350 -5.305541 42.819447 0.161050 0.875104 0.456351 0 0
    30 -21.984560 -6.508035 41.956384 0.999709 -0.009628 0.022130 0 0
    30 -22.074084 -6.264747 43.605420 0.130928 0.950188 -0.282844 0 0
  phy
    30 -22.074084 -6.264747 43.605420 0.130928 0.950188 -0.282844 0 0
    30 -17.425080 2.421662 50.388247 -0.049812 0.778615 -0.625522 0 0
    30 -18.366924 3.745807 49.303243 -0.034298 0.873739 0.485185 0 0
  phy
    30 -15.682853 3.798729 47.037902 -0.085617 -0.777672 0.622813 0 0
    30 -17.495813 4.434340 47.628069 -0.121027 0.012722 0.992568 0 0
    30 -16.222038 3.679444 49.119651 -0.999709 0.009628 -0.022132 0 0
  phy
    30 -17.495813 4.434340 47.628069 -0.121027 0.012722 0.992568 0 0
    30 -18.366924 3.745807 49.303243 -0.034298 0.873739 0.485185 0 0
    30 -16.222038 3.679444 49.119651 -0.999709 0.009628 -0.022132 0 0
  phy
    30 -14.741009 2.474583 48.122906 -0.050242 -0.872161 -0.486632 0 0
    30 -15.682853 3.798729 47.037902 -0.085617 -0.777672 0.622813 0 0
    30 -16.222038 3.679444 49.119651 -0.999709 0.009628 -0.022132 0 0
  phy
    30 -18.366924 3.745807 49.303243 -0.034298 0.873739 0.485185 0 0
    30 -17.425080 2.421662 50.388247 -0.049812 0.778615 -0.625522 0 0
    30 -16.222038 3.679444 49.119651 -0.999709 0.009628 -0.022132 0 0
  phy
    6 -8.475796 -2.568520 21.551525 0.156573 0.640879 -0.751504 0 0
    6 -6.779134 -1.747368 37.593698 -0.174061 0.859838 -0.479981 0 0
    6 -9.077419 0.001508 21.290450 0.119806 0.991869 0.042931 0 0
  phy
    6 -9.077419 0.001508 21.290450 0.119806 0.991869 0.042931 0 0
    6 -6.779134 -1.747368 37.593698 -0.174061 0.859838 -0.479981 0 0
    6 -7.411200 1.438891 37.555197 -0.181891 0.983220 0.013931 0 0
  phy
    6 -7.411200 1.438891 37.555197 -0.181891 0.983220 0.013931 0 0
    6 -6.779134 -1.747368 37.593698 -0.174061 0.859838 -0.479981 0 0
    6 -3.682116 2.169925 38.513035 -0.999043 0.033884 0.027659 0 0
  phy
    6 -6.779134 -1.747368 37.593698 -0.174061 0.859838 -0.479981 0 0
    6 -4.038842 -3.168523 37.349592 -0.148780 -0.025366 -0.988545 0 0
    6 -3.682116 2.169925 38.513035 -0.999043 0.033884 0.027659 0 0
  phy
    6 -6.779134 -1.747368 37.593698 -0.174061 0.859838 -0.479981 0 0
    6 -8.475796 -2.568520 21.551525 0.156573 0.640879 -0.751504 0 0
    6 -4.038842 -3.168523 37.349592 -0.148780 -0.025366 -0.988545 0 0
  phy
    6 -8.062690 2.792680 20.983392 0.273245 0.747597 0.605339 0 0
    6 -5.726013 -0.147081 19.923983 0.999428 -0.018254 -0.028484 0 0
    6 -9.077419 0.001508 21.290450 0.119806 0.991869 0.042931 0 0
  phy
    6 -5.435534 4.612748 20.746560 0.203365 0.041166 0.978237 0 0
    6 -5.726013 -0.147081 19.923983 0.999428 -0.018254 -0.028484 0 0
    6 -8.062690 2.792680 20.983392 0.273245 0.747597 0.605339 0 0
  phy
    6 -6.760239 4.766830 37.129047 -0.063444 0.788347 0.611951 0 0
    6 -8.062690 2.792680 20.983392 0.273245 0.747597 0.605339 0 0
    6 -9.077419 0.001508 21.290450 0.119806 0.991869 0.042931 0 0
  phy
    6 -6.760239 4.766830 37.129047 -0.063444 0.788347 0.611951 0 0
    6 -5.435534 4.612748 20.746560 0.203365 0.041166 0.978237 0 0
    6 -8.062690 2.792680 20.983392 0.273245 0.747597 0.605339 0 0
  phy
    6 -3.801512 6.338789 36.603704 -0.186577 0.101335 0.977200 0 0
    6 -6.760239 4.766830 37.129047 -0.063444 0.788347 0.611951 0 0
    6 -3.682116 2.169925 38.513035 -0.999043 0.033884 0.027659 0 0
  phy
    6 -1.272538 5.335673 36.467059 -0.079438 -0.777202 0.624217 0 0
    6 -3.801512 6.338789 36.603704 -0.186577 0.101335 0.977200 0 0
    6 -3.682116 2.169925 38.513035 -0.999043 0.033884 0.027659 0 0
  phy
    6 -3.801512 6.338789 36.603704 -0.186577 0.101335 0.977200 0 0
    6 -5.435534 4.612748 20.746560 0.203365 0.041166 0.978237 0 0
    6 -6.760239 4.766830 37.129047 -0.063444 0.788347 0.611951 0 0
  phy
    6 -1.272538 5.335673 36.467059 -0.079438 -0.777202 0.624217 0 0
    6 -5.435534 4.612748 20.746560 0.203365 0.041166 0.978237 0 0
    6 -3.801512 6.338789 36.603704 -0.186577 0.101335 0.977200 0 0
  phy
    6 -8.475796 -2.568520 21.551525 0.156573 0.640879 -0.751504 0 0
    6 -5.847709 -3.639751 21.350054 0.224194 0.024411 -0.974239 0 0
    6 -4.038842 -3.168523 37.349592 -0.148780 -0.025366 -0.988545 0 0
  phy
    6 -9.077419 0.001508 21.290450 0.119806 0.991869 0.042931 0 0
    6 -5.726013 -0.147081 19.923983 0.999428 -0.018254 -0.028484 0 0
    6 -8.475796 -2.568520 21.551525 0.156573 0.640879 -0.751504 0 0
  phy
    6 -8.475796 -2.568520 21.551525 0.156573 0.640879 -0.751504 0 0
    6 -5.726013 -0.147081 19.923983 0.999428 -0.018254 -0.028484 0 0
    6 -5.847709 -3.639751 21.350054 0.224194 0.024411 -0.974239 0 0
  phy
    6 -6.760239 4.766830 37.129047 -0.063444 0.788347 0.611951 0 0
    6 -7.411200 1.438891 37.555197 -0.181891 0.983220 0.013931 0 0
    6 -3.682116 2.169925 38.513035 -0.999043 0.033884 0.027659 0 0
  phy
    6 -6.760239 4.766830 37.129047 -0.063444 0.788347 0.611951 0 0
    6 -9.077419 0.001508 21.290450 0.119806 0.991869 0.042931 0 0
    6 -7.411200 1.438891 37.555197 -0.181891 0.983220 0.013931 0 0
  phy
    6 -5.847709 -3.639751 21.350054 0.224194 0.024411 -0.974239 0 0
    6 -2.846721 -2.725754 20.977445 0.117720 -0.595787 -0.794468 0 0
    6 -4.038842 -3.168523 37.349592 -0.148780 -0.025366 -0.988545 0 0
  phy
    6 -5.847709 -3.639751 21.350054 0.224194 0.024411 -0.974239 0 0
    6 -5.726013 -0.147081 19.923983 0.999428 -0.018254 -0.028484 0 0
    6 -2.846721 -2.725754 20.977445 0.117720 -0.595787 -0.794468 0 0
  phy
    6 -0.369141 2.174504 36.918196 -0.231464 -0.972843 -0.000695 0 0
    6 -1.272538 5.335673 36.467059 -0.079438 -0.777202 0.624217 0 0
    6 -3.682116 2.169925 38.513035 -0.999043 0.033884 0.027659 0 0
  phy
    6 -1.276175 -1.241880 37.185505 -0.208074 -0.819378 -0.534158 0 0
    6 -0.369141 2.174504 36.918196 -0.231464 -0.972843 -0.000695 0 0
    6 -3.682116 2.169925 38.513035 -0.999043 0.033884 0.027659 0 0
  phy
    6 -0.369141 2.174504 36.918196 -0.231464 -0.972843 -0.000695 0 0
    6 -1.593784 -0.264400 20.604973 0.082562 -0.996545 -0.009061 0 0
    6 -1.272538 5.335673 36.467059 -0.079438 -0.777202 0.624217 0 0
  phy
    6 -1.276175 -1.241880 37.185505 -0.208074 -0.819378 -0.534158 0 0
    6 -1.593784 -0.264400 20.604973 0.082562 -0.996545 -0.009061 0 0
    6 -0.369141 2.174504 36.918196 -0.231464 -0.972843 -0.000695 0 0
  phy
    6 -2.934227 2.716889 20.437590 0.265181 -0.760030 0.593324 0 0
    6 -5.435534 4.612748 20.746560 0.203365 0.041166 0.978237 0 0
    6 -1.272538 5.335673 36.467059 -0.079438 -0.777202 0.624217 0 0
  phy
    6 -1.272538 5.335673 36.467059 -0.079438 -0.777202 0.624217 0 0
    6 -1.593784 -0.264400 20.604973 0.082562 -0.996545 -0.009061 0 0
    6 -2.934227 2.716889 20.437590 0.265181 -0.760030 0.593324 0 0
  phy
    6 -2.934227 2.716889 20.437590 0.265181 -0.760030 0.593324 0 0
    6 -5.726013 -0.147081 19.923983 0.999428 -0.018254 -0.028484 0 0
    6 -5.435534 4.612748 20.746560 0.203365 0.041166 0.978237 0 0
  phy
    6 -1.593784 -0.264400 20.604973 0.082562 -0.996545 -0.009061 0 0
    6 -5.726013 -0.147081 19.923983 0.999428 -0.018254 -0.028484 0 0
    6 -2.934227 2.716889 20.437590 0.265181 -0.760030 0.593324 0 0
  phy
    6 -2.846721 -2.725754 20.977445 0.117720 -0.595787 -0.794468 0 0
    6 -1.276175 -1.241880 37.185505 -0.208074 -0.819378 -0.534158 0 0
    6 -4.038842 -3.168523 37.349592 -0.148780 -0.025366 -0.988545 0 0
  phy
    6 -2.846721 -2.725754 20.977445 0.117720 -0.595787 -0.794468 0 0
    6 -1.593784 -0.264400 20.604973 0.082562 -0.996545 -0.009061 0 0
    6 -1.276175 -1.241880 37.185505 -0.208074 -0.819378 -0.534158 0 0
  phy
    6 -2.846721 -2.725754 20.977445 0.117720 -0.595787 -0.794468 0 0
    6 -5.726013 -0.147081 19.923983 0.999428 -0.018254 -0.028484 0 0
    6 -1.593784 -0.264400 20.604973 0.082562 -0.996545 -0.009061 0 0
  phy
    6 -4.038842 -3.168523 37.349592 -0.148780 -0.025366 -0.988545 0 0
    6 -1.276175 -1.241880 37.185505 -0.208074 -0.819378 -0.534158 0 0
    6 -3.682116 2.169925 38.513035 -0.999043 0.033884 0.027659 0 0
  phy
    7 -10.423509 3.378435 4.064035 0.256934 0.707910 0.657912 0 0
    7 -8.115136 0.801723 2.605678 0.999178 -0.026633 -0.030559 0 0
    7 -11.471932 0.873661 3.962114 0.129942 0.983212 0.128097 0 0
  phy
    7 -7.784470 4.827233 4.093723 0.197277 0.031351 0.979846 0 0
    7 -8.115136 0.801723 2.605678 0.999178 -0.026633 -0.030559 0 0
    7 -10.423509 3.378435 4.064035 0.256934 0.707910 0.657912 0 0
  phy
    7 -10.423509 3.378435 4.064035 0.256934 0.707910 0.657912 0 0
    7 -11.471932 0.873661 3.962114 0.129942 0.983212 0.128097 0 0
    7 -8.591897 3.055395 20.452170 -0.068690 0.740075 0.669007 0 0
  phy
    7 -8.591897 3.055395 20.452170 -0.068690 0.740075 0.669007 0 0
    7 -7.784470 4.827233 4.093723 0.197277 0.031351 0.979846 0 0
    7 -10.423509 3.378435 4.064035 0.256934 0.707910 0.657912 0 0
  phy
    7 -11.471932 0.873661 3.962114 0.129942 0.983212 0.128097 0 0
    7 -8.115136 0.801723 2.605678 0.999178 -0.026633 -0.030559 0 0
    7 -10.918231 -1.714017 3.833818 0.056078 0.747218 -0.662208 0 0
  phy
    7 -8.591897 3.055395 20.452170 -0.068690 0.740075 0.669007 0 0
    7 -11.471932 0.873661 3.962114 0.129942 0.983212 0.128097 0 0
    7 -9.234807 0.170056 20.443990 -0.167080 0.981959 -0.088546 0 0
  phy
    7 -11.471932 0.873661 3.962114 0.129942 0.983212 0.128097 0 0
    7 -10.918231 -1.714017 3.833818 0.056078 0.747218 -0.662208 0 0
    7 -9.234807 0.170056 20.443990 -0.167080 0.981959 -0.088546 0 0
  phy
    7 -5.527083 4.358884 20.156474 -0.137394 0.085265 0.986840 0 0
    7 -8.591897 3.055395 20.452170 -0.068690 0.740075 0.669007 0 0
    7 -5.411623 0.607084 21.473747 -0.998695 0.034456 0.037699 0 0
  phy
    7 -2.808814 3.537774 19.882328 -0.026259 -0.713165 0.700504 0 0
    7 -5.527083 4.358884 20.156474 -0.137394 0.085265 0.986840 0 0
    7 -5.411623 0.607084 21.473747 -0.998695 0.034456 0.037699 0 0
  phy
    7 -5.527083 4.358884 20.156474 -0.137394 0.085265 0.986840 0 0
    7 -7.784470 4.827233 4.093723 0.197277 0.031351 0.979846 0 0
    7 -8.591897 3.055395 20.452170 -0.068690 0.740075 0.669007 0 0
  phy
    7 -2.808814 3.537774 19.882328 -0.026259 -0.713165 0.700504 0 0
    7 -7.784470 4.827233 4.093723 0.197277 0.031351 0.979846 0 0
    7 -5.527083 4.358884 20.156474 -0.137394 0.085265 0.986840 0 0
  phy
    7 -10.918231 -1.714017 3.833818 0.056078 0.747218 -0.662208 0 0
    7 -8.115136 0.801723 2.605678 0.999178 -0.026633 -0.030559 0 0
    7 -8.307680 -2.791855 3.489931 0.168298 0.024207 -0.985439 0 0
  phy
    7 -8.307680 -2.791855 3.489931 0.168298 0.024207 -0.985439 0 0
    7 -8.115136 0.801723 2.605678 0.999178 -0.026633 -0.030559 0 0
    7 -5.287517 -1.888935 3.281310 0.108215 -0.580811 -0.806813 0 0
  phy
    7 -10.918231 -1.714017 3.833818 0.056078 0.747218 -0.662208 0 0
    7 -8.307680 -2.791855 3.489931 0.168298 0.024207 -0.985439 0 0
    7 -5.655483 -3.922674 19.574997 -0.177767 -0.011843 -0.984001 0 0
  phy
    7 -8.307680 -2.791855 3.489931 0.168298 0.024207 -0.985439 0 0
    7 -5.287517 -1.888935 3.281310 0.108215 -0.580811 -0.806813 0 0
    7 -5.655483 -3.922674 19.574997 -0.177767 -0.011843 -0.984001 0 0
  phy
    7 -9.234807 0.170056 20.443990 -0.167080 0.981959 -0.088546 0 0
    7 -8.381785 -2.575675 20.053399 -0.282434 0.716034 -0.638378 0 0
    7 -5.411623 0.607084 21.473747 -0.998695 0.034456 0.037699 0 0
  phy
    7 -8.381785 -2.575675 20.053399 -0.282434 0.716034 -0.638378 0 0
    7 -5.655483 -3.922674 19.574997 -0.177767 -0.011843 -0.984001 0 0
    7 -5.411623 0.607084 21.473747 -0.998695 0.034456 0.037699 0 0
  phy
    7 -10.918231 -1.714017 3.833818 0.056078 0.747218 -0.662208 0 0
    7 -8.381785 -2.575675 20.053399 -0.282434 0.716034 -0.638378 0 0
    7 -9.234807 0.170056 20.443990 -0.167080 0.981959 -0.088546 0 0
  phy
    7 -8.381785 -2.575675 20.053399 -0.282434 0.716034 -0.638378 0 0
    7 -10.918231 -1.714017 3.833818 0.056078 0.747218 -0.662208 0 0
    7 -5.655483 -3.922674 19.574997 -0.177767 -0.011843 -0.984001 0 0
  phy
    7 -8.591897 3.055395 20.452170 -0.068690 0.740075 0.669007 0 0
    7 -9.234807 0.170056 20.443990 -0.167080 0.981959 -0.088546 0 0
    7 -5.411623 0.607084 21.473747 -0.998695 0.034456 0.037699 0 0
  phy
    7 -1.771696 0.743984 19.873033 -0.195528 -0.980630 0.011576 0 0
    7 -2.808814 3.537774 19.882328 -0.026259 -0.713165 0.700504 0 0
    7 -5.411623 0.607084 21.473747 -0.998695 0.034456 0.037699 0 0
  phy
    7 -2.837407 -2.250300 19.663298 -0.185589 -0.794869 -0.577702 0 0
    7 -1.771696 0.743984 19.873033 -0.195528 -0.980630 0.011576 0 0
    7 -5.411623 0.607084 21.473747 -0.998695 0.034456 0.037699 0 0
  phy
    7 -1.771696 0.743984 19.873033 -0.195528 -0.980630 0.011576 0 0
    7 -3.987686 0.576072 3.296039 0.134768 -0.990870 -0.003877 0 0
    7 -2.808814 3.537774 19.882328 -0.026259 -0.713165 0.700504 0 0
  phy
    7 -2.837407 -2.250300 19.663298 -0.185589 -0.794869 -0.577702 0 0
    7 -3.987686 0.576072 3.296039 0.134768 -0.990870 -0.003877 0 0
    7 -1.771696 0.743984 19.873033 -0.195528 -0.980630 0.011576 0 0
  phy
    7 -5.292608 3.282058 3.547751 0.295647 -0.710599 0.638469 0 0
    7 -7.784470 4.827233 4.093723 0.197277 0.031351 0.979846 0 0
    7 -2.808814 3.537774 19.882328 -0.026259 -0.713165 0.700504 0 0
  phy
    7 -2.808814 3.537774 19.882328 -0.026259 -0.713165 0.700504 0 0
    7 -3.987686 0.576072 3.296039 0.134768 -0.990870 -0.003877 0 0
    7 -5.292608 3.282058 3.547751 0.295647 -0.710599 0.638469 0 0
  phy
    7 -5.292608 3.282058 3.547751 0.295647 -0.710599 0.638469 0 0
    7 -8.115136 0.801723 2.605678 0.999178 -0.026633 -0.030559 0 0
    7 -7.784470 4.827233 4.093723 0.197277 0.031351 0.979846 0 0
  phy
    7 -3.987686 0.576072 3.296039 0.134768 -0.990870 -0.003877 0 0
    7 -8.115136 0.801723 2.605678 0.999178 -0.026633 -0.030559 0 0
    7 -5.292608 3.282058 3.547751 0.295647 -0.710599 0.638469 0 0
  phy
    7 -5.287517 -1.888935 3.281310 0.108215 -0.580811 -0.806813 0 0
    7 -2.837407 -2.250300 19.663298 -0.185589 -0.794869 -0.577702 0 0
    7 -5.655483 -3.922674 19.574997 -0.177767 -0.011843 -0.984001 0 0
  phy
    7 -5.287517 -1.888935 3.281310 0.108215 -0.580811 -0.806813 0 0
    7 -3.987686 0.576072 3.296039 0.134768 -0.990870 -0.003877 0 0
    7 -2.837407 -2.250300 19.663298 -0.185589 -0.794869 -0.577702 0 0
  phy
    7 -5.287517 -1.888935 3.281310 0.108215 -0.580811 -0.806813 0 0
    7 -8.115136 0.801723 2.605678 0.999178 -0.026633 -0.030559 0 0
    7 -3.987686 0.576072 3.296039 0.134768 -0.990870 -0.003877 0 0
  phy
    7 -5.655483 -3.922674 19.574997 -0.177767 -0.011843 -0.984001 0 0
    7 -2.837407 -2.250300 19.663298 -0.185589 -0.794869 -0.577702 0 0
    7 -5.411623 0.607084 21.473747 -0.998695 0.034456 0.037699 0 0
  phy
    8 -6.134517 -6.470520 1.713966 -0.275378 -0.094569 -0.956673 0 0
    8 -5.855076 4.614143 3.388215 -0.452532 -0.777106 -0.437402 0 0
    8 -9.618321 4.872848 3.388208 -0.606343 0.447598 -0.657270 0 0
  phy
    8 -5.855076 4.614143 3.388215 -0.452532 -0.777106 -0.437402 0 0
    8 -6.026229 4.483074 -0.072775 0.056074 -0.533501 0.843939 0 0
    8 -9.618321 4.872848 3.388208 -0.606343 0.447598 -0.657270 0 0
  phy
    8 -6.134517 -6.470520 1.713966 -0.275378 -0.094569 -0.956673 0 0
    8 -5.372396 -7.763144 -0.072791 0.546149 -0.441812 0.711705 0 0
    8 -5.855076 4.614143 3.388215 -0.452532 -0.777106 -0.437402 0 0
  phy
    8 -5.855076 4.614143 3.388215 -0.452532 -0.777106 -0.437402 0 0
    8 -5.372396 -7.763144 -0.072791 0.546149 -0.441812 0.711705 0 0
    8 -6.026229 4.483074 -0.072775 0.056074 -0.533501 0.843939 0 0
  phy
    8 -6.134517 -6.470520 1.713966 -0.275378 -0.094569 -0.956673 0 0
    8 -11.367896 -4.987192 1.713957 -0.309719 0.277418 -0.909458 0 0
    8 -11.984347 -6.185043 -0.072801 0.522068 0.762738 0.381674 0 0
  phy
    8 -11.367896 -4.987192 1.713957 -0.309719 0.277418 -0.909458 0 0
    8 -6.134517 -6.470520 1.713966 -0.275378 -0.094569 -0.956673 0 0
    8 -9.618321 4.872848 3.388208 -0.606343 0.447598 -0.657270 0 0
  phy
    8 -11.984347 -6.185043 -0.072801 0.522068 0.762738 0.381674 0 0
    8 -11.367896 -4.987192 1.713957 -0.309719 0.277418 -0.909458 0 0
    8 -9.618321 4.872848 3.388208 -0.606343 0.447598 -0.657270 0 0
  phy
    8 -6.134517 -6.470520 1.713966 -0.275378 -0.094569 -0.956673 0 0
    8 -11.984347 -6.185043 -0.072801 0.522068 0.762738 0.381674 0 0
    8 -5.372396 -7.763144 -0.072791 0.546149 -0.441812 0.711705 0 0
  phy
    8 -6.026229 4.483074 -0.072775 0.056074 -0.533501 0.843939 0 0
    8 -5.372396 -7.763144 -0.072791 0.546149 -0.441812 0.711705 0 0
    8 -10.512109 4.791455 -0.072783 0.398806 0.301632 0.866009 0 0
  phy
    8 -10.512109 4.791455 -0.072783 0.398806 0.301632 0.866009 0 0
    8 -5.372396 -7.763144 -0.072791 0.546149 -0.441812 0.711705 0 0
    8 -11.984347 -6.185043 -0.072801 0.522068 0.762738 0.381674 0 0
  phy
    8 -6.026229 4.483074 -0.072775 0.056074 -0.533501 0.843939 0 0
    8 -10.512109 4.791455 -0.072783 0.398806 0.301632 0.866009 0 0
    8 -9.618321 4.872848 3.388208 -0.606343 0.447598 -0.657270 0 0
  phy
    8 -10.512109 4.791455 -0.072783 0.398806 0.301632 0.866009 0 0
    8 -11.984347 -6.185043 -0.072801 0.522068 0.762738 0.381674 0 0
    8 -9.618321 4.872848 3.388208 -0.606343 0.447598 -0.657270 0 0
  phy
    2 8.476329 -2.569184 21.551547 0.156571 -0.640880 -0.751504 0 0
    2 9.078145 0.000799 21.290466 0.119804 -0.991869 0.042931 0 0
    2 6.779702 -1.747874 37.593713 -0.174062 -0.859838 -0.479981 0 0
  phy
    2 9.078145 0.000799 21.290466 0.119804 -0.991869 0.042931 0 0
    2 7.412003 1.438337 37.555200 -0.181893 -0.983220 0.013931 0 0
    2 6.779702 -1.747874 37.593713 -0.174062 -0.859838 -0.479981 0 0
  phy
    2 6.779702 -1.747874 37.593713 -0.174062 -0.859838 -0.479981 0 0
    2 7.412003 1.438337 37.555200 -0.181893 -0.983220 0.013931 0 0
    2 3.682974 2.169653 38.513036 -0.999043 -0.033882 0.027660 0 0
  phy
    2 4.039305 -3.168826 37.349607 -0.148781 0.025366 -0.988545 0 0
    2 6.779702 -1.747874 37.593713 -0.174062 -0.859838 -0.479981 0 0
    2 3.682974 2.169653 38.513036 -0.999043 -0.033882 0.027660 0 0
  phy
    2 8.476329 -2.569184 21.551547 0.156571 -0.640880 -0.751504 0 0
    2 6.779702 -1.747874 37.593713 -0.174062 -0.859838 -0.479981 0 0
    2 4.039305 -3.168826 37.349607 -0.148781 0.025366 -0.988545 0 0
  phy
    2 9.078145 0.000799 21.290466 0.119804 -0.991869 0.042931 0 0
    2 5.726733 -0.147542 19.923990 0.999428 0.018252 -0.028485 0 0
    2 8.063626 2.792046 20.983401 0.273244 -0.747598 0.605338 0 0
  phy
    2 8.063626 2.792046 20.983401 0.273244 -0.747598 0.605338 0 0
    2 5.726733 -0.147542 19.923990 0.999428 0.018252 -0.028485 0 0
    2 5.436607 4.612311 20.746558 0.203365 -0.041166 0.978237 0 0
  phy
    2 6.761295 4.766327 37.129048 -0.063445 -0.788347 0.611950 0 0
    2 9.078145 0.000799 21.290466 0.119804 -0.991869 0.042931 0 0
    2 8.063626 2.792046 20.983401 0.273244 -0.747598 0.605338 0 0
  phy
    2 8.063626 2.792046 20.983401 0.273244 -0.747598 0.605338 0 0
    2 5.436607 4.612311 20.746558 0.203365 -0.041166 0.978237 0 0
    2 6.761295 4.766327 37.129048 -0.063445 -0.788347 0.611950 0 0
  phy
    2 6.761295 4.766327 37.129048 -0.063445 -0.788347 0.611950 0 0
    2 3.802686 6.338504 36.603700 -0.186577 -0.101335 0.977200 0 0
    2 3.682974 2.169653 38.513036 -0.999043 -0.033882 0.027660 0 0
  phy
    2 3.802686 6.338504 36.603700 -0.186577 -0.101335 0.977200 0 0
    2 1.273638 5.335576 36.467046 -0.079437 0.777202 0.624217 0 0
    2 3.682974 2.169653 38.513036 -0.999043 -0.033882 0.027660 0 0
  phy
    2 6.761295 4.766327 37.129048 -0.063445 -0.788347 0.611950 0 0
    2 5.436607 4.612311 20.746558 0.203365 -0.041166 0.978237 0 0
    2 3.802686 6.338504 36.603700 -0.186577 -0.101335 0.977200 0 0
  phy
    2 3.802686 6.338504 36.603700 -0.186577 -0.101335 0.977200 0 0
    2 5.436607 4.612311 20.746558 0.203365 -0.041166 0.978237 0 0
    2 1.273638 5.335576 36.467046 -0.079437 0.777202 0.624217 0 0
  phy
    2 5.848164 -3.640220 21.350067 0.224193 -0.024412 -0.974239 0 0
    2 8.476329 -2.569184 21.551547 0.156571 -0.640880 -0.751504 0 0
    2 4.039305 -3.168826 37.349607 -0.148781 0.025366 -0.988545 0 0
  phy
    2 8.476329 -2.569184 21.551547 0.156571 -0.640880 -0.751504 0 0
    2 5.726733 -0.147542 19.923990 0.999428 0.018252 -0.028485 0 0
    2 9.078145 0.000799 21.290466 0.119804 -0.991869 0.042931 0 0
  phy
    2 5.848164 -3.640220 21.350067 0.224193 -0.024412 -0.974239 0 0
    2 5.726733 -0.147542 19.923990 0.999428 0.018252 -0.028485 0 0
    2 8.476329 -2.569184 21.551547 0.156571 -0.640880 -0.751504 0 0
  phy
    2 7.412003 1.438337 37.555200 -0.181893 -0.983220 0.013931 0 0
    2 6.761295 4.766327 37.129048 -0.063445 -0.788347 0.611950 0 0
    2 3.682974 2.169653 38.513036 -0.999043 -0.033882 0.027660 0 0
  phy
    2 6.761295 4.766327 37.129048 -0.063445 -0.788347 0.611950 0 0
    2 7.412003 1.438337 37.555200 -0.181893 -0.983220 0.013931 0 0
    2 9.078145 0.000799 21.290466 0.119804 -0.991869 0.042931 0 0
  phy
    2 2.847244 -2.726000 20.977455 0.117721 0.595788 -0.794468 0 0
    2 5.848164 -3.640220 21.350067 0.224193 -0.024412 -0.974239 0 0
    2 4.039305 -3.168826 37.349607 -0.148781 0.025366 -0.988545 0 0
  phy
    2 2.847244 -2.726000 20.977455 0.117721 0.595788 -0.794468 0 0
    2 5.726733 -0.147542 19.923990 0.999428 0.018252 -0.028485 0 0
    2 5.848164 -3.640220 21.350067 0.224193 -0.024412 -0.974239 0 0
  phy
    2 1.273638 5.335576 36.467046 -0.079437 0.777202 0.624217 0 0
    2 0.370006 2.174475 36.918187 -0.231462 0.972844 -0.000694 0 0
    2 3.682974 2.169653 38.513036 -0.999043 -0.033882 0.027660 0 0
  phy
    2 0.370006 2.174475 36.918187 -0.231462 0.972844 -0.000694 0 0
    2 1.276781 -1.241977 37.185506 -0.208073 0.819379 -0.534157 0 0
    2 3.682974 2.169653 38.513036 -0.999043 -0.033882 0.027660 0 0
  phy
    2 0.370006 2.174475 36.918187 -0.231462 0.972844 -0.000694 0 0
    2 1.273638 5.335576 36.467046 -0.079437 0.777202 0.624217 0 0
    2 1.594494 -0.264552 20.604971 0.082564 0.996545 -0.009060 0 0
  phy
    2 1.276781 -1.241977 37.185506 -0.208073 0.819379 -0.534157 0 0
    2 0.370006 2.174475 36.918187 -0.231462 0.972844 -0.000694 0 0
    2 1.594494 -0.264552 20.604971 0.082564 0.996545 -0.009060 0 0
  phy
    2 1.273638 5.335576 36.467046 -0.079437 0.777202 0.624217 0 0
    2 5.436607 4.612311 20.746558 0.203365 -0.041166 0.978237 0 0
    2 2.935159 2.716638 20.437586 0.265183 0.760029 0.593324 0 0
  phy
    2 1.273638 5.335576 36.467046 -0.079437 0.777202 0.624217 0 0
    2 2.935159 2.716638 20.437586 0.265183 0.760029 0.593324 0 0
    2 1.594494 -0.264552 20.604971 0.082564 0.996545 -0.009060 0 0
  phy
    2 5.436607 4.612311 20.746558 0.203365 -0.041166 0.978237 0 0
    2 5.726733 -0.147542 19.923990 0.999428 0.018252 -0.028485 0 0
    2 2.935159 2.716638 20.437586 0.265183 0.760029 0.593324 0 0
  phy
    2 2.935159 2.716638 20.437586 0.265183 0.760029 0.593324 0 0
    2 5.726733 -0.147542 19.923990 0.999428 0.018252 -0.028485 0 0
    2 1.594494 -0.264552 20.604971 0.082564 0.996545 -0.009060 0 0
  phy
    2 1.276781 -1.241977 37.185506 -0.208073 0.819379 -0.534157 0 0
    2 2.847244 -2.726000 20.977455 0.117721 0.595788 -0.794468 0 0
    2 4.039305 -3.168826 37.349607 -0.148781 0.025366 -0.988545 0 0
  phy
    2 2.847244 -2.726000 20.977455 0.117721 0.595788 -0.794468 0 0
    2 1.276781 -1.241977 37.185506 -0.208073 0.819379 -0.534157 0 0
    2 1.594494 -0.264552 20.604971 0.082564 0.996545 -0.009060 0 0
  phy
    2 1.594494 -0.264552 20.604971 0.082564 0.996545 -0.009060 0 0
    2 5.726733 -0.147542 19.923990 0.999428 0.018252 -0.028485 0 0
    2 2.847244 -2.726000 20.977455 0.117721 0.595788 -0.794468 0 0
  phy
    2 1.276781 -1.241977 37.185506 -0.208073 0.819379 -0.534157 0 0
    2 4.039305 -3.168826 37.349607 -0.148781 0.025366 -0.988545 0 0
    2 3.682974 2.169653 38.513036 -0.999043 -0.033882 0.027660 0 0
  phy
    3 11.472758 0.872742 3.962106 0.129940 -0.983213 0.128096 0 0
    3 8.115958 0.801052 2.605663 0.999178 0.026631 -0.030560 0 0
    3 10.424523 3.377595 4.064016 0.256933 -0.707911 0.657912 0 0
  phy
    3 10.424523 3.377595 4.064016 0.256933 -0.707911 0.657912 0 0
    3 8.115958 0.801052 2.605663 0.999178 0.026631 -0.030560 0 0
    3 7.785592 4.826590 4.093696 0.197278 -0.031352 0.979846 0 0
  phy
    3 10.424523 3.377595 4.064016 0.256933 -0.707911 0.657912 0 0
    3 8.592858 3.054720 20.452150 -0.068691 -0.740075 0.669007 0 0
    3 11.472758 0.872742 3.962106 0.129940 -0.983213 0.128096 0 0
  phy
    3 10.424523 3.377595 4.064016 0.256933 -0.707911 0.657912 0 0
    3 7.785592 4.826590 4.093696 0.197278 -0.031352 0.979846 0 0
    3 8.592858 3.054720 20.452150 -0.068691 -0.740075 0.669007 0 0
  phy
    3 10.918862 -1.714897 3.833811 0.056076 -0.747218 -0.662209 0 0
    3 8.115958 0.801052 2.605663 0.999178 0.026631 -0.030560 0 0
    3 11.472758 0.872742 3.962106 0.129940 -0.983213 0.128096 0 0
  phy
    3 8.592858 3.054720 20.452150 -0.068691 -0.740075 0.669007 0 0
    3 9.235553 0.169333 20.443975 -0.167082 -0.981959 -0.088546 0 0
    3 11.472758 0.872742 3.962106 0.129940 -0.983213 0.128096 0 0
  phy
    3 11.472758 0.872742 3.962106 0.129940 -0.983213 0.128096 0 0
    3 9.235553 0.169333 20.443975 -0.167082 -0.981959 -0.088546 0 0
    3 10.918862 -1.714897 3.833811 0.056076 -0.747218 -0.662209 0 0
  phy
    3 8.592858 3.054720 20.452150 -0.068691 -0.740075 0.669007 0 0
    3 5.528141 4.358438 20.156445 -0.137394 -0.085265 0.986840 0 0
    3 5.412399 0.606649 21.473724 -0.998695 -0.034454 0.037699 0 0
  phy
    3 5.528141 4.358438 20.156445 -0.137394 -0.085265 0.986840 0 0
    3 2.809814 3.537529 19.882296 -0.026257 0.713165 0.700504 0 0
    3 5.412399 0.606649 21.473724 -0.998695 -0.034454 0.037699 0 0
  phy
    3 8.592858 3.054720 20.452150 -0.068691 -0.740075 0.669007 0 0
    3 7.785592 4.826590 4.093696 0.197278 -0.031352 0.979846 0 0
    3 5.528141 4.358438 20.156445 -0.137394 -0.085265 0.986840 0 0
  phy
    3 5.528141 4.358438 20.156445 -0.137394 -0.085265 0.986840 0 0
    3 7.785592 4.826590 4.093696 0.197278 -0.031352 0.979846 0 0
    3 2.809814 3.537529 19.882296 -0.026257 0.713165 0.700504 0 0
  phy
    3 8.308233 -2.792539 3.489917 0.168298 -0.024208 -0.985439 0 0
    3 8.115958 0.801052 2.605663 0.999178 0.026631 -0.030560 0 0
    3 10.918862 -1.714897 3.833811 0.056076 -0.747218 -0.662209 0 0
  phy
    3 5.288139 -1.889396 3.281296 0.108215 0.580812 -0.806813 0 0
    3 8.115958 0.801052 2.605663 0.999178 0.026631 -0.030560 0 0
    3 8.308233 -2.792539 3.489917 0.168298 -0.024208 -0.985439 0 0
  phy
    3 8.308233 -2.792539 3.489917 0.168298 -0.024208 -0.985439 0 0
    3 10.918862 -1.714897 3.833811 0.056076 -0.747218 -0.662209 0 0
    3 5.655923 -3.923130 19.574981 -0.177767 0.011844 -0.984001 0 0
  phy
    3 5.288139 -1.889396 3.281296 0.108215 0.580812 -0.806813 0 0
    3 8.308233 -2.792539 3.489917 0.168298 -0.024208 -0.985439 0 0
    3 5.655923 -3.923130 19.574981 -0.177767 0.011844 -0.984001 0 0
  phy
    3 8.382325 -2.576336 20.053386 -0.282435 -0.716033 -0.638378 0 0
    3 9.235553 0.169333 20.443975 -0.167082 -0.981959 -0.088546 0 0
    3 5.412399 0.606649 21.473724 -0.998695 -0.034454 0.037699 0 0
  phy
    3 5.655923 -3.923130 19.574981 -0.177767 0.011844 -0.984001 0 0
    3 8.382325 -2.576336 20.053386 -0.282435 -0.716033 -0.638378 0 0
    3 5.412399 0.606649 21.473724 -0.998695 -0.034454 0.037699 0 0
  phy
    3 10.918862 -1.714897 3.833811 0.056076 -0.747218 -0.662209 0 0
    3 9.235553 0.169333 20.443975 -0.167082 -0.981959 -0.088546 0 0
    3 8.382325 -2.576336 20.053386 -0.282435 -0.716033 -0.638378 0 0
  phy
    3 10.918862 -1.714897 3.833811 0.056076 -0.747218 -0.662209 0 0
    3 8.382325 -2.576336 20.053386 -0.282435 -0.716033 -0.638378 0 0
    3 5.655923 -3.923130 19.574981 -0.177767 0.011844 -0.984001 0 0
  phy
    3 9.235553 0.169333 20.443975 -0.167082 -0.981959 -0.088546 0 0
    3 8.592858 3.054720 20.452150 -0.068691 -0.740075 0.669007 0 0
    3 5.412399 0.606649 21.473724 -0.998695 -0.034454 0.037699 0 0
  phy
    3 2.809814 3.537529 19.882296 -0.026257 0.713165 0.700504 0 0
    3 1.772487 0.743817 19.873005 -0.195527 0.980630 0.011577 0 0
    3 5.412399 0.606649 21.473724 -0.998695 -0.034454 0.037699 0 0
  phy
    3 1.772487 0.743817 19.873005 -0.195527 0.980630 0.011577 0 0
    3 2.837975 -2.250548 19.663277 -0.185588 0.794870 -0.577701 0 0
    3 5.412399 0.606649 21.473724 -0.998695 -0.034454 0.037699 0 0
  phy
    3 1.772487 0.743817 19.873005 -0.195527 0.980630 0.011577 0 0
    3 2.809814 3.537529 19.882296 -0.026257 0.713165 0.700504 0 0
    3 3.988491 0.575711 3.296017 0.134770 0.990869 -0.003877 0 0
  phy
    3 2.837975 -2.250548 19.663277 -0.185588 0.794870 -0.577701 0 0
    3 1.772487 0.743817 19.873005 -0.195527 0.980630 0.011577 0 0
    3 3.988491 0.575711 3.296017 0.134770 0.990869 -0.003877 0 0
  phy
    3 2.809814 3.537529 19.882296 -0.026257 0.713165 0.700504 0 0
    3 7.785592 4.826590 4.093696 0.197278 -0.031352 0.979846 0 0
    3 5.293618 3.281600 3.547721 0.295649 0.710598 0.638468 0 0
  phy
    3 2.809814 3.537529 19.882296 -0.026257 0.713165 0.700504 0 0
    3 5.293618 3.281600 3.547721 0.295649 0.710598 0.638468 0 0
    3 3.988491 0.575711 3.296017 0.134770 0.990869 -0.003877 0 0
  phy
    3 7.785592 4.826590 4.093696 0.197278 -0.031352 0.979846 0 0
    3 8.115958 0.801052 2.605663 0.999178 0.026631 -0.030560 0 0
    3 5.293618 3.281600 3.547721 0.295649 0.710598 0.638468 0 0
  phy
    3 5.293618 3.281600 3.547721 0.295649 0.710598 0.638468 0 0
    3 8.115958 0.801052 2.605663 0.999178 0.026631 -0.030560 0 0
    3 3.988491 0.575711 3.296017 0.134770 0.990869 -0.003877 0 0
  phy
    3 2.837975 -2.250548 19.663277 -0.185588 0.794870 -0.577701 0 0
    3 5.288139 -1.889396 3.281296 0.108215 0.580812 -0.806813 0 0
    3 5.655923 -3.923130 19.574981 -0.177767 0.011844 -0.984001 0 0
  phy
    3 5.288139 -1.889396 3.281296 0.108215 0.580812 -0.806813 0 0
    3 2.837975 -2.250548 19.663277 -0.185588 0.794870 -0.577701 0 0
    3 3.988491 0.575711 3.296017 0.134770 0.990869 -0.003877 0 0
  phy
    3 3.988491 0.575711 3.296017 0.134770 0.990869 -0.003877 0 0
    3 8.115958 0.801052 2.605663 0.999178 0.026631 -0.030560 0 0
    3 5.288139 -1.889396 3.281296 0.108215 0.580812 -0.806813 0 0
  phy
    3 2.837975 -2.250548 19.663277 -0.185588 0.794870 -0.577701 0 0
    3 5.655923 -3.923130 19.574981 -0.177767 0.011844 -0.984001 0 0
    3 5.412399 0.606649 21.473724 -0.998695 -0.034454 0.037699 0 0
  phy
    4 5.856196 4.613642 3.388123 -0.589786 0.743877 -0.314323 0 0
    4 10.513249 4.790604 -0.072867 0.279217 -0.397405 0.874132 0 0
    4 6.027343 4.482555 -0.072866 0.202463 0.575885 0.792064 0 0
  phy
    4 10.513249 4.790604 -0.072867 0.279217 -0.397405 0.874132 0 0
    4 5.856196 4.613642 3.388123 -0.589786 0.743877 -0.314323 0 0
    4 9.619460 4.872067 3.388123 -0.526023 -0.331726 -0.783108 0 0
  phy
    4 5.856196 4.613642 3.388123 -0.589786 0.743877 -0.314323 0 0
    4 6.134814 -6.471046 1.713892 -0.275378 0.084334 -0.957630 0 0
    4 9.619460 4.872067 3.388123 -0.526023 -0.331726 -0.783108 0 0
  phy
    4 6.134814 -6.471046 1.713892 -0.275378 0.084334 -0.957630 0 0
    4 5.856196 4.613642 3.388123 -0.589786 0.743877 -0.314323 0 0
    4 5.372601 -7.763613 -0.072864 0.546149 0.449397 0.706940 0 0
  phy
    4 5.856196 4.613642 3.388123 -0.589786 0.743877 -0.314323 0 0
    4 6.027343 4.482555 -0.072866 0.202463 0.575885 0.792064 0 0
    4 5.372601 -7.763613 -0.072864 0.546149 0.449397 0.706940 0 0
  phy
    4 11.368309 -4.988103 1.713892 -0.310044 -0.609394 -0.729734 0 0
    4 11.984675 -6.186004 -0.072865 0.740841 -0.375910 0.556638 0 0
    4 10.513249 4.790604 -0.072867 0.279217 -0.397405 0.874132 0 0
  phy
    4 10.513249 4.790604 -0.072867 0.279217 -0.397405 0.874132 0 0
    4 9.619460 4.872067 3.388123 -0.526023 -0.331726 -0.783108 0 0
    4 11.368309 -4.988103 1.713892 -0.310044 -0.609394 -0.729734 0 0
  phy
    4 11.368309 -4.988103 1.713892 -0.310044 -0.609394 -0.729734 0 0
    4 6.134814 -6.471046 1.713892 -0.275378 0.084334 -0.957630 0 0
    4 11.984675 -6.186004 -0.072865 0.740841 -0.375910 0.556638 0 0
  phy
    4 6.134814 -6.471046 1.713892 -0.275378 0.084334 -0.957630 0 0
    4 11.368309 -4.988103 1.713892 -0.310044 -0.609394 -0.729734 0 0
    4 9.619460 4.872067 3.388123 -0.526023 -0.331726 -0.783108 0 0
  phy
    4 11.984675 -6.186004 -0.072865 0.740841 -0.375910 0.556638 0 0
    4 6.134814 -6.471046 1.713892 -0.275378 0.084334 -0.957630 0 0
    4 5.372601 -7.763613 -0.072864 0.546149 0.449397 0.706940 0 0
  phy
    4 10.513249 4.790604 -0.072867 0.279217 -0.397405 0.874132 0 0
    4 5.372601 -7.763613 -0.072864 0.546149 0.449397 0.706940 0 0
    4 6.027343 4.482555 -0.072866 0.202463 0.575885 0.792064 0 0
  phy
    4 11.984675 -6.186004 -0.072865 0.740841 -0.375910 0.556638 0 0
    4 5.372601 -7.763613 -0.072864 0.546149 0.449397 0.706940 0 0
    4 10.513249 4.790604 -0.072867 0.279217 -0.397405 0.874132 0 0
  phy
    31 -20.973011 -4.724411 40.918604 -0.616684 -0.326661 -0.716236 0 0
    31 -19.814499 -13.969062 38.498146 -0.066403 0.527849 -0.846738 0 0
    31 -20.627368 -10.541256 34.680796 -0.084294 -0.801214 -0.592410 0 0
  phy
    31 -19.814499 -13.969062 38.498146 -0.066403 0.527849 -0.846738 0 0
    31 -20.973011 -4.724411 40.918604 -0.616684 -0.326661 -0.716236 0 0
    31 -20.413754 -7.083527 43.543562 -0.591996 0.538711 -0.599443 0 0
  phy
    31 -23.443042 -6.862289 44.404027 0.041718 0.601137 0.798056 0 0
    31 -20.973011 -4.724411 40.918604 -0.616684 -0.326661 -0.716236 0 0
    31 -24.002299 -4.503172 41.779068 -0.014707 -0.826142 0.563270 0 0
  phy
    31 -20.973011 -4.724411 40.918604 -0.616684 -0.326661 -0.716236 0 0
    31 -23.443042 -6.862289 44.404027 0.041718 0.601137 0.798056 0 0
    31 -20.413754 -7.083527 43.543562 -0.591996 0.538711 -0.599443 0 0
  phy
    31 -20.627368 -10.541256 34.680796 -0.084294 -0.801214 -0.592410 0 0
    31 -24.002299 -4.503172 41.779068 -0.014707 -0.826142 0.563270 0 0
    31 -20.973011 -4.724411 40.918604 -0.616684 -0.326661 -0.716236 0 0
  phy
    31 -19.814499 -13.969062 38.498146 -0.066403 0.527849 -0.846738 0 0
    31 -23.443042 -6.862289 44.404027 0.041718 0.601137 0.798056 0 0
    31 -23.294246 -15.342955 38.035424 0.493574 0.619669 0.610241 0 0
  phy
    31 -23.443042 -6.862289 44.404027 0.041718 0.601137 0.798056 0 0
    31 -19.814499 -13.969062 38.498146 -0.066403 0.527849 -0.846738 0 0
    31 -20.413754 -7.083527 43.543562 -0.591996 0.538711 -0.599443 0 0
  phy
    31 -19.814499 -13.969062 38.498146 -0.066403 0.527849 -0.846738 0 0
    31 -24.107231 -11.915199 34.218055 0.643926 -0.359260 0.675493 0 0
    31 -20.627368 -10.541256 34.680796 -0.084294 -0.801214 -0.592410 0 0
  phy
    31 -23.294246 -15.342955 38.035424 0.493574 0.619669 0.610241 0 0
    31 -24.107231 -11.915199 34.218055 0.643926 -0.359260 0.675493 0 0
    31 -19.814499 -13.969062 38.498146 -0.066403 0.527849 -0.846738 0 0
  phy
    31 -24.002299 -4.503172 41.779068 -0.014707 -0.826142 0.563270 0 0
    31 -24.107231 -11.915199 34.218055 0.643926 -0.359260 0.675493 0 0
    31 -23.443042 -6.862289 44.404027 0.041718 0.601137 0.798056 0 0
  phy
    31 -23.443042 -6.862289 44.404027 0.041718 0.601137 0.798056 0 0
    31 -24.107231 -11.915199 34.218055 0.643926 -0.359260 0.675493 0 0
    31 -23.294246 -15.342955 38.035424 0.493574 0.619669 0.610241 0 0
  phy
    31 -20.627368 -10.541256 34.680796 -0.084294 -0.801214 -0.592410 0 0
    31 -24.107231 -11.915199 34.218055 0.643926 -0.359260 0.675493 0 0
    31 -24.002299 -4.503172 41.779068 -0.014707 -0.826142 0.563270 0 0
end
